# Wavefront MTL file
# Creator: Ultimate Unwrap3D Pro v3.22
# URL: http://www.unwrap3d.com
# Time: Fri Jul 09 22:19:55 2010
# num_materials: 1

newmtl cavelarge
Ka 1.000000 1.000000 1.000000
Kd 1.000000 1.000000 1.000000
Ks 1.000000 1.000000 1.000000
d 1.000000
illum 2
Ns 1.000000
map_Kd cavelarge.jpg

# num_materials: 1
