# Wavefront OBJ file
# Creator: Ultimate Unwrap3D Pro v3.22
# Website: http://www.unwrap3d.com
# Time: Fri Jul 09 22:32:07 2010
# num_vertices: 130
# num_vertex_normals: 130
# num_uvs: 500
# num_faces: 122
# num_groups: 1

mtllib stalag2.mtl

v -1.861099 0.000000 7.772045
v -2.223598 0.000000 8.035385
v -2.671598 0.000000 8.035385
v -3.034098 0.000000 7.772045
v -3.172499 0.000000 7.345945
v -3.034098 0.000000 6.919855
v -2.671598 0.000000 6.656515
v -2.223598 0.000000 6.656515
v -1.861099 0.000000 6.919855
v -1.722698 0.000000 7.345945
v 2.305502 15.913410 5.262235
v 0.880602 15.913410 6.297455
v -0.880598 15.913410 6.297455
v -2.305498 15.913410 5.262235
v -2.849699 15.913410 3.587205
v -2.305498 15.913410 1.912171
v -0.880598 15.913410 0.876944
v 0.880602 15.913410 0.876944
v 2.305502 15.913410 1.912170
v 2.849802 15.913410 3.587205
v 4.828102 29.888710 3.536915
v 2.617201 29.888710 5.143235
v -0.115698 29.888710 5.143235
v -2.326599 29.888710 3.536915
v -3.171099 29.888710 0.937825
v -2.326599 29.888710 -1.661265
v -0.115698 29.888710 -3.267585
v 2.617201 29.888710 -3.267585
v 4.828102 29.888710 -1.661265
v 5.672602 29.888710 0.937825
v 3.669601 44.774811 3.603955
v 1.401701 44.774811 5.251715
v -1.401699 44.774811 5.251715
v -3.669598 44.774811 3.603965
v -4.535898 44.774811 0.937825
v -3.669598 44.774811 -1.728315
v -1.401699 44.774811 -3.376065
v 1.401701 44.774811 -3.376065
v 3.669601 44.774811 -1.728315
v 4.535902 44.774811 0.937825
v 1.276001 63.524811 4.237085
v -0.311699 63.524811 5.390655
v -2.274298 63.524811 5.390655
v -3.862099 63.524811 4.237085
v -4.468498 63.524811 2.370575
v -3.862099 63.524811 0.504060
v -2.274298 63.524811 -0.649505
v -0.311699 63.524811 -0.649505
v 1.276001 63.524811 0.504060
v 1.882402 63.524811 2.370575
v 4.303902 75.414612 3.917895
v 2.430401 75.414612 5.279145
v 0.114502 75.414612 5.279145
v -1.759199 75.414612 3.917895
v -2.474798 75.414612 1.715340
v -1.759199 75.414612 -0.487215
v 0.114502 75.414612 -1.848465
v 2.430401 75.414612 -1.848465
v 4.303902 75.414612 -0.487215
v 5.019602 75.414612 1.715340
v 5.761101 96.149811 2.537025
v 2.945002 96.149811 4.583045
v -0.535898 96.149811 4.583045
v -3.352098 96.149811 2.537025
v -4.427698 96.149811 -0.773515
v -3.352098 96.149811 -4.084055
v -0.535898 96.149811 -6.130075
v 2.945002 96.149811 -6.130075
v 5.761101 96.149811 -4.084055
v 6.836702 96.149811 -0.773515
v 6.508602 116.885208 4.344725
v 2.486101 116.885208 7.267275
v -2.485998 116.885208 7.267275
v -6.508598 116.885208 4.344725
v -8.045099 116.885208 -0.384055
v -6.508598 116.885208 -5.112835
v -2.485998 116.885208 -8.035385
v 2.486101 116.885208 -8.035385
v 6.508602 116.885208 -5.112835
v 8.045101 116.885208 -0.384055
v 6.191902 107.293213 3.934665
v 7.656601 107.313210 -0.563665
v 6.196701 107.332207 -5.065415
v 2.367502 107.344208 -7.849395
v -2.367399 107.344208 -7.849395
v -6.196598 107.332207 -5.065415
v -7.656498 107.313210 -0.563655
v -6.191898 107.293213 3.934675
v -2.364498 107.282211 6.713085
v 2.364601 107.282211 6.713085
v 1.342302 65.641006 4.543975
v 1.964001 65.629013 2.627795
v 1.341602 65.616913 0.712136
v -0.286798 65.609314 -0.471535
v -2.299299 65.609314 -0.471535
v -3.927698 65.616913 0.712136
v -4.550098 65.629013 2.627795
v -3.928398 65.641006 4.543975
v -2.299698 65.648407 5.728515
v -0.286299 65.648407 5.728515
v 5.368601 84.979507 3.897745
v 6.383802 84.984108 0.772422
v 5.368202 84.988808 -2.352595
v 2.709902 84.991707 -4.283795
v -0.575699 84.991707 -4.283795
v -3.233999 84.988808 -2.352595
v -4.249598 84.984108 0.772422
v -3.234398 84.979507 3.897745
v -0.575998 84.976608 5.829465
v 2.710201 84.976608 5.829465
v 4.975401 37.350010 3.636185
v 5.852102 37.350010 0.937825
v 4.975401 37.350010 -1.760545
v 2.680002 37.350010 -3.428215
v -0.157198 37.350010 -3.428215
v -2.452599 37.350010 -1.760545
v -3.329298 37.350010 0.937825
v -2.452599 37.350010 3.636195
v -0.157198 37.350010 5.303865
v 2.680002 37.350010 5.303865
v 3.892601 53.195709 4.897615
v 4.748802 53.196911 2.262345
v 3.892601 53.198212 -0.372925
v 1.651001 53.199009 -2.001605
v -1.119799 53.199009 -2.001605
v -3.361399 53.198212 -0.372925
v -4.217598 53.196911 2.262345
v -3.361399 53.195709 4.897615
v -1.119799 53.194912 6.526305
v 1.651001 53.194912 6.526305
# num_vertices: 130

vn 0.677005 -0.544549 0.495106
vn 0.278905 -0.435640 0.855821
vn -0.286849 -0.364824 0.885788
vn -0.751743 -0.371676 0.544739
vn -0.891906 -0.452221 -0.000409
vn -0.671008 -0.562085 -0.483538
vn -0.238754 -0.651334 -0.720250
vn 0.220204 -0.695919 -0.683525
vn 0.585464 -0.691980 -0.422369
vn 0.768727 -0.639560 0.004609
vn 0.804004 -0.095210 0.586952
vn 0.309423 0.041697 0.950010
vn -0.306345 0.116171 0.944805
vn -0.805539 0.099866 0.584067
vn -0.999999 -0.001377 -0.000021
vn -0.802172 -0.147253 -0.578651
vn -0.301297 -0.275731 -0.912794
vn 0.289082 -0.340744 -0.894609
vn 0.766307 -0.326599 -0.553269
vn 0.971660 -0.236336 0.004610
vn 0.807644 -0.048368 0.587683
vn 0.309262 0.008474 0.950939
vn -0.308696 0.036491 0.950460
vn -0.808970 0.024829 0.587325
vn -0.999757 -0.022055 0.000207
vn -0.806903 -0.085498 -0.584463
vn -0.307550 -0.140122 -0.941158
vn 0.304379 -0.166125 -0.937953
vn 0.799933 -0.155408 -0.579617
vn 0.993803 -0.111141 0.001730
vn 0.808851 0.016314 0.587787
vn 0.308376 -0.046225 0.950141
vn -0.307933 -0.088785 0.947256
vn -0.805270 -0.094734 0.585291
vn -0.998089 -0.061785 0.000284
vn -0.809029 -0.002905 -0.587761
vn -0.308271 0.059620 -0.949428
vn 0.307470 0.102150 -0.946059
vn 0.804179 0.108098 -0.584474
vn 0.997170 0.075177 -0.000189
vn 0.807032 0.063987 0.587030
vn 0.308211 0.003820 0.951310
vn -0.309447 -0.042080 0.949985
vn -0.808063 -0.055816 0.586446
vn -0.999504 -0.031477 -0.000242
vn -0.808952 0.021858 -0.587467
vn -0.308668 0.083344 -0.947511
vn 0.305482 0.128795 -0.943447
vn 0.800541 0.140958 -0.582464
vn 0.993241 0.116073 -0.000042
vn 0.798840 -0.145412 0.583703
vn 0.308048 -0.052771 0.949906
vn -0.307855 0.021042 0.951201
vn -0.807833 0.045698 0.587637
vn -0.999917 0.012880 -0.000770
vn -0.806934 -0.064562 -0.587103
vn -0.306016 -0.157307 -0.938940
vn 0.299637 -0.228346 -0.926324
vn 0.783402 -0.251276 -0.568456
vn 0.975478 -0.220082 0.002621
vn 0.809019 -0.030800 0.586975
vn 0.309893 -0.032503 0.950216
vn -0.307620 -0.060936 0.949556
vn -0.804381 -0.105106 0.584743
vn -0.988905 -0.148549 -0.000181
vn -0.796325 -0.174789 -0.579064
vn -0.303743 -0.173590 -0.936807
vn 0.306475 -0.145346 -0.940717
vn 0.805304 -0.100794 -0.584231
vn 0.998379 -0.056924 0.000139
vn 0.730726 0.428786 0.531209
vn 0.279819 0.423733 0.861482
vn -0.279820 0.423679 0.861509
vn -0.730779 0.428651 0.531244
vn -0.899613 0.436687 0.000315
vn -0.724782 0.444699 -0.526246
vn -0.276117 0.449654 -0.849453
vn 0.276109 0.449707 -0.849427
vn 0.724725 0.444840 -0.526204
vn 0.899529 0.436861 0.000325
vn 0.806698 -0.078074 0.585784
vn 0.998381 -0.056885 0.000116
vn 0.807949 -0.056056 -0.586580
vn 0.308744 -0.075771 -0.948122
vn -0.306341 -0.108066 -0.945768
vn -0.800574 -0.140356 -0.582564
vn -0.987004 -0.160695 -0.000063
vn -0.797928 -0.161848 0.580617
vn -0.304822 -0.143184 0.941585
vn 0.307842 -0.111216 0.944915
vn 0.798001 -0.156072 0.582097
vn 0.985465 -0.169871 0.001755
vn 0.801371 -0.136619 -0.582357
vn 0.306648 -0.068739 -0.949338
vn -0.309872 0.010290 -0.950723
vn -0.806346 0.069539 -0.587342
vn -0.996366 0.085158 -0.001825
vn -0.808205 0.052106 0.586591
vn -0.308312 -0.017497 0.951124
vn 0.307282 -0.097792 0.946580
vn 0.808798 -0.022737 0.587646
vn 0.995862 -0.090879 0.000856
vn 0.799441 -0.159592 -0.579158
vn 0.303323 -0.202694 -0.931080
vn -0.302881 -0.205188 -0.930678
vn -0.798452 -0.166302 -0.578635
vn -0.995035 -0.099520 0.000892
vn -0.808528 -0.029986 0.587694
vn -0.308945 0.014968 0.950962
vn 0.309189 0.017791 0.950834
vn 0.807168 0.059941 0.587271
vn 0.997131 0.075697 0.000000
vn 0.807167 0.059941 -0.587272
vn 0.308526 0.018272 -0.951040
vn -0.308513 -0.033568 -0.950628
vn -0.806366 -0.075282 -0.586605
vn -0.995845 -0.091066 0.000000
vn -0.806367 -0.075282 0.586605
vn -0.308513 -0.033568 0.950628
vn 0.308526 0.018273 0.951040
vn 0.807087 0.063462 0.587013
vn 0.992433 0.122787 -0.000005
vn 0.798314 0.160625 -0.580427
vn 0.304337 0.162210 -0.938652
vn -0.307270 0.126487 -0.943179
vn -0.807604 0.067019 -0.585905
vn -0.999978 0.006679 0.000265
vn -0.808876 -0.031050 0.587158
vn -0.309780 -0.031549 0.950285
vn 0.308075 0.004738 0.951350
# num_vertex_normals: 130

vt 0.858139 0.076329
vt 0.858139 0.130203
vt 0.805445 0.130203
vt 0.805445 0.076329
vt 0.805445 0.076329
vt 0.805445 0.130203
vt 0.754399 0.130203
vt 0.754399 0.076329
vt 0.754399 0.076329
vt 0.754399 0.130203
vt 0.701706 0.130203
vt 0.701706 0.076329
vt 0.701706 0.076329
vt 0.701706 0.130203
vt 0.646149 0.130203
vt 0.646149 0.076329
vt 0.646149 0.076329
vt 0.646149 0.130203
vt 0.590592 0.130203
vt 0.590592 0.076329
vt 0.590592 0.076329
vt 0.590592 0.130203
vt 0.537900 0.130203
vt 0.537900 0.076329
vt 0.537900 0.076329
vt 0.537900 0.130203
vt 0.486852 0.130203
vt 0.486852 0.076329
vt 0.486852 0.076329
vt 0.486852 0.130203
vt 0.434159 0.130203
vt 0.434159 0.076329
vt 0.969252 0.076329
vt 0.969252 0.130203
vt 0.913696 0.130203
vt 0.913696 0.076329
vt 0.913696 0.076329
vt 0.913696 0.130203
vt 0.858139 0.130203
vt 0.858139 0.076329
vt 0.858139 0.130203
vt 0.858139 0.184076
vt 0.805445 0.184076
vt 0.805445 0.130203
vt 0.805445 0.130203
vt 0.805445 0.184076
vt 0.754399 0.184076
vt 0.754399 0.130203
vt 0.754399 0.130203
vt 0.754399 0.184076
vt 0.701706 0.184076
vt 0.701706 0.130203
vt 0.701706 0.130203
vt 0.701706 0.184076
vt 0.646149 0.184076
vt 0.646149 0.130203
vt 0.646149 0.130203
vt 0.646149 0.184076
vt 0.590592 0.184076
vt 0.590592 0.130203
vt 0.590592 0.130203
vt 0.590592 0.184076
vt 0.537900 0.184076
vt 0.537900 0.130203
vt 0.537900 0.130203
vt 0.537900 0.184076
vt 0.486852 0.184076
vt 0.486852 0.130203
vt 0.486852 0.130203
vt 0.486852 0.184076
vt 0.434159 0.184076
vt 0.434159 0.130203
vt 0.969252 0.130203
vt 0.969252 0.184076
vt 0.913696 0.184076
vt 0.913696 0.130203
vt 0.913696 0.130203
vt 0.913696 0.184076
vt 0.858139 0.184076
vt 0.858139 0.130203
vt 0.913696 0.531887
vt 0.969252 0.531887
vt 0.486852 0.531887
vt 0.537900 0.531887
vt 0.590592 0.531887
vt 0.646149 0.531887
vt 0.701706 0.531887
vt 0.754399 0.531887
vt 0.805445 0.531887
vt 0.858139 0.531887
vt 0.858139 0.076329
vt 0.805445 0.076329
vt 0.754399 0.076329
vt 0.701706 0.076329
vt 0.646149 0.076329
vt 0.590592 0.076329
vt 0.537900 0.076329
vt 0.486852 0.076329
vt 0.969252 0.076329
vt 0.913696 0.076329
vt 0.858139 0.464317
vt 0.858139 0.499295
vt 0.805445 0.499260
vt 0.805445 0.464317
vt 0.858139 0.499295
vt 0.858139 0.531887
vt 0.805445 0.531887
vt 0.805445 0.499260
vt 0.805445 0.464317
vt 0.805445 0.499260
vt 0.754399 0.499260
vt 0.754399 0.464317
vt 0.805445 0.499260
vt 0.805445 0.531887
vt 0.754399 0.531887
vt 0.754399 0.499260
vt 0.754399 0.464317
vt 0.754399 0.499260
vt 0.701706 0.499295
vt 0.701706 0.464317
vt 0.754399 0.499260
vt 0.754399 0.531887
vt 0.701706 0.531887
vt 0.701706 0.499295
vt 0.701706 0.464317
vt 0.701706 0.499295
vt 0.646149 0.499353
vt 0.646149 0.464317
vt 0.701706 0.499295
vt 0.701706 0.531887
vt 0.646149 0.531887
vt 0.646149 0.499353
vt 0.646149 0.464317
vt 0.646149 0.499353
vt 0.590592 0.499411
vt 0.590592 0.464317
vt 0.646149 0.499353
vt 0.646149 0.531887
vt 0.590592 0.531887
vt 0.590592 0.499411
vt 0.590592 0.464317
vt 0.590592 0.499411
vt 0.537900 0.499447
vt 0.537900 0.464317
vt 0.590592 0.499411
vt 0.590592 0.531887
vt 0.537900 0.531887
vt 0.537900 0.499447
vt 0.537900 0.464317
vt 0.537900 0.499447
vt 0.486852 0.499447
vt 0.486852 0.464317
vt 0.537900 0.499447
vt 0.537900 0.531887
vt 0.486852 0.531887
vt 0.486852 0.499447
vt 0.486852 0.464317
vt 0.486852 0.499447
vt 0.434159 0.499411
vt 0.434159 0.464317
vt 0.486852 0.499447
vt 0.486852 0.531887
vt 0.434159 0.531887
vt 0.434159 0.499411
vt 0.969252 0.464317
vt 0.969252 0.499411
vt 0.913696 0.499353
vt 0.913696 0.464317
vt 0.969252 0.499411
vt 0.969252 0.531887
vt 0.913696 0.531887
vt 0.913696 0.499353
vt 0.913696 0.464317
vt 0.913696 0.499353
vt 0.858139 0.499295
vt 0.858139 0.464317
vt 0.913696 0.499353
vt 0.913696 0.531887
vt 0.858139 0.531887
vt 0.858139 0.499295
vt 0.858139 0.326687
vt 0.858139 0.357818
vt 0.805445 0.357891
vt 0.805445 0.326687
vt 0.858139 0.357818
vt 0.858139 0.388031
vt 0.805445 0.388031
vt 0.805445 0.357891
vt 0.805445 0.326687
vt 0.805445 0.357891
vt 0.754399 0.357891
vt 0.754399 0.326687
vt 0.805445 0.357891
vt 0.805445 0.388031
vt 0.754399 0.388031
vt 0.754399 0.357891
vt 0.754399 0.326687
vt 0.754399 0.357891
vt 0.701706 0.357818
vt 0.701706 0.326687
vt 0.754399 0.357891
vt 0.754399 0.388031
vt 0.701706 0.388031
vt 0.701706 0.357818
vt 0.701706 0.326687
vt 0.701706 0.357818
vt 0.646149 0.357698
vt 0.646149 0.326687
vt 0.701706 0.357818
vt 0.701706 0.388031
vt 0.646149 0.388031
vt 0.646149 0.357698
vt 0.646149 0.326687
vt 0.646149 0.357698
vt 0.590592 0.357576
vt 0.590592 0.326687
vt 0.646149 0.357698
vt 0.646149 0.388031
vt 0.590592 0.388031
vt 0.590592 0.357576
vt 0.590592 0.326687
vt 0.590592 0.357576
vt 0.537900 0.357501
vt 0.537900 0.326687
vt 0.590592 0.357576
vt 0.590592 0.388031
vt 0.537900 0.388031
vt 0.537900 0.357501
vt 0.537900 0.326687
vt 0.537900 0.357501
vt 0.486852 0.357501
vt 0.486852 0.326687
vt 0.537900 0.357501
vt 0.537900 0.388031
vt 0.486852 0.388031
vt 0.486852 0.357501
vt 0.486852 0.326687
vt 0.486852 0.357501
vt 0.434159 0.357576
vt 0.434159 0.326687
vt 0.486852 0.357501
vt 0.486852 0.388031
vt 0.434159 0.388031
vt 0.434159 0.357576
vt 0.969252 0.326687
vt 0.969252 0.357576
vt 0.913696 0.357698
vt 0.913696 0.326687
vt 0.969252 0.357576
vt 0.969252 0.388031
vt 0.913696 0.388031
vt 0.913696 0.357698
vt 0.913696 0.326687
vt 0.913696 0.357698
vt 0.858139 0.357818
vt 0.858139 0.326687
vt 0.913696 0.357698
vt 0.913696 0.388031
vt 0.858139 0.388031
vt 0.858139 0.357818
vt 0.858139 0.388031
vt 0.858139 0.421891
vt 0.805445 0.421880
vt 0.805445 0.388031
vt 0.858139 0.421891
vt 0.858139 0.464317
vt 0.805445 0.464317
vt 0.805445 0.421880
vt 0.805445 0.388031
vt 0.805445 0.421880
vt 0.754399 0.421880
vt 0.754399 0.388031
vt 0.805445 0.421880
vt 0.805445 0.464317
vt 0.754399 0.464317
vt 0.754399 0.421880
vt 0.754399 0.388031
vt 0.754399 0.421880
vt 0.701706 0.421891
vt 0.701706 0.388031
vt 0.754399 0.421880
vt 0.754399 0.464317
vt 0.701706 0.464317
vt 0.701706 0.421891
vt 0.701706 0.388031
vt 0.701706 0.421891
vt 0.646149 0.421909
vt 0.646149 0.388031
vt 0.701706 0.421891
vt 0.701706 0.464317
vt 0.646149 0.464317
vt 0.646149 0.421909
vt 0.646149 0.388031
vt 0.646149 0.421909
vt 0.590592 0.421926
vt 0.590592 0.388031
vt 0.646149 0.421909
vt 0.646149 0.464317
vt 0.590592 0.464317
vt 0.590592 0.421926
vt 0.590592 0.388031
vt 0.590592 0.421926
vt 0.537900 0.421937
vt 0.537900 0.388031
vt 0.590592 0.421926
vt 0.590592 0.464317
vt 0.537900 0.464317
vt 0.537900 0.421937
vt 0.537900 0.388031
vt 0.537900 0.421937
vt 0.486852 0.421937
vt 0.486852 0.388031
vt 0.537900 0.421937
vt 0.537900 0.464317
vt 0.486852 0.464317
vt 0.486852 0.421937
vt 0.486852 0.388031
vt 0.486852 0.421937
vt 0.434159 0.421926
vt 0.434159 0.388031
vt 0.486852 0.421937
vt 0.486852 0.464317
vt 0.434159 0.464317
vt 0.434159 0.421926
vt 0.969252 0.388031
vt 0.969252 0.421926
vt 0.913696 0.421909
vt 0.913696 0.388031
vt 0.969252 0.421926
vt 0.969252 0.464317
vt 0.913696 0.464317
vt 0.913696 0.421909
vt 0.913696 0.388031
vt 0.913696 0.421909
vt 0.858139 0.421891
vt 0.858139 0.388031
vt 0.913696 0.421909
vt 0.913696 0.464317
vt 0.858139 0.464317
vt 0.858139 0.421891
vt 0.858139 0.184076
vt 0.858139 0.220652
vt 0.805445 0.220652
vt 0.805445 0.184076
vt 0.858139 0.220652
vt 0.858139 0.246666
vt 0.805445 0.246666
vt 0.805445 0.220652
vt 0.805445 0.184076
vt 0.805445 0.220652
vt 0.754399 0.220652
vt 0.754399 0.184076
vt 0.805445 0.220652
vt 0.805445 0.246666
vt 0.754399 0.246666
vt 0.754399 0.220652
vt 0.754399 0.184076
vt 0.754399 0.220652
vt 0.701706 0.220652
vt 0.701706 0.184076
vt 0.754399 0.220652
vt 0.754399 0.246666
vt 0.701706 0.246666
vt 0.701706 0.220652
vt 0.701706 0.184076
vt 0.701706 0.220652
vt 0.646149 0.220652
vt 0.646149 0.184076
vt 0.701706 0.220652
vt 0.701706 0.246666
vt 0.646149 0.246666
vt 0.646149 0.220652
vt 0.646149 0.184076
vt 0.646149 0.220652
vt 0.590592 0.220652
vt 0.590592 0.184076
vt 0.646149 0.220652
vt 0.646149 0.246666
vt 0.590592 0.246666
vt 0.590592 0.220652
vt 0.590592 0.184076
vt 0.590592 0.220652
vt 0.537900 0.220652
vt 0.537900 0.184076
vt 0.590592 0.220652
vt 0.590592 0.246666
vt 0.537900 0.246666
vt 0.537900 0.220652
vt 0.537900 0.184076
vt 0.537900 0.220652
vt 0.486852 0.220652
vt 0.486852 0.184076
vt 0.537900 0.220652
vt 0.537900 0.246666
vt 0.486852 0.246666
vt 0.486852 0.220652
vt 0.486852 0.184076
vt 0.486852 0.220652
vt 0.434159 0.220652
vt 0.434159 0.184076
vt 0.486852 0.220652
vt 0.486852 0.246666
vt 0.434159 0.246666
vt 0.434159 0.220652
vt 0.969252 0.184076
vt 0.969252 0.220652
vt 0.913696 0.220652
vt 0.913696 0.184076
vt 0.969252 0.220652
vt 0.969252 0.246666
vt 0.913696 0.246666
vt 0.913696 0.220652
vt 0.913696 0.184076
vt 0.913696 0.220652
vt 0.858139 0.220652
vt 0.858139 0.184076
vt 0.913696 0.220652
vt 0.913696 0.246666
vt 0.858139 0.246666
vt 0.858139 0.220652
vt 0.858139 0.246666
vt 0.858139 0.287642
vt 0.805445 0.287638
vt 0.805445 0.246666
vt 0.858139 0.287642
vt 0.858139 0.326687
vt 0.805445 0.326687
vt 0.805445 0.287638
vt 0.805445 0.246666
vt 0.805445 0.287638
vt 0.754399 0.287638
vt 0.754399 0.246666
vt 0.805445 0.287638
vt 0.805445 0.326687
vt 0.754399 0.326687
vt 0.754399 0.287638
vt 0.754399 0.246666
vt 0.754399 0.287638
vt 0.701706 0.287642
vt 0.701706 0.246666
vt 0.754399 0.287638
vt 0.754399 0.326687
vt 0.701706 0.326687
vt 0.701706 0.287642
vt 0.701706 0.246666
vt 0.701706 0.287642
vt 0.646149 0.287648
vt 0.646149 0.246666
vt 0.701706 0.287642
vt 0.701706 0.326687
vt 0.646149 0.326687
vt 0.646149 0.287648
vt 0.646149 0.246666
vt 0.646149 0.287648
vt 0.590592 0.287655
vt 0.590592 0.246666
vt 0.646149 0.287648
vt 0.646149 0.326687
vt 0.590592 0.326687
vt 0.590592 0.287655
vt 0.590592 0.246666
vt 0.590592 0.287655
vt 0.537900 0.287659
vt 0.537900 0.246666
vt 0.590592 0.287655
vt 0.590592 0.326687
vt 0.537900 0.326687
vt 0.537900 0.287659
vt 0.537900 0.246666
vt 0.537900 0.287659
vt 0.486852 0.287659
vt 0.486852 0.246666
vt 0.537900 0.287659
vt 0.537900 0.326687
vt 0.486852 0.326687
vt 0.486852 0.287659
vt 0.486852 0.246666
vt 0.486852 0.287659
vt 0.434159 0.287655
vt 0.434159 0.246666
vt 0.486852 0.287659
vt 0.486852 0.326687
vt 0.434159 0.326687
vt 0.434159 0.287655
vt 0.969252 0.246666
vt 0.969252 0.287655
vt 0.913696 0.287648
vt 0.913696 0.246666
vt 0.969252 0.287655
vt 0.969252 0.326687
vt 0.913696 0.326687
vt 0.913696 0.287648
vt 0.913696 0.246666
vt 0.913696 0.287648
vt 0.858139 0.287642
vt 0.858139 0.246666
vt 0.913696 0.287648
vt 0.913696 0.326687
vt 0.858139 0.326687
vt 0.858139 0.287642
# num_uvs: 500

g stalag1
s 1

usemtl cavelarge
f 1/1/1 11/2/11 12/3/12 2/4/2 
f 2/5/2 12/6/12 13/7/13 3/8/3 
f 3/9/3 13/10/13 14/11/14 4/12/4 
f 4/13/4 14/14/14 15/15/15 5/16/5 
f 5/17/5 15/18/15 16/19/16 6/20/6 
f 6/21/6 16/22/16 17/23/17 7/24/7 
f 7/25/7 17/26/17 18/27/18 8/28/8 
f 8/29/8 18/30/18 19/31/19 9/32/9 
f 9/33/9 19/34/19 20/35/20 10/36/10 
f 10/37/10 20/38/20 11/39/11 1/40/1 
f 11/41/11 21/42/21 22/43/22 12/44/12 
f 12/45/12 22/46/22 23/47/23 13/48/13 
f 13/49/13 23/50/23 24/51/24 14/52/14 
f 14/53/14 24/54/24 25/55/25 15/56/15 
f 15/57/15 25/58/25 26/59/26 16/60/16 
f 16/61/16 26/62/26 27/63/27 17/64/17 
f 17/65/17 27/66/27 28/67/28 18/68/18 
f 18/69/18 28/70/28 29/71/29 19/72/19 
f 19/73/19 29/74/29 30/75/30 20/76/20 
f 20/77/20 30/78/30 21/79/21 11/80/11 
f 80/81/80 79/82/79 78/83/78 77/84/77 76/85/76 75/86/75 74/87/74 73/88/73 72/89/72 71/90/71 
f 1/91/1 2/92/2 3/93/3 4/94/4 5/95/5 6/96/6 7/97/7 8/98/8 9/99/9 10/100/10 
f 61/101/61 81/102/81 90/103/90 62/104/62 
f 81/105/81 71/106/71 72/107/72 90/108/90 
f 62/109/62 90/110/90 89/111/89 63/112/63 
f 90/113/90 72/114/72 73/115/73 89/116/89 
f 63/117/63 89/118/89 88/119/88 64/120/64 
f 89/121/89 73/122/73 74/123/74 88/124/88 
f 64/125/64 88/126/88 87/127/87 65/128/65 
f 88/129/88 74/130/74 75/131/75 87/132/87 
f 65/133/65 87/134/87 86/135/86 66/136/66 
f 87/137/87 75/138/75 76/139/76 86/140/86 
f 66/141/66 86/142/86 85/143/85 67/144/67 
f 86/145/86 76/146/76 77/147/77 85/148/85 
f 67/149/67 85/150/85 84/151/84 68/152/68 
f 85/153/85 77/154/77 78/155/78 84/156/84 
f 68/157/68 84/158/84 83/159/83 69/160/69 
f 84/161/84 78/162/78 79/163/79 83/164/83 
f 69/165/69 83/166/83 82/167/82 70/168/70 
f 83/169/83 79/170/79 80/171/80 82/172/82 
f 70/173/70 82/174/82 81/175/81 61/176/61 
f 82/177/82 80/178/80 71/179/71 81/180/81 
f 41/181/41 91/182/91 100/183/100 42/184/42 
f 91/185/91 51/186/51 52/187/52 100/188/100 
f 42/189/42 100/190/100 99/191/99 43/192/43 
f 100/193/100 52/194/52 53/195/53 99/196/99 
f 43/197/43 99/198/99 98/199/98 44/200/44 
f 99/201/99 53/202/53 54/203/54 98/204/98 
f 44/205/44 98/206/98 97/207/97 45/208/45 
f 98/209/98 54/210/54 55/211/55 97/212/97 
f 45/213/45 97/214/97 96/215/96 46/216/46 
f 97/217/97 55/218/55 56/219/56 96/220/96 
f 46/221/46 96/222/96 95/223/95 47/224/47 
f 96/225/96 56/226/56 57/227/57 95/228/95 
f 47/229/47 95/230/95 94/231/94 48/232/48 
f 95/233/95 57/234/57 58/235/58 94/236/94 
f 48/237/48 94/238/94 93/239/93 49/240/49 
f 94/241/94 58/242/58 59/243/59 93/244/93 
f 49/245/49 93/246/93 92/247/92 50/248/50 
f 93/249/93 59/250/59 60/251/60 92/252/92 
f 50/253/50 92/254/92 91/255/91 41/256/41 
f 92/257/92 60/258/60 51/259/51 91/260/91 
f 51/261/51 101/262/101 110/263/110 52/264/52 
f 101/265/101 61/266/61 62/267/62 110/268/110 
f 52/269/52 110/270/110 109/271/109 53/272/53 
f 110/273/110 62/274/62 63/275/63 109/276/109 
f 53/277/53 109/278/109 108/279/108 54/280/54 
f 109/281/109 63/282/63 64/283/64 108/284/108 
f 54/285/54 108/286/108 107/287/107 55/288/55 
f 108/289/108 64/290/64 65/291/65 107/292/107 
f 55/293/55 107/294/107 106/295/106 56/296/56 
f 107/297/107 65/298/65 66/299/66 106/300/106 
f 56/301/56 106/302/106 105/303/105 57/304/57 
f 106/305/106 66/306/66 67/307/67 105/308/105 
f 57/309/57 105/310/105 104/311/104 58/312/58 
f 105/313/105 67/314/67 68/315/68 104/316/104 
f 58/317/58 104/318/104 103/319/103 59/320/59 
f 104/321/104 68/322/68 69/323/69 103/324/103 
f 59/325/59 103/326/103 102/327/102 60/328/60 
f 103/329/103 69/330/69 70/331/70 102/332/102 
f 60/333/60 102/334/102 101/335/101 51/336/51 
f 102/337/102 70/338/70 61/339/61 101/340/101 
f 21/341/21 111/342/111 120/343/120 22/344/22 
f 111/345/111 31/346/31 32/347/32 120/348/120 
f 22/349/22 120/350/120 119/351/119 23/352/23 
f 120/353/120 32/354/32 33/355/33 119/356/119 
f 23/357/23 119/358/119 118/359/118 24/360/24 
f 119/361/119 33/362/33 34/363/34 118/364/118 
f 24/365/24 118/366/118 117/367/117 25/368/25 
f 118/369/118 34/370/34 35/371/35 117/372/117 
f 25/373/25 117/374/117 116/375/116 26/376/26 
f 117/377/117 35/378/35 36/379/36 116/380/116 
f 26/381/26 116/382/116 115/383/115 27/384/27 
f 116/385/116 36/386/36 37/387/37 115/388/115 
f 27/389/27 115/390/115 114/391/114 28/392/28 
f 115/393/115 37/394/37 38/395/38 114/396/114 
f 28/397/28 114/398/114 113/399/113 29/400/29 
f 114/401/114 38/402/38 39/403/39 113/404/113 
f 29/405/29 113/406/113 112/407/112 30/408/30 
f 113/409/113 39/410/39 40/411/40 112/412/112 
f 30/413/30 112/414/112 111/415/111 21/416/21 
f 112/417/112 40/418/40 31/419/31 111/420/111 
f 31/421/31 121/422/121 130/423/130 32/424/32 
f 121/425/121 41/426/41 42/427/42 130/428/130 
f 32/429/32 130/430/130 129/431/129 33/432/33 
f 130/433/130 42/434/42 43/435/43 129/436/129 
f 33/437/33 129/438/129 128/439/128 34/440/34 
f 129/441/129 43/442/43 44/443/44 128/444/128 
f 34/445/34 128/446/128 127/447/127 35/448/35 
f 128/449/128 44/450/44 45/451/45 127/452/127 
f 35/453/35 127/454/127 126/455/126 36/456/36 
f 127/457/127 45/458/45 46/459/46 126/460/126 
f 36/461/36 126/462/126 125/463/125 37/464/37 
f 126/465/126 46/466/46 47/467/47 125/468/125 
f 37/469/37 125/470/125 124/471/124 38/472/38 
f 125/473/125 47/474/47 48/475/48 124/476/124 
f 38/477/38 124/478/124 123/479/123 39/480/39 
f 124/481/124 48/482/48 49/483/49 123/484/123 
f 39/485/39 123/486/123 122/487/122 40/488/40 
f 123/489/123 49/490/49 50/491/50 122/492/122 
f 40/493/40 122/494/122 121/495/121 31/496/31 
f 122/497/122 50/498/50 41/499/41 121/500/121 
# num_faces: 122

