# Wavefront MTL file
# Creator: Ultimate Unwrap3D Pro v3.32
# URL: http://www.unwrap3d.com
# Time: Fri Aug 19 14:35:37 2011
# num_materials: 1

newmtl StatueWarriorC
Ka 0.000000 0.000000 0.000000
Kd 1.000000 1.000000 1.000000
Ks 0.000000 0.000000 0.000000
d 1.000000
illum 2
Ns 1.000000
map_Kd StatueWarriorC.dds

# num_materials: 1
