# Wavefront OBJ file
# Creator: Ultimate Unwrap3D Pro v3.22
# Website: http://www.unwrap3d.com
# Time: Fri Jul 09 22:38:22 2010
# num_vertices: 176
# num_vertex_normals: 176
# num_uvs: 1584
# num_faces: 528
# num_groups: 1

mtllib skull2.mtl

v -8.175678 10.788800 -1.482225
v -8.123520 13.441922 -1.482225
v -8.001282 9.018880 -1.482225
v -7.860481 11.831044 0.119598
v -7.781441 13.441922 0.112335
v -7.707520 10.791043 0.125999
v -7.659199 9.018880 0.112335
v -7.576321 15.393284 -1.482225
v -7.496319 9.018880 0.871599
v -7.348801 7.800000 -1.482225
v -7.282879 5.961598 -1.482225
v -7.234241 15.393284 0.112335
v -7.100479 9.687039 0.871599
v -7.006721 7.800000 0.112335
v -6.978882 17.194881 -1.482225
v -6.896000 11.808965 0.935791
v -6.855362 13.411519 1.010832
v -6.845119 6.244481 0.132591
v -6.843842 7.800000 0.871599
v -6.713921 10.801923 0.871599
v -6.672001 10.410878 0.871599
v -6.644798 6.374081 0.871599
v -6.636799 17.194881 0.112335
v -6.566082 10.804158 0.871599
v -6.353920 10.600324 0.871599
v -6.308479 15.362240 1.012335
v -6.108479 5.836483 1.034031
v -6.053120 5.958401 0.871599
v -5.775040 18.415363 -2.782064
v -5.775040 18.415363 -0.709393
v -5.712959 17.176319 1.025711
v -5.678402 5.695359 0.871599
v -5.019520 18.470722 0.238031
v -4.837440 15.473278 1.520945
v -4.780479 17.154560 1.446062
v -4.774719 13.555524 1.542063
v -4.773441 11.955518 1.432302
v -4.758720 11.030080 1.342062
v -4.625599 4.195202 -1.595633
v -4.577282 5.941761 1.579824
v -4.292480 19.924801 -2.782064
v -4.292480 19.924801 -2.326000
v -3.937920 3.151680 -1.539057
v -3.914879 3.637120 1.698542
v -3.626560 6.374081 1.727022
v -3.585602 20.165440 -1.335760
v -3.541119 17.391041 1.796465
v -3.488960 15.418240 1.903341
v -3.411522 18.589123 0.966927
v -3.399040 2.609280 1.254478
v -3.392960 13.500157 1.927984
v -3.297920 11.889600 1.838701
v -3.249920 11.050565 1.794863
v -3.112320 20.326717 -0.827377
v -3.071362 3.913281 2.171503
v -2.670719 17.312962 1.902063
v -2.669762 0.107841 -1.496529
v -2.628799 15.383678 2.158384
v -2.600639 6.992642 2.171503
v -2.576000 18.650242 0.790703
v -2.510078 10.614400 2.171503
v -2.475842 20.543362 -1.000240
v -2.415680 20.800320 -2.214672
v -2.395840 1.683842 1.040590
v -2.192959 7.656644 2.171503
v -2.132801 7.799680 2.171503
v -2.102402 10.056005 2.171503
v -2.083839 4.468480 1.983984
v -2.054401 5.335682 1.898222
v -2.027840 3.901440 2.171503
v -1.898880 5.918721 1.930223
v -1.876160 9.227521 2.171503
v -1.861118 8.848958 2.171503
v -1.744961 3.367360 2.171503
v -1.478722 5.914883 1.985262
v -1.182079 6.560964 2.171503
v -1.065601 6.759679 2.171503
v -0.898880 2.811200 2.171503
v -0.888321 7.358083 2.171503
v -0.669762 7.799359 2.171503
v -0.055038 0.000000 -1.482225
v -0.055038 1.851841 1.623983
v -0.055038 2.757760 2.171503
v -0.055038 8.191678 2.400305
v -0.055038 8.729604 2.713903
v -0.055038 9.226880 2.713903
v -0.055038 10.235524 2.713903
v -0.055038 11.399037 2.639982
v -0.055038 11.956159 2.628782
v -0.055038 13.395520 2.713263
v -0.055038 15.279682 2.782064
v -0.055038 17.061443 2.477102
v -0.034241 1.236160 0.413584
v -0.015041 18.701122 1.431662
v 0.007359 20.552959 -0.020849
v 0.007359 21.120640 -1.482225
v 0.366402 7.799359 2.171503
v 0.479359 7.532163 2.171503
v 0.657921 7.330564 2.171503
v 0.761921 7.117764 2.171503
v 0.836159 2.814400 2.171503
v 0.999680 6.538884 2.171503
v 1.100800 3.066239 2.171503
v 1.172798 6.116482 2.049902
v 1.321918 5.914563 1.991343
v 1.472000 5.810242 1.911024
v 1.477760 3.443200 2.171503
v 1.512001 4.735680 2.016943
v 1.585918 5.526402 1.926062
v 1.665920 3.898560 2.171503
v 1.751041 8.848958 2.171503
v 1.766079 9.227521 2.171503
v 1.992321 10.056005 2.171503
v 2.022720 7.799680 2.171503
v 2.082878 7.656644 2.171503
v 2.241920 15.077122 2.377905
v 2.309761 1.540161 0.804878
v 2.399681 10.614400 2.171503
v 2.419521 20.732800 -2.233265
v 2.460800 17.038723 1.856943
v 2.482880 20.483196 -1.020306
v 2.490238 6.992642 2.171503
v 2.519360 18.648640 0.785423
v 2.559681 0.107841 -1.496529
v 2.960960 3.913281 2.171503
v 3.071999 12.025601 1.667822
v 3.095680 11.023358 1.930544
v 3.207359 13.498883 1.787504
v 3.250240 20.231037 -1.259281
v 3.256958 2.492802 1.063984
v 3.320641 15.416317 1.575342
v 3.428162 18.581120 0.577871
v 3.431999 17.037762 1.474543
v 3.516479 6.374081 1.727022
v 3.674561 3.449921 1.392622
v 3.827839 3.151680 -1.539057
v 4.182400 19.924801 -2.782064
v 4.182400 19.924801 -2.572369
v 4.321281 17.035519 1.225199
v 4.390079 15.473919 1.285807
v 4.466881 5.941761 1.579824
v 4.515518 4.195202 -1.595633
v 4.670078 18.489277 0.294319
v 5.247040 11.066243 1.110672
v 5.273281 11.986882 1.185518
v 5.288639 13.593282 1.306063
v 5.568321 5.695359 0.871599
v 5.664639 18.415363 -0.955793
v 5.685760 17.071362 1.072144
v 5.942719 5.958401 0.871599
v 6.152321 10.847043 0.871599
v 6.229439 15.560642 1.057007
v 6.263359 18.451839 -2.782064
v 6.364479 11.051198 0.871599
v 6.470402 10.657598 0.871599
v 6.501438 12.039678 0.955088
v 6.534721 6.374081 0.871599
v 6.592319 6.786878 0.871599
v 6.664959 13.648641 1.055023
v 6.733440 7.800000 0.871599
v 6.773441 10.145604 0.871599
v 6.903358 17.069759 -0.128593
v 6.948158 7.800000 -0.128593
v 7.172798 5.961598 -1.482225
v 7.193600 17.069759 -1.482225
v 7.201279 9.229123 -1.482225
v 7.238720 7.800000 -1.482225
v 7.295040 9.265599 0.871599
v 7.448959 15.601597 -0.128593
v 7.509441 9.265599 -0.128593
v 7.574718 11.037442 -0.110544
v 7.719681 12.076482 -0.118961
v 7.739521 15.601597 -1.482225
v 7.885120 13.688962 -0.128593
v 7.974079 11.035840 -1.482225
v 8.175678 13.688962 -1.482225
# num_vertices: 176

vn 0.893033 0.055815 -0.446516
vn 0.000000 0.242536 -0.970143
vn 0.847998 0.317999 0.423999
vn -0.554700 -0.832050 0.000000
vn 0.907186 0.354369 -0.226796
vn 0.430706 -0.269191 -0.861411
vn 0.987580 0.000000 -0.157115
vn -0.872872 -0.436436 -0.218218
vn 0.000000 0.000000 0.000000
vn -0.992278 0.124035 0.000000
vn 0.787309 0.541275 -0.295241
vn -0.666667 0.333333 0.666667
vn 0.696311 0.174078 -0.696311
vn 0.992278 0.124035 0.000000
vn 0.000000 0.000000 0.000000
vn 0.433701 -0.243957 0.867403
vn 0.696311 0.174078 0.696311
vn 0.000000 0.644871 -0.764291
vn 0.000000 0.000000 0.000000
vn 0.436436 -0.218218 -0.872872
vn 0.000000 0.242536 -0.970143
vn 0.916157 0.400819 0.000000
vn -0.444444 -0.888889 0.111111
vn 0.000000 1.000000 0.000000
vn 0.000000 0.000000 0.000000
vn 0.554700 0.000000 0.832050
vn -0.707107 0.000000 -0.707107
vn 0.832050 0.000000 -0.554700
vn 0.000000 -1.000000 0.000000
vn 0.444444 -0.888889 0.111111
vn 0.980196 0.140028 0.140028
vn -0.696311 0.696311 -0.174078
vn 0.382360 0.841191 0.382360
vn 0.209401 -0.034900 -0.977207
vn 0.650791 -0.759257 0.000000
vn 0.242488 0.019892 0.969951
vn 0.082409 -0.123613 -0.988903
vn -0.847998 -0.317999 -0.423999
vn 0.000000 -1.000000 0.000000
vn 0.041631 0.000000 0.999133
vn -0.707107 0.707107 0.000000
vn -0.998109 0.000000 0.061468
vn -0.683486 -0.683486 -0.256307
vn 0.240772 0.120386 -0.963087
vn 0.000000 0.000000 0.000000
vn 0.000000 -0.995390 0.095910
vn -0.524097 0.851658 0.000000
vn -0.832050 0.000000 0.554700
vn 0.235702 -0.235702 0.942809
vn -0.514650 0.735215 0.441129
vn -0.827948 0.099181 0.551965
vn 0.000000 0.124035 -0.992278
vn 0.242338 -0.040390 0.969351
vn -0.373156 -0.895575 0.242278
vn 0.100544 0.241307 0.965226
vn -0.196116 -0.588348 -0.784465
vn 0.893033 -0.223258 -0.390702
vn -0.600000 0.000000 0.800000
vn -0.124035 0.000000 0.992278
vn -0.019760 -0.948498 -0.316166
vn 0.000000 0.000000 1.000000
vn -0.428490 0.856980 0.286323
vn -0.242536 -0.970143 0.000000
vn -0.008002 -0.640164 -0.768197
vn 0.000000 0.000000 0.000000
vn 0.000000 1.000000 0.000000
vn 0.000000 0.000000 1.000000
vn 0.000000 -0.351123 0.936329
vn 0.000000 0.000000 0.000000
vn 0.000000 1.000000 0.000000
vn 0.000000 0.083045 -0.996546
vn 1.000000 0.000000 0.000000
vn 0.000000 -1.000000 0.000000
vn 0.000000 0.000000 0.000000
vn 0.000000 0.000000 0.000000
vn 0.000000 1.000000 0.000000
vn 0.000000 0.000000 0.000000
vn -0.447214 0.894427 0.000000
vn 0.000000 0.000000 1.000000
vn 0.000000 0.000000 -1.000000
vn 0.184289 0.000000 0.982872
vn -0.333333 -0.666667 0.666667
vn 0.098342 -0.944085 0.314695
vn -0.157439 0.698288 0.698288
vn -0.071128 0.057791 0.995792
vn 0.707107 0.000000 -0.707107
vn 0.000000 0.023431 -0.999725
vn -0.298142 0.745356 0.596285
vn 0.000000 0.031235 0.999512
vn 0.049853 -0.058162 -0.997062
vn 0.049875 0.049875 -0.997509
vn -0.154303 -0.771517 -0.617213
vn 0.031235 0.000000 0.999512
vn -0.365148 -0.182574 -0.912871
vn -0.174078 -0.696311 -0.696311
vn 0.000000 -0.707107 -0.707107
vn 0.000000 0.000000 0.000000
vn 0.000000 0.000000 0.000000
vn 0.000000 0.000000 0.000000
vn 0.000000 0.000000 0.000000
vn -0.165395 -0.882109 0.441054
vn 0.000000 0.447214 -0.894427
vn 0.000000 -0.447214 0.894427
vn -0.242536 -0.970143 0.000000
vn 0.000000 0.000000 1.000000
vn 0.111111 0.444444 0.888889
vn 0.242536 0.000000 0.970143
vn 0.332974 -0.565762 0.754349
vn 0.341882 -0.227921 -0.911685
vn 0.000000 0.000000 -1.000000
vn 0.447039 0.027940 0.894078
vn 0.000000 0.010416 -0.999946
vn 1.000000 0.000000 0.000000
vn 0.000000 0.000000 1.000000
vn 0.000000 0.000000 0.000000
vn -0.240772 0.120386 -0.963087
vn -0.467395 -0.735573 -0.490382
vn -0.351123 0.000000 -0.936329
vn 0.894427 0.000000 0.447214
vn 0.569803 0.683764 0.455842
vn -0.193892 0.930680 -0.310227
vn 0.000000 0.000000 0.000000
vn 0.487950 0.390360 0.780720
vn -0.298275 0.000000 -0.954480
vn -0.152057 -0.380143 0.912343
vn 0.099015 -0.099015 0.990148
vn -0.238620 0.178965 -0.954480
vn 0.213697 0.000000 0.976900
vn 0.443607 0.887214 0.126745
vn 0.393916 -0.919137 0.004103
vn -0.868820 0.237568 0.434410
vn 0.836314 0.304114 -0.456172
vn 0.745356 -0.298142 0.596285
vn 0.000000 1.000000 0.000000
vn -0.159872 -0.359712 -0.919265
vn -0.894427 -0.447214 0.000000
vn 0.830057 0.553372 0.069171
vn 0.000000 -1.000000 0.000000
vn 0.098029 0.612679 0.784229
vn -0.413990 0.112906 -0.903252
vn 0.069171 -0.553372 -0.830057
vn -0.446516 -0.893033 -0.055815
vn 0.696311 0.696311 -0.174078
vn 0.240772 0.120386 0.963087
vn 0.196116 0.000000 0.980581
vn -0.554700 0.000000 -0.832050
vn 0.333333 -0.666667 -0.666667
vn 0.348155 -0.870388 -0.348155
vn 0.119470 -0.268806 -0.955756
vn 0.000000 -1.000000 0.000000
vn 0.000000 0.000000 0.000000
vn 0.316228 0.000000 -0.948683
vn -0.666667 0.666667 -0.333333
vn 0.099228 -0.074421 -0.992278
vn 0.000000 0.000000 0.000000
vn 0.872872 -0.218218 0.436436
vn -0.543075 0.203653 -0.814613
vn -1.000000 0.000000 0.000000
vn -0.969697 0.030303 0.242424
vn -0.942809 0.235702 -0.235702
vn 0.000000 1.000000 0.000000
vn -0.423999 -0.847998 0.317999
vn -0.940721 -0.282216 0.188144
vn -0.436436 0.872872 0.218218
vn -0.696311 0.696311 -0.174078
vn 0.000000 0.955779 -0.294086
vn -1.000000 0.000000 0.000000
vn 0.000000 0.000000 0.000000
vn -0.301511 0.301511 -0.904534
vn -0.696311 0.174078 -0.696311
vn 0.000000 -0.458289 0.888803
vn -0.752577 -0.658505 0.000000
vn 0.816497 0.408248 -0.408248
vn 0.000000 0.099504 0.995037
vn -0.942809 -0.235702 -0.235702
vn 0.000000 0.447214 0.894427
# num_vertex_normals: 176

vt 0.315907 0.794746
vt 0.319810 0.797539
vt 0.339387 0.803875
vt 0.339207 0.817518
vt 0.313158 0.815357
vt 0.339387 0.803875
vt 0.357312 0.816546
vt 0.339387 0.803875
vt 0.357901 0.804176
vt 0.357312 0.816546
vt 0.339207 0.817518
vt 0.339387 0.803875
vt 0.356145 0.840290
vt 0.339207 0.817518
vt 0.357312 0.816546
vt 0.339192 0.841108
vt 0.339207 0.817518
vt 0.356145 0.840290
vt 0.339192 0.841108
vt 0.313158 0.815357
vt 0.339207 0.817518
vt 0.313656 0.838986
vt 0.313158 0.815357
vt 0.339192 0.841108
vt 0.313656 0.838986
vt 0.302289 0.839434
vt 0.313158 0.815357
vt 0.397111 0.809315
vt 0.366983 0.797748
vt 0.371984 0.789514
vt 0.397111 0.809315
vt 0.357901 0.804176
vt 0.366983 0.797748
vt 0.397111 0.817526
vt 0.357901 0.804176
vt 0.397111 0.809315
vt 0.397111 0.817526
vt 0.357312 0.816546
vt 0.357901 0.804176
vt 0.397111 0.838747
vt 0.357312 0.816546
vt 0.397111 0.817526
vt 0.397111 0.838747
vt 0.356145 0.840290
vt 0.357312 0.816546
vt 0.354968 0.868572
vt 0.356145 0.840290
vt 0.397111 0.838747
vt 0.354968 0.868572
vt 0.339192 0.841108
vt 0.356145 0.840290
vt 0.338421 0.869382
vt 0.339192 0.841108
vt 0.354968 0.868572
vt 0.338421 0.869382
vt 0.313656 0.838986
vt 0.339192 0.841108
vt 0.422238 0.789514
vt 0.397111 0.792161
vt 0.419460 0.777297
vt 0.427238 0.797748
vt 0.397111 0.792161
vt 0.422238 0.789514
vt 0.427238 0.797748
vt 0.397111 0.809315
vt 0.397111 0.792161
vt 0.435777 0.803774
vt 0.397111 0.809315
vt 0.427238 0.797748
vt 0.435489 0.818552
vt 0.397111 0.809315
vt 0.435777 0.803774
vt 0.435489 0.818552
vt 0.397111 0.817526
vt 0.397111 0.809315
vt 0.437147 0.840275
vt 0.397111 0.817526
vt 0.435489 0.818552
vt 0.437147 0.840275
vt 0.397111 0.838747
vt 0.397111 0.817526
vt 0.397111 0.866527
vt 0.427988 0.892463
vt 0.397111 0.892795
vt 0.397111 0.866527
vt 0.425302 0.863541
vt 0.427988 0.892463
vt 0.397111 0.838747
vt 0.425302 0.863541
vt 0.397111 0.866527
vt 0.397111 0.838747
vt 0.438538 0.868541
vt 0.425302 0.863541
vt 0.437147 0.840275
vt 0.438538 0.868541
vt 0.397111 0.838747
vt 0.437147 0.840275
vt 0.451665 0.869390
vt 0.438538 0.868541
vt 0.462691 0.841664
vt 0.451665 0.869390
vt 0.437147 0.840275
vt 0.462691 0.841664
vt 0.474235 0.870671
vt 0.451665 0.869390
vt 0.479583 0.842482
vt 0.474235 0.870671
vt 0.462691 0.841664
vt 0.479583 0.842482
vt 0.494557 0.843076
vt 0.474235 0.870671
vt 0.451665 0.869390
vt 0.450821 0.892417
vt 0.438538 0.868541
vt 0.439904 0.892448
vt 0.438538 0.868541
vt 0.450821 0.892417
vt 0.439904 0.892448
vt 0.425302 0.863541
vt 0.438538 0.868541
vt 0.439904 0.892448
vt 0.427988 0.892463
vt 0.425302 0.863541
vt 0.439859 0.915205
vt 0.427988 0.892463
vt 0.439904 0.892448
vt 0.439859 0.915205
vt 0.428705 0.916200
vt 0.427988 0.892463
vt 0.439859 0.915205
vt 0.428257 0.943247
vt 0.428705 0.916200
vt 0.437676 0.939528
vt 0.428257 0.943247
vt 0.439859 0.915205
vt 0.437676 0.939528
vt 0.455786 0.952962
vt 0.428257 0.943247
vt 0.455786 0.952962
vt 0.455786 0.952962
vt 0.437676 0.939528
vt 0.455786 0.952962
vt 0.467307 0.912758
vt 0.455786 0.952962
vt 0.428257 0.943247
vt 0.431341 0.966425
vt 0.397888 0.972887
vt 0.428257 0.943247
vt 0.455786 0.952962
vt 0.431341 0.966425
vt 0.345108 0.935013
vt 0.338260 0.952962
vt 0.317701 0.927813
vt 0.367402 0.944135
vt 0.338260 0.952962
vt 0.345108 0.935013
vt 0.367402 0.944135
vt 0.364289 0.967550
vt 0.338260 0.952962
vt 0.367402 0.944135
vt 0.397888 0.972887
vt 0.364289 0.967550
vt 0.397876 0.944274
vt 0.397888 0.972887
vt 0.367402 0.944135
vt 0.397876 0.944274
vt 0.428257 0.943247
vt 0.397888 0.972887
vt 0.397602 0.916972
vt 0.428257 0.943247
vt 0.397876 0.944274
vt 0.397602 0.916972
vt 0.428705 0.916200
vt 0.428257 0.943247
vt 0.397111 0.892795
vt 0.428705 0.916200
vt 0.397602 0.916972
vt 0.397111 0.892795
vt 0.427988 0.892463
vt 0.428705 0.916200
vt 0.397111 0.892795
vt 0.366174 0.916223
vt 0.365010 0.896507
vt 0.397602 0.916972
vt 0.366174 0.916223
vt 0.397111 0.892795
vt 0.397602 0.916972
vt 0.367402 0.944135
vt 0.366174 0.916223
vt 0.397876 0.944274
vt 0.367402 0.944135
vt 0.397602 0.916972
vt 0.355918 0.915320
vt 0.367402 0.944135
vt 0.359593 0.940940
vt 0.355918 0.915320
vt 0.366174 0.916223
vt 0.367402 0.944135
vt 0.354328 0.897657
vt 0.366174 0.916223
vt 0.355918 0.915320
vt 0.354328 0.897657
vt 0.365010 0.896507
vt 0.366174 0.916223
vt 0.354968 0.868572
vt 0.365010 0.896507
vt 0.354328 0.897657
vt 0.354968 0.868572
vt 0.365524 0.868063
vt 0.365010 0.896507
vt 0.397111 0.838747
vt 0.365524 0.868063
vt 0.354968 0.868572
vt 0.397111 0.866527
vt 0.365524 0.868063
vt 0.397111 0.838747
vt 0.397111 0.866527
vt 0.365010 0.896507
vt 0.365524 0.868063
vt 0.397111 0.892795
vt 0.365010 0.896507
vt 0.397111 0.866527
vt 0.336187 0.913576
vt 0.359593 0.940940
vt 0.353782 0.938563
vt 0.336187 0.913576
vt 0.355918 0.915320
vt 0.359593 0.940940
vt 0.339119 0.894169
vt 0.336187 0.913576
vt 0.327675 0.894493
vt 0.339119 0.894169
vt 0.355918 0.915320
vt 0.336187 0.913576
vt 0.339119 0.894169
vt 0.354328 0.897657
vt 0.355918 0.915320
vt 0.338421 0.869382
vt 0.354328 0.897657
vt 0.339119 0.894169
vt 0.338421 0.869382
vt 0.354968 0.868572
vt 0.354328 0.897657
vt 0.339119 0.894169
vt 0.320368 0.867746
vt 0.338421 0.869382
vt 0.327675 0.894493
vt 0.320368 0.867746
vt 0.339119 0.894169
vt 0.327675 0.894493
vt 0.309004 0.868202
vt 0.320368 0.867746
vt 0.327675 0.894493
vt 0.316338 0.894763
vt 0.309004 0.868202
vt 0.336187 0.913576
vt 0.316338 0.894763
vt 0.327675 0.894493
vt 0.336187 0.913576
vt 0.326914 0.912758
vt 0.316338 0.894763
vt 0.353782 0.938563
vt 0.326914 0.912758
vt 0.336187 0.913576
vt 0.353782 0.938563
vt 0.345108 0.935013
vt 0.326914 0.912758
vt 0.359593 0.940940
vt 0.345108 0.935013
vt 0.353782 0.938563
vt 0.359593 0.940940
vt 0.367402 0.944135
vt 0.345108 0.935013
vt 0.320368 0.867746
vt 0.313656 0.838986
vt 0.338421 0.869382
vt 0.320368 0.867746
vt 0.302289 0.839434
vt 0.313656 0.838986
vt 0.309004 0.868202
vt 0.302289 0.839434
vt 0.320368 0.867746
vt 0.309004 0.868202
vt 0.285130 0.844956
vt 0.302289 0.839434
vt 0.309004 0.868202
vt 0.292719 0.877464
vt 0.285130 0.844956
vt 0.316338 0.894763
vt 0.292719 0.877464
vt 0.309004 0.868202
vt 0.316338 0.894763
vt 0.301005 0.907479
vt 0.292719 0.877464
vt 0.326914 0.912758
vt 0.301005 0.907479
vt 0.316338 0.894763
vt 0.326914 0.912758
vt 0.317701 0.927813
vt 0.301005 0.907479
vt 0.345108 0.935013
vt 0.317701 0.927813
vt 0.326914 0.912758
vt 0.303789 0.774220
vt 0.286825 0.771265
vt 0.295876 0.750962
vt 0.303197 0.800348
vt 0.286825 0.771265
vt 0.303789 0.774220
vt 0.303197 0.800348
vt 0.284408 0.800755
vt 0.286825 0.771265
vt 0.303197 0.800348
vt 0.285130 0.844956
vt 0.284408 0.800755
vt 0.303197 0.800348
vt 0.302289 0.839434
vt 0.285130 0.844956
vt 0.301319 0.815681
vt 0.302289 0.839434
vt 0.303197 0.800348
vt 0.301319 0.815681
vt 0.313158 0.815357
vt 0.302289 0.839434
vt 0.315391 0.800510
vt 0.313158 0.815357
vt 0.301319 0.815681
vt 0.315391 0.800510
vt 0.339387 0.803875
vt 0.313158 0.815357
vt 0.317207 0.800541
vt 0.339387 0.803875
vt 0.315391 0.800510
vt 0.317207 0.800541
vt 0.315907 0.794746
vt 0.339387 0.803875
vt 0.317207 0.800541
vt 0.310645 0.784071
vt 0.315907 0.794746
vt 0.315391 0.800510
vt 0.310645 0.784071
vt 0.317207 0.800541
vt 0.315391 0.800510
vt 0.303789 0.774220
vt 0.310645 0.784071
vt 0.315391 0.800510
vt 0.303197 0.800348
vt 0.303789 0.774220
vt 0.301319 0.815681
vt 0.303197 0.800348
vt 0.315391 0.800510
vt 0.322820 0.727301
vt 0.305788 0.774220
vt 0.310645 0.784071
vt 0.313781 0.733318
vt 0.310645 0.784071
vt 0.303789 0.774220
vt 0.313781 0.733318
vt 0.322820 0.727301
vt 0.310645 0.784071
vt 0.349742 0.694877
vt 0.322820 0.727301
vt 0.313781 0.733318
vt 0.323502 0.729099
vt 0.322820 0.727301
vt 0.349742 0.694877
vt 0.323502 0.729099
vt 0.305788 0.774220
vt 0.322820 0.727301
vt 0.323502 0.729099
vt 0.313798 0.756252
vt 0.305788 0.774220
vt 0.316239 0.735227
vt 0.313798 0.756252
vt 0.323502 0.729099
vt 0.323502 0.729099
vt 0.349742 0.694877
vt 0.328099 0.725220
vt 0.360095 0.698949
vt 0.349742 0.694877
vt 0.356071 0.679721
vt 0.360095 0.698949
vt 0.328099 0.725220
vt 0.349742 0.694877
vt 0.360095 0.698949
vt 0.316239 0.735227
vt 0.328099 0.725220
vt 0.341613 0.728852
vt 0.316239 0.735227
vt 0.360095 0.698949
vt 0.368386 0.666077
vt 0.360763 0.622808
vt 0.397023 0.621014
vt 0.356071 0.679721
vt 0.360763 0.622808
vt 0.368386 0.666077
vt 0.356071 0.679721
vt 0.343176 0.673521
vt 0.360763 0.622808
vt 0.349742 0.694877
vt 0.343176 0.673521
vt 0.356071 0.679721
vt 0.349742 0.694877
vt 0.333639 0.690902
vt 0.343176 0.673521
vt 0.349742 0.694877
vt 0.296790 0.720332
vt 0.333639 0.690902
vt 0.313781 0.733318
vt 0.296790 0.720332
vt 0.349742 0.694877
vt 0.313781 0.733318
vt 0.311798 0.756252
vt 0.296790 0.720332
vt 0.303789 0.774220
vt 0.311798 0.756252
vt 0.313781 0.733318
vt 0.303789 0.774220
vt 0.295876 0.750962
vt 0.311798 0.756252
vt 0.311798 0.756252
vt 0.295876 0.750962
vt 0.296790 0.720332
vt 0.397111 0.681910
vt 0.426133 0.663961
vt 0.437756 0.678006
vt 0.397111 0.668554
vt 0.426133 0.663961
vt 0.397111 0.681910
vt 0.397111 0.668554
vt 0.397366 0.659479
vt 0.426133 0.663961
vt 0.397111 0.668554
vt 0.368386 0.666077
vt 0.397366 0.659479
vt 0.397111 0.668554
vt 0.356071 0.679721
vt 0.368386 0.666077
vt 0.397111 0.681910
vt 0.356071 0.679721
vt 0.397111 0.668554
vt 0.386753 0.682701
vt 0.356071 0.679721
vt 0.397111 0.681910
vt 0.386753 0.682701
vt 0.360095 0.698949
vt 0.356071 0.679721
vt 0.372900 0.698771
vt 0.360095 0.698949
vt 0.386753 0.682701
vt 0.372900 0.698771
vt 0.341613 0.728852
vt 0.360095 0.698949
vt 0.372213 0.707134
vt 0.341613 0.728852
vt 0.372900 0.698771
vt 0.372213 0.707134
vt 0.374484 0.728513
vt 0.341613 0.728852
vt 0.372576 0.719919
vt 0.374484 0.728513
vt 0.372213 0.707134
vt 0.372900 0.698771
vt 0.386753 0.682701
vt 0.376371 0.690901
vt 0.341613 0.728852
vt 0.365872 0.744349
vt 0.353279 0.735227
vt 0.374484 0.728513
vt 0.365872 0.744349
vt 0.341613 0.728852
vt 0.374484 0.728513
vt 0.383282 0.737983
vt 0.365872 0.744349
vt 0.379640 0.728460
vt 0.383282 0.737983
vt 0.374484 0.728513
vt 0.365872 0.744349
vt 0.383282 0.737983
vt 0.370872 0.754139
vt 0.386886 0.749737
vt 0.383282 0.737983
vt 0.384709 0.740914
vt 0.386886 0.749737
vt 0.370872 0.754139
vt 0.383282 0.737983
vt 0.389568 0.756243
vt 0.370872 0.754139
vt 0.386886 0.749737
vt 0.389568 0.756243
vt 0.371613 0.756245
vt 0.370872 0.754139
vt 0.397111 0.762024
vt 0.371613 0.756245
vt 0.389568 0.756243
vt 0.397111 0.762024
vt 0.374947 0.771715
vt 0.371613 0.756245
vt 0.397111 0.769956
vt 0.374947 0.771715
vt 0.397111 0.762024
vt 0.397111 0.777290
vt 0.374947 0.771715
vt 0.397111 0.769956
vt 0.397111 0.777290
vt 0.374761 0.777297
vt 0.374947 0.771715
vt 0.371984 0.789514
vt 0.374761 0.777297
vt 0.397111 0.777290
vt 0.422609 0.756245
vt 0.403671 0.752302
vt 0.423349 0.754139
vt 0.422609 0.756245
vt 0.402285 0.756243
vt 0.403671 0.752302
vt 0.422609 0.756245
vt 0.397111 0.762024
vt 0.402285 0.756243
vt 0.422609 0.756245
vt 0.397111 0.769956
vt 0.397111 0.762024
vt 0.419275 0.771715
vt 0.397111 0.769956
vt 0.422609 0.756245
vt 0.419460 0.777297
vt 0.397111 0.769956
vt 0.419275 0.771715
vt 0.419460 0.777297
vt 0.397111 0.777290
vt 0.397111 0.769956
vt 0.397111 0.792161
vt 0.397111 0.777290
vt 0.419460 0.777297
vt 0.397111 0.792161
vt 0.371984 0.789514
vt 0.397111 0.777290
vt 0.397111 0.809315
vt 0.371984 0.789514
vt 0.397111 0.792161
vt 0.452608 0.728852
vt 0.415851 0.726914
vt 0.417250 0.722732
vt 0.452608 0.728852
vt 0.414010 0.728453
vt 0.415851 0.726914
vt 0.452608 0.728852
vt 0.412180 0.731431
vt 0.414010 0.728453
vt 0.440943 0.735227
vt 0.412180 0.731431
vt 0.452608 0.728852
vt 0.440943 0.735227
vt 0.410054 0.737659
vt 0.412180 0.731431
vt 0.428349 0.744349
vt 0.410054 0.737659
vt 0.440943 0.735227
vt 0.428349 0.744349
vt 0.407139 0.746192
vt 0.410054 0.737659
vt 0.423349 0.754139
vt 0.407139 0.746192
vt 0.428349 0.744349
vt 0.423349 0.754139
vt 0.405860 0.749332
vt 0.407139 0.746192
vt 0.423349 0.754139
vt 0.403671 0.752302
vt 0.405860 0.749332
vt 0.417250 0.722732
vt 0.477983 0.735227
vt 0.452608 0.728852
vt 0.416343 0.711071
vt 0.477983 0.735227
vt 0.417250 0.722732
vt 0.416343 0.711071
vt 0.434127 0.698949
vt 0.477983 0.735227
vt 0.418231 0.698728
vt 0.434127 0.698949
vt 0.416343 0.711071
vt 0.415921 0.692019
vt 0.434127 0.698949
vt 0.418231 0.698728
vt 0.415921 0.692019
vt 0.442884 0.692116
vt 0.434127 0.698949
vt 0.411295 0.686460
vt 0.442884 0.692116
vt 0.415921 0.692019
vt 0.411295 0.686460
vt 0.437756 0.678006
vt 0.442884 0.692116
vt 0.408048 0.682745
vt 0.437756 0.678006
vt 0.411295 0.686460
vt 0.397111 0.681910
vt 0.437756 0.678006
vt 0.408048 0.682745
vt 0.434127 0.698949
vt 0.466122 0.725220
vt 0.477983 0.735227
vt 0.442884 0.692116
vt 0.466122 0.725220
vt 0.434127 0.698949
vt 0.442884 0.692116
vt 0.470719 0.729099
vt 0.466122 0.725220
vt 0.477983 0.735227
vt 0.470719 0.729099
vt 0.442884 0.692116
vt 0.477983 0.735227
vt 0.497256 0.720332
vt 0.483057 0.756252
vt 0.442884 0.692116
vt 0.497256 0.720332
vt 0.477983 0.735227
vt 0.442884 0.692116
vt 0.460406 0.690902
vt 0.497256 0.720332
vt 0.437756 0.678006
vt 0.460406 0.690902
vt 0.442884 0.692116
vt 0.437756 0.678006
vt 0.450869 0.673521
vt 0.460406 0.690902
vt 0.426133 0.663961
vt 0.450869 0.673521
vt 0.437756 0.678006
vt 0.426133 0.663961
vt 0.433283 0.622808
vt 0.450869 0.673521
vt 0.397366 0.659479
vt 0.433283 0.622808
vt 0.426133 0.663961
vt 0.397366 0.659479
vt 0.397023 0.621014
vt 0.433283 0.622808
vt 0.368386 0.666077
vt 0.397023 0.621014
vt 0.397366 0.659479
vt 0.494557 0.843076
vt 0.505116 0.880935
vt 0.489205 0.871273
vt 0.494557 0.843076
vt 0.511164 0.849072
vt 0.505116 0.880935
vt 0.494557 0.843076
vt 0.508372 0.804871
vt 0.511164 0.849072
vt 0.490748 0.803983
vt 0.508372 0.804871
vt 0.494557 0.843076
vt 0.489946 0.777858
vt 0.508372 0.804871
vt 0.490748 0.803983
vt 0.489946 0.777858
vt 0.497653 0.774769
vt 0.508372 0.804871
vt 0.483057 0.756252
vt 0.497653 0.774769
vt 0.489946 0.777858
vt 0.483057 0.756252
vt 0.486621 0.756252
vt 0.497653 0.774769
vt 0.497256 0.720332
vt 0.486621 0.756252
vt 0.483057 0.756252
vt 0.492526 0.819301
vt 0.494557 0.843076
vt 0.479583 0.842482
vt 0.492526 0.819301
vt 0.490748 0.803983
vt 0.494557 0.843076
vt 0.475894 0.804183
vt 0.490748 0.803983
vt 0.492526 0.819301
vt 0.475894 0.804183
vt 0.489946 0.777858
vt 0.490748 0.803983
vt 0.480914 0.790833
vt 0.489946 0.777858
vt 0.475894 0.804183
vt 0.487312 0.777858
vt 0.489946 0.777858
vt 0.480914 0.790833
vt 0.480424 0.756252
vt 0.489946 0.777858
vt 0.487312 0.777858
vt 0.480424 0.756252
vt 0.483057 0.756252
vt 0.489946 0.777858
vt 0.478690 0.741315
vt 0.483057 0.756252
vt 0.480424 0.756252
vt 0.477983 0.735227
vt 0.483057 0.756252
vt 0.478690 0.741315
vt 0.475894 0.804183
vt 0.477194 0.798380
vt 0.480914 0.790833
vt 0.475894 0.804183
vt 0.473290 0.801174
vt 0.477194 0.798380
vt 0.462179 0.804407
vt 0.473290 0.801174
vt 0.475894 0.804183
vt 0.435489 0.818552
vt 0.462691 0.841664
vt 0.437147 0.840275
vt 0.435489 0.818552
vt 0.462502 0.817981
vt 0.462691 0.841664
vt 0.435777 0.803774
vt 0.462502 0.817981
vt 0.435489 0.818552
vt 0.462179 0.804407
vt 0.462502 0.817981
vt 0.435777 0.803774
vt 0.462179 0.804407
vt 0.477573 0.818760
vt 0.462502 0.817981
vt 0.475894 0.804183
vt 0.477573 0.818760
vt 0.462179 0.804407
vt 0.492526 0.819301
vt 0.477573 0.818760
vt 0.475894 0.804183
vt 0.479583 0.842482
vt 0.477573 0.818760
vt 0.492526 0.819301
vt 0.462691 0.841664
vt 0.477573 0.818760
vt 0.479583 0.842482
vt 0.462691 0.841664
vt 0.462502 0.817981
vt 0.477573 0.818760
vt 0.484645 0.928424
vt 0.482507 0.892919
vt 0.497548 0.905394
vt 0.467307 0.912758
vt 0.484645 0.928424
vt 0.455786 0.952962
vt 0.467307 0.912758
vt 0.482507 0.892919
vt 0.484645 0.928424
vt 0.455100 0.913846
vt 0.482507 0.892919
vt 0.467307 0.912758
vt 0.467563 0.892942
vt 0.482507 0.892919
vt 0.455100 0.913846
vt 0.489205 0.871273
vt 0.482507 0.892919
vt 0.467563 0.892942
vt 0.489205 0.871273
vt 0.497548 0.905394
vt 0.482507 0.892919
vt 0.505116 0.880935
vt 0.497548 0.905394
vt 0.489205 0.871273
vt 0.437676 0.939528
vt 0.467307 0.912758
vt 0.455786 0.952962
vt 0.437676 0.939528
vt 0.455100 0.913846
vt 0.467307 0.912758
vt 0.439859 0.915205
vt 0.455100 0.913846
vt 0.437676 0.939528
vt 0.439904 0.892448
vt 0.455100 0.913846
vt 0.439859 0.915205
vt 0.450821 0.892417
vt 0.455100 0.913846
vt 0.439904 0.892448
vt 0.450821 0.892417
vt 0.467563 0.892942
vt 0.455100 0.913846
vt 0.451665 0.869390
vt 0.467563 0.892942
vt 0.450821 0.892417
vt 0.474235 0.870671
vt 0.467563 0.892942
vt 0.451665 0.869390
vt 0.474235 0.870671
vt 0.489205 0.871273
vt 0.467563 0.892942
vt 0.494557 0.843076
vt 0.489205 0.871273
vt 0.474235 0.870671
vt 0.339387 0.803875
vt 0.319810 0.797539
vt 0.315907 0.794746
vt 0.339387 0.803875
vt 0.313158 0.815357
vt 0.339207 0.817518
vt 0.357901 0.804176
vt 0.339387 0.803875
vt 0.357312 0.816546
vt 0.339387 0.803875
vt 0.339207 0.817518
vt 0.357312 0.816546
vt 0.357312 0.816546
vt 0.339207 0.817518
vt 0.356145 0.840290
vt 0.356145 0.840290
vt 0.339207 0.817518
vt 0.339192 0.841108
vt 0.339207 0.817518
vt 0.313158 0.815357
vt 0.339192 0.841108
vt 0.339192 0.841108
vt 0.313158 0.815357
vt 0.313656 0.838986
vt 0.313158 0.815357
vt 0.302289 0.839434
vt 0.313656 0.838986
vt 0.371984 0.789514
vt 0.366983 0.797748
vt 0.397111 0.809315
vt 0.366983 0.797748
vt 0.357901 0.804176
vt 0.397111 0.809315
vt 0.397111 0.809315
vt 0.357901 0.804176
vt 0.397111 0.817526
vt 0.357901 0.804176
vt 0.357312 0.816546
vt 0.397111 0.817526
vt 0.397111 0.817526
vt 0.357312 0.816546
vt 0.397111 0.838747
vt 0.357312 0.816546
vt 0.356145 0.840290
vt 0.397111 0.838747
vt 0.397111 0.838747
vt 0.356145 0.840290
vt 0.354968 0.868572
vt 0.356145 0.840290
vt 0.339192 0.841108
vt 0.354968 0.868572
vt 0.354968 0.868572
vt 0.339192 0.841108
vt 0.338421 0.869382
vt 0.339192 0.841108
vt 0.313656 0.838986
vt 0.338421 0.869382
vt 0.419460 0.777297
vt 0.397111 0.792161
vt 0.422238 0.789514
vt 0.422238 0.789514
vt 0.397111 0.792161
vt 0.427238 0.797748
vt 0.397111 0.792161
vt 0.397111 0.809315
vt 0.427238 0.797748
vt 0.427238 0.797748
vt 0.397111 0.809315
vt 0.435777 0.803774
vt 0.435777 0.803774
vt 0.397111 0.809315
vt 0.435489 0.818552
vt 0.397111 0.809315
vt 0.397111 0.817526
vt 0.435489 0.818552
vt 0.435489 0.818552
vt 0.397111 0.817526
vt 0.437147 0.840275
vt 0.397111 0.817526
vt 0.397111 0.838747
vt 0.437147 0.840275
vt 0.397111 0.892795
vt 0.427988 0.892463
vt 0.397111 0.866527
vt 0.427988 0.892463
vt 0.425302 0.863541
vt 0.397111 0.866527
vt 0.397111 0.866527
vt 0.425302 0.863541
vt 0.397111 0.838747
vt 0.425302 0.863541
vt 0.438538 0.868541
vt 0.397111 0.838747
vt 0.397111 0.838747
vt 0.438538 0.868541
vt 0.437147 0.840275
vt 0.438538 0.868541
vt 0.451665 0.869390
vt 0.437147 0.840275
vt 0.437147 0.840275
vt 0.451665 0.869390
vt 0.462691 0.841664
vt 0.451665 0.869390
vt 0.474235 0.870671
vt 0.462691 0.841664
vt 0.462691 0.841664
vt 0.474235 0.870671
vt 0.479583 0.842482
vt 0.474235 0.870671
vt 0.494557 0.843076
vt 0.479583 0.842482
vt 0.438538 0.868541
vt 0.450821 0.892417
vt 0.451665 0.869390
vt 0.450821 0.892417
vt 0.438538 0.868541
vt 0.439904 0.892448
vt 0.438538 0.868541
vt 0.425302 0.863541
vt 0.439904 0.892448
vt 0.425302 0.863541
vt 0.427988 0.892463
vt 0.439904 0.892448
vt 0.439904 0.892448
vt 0.427988 0.892463
vt 0.439859 0.915205
vt 0.427988 0.892463
vt 0.428705 0.916200
vt 0.439859 0.915205
vt 0.428705 0.916200
vt 0.428257 0.943247
vt 0.439859 0.915205
vt 0.439859 0.915205
vt 0.428257 0.943247
vt 0.437676 0.939528
vt 0.428257 0.943247
vt 0.455786 0.952962
vt 0.437676 0.939528
vt 0.437676 0.939528
vt 0.455786 0.952962
vt 0.455786 0.952962
vt 0.455786 0.952962
vt 0.467307 0.912758
vt 0.455786 0.952962
vt 0.397888 0.972887
vt 0.431341 0.966425
vt 0.428257 0.943247
vt 0.431341 0.966425
vt 0.455786 0.952962
vt 0.428257 0.943247
vt 0.317701 0.927813
vt 0.338260 0.952962
vt 0.345108 0.935013
vt 0.345108 0.935013
vt 0.338260 0.952962
vt 0.367402 0.944135
vt 0.338260 0.952962
vt 0.364289 0.967550
vt 0.367402 0.944135
vt 0.364289 0.967550
vt 0.397888 0.972887
vt 0.367402 0.944135
vt 0.367402 0.944135
vt 0.397888 0.972887
vt 0.397876 0.944274
vt 0.397888 0.972887
vt 0.428257 0.943247
vt 0.397876 0.944274
vt 0.397876 0.944274
vt 0.428257 0.943247
vt 0.397602 0.916972
vt 0.428257 0.943247
vt 0.428705 0.916200
vt 0.397602 0.916972
vt 0.397602 0.916972
vt 0.428705 0.916200
vt 0.397111 0.892795
vt 0.428705 0.916200
vt 0.427988 0.892463
vt 0.397111 0.892795
vt 0.365010 0.896507
vt 0.366174 0.916223
vt 0.397111 0.892795
vt 0.397111 0.892795
vt 0.366174 0.916223
vt 0.397602 0.916972
vt 0.366174 0.916223
vt 0.367402 0.944135
vt 0.397602 0.916972
vt 0.397602 0.916972
vt 0.367402 0.944135
vt 0.397876 0.944274
vt 0.359593 0.940940
vt 0.367402 0.944135
vt 0.355918 0.915320
vt 0.367402 0.944135
vt 0.366174 0.916223
vt 0.355918 0.915320
vt 0.355918 0.915320
vt 0.366174 0.916223
vt 0.354328 0.897657
vt 0.366174 0.916223
vt 0.365010 0.896507
vt 0.354328 0.897657
vt 0.354328 0.897657
vt 0.365010 0.896507
vt 0.354968 0.868572
vt 0.365010 0.896507
vt 0.365524 0.868063
vt 0.354968 0.868572
vt 0.354968 0.868572
vt 0.365524 0.868063
vt 0.397111 0.838747
vt 0.397111 0.838747
vt 0.365524 0.868063
vt 0.397111 0.866527
vt 0.365524 0.868063
vt 0.365010 0.896507
vt 0.397111 0.866527
vt 0.397111 0.866527
vt 0.365010 0.896507
vt 0.397111 0.892795
vt 0.353782 0.938563
vt 0.359593 0.940940
vt 0.336187 0.913576
vt 0.359593 0.940940
vt 0.355918 0.915320
vt 0.336187 0.913576
vt 0.327675 0.894493
vt 0.336187 0.913576
vt 0.339119 0.894169
vt 0.336187 0.913576
vt 0.355918 0.915320
vt 0.339119 0.894169
vt 0.355918 0.915320
vt 0.354328 0.897657
vt 0.339119 0.894169
vt 0.339119 0.894169
vt 0.354328 0.897657
vt 0.338421 0.869382
vt 0.354328 0.897657
vt 0.354968 0.868572
vt 0.338421 0.869382
vt 0.338421 0.869382
vt 0.320368 0.867746
vt 0.339119 0.894169
vt 0.339119 0.894169
vt 0.320368 0.867746
vt 0.327675 0.894493
vt 0.320368 0.867746
vt 0.309004 0.868202
vt 0.327675 0.894493
vt 0.309004 0.868202
vt 0.316338 0.894763
vt 0.327675 0.894493
vt 0.327675 0.894493
vt 0.316338 0.894763
vt 0.336187 0.913576
vt 0.316338 0.894763
vt 0.326914 0.912758
vt 0.336187 0.913576
vt 0.336187 0.913576
vt 0.326914 0.912758
vt 0.353782 0.938563
vt 0.326914 0.912758
vt 0.345108 0.935013
vt 0.353782 0.938563
vt 0.353782 0.938563
vt 0.345108 0.935013
vt 0.359593 0.940940
vt 0.345108 0.935013
vt 0.367402 0.944135
vt 0.359593 0.940940
vt 0.338421 0.869382
vt 0.313656 0.838986
vt 0.320368 0.867746
vt 0.313656 0.838986
vt 0.302289 0.839434
vt 0.320368 0.867746
vt 0.320368 0.867746
vt 0.302289 0.839434
vt 0.309004 0.868202
vt 0.302289 0.839434
vt 0.285130 0.844956
vt 0.309004 0.868202
vt 0.285130 0.844956
vt 0.292719 0.877464
vt 0.309004 0.868202
vt 0.309004 0.868202
vt 0.292719 0.877464
vt 0.316338 0.894763
vt 0.292719 0.877464
vt 0.301005 0.907479
vt 0.316338 0.894763
vt 0.316338 0.894763
vt 0.301005 0.907479
vt 0.326914 0.912758
vt 0.301005 0.907479
vt 0.317701 0.927813
vt 0.326914 0.912758
vt 0.326914 0.912758
vt 0.317701 0.927813
vt 0.345108 0.935013
vt 0.295876 0.750962
vt 0.286825 0.771265
vt 0.303789 0.774220
vt 0.303789 0.774220
vt 0.286825 0.771265
vt 0.303197 0.800348
vt 0.286825 0.771265
vt 0.284408 0.800755
vt 0.303197 0.800348
vt 0.284408 0.800755
vt 0.285130 0.844956
vt 0.303197 0.800348
vt 0.285130 0.844956
vt 0.302289 0.839434
vt 0.303197 0.800348
vt 0.303197 0.800348
vt 0.302289 0.839434
vt 0.301319 0.815681
vt 0.302289 0.839434
vt 0.313158 0.815357
vt 0.301319 0.815681
vt 0.301319 0.815681
vt 0.313158 0.815357
vt 0.315391 0.800510
vt 0.313158 0.815357
vt 0.339387 0.803875
vt 0.315391 0.800510
vt 0.315391 0.800510
vt 0.339387 0.803875
vt 0.317207 0.800541
vt 0.339387 0.803875
vt 0.315907 0.794746
vt 0.317207 0.800541
vt 0.315907 0.794746
vt 0.310645 0.784071
vt 0.317207 0.800541
vt 0.317207 0.800541
vt 0.310645 0.784071
vt 0.315391 0.800510
vt 0.310645 0.784071
vt 0.303789 0.774220
vt 0.315391 0.800510
vt 0.303789 0.774220
vt 0.303197 0.800348
vt 0.315391 0.800510
vt 0.315391 0.800510
vt 0.303197 0.800348
vt 0.301319 0.815681
vt 0.310645 0.784071
vt 0.305788 0.774220
vt 0.322820 0.727301
vt 0.303789 0.774220
vt 0.310645 0.784071
vt 0.313781 0.733318
vt 0.310645 0.784071
vt 0.322820 0.727301
vt 0.313781 0.733318
vt 0.313781 0.733318
vt 0.322820 0.727301
vt 0.349742 0.694877
vt 0.349742 0.694877
vt 0.322820 0.727301
vt 0.323502 0.729099
vt 0.322820 0.727301
vt 0.305788 0.774220
vt 0.323502 0.729099
vt 0.305788 0.774220
vt 0.313798 0.756252
vt 0.323502 0.729099
vt 0.323502 0.729099
vt 0.313798 0.756252
vt 0.316239 0.735227
vt 0.328099 0.725220
vt 0.349742 0.694877
vt 0.323502 0.729099
vt 0.356071 0.679721
vt 0.349742 0.694877
vt 0.360095 0.698949
vt 0.349742 0.694877
vt 0.328099 0.725220
vt 0.360095 0.698949
vt 0.328099 0.725220
vt 0.316239 0.735227
vt 0.360095 0.698949
vt 0.360095 0.698949
vt 0.316239 0.735227
vt 0.341613 0.728852
vt 0.397023 0.621014
vt 0.360763 0.622808
vt 0.368386 0.666077
vt 0.368386 0.666077
vt 0.360763 0.622808
vt 0.356071 0.679721
vt 0.360763 0.622808
vt 0.343176 0.673521
vt 0.356071 0.679721
vt 0.356071 0.679721
vt 0.343176 0.673521
vt 0.349742 0.694877
vt 0.343176 0.673521
vt 0.333639 0.690902
vt 0.349742 0.694877
vt 0.333639 0.690902
vt 0.296790 0.720332
vt 0.349742 0.694877
vt 0.349742 0.694877
vt 0.296790 0.720332
vt 0.313781 0.733318
vt 0.296790 0.720332
vt 0.311798 0.756252
vt 0.313781 0.733318
vt 0.313781 0.733318
vt 0.311798 0.756252
vt 0.303789 0.774220
vt 0.311798 0.756252
vt 0.295876 0.750962
vt 0.303789 0.774220
vt 0.296790 0.720332
vt 0.295876 0.750962
vt 0.311798 0.756252
vt 0.437756 0.678006
vt 0.426133 0.663961
vt 0.397111 0.681910
vt 0.397111 0.681910
vt 0.426133 0.663961
vt 0.397111 0.668554
vt 0.426133 0.663961
vt 0.397366 0.659479
vt 0.397111 0.668554
vt 0.397366 0.659479
vt 0.368386 0.666077
vt 0.397111 0.668554
vt 0.368386 0.666077
vt 0.356071 0.679721
vt 0.397111 0.668554
vt 0.397111 0.668554
vt 0.356071 0.679721
vt 0.397111 0.681910
vt 0.397111 0.681910
vt 0.356071 0.679721
vt 0.386753 0.682701
vt 0.356071 0.679721
vt 0.360095 0.698949
vt 0.386753 0.682701
vt 0.386753 0.682701
vt 0.360095 0.698949
vt 0.372900 0.698771
vt 0.360095 0.698949
vt 0.341613 0.728852
vt 0.372900 0.698771
vt 0.372900 0.698771
vt 0.341613 0.728852
vt 0.372213 0.707134
vt 0.341613 0.728852
vt 0.374484 0.728513
vt 0.372213 0.707134
vt 0.372213 0.707134
vt 0.374484 0.728513
vt 0.372576 0.719919
vt 0.376371 0.690901
vt 0.386753 0.682701
vt 0.372900 0.698771
vt 0.353279 0.735227
vt 0.365872 0.744349
vt 0.341613 0.728852
vt 0.341613 0.728852
vt 0.365872 0.744349
vt 0.374484 0.728513
vt 0.365872 0.744349
vt 0.383282 0.737983
vt 0.374484 0.728513
vt 0.374484 0.728513
vt 0.383282 0.737983
vt 0.379640 0.728460
vt 0.370872 0.754139
vt 0.383282 0.737983
vt 0.365872 0.744349
vt 0.384709 0.740914
vt 0.383282 0.737983
vt 0.386886 0.749737
vt 0.383282 0.737983
vt 0.370872 0.754139
vt 0.386886 0.749737
vt 0.386886 0.749737
vt 0.370872 0.754139
vt 0.389568 0.756243
vt 0.370872 0.754139
vt 0.371613 0.756245
vt 0.389568 0.756243
vt 0.389568 0.756243
vt 0.371613 0.756245
vt 0.397111 0.762024
vt 0.371613 0.756245
vt 0.374947 0.771715
vt 0.397111 0.762024
vt 0.397111 0.762024
vt 0.374947 0.771715
vt 0.397111 0.769956
vt 0.397111 0.769956
vt 0.374947 0.771715
vt 0.397111 0.777290
vt 0.374947 0.771715
vt 0.374761 0.777297
vt 0.397111 0.777290
vt 0.397111 0.777290
vt 0.374761 0.777297
vt 0.371984 0.789514
vt 0.423349 0.754139
vt 0.403671 0.752302
vt 0.422609 0.756245
vt 0.403671 0.752302
vt 0.402285 0.756243
vt 0.422609 0.756245
vt 0.402285 0.756243
vt 0.397111 0.762024
vt 0.422609 0.756245
vt 0.397111 0.762024
vt 0.397111 0.769956
vt 0.422609 0.756245
vt 0.422609 0.756245
vt 0.397111 0.769956
vt 0.419275 0.771715
vt 0.419275 0.771715
vt 0.397111 0.769956
vt 0.419460 0.777297
vt 0.397111 0.769956
vt 0.397111 0.777290
vt 0.419460 0.777297
vt 0.419460 0.777297
vt 0.397111 0.777290
vt 0.397111 0.792161
vt 0.397111 0.777290
vt 0.371984 0.789514
vt 0.397111 0.792161
vt 0.397111 0.792161
vt 0.371984 0.789514
vt 0.397111 0.809315
vt 0.417250 0.722732
vt 0.415851 0.726914
vt 0.452608 0.728852
vt 0.415851 0.726914
vt 0.414010 0.728453
vt 0.452608 0.728852
vt 0.414010 0.728453
vt 0.412180 0.731431
vt 0.452608 0.728852
vt 0.452608 0.728852
vt 0.412180 0.731431
vt 0.440943 0.735227
vt 0.412180 0.731431
vt 0.410054 0.737659
vt 0.440943 0.735227
vt 0.440943 0.735227
vt 0.410054 0.737659
vt 0.428349 0.744349
vt 0.410054 0.737659
vt 0.407139 0.746192
vt 0.428349 0.744349
vt 0.428349 0.744349
vt 0.407139 0.746192
vt 0.423349 0.754139
vt 0.407139 0.746192
vt 0.405860 0.749332
vt 0.423349 0.754139
vt 0.405860 0.749332
vt 0.403671 0.752302
vt 0.423349 0.754139
vt 0.452608 0.728852
vt 0.477983 0.735227
vt 0.417250 0.722732
vt 0.417250 0.722732
vt 0.477983 0.735227
vt 0.416343 0.711071
vt 0.477983 0.735227
vt 0.434127 0.698949
vt 0.416343 0.711071
vt 0.416343 0.711071
vt 0.434127 0.698949
vt 0.418231 0.698728
vt 0.418231 0.698728
vt 0.434127 0.698949
vt 0.415921 0.692019
vt 0.434127 0.698949
vt 0.442884 0.692116
vt 0.415921 0.692019
vt 0.415921 0.692019
vt 0.442884 0.692116
vt 0.411295 0.686460
vt 0.442884 0.692116
vt 0.437756 0.678006
vt 0.411295 0.686460
vt 0.411295 0.686460
vt 0.437756 0.678006
vt 0.408048 0.682745
vt 0.408048 0.682745
vt 0.437756 0.678006
vt 0.397111 0.681910
vt 0.477983 0.735227
vt 0.466122 0.725220
vt 0.434127 0.698949
vt 0.434127 0.698949
vt 0.466122 0.725220
vt 0.442884 0.692116
vt 0.466122 0.725220
vt 0.470719 0.729099
vt 0.442884 0.692116
vt 0.442884 0.692116
vt 0.470719 0.729099
vt 0.477983 0.735227
vt 0.483057 0.756252
vt 0.497256 0.720332
vt 0.477983 0.735227
vt 0.477983 0.735227
vt 0.497256 0.720332
vt 0.442884 0.692116
vt 0.497256 0.720332
vt 0.460406 0.690902
vt 0.442884 0.692116
vt 0.442884 0.692116
vt 0.460406 0.690902
vt 0.437756 0.678006
vt 0.460406 0.690902
vt 0.450869 0.673521
vt 0.437756 0.678006
vt 0.437756 0.678006
vt 0.450869 0.673521
vt 0.426133 0.663961
vt 0.450869 0.673521
vt 0.433283 0.622808
vt 0.426133 0.663961
vt 0.426133 0.663961
vt 0.433283 0.622808
vt 0.397366 0.659479
vt 0.433283 0.622808
vt 0.397023 0.621014
vt 0.397366 0.659479
vt 0.397366 0.659479
vt 0.397023 0.621014
vt 0.368386 0.666077
vt 0.489205 0.871273
vt 0.505116 0.880935
vt 0.494557 0.843076
vt 0.505116 0.880935
vt 0.511164 0.849072
vt 0.494557 0.843076
vt 0.511164 0.849072
vt 0.508372 0.804871
vt 0.494557 0.843076
vt 0.494557 0.843076
vt 0.508372 0.804871
vt 0.490748 0.803983
vt 0.490748 0.803983
vt 0.508372 0.804871
vt 0.489946 0.777858
vt 0.508372 0.804871
vt 0.497653 0.774769
vt 0.489946 0.777858
vt 0.489946 0.777858
vt 0.497653 0.774769
vt 0.483057 0.756252
vt 0.497653 0.774769
vt 0.486621 0.756252
vt 0.483057 0.756252
vt 0.483057 0.756252
vt 0.486621 0.756252
vt 0.497256 0.720332
vt 0.479583 0.842482
vt 0.494557 0.843076
vt 0.492526 0.819301
vt 0.494557 0.843076
vt 0.490748 0.803983
vt 0.492526 0.819301
vt 0.492526 0.819301
vt 0.490748 0.803983
vt 0.475894 0.804183
vt 0.490748 0.803983
vt 0.489946 0.777858
vt 0.475894 0.804183
vt 0.475894 0.804183
vt 0.489946 0.777858
vt 0.480914 0.790833
vt 0.480914 0.790833
vt 0.489946 0.777858
vt 0.487312 0.777858
vt 0.487312 0.777858
vt 0.489946 0.777858
vt 0.480424 0.756252
vt 0.489946 0.777858
vt 0.483057 0.756252
vt 0.480424 0.756252
vt 0.480424 0.756252
vt 0.483057 0.756252
vt 0.478690 0.741315
vt 0.478690 0.741315
vt 0.483057 0.756252
vt 0.477983 0.735227
vt 0.480914 0.790833
vt 0.477194 0.798380
vt 0.475894 0.804183
vt 0.477194 0.798380
vt 0.473290 0.801174
vt 0.475894 0.804183
vt 0.475894 0.804183
vt 0.473290 0.801174
vt 0.462179 0.804407
vt 0.437147 0.840275
vt 0.462691 0.841664
vt 0.435489 0.818552
vt 0.462691 0.841664
vt 0.462502 0.817981
vt 0.435489 0.818552
vt 0.435489 0.818552
vt 0.462502 0.817981
vt 0.435777 0.803774
vt 0.435777 0.803774
vt 0.462502 0.817981
vt 0.462179 0.804407
vt 0.462502 0.817981
vt 0.477573 0.818760
vt 0.462179 0.804407
vt 0.462179 0.804407
vt 0.477573 0.818760
vt 0.475894 0.804183
vt 0.475894 0.804183
vt 0.477573 0.818760
vt 0.492526 0.819301
vt 0.492526 0.819301
vt 0.477573 0.818760
vt 0.479583 0.842482
vt 0.479583 0.842482
vt 0.477573 0.818760
vt 0.462691 0.841664
vt 0.477573 0.818760
vt 0.462502 0.817981
vt 0.462691 0.841664
vt 0.497548 0.905394
vt 0.482507 0.892919
vt 0.484645 0.928424
vt 0.455786 0.952962
vt 0.484645 0.928424
vt 0.467307 0.912758
vt 0.484645 0.928424
vt 0.482507 0.892919
vt 0.467307 0.912758
vt 0.467307 0.912758
vt 0.482507 0.892919
vt 0.455100 0.913846
vt 0.455100 0.913846
vt 0.482507 0.892919
vt 0.467563 0.892942
vt 0.467563 0.892942
vt 0.482507 0.892919
vt 0.489205 0.871273
vt 0.482507 0.892919
vt 0.497548 0.905394
vt 0.489205 0.871273
vt 0.489205 0.871273
vt 0.497548 0.905394
vt 0.505116 0.880935
vt 0.455786 0.952962
vt 0.467307 0.912758
vt 0.437676 0.939528
vt 0.467307 0.912758
vt 0.455100 0.913846
vt 0.437676 0.939528
vt 0.437676 0.939528
vt 0.455100 0.913846
vt 0.439859 0.915205
vt 0.439859 0.915205
vt 0.455100 0.913846
vt 0.439904 0.892448
vt 0.439904 0.892448
vt 0.455100 0.913846
vt 0.450821 0.892417
vt 0.455100 0.913846
vt 0.467563 0.892942
vt 0.450821 0.892417
vt 0.450821 0.892417
vt 0.467563 0.892942
vt 0.451665 0.869390
vt 0.451665 0.869390
vt 0.467563 0.892942
vt 0.474235 0.870671
vt 0.467563 0.892942
vt 0.489205 0.871273
vt 0.474235 0.870671
vt 0.474235 0.870671
vt 0.489205 0.871273
vt 0.494557 0.843076
# num_uvs: 1584

g Form2
s 1

usemtl bones
f 21/1/21 25/2/25 38/3/38 
f 37/4/37 16/5/16 38/6/38 
f 52/7/52 38/8/38 53/9/53 
f 52/10/52 37/11/37 38/12/38 
f 51/13/51 37/14/37 52/15/52 
f 36/16/36 37/17/37 51/18/51 
f 36/19/36 16/20/16 37/21/37 
f 17/22/17 16/23/16 36/24/36 
f 17/25/17 5/26/5 16/27/16 
f 88/28/88 61/29/61 67/30/67 
f 88/31/88 53/32/53 61/33/61 
f 89/34/89 53/35/53 88/36/88 
f 89/37/89 52/38/52 53/39/53 
f 90/40/90 52/41/52 89/42/89 
f 90/43/90 51/44/51 52/45/52 
f 48/46/48 51/47/51 90/48/90 
f 48/49/48 36/50/36 51/51/51 
f 34/52/34 36/53/36 48/54/48 
f 34/55/34 17/56/17 36/57/36 
f 113/58/113 87/59/87 112/60/112 
f 118/61/118 87/62/87 113/63/113 
f 118/64/118 88/65/88 87/66/87 
f 127/67/127 88/68/88 118/69/118 
f 126/70/126 88/71/88 127/72/127 
f 126/73/126 89/74/89 88/75/88 
f 128/76/128 89/77/89 126/78/126 
f 128/79/128 90/80/90 89/81/89 
f 91/82/91 120/83/120 92/84/92 
f 91/85/91 116/86/116 120/87/120 
f 90/88/90 116/89/116 91/90/91 
f 90/91/90 131/92/131 116/93/116 
f 128/94/128 131/95/131 90/96/90 
f 128/97/128 140/98/140 131/99/131 
f 146/100/146 140/101/140 128/102/128 
f 146/103/146 152/104/152 140/105/140 
f 159/106/159 152/107/152 146/108/146 
f 159/109/159 174/110/174 152/111/152 
f 140/112/140 139/113/139 131/114/131 
f 133/115/133 131/116/131 139/117/139 
f 133/118/133 116/119/116 131/120/131 
f 133/121/133 120/122/120 116/123/116 
f 132/124/132 120/125/120 133/126/133 
f 132/127/132 123/128/123 120/129/120 
f 132/130/132 121/131/121 123/132/123 
f 129/133/129 121/134/121 132/135/132 
f 129/136/129 137/137/137 121/138/121 
f 138/139/138 137/140/137 129/141/129 
f 138/142/138 148/143/148 137/144/137 
f 121/145/121 119/146/119 96/147/96 
f 121/148/121 137/149/137 119/150/119 
f 42/151/42 41/152/41 29/153/29 
f 62/154/62 41/155/41 42/156/42 
f 62/157/62 63/158/63 41/159/41 
f 62/160/62 96/161/96 63/162/63 
f 95/163/95 96/164/96 62/165/62 
f 95/166/95 121/167/121 96/168/96 
f 94/169/94 121/170/121 95/171/95 
f 94/172/94 123/173/123 121/174/121 
f 92/175/92 123/176/123 94/177/94 
f 92/178/92 120/179/120 123/180/123 
f 92/181/92 60/182/60 56/183/56 
f 94/184/94 60/185/60 92/186/92 
f 94/187/94 62/188/62 60/189/60 
f 95/190/95 62/191/62 94/192/94 
f 49/193/49 62/194/62 54/195/54 
f 49/196/49 60/197/60 62/198/62 
f 47/199/47 60/200/60 49/201/49 
f 47/202/47 56/203/56 60/204/60 
f 48/205/48 56/206/56 47/207/47 
f 48/208/48 58/209/58 56/210/56 
f 90/211/90 58/212/58 48/213/48 
f 91/214/91 58/215/58 90/216/90 
f 91/217/91 56/218/56 58/219/58 
f 92/220/92 56/221/56 91/222/91 
f 33/223/33 54/224/54 46/225/46 
f 33/226/33 49/227/49 54/228/54 
f 35/229/35 33/230/33 31/231/31 
f 35/232/35 49/233/49 33/234/33 
f 35/235/35 47/236/47 49/237/49 
f 34/238/34 47/239/47 35/240/35 
f 34/241/34 48/242/48 47/243/47 
f 35/244/35 26/245/26 34/246/34 
f 31/247/31 26/248/26 35/249/35 
f 31/250/31 12/251/12 26/252/26 
f 31/253/31 23/254/23 12/255/12 
f 33/256/33 23/257/23 31/258/31 
f 33/259/33 30/260/30 23/261/23 
f 46/262/46 30/263/30 33/264/33 
f 46/265/46 42/266/42 30/267/30 
f 54/268/54 42/269/42 46/270/46 
f 54/271/54 62/272/62 42/273/42 
f 26/274/26 17/275/17 34/276/34 
f 26/277/26 5/278/5 17/279/17 
f 12/280/12 5/281/5 26/282/26 
f 12/283/12 2/284/2 5/285/5 
f 12/286/12 8/287/8 2/288/2 
f 23/289/23 8/290/8 12/291/12 
f 23/292/23 15/293/15 8/294/8 
f 30/295/30 15/296/15 23/297/23 
f 30/298/30 29/299/29 15/300/15 
f 42/301/42 29/302/29 30/303/30 
f 7/304/7 3/305/3 10/306/10 
f 6/307/6 3/308/3 7/309/7 
f 6/310/6 1/311/1 3/312/3 
f 6/313/6 2/314/2 1/315/1 
f 6/316/6 5/317/5 2/318/2 
f 4/319/4 5/320/5 6/321/6 
f 4/322/4 16/323/16 5/324/5 
f 20/325/20 16/326/16 4/327/4 
f 20/328/20 38/329/38 16/330/16 
f 24/331/24 38/332/38 20/333/20 
f 24/334/24 21/335/21 38/336/38 
f 24/337/24 13/338/13 21/339/21 
f 20/340/20 13/341/13 24/342/24 
f 20/343/20 7/344/7 13/345/13 
f 20/346/20 6/347/6 7/348/7 
f 4/349/4 6/350/6 20/351/20 
f 27/352/27 9/353/9 13/354/13 
f 18/355/18 13/356/13 7/357/7 
f 18/358/18 27/359/27 13/360/13 
f 44/361/44 27/362/27 18/363/18 
f 28/364/28 27/365/27 44/366/44 
f 28/367/28 9/368/9 27/369/27 
f 28/370/28 19/371/19 9/372/9 
f 22/373/22 19/374/19 28/375/28 
f 28/376/28 44/377/44 32/378/32 
f 55/379/55 44/380/44 50/381/50 
f 55/382/55 32/383/32 44/384/44 
f 55/385/55 22/386/22 32/387/32 
f 40/388/40 22/389/22 55/390/55 
f 64/391/64 57/392/57 81/393/81 
f 50/394/50 57/395/57 64/396/64 
f 50/397/50 43/398/43 57/399/57 
f 44/400/44 43/401/43 50/402/50 
f 44/403/44 39/404/39 43/405/43 
f 44/406/44 11/407/11 39/408/39 
f 18/409/18 11/410/11 44/411/44 
f 18/412/18 14/413/14 11/414/11 
f 7/415/7 14/416/14 18/417/18 
f 7/418/7 10/419/10 14/420/14 
f 14/421/14 10/422/10 11/423/11 
f 83/424/83 117/425/117 130/426/130 
f 82/427/82 117/428/117 83/429/83 
f 82/430/82 93/431/93 117/432/117 
f 82/433/82 64/434/64 93/435/93 
f 82/436/82 50/437/50 64/438/64 
f 83/439/83 50/440/50 82/441/82 
f 78/442/78 50/443/50 83/444/83 
f 78/445/78 55/446/55 50/447/50 
f 70/448/70 55/449/55 78/450/78 
f 70/451/70 40/452/40 55/453/55 
f 68/454/68 40/455/40 70/456/70 
f 68/457/68 71/458/71 40/459/40 
f 69/460/69 71/461/71 68/462/68 
f 70/463/70 78/464/78 74/465/74 
f 40/466/40 59/467/59 45/468/45 
f 71/469/71 59/470/59 40/471/40 
f 71/472/71 76/473/76 59/474/59 
f 75/475/75 76/476/76 71/477/71 
f 59/478/59 76/479/76 65/480/65 
f 79/481/79 76/482/76 77/483/77 
f 79/484/79 65/485/65 76/486/76 
f 80/487/80 65/488/65 79/489/79 
f 80/490/80 66/491/66 65/492/65 
f 84/493/84 66/494/66 80/495/80 
f 84/496/84 73/497/73 66/498/66 
f 85/499/85 73/500/73 84/501/84 
f 86/502/86 73/503/73 85/504/85 
f 86/505/86 72/506/72 73/507/73 
f 67/508/67 72/509/72 86/510/86 
f 114/511/114 98/512/98 115/513/115 
f 114/514/114 97/515/97 98/516/98 
f 114/517/114 84/518/84 97/519/97 
f 114/520/114 85/521/85 84/522/84 
f 111/523/111 85/524/85 114/525/114 
f 112/526/112 85/527/85 111/528/111 
f 112/529/112 86/530/86 85/531/85 
f 87/532/87 86/533/86 112/534/112 
f 87/535/87 67/536/67 86/537/86 
f 88/538/88 67/539/67 87/540/87 
f 141/541/141 106/542/106 109/543/109 
f 141/544/141 105/545/105 106/546/106 
f 141/547/141 104/548/104 105/549/105 
f 134/550/134 104/551/104 141/552/141 
f 134/553/134 102/554/102 104/555/104 
f 122/556/122 102/557/102 134/558/134 
f 122/559/122 100/560/100 102/561/102 
f 115/562/115 100/563/100 122/564/122 
f 115/565/115 99/566/99 100/567/100 
f 115/568/115 98/569/98 99/570/99 
f 109/571/109 157/572/157 141/573/141 
f 108/574/108 157/575/157 109/576/109 
f 108/577/108 125/578/125 157/579/157 
f 110/580/110 125/581/125 108/582/108 
f 107/583/107 125/584/125 110/585/110 
f 107/586/107 135/587/135 125/588/125 
f 103/589/103 135/590/135 107/591/107 
f 103/592/103 130/593/130 135/594/135 
f 101/595/101 130/596/130 103/597/103 
f 83/598/83 130/599/130 101/600/101 
f 125/601/125 147/602/147 157/603/157 
f 135/604/135 147/605/147 125/606/125 
f 135/607/135 150/608/150 147/609/147 
f 157/610/157 150/611/150 135/612/135 
f 157/613/157 164/614/164 163/615/163 
f 135/616/135 164/617/164 157/618/157 
f 135/619/135 142/620/142 164/621/164 
f 130/622/130 142/623/142 135/624/135 
f 130/625/130 136/626/136 142/627/142 
f 117/628/117 136/629/136 130/630/130 
f 117/631/117 124/632/124 136/633/136 
f 93/634/93 124/635/124 117/636/117 
f 93/637/93 81/638/81 124/639/124 
f 64/640/64 81/641/81 93/642/93 
f 174/643/174 173/644/173 169/645/169 
f 174/646/174 176/647/176 173/648/173 
f 174/649/174 175/650/175 176/651/176 
f 171/652/171 175/653/175 174/654/174 
f 170/655/170 175/656/175 171/657/171 
f 170/658/170 166/659/166 175/660/175 
f 163/661/163 166/662/166 170/663/170 
f 163/664/163 167/665/167 166/666/166 
f 164/667/164 167/668/167 163/669/163 
f 172/670/172 174/671/174 159/672/159 
f 172/673/172 171/674/171 174/675/174 
f 154/676/154 171/677/171 172/678/172 
f 154/679/154 170/680/170 171/681/171 
f 161/682/161 170/683/170 154/684/154 
f 168/685/168 170/686/170 161/687/161 
f 160/688/160 170/689/170 168/690/168 
f 160/691/160 163/692/163 170/693/170 
f 158/694/158 163/695/163 160/696/160 
f 157/697/157 163/698/163 158/699/158 
f 154/700/154 155/701/155 161/702/161 
f 154/703/154 151/704/151 155/705/155 
f 144/706/144 151/707/151 154/708/154 
f 126/709/126 146/710/146 128/711/128 
f 126/712/126 145/713/145 146/714/146 
f 127/715/127 145/716/145 126/717/126 
f 144/718/144 145/719/145 127/720/127 
f 144/721/144 156/722/156 145/723/145 
f 154/724/154 156/725/156 144/726/144 
f 172/727/172 156/728/156 154/729/154 
f 159/730/159 156/731/156 172/732/172 
f 146/733/146 156/734/156 159/735/159 
f 146/736/146 145/737/145 156/738/156 
f 153/739/153 162/740/162 165/741/165 
f 148/742/148 153/743/153 137/744/137 
f 148/745/148 162/746/162 153/747/153 
f 143/748/143 162/749/162 148/750/148 
f 149/751/149 162/752/162 143/753/143 
f 169/754/169 162/755/162 149/756/149 
f 169/757/169 165/758/165 162/759/162 
f 173/760/173 165/761/165 169/762/169 
f 129/763/129 148/764/148 138/765/138 
f 129/766/129 143/767/143 148/768/148 
f 132/769/132 143/770/143 129/771/129 
f 133/772/133 143/773/143 132/774/132 
f 139/775/139 143/776/143 133/777/133 
f 139/778/139 149/779/149 143/780/143 
f 140/781/140 149/782/149 139/783/139 
f 152/784/152 149/785/149 140/786/140 
f 152/787/152 169/788/169 149/789/149 
f 174/790/174 169/791/169 152/792/152 
f 38/793/38 25/794/25 21/795/21 
f 38/796/38 16/797/16 37/798/37 
f 53/799/53 38/800/38 52/801/52 
f 38/802/38 37/803/37 52/804/52 
f 52/805/52 37/806/37 51/807/51 
f 51/808/51 37/809/37 36/810/36 
f 37/811/37 16/812/16 36/813/36 
f 36/814/36 16/815/16 17/816/17 
f 16/817/16 5/818/5 17/819/17 
f 67/820/67 61/821/61 88/822/88 
f 61/823/61 53/824/53 88/825/88 
f 88/826/88 53/827/53 89/828/89 
f 53/829/53 52/830/52 89/831/89 
f 89/832/89 52/833/52 90/834/90 
f 52/835/52 51/836/51 90/837/90 
f 90/838/90 51/839/51 48/840/48 
f 51/841/51 36/842/36 48/843/48 
f 48/844/48 36/845/36 34/846/34 
f 36/847/36 17/848/17 34/849/34 
f 112/850/112 87/851/87 113/852/113 
f 113/853/113 87/854/87 118/855/118 
f 87/856/87 88/857/88 118/858/118 
f 118/859/118 88/860/88 127/861/127 
f 127/862/127 88/863/88 126/864/126 
f 88/865/88 89/866/89 126/867/126 
f 126/868/126 89/869/89 128/870/128 
f 89/871/89 90/872/90 128/873/128 
f 92/874/92 120/875/120 91/876/91 
f 120/877/120 116/878/116 91/879/91 
f 91/880/91 116/881/116 90/882/90 
f 116/883/116 131/884/131 90/885/90 
f 90/886/90 131/887/131 128/888/128 
f 131/889/131 140/890/140 128/891/128 
f 128/892/128 140/893/140 146/894/146 
f 140/895/140 152/896/152 146/897/146 
f 146/898/146 152/899/152 159/900/159 
f 152/901/152 174/902/174 159/903/159 
f 131/904/131 139/905/139 140/906/140 
f 139/907/139 131/908/131 133/909/133 
f 131/910/131 116/911/116 133/912/133 
f 116/913/116 120/914/120 133/915/133 
f 133/916/133 120/917/120 132/918/132 
f 120/919/120 123/920/123 132/921/132 
f 123/922/123 121/923/121 132/924/132 
f 132/925/132 121/926/121 129/927/129 
f 121/928/121 137/929/137 129/930/129 
f 129/931/129 137/932/137 138/933/138 
f 137/934/137 148/935/148 138/936/138 
f 96/937/96 119/938/119 121/939/121 
f 119/940/119 137/941/137 121/942/121 
f 29/943/29 41/944/41 42/945/42 
f 42/946/42 41/947/41 62/948/62 
f 41/949/41 63/950/63 62/951/62 
f 63/952/63 96/953/96 62/954/62 
f 62/955/62 96/956/96 95/957/95 
f 96/958/96 121/959/121 95/960/95 
f 95/961/95 121/962/121 94/963/94 
f 121/964/121 123/965/123 94/966/94 
f 94/967/94 123/968/123 92/969/92 
f 123/970/123 120/971/120 92/972/92 
f 56/973/56 60/974/60 92/975/92 
f 92/976/92 60/977/60 94/978/94 
f 60/979/60 62/980/62 94/981/94 
f 94/982/94 62/983/62 95/984/95 
f 54/985/54 62/986/62 49/987/49 
f 62/988/62 60/989/60 49/990/49 
f 49/991/49 60/992/60 47/993/47 
f 60/994/60 56/995/56 47/996/47 
f 47/997/47 56/998/56 48/999/48 
f 56/1000/56 58/1001/58 48/1002/48 
f 48/1003/48 58/1004/58 90/1005/90 
f 90/1006/90 58/1007/58 91/1008/91 
f 58/1009/58 56/1010/56 91/1011/91 
f 91/1012/91 56/1013/56 92/1014/92 
f 46/1015/46 54/1016/54 33/1017/33 
f 54/1018/54 49/1019/49 33/1020/33 
f 31/1021/31 33/1022/33 35/1023/35 
f 33/1024/33 49/1025/49 35/1026/35 
f 49/1027/49 47/1028/47 35/1029/35 
f 35/1030/35 47/1031/47 34/1032/34 
f 47/1033/47 48/1034/48 34/1035/34 
f 34/1036/34 26/1037/26 35/1038/35 
f 35/1039/35 26/1040/26 31/1041/31 
f 26/1042/26 12/1043/12 31/1044/31 
f 12/1045/12 23/1046/23 31/1047/31 
f 31/1048/31 23/1049/23 33/1050/33 
f 23/1051/23 30/1052/30 33/1053/33 
f 33/1054/33 30/1055/30 46/1056/46 
f 30/1057/30 42/1058/42 46/1059/46 
f 46/1060/46 42/1061/42 54/1062/54 
f 42/1063/42 62/1064/62 54/1065/54 
f 34/1066/34 17/1067/17 26/1068/26 
f 17/1069/17 5/1070/5 26/1071/26 
f 26/1072/26 5/1073/5 12/1074/12 
f 5/1075/5 2/1076/2 12/1077/12 
f 2/1078/2 8/1079/8 12/1080/12 
f 12/1081/12 8/1082/8 23/1083/23 
f 8/1084/8 15/1085/15 23/1086/23 
f 23/1087/23 15/1088/15 30/1089/30 
f 15/1090/15 29/1091/29 30/1092/30 
f 30/1093/30 29/1094/29 42/1095/42 
f 10/1096/10 3/1097/3 7/1098/7 
f 7/1099/7 3/1100/3 6/1101/6 
f 3/1102/3 1/1103/1 6/1104/6 
f 1/1105/1 2/1106/2 6/1107/6 
f 2/1108/2 5/1109/5 6/1110/6 
f 6/1111/6 5/1112/5 4/1113/4 
f 5/1114/5 16/1115/16 4/1116/4 
f 4/1117/4 16/1118/16 20/1119/20 
f 16/1120/16 38/1121/38 20/1122/20 
f 20/1123/20 38/1124/38 24/1125/24 
f 38/1126/38 21/1127/21 24/1128/24 
f 21/1129/21 13/1130/13 24/1131/24 
f 24/1132/24 13/1133/13 20/1134/20 
f 13/1135/13 7/1136/7 20/1137/20 
f 7/1138/7 6/1139/6 20/1140/20 
f 20/1141/20 6/1142/6 4/1143/4 
f 13/1144/13 9/1145/9 27/1146/27 
f 7/1147/7 13/1148/13 18/1149/18 
f 13/1150/13 27/1151/27 18/1152/18 
f 18/1153/18 27/1154/27 44/1155/44 
f 44/1156/44 27/1157/27 28/1158/28 
f 27/1159/27 9/1160/9 28/1161/28 
f 9/1162/9 19/1163/19 28/1164/28 
f 28/1165/28 19/1166/19 22/1167/22 
f 32/1168/32 44/1169/44 28/1170/28 
f 50/1171/50 44/1172/44 55/1173/55 
f 44/1174/44 32/1175/32 55/1176/55 
f 32/1177/32 22/1178/22 55/1179/55 
f 55/1180/55 22/1181/22 40/1182/40 
f 81/1183/81 57/1184/57 64/1185/64 
f 64/1186/64 57/1187/57 50/1188/50 
f 57/1189/57 43/1190/43 50/1191/50 
f 50/1192/50 43/1193/43 44/1194/44 
f 43/1195/43 39/1196/39 44/1197/44 
f 39/1198/39 11/1199/11 44/1200/44 
f 44/1201/44 11/1202/11 18/1203/18 
f 11/1204/11 14/1205/14 18/1206/18 
f 18/1207/18 14/1208/14 7/1209/7 
f 14/1210/14 10/1211/10 7/1212/7 
f 11/1213/11 10/1214/10 14/1215/14 
f 130/1216/130 117/1217/117 83/1218/83 
f 83/1219/83 117/1220/117 82/1221/82 
f 117/1222/117 93/1223/93 82/1224/82 
f 93/1225/93 64/1226/64 82/1227/82 
f 64/1228/64 50/1229/50 82/1230/82 
f 82/1231/82 50/1232/50 83/1233/83 
f 83/1234/83 50/1235/50 78/1236/78 
f 50/1237/50 55/1238/55 78/1239/78 
f 78/1240/78 55/1241/55 70/1242/70 
f 55/1243/55 40/1244/40 70/1245/70 
f 70/1246/70 40/1247/40 68/1248/68 
f 40/1249/40 71/1250/71 68/1251/68 
f 68/1252/68 71/1253/71 69/1254/69 
f 74/1255/74 78/1256/78 70/1257/70 
f 45/1258/45 59/1259/59 40/1260/40 
f 40/1261/40 59/1262/59 71/1263/71 
f 59/1264/59 76/1265/76 71/1266/71 
f 71/1267/71 76/1268/76 75/1269/75 
f 65/1270/65 76/1271/76 59/1272/59 
f 77/1273/77 76/1274/76 79/1275/79 
f 76/1276/76 65/1277/65 79/1278/79 
f 79/1279/79 65/1280/65 80/1281/80 
f 65/1282/65 66/1283/66 80/1284/80 
f 80/1285/80 66/1286/66 84/1287/84 
f 66/1288/66 73/1289/73 84/1290/84 
f 84/1291/84 73/1292/73 85/1293/85 
f 85/1294/85 73/1295/73 86/1296/86 
f 73/1297/73 72/1298/72 86/1299/86 
f 86/1300/86 72/1301/72 67/1302/67 
f 115/1303/115 98/1304/98 114/1305/114 
f 98/1306/98 97/1307/97 114/1308/114 
f 97/1309/97 84/1310/84 114/1311/114 
f 84/1312/84 85/1313/85 114/1314/114 
f 114/1315/114 85/1316/85 111/1317/111 
f 111/1318/111 85/1319/85 112/1320/112 
f 85/1321/85 86/1322/86 112/1323/112 
f 112/1324/112 86/1325/86 87/1326/87 
f 86/1327/86 67/1328/67 87/1329/87 
f 87/1330/87 67/1331/67 88/1332/88 
f 109/1333/109 106/1334/106 141/1335/141 
f 106/1336/106 105/1337/105 141/1338/141 
f 105/1339/105 104/1340/104 141/1341/141 
f 141/1342/141 104/1343/104 134/1344/134 
f 104/1345/104 102/1346/102 134/1347/134 
f 134/1348/134 102/1349/102 122/1350/122 
f 102/1351/102 100/1352/100 122/1353/122 
f 122/1354/122 100/1355/100 115/1356/115 
f 100/1357/100 99/1358/99 115/1359/115 
f 99/1360/99 98/1361/98 115/1362/115 
f 141/1363/141 157/1364/157 109/1365/109 
f 109/1366/109 157/1367/157 108/1368/108 
f 157/1369/157 125/1370/125 108/1371/108 
f 108/1372/108 125/1373/125 110/1374/110 
f 110/1375/110 125/1376/125 107/1377/107 
f 125/1378/125 135/1379/135 107/1380/107 
f 107/1381/107 135/1382/135 103/1383/103 
f 135/1384/135 130/1385/130 103/1386/103 
f 103/1387/103 130/1388/130 101/1389/101 
f 101/1390/101 130/1391/130 83/1392/83 
f 157/1393/157 147/1394/147 125/1395/125 
f 125/1396/125 147/1397/147 135/1398/135 
f 147/1399/147 150/1400/150 135/1401/135 
f 135/1402/135 150/1403/150 157/1404/157 
f 163/1405/163 164/1406/164 157/1407/157 
f 157/1408/157 164/1409/164 135/1410/135 
f 164/1411/164 142/1412/142 135/1413/135 
f 135/1414/135 142/1415/142 130/1416/130 
f 142/1417/142 136/1418/136 130/1419/130 
f 130/1420/130 136/1421/136 117/1422/117 
f 136/1423/136 124/1424/124 117/1425/117 
f 117/1426/117 124/1427/124 93/1428/93 
f 124/1429/124 81/1430/81 93/1431/93 
f 93/1432/93 81/1433/81 64/1434/64 
f 169/1435/169 173/1436/173 174/1437/174 
f 173/1438/173 176/1439/176 174/1440/174 
f 176/1441/176 175/1442/175 174/1443/174 
f 174/1444/174 175/1445/175 171/1446/171 
f 171/1447/171 175/1448/175 170/1449/170 
f 175/1450/175 166/1451/166 170/1452/170 
f 170/1453/170 166/1454/166 163/1455/163 
f 166/1456/166 167/1457/167 163/1458/163 
f 163/1459/163 167/1460/167 164/1461/164 
f 159/1462/159 174/1463/174 172/1464/172 
f 174/1465/174 171/1466/171 172/1467/172 
f 172/1468/172 171/1469/171 154/1470/154 
f 171/1471/171 170/1472/170 154/1473/154 
f 154/1474/154 170/1475/170 161/1476/161 
f 161/1477/161 170/1478/170 168/1479/168 
f 168/1480/168 170/1481/170 160/1482/160 
f 170/1483/170 163/1484/163 160/1485/160 
f 160/1486/160 163/1487/163 158/1488/158 
f 158/1489/158 163/1490/163 157/1491/157 
f 161/1492/161 155/1493/155 154/1494/154 
f 155/1495/155 151/1496/151 154/1497/154 
f 154/1498/154 151/1499/151 144/1500/144 
f 128/1501/128 146/1502/146 126/1503/126 
f 146/1504/146 145/1505/145 126/1506/126 
f 126/1507/126 145/1508/145 127/1509/127 
f 127/1510/127 145/1511/145 144/1512/144 
f 145/1513/145 156/1514/156 144/1515/144 
f 144/1516/144 156/1517/156 154/1518/154 
f 154/1519/154 156/1520/156 172/1521/172 
f 172/1522/172 156/1523/156 159/1524/159 
f 159/1525/159 156/1526/156 146/1527/146 
f 156/1528/156 145/1529/145 146/1530/146 
f 165/1531/165 162/1532/162 153/1533/153 
f 137/1534/137 153/1535/153 148/1536/148 
f 153/1537/153 162/1538/162 148/1539/148 
f 148/1540/148 162/1541/162 143/1542/143 
f 143/1543/143 162/1544/162 149/1545/149 
f 149/1546/149 162/1547/162 169/1548/169 
f 162/1549/162 165/1550/165 169/1551/169 
f 169/1552/169 165/1553/165 173/1554/173 
f 138/1555/138 148/1556/148 129/1557/129 
f 148/1558/148 143/1559/143 129/1560/129 
f 129/1561/129 143/1562/143 132/1563/132 
f 132/1564/132 143/1565/143 133/1566/133 
f 133/1567/133 143/1568/143 139/1569/139 
f 143/1570/143 149/1571/149 139/1572/139 
f 139/1573/139 149/1574/149 140/1575/140 
f 140/1576/140 149/1577/149 152/1578/152 
f 149/1579/149 169/1580/169 152/1581/152 
f 152/1582/152 169/1583/169 174/1584/174 
# num_faces: 528

