xof 0303txt 0032

// DirectX 9.0 file
// Creator: Ultimate Unwrap3D Pro v3.19
// Website: http://www.unwrap3d.com
// Time: Thu Dec 10 21:24:15 2009

// Start of Templates

template VertexDuplicationIndices {
 <b8d65549-d7c9-4995-89cf-53a9a8b031e3>
 DWORD nIndices;
 DWORD nOriginalVertices;
 array DWORD indices[nIndices];
}

template FVFData {
 <b6e70a0e-8ef9-4e83-94ad-ecc8b0c04897>
 DWORD dwFVF;
 DWORD nDWords;
 array DWORD data[nDWords];
}

template Header {
 <3D82AB43-62DA-11cf-AB39-0020AF71E433>
 WORD major;
 WORD minor;
 DWORD flags;
}

template Vector {
 <3D82AB5E-62DA-11cf-AB39-0020AF71E433>
 FLOAT x;
 FLOAT y;
 FLOAT z;
}

template Coords2d {
 <F6F23F44-7686-11cf-8F52-0040333594A3>
 FLOAT u;
 FLOAT v;
}

template Matrix4x4 {
 <F6F23F45-7686-11cf-8F52-0040333594A3>
 array FLOAT matrix[16];
}

template ColorRGBA {
 <35FF44E0-6C7C-11cf-8F52-0040333594A3>
 FLOAT red;
 FLOAT green;
 FLOAT blue;
 FLOAT alpha;
}

template ColorRGB {
 <D3E16E81-7835-11cf-8F52-0040333594A3>
 FLOAT red;
 FLOAT green;
 FLOAT blue;
}

template IndexedColor {
 <1630B820-7842-11cf-8F52-0040333594A3>
 DWORD index;
 ColorRGBA indexColor;
}

template Material {
 <3D82AB4D-62DA-11cf-AB39-0020AF71E433>
 ColorRGBA faceColor;
 FLOAT power;
 ColorRGB specularColor;
 ColorRGB emissiveColor;
 [...]
}

template TextureFilename {
 <A42790E1-7810-11cf-8F52-0040333594A3>
 STRING filename;
}

template MeshFace {
 <3D82AB5F-62DA-11cf-AB39-0020AF71E433>
 DWORD nFaceVertexIndices;
 array DWORD faceVertexIndices[nFaceVertexIndices];
}

template MeshTextureCoords {
 <F6F23F40-7686-11cf-8F52-0040333594A3>
 DWORD nTextureCoords;
 array Coords2d textureCoords[nTextureCoords];
}

template MeshMaterialList {
 <F6F23F42-7686-11cf-8F52-0040333594A3>
 DWORD nMaterials;
 DWORD nFaceIndexes;
 array DWORD faceIndexes[nFaceIndexes];
 [Material]
}

template MeshNormals {
 <F6F23F43-7686-11cf-8F52-0040333594A3>
 DWORD nNormals;
 array Vector normals[nNormals];
 DWORD nFaceNormals;
 array MeshFace faceNormals[nFaceNormals];
}

template MeshVertexColors {
 <1630B821-7842-11cf-8F52-0040333594A3>
 DWORD nVertexColors;
 array IndexedColor vertexColors[nVertexColors];
}

template Mesh {
 <3D82AB44-62DA-11cf-AB39-0020AF71E433>
 DWORD nVertices;
 array Vector vertices[nVertices];
 DWORD nFaces;
 array MeshFace faces[nFaces];
 [...]
}

template FrameTransformMatrix {
 <F6F23F41-7686-11cf-8F52-0040333594A3>
 Matrix4x4 frameMatrix;
}

template Frame {
 <3D82AB46-62DA-11cf-AB39-0020AF71E433>
 [...]
}

template FloatKeys {
 <10DD46A9-775B-11cf-8F52-0040333594A3>
 DWORD nValues;
 array FLOAT values[nValues];
}

template TimedFloatKeys {
 <F406B180-7B3B-11cf-8F52-0040333594A3>
 DWORD time;
 FloatKeys tfkeys;
}

template AnimationKey {
 <10DD46A8-775B-11cf-8F52-0040333594A3>
 DWORD keyType;
 DWORD nKeys;
 array TimedFloatKeys keys[nKeys];
}

template AnimationOptions {
 <E2BF56C0-840F-11cf-8F52-0040333594A3>
 DWORD openclosed;
 DWORD positionquality;
}

template Animation {
 <3D82AB4F-62DA-11cf-AB39-0020AF71E433>
 [...]
}

template AnimationSet {
 <3D82AB50-62DA-11cf-AB39-0020AF71E433>
 [Animation]
}

template XSkinMeshHeader {
 <3CF169CE-FF7C-44ab-93C0-F78F62D172E2>
 WORD nMaxSkinWeightsPerVertex;
 WORD nMaxSkinWeightsPerFace;
 WORD nBones;
}

template SkinWeights {
 <6F0D123B-BAD2-4167-A0D0-80224F25FABB>
 STRING transformNodeName;
 DWORD nWeights;
 array DWORD vertexIndices[nWeights];
 array FLOAT weights[nWeights];
 Matrix4x4 matrixOffset;
}

template AnimTicksPerSecond {
 <9E415A43-7BA6-4a73-8743-B73D47E88476>
 DWORD AnimTicksPerSecond;
}

AnimTicksPerSecond {
 30;
}

// Start of Frames

   Frame Body {
      FrameTransformMatrix {
       1.000000, 0.000000, 0.000000, 0.000000,
       0.000000, 1.000000, 0.000000, 0.000000,
       0.000000, 0.000000, 1.000000, 0.000000,
       0.000000, 0.000000, 0.000000, 1.000000;;
      }

   }
   Frame def_surf_mat {
      FrameTransformMatrix {
       1.000000, 0.000000, 0.000000, 0.000000,
       0.000000, 1.000000, 0.000000, 0.000000,
       0.000000, 0.000000, 1.000000, 0.000000,
       0.000000, 0.000000, 0.000000, 1.000000;;
      }

   }

   Frame Body0 {
      FrameTransformMatrix {
       1.000000, 0.000000, 0.000000, 0.000000,
       0.000000, 1.000000, 0.000000, 0.000000,
       0.000000, 0.000000, 1.000000, 0.000000,
       0.000000, 0.000000, 0.000000, 1.000000;;
      }

      Mesh skinnedMesh {
       345;
       13.985650; 30.610790; -6.182652;,
       14.005651; 31.402988; -5.445950;,
       19.508551; 30.438391; -6.182652;,
       19.442150; 31.085190; -5.445950;,
       19.442150; 31.085190; -5.445950;,
       20.253651; 30.732391; -4.873051;,
       19.508551; 30.438391; -6.182652;,
       20.607349; 30.265989; -5.445950;,
       20.691351; 29.437490; -5.445950;,
       19.556551; 29.480591; -6.182652;,
       19.556551; 29.480591; -6.182652;,
       13.967650; 29.523689; -6.182652;,
       13.972750; 25.379890; -6.182652;,
       13.972150; 26.885891; -6.182652;,
       19.247250; 25.478390; -6.182652;,
       19.417450; 26.910490; -6.182652;,
       19.417450; 26.910490; -6.182652;,
       20.447849; 26.935091; -5.445950;,
       19.247250; 25.478390; -6.182652;,
       20.150049; 25.576990; -5.445950;,
       19.758650; 24.766190; -4.873051;,
       19.095449; 24.378891; -5.445950;,
       19.095449; 24.378891; -5.445950;,
       13.971350; 24.206390; -5.445950;,
       13.985650; 30.610790; 6.353050;,
       13.967650; 29.523689; 6.353050;,
       19.508551; 30.438391; 6.353050;,
       19.556551; 29.480591; 6.353050;,
       19.556551; 29.480591; 6.353050;,
       20.691351; 29.437490; 5.522751;,
       19.508551; 30.438391; 6.353050;,
       20.607349; 30.265989; 5.522751;,
       20.253651; 30.732391; 4.876953;,
       19.442150; 31.085190; 5.522751;,
       19.442150; 31.085190; 5.522751;,
       14.005651; 31.402988; 5.522751;,
       13.972750; 25.379890; 6.353050;,
       13.971350; 24.206390; 5.522751;,
       19.247250; 25.478390; 6.353050;,
       19.095449; 24.378891; 5.522751;,
       19.095449; 24.378891; 5.522751;,
       19.758650; 24.766190; 4.876953;,
       19.247250; 25.478390; 6.353050;,
       20.150049; 25.576990; 5.522751;,
       20.447849; 26.935091; 5.522751;,
       19.417450; 26.910490; 6.353050;,
       19.417450; 26.910490; 6.353050;,
       13.972150; 26.885891; 6.353050;,
       13.966750; 28.274590; 6.353050;,
       19.523350; 28.274590; 6.353050;,
       19.523350; 28.274590; 6.353050;,
       20.633249; 28.274590; 5.522751;,
       13.966750; 28.274590; -6.182652;,
       19.523350; 28.274590; -6.182652;,
       19.523350; 28.274590; -6.182652;,
       20.633249; 28.274590; -5.445950;,
       20.496750; 30.797890; -3.236153;,
       20.496750; 30.808590; -0.195953;,
       20.973650; 30.208590; -3.236153;,
       20.973650; 30.208590; -0.195953;,
       21.069651; 29.423191; -0.195953;,
       21.069651; 29.423191; -3.236153;,
       20.496750; 30.797890; 3.031647;,
       20.973650; 30.208590; 3.031647;,
       21.069651; 29.423191; 3.031647;,
       -17.932949; 30.689789; 5.522751;,
       -17.651350; 31.325989; 4.876953;,
       -18.016350; 30.754292; 3.031647;,
       -17.640350; 31.616390; 3.031647;,
       -17.640350; 31.691589; -0.195953;,
       -18.016350; 30.797291; -0.195953;,
       -18.256550; 29.570290; -0.195953;,
       -18.256550; 29.559589; 3.031647;,
       -18.173250; 29.543489; 5.522751;,
       -17.640350; 31.616390; -3.236153;,
       -17.651350; 31.325989; -4.873051;,
       -18.016350; 30.754292; -3.236153;,
       -17.932949; 30.689789; -5.445950;,
       -18.173250; 29.543489; -5.445950;,
       -18.256550; 29.559589; -3.236153;,
       21.003250; 28.274590; 3.031647;,
       20.791349; 26.943390; 3.031647;,
       20.791349; 26.943390; -0.195953;,
       21.003250; 28.274590; -0.195953;,
       20.791349; 26.943390; -3.236153;,
       21.003250; 28.274590; -3.236153;,
       20.450951; 25.609791; 3.031647;,
       19.897150; 24.543190; 3.031647;,
       19.897150; 24.543190; -0.195953;,
       20.450951; 25.609791; -0.195953;,
       19.897150; 24.543190; -3.236153;,
       20.450951; 25.609791; -3.236153;,
       -17.220850; 24.148890; -3.236153;,
       -17.220850; 24.148890; -0.195953;,
       -17.596951; 25.346991; -3.236153;,
       -17.596951; 25.346991; -0.195953;,
       -17.941950; 26.877590; -0.195953;,
       -17.941950; 26.877590; -3.236153;,
       -17.858650; 26.877590; -5.445950;,
       -17.513550; 25.346991; -5.445950;,
       -17.231951; 24.459591; -4.873051;,
       -17.220850; 24.148890; 3.031647;,
       -17.231951; 24.459591; 4.876953;,
       -17.596951; 25.346991; 3.031647;,
       -17.513550; 25.346991; 5.522751;,
       -17.858650; 26.877590; 5.522751;,
       -17.941950; 26.877590; 3.031647;,
       -18.113449; 28.274590; 5.522751;,
       -18.196850; 28.274590; 3.031647;,
       -18.196850; 28.274590; -0.195953;,
       -18.196850; 28.274590; -3.236153;,
       -18.113449; 28.274590; -5.445950;,
       14.012250; 31.767391; -3.236153;,
       14.012250; 31.842590; -0.195953;,
       19.420050; 31.358089; -3.236153;,
       19.420050; 31.401089; -0.195953;,
       19.420050; 31.401089; -0.195953;,
       19.420050; 31.358089; -3.236153;,
       19.442150; 31.085190; -5.445950;,
       14.005651; 31.402988; -5.445950;,
       19.420050; 31.358089; -3.236153;,
       14.012250; 31.767391; -3.236153;,
       14.012250; 31.767391; 3.031647;,
       14.005651; 31.402988; 5.522751;,
       19.420050; 31.358089; 3.031647;,
       19.442150; 31.085190; 5.522751;,
       19.420050; 31.358089; 3.031647;,
       13.970950; 23.815290; 3.031647;,
       13.970950; 23.815290; -0.195953;,
       19.044950; 24.012390; 3.031647;,
       19.044950; 24.012390; -0.195953;,
       19.044950; 24.012390; -0.195953;,
       19.044950; 24.012390; 3.031647;,
       19.095449; 24.378891; 5.522751;,
       13.971350; 24.206390; 5.522751;,
       13.970950; 23.815290; -3.236153;,
       13.971350; 24.206390; -5.445950;,
       19.044950; 24.012390; -3.236153;,
       19.095449; 24.378891; -5.445950;,
       19.044950; 24.012390; -3.236153;,
       -17.682850; 30.668289; -6.182652;,
       -17.390249; 31.508888; -5.445950;,
       -17.390249; 31.508888; -5.445950;,
       -12.752650; 31.508888; -5.445950;,
       -17.682850; 30.668289; -6.182652;,
       -13.008650; 30.668289; -6.182652;,
       -13.218850; 29.538090; -6.182652;,
       -17.923149; 29.538090; -6.182652;,
       -17.923149; 29.538090; -6.182652;,
       0.493349; 31.508888; -5.445950;,
       0.347026; 30.668289; -6.182652;,
       0.226917; 29.538090; -6.182652;,
       0.347026; 30.668289; 6.353050;,
       0.493349; 31.508888; 5.522751;,
       -12.752650; 31.508888; 5.522751;,
       -13.008650; 30.668289; 6.353050;,
       -13.218850; 29.538090; 6.353050;,
       0.226917; 29.538090; 6.353050;,
       -17.390249; 31.508888; 5.522751;,
       -17.682850; 30.668289; 6.353050;,
       -17.923149; 29.538090; 6.353050;,
       -17.923149; 29.538090; 6.353050;,
       -17.682850; 30.668289; 6.353050;,
       -17.390249; 31.508888; 5.522751;,
       -17.263451; 25.346991; -6.182652;,
       -17.608549; 26.877590; -6.182652;,
       -17.608549; 26.877590; -6.182652;,
       -12.943650; 26.877590; -6.182652;,
       -17.263451; 25.346991; -6.182652;,
       -12.641650; 25.346991; -6.182652;,
       -12.385550; 24.148890; -5.445950;,
       -16.970749; 24.148890; -5.445950;,
       -16.970749; 24.148890; -5.445950;,
       0.384212; 26.877590; -6.182652;,
       0.556751; 25.346991; -6.182652;,
       0.703075; 24.148890; -5.445950;,
       -17.863350; 28.274590; -6.182652;,
       -17.863350; 28.274590; -6.182652;,
       -13.166550; 28.274590; -6.182652;,
       0.256790; 28.274590; -6.182652;,
       0.556751; 25.346991; 6.353050;,
       0.384212; 26.877590; 6.353050;,
       -12.943650; 26.877590; 6.353050;,
       -12.641650; 25.346991; 6.353050;,
       -12.385550; 24.148890; 5.522751;,
       0.703075; 24.148890; 5.522751;,
       -17.608549; 26.877590; 6.353050;,
       -17.263451; 25.346991; 6.353050;,
       -16.970749; 24.148890; 5.522751;,
       -16.970749; 24.148890; 5.522751;,
       -17.263451; 25.346991; 6.353050;,
       -17.608549; 26.877590; 6.353050;,
       0.256790; 28.274590; 6.353050;,
       -13.166550; 28.274590; 6.353050;,
       -17.863350; 28.274590; 6.353050;,
       -17.863350; 28.274590; 6.353050;,
       -17.292650; 31.903790; -3.236153;,
       -17.292650; 31.989792; -0.195953;,
       -17.292650; 31.989792; -0.195953;,
       -12.667250; 31.989792; -0.195953;,
       -17.292650; 31.903790; -3.236153;,
       -12.667250; 31.903790; -3.236153;,
       -12.752650; 31.508888; -5.445950;,
       -17.390249; 31.508888; -5.445950;,
       0.542123; 31.989792; -0.195953;,
       0.542123; 31.903790; -3.236153;,
       14.005651; 31.402988; -5.445950;,
       0.493349; 31.508888; -5.445950;,
       -17.292650; 31.903790; 3.031647;,
       -17.390249; 31.508888; 5.522751;,
       -12.752650; 31.508888; 5.522751;,
       -17.292650; 31.903790; 3.031647;,
       -12.667250; 31.903790; 3.031647;,
       0.493349; 31.508888; 5.522751;,
       0.542123; 31.903790; 3.031647;,
       0.751849; 23.749590; -3.236153;,
       0.751849; 23.749590; -0.195953;,
       -12.300250; 23.749590; -0.195953;,
       -12.300250; 23.749590; -3.236153;,
       -12.385550; 24.148890; -5.445950;,
       0.703075; 24.148890; -5.445950;,
       -16.873249; 23.749590; -0.195953;,
       -16.873249; 23.749590; -3.236153;,
       -16.970749; 24.148890; -5.445950;,
       -16.873249; 23.749590; -3.236153;,
       -16.873249; 23.749590; -0.195953;,
       0.751849; 23.749590; 3.031647;,
       0.703075; 24.148890; 5.522751;,
       -12.385550; 24.148890; 5.522751;,
       -12.300250; 23.749590; 3.031647;,
       -16.873249; 23.749590; 3.031647;,
       -16.873249; 23.749590; 3.031647;,
       -16.970749; 24.148890; 5.522751;,
       -18.319950; 0.000000; 8.544449;,
       -12.459150; 20.934391; 4.538147;,
       -18.319950; 0.016911; 11.016846;,
       -12.459150; 21.188789; 6.385651;,
       -21.809151; 0.000000; 8.544449;,
       -18.319950; 0.000000; 8.544449;,
       -21.809151; 0.016911; 11.016846;,
       -18.319950; 0.016911; 11.016846;,
       -15.351549; 21.785490; 4.538147;,
       -21.809151; 0.000000; 8.544449;,
       -15.351549; 22.039789; 6.385651;,
       -21.809151; 0.016911; 11.016846;,
       -12.639649; 25.073589; 3.933449;,
       -14.123450; 25.073589; 3.933449;,
       -12.639649; 25.327990; 5.167946;,
       -14.123450; 25.327990; 5.167946;,
       -12.825450; 21.785490; 4.538147;,
       -12.825450; 22.039789; 6.385651;,
       -12.459150; 20.934391; 4.538147;,
       -15.351549; 21.785490; 4.538147;,
       -12.825450; 21.785490; 4.538147;,
       -15.351549; 22.039789; 6.385651;,
       -12.459150; 21.188789; 6.385651;,
       -12.825450; 22.039789; 6.385651;,
       -14.123450; 25.073589; 3.933449;,
       -14.123450; 25.327990; 5.167946;,
       -12.639649; 25.327990; 5.167946;,
       -12.639649; 25.073589; 3.933449;,
       12.459150; 20.934391; 4.538147;,
       18.319950; 0.000000; 8.544449;,
       12.459150; 21.188789; 6.385651;,
       18.319950; 0.016911; 11.016846;,
       18.319950; 0.000000; 8.544449;,
       21.809151; 0.000000; 8.544449;,
       18.319950; 0.016911; 11.016846;,
       21.809151; 0.016911; 11.016846;,
       21.809151; 0.000000; 8.544449;,
       15.351650; 21.785490; 4.538147;,
       21.809151; 0.016911; 11.016846;,
       15.351650; 22.039789; 6.385651;,
       14.123450; 25.073589; 3.933449;,
       12.639650; 25.073589; 3.933449;,
       14.123450; 25.327990; 5.167946;,
       12.639650; 25.327990; 5.167946;,
       12.825450; 22.039789; 6.385651;,
       12.825450; 21.785490; 4.538147;,
       15.351650; 21.785490; 4.538147;,
       12.459150; 20.934391; 4.538147;,
       12.825450; 21.785490; 4.538147;,
       12.459150; 21.188789; 6.385651;,
       15.351650; 22.039789; 6.385651;,
       12.825450; 22.039789; 6.385651;,
       14.123450; 25.073589; 3.933449;,
       14.123450; 25.327990; 5.167946;,
       12.639650; 25.327990; 5.167946;,
       12.639650; 25.073589; 3.933449;,
       -12.459150; 20.934391; -4.538048;,
       -18.319950; 0.000000; -8.544449;,
       -12.459150; 21.188789; -6.385551;,
       -18.319950; 0.016911; -11.016850;,
       -18.319950; 0.000000; -8.544449;,
       -21.809151; 0.000000; -8.544449;,
       -18.319950; 0.016911; -11.016850;,
       -21.809151; 0.016911; -11.016850;,
       -21.809151; 0.000000; -8.544449;,
       -15.351549; 21.785490; -4.538048;,
       -21.809151; 0.016911; -11.016850;,
       -15.351549; 22.039789; -6.385551;,
       -14.123450; 25.073589; -3.933350;,
       -12.639649; 25.073589; -3.933350;,
       -14.123450; 25.327990; -5.167950;,
       -12.639649; 25.327990; -5.167950;,
       -12.825450; 22.039789; -6.385551;,
       -12.825450; 21.785490; -4.538048;,
       -15.351549; 21.785490; -4.538048;,
       -12.459150; 20.934391; -4.538048;,
       -12.825450; 21.785490; -4.538048;,
       -12.459150; 21.188789; -6.385551;,
       -15.351549; 22.039789; -6.385551;,
       -12.825450; 22.039789; -6.385551;,
       -14.123450; 25.073589; -3.933350;,
       -14.123450; 25.327990; -5.167950;,
       -12.639649; 25.327990; -5.167950;,
       -12.639649; 25.073589; -3.933350;,
       18.319950; 0.000000; -8.544449;,
       12.459150; 20.934391; -4.538048;,
       18.319950; 0.016911; -11.016850;,
       12.459150; 21.188789; -6.385551;,
       21.809151; 0.000000; -8.544449;,
       18.319950; 0.000000; -8.544449;,
       21.809151; 0.016911; -11.016850;,
       18.319950; 0.016911; -11.016850;,
       15.351650; 21.785490; -4.538048;,
       21.809151; 0.000000; -8.544449;,
       15.351650; 22.039789; -6.385551;,
       21.809151; 0.016911; -11.016850;,
       12.639650; 25.073589; -3.933350;,
       14.123450; 25.073589; -3.933350;,
       12.639650; 25.327990; -5.167950;,
       14.123450; 25.327990; -5.167950;,
       12.825450; 21.785490; -4.538048;,
       12.825450; 22.039789; -6.385551;,
       12.459150; 20.934391; -4.538048;,
       15.351650; 21.785490; -4.538048;,
       12.825450; 21.785490; -4.538048;,
       15.351650; 22.039789; -6.385551;,
       12.459150; 21.188789; -6.385551;,
       12.825450; 22.039789; -6.385551;,
       14.123450; 25.073589; -3.933350;,
       14.123450; 25.327990; -5.167950;,
       12.639650; 25.327990; -5.167950;,
       12.639650; 25.073589; -3.933350;;
       432;
       3;0, 1, 2;,
       3;1, 3, 2;,
       3;4, 5, 6;,
       3;5, 7, 6;,
       3;7, 8, 6;,
       3;8, 9, 6;,
       3;10, 11, 2;,
       3;11, 0, 2;,
       3;12, 13, 14;,
       3;13, 15, 14;,
       3;16, 17, 18;,
       3;17, 19, 18;,
       3;19, 20, 18;,
       3;20, 21, 18;,
       3;22, 23, 14;,
       3;23, 12, 14;,
       3;24, 25, 26;,
       3;25, 27, 26;,
       3;28, 29, 30;,
       3;29, 31, 30;,
       3;31, 32, 30;,
       3;32, 33, 30;,
       3;34, 35, 26;,
       3;35, 24, 26;,
       3;36, 37, 38;,
       3;37, 39, 38;,
       3;40, 41, 42;,
       3;41, 43, 42;,
       3;43, 44, 42;,
       3;44, 45, 42;,
       3;46, 47, 38;,
       3;47, 36, 38;,
       3;48, 47, 49;,
       3;47, 46, 49;,
       3;45, 44, 50;,
       3;44, 51, 50;,
       3;51, 29, 50;,
       3;29, 28, 50;,
       3;27, 25, 49;,
       3;25, 48, 49;,
       3;52, 11, 53;,
       3;11, 10, 53;,
       3;9, 8, 54;,
       3;8, 55, 54;,
       3;55, 17, 54;,
       3;17, 16, 54;,
       3;15, 13, 53;,
       3;13, 52, 53;,
       3;56, 57, 58;,
       3;57, 59, 58;,
       3;59, 60, 58;,
       3;60, 61, 58;,
       3;61, 8, 58;,
       3;8, 7, 58;,
       3;7, 5, 58;,
       3;5, 56, 58;,
       3;62, 32, 63;,
       3;32, 31, 63;,
       3;31, 29, 63;,
       3;29, 64, 63;,
       3;64, 60, 63;,
       3;60, 59, 63;,
       3;59, 57, 63;,
       3;57, 62, 63;,
       3;65, 66, 67;,
       3;66, 68, 67;,
       3;68, 69, 67;,
       3;69, 70, 67;,
       3;70, 71, 67;,
       3;71, 72, 67;,
       3;72, 73, 67;,
       3;73, 65, 67;,
       3;74, 75, 76;,
       3;75, 77, 76;,
       3;77, 78, 76;,
       3;78, 79, 76;,
       3;79, 71, 76;,
       3;71, 70, 76;,
       3;70, 69, 76;,
       3;69, 74, 76;,
       3;51, 44, 80;,
       3;44, 81, 80;,
       3;81, 82, 80;,
       3;82, 83, 80;,
       3;83, 60, 80;,
       3;60, 64, 80;,
       3;64, 29, 80;,
       3;29, 51, 80;,
       3;84, 17, 85;,
       3;17, 55, 85;,
       3;55, 8, 85;,
       3;8, 61, 85;,
       3;61, 60, 85;,
       3;60, 83, 85;,
       3;83, 82, 85;,
       3;82, 84, 85;,
       3;43, 41, 86;,
       3;41, 87, 86;,
       3;87, 88, 86;,
       3;88, 89, 86;,
       3;89, 82, 86;,
       3;82, 81, 86;,
       3;81, 44, 86;,
       3;44, 43, 86;,
       3;90, 20, 91;,
       3;20, 19, 91;,
       3;19, 17, 91;,
       3;17, 84, 91;,
       3;84, 82, 91;,
       3;82, 89, 91;,
       3;89, 88, 91;,
       3;88, 90, 91;,
       3;92, 93, 94;,
       3;93, 95, 94;,
       3;95, 96, 94;,
       3;96, 97, 94;,
       3;97, 98, 94;,
       3;98, 99, 94;,
       3;99, 100, 94;,
       3;100, 92, 94;,
       3;101, 102, 103;,
       3;102, 104, 103;,
       3;104, 105, 103;,
       3;105, 106, 103;,
       3;106, 96, 103;,
       3;96, 95, 103;,
       3;95, 93, 103;,
       3;93, 101, 103;,
       3;107, 73, 108;,
       3;73, 72, 108;,
       3;72, 71, 108;,
       3;71, 109, 108;,
       3;109, 96, 108;,
       3;96, 106, 108;,
       3;106, 105, 108;,
       3;105, 107, 108;,
       3;79, 78, 110;,
       3;78, 111, 110;,
       3;111, 98, 110;,
       3;98, 97, 110;,
       3;97, 96, 110;,
       3;96, 109, 110;,
       3;109, 71, 110;,
       3;71, 79, 110;,
       3;112, 113, 114;,
       3;113, 115, 114;,
       3;116, 57, 117;,
       3;57, 56, 117;,
       3;56, 5, 117;,
       3;5, 4, 117;,
       3;118, 119, 120;,
       3;119, 121, 120;,
       3;122, 123, 124;,
       3;123, 125, 124;,
       3;33, 32, 126;,
       3;32, 62, 126;,
       3;62, 57, 126;,
       3;57, 116, 126;,
       3;115, 113, 124;,
       3;113, 122, 124;,
       3;127, 128, 129;,
       3;128, 130, 129;,
       3;131, 88, 132;,
       3;88, 87, 132;,
       3;87, 41, 132;,
       3;41, 40, 132;,
       3;133, 134, 129;,
       3;134, 127, 129;,
       3;135, 136, 137;,
       3;136, 138, 137;,
       3;21, 20, 139;,
       3;20, 90, 139;,
       3;90, 88, 139;,
       3;88, 131, 139;,
       3;130, 128, 137;,
       3;128, 135, 137;,
       3;77, 75, 140;,
       3;75, 141, 140;,
       3;142, 143, 144;,
       3;143, 145, 144;,
       3;145, 146, 144;,
       3;146, 147, 144;,
       3;148, 78, 140;,
       3;78, 77, 140;,
       3;149, 1, 150;,
       3;1, 0, 150;,
       3;0, 11, 150;,
       3;11, 151, 150;,
       3;151, 146, 150;,
       3;146, 145, 150;,
       3;145, 143, 150;,
       3;143, 149, 150;,
       3;24, 35, 152;,
       3;35, 153, 152;,
       3;153, 154, 152;,
       3;154, 155, 152;,
       3;155, 156, 152;,
       3;156, 157, 152;,
       3;157, 25, 152;,
       3;25, 24, 152;,
       3;158, 66, 159;,
       3;66, 65, 159;,
       3;65, 73, 159;,
       3;73, 160, 159;,
       3;161, 156, 162;,
       3;156, 155, 162;,
       3;155, 154, 162;,
       3;154, 163, 162;,
       3;99, 98, 164;,
       3;98, 165, 164;,
       3;166, 167, 168;,
       3;167, 169, 168;,
       3;169, 170, 168;,
       3;170, 171, 168;,
       3;172, 100, 164;,
       3;100, 99, 164;,
       3;173, 13, 174;,
       3;13, 12, 174;,
       3;12, 23, 174;,
       3;23, 175, 174;,
       3;175, 170, 174;,
       3;170, 169, 174;,
       3;169, 167, 174;,
       3;167, 173, 174;,
       3;111, 78, 176;,
       3;78, 148, 176;,
       3;147, 146, 177;,
       3;146, 178, 177;,
       3;178, 167, 177;,
       3;167, 166, 177;,
       3;165, 98, 176;,
       3;98, 111, 176;,
       3;151, 11, 179;,
       3;11, 52, 179;,
       3;52, 13, 179;,
       3;13, 173, 179;,
       3;173, 167, 179;,
       3;167, 178, 179;,
       3;178, 146, 179;,
       3;146, 151, 179;,
       3;36, 47, 180;,
       3;47, 181, 180;,
       3;181, 182, 180;,
       3;182, 183, 180;,
       3;183, 184, 180;,
       3;184, 185, 180;,
       3;185, 37, 180;,
       3;37, 36, 180;,
       3;186, 105, 187;,
       3;105, 104, 187;,
       3;104, 102, 187;,
       3;102, 188, 187;,
       3;189, 184, 190;,
       3;184, 183, 190;,
       3;183, 182, 190;,
       3;182, 191, 190;,
       3;48, 25, 192;,
       3;25, 157, 192;,
       3;157, 156, 192;,
       3;156, 193, 192;,
       3;193, 182, 192;,
       3;182, 181, 192;,
       3;181, 47, 192;,
       3;47, 48, 192;,
       3;160, 73, 194;,
       3;73, 107, 194;,
       3;107, 105, 194;,
       3;105, 186, 194;,
       3;191, 182, 195;,
       3;182, 193, 195;,
       3;193, 156, 195;,
       3;156, 161, 195;,
       3;74, 69, 196;,
       3;69, 197, 196;,
       3;198, 199, 200;,
       3;199, 201, 200;,
       3;201, 202, 200;,
       3;202, 203, 200;,
       3;141, 75, 196;,
       3;75, 74, 196;,
       3;204, 113, 205;,
       3;113, 112, 205;,
       3;112, 206, 205;,
       3;206, 207, 205;,
       3;207, 202, 205;,
       3;202, 201, 205;,
       3;201, 199, 205;,
       3;199, 204, 205;,
       3;68, 66, 208;,
       3;66, 158, 208;,
       3;209, 210, 211;,
       3;210, 212, 211;,
       3;212, 199, 211;,
       3;199, 198, 211;,
       3;197, 69, 208;,
       3;69, 68, 208;,
       3;213, 123, 214;,
       3;123, 122, 214;,
       3;122, 113, 214;,
       3;113, 204, 214;,
       3;204, 199, 214;,
       3;199, 212, 214;,
       3;212, 210, 214;,
       3;210, 213, 214;,
       3;135, 128, 215;,
       3;128, 216, 215;,
       3;216, 217, 215;,
       3;217, 218, 215;,
       3;218, 219, 215;,
       3;219, 220, 215;,
       3;220, 136, 215;,
       3;136, 135, 215;,
       3;221, 93, 222;,
       3;93, 92, 222;,
       3;92, 100, 222;,
       3;100, 172, 222;,
       3;223, 219, 224;,
       3;219, 218, 224;,
       3;218, 217, 224;,
       3;217, 225, 224;,
       3;127, 134, 226;,
       3;134, 227, 226;,
       3;227, 228, 226;,
       3;228, 229, 226;,
       3;229, 217, 226;,
       3;217, 216, 226;,
       3;216, 128, 226;,
       3;128, 127, 226;,
       3;188, 102, 230;,
       3;102, 101, 230;,
       3;101, 93, 230;,
       3;93, 221, 230;,
       3;225, 217, 231;,
       3;217, 229, 231;,
       3;229, 228, 231;,
       3;228, 232, 231;,
       3;233, 234, 235;,
       3;234, 236, 235;,
       3;237, 238, 239;,
       3;238, 240, 239;,
       3;241, 242, 243;,
       3;242, 244, 243;,
       3;245, 246, 247;,
       3;246, 248, 247;,
       3;249, 250, 234;,
       3;250, 236, 234;,
       3;238, 237, 251;,
       3;237, 252, 251;,
       3;251, 252, 253;,
       3;239, 240, 254;,
       3;240, 255, 254;,
       3;254, 255, 256;,
       3;257, 241, 258;,
       3;241, 243, 258;,
       3;245, 253, 246;,
       3;253, 252, 246;,
       3;248, 254, 247;,
       3;254, 256, 247;,
       3;259, 250, 260;,
       3;250, 249, 260;,
       3;261, 262, 263;,
       3;262, 264, 263;,
       3;265, 266, 267;,
       3;266, 268, 267;,
       3;269, 270, 271;,
       3;270, 272, 271;,
       3;273, 274, 275;,
       3;274, 276, 275;,
       3;277, 278, 263;,
       3;278, 261, 263;,
       3;266, 265, 279;,
       3;265, 280, 279;,
       3;279, 280, 281;,
       3;267, 268, 282;,
       3;268, 283, 282;,
       3;282, 283, 284;,
       3;270, 285, 272;,
       3;285, 286, 272;,
       3;281, 274, 279;,
       3;274, 273, 279;,
       3;283, 275, 284;,
       3;275, 276, 284;,
       3;277, 287, 278;,
       3;287, 288, 278;,
       3;289, 290, 291;,
       3;290, 292, 291;,
       3;293, 294, 295;,
       3;294, 296, 295;,
       3;297, 298, 299;,
       3;298, 300, 299;,
       3;301, 302, 303;,
       3;302, 304, 303;,
       3;305, 306, 291;,
       3;306, 289, 291;,
       3;294, 293, 307;,
       3;293, 308, 307;,
       3;307, 308, 309;,
       3;295, 296, 310;,
       3;296, 311, 310;,
       3;310, 311, 312;,
       3;298, 313, 300;,
       3;313, 314, 300;,
       3;309, 302, 307;,
       3;302, 301, 307;,
       3;311, 303, 312;,
       3;303, 304, 312;,
       3;305, 315, 306;,
       3;315, 316, 306;,
       3;317, 318, 319;,
       3;318, 320, 319;,
       3;321, 322, 323;,
       3;322, 324, 323;,
       3;325, 326, 327;,
       3;326, 328, 327;,
       3;329, 330, 331;,
       3;330, 332, 331;,
       3;333, 334, 318;,
       3;334, 320, 318;,
       3;322, 321, 335;,
       3;321, 336, 335;,
       3;335, 336, 337;,
       3;323, 324, 338;,
       3;324, 339, 338;,
       3;338, 339, 340;,
       3;341, 325, 342;,
       3;325, 327, 342;,
       3;329, 337, 330;,
       3;337, 336, 330;,
       3;332, 338, 331;,
       3;338, 340, 331;,
       3;343, 334, 344;,
       3;334, 333, 344;;

      MeshNormals {
       345;
       0.006478; 0.365729; -0.930699;,
       0.018345; 0.694193; -0.719555;,
       0.017727; 0.389425; -0.920888;,
       0.044001; 0.752706; -0.656884;,
       0.552919; 0.775046; -0.305916;,
       0.589883; 0.773342; -0.232336;,
       0.580723; 0.414843; -0.700475;,
       0.768156; 0.473509; -0.430958;,
       0.837723; 0.021143; -0.545686;,
       0.544666; 0.006170; -0.838630;,
       0.000000; 0.000000; -1.000000;,
       0.000000; 0.000000; -1.000000;,
       0.002922; -0.276641; -0.960969;,
       0.000000; 0.000000; -1.000000;,
       0.007491; -0.284255; -0.958719;,
       0.000000; 0.000000; -1.000000;,
       0.581558; -0.057128; -0.811497;,
       0.844274; -0.146020; -0.515636;,
       0.639484; -0.339607; -0.689730;,
       0.811396; -0.404679; -0.421748;,
       0.711759; -0.644039; -0.280379;,
       0.674759; -0.656427; -0.337350;,
       0.018796; -0.558327; -0.829408;,
       0.008076; -0.536400; -0.843925;,
       0.006967; 0.393365; 0.919356;,
       0.000000; 0.000000; 1.000000;,
       0.018923; 0.416460; 0.908957;,
       0.000000; 0.000000; 1.000000;,
       0.590643; 0.006688; 0.806906;,
       0.857541; 0.021476; 0.513968;,
       0.614959; 0.427249; 0.662784;,
       0.781897; 0.477955; 0.400245;,
       0.593110; 0.777561; 0.208850;,
       0.559632; 0.781288; 0.276409;,
       0.046171; 0.789832; 0.611583;,
       0.019351; 0.735699; 0.677033;,
       0.003201; -0.303040; 0.952972;,
       0.008755; -0.582305; 0.812923;,
       0.008189; -0.310908; 0.950405;,
       0.020343; -0.604295; 0.796501;,
       0.684336; -0.661948; 0.305793;,
       0.717259; -0.649046; 0.253531;,
       0.674468; -0.353685; 0.648074;,
       0.824237; -0.411329; 0.389155;,
       0.862735; -0.148372; 0.483399;,
       0.627146; -0.061604; 0.776462;,
       0.000000; 0.000000; 1.000000;,
       0.000000; 0.000000; 1.000000;,
       0.000000; 0.000000; 1.000000;,
       0.000000; 0.000000; 1.000000;,
       0.603571; -0.044394; 0.796072;,
       0.855609; -0.080471; 0.511329;,
       0.000000; 0.000000; -1.000000;,
       0.000000; 0.000000; -1.000000;,
       0.557731; -0.041037; -0.829006;,
       0.835982; -0.078626; -0.543095;,
       0.631291; 0.772945; -0.063460;,
       0.638944; 0.769253; -0.000131;,
       0.915964; 0.394238; -0.074734;,
       0.922378; 0.386289; 0.000000;,
       0.999490; 0.031936; 0.000000;,
       0.995912; 0.031830; -0.084535;,
       0.631595; 0.773241; 0.056439;,
       0.916541; 0.394386; 0.066432;,
       0.996663; 0.031852; 0.075159;,
       -0.917042; 0.366526; 0.157140;,
       -0.807745; 0.575698; 0.126967;,
       -0.952361; 0.304050; 0.023720;,
       -0.797818; 0.600670; 0.051789;,
       -0.803418; 0.595415; -0.000417;,
       -0.956610; 0.291371; -0.000120;,
       -0.997203; 0.074744; -0.000024;,
       -0.996969; 0.075907; 0.017035;,
       -0.983484; 0.078008; 0.163322;,
       -0.797601; 0.600403; -0.057866;,
       -0.806049; 0.574423; -0.142558;,
       -0.952293; 0.304023; -0.026588;,
       -0.914133; 0.365271; -0.175890;,
       -0.980101; 0.077738; -0.182642;,
       -0.996931; 0.075903; -0.019193;,
       0.991954; -0.103854; 0.072393;,
       0.977104; -0.202027; 0.066731;,
       0.979288; -0.202474; 0.000000;,
       0.994195; -0.107592; 0.000000;,
       0.976522; -0.201908; -0.075091;,
       0.991260; -0.103791; -0.081435;,
       0.932380; -0.356680; 0.058710;,
       0.732606; -0.677236; 0.068112;,
       0.734191; -0.678943; 0.000000;,
       0.934335; -0.356397; 0.000000;,
       0.732183; -0.676782; -0.076645;,
       0.931944; -0.356528; -0.066090;,
       -0.871965; -0.487658; -0.043209;,
       -0.872631; -0.488379; 0.000000;,
       -0.964619; -0.262892; -0.019968;,
       -0.965631; -0.259915; 0.000000;,
       -0.979850; -0.199734; 0.000000;,
       -0.979683; -0.199700; -0.018459;,
       -0.964187; -0.196543; -0.178083;,
       -0.936657; -0.305718; -0.170913;,
       -0.883789; -0.448972; -0.131685;,
       -0.872106; -0.487811; 0.038363;,
       -0.885390; -0.449802; 0.117310;,
       -0.964659; -0.262904; 0.017715;,
       -0.939452; -0.306779; 0.152699;,
       -0.967352; -0.197188; 0.159207;,
       -0.979719; -0.199708; 0.016376;,
       -0.980522; -0.112039; 0.161321;,
       -0.993432; -0.113220; 0.016558;,
       -0.993593; -0.113018; 0.000000;,
       -0.993395; -0.113215; -0.018665;,
       -0.977231; -0.111668; -0.180416;,
       0.031937; 0.996973; -0.070888;,
       0.044502; 0.999009; -0.000666;,
       0.078407; 0.996733; -0.019376;,
       0.081371; 0.996684; -0.000409;,
       0.482115; 0.876108; -0.000360;,
       0.465653; 0.883198; -0.055935;,
       0.057922; 0.990865; -0.121788;,
       0.066212; 0.987626; -0.142164;,
       0.066212; 0.987626; -0.142164;,
       0.074469; 0.983899; -0.162471;,
       0.042670; 0.995539; 0.084153;,
       0.037636; 0.989628; 0.138635;,
       0.072493; 0.994736; 0.072426;,
       0.058014; 0.992434; 0.108206;,
       0.465799; 0.883484; 0.049871;,
       0.021830; -0.996733; 0.077765;,
       0.021896; -0.999760; 0.000000;,
       0.037423; -0.996469; 0.075162;,
       0.038816; -0.999246; 0.000000;,
       0.528691; -0.848814; 0.000000;,
       0.540802; -0.838847; 0.062204;,
       0.033291; -0.988899; 0.144816;,
       0.020209; -0.987968; 0.153331;,
       0.021812; -0.995930; -0.087451;,
       0.020147; -0.984838; -0.172301;,
       0.037397; -0.995718; -0.084536;,
       0.033197; -0.986102; -0.162789;,
       0.540516; -0.838416; -0.070007;,
       -0.880839; 0.374071; -0.290160;,
       -0.779854; 0.604521; -0.162426;,
       0.000000; 0.659101; -0.752054;,
       0.000000; 0.659101; -0.752054;,
       0.000000; 0.352098; -0.935963;,
       0.000000; 0.352098; -0.935963;,
       0.000000; 0.000000; -1.000000;,
       0.000000; 0.000000; -1.000000;,
       -0.943951; 0.076820; -0.321023;,
       0.002581; 0.658845; -0.752274;,
       0.001074; 0.355445; -0.934696;,
       0.000000; 0.000000; -1.000000;,
       0.001158; 0.383157; 0.923683;,
       0.002752; 0.702490; 0.711689;,
       0.000000; 0.702735; 0.711452;,
       0.000000; 0.379834; 0.925055;,
       0.000000; 0.000000; 1.000000;,
       0.000000; 0.000000; 1.000000;,
       -0.782222; 0.605978; 0.144636;,
       -0.888950; 0.377147; 0.259862;,
       -0.954474; 0.077658; 0.288010;,
       0.000000; 0.000000; 1.000000;,
       0.000000; 0.379834; 0.925055;,
       0.000000; 0.702735; 0.711452;,
       -0.907106; -0.308990; -0.285803;,
       -0.929758; -0.189528; -0.315641;,
       0.000000; 0.000000; -1.000000;,
       0.000000; 0.000000; -1.000000;,
       0.000000; -0.272171; -0.962249;,
       0.000000; -0.272171; -0.962249;,
       0.000000; -0.523793; -0.851846;,
       0.000000; -0.523793; -0.851846;,
       -0.872465; -0.466783; -0.144631;,
       0.000000; 0.000000; -1.000000;,
       0.000464; -0.273260; -0.961940;,
       0.001135; -0.523692; -0.851907;,
       -0.941443; -0.107649; -0.319525;,
       0.000000; 0.000000; -1.000000;,
       0.000000; 0.000000; -1.000000;,
       0.000000; 0.000000; -1.000000;,
       0.000509; -0.299527; 0.954088;,
       0.000000; 0.000000; 1.000000;,
       0.000000; 0.000000; 1.000000;,
       0.000000; -0.298395; 0.954442;,
       0.000000; -0.569602; 0.821921;,
       0.001234; -0.569499; 0.821991;,
       -0.939771; -0.191568; 0.283076;,
       -0.915117; -0.311579; 0.255890;,
       -0.874527; -0.467572; 0.128760;,
       0.000000; -0.569602; 0.821921;,
       0.000000; -0.298395; 0.954442;,
       0.000000; 0.000000; 1.000000;,
       0.000000; 0.000000; 1.000000;,
       0.000000; 0.000000; 1.000000;,
       -0.951838; -0.108828; 0.286636;,
       0.000000; 0.000000; 1.000000;,
       -0.656734; 0.751155; -0.066841;,
       -0.651010; 0.759069; -0.000623;,
       0.000000; 1.000000; -0.000821;,
       0.000000; 1.000000; -0.000821;,
       0.000000; 0.994745; -0.102380;,
       0.000000; 0.994745; -0.102380;,
       0.000000; 0.984405; -0.175918;,
       0.000000; 0.984405; -0.175918;,
       0.005464; 0.999985; -0.000821;,
       0.004857; 0.994946; -0.100294;,
       0.008853; 0.985507; -0.169406;,
       0.003857; 0.984383; -0.175999;,
       -0.657024; 0.751486; 0.059907;,
       0.000000; 0.987667; 0.156570;,
       0.000000; 0.987667; 0.156570;,
       0.000000; 0.995778; 0.091799;,
       0.000000; 0.995778; 0.091799;,
       0.003870; 0.987648; 0.156642;,
       0.004861; 0.995938; 0.089913;,
       0.002397; -0.996044; -0.088828;,
       0.002485; -0.999997; 0.000000;,
       0.000000; -1.000000; 0.000000;,
       0.000000; -0.996008; -0.089264;,
       0.000000; -0.984064; -0.177816;,
       0.002132; -0.984053; -0.177861;,
       -0.754246; -0.656592; 0.000000;,
       -0.771367; -0.634700; -0.046366;,
       0.000000; -0.984064; -0.177816;,
       0.000000; -0.996008; -0.089264;,
       0.000000; -1.000000; 0.000000;,
       0.002399; -0.996872; 0.078995;,
       0.002140; -0.987387; 0.158310;,
       0.000000; -0.987396; 0.158270;,
       0.000000; -0.996844; 0.079386;,
       -0.771542; -0.634846; 0.041165;,
       0.000000; -0.996844; 0.079386;,
       0.000000; -0.987396; 0.158270;,
       0.963064; -0.269267; 0.001842;,
       0.997427; 0.069163; -0.018859;,
       0.964244; -0.264352; 0.018780;,
       0.997373; 0.071759; -0.009881;,
       -0.020568; -0.568378; -0.822511;,
       0.000000; -0.914417; -0.404773;,
       0.000000; -0.875084; 0.483971;,
       0.028360; -0.290400; 0.956485;,
       -0.947115; 0.316766; -0.051310;,
       -0.959991; 0.279310; -0.020064;,
       -0.954182; 0.297844; -0.028738;,
       -0.959705; 0.281003; -0.001922;,
       0.000000; 0.558724; -0.829354;,
       0.000000; 0.558724; -0.829354;,
       0.000000; 0.874472; 0.485075;,
       0.000000; 0.874472; 0.485075;,
       0.984353; 0.174563; -0.024028;,
       0.984256; 0.175220; -0.023202;,
       -0.016401; -0.118634; -0.992803;,
       -0.016399; -0.116243; -0.993086;,
       0.000000; -0.121026; -0.992649;,
       0.011749; 0.221595; 0.975068;,
       0.029273; 0.099495; 0.994607;,
       0.000000; 0.176405; 0.984318;,
       -0.938647; 0.337782; -0.069609;,
       -0.940026; 0.336165; -0.057830;,
       0.998567; -0.052424; 0.010803;,
       0.998514; -0.053725; 0.009189;,
       -0.997510; 0.069860; -0.009620;,
       -0.964132; -0.264740; 0.019020;,
       -0.997443; 0.068961; -0.018733;,
       -0.963856; -0.266416; 0.001822;,
       0.021468; -0.568434; -0.822449;,
       0.000000; -0.913722; -0.406340;,
       0.000000; -0.874529; 0.484974;,
       -0.027190; -0.290514; 0.956484;,
       0.958863; 0.283862; -0.001942;,
       0.953473; 0.300089; -0.028920;,
       0.960112; 0.278911; -0.019822;,
       0.947910; 0.314470; -0.050751;,
       0.000000; 0.558724; -0.829354;,
       0.000000; 0.558724; -0.829354;,
       0.000000; 0.874472; 0.485075;,
       0.000000; 0.874472; 0.485075;,
       -0.984229; 0.175245; -0.024121;,
       -0.984283; 0.175074; -0.023148;,
       0.010261; -0.143701; -0.989568;,
       0.025688; -0.087303; -0.995851;,
       0.000000; -0.090811; -0.995868;,
       -0.018703; 0.135158; 0.990647;,
       -0.018814; 0.180972; 0.983308;,
       0.000000; 0.234788; 0.972046;,
       0.940641; 0.334541; -0.057241;,
       0.942580; 0.327107; -0.067409;,
       -0.998496; -0.054023; 0.009296;,
       -0.998459; -0.054359; 0.011202;,
       0.997510; 0.069860; 0.009620;,
       0.964132; -0.264740; -0.019020;,
       0.997443; 0.068961; 0.018733;,
       0.963856; -0.266416; -0.001822;,
       -0.021469; -0.568436; 0.822447;,
       0.000000; -0.913722; 0.406339;,
       0.000000; -0.874528; -0.484975;,
       0.027192; -0.290510; -0.956485;,
       -0.958862; 0.283866; 0.001942;,
       -0.953474; 0.300084; 0.028919;,
       -0.960111; 0.278915; 0.019822;,
       -0.947914; 0.314457; 0.050747;,
       0.000000; 0.558731; 0.829349;,
       0.000000; 0.558731; 0.829349;,
       0.000000; 0.874462; -0.485095;,
       0.000000; 0.874462; -0.485095;,
       0.984229; 0.175244; 0.024121;,
       0.984283; 0.175073; 0.023148;,
       -0.010262; -0.143703; 0.989568;,
       -0.025690; -0.087304; 0.995850;,
       0.000000; -0.090811; 0.995868;,
       0.018704; 0.135161; -0.990647;,
       0.018815; 0.180964; -0.983310;,
       0.000000; 0.234770; -0.972051;,
       -0.940650; 0.334518; 0.057234;,
       -0.942588; 0.327086; 0.067399;,
       0.998496; -0.054023; -0.009295;,
       0.998459; -0.054360; -0.011201;,
       -0.963064; -0.269267; -0.001842;,
       -0.997427; 0.069163; 0.018859;,
       -0.964244; -0.264351; -0.018780;,
       -0.997373; 0.071759; 0.009881;,
       0.020568; -0.568380; 0.822509;,
       0.000000; -0.914418; 0.404772;,
       0.000000; -0.875084; -0.483972;,
       -0.028360; -0.290396; -0.956486;,
       0.947110; 0.316782; 0.051311;,
       0.959993; 0.279306; 0.020064;,
       0.954180; 0.297850; 0.028739;,
       0.959706; 0.280999; 0.001922;,
       0.000000; 0.558731; 0.829349;,
       0.000000; 0.558731; 0.829349;,
       0.000000; 0.874462; -0.485095;,
       0.000000; 0.874461; -0.485095;,
       -0.984353; 0.174563; 0.024028;,
       -0.984256; 0.175220; 0.023202;,
       0.016401; -0.118638; 0.992802;,
       0.016399; -0.116244; 0.993085;,
       0.000000; -0.121026; 0.992649;,
       -0.011749; 0.221586; -0.975070;,
       -0.029273; 0.099498; -0.994607;,
       0.000000; 0.176391; -0.984320;,
       0.938638; 0.337807; 0.069608;,
       0.940017; 0.336191; 0.057831;,
       -0.998567; -0.052424; -0.010802;,
       -0.998514; -0.053725; -0.009188;;
       432;
       3;0, 1, 2;,
       3;1, 3, 2;,
       3;4, 5, 6;,
       3;5, 7, 6;,
       3;7, 8, 6;,
       3;8, 9, 6;,
       3;10, 11, 2;,
       3;11, 0, 2;,
       3;12, 13, 14;,
       3;13, 15, 14;,
       3;16, 17, 18;,
       3;17, 19, 18;,
       3;19, 20, 18;,
       3;20, 21, 18;,
       3;22, 23, 14;,
       3;23, 12, 14;,
       3;24, 25, 26;,
       3;25, 27, 26;,
       3;28, 29, 30;,
       3;29, 31, 30;,
       3;31, 32, 30;,
       3;32, 33, 30;,
       3;34, 35, 26;,
       3;35, 24, 26;,
       3;36, 37, 38;,
       3;37, 39, 38;,
       3;40, 41, 42;,
       3;41, 43, 42;,
       3;43, 44, 42;,
       3;44, 45, 42;,
       3;46, 47, 38;,
       3;47, 36, 38;,
       3;48, 47, 49;,
       3;47, 46, 49;,
       3;45, 44, 50;,
       3;44, 51, 50;,
       3;51, 29, 50;,
       3;29, 28, 50;,
       3;27, 25, 49;,
       3;25, 48, 49;,
       3;52, 11, 53;,
       3;11, 10, 53;,
       3;9, 8, 54;,
       3;8, 55, 54;,
       3;55, 17, 54;,
       3;17, 16, 54;,
       3;15, 13, 53;,
       3;13, 52, 53;,
       3;56, 57, 58;,
       3;57, 59, 58;,
       3;59, 60, 58;,
       3;60, 61, 58;,
       3;61, 8, 58;,
       3;8, 7, 58;,
       3;7, 5, 58;,
       3;5, 56, 58;,
       3;62, 32, 63;,
       3;32, 31, 63;,
       3;31, 29, 63;,
       3;29, 64, 63;,
       3;64, 60, 63;,
       3;60, 59, 63;,
       3;59, 57, 63;,
       3;57, 62, 63;,
       3;65, 66, 67;,
       3;66, 68, 67;,
       3;68, 69, 67;,
       3;69, 70, 67;,
       3;70, 71, 67;,
       3;71, 72, 67;,
       3;72, 73, 67;,
       3;73, 65, 67;,
       3;74, 75, 76;,
       3;75, 77, 76;,
       3;77, 78, 76;,
       3;78, 79, 76;,
       3;79, 71, 76;,
       3;71, 70, 76;,
       3;70, 69, 76;,
       3;69, 74, 76;,
       3;51, 44, 80;,
       3;44, 81, 80;,
       3;81, 82, 80;,
       3;82, 83, 80;,
       3;83, 60, 80;,
       3;60, 64, 80;,
       3;64, 29, 80;,
       3;29, 51, 80;,
       3;84, 17, 85;,
       3;17, 55, 85;,
       3;55, 8, 85;,
       3;8, 61, 85;,
       3;61, 60, 85;,
       3;60, 83, 85;,
       3;83, 82, 85;,
       3;82, 84, 85;,
       3;43, 41, 86;,
       3;41, 87, 86;,
       3;87, 88, 86;,
       3;88, 89, 86;,
       3;89, 82, 86;,
       3;82, 81, 86;,
       3;81, 44, 86;,
       3;44, 43, 86;,
       3;90, 20, 91;,
       3;20, 19, 91;,
       3;19, 17, 91;,
       3;17, 84, 91;,
       3;84, 82, 91;,
       3;82, 89, 91;,
       3;89, 88, 91;,
       3;88, 90, 91;,
       3;92, 93, 94;,
       3;93, 95, 94;,
       3;95, 96, 94;,
       3;96, 97, 94;,
       3;97, 98, 94;,
       3;98, 99, 94;,
       3;99, 100, 94;,
       3;100, 92, 94;,
       3;101, 102, 103;,
       3;102, 104, 103;,
       3;104, 105, 103;,
       3;105, 106, 103;,
       3;106, 96, 103;,
       3;96, 95, 103;,
       3;95, 93, 103;,
       3;93, 101, 103;,
       3;107, 73, 108;,
       3;73, 72, 108;,
       3;72, 71, 108;,
       3;71, 109, 108;,
       3;109, 96, 108;,
       3;96, 106, 108;,
       3;106, 105, 108;,
       3;105, 107, 108;,
       3;79, 78, 110;,
       3;78, 111, 110;,
       3;111, 98, 110;,
       3;98, 97, 110;,
       3;97, 96, 110;,
       3;96, 109, 110;,
       3;109, 71, 110;,
       3;71, 79, 110;,
       3;112, 113, 114;,
       3;113, 115, 114;,
       3;116, 57, 117;,
       3;57, 56, 117;,
       3;56, 5, 117;,
       3;5, 4, 117;,
       3;118, 119, 120;,
       3;119, 121, 120;,
       3;122, 123, 124;,
       3;123, 125, 124;,
       3;33, 32, 126;,
       3;32, 62, 126;,
       3;62, 57, 126;,
       3;57, 116, 126;,
       3;115, 113, 124;,
       3;113, 122, 124;,
       3;127, 128, 129;,
       3;128, 130, 129;,
       3;131, 88, 132;,
       3;88, 87, 132;,
       3;87, 41, 132;,
       3;41, 40, 132;,
       3;133, 134, 129;,
       3;134, 127, 129;,
       3;135, 136, 137;,
       3;136, 138, 137;,
       3;21, 20, 139;,
       3;20, 90, 139;,
       3;90, 88, 139;,
       3;88, 131, 139;,
       3;130, 128, 137;,
       3;128, 135, 137;,
       3;77, 75, 140;,
       3;75, 141, 140;,
       3;142, 143, 144;,
       3;143, 145, 144;,
       3;145, 146, 144;,
       3;146, 147, 144;,
       3;148, 78, 140;,
       3;78, 77, 140;,
       3;149, 1, 150;,
       3;1, 0, 150;,
       3;0, 11, 150;,
       3;11, 151, 150;,
       3;151, 146, 150;,
       3;146, 145, 150;,
       3;145, 143, 150;,
       3;143, 149, 150;,
       3;24, 35, 152;,
       3;35, 153, 152;,
       3;153, 154, 152;,
       3;154, 155, 152;,
       3;155, 156, 152;,
       3;156, 157, 152;,
       3;157, 25, 152;,
       3;25, 24, 152;,
       3;158, 66, 159;,
       3;66, 65, 159;,
       3;65, 73, 159;,
       3;73, 160, 159;,
       3;161, 156, 162;,
       3;156, 155, 162;,
       3;155, 154, 162;,
       3;154, 163, 162;,
       3;99, 98, 164;,
       3;98, 165, 164;,
       3;166, 167, 168;,
       3;167, 169, 168;,
       3;169, 170, 168;,
       3;170, 171, 168;,
       3;172, 100, 164;,
       3;100, 99, 164;,
       3;173, 13, 174;,
       3;13, 12, 174;,
       3;12, 23, 174;,
       3;23, 175, 174;,
       3;175, 170, 174;,
       3;170, 169, 174;,
       3;169, 167, 174;,
       3;167, 173, 174;,
       3;111, 78, 176;,
       3;78, 148, 176;,
       3;147, 146, 177;,
       3;146, 178, 177;,
       3;178, 167, 177;,
       3;167, 166, 177;,
       3;165, 98, 176;,
       3;98, 111, 176;,
       3;151, 11, 179;,
       3;11, 52, 179;,
       3;52, 13, 179;,
       3;13, 173, 179;,
       3;173, 167, 179;,
       3;167, 178, 179;,
       3;178, 146, 179;,
       3;146, 151, 179;,
       3;36, 47, 180;,
       3;47, 181, 180;,
       3;181, 182, 180;,
       3;182, 183, 180;,
       3;183, 184, 180;,
       3;184, 185, 180;,
       3;185, 37, 180;,
       3;37, 36, 180;,
       3;186, 105, 187;,
       3;105, 104, 187;,
       3;104, 102, 187;,
       3;102, 188, 187;,
       3;189, 184, 190;,
       3;184, 183, 190;,
       3;183, 182, 190;,
       3;182, 191, 190;,
       3;48, 25, 192;,
       3;25, 157, 192;,
       3;157, 156, 192;,
       3;156, 193, 192;,
       3;193, 182, 192;,
       3;182, 181, 192;,
       3;181, 47, 192;,
       3;47, 48, 192;,
       3;160, 73, 194;,
       3;73, 107, 194;,
       3;107, 105, 194;,
       3;105, 186, 194;,
       3;191, 182, 195;,
       3;182, 193, 195;,
       3;193, 156, 195;,
       3;156, 161, 195;,
       3;74, 69, 196;,
       3;69, 197, 196;,
       3;198, 199, 200;,
       3;199, 201, 200;,
       3;201, 202, 200;,
       3;202, 203, 200;,
       3;141, 75, 196;,
       3;75, 74, 196;,
       3;204, 113, 205;,
       3;113, 112, 205;,
       3;112, 206, 205;,
       3;206, 207, 205;,
       3;207, 202, 205;,
       3;202, 201, 205;,
       3;201, 199, 205;,
       3;199, 204, 205;,
       3;68, 66, 208;,
       3;66, 158, 208;,
       3;209, 210, 211;,
       3;210, 212, 211;,
       3;212, 199, 211;,
       3;199, 198, 211;,
       3;197, 69, 208;,
       3;69, 68, 208;,
       3;213, 123, 214;,
       3;123, 122, 214;,
       3;122, 113, 214;,
       3;113, 204, 214;,
       3;204, 199, 214;,
       3;199, 212, 214;,
       3;212, 210, 214;,
       3;210, 213, 214;,
       3;135, 128, 215;,
       3;128, 216, 215;,
       3;216, 217, 215;,
       3;217, 218, 215;,
       3;218, 219, 215;,
       3;219, 220, 215;,
       3;220, 136, 215;,
       3;136, 135, 215;,
       3;221, 93, 222;,
       3;93, 92, 222;,
       3;92, 100, 222;,
       3;100, 172, 222;,
       3;223, 219, 224;,
       3;219, 218, 224;,
       3;218, 217, 224;,
       3;217, 225, 224;,
       3;127, 134, 226;,
       3;134, 227, 226;,
       3;227, 228, 226;,
       3;228, 229, 226;,
       3;229, 217, 226;,
       3;217, 216, 226;,
       3;216, 128, 226;,
       3;128, 127, 226;,
       3;188, 102, 230;,
       3;102, 101, 230;,
       3;101, 93, 230;,
       3;93, 221, 230;,
       3;225, 217, 231;,
       3;217, 229, 231;,
       3;229, 228, 231;,
       3;228, 232, 231;,
       3;233, 234, 235;,
       3;234, 236, 235;,
       3;237, 238, 239;,
       3;238, 240, 239;,
       3;241, 242, 243;,
       3;242, 244, 243;,
       3;245, 246, 247;,
       3;246, 248, 247;,
       3;249, 250, 234;,
       3;250, 236, 234;,
       3;238, 237, 251;,
       3;237, 252, 251;,
       3;251, 252, 253;,
       3;239, 240, 254;,
       3;240, 255, 254;,
       3;254, 255, 256;,
       3;257, 241, 258;,
       3;241, 243, 258;,
       3;245, 253, 246;,
       3;253, 252, 246;,
       3;248, 254, 247;,
       3;254, 256, 247;,
       3;259, 250, 260;,
       3;250, 249, 260;,
       3;261, 262, 263;,
       3;262, 264, 263;,
       3;265, 266, 267;,
       3;266, 268, 267;,
       3;269, 270, 271;,
       3;270, 272, 271;,
       3;273, 274, 275;,
       3;274, 276, 275;,
       3;277, 278, 263;,
       3;278, 261, 263;,
       3;266, 265, 279;,
       3;265, 280, 279;,
       3;279, 280, 281;,
       3;267, 268, 282;,
       3;268, 283, 282;,
       3;282, 283, 284;,
       3;270, 285, 272;,
       3;285, 286, 272;,
       3;281, 274, 279;,
       3;274, 273, 279;,
       3;283, 275, 284;,
       3;275, 276, 284;,
       3;277, 287, 278;,
       3;287, 288, 278;,
       3;289, 290, 291;,
       3;290, 292, 291;,
       3;293, 294, 295;,
       3;294, 296, 295;,
       3;297, 298, 299;,
       3;298, 300, 299;,
       3;301, 302, 303;,
       3;302, 304, 303;,
       3;305, 306, 291;,
       3;306, 289, 291;,
       3;294, 293, 307;,
       3;293, 308, 307;,
       3;307, 308, 309;,
       3;295, 296, 310;,
       3;296, 311, 310;,
       3;310, 311, 312;,
       3;298, 313, 300;,
       3;313, 314, 300;,
       3;309, 302, 307;,
       3;302, 301, 307;,
       3;311, 303, 312;,
       3;303, 304, 312;,
       3;305, 315, 306;,
       3;315, 316, 306;,
       3;317, 318, 319;,
       3;318, 320, 319;,
       3;321, 322, 323;,
       3;322, 324, 323;,
       3;325, 326, 327;,
       3;326, 328, 327;,
       3;329, 330, 331;,
       3;330, 332, 331;,
       3;333, 334, 318;,
       3;334, 320, 318;,
       3;322, 321, 335;,
       3;321, 336, 335;,
       3;335, 336, 337;,
       3;323, 324, 338;,
       3;324, 339, 338;,
       3;338, 339, 340;,
       3;341, 325, 342;,
       3;325, 327, 342;,
       3;329, 337, 330;,
       3;337, 336, 330;,
       3;332, 338, 331;,
       3;338, 340, 331;,
       3;343, 334, 344;,
       3;334, 333, 344;;
      }

      MeshTextureCoords {
       345;
       0.680362; 0.101116;,
       0.680636; 0.076741;,
       0.756198; 0.106420;,
       0.755287; 0.086519;,
       0.499394; 0.257349;,
       0.513992; 0.241349;,
       0.483629; 0.239280;,
       0.506095; 0.228314;,
       0.505891; 0.212305;,
       0.480353; 0.216006;,
       0.756858; 0.135890;,
       0.680115; 0.134564;,
       0.680185; 0.262062;,
       0.680176; 0.215725;,
       0.752610; 0.259031;,
       0.754948; 0.214968;,
       0.481224; 0.156478;,
       0.504873; 0.161263;,
       0.484430; 0.124649;,
       0.504807; 0.132997;,
       0.513811; 0.113950;,
       0.500712; 0.099368;,
       0.750526; 0.292861;,
       0.680166; 0.298168;,
       0.655781; 0.269737;,
       0.655552; 0.237292;,
       0.726309; 0.264591;,
       0.726922; 0.236006;,
       0.726909; 0.216006;,
       0.700454; 0.212213;,
       0.723693; 0.239295;,
       0.700338; 0.228223;,
       0.690956; 0.241364;,
       0.706512; 0.257132;,
       0.725461; 0.283895;,
       0.656037; 0.293380;,
       0.655617; 0.113619;,
       0.655599; 0.078596;,
       0.722973; 0.116559;,
       0.721034; 0.083744;,
       0.705390; 0.099735;,
       0.691176; 0.114088;,
       0.723008; 0.124776;,
       0.701535; 0.133160;,
       0.701398; 0.161345;,
       0.726091; 0.156575;,
       0.725146; 0.159300;,
       0.655609; 0.158566;,
       0.655540; 0.200012;,
       0.726498; 0.200012;,
       0.727476; 0.187730;,
       0.701011; 0.188888;,
       0.680102; 0.172997;,
       0.756402; 0.172997;,
       0.479777; 0.187695;,
       0.505260; 0.188909;,
       0.543851; 0.242838;,
       0.598970; 0.244462;,
       0.544530; 0.227655;,
       0.598983; 0.228657;,
       0.598994; 0.212464;,
       0.544872; 0.212000;,
       0.657463; 0.242981;,
       0.656851; 0.227758;,
       0.656529; 0.212044;,
       0.483200; 0.356698;,
       0.501166; 0.342204;,
       0.484840; 0.299549;,
       0.508672; 0.299668;,
       0.510616; 0.225483;,
       0.486017; 0.225481;,
       0.454357; 0.225480;,
       0.454038; 0.299449;,
       0.453604; 0.356505;,
       0.508679; 0.155590;,
       0.501228; 0.117789;,
       0.484843; 0.155710;,
       0.483250; 0.104981;,
       0.453627; 0.105182;,
       0.454040; 0.155810;,
       0.656474; 0.189099;,
       0.656640; 0.162047;,
       0.599003; 0.161736;,
       0.599002; 0.189095;,
       0.544738; 0.162055;,
       0.544916; 0.189097;,
       0.656973; 0.134264;,
       0.657444; 0.109797;,
       0.599003; 0.108988;,
       0.599003; 0.133683;,
       0.543905; 0.109804;,
       0.544401; 0.134275;,
       0.314106; 0.155618;,
       0.313999; 0.225485;,
       0.345924; 0.155679;,
       0.345843; 0.225482;,
       0.385587; 0.225480;,
       0.385649; 0.155743;,
       0.385404; 0.104949;,
       0.345588; 0.104891;,
       0.321851; 0.117906;,
       0.314122; 0.299647;,
       0.321909; 0.342121;,
       0.345936; 0.299579;,
       0.345643; 0.356804;,
       0.385434; 0.356732;,
       0.385653; 0.299510;,
       0.421454; 0.356582;,
       0.421553; 0.299451;,
       0.421531; 0.225480;,
       0.421555; 0.155804;,
       0.421453; 0.105100;,
       0.658677; 0.107706;,
       0.658677; 0.168679;,
       0.727566; 0.107706;,
       0.727566; 0.168679;,
       0.598961; 0.270092;,
       0.542538; 0.268187;,
       0.727847; 0.069988;,
       0.658593; 0.069988;,
       0.727566; 0.114307;,
       0.658677; 0.114307;,
       0.658677; 0.233411;,
       0.658593; 0.313910;,
       0.727566; 0.233411;,
       0.727847; 0.313910;,
       0.658688; 0.268266;,
       0.673267; 0.283300;,
       0.673267; 0.218526;,
       0.741429; 0.283300;,
       0.741429; 0.218526;,
       0.599010; 0.088158;,
       0.658169; 0.088955;,
       0.742108; 0.333293;,
       0.673272; 0.333293;,
       0.673267; 0.157514;,
       0.673272; 0.113166;,
       0.741429; 0.157514;,
       0.742108; 0.113166;,
       0.543162; 0.088911;,
       0.484454; 0.086860;,
       0.508373; 0.103892;,
       0.249530; 0.073483;,
       0.313210; 0.073483;,
       0.245512; 0.099347;,
       0.309695; 0.099347;,
       0.306809; 0.134121;,
       0.242213; 0.134121;,
       0.453938; 0.087080;,
       0.495095; 0.073483;,
       0.493086; 0.099347;,
       0.491437; 0.134121;,
       0.481615; 0.271453;,
       0.483484; 0.296541;,
       0.319282; 0.296541;,
       0.316013; 0.271453;,
       0.313329; 0.237722;,
       0.480082; 0.237722;,
       0.508256; 0.357704;,
       0.484416; 0.376859;,
       0.453929; 0.376666;,
       0.253254; 0.237722;,
       0.256323; 0.271453;,
       0.260059; 0.296541;,
       0.343857; 0.086983;,
       0.384141; 0.086918;,
       0.246533; 0.215980;,
       0.310588; 0.215980;,
       0.251271; 0.263074;,
       0.314735; 0.263074;,
       0.318251; 0.299937;,
       0.255290; 0.299937;,
       0.312018; 0.104256;,
       0.493597; 0.215980;,
       0.495966; 0.263074;,
       0.497975; 0.299937;,
       0.420823; 0.087013;,
       0.243034; 0.172997;,
       0.307527; 0.172997;,
       0.491847; 0.172997;,
       0.484294; 0.112637;,
       0.482090; 0.158318;,
       0.316843; 0.158318;,
       0.320699; 0.112637;,
       0.323970; 0.076880;,
       0.486162; 0.076880;,
       0.384178; 0.376826;,
       0.343906; 0.376763;,
       0.312118; 0.357405;,
       0.265416; 0.076880;,
       0.261678; 0.112637;,
       0.257272; 0.158318;,
       0.480463; 0.200012;,
       0.313996; 0.200012;,
       0.420844; 0.376732;,
       0.254018; 0.200012;,
       0.520171; 0.155366;,
       0.522260; 0.225486;,
       0.259890; 0.168679;,
       0.318812; 0.168679;,
       0.259890; 0.107706;,
       0.318812; 0.107706;,
       0.317724; 0.063387;,
       0.258647; 0.063387;,
       0.487084; 0.168679;,
       0.487084; 0.107706;,
       0.658593; 0.063387;,
       0.486462; 0.063387;,
       0.520157; 0.299885;,
       0.258647; 0.313910;,
       0.317724; 0.313910;,
       0.259890; 0.233411;,
       0.318812; 0.233411;,
       0.486462; 0.313910;,
       0.487084; 0.233411;,
       0.495687; 0.157514;,
       0.495687; 0.218526;,
       0.320349; 0.218526;,
       0.320349; 0.157514;,
       0.319204; 0.113166;,
       0.495031; 0.113166;,
       0.300551; 0.225486;,
       0.300656; 0.155490;,
       0.257608; 0.113166;,
       0.258917; 0.157514;,
       0.258917; 0.218526;,
       0.495687; 0.283300;,
       0.495031; 0.333293;,
       0.319204; 0.333293;,
       0.320349; 0.283300;,
       0.300676; 0.299774;,
       0.258917; 0.283300;,
       0.257608; 0.333293;,
       0.041467; 0.832270;,
       0.036588; 0.375371;,
       0.013806; 0.871360;,
       0.015344; 0.400042;,
       0.002204; 0.829445;,
       0.045582; 0.765068;,
       0.002146; 0.829164;,
       0.045524; 0.764786;,
       0.034570; 0.359391;,
       0.041467; 0.832270;,
       0.013326; 0.384064;,
       0.013806; 0.871360;,
       0.029806; 0.242966;,
       0.011359; 0.270343;,
       0.028930; 0.238732;,
       0.010483; 0.266109;,
       0.034570; 0.359391;,
       0.013326; 0.384064;,
       0.046312; 0.308524;,
       0.007421; 0.347725;,
       0.038826; 0.301117;,
       0.006545; 0.343493;,
       0.045436; 0.304290;,
       0.037950; 0.296885;,
       0.033529; 0.288019;,
       0.019134; 0.302919;,
       0.019134; 0.302919;,
       0.033529; 0.288019;,
       0.036588; 0.375371;,
       0.041467; 0.832270;,
       0.015344; 0.400042;,
       0.013806; 0.871360;,
       0.127935; 0.826461;,
       0.089660; 0.894808;,
       0.127882; 0.826174;,
       0.089607; 0.894521;,
       0.041467; 0.832270;,
       0.034570; 0.359391;,
       0.013806; 0.871360;,
       0.013326; 0.384064;,
       0.094570; 0.318917;,
       0.110847; 0.289852;,
       0.093764; 0.314601;,
       0.110041; 0.285536;,
       0.013326; 0.384064;,
       0.034570; 0.359391;,
       0.091509; 0.398753;,
       0.125934; 0.356533;,
       0.119221; 0.349270;,
       0.125129; 0.352217;,
       0.090704; 0.394439;,
       0.118415; 0.344956;,
       0.033529; 0.288019;,
       0.019134; 0.302919;,
       0.019134; 0.302919;,
       0.033529; 0.288019;,
       0.097031; 0.426632;,
       0.094899; 0.799334;,
       0.115216; 0.445728;,
       0.118609; 0.829878;,
       0.045582; 0.765068;,
       0.002204; 0.829445;,
       0.045524; 0.764786;,
       0.002146; 0.829164;,
       0.094899; 0.799334;,
       0.098678; 0.413509;,
       0.118609; 0.829878;,
       0.116862; 0.432607;,
       0.011359; 0.270343;,
       0.029806; 0.242966;,
       0.010483; 0.266109;,
       0.028930; 0.238732;,
       0.116862; 0.432607;,
       0.098678; 0.413509;,
       0.007421; 0.347725;,
       0.046312; 0.308524;,
       0.038826; 0.301117;,
       0.045436; 0.304290;,
       0.006545; 0.343493;,
       0.037950; 0.296885;,
       0.099248; 0.355276;,
       0.111563; 0.366736;,
       0.111563; 0.366736;,
       0.099248; 0.355276;,
       0.094899; 0.799334;,
       0.097031; 0.426632;,
       0.118609; 0.829878;,
       0.115216; 0.445728;,
       0.089660; 0.894808;,
       0.127935; 0.826461;,
       0.089607; 0.894521;,
       0.127882; 0.826174;,
       0.098678; 0.413509;,
       0.094899; 0.799334;,
       0.116862; 0.432607;,
       0.118609; 0.829878;,
       0.110847; 0.289852;,
       0.094570; 0.318917;,
       0.110041; 0.285536;,
       0.093764; 0.314601;,
       0.098678; 0.413509;,
       0.116862; 0.432607;,
       0.125934; 0.356533;,
       0.091509; 0.398753;,
       0.119221; 0.349270;,
       0.090704; 0.394439;,
       0.125129; 0.352217;,
       0.118415; 0.344956;,
       0.099248; 0.355276;,
       0.111563; 0.366736;,
       0.111563; 0.366736;,
       0.099248; 0.355276;;
      }

      MeshVertexColors {
       345;
       0; 1.000000; 1.000000; 1.000000; 1.000000;,
       1; 1.000000; 1.000000; 1.000000; 1.000000;,
       2; 1.000000; 1.000000; 1.000000; 1.000000;,
       3; 1.000000; 1.000000; 1.000000; 1.000000;,
       4; 1.000000; 1.000000; 1.000000; 1.000000;,
       5; 1.000000; 1.000000; 1.000000; 1.000000;,
       6; 1.000000; 1.000000; 1.000000; 1.000000;,
       7; 1.000000; 1.000000; 1.000000; 1.000000;,
       8; 1.000000; 1.000000; 1.000000; 1.000000;,
       9; 1.000000; 1.000000; 1.000000; 1.000000;,
       10; 1.000000; 1.000000; 1.000000; 1.000000;,
       11; 1.000000; 1.000000; 1.000000; 1.000000;,
       12; 1.000000; 1.000000; 1.000000; 1.000000;,
       13; 1.000000; 1.000000; 1.000000; 1.000000;,
       14; 1.000000; 1.000000; 1.000000; 1.000000;,
       15; 1.000000; 1.000000; 1.000000; 1.000000;,
       16; 1.000000; 1.000000; 1.000000; 1.000000;,
       17; 1.000000; 1.000000; 1.000000; 1.000000;,
       18; 1.000000; 1.000000; 1.000000; 1.000000;,
       19; 1.000000; 1.000000; 1.000000; 1.000000;,
       20; 1.000000; 1.000000; 1.000000; 1.000000;,
       21; 1.000000; 1.000000; 1.000000; 1.000000;,
       22; 1.000000; 1.000000; 1.000000; 1.000000;,
       23; 1.000000; 1.000000; 1.000000; 1.000000;,
       24; 1.000000; 1.000000; 1.000000; 1.000000;,
       25; 1.000000; 1.000000; 1.000000; 1.000000;,
       26; 1.000000; 1.000000; 1.000000; 1.000000;,
       27; 1.000000; 1.000000; 1.000000; 1.000000;,
       28; 1.000000; 1.000000; 1.000000; 1.000000;,
       29; 1.000000; 1.000000; 1.000000; 1.000000;,
       30; 1.000000; 1.000000; 1.000000; 1.000000;,
       31; 1.000000; 1.000000; 1.000000; 1.000000;,
       32; 1.000000; 1.000000; 1.000000; 1.000000;,
       33; 1.000000; 1.000000; 1.000000; 1.000000;,
       34; 1.000000; 1.000000; 1.000000; 1.000000;,
       35; 1.000000; 1.000000; 1.000000; 1.000000;,
       36; 1.000000; 1.000000; 1.000000; 1.000000;,
       37; 1.000000; 1.000000; 1.000000; 1.000000;,
       38; 1.000000; 1.000000; 1.000000; 1.000000;,
       39; 1.000000; 1.000000; 1.000000; 1.000000;,
       40; 1.000000; 1.000000; 1.000000; 1.000000;,
       41; 1.000000; 1.000000; 1.000000; 1.000000;,
       42; 1.000000; 1.000000; 1.000000; 1.000000;,
       43; 1.000000; 1.000000; 1.000000; 1.000000;,
       44; 1.000000; 1.000000; 1.000000; 1.000000;,
       45; 1.000000; 1.000000; 1.000000; 1.000000;,
       46; 1.000000; 1.000000; 1.000000; 1.000000;,
       47; 1.000000; 1.000000; 1.000000; 1.000000;,
       48; 1.000000; 1.000000; 1.000000; 1.000000;,
       49; 1.000000; 1.000000; 1.000000; 1.000000;,
       50; 1.000000; 1.000000; 1.000000; 1.000000;,
       51; 1.000000; 1.000000; 1.000000; 1.000000;,
       52; 1.000000; 1.000000; 1.000000; 1.000000;,
       53; 1.000000; 1.000000; 1.000000; 1.000000;,
       54; 1.000000; 1.000000; 1.000000; 1.000000;,
       55; 1.000000; 1.000000; 1.000000; 1.000000;,
       56; 1.000000; 1.000000; 1.000000; 1.000000;,
       57; 1.000000; 1.000000; 1.000000; 1.000000;,
       58; 1.000000; 1.000000; 1.000000; 1.000000;,
       59; 1.000000; 1.000000; 1.000000; 1.000000;,
       60; 1.000000; 1.000000; 1.000000; 1.000000;,
       61; 1.000000; 1.000000; 1.000000; 1.000000;,
       62; 1.000000; 1.000000; 1.000000; 1.000000;,
       63; 1.000000; 1.000000; 1.000000; 1.000000;,
       64; 1.000000; 1.000000; 1.000000; 1.000000;,
       65; 1.000000; 1.000000; 1.000000; 1.000000;,
       66; 1.000000; 1.000000; 1.000000; 1.000000;,
       67; 1.000000; 1.000000; 1.000000; 1.000000;,
       68; 1.000000; 1.000000; 1.000000; 1.000000;,
       69; 1.000000; 1.000000; 1.000000; 1.000000;,
       70; 1.000000; 1.000000; 1.000000; 1.000000;,
       71; 1.000000; 1.000000; 1.000000; 1.000000;,
       72; 1.000000; 1.000000; 1.000000; 1.000000;,
       73; 1.000000; 1.000000; 1.000000; 1.000000;,
       74; 1.000000; 1.000000; 1.000000; 1.000000;,
       75; 1.000000; 1.000000; 1.000000; 1.000000;,
       76; 1.000000; 1.000000; 1.000000; 1.000000;,
       77; 1.000000; 1.000000; 1.000000; 1.000000;,
       78; 1.000000; 1.000000; 1.000000; 1.000000;,
       79; 1.000000; 1.000000; 1.000000; 1.000000;,
       80; 1.000000; 1.000000; 1.000000; 1.000000;,
       81; 1.000000; 1.000000; 1.000000; 1.000000;,
       82; 1.000000; 1.000000; 1.000000; 1.000000;,
       83; 1.000000; 1.000000; 1.000000; 1.000000;,
       84; 1.000000; 1.000000; 1.000000; 1.000000;,
       85; 1.000000; 1.000000; 1.000000; 1.000000;,
       86; 1.000000; 1.000000; 1.000000; 1.000000;,
       87; 1.000000; 1.000000; 1.000000; 1.000000;,
       88; 1.000000; 1.000000; 1.000000; 1.000000;,
       89; 1.000000; 1.000000; 1.000000; 1.000000;,
       90; 1.000000; 1.000000; 1.000000; 1.000000;,
       91; 1.000000; 1.000000; 1.000000; 1.000000;,
       92; 1.000000; 1.000000; 1.000000; 1.000000;,
       93; 1.000000; 1.000000; 1.000000; 1.000000;,
       94; 1.000000; 1.000000; 1.000000; 1.000000;,
       95; 1.000000; 1.000000; 1.000000; 1.000000;,
       96; 1.000000; 1.000000; 1.000000; 1.000000;,
       97; 1.000000; 1.000000; 1.000000; 1.000000;,
       98; 1.000000; 1.000000; 1.000000; 1.000000;,
       99; 1.000000; 1.000000; 1.000000; 1.000000;,
       100; 1.000000; 1.000000; 1.000000; 1.000000;,
       101; 1.000000; 1.000000; 1.000000; 1.000000;,
       102; 1.000000; 1.000000; 1.000000; 1.000000;,
       103; 1.000000; 1.000000; 1.000000; 1.000000;,
       104; 1.000000; 1.000000; 1.000000; 1.000000;,
       105; 1.000000; 1.000000; 1.000000; 1.000000;,
       106; 1.000000; 1.000000; 1.000000; 1.000000;,
       107; 1.000000; 1.000000; 1.000000; 1.000000;,
       108; 1.000000; 1.000000; 1.000000; 1.000000;,
       109; 1.000000; 1.000000; 1.000000; 1.000000;,
       110; 1.000000; 1.000000; 1.000000; 1.000000;,
       111; 1.000000; 1.000000; 1.000000; 1.000000;,
       112; 1.000000; 1.000000; 1.000000; 1.000000;,
       113; 1.000000; 1.000000; 1.000000; 1.000000;,
       114; 1.000000; 1.000000; 1.000000; 1.000000;,
       115; 1.000000; 1.000000; 1.000000; 1.000000;,
       116; 1.000000; 1.000000; 1.000000; 1.000000;,
       117; 1.000000; 1.000000; 1.000000; 1.000000;,
       118; 1.000000; 1.000000; 1.000000; 1.000000;,
       119; 1.000000; 1.000000; 1.000000; 1.000000;,
       120; 1.000000; 1.000000; 1.000000; 1.000000;,
       121; 1.000000; 1.000000; 1.000000; 1.000000;,
       122; 1.000000; 1.000000; 1.000000; 1.000000;,
       123; 1.000000; 1.000000; 1.000000; 1.000000;,
       124; 1.000000; 1.000000; 1.000000; 1.000000;,
       125; 1.000000; 1.000000; 1.000000; 1.000000;,
       126; 1.000000; 1.000000; 1.000000; 1.000000;,
       127; 1.000000; 1.000000; 1.000000; 1.000000;,
       128; 1.000000; 1.000000; 1.000000; 1.000000;,
       129; 1.000000; 1.000000; 1.000000; 1.000000;,
       130; 1.000000; 1.000000; 1.000000; 1.000000;,
       131; 1.000000; 1.000000; 1.000000; 1.000000;,
       132; 1.000000; 1.000000; 1.000000; 1.000000;,
       133; 1.000000; 1.000000; 1.000000; 1.000000;,
       134; 1.000000; 1.000000; 1.000000; 1.000000;,
       135; 1.000000; 1.000000; 1.000000; 1.000000;,
       136; 1.000000; 1.000000; 1.000000; 1.000000;,
       137; 1.000000; 1.000000; 1.000000; 1.000000;,
       138; 1.000000; 1.000000; 1.000000; 1.000000;,
       139; 1.000000; 1.000000; 1.000000; 1.000000;,
       140; 1.000000; 1.000000; 1.000000; 1.000000;,
       141; 1.000000; 1.000000; 1.000000; 1.000000;,
       142; 1.000000; 1.000000; 1.000000; 1.000000;,
       143; 1.000000; 1.000000; 1.000000; 1.000000;,
       144; 1.000000; 1.000000; 1.000000; 1.000000;,
       145; 1.000000; 1.000000; 1.000000; 1.000000;,
       146; 1.000000; 1.000000; 1.000000; 1.000000;,
       147; 1.000000; 1.000000; 1.000000; 1.000000;,
       148; 1.000000; 1.000000; 1.000000; 1.000000;,
       149; 1.000000; 1.000000; 1.000000; 1.000000;,
       150; 1.000000; 1.000000; 1.000000; 1.000000;,
       151; 1.000000; 1.000000; 1.000000; 1.000000;,
       152; 1.000000; 1.000000; 1.000000; 1.000000;,
       153; 1.000000; 1.000000; 1.000000; 1.000000;,
       154; 1.000000; 1.000000; 1.000000; 1.000000;,
       155; 1.000000; 1.000000; 1.000000; 1.000000;,
       156; 1.000000; 1.000000; 1.000000; 1.000000;,
       157; 1.000000; 1.000000; 1.000000; 1.000000;,
       158; 1.000000; 1.000000; 1.000000; 1.000000;,
       159; 1.000000; 1.000000; 1.000000; 1.000000;,
       160; 1.000000; 1.000000; 1.000000; 1.000000;,
       161; 1.000000; 1.000000; 1.000000; 1.000000;,
       162; 1.000000; 1.000000; 1.000000; 1.000000;,
       163; 1.000000; 1.000000; 1.000000; 1.000000;,
       164; 1.000000; 1.000000; 1.000000; 1.000000;,
       165; 1.000000; 1.000000; 1.000000; 1.000000;,
       166; 1.000000; 1.000000; 1.000000; 1.000000;,
       167; 1.000000; 1.000000; 1.000000; 1.000000;,
       168; 1.000000; 1.000000; 1.000000; 1.000000;,
       169; 1.000000; 1.000000; 1.000000; 1.000000;,
       170; 1.000000; 1.000000; 1.000000; 1.000000;,
       171; 1.000000; 1.000000; 1.000000; 1.000000;,
       172; 1.000000; 1.000000; 1.000000; 1.000000;,
       173; 1.000000; 1.000000; 1.000000; 1.000000;,
       174; 1.000000; 1.000000; 1.000000; 1.000000;,
       175; 1.000000; 1.000000; 1.000000; 1.000000;,
       176; 1.000000; 1.000000; 1.000000; 1.000000;,
       177; 1.000000; 1.000000; 1.000000; 1.000000;,
       178; 1.000000; 1.000000; 1.000000; 1.000000;,
       179; 1.000000; 1.000000; 1.000000; 1.000000;,
       180; 1.000000; 1.000000; 1.000000; 1.000000;,
       181; 1.000000; 1.000000; 1.000000; 1.000000;,
       182; 1.000000; 1.000000; 1.000000; 1.000000;,
       183; 1.000000; 1.000000; 1.000000; 1.000000;,
       184; 1.000000; 1.000000; 1.000000; 1.000000;,
       185; 1.000000; 1.000000; 1.000000; 1.000000;,
       186; 1.000000; 1.000000; 1.000000; 1.000000;,
       187; 1.000000; 1.000000; 1.000000; 1.000000;,
       188; 1.000000; 1.000000; 1.000000; 1.000000;,
       189; 1.000000; 1.000000; 1.000000; 1.000000;,
       190; 1.000000; 1.000000; 1.000000; 1.000000;,
       191; 1.000000; 1.000000; 1.000000; 1.000000;,
       192; 1.000000; 1.000000; 1.000000; 1.000000;,
       193; 1.000000; 1.000000; 1.000000; 1.000000;,
       194; 1.000000; 1.000000; 1.000000; 1.000000;,
       195; 1.000000; 1.000000; 1.000000; 1.000000;,
       196; 1.000000; 1.000000; 1.000000; 1.000000;,
       197; 1.000000; 1.000000; 1.000000; 1.000000;,
       198; 1.000000; 1.000000; 1.000000; 1.000000;,
       199; 1.000000; 1.000000; 1.000000; 1.000000;,
       200; 1.000000; 1.000000; 1.000000; 1.000000;,
       201; 1.000000; 1.000000; 1.000000; 1.000000;,
       202; 1.000000; 1.000000; 1.000000; 1.000000;,
       203; 1.000000; 1.000000; 1.000000; 1.000000;,
       204; 1.000000; 1.000000; 1.000000; 1.000000;,
       205; 1.000000; 1.000000; 1.000000; 1.000000;,
       206; 1.000000; 1.000000; 1.000000; 1.000000;,
       207; 1.000000; 1.000000; 1.000000; 1.000000;,
       208; 1.000000; 1.000000; 1.000000; 1.000000;,
       209; 1.000000; 1.000000; 1.000000; 1.000000;,
       210; 1.000000; 1.000000; 1.000000; 1.000000;,
       211; 1.000000; 1.000000; 1.000000; 1.000000;,
       212; 1.000000; 1.000000; 1.000000; 1.000000;,
       213; 1.000000; 1.000000; 1.000000; 1.000000;,
       214; 1.000000; 1.000000; 1.000000; 1.000000;,
       215; 1.000000; 1.000000; 1.000000; 1.000000;,
       216; 1.000000; 1.000000; 1.000000; 1.000000;,
       217; 1.000000; 1.000000; 1.000000; 1.000000;,
       218; 1.000000; 1.000000; 1.000000; 1.000000;,
       219; 1.000000; 1.000000; 1.000000; 1.000000;,
       220; 1.000000; 1.000000; 1.000000; 1.000000;,
       221; 1.000000; 1.000000; 1.000000; 1.000000;,
       222; 1.000000; 1.000000; 1.000000; 1.000000;,
       223; 1.000000; 1.000000; 1.000000; 1.000000;,
       224; 1.000000; 1.000000; 1.000000; 1.000000;,
       225; 1.000000; 1.000000; 1.000000; 1.000000;,
       226; 1.000000; 1.000000; 1.000000; 1.000000;,
       227; 1.000000; 1.000000; 1.000000; 1.000000;,
       228; 1.000000; 1.000000; 1.000000; 1.000000;,
       229; 1.000000; 1.000000; 1.000000; 1.000000;,
       230; 1.000000; 1.000000; 1.000000; 1.000000;,
       231; 1.000000; 1.000000; 1.000000; 1.000000;,
       232; 1.000000; 1.000000; 1.000000; 1.000000;,
       233; 1.000000; 1.000000; 1.000000; 1.000000;,
       234; 1.000000; 1.000000; 1.000000; 1.000000;,
       235; 1.000000; 1.000000; 1.000000; 1.000000;,
       236; 1.000000; 1.000000; 1.000000; 1.000000;,
       237; 1.000000; 1.000000; 1.000000; 1.000000;,
       238; 1.000000; 1.000000; 1.000000; 1.000000;,
       239; 1.000000; 1.000000; 1.000000; 1.000000;,
       240; 1.000000; 1.000000; 1.000000; 1.000000;,
       241; 1.000000; 1.000000; 1.000000; 1.000000;,
       242; 1.000000; 1.000000; 1.000000; 1.000000;,
       243; 1.000000; 1.000000; 1.000000; 1.000000;,
       244; 1.000000; 1.000000; 1.000000; 1.000000;,
       245; 1.000000; 1.000000; 1.000000; 1.000000;,
       246; 1.000000; 1.000000; 1.000000; 1.000000;,
       247; 1.000000; 1.000000; 1.000000; 1.000000;,
       248; 1.000000; 1.000000; 1.000000; 1.000000;,
       249; 1.000000; 1.000000; 1.000000; 1.000000;,
       250; 1.000000; 1.000000; 1.000000; 1.000000;,
       251; 1.000000; 1.000000; 1.000000; 1.000000;,
       252; 1.000000; 1.000000; 1.000000; 1.000000;,
       253; 1.000000; 1.000000; 1.000000; 1.000000;,
       254; 1.000000; 1.000000; 1.000000; 1.000000;,
       255; 1.000000; 1.000000; 1.000000; 1.000000;,
       256; 1.000000; 1.000000; 1.000000; 1.000000;,
       257; 1.000000; 1.000000; 1.000000; 1.000000;,
       258; 1.000000; 1.000000; 1.000000; 1.000000;,
       259; 1.000000; 1.000000; 1.000000; 1.000000;,
       260; 1.000000; 1.000000; 1.000000; 1.000000;,
       261; 1.000000; 1.000000; 1.000000; 1.000000;,
       262; 1.000000; 1.000000; 1.000000; 1.000000;,
       263; 1.000000; 1.000000; 1.000000; 1.000000;,
       264; 1.000000; 1.000000; 1.000000; 1.000000;,
       265; 1.000000; 1.000000; 1.000000; 1.000000;,
       266; 1.000000; 1.000000; 1.000000; 1.000000;,
       267; 1.000000; 1.000000; 1.000000; 1.000000;,
       268; 1.000000; 1.000000; 1.000000; 1.000000;,
       269; 1.000000; 1.000000; 1.000000; 1.000000;,
       270; 1.000000; 1.000000; 1.000000; 1.000000;,
       271; 1.000000; 1.000000; 1.000000; 1.000000;,
       272; 1.000000; 1.000000; 1.000000; 1.000000;,
       273; 1.000000; 1.000000; 1.000000; 1.000000;,
       274; 1.000000; 1.000000; 1.000000; 1.000000;,
       275; 1.000000; 1.000000; 1.000000; 1.000000;,
       276; 1.000000; 1.000000; 1.000000; 1.000000;,
       277; 1.000000; 1.000000; 1.000000; 1.000000;,
       278; 1.000000; 1.000000; 1.000000; 1.000000;,
       279; 1.000000; 1.000000; 1.000000; 1.000000;,
       280; 1.000000; 1.000000; 1.000000; 1.000000;,
       281; 1.000000; 1.000000; 1.000000; 1.000000;,
       282; 1.000000; 1.000000; 1.000000; 1.000000;,
       283; 1.000000; 1.000000; 1.000000; 1.000000;,
       284; 1.000000; 1.000000; 1.000000; 1.000000;,
       285; 1.000000; 1.000000; 1.000000; 1.000000;,
       286; 1.000000; 1.000000; 1.000000; 1.000000;,
       287; 1.000000; 1.000000; 1.000000; 1.000000;,
       288; 1.000000; 1.000000; 1.000000; 1.000000;,
       289; 1.000000; 1.000000; 1.000000; 1.000000;,
       290; 1.000000; 1.000000; 1.000000; 1.000000;,
       291; 1.000000; 1.000000; 1.000000; 1.000000;,
       292; 1.000000; 1.000000; 1.000000; 1.000000;,
       293; 1.000000; 1.000000; 1.000000; 1.000000;,
       294; 1.000000; 1.000000; 1.000000; 1.000000;,
       295; 1.000000; 1.000000; 1.000000; 1.000000;,
       296; 1.000000; 1.000000; 1.000000; 1.000000;,
       297; 1.000000; 1.000000; 1.000000; 1.000000;,
       298; 1.000000; 1.000000; 1.000000; 1.000000;,
       299; 1.000000; 1.000000; 1.000000; 1.000000;,
       300; 1.000000; 1.000000; 1.000000; 1.000000;,
       301; 1.000000; 1.000000; 1.000000; 1.000000;,
       302; 1.000000; 1.000000; 1.000000; 1.000000;,
       303; 1.000000; 1.000000; 1.000000; 1.000000;,
       304; 1.000000; 1.000000; 1.000000; 1.000000;,
       305; 1.000000; 1.000000; 1.000000; 1.000000;,
       306; 1.000000; 1.000000; 1.000000; 1.000000;,
       307; 1.000000; 1.000000; 1.000000; 1.000000;,
       308; 1.000000; 1.000000; 1.000000; 1.000000;,
       309; 1.000000; 1.000000; 1.000000; 1.000000;,
       310; 1.000000; 1.000000; 1.000000; 1.000000;,
       311; 1.000000; 1.000000; 1.000000; 1.000000;,
       312; 1.000000; 1.000000; 1.000000; 1.000000;,
       313; 1.000000; 1.000000; 1.000000; 1.000000;,
       314; 1.000000; 1.000000; 1.000000; 1.000000;,
       315; 1.000000; 1.000000; 1.000000; 1.000000;,
       316; 1.000000; 1.000000; 1.000000; 1.000000;,
       317; 1.000000; 1.000000; 1.000000; 1.000000;,
       318; 1.000000; 1.000000; 1.000000; 1.000000;,
       319; 1.000000; 1.000000; 1.000000; 1.000000;,
       320; 1.000000; 1.000000; 1.000000; 1.000000;,
       321; 1.000000; 1.000000; 1.000000; 1.000000;,
       322; 1.000000; 1.000000; 1.000000; 1.000000;,
       323; 1.000000; 1.000000; 1.000000; 1.000000;,
       324; 1.000000; 1.000000; 1.000000; 1.000000;,
       325; 1.000000; 1.000000; 1.000000; 1.000000;,
       326; 1.000000; 1.000000; 1.000000; 1.000000;,
       327; 1.000000; 1.000000; 1.000000; 1.000000;,
       328; 1.000000; 1.000000; 1.000000; 1.000000;,
       329; 1.000000; 1.000000; 1.000000; 1.000000;,
       330; 1.000000; 1.000000; 1.000000; 1.000000;,
       331; 1.000000; 1.000000; 1.000000; 1.000000;,
       332; 1.000000; 1.000000; 1.000000; 1.000000;,
       333; 1.000000; 1.000000; 1.000000; 1.000000;,
       334; 1.000000; 1.000000; 1.000000; 1.000000;,
       335; 1.000000; 1.000000; 1.000000; 1.000000;,
       336; 1.000000; 1.000000; 1.000000; 1.000000;,
       337; 1.000000; 1.000000; 1.000000; 1.000000;,
       338; 1.000000; 1.000000; 1.000000; 1.000000;,
       339; 1.000000; 1.000000; 1.000000; 1.000000;,
       340; 1.000000; 1.000000; 1.000000; 1.000000;,
       341; 1.000000; 1.000000; 1.000000; 1.000000;,
       342; 1.000000; 1.000000; 1.000000; 1.000000;,
       343; 1.000000; 1.000000; 1.000000; 1.000000;,
       344; 1.000000; 1.000000; 1.000000; 1.000000;;
      }

      MeshMaterialList {
       1;
       432;
       0,
       0,
       0,
       0,
       0,
       0,
       0,
       0,
       0,
       0,
       0,
       0,
       0,
       0,
       0,
       0,
       0,
       0,
       0,
       0,
       0,
       0,
       0,
       0,
       0,
       0,
       0,
       0,
       0,
       0,
       0,
       0,
       0,
       0,
       0,
       0,
       0,
       0,
       0,
       0,
       0,
       0,
       0,
       0,
       0,
       0,
       0,
       0,
       0,
       0,
       0,
       0,
       0,
       0,
       0,
       0,
       0,
       0,
       0,
       0,
       0,
       0,
       0,
       0,
       0,
       0,
       0,
       0,
       0,
       0,
       0,
       0,
       0,
       0,
       0,
       0,
       0,
       0,
       0,
       0,
       0,
       0,
       0,
       0,
       0,
       0,
       0,
       0,
       0,
       0,
       0,
       0,
       0,
       0,
       0,
       0,
       0,
       0,
       0,
       0,
       0,
       0,
       0,
       0,
       0,
       0,
       0,
       0,
       0,
       0,
       0,
       0,
       0,
       0,
       0,
       0,
       0,
       0,
       0,
       0,
       0,
       0,
       0,
       0,
       0,
       0,
       0,
       0,
       0,
       0,
       0,
       0,
       0,
       0,
       0,
       0,
       0,
       0,
       0,
       0,
       0,
       0,
       0,
       0,
       0,
       0,
       0,
       0,
       0,
       0,
       0,
       0,
       0,
       0,
       0,
       0,
       0,
       0,
       0,
       0,
       0,
       0,
       0,
       0,
       0,
       0,
       0,
       0,
       0,
       0,
       0,
       0,
       0,
       0,
       0,
       0,
       0,
       0,
       0,
       0,
       0,
       0,
       0,
       0,
       0,
       0,
       0,
       0,
       0,
       0,
       0,
       0,
       0,
       0,
       0,
       0,
       0,
       0,
       0,
       0,
       0,
       0,
       0,
       0,
       0,
       0,
       0,
       0,
       0,
       0,
       0,
       0,
       0,
       0,
       0,
       0,
       0,
       0,
       0,
       0,
       0,
       0,
       0,
       0,
       0,
       0,
       0,
       0,
       0,
       0,
       0,
       0,
       0,
       0,
       0,
       0,
       0,
       0,
       0,
       0,
       0,
       0,
       0,
       0,
       0,
       0,
       0,
       0,
       0,
       0,
       0,
       0,
       0,
       0,
       0,
       0,
       0,
       0,
       0,
       0,
       0,
       0,
       0,
       0,
       0,
       0,
       0,
       0,
       0,
       0,
       0,
       0,
       0,
       0,
       0,
       0,
       0,
       0,
       0,
       0,
       0,
       0,
       0,
       0,
       0,
       0,
       0,
       0,
       0,
       0,
       0,
       0,
       0,
       0,
       0,
       0,
       0,
       0,
       0,
       0,
       0,
       0,
       0,
       0,
       0,
       0,
       0,
       0,
       0,
       0,
       0,
       0,
       0,
       0,
       0,
       0,
       0,
       0,
       0,
       0,
       0,
       0,
       0,
       0,
       0,
       0,
       0,
       0,
       0,
       0,
       0,
       0,
       0,
       0,
       0,
       0,
       0,
       0,
       0,
       0,
       0,
       0,
       0,
       0,
       0,
       0,
       0,
       0,
       0,
       0,
       0,
       0,
       0,
       0,
       0,
       0,
       0,
       0,
       0,
       0,
       0,
       0,
       0,
       0,
       0,
       0,
       0,
       0,
       0,
       0,
       0,
       0,
       0,
       0,
       0,
       0,
       0,
       0,
       0,
       0,
       0,
       0,
       0,
       0,
       0,
       0,
       0,
       0,
       0,
       0,
       0,
       0,
       0,
       0,
       0,
       0,
       0,
       0,
       0,
       0,
       0,
       0,
       0,
       0,
       0,
       0,
       0,
       0,
       0,
       0,
       0,
       0,
       0,
       0,
       0,
       0,
       0,
       0,
       0,
       0,
       0,
       0,
       0,
       0,
       0,
       0,
       0,
       0,
       0,
       0,
       0,
       0;

       Material def_surf_mat {
        0.992157; 0.992157; 0.992157; 1.000000;;
        1.000000;
        0.150000; 0.150000; 0.150000;;
        0.000000; 0.000000; 0.000000;;

        TextureFilename {
         "bench.dds";
        }
       }

      }

      XSkinMeshHeader {
       1;
       1;
       1;
      }

      SkinWeights {
       "Body";
       345;
       0,
       1,
       2,
       3,
       4,
       5,
       6,
       7,
       8,
       9,
       10,
       11,
       12,
       13,
       14,
       15,
       16,
       17,
       18,
       19,
       20,
       21,
       22,
       23,
       24,
       25,
       26,
       27,
       28,
       29,
       30,
       31,
       32,
       33,
       34,
       35,
       36,
       37,
       38,
       39,
       40,
       41,
       42,
       43,
       44,
       45,
       46,
       47,
       48,
       49,
       50,
       51,
       52,
       53,
       54,
       55,
       56,
       57,
       58,
       59,
       60,
       61,
       62,
       63,
       64,
       65,
       66,
       67,
       68,
       69,
       70,
       71,
       72,
       73,
       74,
       75,
       76,
       77,
       78,
       79,
       80,
       81,
       82,
       83,
       84,
       85,
       86,
       87,
       88,
       89,
       90,
       91,
       92,
       93,
       94,
       95,
       96,
       97,
       98,
       99,
       100,
       101,
       102,
       103,
       104,
       105,
       106,
       107,
       108,
       109,
       110,
       111,
       112,
       113,
       114,
       115,
       116,
       117,
       118,
       119,
       120,
       121,
       122,
       123,
       124,
       125,
       126,
       127,
       128,
       129,
       130,
       131,
       132,
       133,
       134,
       135,
       136,
       137,
       138,
       139,
       140,
       141,
       142,
       143,
       144,
       145,
       146,
       147,
       148,
       149,
       150,
       151,
       152,
       153,
       154,
       155,
       156,
       157,
       158,
       159,
       160,
       161,
       162,
       163,
       164,
       165,
       166,
       167,
       168,
       169,
       170,
       171,
       172,
       173,
       174,
       175,
       176,
       177,
       178,
       179,
       180,
       181,
       182,
       183,
       184,
       185,
       186,
       187,
       188,
       189,
       190,
       191,
       192,
       193,
       194,
       195,
       196,
       197,
       198,
       199,
       200,
       201,
       202,
       203,
       204,
       205,
       206,
       207,
       208,
       209,
       210,
       211,
       212,
       213,
       214,
       215,
       216,
       217,
       218,
       219,
       220,
       221,
       222,
       223,
       224,
       225,
       226,
       227,
       228,
       229,
       230,
       231,
       232,
       233,
       234,
       235,
       236,
       237,
       238,
       239,
       240,
       241,
       242,
       243,
       244,
       245,
       246,
       247,
       248,
       249,
       250,
       251,
       252,
       253,
       254,
       255,
       256,
       257,
       258,
       259,
       260,
       261,
       262,
       263,
       264,
       265,
       266,
       267,
       268,
       269,
       270,
       271,
       272,
       273,
       274,
       275,
       276,
       277,
       278,
       279,
       280,
       281,
       282,
       283,
       284,
       285,
       286,
       287,
       288,
       289,
       290,
       291,
       292,
       293,
       294,
       295,
       296,
       297,
       298,
       299,
       300,
       301,
       302,
       303,
       304,
       305,
       306,
       307,
       308,
       309,
       310,
       311,
       312,
       313,
       314,
       315,
       316,
       317,
       318,
       319,
       320,
       321,
       322,
       323,
       324,
       325,
       326,
       327,
       328,
       329,
       330,
       331,
       332,
       333,
       334,
       335,
       336,
       337,
       338,
       339,
       340,
       341,
       342,
       343,
       344;
       1.000000,
       1.000000,
       1.000000,
       1.000000,
       1.000000,
       1.000000,
       1.000000,
       1.000000,
       1.000000,
       1.000000,
       1.000000,
       1.000000,
       1.000000,
       1.000000,
       1.000000,
       1.000000,
       1.000000,
       1.000000,
       1.000000,
       1.000000,
       1.000000,
       1.000000,
       1.000000,
       1.000000,
       1.000000,
       1.000000,
       1.000000,
       1.000000,
       1.000000,
       1.000000,
       1.000000,
       1.000000,
       1.000000,
       1.000000,
       1.000000,
       1.000000,
       1.000000,
       1.000000,
       1.000000,
       1.000000,
       1.000000,
       1.000000,
       1.000000,
       1.000000,
       1.000000,
       1.000000,
       1.000000,
       1.000000,
       1.000000,
       1.000000,
       1.000000,
       1.000000,
       1.000000,
       1.000000,
       1.000000,
       1.000000,
       1.000000,
       1.000000,
       1.000000,
       1.000000,
       1.000000,
       1.000000,
       1.000000,
       1.000000,
       1.000000,
       1.000000,
       1.000000,
       1.000000,
       1.000000,
       1.000000,
       1.000000,
       1.000000,
       1.000000,
       1.000000,
       1.000000,
       1.000000,
       1.000000,
       1.000000,
       1.000000,
       1.000000,
       1.000000,
       1.000000,
       1.000000,
       1.000000,
       1.000000,
       1.000000,
       1.000000,
       1.000000,
       1.000000,
       1.000000,
       1.000000,
       1.000000,
       1.000000,
       1.000000,
       1.000000,
       1.000000,
       1.000000,
       1.000000,
       1.000000,
       1.000000,
       1.000000,
       1.000000,
       1.000000,
       1.000000,
       1.000000,
       1.000000,
       1.000000,
       1.000000,
       1.000000,
       1.000000,
       1.000000,
       1.000000,
       1.000000,
       1.000000,
       1.000000,
       1.000000,
       1.000000,
       1.000000,
       1.000000,
       1.000000,
       1.000000,
       1.000000,
       1.000000,
       1.000000,
       1.000000,
       1.000000,
       1.000000,
       1.000000,
       1.000000,
       1.000000,
       1.000000,
       1.000000,
       1.000000,
       1.000000,
       1.000000,
       1.000000,
       1.000000,
       1.000000,
       1.000000,
       1.000000,
       1.000000,
       1.000000,
       1.000000,
       1.000000,
       1.000000,
       1.000000,
       1.000000,
       1.000000,
       1.000000,
       1.000000,
       1.000000,
       1.000000,
       1.000000,
       1.000000,
       1.000000,
       1.000000,
       1.000000,
       1.000000,
       1.000000,
       1.000000,
       1.000000,
       1.000000,
       1.000000,
       1.000000,
       1.000000,
       1.000000,
       1.000000,
       1.000000,
       1.000000,
       1.000000,
       1.000000,
       1.000000,
       1.000000,
       1.000000,
       1.000000,
       1.000000,
       1.000000,
       1.000000,
       1.000000,
       1.000000,
       1.000000,
       1.000000,
       1.000000,
       1.000000,
       1.000000,
       1.000000,
       1.000000,
       1.000000,
       1.000000,
       1.000000,
       1.000000,
       1.000000,
       1.000000,
       1.000000,
       1.000000,
       1.000000,
       1.000000,
       1.000000,
       1.000000,
       1.000000,
       1.000000,
       1.000000,
       1.000000,
       1.000000,
       1.000000,
       1.000000,
       1.000000,
       1.000000,
       1.000000,
       1.000000,
       1.000000,
       1.000000,
       1.000000,
       1.000000,
       1.000000,
       1.000000,
       1.000000,
       1.000000,
       1.000000,
       1.000000,
       1.000000,
       1.000000,
       1.000000,
       1.000000,
       1.000000,
       1.000000,
       1.000000,
       1.000000,
       1.000000,
       1.000000,
       1.000000,
       1.000000,
       1.000000,
       1.000000,
       1.000000,
       1.000000,
       1.000000,
       1.000000,
       1.000000,
       1.000000,
       1.000000,
       1.000000,
       1.000000,
       1.000000,
       1.000000,
       1.000000,
       1.000000,
       1.000000,
       1.000000,
       1.000000,
       1.000000,
       1.000000,
       1.000000,
       1.000000,
       1.000000,
       1.000000,
       1.000000,
       1.000000,
       1.000000,
       1.000000,
       1.000000,
       1.000000,
       1.000000,
       1.000000,
       1.000000,
       1.000000,
       1.000000,
       1.000000,
       1.000000,
       1.000000,
       1.000000,
       1.000000,
       1.000000,
       1.000000,
       1.000000,
       1.000000,
       1.000000,
       1.000000,
       1.000000,
       1.000000,
       1.000000,
       1.000000,
       1.000000,
       1.000000,
       1.000000,
       1.000000,
       1.000000,
       1.000000,
       1.000000,
       1.000000,
       1.000000,
       1.000000,
       1.000000,
       1.000000,
       1.000000,
       1.000000,
       1.000000,
       1.000000,
       1.000000,
       1.000000,
       1.000000,
       1.000000,
       1.000000,
       1.000000,
       1.000000,
       1.000000,
       1.000000,
       1.000000,
       1.000000,
       1.000000,
       1.000000,
       1.000000,
       1.000000,
       1.000000,
       1.000000,
       1.000000,
       1.000000,
       1.000000,
       1.000000,
       1.000000,
       1.000000,
       1.000000,
       1.000000,
       1.000000,
       1.000000,
       1.000000,
       1.000000,
       1.000000,
       1.000000,
       1.000000,
       1.000000,
       1.000000,
       1.000000,
       1.000000,
       1.000000,
       1.000000,
       1.000000,
       1.000000,
       1.000000,
       1.000000,
       1.000000,
       1.000000,
       1.000000,
       1.000000,
       1.000000;
          1.000000, -0.000000, 0.000000, 0.000000,
          -0.000000, 1.000000, -0.000000, 0.000000,
          0.000000, -0.000000, 1.000000, 0.000000,
          -0.000000, -0.000000, -0.000000, 1.000000;;
      }


     }
   }

// Start of Animation

AnimationSet Untitled {
}
