xof 0303txt 0032

// DirectX 9.0 file
// Creator: Ultimate Unwrap3D Pro v3.19
// Website: http://www.unwrap3d.com
// Time: Thu Dec 10 21:26:13 2009

// Start of Templates

template VertexDuplicationIndices {
 <b8d65549-d7c9-4995-89cf-53a9a8b031e3>
 DWORD nIndices;
 DWORD nOriginalVertices;
 array DWORD indices[nIndices];
}

template FVFData {
 <b6e70a0e-8ef9-4e83-94ad-ecc8b0c04897>
 DWORD dwFVF;
 DWORD nDWords;
 array DWORD data[nDWords];
}

template Header {
 <3D82AB43-62DA-11cf-AB39-0020AF71E433>
 WORD major;
 WORD minor;
 DWORD flags;
}

template Vector {
 <3D82AB5E-62DA-11cf-AB39-0020AF71E433>
 FLOAT x;
 FLOAT y;
 FLOAT z;
}

template Coords2d {
 <F6F23F44-7686-11cf-8F52-0040333594A3>
 FLOAT u;
 FLOAT v;
}

template Matrix4x4 {
 <F6F23F45-7686-11cf-8F52-0040333594A3>
 array FLOAT matrix[16];
}

template ColorRGBA {
 <35FF44E0-6C7C-11cf-8F52-0040333594A3>
 FLOAT red;
 FLOAT green;
 FLOAT blue;
 FLOAT alpha;
}

template ColorRGB {
 <D3E16E81-7835-11cf-8F52-0040333594A3>
 FLOAT red;
 FLOAT green;
 FLOAT blue;
}

template IndexedColor {
 <1630B820-7842-11cf-8F52-0040333594A3>
 DWORD index;
 ColorRGBA indexColor;
}

template Material {
 <3D82AB4D-62DA-11cf-AB39-0020AF71E433>
 ColorRGBA faceColor;
 FLOAT power;
 ColorRGB specularColor;
 ColorRGB emissiveColor;
 [...]
}

template TextureFilename {
 <A42790E1-7810-11cf-8F52-0040333594A3>
 STRING filename;
}

template MeshFace {
 <3D82AB5F-62DA-11cf-AB39-0020AF71E433>
 DWORD nFaceVertexIndices;
 array DWORD faceVertexIndices[nFaceVertexIndices];
}

template MeshTextureCoords {
 <F6F23F40-7686-11cf-8F52-0040333594A3>
 DWORD nTextureCoords;
 array Coords2d textureCoords[nTextureCoords];
}

template MeshMaterialList {
 <F6F23F42-7686-11cf-8F52-0040333594A3>
 DWORD nMaterials;
 DWORD nFaceIndexes;
 array DWORD faceIndexes[nFaceIndexes];
 [Material]
}

template MeshNormals {
 <F6F23F43-7686-11cf-8F52-0040333594A3>
 DWORD nNormals;
 array Vector normals[nNormals];
 DWORD nFaceNormals;
 array MeshFace faceNormals[nFaceNormals];
}

template MeshVertexColors {
 <1630B821-7842-11cf-8F52-0040333594A3>
 DWORD nVertexColors;
 array IndexedColor vertexColors[nVertexColors];
}

template Mesh {
 <3D82AB44-62DA-11cf-AB39-0020AF71E433>
 DWORD nVertices;
 array Vector vertices[nVertices];
 DWORD nFaces;
 array MeshFace faces[nFaces];
 [...]
}

template FrameTransformMatrix {
 <F6F23F41-7686-11cf-8F52-0040333594A3>
 Matrix4x4 frameMatrix;
}

template Frame {
 <3D82AB46-62DA-11cf-AB39-0020AF71E433>
 [...]
}

template FloatKeys {
 <10DD46A9-775B-11cf-8F52-0040333594A3>
 DWORD nValues;
 array FLOAT values[nValues];
}

template TimedFloatKeys {
 <F406B180-7B3B-11cf-8F52-0040333594A3>
 DWORD time;
 FloatKeys tfkeys;
}

template AnimationKey {
 <10DD46A8-775B-11cf-8F52-0040333594A3>
 DWORD keyType;
 DWORD nKeys;
 array TimedFloatKeys keys[nKeys];
}

template AnimationOptions {
 <E2BF56C0-840F-11cf-8F52-0040333594A3>
 DWORD openclosed;
 DWORD positionquality;
}

template Animation {
 <3D82AB4F-62DA-11cf-AB39-0020AF71E433>
 [...]
}

template AnimationSet {
 <3D82AB50-62DA-11cf-AB39-0020AF71E433>
 [Animation]
}

template XSkinMeshHeader {
 <3CF169CE-FF7C-44ab-93C0-F78F62D172E2>
 WORD nMaxSkinWeightsPerVertex;
 WORD nMaxSkinWeightsPerFace;
 WORD nBones;
}

template SkinWeights {
 <6F0D123B-BAD2-4167-A0D0-80224F25FABB>
 STRING transformNodeName;
 DWORD nWeights;
 array DWORD vertexIndices[nWeights];
 array FLOAT weights[nWeights];
 Matrix4x4 matrixOffset;
}

template AnimTicksPerSecond {
 <9E415A43-7BA6-4a73-8743-B73D47E88476>
 DWORD AnimTicksPerSecond;
}

AnimTicksPerSecond {
 30;
}

// Start of Frames

   Frame Body {
      FrameTransformMatrix {
       1.000000, 0.000000, 0.000000, 0.000000,
       0.000000, 1.000000, 0.000000, 0.000000,
       0.000000, 0.000000, 1.000000, 0.000000,
       0.000000, 0.000000, 0.000000, 1.000000;;
      }

   }
   Frame bowl {
      FrameTransformMatrix {
       1.000000, 0.000000, 0.000000, 0.000000,
       0.000000, 1.000000, 0.000000, 0.000000,
       0.000000, 0.000000, 1.000000, 0.000000,
       0.000000, 0.000000, 0.000000, 1.000000;;
      }

   }

   Frame Body0 {
      FrameTransformMatrix {
       1.000000, 0.000000, 0.000000, 0.000000,
       0.000000, 1.000000, 0.000000, 0.000000,
       0.000000, 0.000000, 1.000000, 0.000000,
       0.000000, 0.000000, 0.000000, 1.000000;;
      }

      Mesh skinnedMesh {
       304;
       -1.713290; 0.273998; 0.709751;,
       -1.854460; 0.273998; 0.000050;,
       -1.828940; 0.000000; 0.757648;,
       -1.979630; 0.000000; 0.000050;,
       -1.311300; 0.273998; 1.311352;,
       -1.399810; 0.000000; 1.399853;,
       -0.709668; 0.273998; 1.713352;,
       -0.757576; 0.000000; 1.828953;,
       -0.000003; 0.273998; 1.854450;,
       -0.000003; 0.000000; 1.979649;,
       0.709666; 0.273998; 1.713352;,
       0.757567; 0.000000; 1.828953;,
       1.311300; 0.273998; 1.311352;,
       1.399810; 0.000000; 1.399853;,
       1.713290; 0.273998; 0.709751;,
       1.828930; 0.000000; 0.757648;,
       1.854450; 0.273998; 0.000050;,
       1.979620; 0.000000; 0.000050;,
       1.218920; 0.433899; 1.218952;,
       1.592600; 0.433899; 0.659748;,
       0.659675; 0.433899; 1.592655;,
       -0.000003; 0.433899; 1.723850;,
       -0.659682; 0.433899; 1.592655;,
       -1.218930; 0.433899; 1.218952;,
       -1.592610; 0.433899; 0.659748;,
       -1.723830; 0.433899; 0.000050;,
       1.723820; 0.433899; 0.000050;,
       1.081590; 0.486900; 1.081654;,
       1.413160; 0.486900; 0.585354;,
       0.585349; 0.486900; 1.413151;,
       -0.000003; 0.486900; 1.529652;,
       -0.585356; 0.486900; 1.413151;,
       -1.081600; 0.486900; 1.081654;,
       -1.413170; 0.486900; 0.585354;,
       -1.529610; 0.486900; 0.000050;,
       1.529600; 0.486900; 0.000050;,
       1.025400; 0.734100; 1.025455;,
       1.339760; 0.734100; 0.554951;,
       0.554943; 0.734100; 1.339748;,
       -0.000003; 0.734100; 1.450153;,
       -0.554949; 0.734100; 1.339748;,
       -1.025410; 0.734100; 1.025455;,
       -1.339760; 0.734100; 0.554951;,
       -1.450150; 0.734100; 0.000050;,
       1.450140; 0.734100; 0.000050;,
       1.081590; 0.848801; 1.081654;,
       1.413160; 0.848801; 0.585354;,
       0.585349; 0.848801; 1.413151;,
       -0.000003; 0.848801; 1.529652;,
       -0.585356; 0.848801; 1.413151;,
       -1.081600; 0.848801; 1.081654;,
       -1.413170; 0.848801; 0.585354;,
       -1.529610; 0.848801; 0.000050;,
       1.529600; 0.848801; 0.000050;,
       1.318810; 1.140198; 1.318851;,
       1.723100; 1.140198; 0.713749;,
       0.713731; 1.140198; 1.723148;,
       -0.000003; 1.140198; 1.865154;,
       -0.713737; 1.140198; 1.723148;,
       -1.318820; 1.140198; 1.318851;,
       -1.723110; 1.140198; 0.713749;,
       -1.865080; 1.140198; 0.000050;,
       1.865080; 1.140198; 0.000050;,
       1.643420; 1.625801; 1.643452;,
       2.147230; 1.625801; 0.889454;,
       0.889411; 1.625801; 2.147251;,
       -0.000003; 1.625801; 2.324154;,
       -0.889419; 1.625801; 2.147251;,
       -1.643430; 1.625801; 1.643452;,
       -2.147240; 1.625801; 0.889454;,
       -2.324160; 1.625801; 0.000050;,
       2.324150; 1.625801; 0.000050;,
       2.025380; 2.293499; 2.025455;,
       2.646280; 2.293499; 1.096149;,
       1.096120; 2.293499; 2.646351;,
       -0.000003; 2.293499; 2.864353;,
       -1.096130; 2.293499; 2.646351;,
       -2.025380; 2.293499; 2.025455;,
       -2.646280; 2.293499; 1.096149;,
       -2.864320; 2.293499; 0.000050;,
       2.864320; 2.293499; 0.000050;,
       2.256360; 3.017498; 2.256351;,
       2.948060; 3.017498; 1.221149;,
       1.221130; 3.017498; 2.948055;,
       -0.000003; 3.017498; 3.191051;,
       -1.221140; 3.017498; 2.948055;,
       -2.256360; 3.017498; 2.256351;,
       -2.948070; 3.017498; 1.221149;,
       -3.190970; 3.017498; 0.000050;,
       3.190960; 3.017498; 0.000050;,
       2.412420; 3.653099; 2.412449;,
       3.151970; 3.653099; 1.305653;,
       1.305590; 3.653099; 3.152050;,
       -0.000003; 3.653099; 3.411755;,
       -1.305590; 3.653099; 3.152050;,
       -2.412420; 3.653099; 2.412449;,
       -3.151980; 3.653099; 1.305653;,
       -3.411680; 3.653099; 0.000050;,
       3.411670; 3.653099; 0.000050;,
       2.474840; 3.812000; 2.474850;,
       3.233540; 3.812000; 1.339451;,
       1.339370; 3.812000; 3.233555;,
       -0.000003; 3.812000; 3.499950;,
       -1.339380; 3.812000; 3.233555;,
       -2.474850; 3.812000; 2.474850;,
       -3.233550; 3.812000; 1.339451;,
       -3.499960; 3.812000; 0.000050;,
       3.499960; 3.812000; 0.000050;,
       -2.952760; 3.812000; 1.223148;,
       -3.196040; 3.812000; 0.000050;,
       -3.233550; 3.812000; 1.339451;,
       -3.499960; 3.812000; 0.000050;,
       -2.259940; 3.812000; 2.259953;,
       -2.474850; 3.812000; 2.474850;,
       -1.223070; 3.812000; 2.952755;,
       -1.339380; 3.812000; 3.233555;,
       -0.000003; 3.812000; 3.196049;,
       -0.000003; 3.812000; 3.499950;,
       1.223070; 3.812000; 2.952755;,
       1.339370; 3.812000; 3.233555;,
       2.259940; 3.812000; 2.259953;,
       2.474840; 3.812000; 2.474850;,
       2.952750; 3.812000; 1.223148;,
       3.233540; 3.812000; 1.339451;,
       3.196030; 3.812000; 0.000050;,
       3.499960; 3.812000; 0.000050;,
       2.952750; 3.812000; 1.223148;,
       3.196030; 3.812000; 0.000050;,
       2.544890; 3.150600; 1.054150;,
       2.754570; 3.150600; 0.000050;,
       2.259940; 3.812000; 2.259953;,
       1.947770; 3.150600; 1.947849;,
       1.223070; 3.812000; 2.952755;,
       1.054120; 3.150600; 2.544949;,
       -0.000003; 3.812000; 3.196049;,
       -0.000003; 3.150600; 2.754650;,
       -1.223070; 3.812000; 2.952755;,
       -1.054130; 3.150600; 2.544949;,
       -2.259940; 3.812000; 2.259953;,
       -1.947780; 3.150600; 1.947849;,
       -2.952760; 3.812000; 1.223148;,
       -2.544890; 3.150600; 1.054150;,
       -3.196040; 3.812000; 0.000050;,
       -2.754580; 3.150600; 0.000050;,
       1.885490; 2.193798; 0.781055;,
       2.040830; 2.193798; 0.000050;,
       1.443080; 2.193798; 1.443150;,
       0.780990; 2.193798; 1.885555;,
       -0.000003; 2.193798; 2.040852;,
       -0.780997; 2.193798; 1.885555;,
       -1.443090; 2.193798; 1.443150;,
       -1.885490; 2.193798; 0.781055;,
       -2.040840; 2.193798; 0.000050;,
       2.040830; 2.193798; 0.000050;,
       -2.040840; 2.193798; 0.000050;,
       1.885490; 2.193798; 0.781055;,
       -1.885490; 2.193798; 0.781055;,
       1.443080; 2.193798; 1.443150;,
       -1.443090; 2.193798; 1.443150;,
       0.780990; 2.193798; 1.885555;,
       -0.780997; 2.193798; 1.885555;,
       -0.000003; 2.193798; 2.040852;,
       1.979620; 0.000000; 0.000050;,
       1.828930; 0.000000; 0.757648;,
       -1.979630; 0.000000; 0.000050;,
       1.399810; 0.000000; 1.399853;,
       -1.828940; 0.000000; 0.757648;,
       0.757567; 0.000000; 1.828953;,
       -1.399810; 0.000000; 1.399853;,
       -0.000003; 0.000000; 1.979649;,
       -0.757576; 0.000000; 1.828953;,
       -1.713290; 0.273998; -0.709652;,
       -1.828940; 0.000000; -0.757549;,
       -1.311300; 0.273998; -1.311245;,
       -1.399810; 0.000000; -1.399746;,
       -0.709668; 0.273998; -1.713245;,
       -0.757576; 0.000000; -1.828945;,
       -0.000003; 0.273998; -1.854450;,
       -0.000003; 0.000000; -1.979649;,
       0.709666; 0.273998; -1.713245;,
       0.757567; 0.000000; -1.828945;,
       1.311300; 0.273998; -1.311245;,
       1.399810; 0.000000; -1.399746;,
       1.713290; 0.273998; -0.709652;,
       1.828930; 0.000000; -0.757549;,
       1.592600; 0.433899; -0.659649;,
       1.218920; 0.433899; -1.218945;,
       0.659675; 0.433899; -1.592548;,
       -0.000003; 0.433899; -1.723751;,
       -0.659682; 0.433899; -1.592548;,
       -1.218930; 0.433899; -1.218945;,
       -1.592610; 0.433899; -0.659649;,
       1.413160; 0.486900; -0.585346;,
       1.081590; 0.486900; -1.081547;,
       0.585349; 0.486900; -1.413151;,
       -0.000003; 0.486900; -1.529545;,
       -0.585356; 0.486900; -1.413151;,
       -1.081600; 0.486900; -1.081547;,
       -1.413170; 0.486900; -0.585346;,
       1.339760; 0.734100; -0.554951;,
       1.025400; 0.734100; -1.025349;,
       0.554943; 0.734100; -1.339748;,
       -0.000003; 0.734100; -1.450146;,
       -0.554949; 0.734100; -1.339748;,
       -1.025410; 0.734100; -1.025349;,
       -1.339760; 0.734100; -0.554951;,
       1.413160; 0.848801; -0.585346;,
       1.081590; 0.848801; -1.081547;,
       0.585349; 0.848801; -1.413151;,
       -0.000003; 0.848801; -1.529545;,
       -0.585356; 0.848801; -1.413151;,
       -1.081600; 0.848801; -1.081547;,
       -1.413170; 0.848801; -0.585346;,
       1.723100; 1.140198; -0.713749;,
       1.318810; 1.140198; -1.318745;,
       0.713731; 1.140198; -1.723049;,
       -0.000003; 1.140198; -1.865047;,
       -0.713737; 1.140198; -1.723049;,
       -1.318820; 1.140198; -1.318745;,
       -1.723110; 1.140198; -0.713749;,
       2.147230; 1.625801; -0.889347;,
       1.643420; 1.625801; -1.643452;,
       0.889411; 1.625801; -2.147251;,
       -0.000003; 1.625801; -2.324146;,
       -0.889419; 1.625801; -2.147251;,
       -1.643430; 1.625801; -1.643452;,
       -2.147240; 1.625801; -0.889347;,
       2.646280; 2.293499; -1.096050;,
       2.025380; 2.293499; -2.025349;,
       1.096120; 2.293499; -2.646252;,
       -0.000003; 2.293499; -2.864246;,
       -1.096130; 2.293499; -2.646252;,
       -2.025380; 2.293499; -2.025349;,
       -2.646280; 2.293499; -1.096050;,
       2.948060; 3.017498; -1.221149;,
       2.256360; 3.017498; -2.256351;,
       1.221130; 3.017498; -2.948048;,
       -0.000003; 3.017498; -3.190945;,
       -1.221140; 3.017498; -2.948048;,
       -2.256360; 3.017498; -2.256351;,
       -2.948070; 3.017498; -1.221149;,
       3.151970; 3.653099; -1.305546;,
       2.412420; 3.653099; -2.412350;,
       1.305590; 3.653099; -3.151951;,
       -0.000003; 3.653099; -3.411648;,
       -1.305590; 3.653099; -3.151951;,
       -2.412420; 3.653099; -2.412350;,
       -3.151980; 3.653099; -1.305546;,
       3.233540; 3.812000; -1.339352;,
       2.474840; 3.812000; -2.474850;,
       1.339370; 3.812000; -3.233547;,
       -0.000003; 3.812000; -3.499950;,
       -1.339380; 3.812000; -3.233547;,
       -2.474850; 3.812000; -2.474850;,
       -3.233550; 3.812000; -1.339352;,
       -2.952760; 3.812000; -1.223049;,
       -3.233550; 3.812000; -1.339352;,
       -2.259940; 3.812000; -2.259945;,
       -2.474850; 3.812000; -2.474850;,
       -1.223070; 3.812000; -2.952747;,
       -1.339380; 3.812000; -3.233547;,
       -0.000003; 3.812000; -3.196049;,
       -0.000003; 3.812000; -3.499950;,
       1.223070; 3.812000; -2.952747;,
       1.339370; 3.812000; -3.233547;,
       2.259940; 3.812000; -2.259945;,
       2.474840; 3.812000; -2.474850;,
       2.952750; 3.812000; -1.223049;,
       3.233540; 3.812000; -1.339352;,
       2.952750; 3.812000; -1.223049;,
       2.544890; 3.150600; -1.054050;,
       2.259940; 3.812000; -2.259945;,
       1.947770; 3.150600; -1.947750;,
       1.223070; 3.812000; -2.952747;,
       1.054120; 3.150600; -2.544849;,
       -0.000003; 3.812000; -3.196049;,
       -0.000003; 3.150600; -2.754551;,
       -1.223070; 3.812000; -2.952747;,
       -1.054130; 3.150600; -2.544849;,
       -2.259940; 3.812000; -2.259945;,
       -1.947780; 3.150600; -1.947750;,
       -2.952760; 3.812000; -1.223049;,
       -2.544890; 3.150600; -1.054050;,
       1.885490; 2.193798; -0.780949;,
       1.443080; 2.193798; -1.443050;,
       0.780990; 2.193798; -1.885448;,
       -0.000003; 2.193798; -2.040852;,
       -0.780997; 2.193798; -1.885448;,
       -1.443090; 2.193798; -1.443050;,
       -1.885490; 2.193798; -0.780949;,
       -1.885490; 2.193798; -0.780949;,
       1.885490; 2.193798; -0.780949;,
       -1.443090; 2.193798; -1.443050;,
       1.443080; 2.193798; -1.443050;,
       -0.780997; 2.193798; -1.885448;,
       0.780990; 2.193798; -1.885448;,
       -0.000003; 2.193798; -2.040852;,
       1.828930; 0.000000; -0.757549;,
       1.399810; 0.000000; -1.399746;,
       0.757567; 0.000000; -1.828945;,
       -1.828940; 0.000000; -0.757549;,
       -0.000003; 0.000000; -1.979649;,
       -1.399810; 0.000000; -1.399746;,
       -0.757576; 0.000000; -1.828945;;
       476;
       3;0, 1, 2;,
       3;1, 3, 2;,
       3;4, 0, 5;,
       3;0, 2, 5;,
       3;6, 4, 7;,
       3;4, 5, 7;,
       3;8, 6, 9;,
       3;6, 7, 9;,
       3;10, 8, 11;,
       3;8, 9, 11;,
       3;12, 10, 13;,
       3;10, 11, 13;,
       3;14, 12, 15;,
       3;12, 13, 15;,
       3;16, 14, 17;,
       3;14, 15, 17;,
       3;12, 14, 18;,
       3;14, 19, 18;,
       3;10, 12, 20;,
       3;12, 18, 20;,
       3;8, 10, 21;,
       3;10, 20, 21;,
       3;6, 8, 22;,
       3;8, 21, 22;,
       3;4, 6, 23;,
       3;6, 22, 23;,
       3;0, 4, 24;,
       3;4, 23, 24;,
       3;1, 0, 25;,
       3;0, 24, 25;,
       3;14, 16, 19;,
       3;16, 26, 19;,
       3;18, 19, 27;,
       3;19, 28, 27;,
       3;20, 18, 29;,
       3;18, 27, 29;,
       3;21, 20, 30;,
       3;20, 29, 30;,
       3;22, 21, 31;,
       3;21, 30, 31;,
       3;23, 22, 32;,
       3;22, 31, 32;,
       3;24, 23, 33;,
       3;23, 32, 33;,
       3;25, 24, 34;,
       3;24, 33, 34;,
       3;19, 26, 28;,
       3;26, 35, 28;,
       3;27, 28, 36;,
       3;28, 37, 36;,
       3;29, 27, 38;,
       3;27, 36, 38;,
       3;30, 29, 39;,
       3;29, 38, 39;,
       3;31, 30, 40;,
       3;30, 39, 40;,
       3;32, 31, 41;,
       3;31, 40, 41;,
       3;33, 32, 42;,
       3;32, 41, 42;,
       3;34, 33, 43;,
       3;33, 42, 43;,
       3;28, 35, 37;,
       3;35, 44, 37;,
       3;36, 37, 45;,
       3;37, 46, 45;,
       3;38, 36, 47;,
       3;36, 45, 47;,
       3;39, 38, 48;,
       3;38, 47, 48;,
       3;40, 39, 49;,
       3;39, 48, 49;,
       3;41, 40, 50;,
       3;40, 49, 50;,
       3;42, 41, 51;,
       3;41, 50, 51;,
       3;43, 42, 52;,
       3;42, 51, 52;,
       3;37, 44, 46;,
       3;44, 53, 46;,
       3;45, 46, 54;,
       3;46, 55, 54;,
       3;47, 45, 56;,
       3;45, 54, 56;,
       3;48, 47, 57;,
       3;47, 56, 57;,
       3;49, 48, 58;,
       3;48, 57, 58;,
       3;50, 49, 59;,
       3;49, 58, 59;,
       3;51, 50, 60;,
       3;50, 59, 60;,
       3;52, 51, 61;,
       3;51, 60, 61;,
       3;46, 53, 55;,
       3;53, 62, 55;,
       3;54, 55, 63;,
       3;55, 64, 63;,
       3;56, 54, 65;,
       3;54, 63, 65;,
       3;57, 56, 66;,
       3;56, 65, 66;,
       3;58, 57, 67;,
       3;57, 66, 67;,
       3;59, 58, 68;,
       3;58, 67, 68;,
       3;60, 59, 69;,
       3;59, 68, 69;,
       3;61, 60, 70;,
       3;60, 69, 70;,
       3;55, 62, 64;,
       3;62, 71, 64;,
       3;63, 64, 72;,
       3;64, 73, 72;,
       3;65, 63, 74;,
       3;63, 72, 74;,
       3;66, 65, 75;,
       3;65, 74, 75;,
       3;67, 66, 76;,
       3;66, 75, 76;,
       3;68, 67, 77;,
       3;67, 76, 77;,
       3;69, 68, 78;,
       3;68, 77, 78;,
       3;70, 69, 79;,
       3;69, 78, 79;,
       3;64, 71, 73;,
       3;71, 80, 73;,
       3;72, 73, 81;,
       3;73, 82, 81;,
       3;74, 72, 83;,
       3;72, 81, 83;,
       3;75, 74, 84;,
       3;74, 83, 84;,
       3;76, 75, 85;,
       3;75, 84, 85;,
       3;77, 76, 86;,
       3;76, 85, 86;,
       3;78, 77, 87;,
       3;77, 86, 87;,
       3;79, 78, 88;,
       3;78, 87, 88;,
       3;73, 80, 82;,
       3;80, 89, 82;,
       3;81, 82, 90;,
       3;82, 91, 90;,
       3;83, 81, 92;,
       3;81, 90, 92;,
       3;84, 83, 93;,
       3;83, 92, 93;,
       3;85, 84, 94;,
       3;84, 93, 94;,
       3;86, 85, 95;,
       3;85, 94, 95;,
       3;87, 86, 96;,
       3;86, 95, 96;,
       3;88, 87, 97;,
       3;87, 96, 97;,
       3;82, 89, 91;,
       3;89, 98, 91;,
       3;90, 91, 99;,
       3;91, 100, 99;,
       3;92, 90, 101;,
       3;90, 99, 101;,
       3;93, 92, 102;,
       3;92, 101, 102;,
       3;94, 93, 103;,
       3;93, 102, 103;,
       3;95, 94, 104;,
       3;94, 103, 104;,
       3;96, 95, 105;,
       3;95, 104, 105;,
       3;97, 96, 106;,
       3;96, 105, 106;,
       3;91, 98, 100;,
       3;98, 107, 100;,
       3;108, 109, 110;,
       3;109, 111, 110;,
       3;112, 108, 113;,
       3;108, 110, 113;,
       3;114, 112, 115;,
       3;112, 113, 115;,
       3;116, 114, 117;,
       3;114, 115, 117;,
       3;118, 116, 119;,
       3;116, 117, 119;,
       3;120, 118, 121;,
       3;118, 119, 121;,
       3;122, 120, 123;,
       3;120, 121, 123;,
       3;124, 122, 125;,
       3;122, 123, 125;,
       3;126, 127, 128;,
       3;127, 129, 128;,
       3;130, 126, 131;,
       3;126, 128, 131;,
       3;132, 130, 133;,
       3;130, 131, 133;,
       3;134, 132, 135;,
       3;132, 133, 135;,
       3;136, 134, 137;,
       3;134, 135, 137;,
       3;138, 136, 139;,
       3;136, 137, 139;,
       3;140, 138, 141;,
       3;138, 139, 141;,
       3;142, 140, 143;,
       3;140, 141, 143;,
       3;128, 129, 144;,
       3;129, 145, 144;,
       3;131, 128, 146;,
       3;128, 144, 146;,
       3;133, 131, 147;,
       3;131, 146, 147;,
       3;135, 133, 148;,
       3;133, 147, 148;,
       3;137, 135, 149;,
       3;135, 148, 149;,
       3;139, 137, 150;,
       3;137, 149, 150;,
       3;141, 139, 151;,
       3;139, 150, 151;,
       3;143, 141, 152;,
       3;141, 151, 152;,
       3;153, 154, 155;,
       3;154, 156, 155;,
       3;155, 156, 157;,
       3;156, 158, 157;,
       3;157, 158, 159;,
       3;158, 160, 159;,
       3;159, 160, 161;,
       3;162, 163, 164;,
       3;163, 165, 164;,
       3;164, 165, 166;,
       3;165, 167, 166;,
       3;166, 167, 168;,
       3;167, 169, 168;,
       3;168, 169, 170;,
       3;1, 171, 3;,
       3;171, 172, 3;,
       3;171, 173, 172;,
       3;173, 174, 172;,
       3;173, 175, 174;,
       3;175, 176, 174;,
       3;175, 177, 176;,
       3;177, 178, 176;,
       3;177, 179, 178;,
       3;179, 180, 178;,
       3;179, 181, 180;,
       3;181, 182, 180;,
       3;181, 183, 182;,
       3;183, 184, 182;,
       3;183, 16, 184;,
       3;16, 17, 184;,
       3;183, 181, 185;,
       3;181, 186, 185;,
       3;181, 179, 186;,
       3;179, 187, 186;,
       3;179, 177, 187;,
       3;177, 188, 187;,
       3;177, 175, 188;,
       3;175, 189, 188;,
       3;175, 173, 189;,
       3;173, 190, 189;,
       3;173, 171, 190;,
       3;171, 191, 190;,
       3;171, 1, 191;,
       3;1, 25, 191;,
       3;16, 183, 26;,
       3;183, 185, 26;,
       3;185, 186, 192;,
       3;186, 193, 192;,
       3;186, 187, 193;,
       3;187, 194, 193;,
       3;187, 188, 194;,
       3;188, 195, 194;,
       3;188, 189, 195;,
       3;189, 196, 195;,
       3;189, 190, 196;,
       3;190, 197, 196;,
       3;190, 191, 197;,
       3;191, 198, 197;,
       3;191, 25, 198;,
       3;25, 34, 198;,
       3;26, 185, 35;,
       3;185, 192, 35;,
       3;192, 193, 199;,
       3;193, 200, 199;,
       3;193, 194, 200;,
       3;194, 201, 200;,
       3;194, 195, 201;,
       3;195, 202, 201;,
       3;195, 196, 202;,
       3;196, 203, 202;,
       3;196, 197, 203;,
       3;197, 204, 203;,
       3;197, 198, 204;,
       3;198, 205, 204;,
       3;198, 34, 205;,
       3;34, 43, 205;,
       3;35, 192, 44;,
       3;192, 199, 44;,
       3;199, 200, 206;,
       3;200, 207, 206;,
       3;200, 201, 207;,
       3;201, 208, 207;,
       3;201, 202, 208;,
       3;202, 209, 208;,
       3;202, 203, 209;,
       3;203, 210, 209;,
       3;203, 204, 210;,
       3;204, 211, 210;,
       3;204, 205, 211;,
       3;205, 212, 211;,
       3;205, 43, 212;,
       3;43, 52, 212;,
       3;44, 199, 53;,
       3;199, 206, 53;,
       3;206, 207, 213;,
       3;207, 214, 213;,
       3;207, 208, 214;,
       3;208, 215, 214;,
       3;208, 209, 215;,
       3;209, 216, 215;,
       3;209, 210, 216;,
       3;210, 217, 216;,
       3;210, 211, 217;,
       3;211, 218, 217;,
       3;211, 212, 218;,
       3;212, 219, 218;,
       3;212, 52, 219;,
       3;52, 61, 219;,
       3;53, 206, 62;,
       3;206, 213, 62;,
       3;213, 214, 220;,
       3;214, 221, 220;,
       3;214, 215, 221;,
       3;215, 222, 221;,
       3;215, 216, 222;,
       3;216, 223, 222;,
       3;216, 217, 223;,
       3;217, 224, 223;,
       3;217, 218, 224;,
       3;218, 225, 224;,
       3;218, 219, 225;,
       3;219, 226, 225;,
       3;219, 61, 226;,
       3;61, 70, 226;,
       3;62, 213, 71;,
       3;213, 220, 71;,
       3;220, 221, 227;,
       3;221, 228, 227;,
       3;221, 222, 228;,
       3;222, 229, 228;,
       3;222, 223, 229;,
       3;223, 230, 229;,
       3;223, 224, 230;,
       3;224, 231, 230;,
       3;224, 225, 231;,
       3;225, 232, 231;,
       3;225, 226, 232;,
       3;226, 233, 232;,
       3;226, 70, 233;,
       3;70, 79, 233;,
       3;71, 220, 80;,
       3;220, 227, 80;,
       3;227, 228, 234;,
       3;228, 235, 234;,
       3;228, 229, 235;,
       3;229, 236, 235;,
       3;229, 230, 236;,
       3;230, 237, 236;,
       3;230, 231, 237;,
       3;231, 238, 237;,
       3;231, 232, 238;,
       3;232, 239, 238;,
       3;232, 233, 239;,
       3;233, 240, 239;,
       3;233, 79, 240;,
       3;79, 88, 240;,
       3;80, 227, 89;,
       3;227, 234, 89;,
       3;234, 235, 241;,
       3;235, 242, 241;,
       3;235, 236, 242;,
       3;236, 243, 242;,
       3;236, 237, 243;,
       3;237, 244, 243;,
       3;237, 238, 244;,
       3;238, 245, 244;,
       3;238, 239, 245;,
       3;239, 246, 245;,
       3;239, 240, 246;,
       3;240, 247, 246;,
       3;240, 88, 247;,
       3;88, 97, 247;,
       3;89, 234, 98;,
       3;234, 241, 98;,
       3;241, 242, 248;,
       3;242, 249, 248;,
       3;242, 243, 249;,
       3;243, 250, 249;,
       3;243, 244, 250;,
       3;244, 251, 250;,
       3;244, 245, 251;,
       3;245, 252, 251;,
       3;245, 246, 252;,
       3;246, 253, 252;,
       3;246, 247, 253;,
       3;247, 254, 253;,
       3;247, 97, 254;,
       3;97, 106, 254;,
       3;98, 241, 107;,
       3;241, 248, 107;,
       3;109, 255, 111;,
       3;255, 256, 111;,
       3;255, 257, 256;,
       3;257, 258, 256;,
       3;257, 259, 258;,
       3;259, 260, 258;,
       3;259, 261, 260;,
       3;261, 262, 260;,
       3;261, 263, 262;,
       3;263, 264, 262;,
       3;263, 265, 264;,
       3;265, 266, 264;,
       3;265, 267, 266;,
       3;267, 268, 266;,
       3;267, 124, 268;,
       3;124, 125, 268;,
       3;127, 269, 129;,
       3;269, 270, 129;,
       3;269, 271, 270;,
       3;271, 272, 270;,
       3;271, 273, 272;,
       3;273, 274, 272;,
       3;273, 275, 274;,
       3;275, 276, 274;,
       3;275, 277, 276;,
       3;277, 278, 276;,
       3;277, 279, 278;,
       3;279, 280, 278;,
       3;279, 281, 280;,
       3;281, 282, 280;,
       3;281, 142, 282;,
       3;142, 143, 282;,
       3;129, 270, 145;,
       3;270, 283, 145;,
       3;270, 272, 283;,
       3;272, 284, 283;,
       3;272, 274, 284;,
       3;274, 285, 284;,
       3;274, 276, 285;,
       3;276, 286, 285;,
       3;276, 278, 286;,
       3;278, 287, 286;,
       3;278, 280, 287;,
       3;280, 288, 287;,
       3;280, 282, 288;,
       3;282, 289, 288;,
       3;282, 143, 289;,
       3;143, 152, 289;,
       3;154, 153, 290;,
       3;153, 291, 290;,
       3;290, 291, 292;,
       3;291, 293, 292;,
       3;292, 293, 294;,
       3;293, 295, 294;,
       3;294, 295, 296;,
       3;297, 162, 298;,
       3;162, 164, 298;,
       3;298, 164, 299;,
       3;164, 300, 299;,
       3;299, 300, 301;,
       3;300, 302, 301;,
       3;301, 302, 303;;

      MeshNormals {
       304;
       -0.782519; 0.528670; 0.328895;,
       -0.848818; 0.528668; 0.004393;,
       -0.861851; 0.414781; 0.291837;,
       -0.907930; 0.414776; -0.060200;,
       -0.597085; 0.528674; 0.603319;,
       -0.684561; 0.414765; 0.599455;,
       -0.320749; 0.528674; 0.785891;,
       -0.403075; 0.414699; 0.815816;,
       0.004402; 0.528643; 0.848833;,
       -0.060176; 0.414787; 0.907926;,
       0.328864; 0.528629; 0.782560;,
       0.291810; 0.414726; 0.861887;,
       0.603299; 0.528697; 0.597084;,
       0.599437; 0.414731; 0.684597;,
       0.785875; 0.528687; 0.320766;,
       0.815784; 0.414761; 0.403076;,
       0.848817; 0.528668; -0.004394;,
       0.907934; 0.414767; 0.060197;,
       0.396582; 0.839383; 0.371697;,
       0.508654; 0.839372; 0.191640;,
       0.224154; 0.839393; 0.495152;,
       0.017588; 0.839346; 0.543312;,
       -0.191623; 0.839369; 0.508665;,
       -0.371701; 0.839376; 0.396594;,
       -0.495175; 0.839375; 0.224169;,
       -0.543291; 0.839360; 0.017604;,
       0.543283; 0.839365; -0.017600;,
       0.468187; 0.725506; 0.504422;,
       0.625609; 0.725499; 0.286818;,
       0.239550; 0.725516; 0.645168;,
       -0.025603; 0.725536; 0.687708;,
       -0.286812; 0.725506; 0.625603;,
       -0.504399; 0.725510; 0.468206;,
       -0.645190; 0.725498; 0.239544;,
       -0.687747; 0.725500; -0.025584;,
       0.687753; 0.725493; 0.025600;,
       0.702594; -0.147975; 0.696035;,
       0.915489; -0.147964; 0.374147;,
       0.382758; -0.147989; 0.911919;,
       0.004663; -0.147992; 0.988978;,
       -0.374147; -0.147944; 0.915492;,
       -0.696002; -0.147975; 0.702627;,
       -0.911923; -0.147956; 0.382760;,
       -0.988982; -0.147962; 0.004677;,
       0.988982; -0.147961; -0.004644;,
       0.530260; -0.667637; 0.522576;,
       0.689913; -0.667601; 0.279873;,
       0.289913; -0.667636; 0.685720;,
       0.005440; -0.667697; 0.744413;,
       -0.279875; -0.667649; 0.689866;,
       -0.522560; -0.667633; 0.530281;,
       -0.685736; -0.667622; 0.289909;,
       -0.744484; -0.667619; 0.005451;,
       0.744488; -0.667613; -0.005425;,
       0.487713; -0.721865; 0.490965;,
       0.638458; -0.721875; 0.266960;,
       0.262687; -0.721872; 0.640232;,
       -0.002299; -0.721872; 0.692023;,
       -0.266974; -0.721886; 0.638439;,
       -0.490959; -0.721876; 0.487702;,
       -0.640230; -0.721876; 0.262680;,
       -0.692024; -0.721871; -0.002302;,
       0.692020; -0.721875; 0.002318;,
       0.530996; -0.658487; 0.533328;,
       0.694678; -0.658479; 0.289529;,
       0.286475; -0.658481; 0.695942;,
       -0.001636; -0.658464; 0.752611;,
       -0.289526; -0.658473; 0.694685;,
       -0.533334; -0.658474; 0.531006;,
       -0.695945; -0.658472; 0.286487;,
       -0.752601; -0.658475; -0.001648;,
       0.752603; -0.658473; 0.001649;,
       0.598897; -0.524621; 0.605058;,
       0.784851; -0.524629; 0.329809;,
       0.321755; -0.524641; 0.788178;,
       -0.004374; -0.524656; 0.851303;,
       -0.329805; -0.524622; 0.784857;,
       -0.605056; -0.524636; 0.598885;,
       -0.788181; -0.524639; 0.321753;,
       -0.851313; -0.524641; -0.004356;,
       0.851315; -0.524637; 0.004359;,
       0.656165; -0.370042; 0.657660;,
       0.857888; -0.370045; 0.356505;,
       0.354556; -0.370032; 0.858700;,
       -0.001066; -0.370061; 0.929007;,
       -0.356519; -0.370057; 0.857876;,
       -0.657664; -0.370022; 0.656172;,
       -0.858705; -0.370040; 0.354536;,
       -0.929016; -0.370037; -0.001058;,
       0.929015; -0.370040; 0.001067;,
       0.647051; -0.408412; 0.643836;,
       0.844151; -0.408479; 0.347209;,
       0.351417; -0.408362; 0.842465;,
       0.002281; -0.408314; 0.912839;,
       -0.347234; -0.408411; 0.844174;,
       -0.643814; -0.408479; 0.647031;,
       -0.842408; -0.408494; 0.351399;,
       -0.912767; -0.408474; 0.002275;,
       0.912763; -0.408483; -0.002272;,
       0.658002; -0.484808; 0.576190;,
       0.828371; -0.484892; 0.280502;,
       0.387465; -0.484661; 0.784203;,
       0.057873; -0.484519; 0.872864;,
       -0.280544; -0.484582; 0.828538;,
       -0.576199; -0.484745; 0.658040;,
       -0.784094; -0.484869; 0.387424;,
       -0.872679; -0.484854; 0.057861;,
       0.872662; -0.484885; -0.057861;,
       0.000000; 1.000000; 0.000000;,
       0.000000; 1.000000; 0.000000;,
       0.000000; 1.000000; 0.000000;,
       0.000000; 1.000000; 0.000000;,
       0.000000; 1.000000; 0.000000;,
       0.000000; 1.000000; 0.000000;,
       0.000000; 1.000000; 0.000000;,
       0.000000; 1.000000; 0.000000;,
       0.000000; 1.000000; 0.000000;,
       0.000000; 1.000000; 0.000000;,
       0.000000; 1.000000; 0.000000;,
       0.000000; 1.000000; 0.000000;,
       0.000000; 1.000000; 0.000000;,
       0.000000; 1.000000; 0.000000;,
       0.000000; 1.000000; 0.000000;,
       0.000000; 1.000000; 0.000000;,
       0.000000; 1.000000; 0.000000;,
       0.000000; 1.000000; 0.000000;,
       -0.746188; 0.554326; -0.368681;,
       -0.830480; 0.554320; -0.055066;,
       -0.755109; 0.576753; -0.311716;,
       -0.816919; 0.576752; 0.000976;,
       -0.548305; 0.554287; -0.626200;,
       -0.578341; 0.576747; -0.576962;,
       -0.266953; 0.554274; -0.788363;,
       -0.313521; 0.576734; -0.754375;,
       0.055072; 0.554267; -0.830515;,
       -0.000986; 0.576737; -0.816930;,
       0.368693; 0.554276; -0.746220;,
       0.311730; 0.576726; -0.755124;,
       0.626178; 0.554305; -0.548312;,
       0.576970; 0.576733; -0.578346;,
       0.788322; 0.554338; -0.266944;,
       0.754362; 0.576751; -0.313523;,
       0.830478; 0.554323; 0.055068;,
       0.816918; 0.576753; -0.000974;,
       -0.759807; 0.597077; -0.257280;,
       -0.800423; 0.597081; 0.053074;,
       -0.603517; 0.597081; -0.528453;,
       -0.355324; 0.597081; -0.719193;,
       -0.053078; 0.597099; -0.800409;,
       0.257267; 0.597093; -0.759799;,
       0.528455; 0.597084; -0.603512;,
       0.719192; 0.597077; -0.355334;,
       0.800423; 0.597082; -0.053075;,
       0.000000; 1.000000; 0.000000;,
       0.000000; 1.000000; 0.000000;,
       0.000000; 1.000000; 0.000000;,
       0.000000; 1.000000; 0.000000;,
       0.000000; 1.000000; 0.000000;,
       0.000000; 1.000000; 0.000000;,
       0.000000; 1.000000; 0.000000;,
       0.000000; 1.000000; 0.000000;,
       0.000000; 1.000000; 0.000000;,
       0.000000; -1.000000; 0.000000;,
       0.000000; -1.000000; 0.000000;,
       0.000000; -1.000000; 0.000000;,
       0.000000; -1.000000; 0.000000;,
       0.000000; -1.000000; 0.000000;,
       0.000000; -1.000000; 0.000000;,
       0.000000; -1.000000; 0.000000;,
       0.000000; -1.000000; 0.000000;,
       0.000000; -1.000000; 0.000000;,
       -0.785895; 0.528651; -0.320776;,
       -0.815773; 0.414779; -0.403079;,
       -0.603319; 0.528616; -0.597137;,
       -0.599441; 0.414807; -0.684548;,
       -0.328897; 0.528756; -0.782460;,
       -0.291858; 0.414899; -0.861787;,
       -0.004399; 0.528799; -0.848736;,
       0.060213; 0.414876; -0.907883;,
       0.320772; 0.528706; -0.785860;,
       0.403077; 0.414865; -0.815730;,
       0.597114; 0.528644; -0.603316;,
       0.684583; 0.414757; -0.599435;,
       0.782519; 0.528672; -0.328892;,
       0.861860; 0.414764; -0.291835;,
       0.495207; 0.839355; -0.224172;,
       0.371723; 0.839348; -0.396633;,
       0.191622; 0.839388; -0.508634;,
       -0.017611; 0.839402; -0.543225;,
       -0.224168; 0.839336; -0.495242;,
       -0.396627; 0.839337; -0.371752;,
       -0.508670; 0.839363; -0.191637;,
       0.645199; 0.725490; -0.239547;,
       0.504391; 0.725505; -0.468222;,
       0.286842; 0.725486; -0.625614;,
       0.025596; 0.725431; -0.687819;,
       -0.239546; 0.725465; -0.645227;,
       -0.468217; 0.725513; -0.504385;,
       -0.625598; 0.725496; -0.286848;,
       0.911911; -0.147948; -0.382792;,
       0.696024; -0.147959; -0.702609;,
       0.374178; -0.148010; -0.915469;,
       -0.004658; -0.147915; -0.988989;,
       -0.382794; -0.147890; -0.911920;,
       -0.702614; -0.147969; -0.696017;,
       -0.915476; -0.147970; -0.374178;,
       0.685734; -0.667610; -0.289941;,
       0.522584; -0.667626; -0.530265;,
       0.279892; -0.667550; -0.689955;,
       -0.005435; -0.667525; -0.744568;,
       -0.289933; -0.667611; -0.685737;,
       -0.530270; -0.667617; -0.522590;,
       -0.689894; -0.667614; -0.279889;,
       0.640228; -0.721867; -0.262708;,
       0.490968; -0.721871; -0.487700;,
       0.266952; -0.721890; -0.638445;,
       0.002311; -0.721892; -0.692002;,
       -0.262700; -0.721876; -0.640221;,
       -0.487674; -0.721893; -0.490962;,
       -0.638460; -0.721875; -0.266957;,
       0.695948; -0.658471; -0.286482;,
       0.533336; -0.658493; -0.530980;,
       0.289525; -0.658481; -0.694678;,
       0.001641; -0.658470; -0.752605;,
       -0.286467; -0.658486; -0.695940;,
       -0.531010; -0.658473; -0.533331;,
       -0.694702; -0.658459; -0.289519;,
       0.788182; -0.524643; -0.321742;,
       0.605053; -0.524640; -0.598885;,
       0.329796; -0.524628; -0.784856;,
       0.004360; -0.524632; -0.851318;,
       -0.321748; -0.524634; -0.788186;,
       -0.598899; -0.524636; -0.605043;,
       -0.784838; -0.524651; -0.329804;,
       0.858707; -0.370043; -0.354529;,
       0.657667; -0.370019; -0.656171;,
       0.356498; -0.370036; -0.857894;,
       0.001069; -0.370054; -0.929010;,
       -0.354532; -0.370041; -0.858706;,
       -0.656164; -0.370032; -0.657666;,
       -0.857892; -0.370034; -0.356505;,
       0.842416; -0.408476; -0.351402;,
       0.643803; -0.408530; -0.647009;,
       0.347191; -0.408551; -0.844123;,
       -0.002276; -0.408515; -0.912749;,
       -0.351400; -0.408513; -0.842398;,
       -0.647014; -0.408543; -0.643790;,
       -0.844141; -0.408514; -0.347192;,
       0.784066; -0.484943; -0.387391;,
       0.576110; -0.485021; -0.657915;,
       0.280481; -0.484956; -0.828340;,
       -0.057857; -0.484949; -0.872626;,
       -0.387375; -0.485032; -0.784018;,
       -0.657922; -0.485031; -0.576093;,
       -0.828379; -0.484887; -0.280488;,
       0.000000; 1.000000; 0.000000;,
       0.000000; 1.000000; 0.000000;,
       0.000000; 1.000000; 0.000000;,
       0.000000; 1.000000; 0.000000;,
       0.000000; 1.000000; 0.000000;,
       0.000000; 1.000000; 0.000000;,
       0.000000; 1.000000; 0.000000;,
       0.000000; 1.000000; 0.000000;,
       0.000000; 1.000000; 0.000000;,
       0.000000; 1.000000; 0.000000;,
       0.000000; 1.000000; 0.000000;,
       0.000000; 1.000000; 0.000000;,
       0.000000; 1.000000; 0.000000;,
       0.000000; 1.000000; 0.000000;,
       -0.788330; 0.554332; 0.266930;,
       -0.754361; 0.576757; 0.313512;,
       -0.626167; 0.554347; 0.548284;,
       -0.576953; 0.576766; 0.578331;,
       -0.368672; 0.554352; 0.746174;,
       -0.311721; 0.576766; 0.755097;,
       -0.055069; 0.554352; 0.830459;,
       0.000967; 0.576760; 0.816913;,
       0.266939; 0.554350; 0.788314;,
       0.313529; 0.576760; 0.754353;,
       0.548289; 0.554342; 0.626166;,
       0.578335; 0.576766; 0.576948;,
       0.746184; 0.554343; 0.368665;,
       0.755108; 0.576756; 0.311713;,
       -0.719190; 0.597079; 0.355334;,
       -0.528452; 0.597085; 0.603513;,
       -0.257303; 0.597071; 0.759803;,
       0.053077; 0.597072; 0.800430;,
       0.355353; 0.597083; 0.719178;,
       0.603518; 0.597082; 0.528449;,
       0.759806; 0.597077; 0.257282;,
       0.000000; 1.000000; 0.000000;,
       0.000000; 1.000000; 0.000000;,
       0.000000; 1.000000; 0.000000;,
       0.000000; 1.000000; 0.000000;,
       0.000000; 1.000000; 0.000000;,
       0.000000; 1.000000; 0.000000;,
       0.000000; 1.000000; 0.000000;,
       0.000000; -1.000000; 0.000000;,
       0.000000; -1.000000; 0.000000;,
       0.000000; -1.000000; 0.000000;,
       0.000000; -1.000000; 0.000000;,
       0.000000; -1.000000; 0.000000;,
       0.000000; -1.000000; 0.000000;,
       0.000000; -1.000000; 0.000000;;
       476;
       3;0, 1, 2;,
       3;1, 3, 2;,
       3;4, 0, 5;,
       3;0, 2, 5;,
       3;6, 4, 7;,
       3;4, 5, 7;,
       3;8, 6, 9;,
       3;6, 7, 9;,
       3;10, 8, 11;,
       3;8, 9, 11;,
       3;12, 10, 13;,
       3;10, 11, 13;,
       3;14, 12, 15;,
       3;12, 13, 15;,
       3;16, 14, 17;,
       3;14, 15, 17;,
       3;12, 14, 18;,
       3;14, 19, 18;,
       3;10, 12, 20;,
       3;12, 18, 20;,
       3;8, 10, 21;,
       3;10, 20, 21;,
       3;6, 8, 22;,
       3;8, 21, 22;,
       3;4, 6, 23;,
       3;6, 22, 23;,
       3;0, 4, 24;,
       3;4, 23, 24;,
       3;1, 0, 25;,
       3;0, 24, 25;,
       3;14, 16, 19;,
       3;16, 26, 19;,
       3;18, 19, 27;,
       3;19, 28, 27;,
       3;20, 18, 29;,
       3;18, 27, 29;,
       3;21, 20, 30;,
       3;20, 29, 30;,
       3;22, 21, 31;,
       3;21, 30, 31;,
       3;23, 22, 32;,
       3;22, 31, 32;,
       3;24, 23, 33;,
       3;23, 32, 33;,
       3;25, 24, 34;,
       3;24, 33, 34;,
       3;19, 26, 28;,
       3;26, 35, 28;,
       3;27, 28, 36;,
       3;28, 37, 36;,
       3;29, 27, 38;,
       3;27, 36, 38;,
       3;30, 29, 39;,
       3;29, 38, 39;,
       3;31, 30, 40;,
       3;30, 39, 40;,
       3;32, 31, 41;,
       3;31, 40, 41;,
       3;33, 32, 42;,
       3;32, 41, 42;,
       3;34, 33, 43;,
       3;33, 42, 43;,
       3;28, 35, 37;,
       3;35, 44, 37;,
       3;36, 37, 45;,
       3;37, 46, 45;,
       3;38, 36, 47;,
       3;36, 45, 47;,
       3;39, 38, 48;,
       3;38, 47, 48;,
       3;40, 39, 49;,
       3;39, 48, 49;,
       3;41, 40, 50;,
       3;40, 49, 50;,
       3;42, 41, 51;,
       3;41, 50, 51;,
       3;43, 42, 52;,
       3;42, 51, 52;,
       3;37, 44, 46;,
       3;44, 53, 46;,
       3;45, 46, 54;,
       3;46, 55, 54;,
       3;47, 45, 56;,
       3;45, 54, 56;,
       3;48, 47, 57;,
       3;47, 56, 57;,
       3;49, 48, 58;,
       3;48, 57, 58;,
       3;50, 49, 59;,
       3;49, 58, 59;,
       3;51, 50, 60;,
       3;50, 59, 60;,
       3;52, 51, 61;,
       3;51, 60, 61;,
       3;46, 53, 55;,
       3;53, 62, 55;,
       3;54, 55, 63;,
       3;55, 64, 63;,
       3;56, 54, 65;,
       3;54, 63, 65;,
       3;57, 56, 66;,
       3;56, 65, 66;,
       3;58, 57, 67;,
       3;57, 66, 67;,
       3;59, 58, 68;,
       3;58, 67, 68;,
       3;60, 59, 69;,
       3;59, 68, 69;,
       3;61, 60, 70;,
       3;60, 69, 70;,
       3;55, 62, 64;,
       3;62, 71, 64;,
       3;63, 64, 72;,
       3;64, 73, 72;,
       3;65, 63, 74;,
       3;63, 72, 74;,
       3;66, 65, 75;,
       3;65, 74, 75;,
       3;67, 66, 76;,
       3;66, 75, 76;,
       3;68, 67, 77;,
       3;67, 76, 77;,
       3;69, 68, 78;,
       3;68, 77, 78;,
       3;70, 69, 79;,
       3;69, 78, 79;,
       3;64, 71, 73;,
       3;71, 80, 73;,
       3;72, 73, 81;,
       3;73, 82, 81;,
       3;74, 72, 83;,
       3;72, 81, 83;,
       3;75, 74, 84;,
       3;74, 83, 84;,
       3;76, 75, 85;,
       3;75, 84, 85;,
       3;77, 76, 86;,
       3;76, 85, 86;,
       3;78, 77, 87;,
       3;77, 86, 87;,
       3;79, 78, 88;,
       3;78, 87, 88;,
       3;73, 80, 82;,
       3;80, 89, 82;,
       3;81, 82, 90;,
       3;82, 91, 90;,
       3;83, 81, 92;,
       3;81, 90, 92;,
       3;84, 83, 93;,
       3;83, 92, 93;,
       3;85, 84, 94;,
       3;84, 93, 94;,
       3;86, 85, 95;,
       3;85, 94, 95;,
       3;87, 86, 96;,
       3;86, 95, 96;,
       3;88, 87, 97;,
       3;87, 96, 97;,
       3;82, 89, 91;,
       3;89, 98, 91;,
       3;90, 91, 99;,
       3;91, 100, 99;,
       3;92, 90, 101;,
       3;90, 99, 101;,
       3;93, 92, 102;,
       3;92, 101, 102;,
       3;94, 93, 103;,
       3;93, 102, 103;,
       3;95, 94, 104;,
       3;94, 103, 104;,
       3;96, 95, 105;,
       3;95, 104, 105;,
       3;97, 96, 106;,
       3;96, 105, 106;,
       3;91, 98, 100;,
       3;98, 107, 100;,
       3;108, 109, 110;,
       3;109, 111, 110;,
       3;112, 108, 113;,
       3;108, 110, 113;,
       3;114, 112, 115;,
       3;112, 113, 115;,
       3;116, 114, 117;,
       3;114, 115, 117;,
       3;118, 116, 119;,
       3;116, 117, 119;,
       3;120, 118, 121;,
       3;118, 119, 121;,
       3;122, 120, 123;,
       3;120, 121, 123;,
       3;124, 122, 125;,
       3;122, 123, 125;,
       3;126, 127, 128;,
       3;127, 129, 128;,
       3;130, 126, 131;,
       3;126, 128, 131;,
       3;132, 130, 133;,
       3;130, 131, 133;,
       3;134, 132, 135;,
       3;132, 133, 135;,
       3;136, 134, 137;,
       3;134, 135, 137;,
       3;138, 136, 139;,
       3;136, 137, 139;,
       3;140, 138, 141;,
       3;138, 139, 141;,
       3;142, 140, 143;,
       3;140, 141, 143;,
       3;128, 129, 144;,
       3;129, 145, 144;,
       3;131, 128, 146;,
       3;128, 144, 146;,
       3;133, 131, 147;,
       3;131, 146, 147;,
       3;135, 133, 148;,
       3;133, 147, 148;,
       3;137, 135, 149;,
       3;135, 148, 149;,
       3;139, 137, 150;,
       3;137, 149, 150;,
       3;141, 139, 151;,
       3;139, 150, 151;,
       3;143, 141, 152;,
       3;141, 151, 152;,
       3;153, 154, 155;,
       3;154, 156, 155;,
       3;155, 156, 157;,
       3;156, 158, 157;,
       3;157, 158, 159;,
       3;158, 160, 159;,
       3;159, 160, 161;,
       3;162, 163, 164;,
       3;163, 165, 164;,
       3;164, 165, 166;,
       3;165, 167, 166;,
       3;166, 167, 168;,
       3;167, 169, 168;,
       3;168, 169, 170;,
       3;1, 171, 3;,
       3;171, 172, 3;,
       3;171, 173, 172;,
       3;173, 174, 172;,
       3;173, 175, 174;,
       3;175, 176, 174;,
       3;175, 177, 176;,
       3;177, 178, 176;,
       3;177, 179, 178;,
       3;179, 180, 178;,
       3;179, 181, 180;,
       3;181, 182, 180;,
       3;181, 183, 182;,
       3;183, 184, 182;,
       3;183, 16, 184;,
       3;16, 17, 184;,
       3;183, 181, 185;,
       3;181, 186, 185;,
       3;181, 179, 186;,
       3;179, 187, 186;,
       3;179, 177, 187;,
       3;177, 188, 187;,
       3;177, 175, 188;,
       3;175, 189, 188;,
       3;175, 173, 189;,
       3;173, 190, 189;,
       3;173, 171, 190;,
       3;171, 191, 190;,
       3;171, 1, 191;,
       3;1, 25, 191;,
       3;16, 183, 26;,
       3;183, 185, 26;,
       3;185, 186, 192;,
       3;186, 193, 192;,
       3;186, 187, 193;,
       3;187, 194, 193;,
       3;187, 188, 194;,
       3;188, 195, 194;,
       3;188, 189, 195;,
       3;189, 196, 195;,
       3;189, 190, 196;,
       3;190, 197, 196;,
       3;190, 191, 197;,
       3;191, 198, 197;,
       3;191, 25, 198;,
       3;25, 34, 198;,
       3;26, 185, 35;,
       3;185, 192, 35;,
       3;192, 193, 199;,
       3;193, 200, 199;,
       3;193, 194, 200;,
       3;194, 201, 200;,
       3;194, 195, 201;,
       3;195, 202, 201;,
       3;195, 196, 202;,
       3;196, 203, 202;,
       3;196, 197, 203;,
       3;197, 204, 203;,
       3;197, 198, 204;,
       3;198, 205, 204;,
       3;198, 34, 205;,
       3;34, 43, 205;,
       3;35, 192, 44;,
       3;192, 199, 44;,
       3;199, 200, 206;,
       3;200, 207, 206;,
       3;200, 201, 207;,
       3;201, 208, 207;,
       3;201, 202, 208;,
       3;202, 209, 208;,
       3;202, 203, 209;,
       3;203, 210, 209;,
       3;203, 204, 210;,
       3;204, 211, 210;,
       3;204, 205, 211;,
       3;205, 212, 211;,
       3;205, 43, 212;,
       3;43, 52, 212;,
       3;44, 199, 53;,
       3;199, 206, 53;,
       3;206, 207, 213;,
       3;207, 214, 213;,
       3;207, 208, 214;,
       3;208, 215, 214;,
       3;208, 209, 215;,
       3;209, 216, 215;,
       3;209, 210, 216;,
       3;210, 217, 216;,
       3;210, 211, 217;,
       3;211, 218, 217;,
       3;211, 212, 218;,
       3;212, 219, 218;,
       3;212, 52, 219;,
       3;52, 61, 219;,
       3;53, 206, 62;,
       3;206, 213, 62;,
       3;213, 214, 220;,
       3;214, 221, 220;,
       3;214, 215, 221;,
       3;215, 222, 221;,
       3;215, 216, 222;,
       3;216, 223, 222;,
       3;216, 217, 223;,
       3;217, 224, 223;,
       3;217, 218, 224;,
       3;218, 225, 224;,
       3;218, 219, 225;,
       3;219, 226, 225;,
       3;219, 61, 226;,
       3;61, 70, 226;,
       3;62, 213, 71;,
       3;213, 220, 71;,
       3;220, 221, 227;,
       3;221, 228, 227;,
       3;221, 222, 228;,
       3;222, 229, 228;,
       3;222, 223, 229;,
       3;223, 230, 229;,
       3;223, 224, 230;,
       3;224, 231, 230;,
       3;224, 225, 231;,
       3;225, 232, 231;,
       3;225, 226, 232;,
       3;226, 233, 232;,
       3;226, 70, 233;,
       3;70, 79, 233;,
       3;71, 220, 80;,
       3;220, 227, 80;,
       3;227, 228, 234;,
       3;228, 235, 234;,
       3;228, 229, 235;,
       3;229, 236, 235;,
       3;229, 230, 236;,
       3;230, 237, 236;,
       3;230, 231, 237;,
       3;231, 238, 237;,
       3;231, 232, 238;,
       3;232, 239, 238;,
       3;232, 233, 239;,
       3;233, 240, 239;,
       3;233, 79, 240;,
       3;79, 88, 240;,
       3;80, 227, 89;,
       3;227, 234, 89;,
       3;234, 235, 241;,
       3;235, 242, 241;,
       3;235, 236, 242;,
       3;236, 243, 242;,
       3;236, 237, 243;,
       3;237, 244, 243;,
       3;237, 238, 244;,
       3;238, 245, 244;,
       3;238, 239, 245;,
       3;239, 246, 245;,
       3;239, 240, 246;,
       3;240, 247, 246;,
       3;240, 88, 247;,
       3;88, 97, 247;,
       3;89, 234, 98;,
       3;234, 241, 98;,
       3;241, 242, 248;,
       3;242, 249, 248;,
       3;242, 243, 249;,
       3;243, 250, 249;,
       3;243, 244, 250;,
       3;244, 251, 250;,
       3;244, 245, 251;,
       3;245, 252, 251;,
       3;245, 246, 252;,
       3;246, 253, 252;,
       3;246, 247, 253;,
       3;247, 254, 253;,
       3;247, 97, 254;,
       3;97, 106, 254;,
       3;98, 241, 107;,
       3;241, 248, 107;,
       3;109, 255, 111;,
       3;255, 256, 111;,
       3;255, 257, 256;,
       3;257, 258, 256;,
       3;257, 259, 258;,
       3;259, 260, 258;,
       3;259, 261, 260;,
       3;261, 262, 260;,
       3;261, 263, 262;,
       3;263, 264, 262;,
       3;263, 265, 264;,
       3;265, 266, 264;,
       3;265, 267, 266;,
       3;267, 268, 266;,
       3;267, 124, 268;,
       3;124, 125, 268;,
       3;127, 269, 129;,
       3;269, 270, 129;,
       3;269, 271, 270;,
       3;271, 272, 270;,
       3;271, 273, 272;,
       3;273, 274, 272;,
       3;273, 275, 274;,
       3;275, 276, 274;,
       3;275, 277, 276;,
       3;277, 278, 276;,
       3;277, 279, 278;,
       3;279, 280, 278;,
       3;279, 281, 280;,
       3;281, 282, 280;,
       3;281, 142, 282;,
       3;142, 143, 282;,
       3;129, 270, 145;,
       3;270, 283, 145;,
       3;270, 272, 283;,
       3;272, 284, 283;,
       3;272, 274, 284;,
       3;274, 285, 284;,
       3;274, 276, 285;,
       3;276, 286, 285;,
       3;276, 278, 286;,
       3;278, 287, 286;,
       3;278, 280, 287;,
       3;280, 288, 287;,
       3;280, 282, 288;,
       3;282, 289, 288;,
       3;282, 143, 289;,
       3;143, 152, 289;,
       3;154, 153, 290;,
       3;153, 291, 290;,
       3;290, 291, 292;,
       3;291, 293, 292;,
       3;292, 293, 294;,
       3;293, 295, 294;,
       3;294, 295, 296;,
       3;297, 162, 298;,
       3;162, 164, 298;,
       3;298, 164, 299;,
       3;164, 300, 299;,
       3;299, 300, 301;,
       3;300, 302, 301;,
       3;301, 302, 303;;
      }

      MeshTextureCoords {
       304;
       0.264133; 0.951489;,
       0.232214; 0.951489;,
       0.249429; 0.987102;,
       0.216298; 0.987102;,
       0.315245; 0.951489;,
       0.303991; 0.987102;,
       0.391739; 0.951489;,
       0.385647; 0.987102;,
       0.481968; 0.951489;,
       0.481968; 0.987102;,
       0.572199; 0.951489;,
       0.578289; 0.987102;,
       0.648693; 0.951489;,
       0.659946; 0.987102;,
       0.699803; 0.951489;,
       0.714507; 0.987102;,
       0.731724; 0.951489;,
       0.747639; 0.987102;,
       0.636948; 0.930698;,
       0.684459; 0.930698;,
       0.565843; 0.930698;,
       0.481968; 0.930698;,
       0.398094; 0.930698;,
       0.326989; 0.930698;,
       0.279478; 0.930698;,
       0.248822; 0.930698;,
       0.715115; 0.930698;,
       0.619487; 0.923812;,
       0.661644; 0.923812;,
       0.556393; 0.923812;,
       0.481968; 0.923812;,
       0.407544; 0.923812;,
       0.344450; 0.923812;,
       0.302293; 0.923812;,
       0.273516; 0.923812;,
       0.690421; 0.923812;,
       0.612343; 0.891677;,
       0.652311; 0.891677;,
       0.552527; 0.891677;,
       0.481968; 0.891677;,
       0.411410; 0.891677;,
       0.351594; 0.891677;,
       0.311626; 0.891677;,
       0.283619; 0.891677;,
       0.681316; 0.891677;,
       0.619487; 0.876757;,
       0.661644; 0.876757;,
       0.556393; 0.876757;,
       0.481968; 0.876757;,
       0.407544; 0.876757;,
       0.344450; 0.876757;,
       0.302293; 0.876757;,
       0.273516; 0.876757;,
       0.691419; 0.876757;,
       0.649648; 0.838883;,
       0.701051; 0.838883;,
       0.572716; 0.838883;,
       0.481968; 0.838883;,
       0.391221; 0.838883;,
       0.314289; 0.838883;,
       0.262885; 0.838883;,
       0.230862; 0.838883;,
       0.730081; 0.839881;,
       0.690921; 0.775758;,
       0.754977; 0.775758;,
       0.595053; 0.775758;,
       0.481968; 0.775758;,
       0.368884; 0.775758;,
       0.273016; 0.775758;,
       0.208959; 0.775758;,
       0.172493; 0.775758;,
       0.803420; 0.776756;,
       0.739484; 0.688947;,
       0.818429; 0.688947;,
       0.621335; 0.688947;,
       0.481968; 0.688947;,
       0.342602; 0.688947;,
       0.224453; 0.688947;,
       0.145509; 0.688947;,
       0.107807; 0.688947;,
       0.865113; 0.687949;,
       0.768852; 0.614506;,
       0.856798; 0.614506;,
       0.637228; 0.614506;,
       0.481968; 0.614506;,
       0.326708; 0.614506;,
       0.195086; 0.614506;,
       0.107139; 0.614506;,
       0.080247; 0.614506;,
       0.887682; 0.614506;,
       0.788694; 0.531871;,
       0.882725; 0.531871;,
       0.647968; 0.531871;,
       0.481968; 0.531871;,
       0.315970; 0.531871;,
       0.175243; 0.531871;,
       0.081212; 0.531871;,
       0.052185; 0.531871;,
       0.915744; 0.531871;,
       0.796631; 0.511212;,
       0.893095; 0.511212;,
       0.652263; 0.511212;,
       0.481968; 0.511212;,
       0.311674; 0.511212;,
       0.167306; 0.511212;,
       0.070842; 0.511212;,
       0.040961; 0.511212;,
       0.926969; 0.511212;,
       0.410806; 0.571945;,
       0.465962; 0.551597;,
       0.403320; 0.559728;,
       0.463721; 0.537446;,
       0.367636; 0.611851;,
       0.356044; 0.603429;,
       0.343023; 0.665240;,
       0.329091; 0.661895;,
       0.340715; 0.723984;,
       0.326564; 0.726225;,
       0.361063; 0.779139;,
       0.348847; 0.786626;,
       0.400969; 0.822310;,
       0.392547; 0.833901;,
       0.454358; 0.846923;,
       0.451013; 0.860855;,
       0.513102; 0.849231;,
       0.515344; 0.863382;,
       0.857394; 0.511212;,
       0.888326; 0.511212;,
       0.760578; 0.597194;,
       0.832196; 0.597194;,
       0.769307; 0.511212;,
       0.729617; 0.597194;,
       0.637475; 0.511212;,
       0.615995; 0.597194;,
       0.481968; 0.511212;,
       0.481968; 0.597194;,
       0.326462; 0.511212;,
       0.347942; 0.597194;,
       0.194630; 0.511212;,
       0.234320; 0.597194;,
       0.106543; 0.511212;,
       0.158400; 0.597194;,
       0.191637; 0.511212;,
       0.247767; 0.597194;,
       0.697896; 0.701917;,
       0.741449; 0.701917;,
       0.665449; 0.701917;,
       0.581267; 0.701917;,
       0.481968; 0.701917;,
       0.382670; 0.701917;,
       0.298488; 0.701917;,
       0.242240; 0.701917;,
       0.338515; 0.701917;,
       0.648832; 0.576919;,
       0.274432; 0.576920;,
       0.634583; 0.648558;,
       0.288682; 0.648558;,
       0.594002; 0.709290;,
       0.329262; 0.709290;,
       0.533270; 0.749870;,
       0.389994; 0.749870;,
       0.461632; 0.764120;,
       0.643218; 0.576920;,
       0.629395; 0.646410;,
       0.280046; 0.576920;,
       0.590033; 0.705320;,
       0.293869; 0.646410;,
       0.531122; 0.744683;,
       0.333231; 0.705320;,
       0.461632; 0.758506;,
       0.392142; 0.744683;,
       0.264133; 0.951489;,
       0.249429; 0.987102;,
       0.315245; 0.951489;,
       0.303991; 0.987102;,
       0.391739; 0.951489;,
       0.385647; 0.987102;,
       0.481968; 0.951489;,
       0.481968; 0.987102;,
       0.572199; 0.951489;,
       0.578289; 0.987102;,
       0.648693; 0.951489;,
       0.659946; 0.987102;,
       0.699803; 0.951489;,
       0.714507; 0.987102;,
       0.684459; 0.930698;,
       0.636948; 0.930698;,
       0.565843; 0.930698;,
       0.481968; 0.930698;,
       0.398094; 0.930698;,
       0.326989; 0.930698;,
       0.279478; 0.930698;,
       0.661644; 0.923812;,
       0.619487; 0.923812;,
       0.556393; 0.923812;,
       0.481968; 0.923812;,
       0.407544; 0.923812;,
       0.344450; 0.923812;,
       0.302293; 0.923812;,
       0.652311; 0.891677;,
       0.612343; 0.891677;,
       0.552527; 0.891677;,
       0.481968; 0.891677;,
       0.411410; 0.891677;,
       0.351594; 0.891677;,
       0.311626; 0.891677;,
       0.661644; 0.876757;,
       0.619487; 0.876757;,
       0.556393; 0.876757;,
       0.481968; 0.876757;,
       0.407544; 0.876757;,
       0.344450; 0.876757;,
       0.302293; 0.876757;,
       0.701051; 0.838883;,
       0.649648; 0.838883;,
       0.572716; 0.838883;,
       0.481968; 0.838883;,
       0.391221; 0.838883;,
       0.314289; 0.838883;,
       0.262885; 0.838883;,
       0.754977; 0.775758;,
       0.690921; 0.775758;,
       0.595053; 0.775758;,
       0.481968; 0.775758;,
       0.368884; 0.775758;,
       0.273016; 0.775758;,
       0.208959; 0.775758;,
       0.818429; 0.688947;,
       0.739484; 0.688947;,
       0.621335; 0.688947;,
       0.481968; 0.688947;,
       0.342602; 0.688947;,
       0.224453; 0.688947;,
       0.145509; 0.688947;,
       0.856798; 0.614506;,
       0.768852; 0.614506;,
       0.637228; 0.614506;,
       0.481968; 0.614506;,
       0.326708; 0.614506;,
       0.195086; 0.614506;,
       0.107139; 0.614506;,
       0.882725; 0.531871;,
       0.788694; 0.531871;,
       0.647968; 0.531871;,
       0.481968; 0.531871;,
       0.315970; 0.531871;,
       0.175243; 0.531871;,
       0.081212; 0.531871;,
       0.893095; 0.511212;,
       0.796631; 0.511212;,
       0.652263; 0.511212;,
       0.481968; 0.511212;,
       0.311674; 0.511212;,
       0.167306; 0.511212;,
       0.070842; 0.511212;,
       0.524706; 0.553905;,
       0.528051; 0.539973;,
       0.578095; 0.578517;,
       0.586517; 0.566926;,
       0.618001; 0.621688;,
       0.630218; 0.614201;,
       0.638349; 0.676843;,
       0.652501; 0.674602;,
       0.636041; 0.735587;,
       0.649973; 0.738932;,
       0.611428; 0.788976;,
       0.623020; 0.797398;,
       0.568258; 0.828883;,
       0.575744; 0.841099;,
       0.857394; 0.511212;,
       0.760578; 0.597194;,
       0.769307; 0.511212;,
       0.729617; 0.597194;,
       0.637475; 0.511212;,
       0.615995; 0.597194;,
       0.481968; 0.511212;,
       0.481968; 0.597194;,
       0.326462; 0.511212;,
       0.347942; 0.597194;,
       0.194630; 0.511212;,
       0.234320; 0.597194;,
       0.106543; 0.511212;,
       0.158400; 0.597194;,
       0.697896; 0.701917;,
       0.665449; 0.701917;,
       0.581267; 0.701917;,
       0.481968; 0.701917;,
       0.382670; 0.701917;,
       0.298488; 0.701917;,
       0.242240; 0.701917;,
       0.288682; 0.648558;,
       0.634583; 0.648558;,
       0.329262; 0.709290;,
       0.594002; 0.709290;,
       0.389994; 0.749870;,
       0.533270; 0.749870;,
       0.461632; 0.764120;,
       0.629395; 0.646410;,
       0.590033; 0.705320;,
       0.531122; 0.744683;,
       0.293869; 0.646410;,
       0.461632; 0.758506;,
       0.333231; 0.705320;,
       0.392142; 0.744683;;
      }

      MeshVertexColors {
       304;
       0; 1.000000; 1.000000; 1.000000; 1.000000;,
       1; 1.000000; 1.000000; 1.000000; 1.000000;,
       2; 1.000000; 1.000000; 1.000000; 1.000000;,
       3; 1.000000; 1.000000; 1.000000; 1.000000;,
       4; 1.000000; 1.000000; 1.000000; 1.000000;,
       5; 1.000000; 1.000000; 1.000000; 1.000000;,
       6; 1.000000; 1.000000; 1.000000; 1.000000;,
       7; 1.000000; 1.000000; 1.000000; 1.000000;,
       8; 1.000000; 1.000000; 1.000000; 1.000000;,
       9; 1.000000; 1.000000; 1.000000; 1.000000;,
       10; 1.000000; 1.000000; 1.000000; 1.000000;,
       11; 1.000000; 1.000000; 1.000000; 1.000000;,
       12; 1.000000; 1.000000; 1.000000; 1.000000;,
       13; 1.000000; 1.000000; 1.000000; 1.000000;,
       14; 1.000000; 1.000000; 1.000000; 1.000000;,
       15; 1.000000; 1.000000; 1.000000; 1.000000;,
       16; 1.000000; 1.000000; 1.000000; 1.000000;,
       17; 1.000000; 1.000000; 1.000000; 1.000000;,
       18; 1.000000; 1.000000; 1.000000; 1.000000;,
       19; 1.000000; 1.000000; 1.000000; 1.000000;,
       20; 1.000000; 1.000000; 1.000000; 1.000000;,
       21; 1.000000; 1.000000; 1.000000; 1.000000;,
       22; 1.000000; 1.000000; 1.000000; 1.000000;,
       23; 1.000000; 1.000000; 1.000000; 1.000000;,
       24; 1.000000; 1.000000; 1.000000; 1.000000;,
       25; 1.000000; 1.000000; 1.000000; 1.000000;,
       26; 1.000000; 1.000000; 1.000000; 1.000000;,
       27; 1.000000; 1.000000; 1.000000; 1.000000;,
       28; 1.000000; 1.000000; 1.000000; 1.000000;,
       29; 1.000000; 1.000000; 1.000000; 1.000000;,
       30; 1.000000; 1.000000; 1.000000; 1.000000;,
       31; 1.000000; 1.000000; 1.000000; 1.000000;,
       32; 1.000000; 1.000000; 1.000000; 1.000000;,
       33; 1.000000; 1.000000; 1.000000; 1.000000;,
       34; 1.000000; 1.000000; 1.000000; 1.000000;,
       35; 1.000000; 1.000000; 1.000000; 1.000000;,
       36; 1.000000; 1.000000; 1.000000; 1.000000;,
       37; 1.000000; 1.000000; 1.000000; 1.000000;,
       38; 1.000000; 1.000000; 1.000000; 1.000000;,
       39; 1.000000; 1.000000; 1.000000; 1.000000;,
       40; 1.000000; 1.000000; 1.000000; 1.000000;,
       41; 1.000000; 1.000000; 1.000000; 1.000000;,
       42; 1.000000; 1.000000; 1.000000; 1.000000;,
       43; 1.000000; 1.000000; 1.000000; 1.000000;,
       44; 1.000000; 1.000000; 1.000000; 1.000000;,
       45; 1.000000; 1.000000; 1.000000; 1.000000;,
       46; 1.000000; 1.000000; 1.000000; 1.000000;,
       47; 1.000000; 1.000000; 1.000000; 1.000000;,
       48; 1.000000; 1.000000; 1.000000; 1.000000;,
       49; 1.000000; 1.000000; 1.000000; 1.000000;,
       50; 1.000000; 1.000000; 1.000000; 1.000000;,
       51; 1.000000; 1.000000; 1.000000; 1.000000;,
       52; 1.000000; 1.000000; 1.000000; 1.000000;,
       53; 1.000000; 1.000000; 1.000000; 1.000000;,
       54; 1.000000; 1.000000; 1.000000; 1.000000;,
       55; 1.000000; 1.000000; 1.000000; 1.000000;,
       56; 1.000000; 1.000000; 1.000000; 1.000000;,
       57; 1.000000; 1.000000; 1.000000; 1.000000;,
       58; 1.000000; 1.000000; 1.000000; 1.000000;,
       59; 1.000000; 1.000000; 1.000000; 1.000000;,
       60; 1.000000; 1.000000; 1.000000; 1.000000;,
       61; 1.000000; 1.000000; 1.000000; 1.000000;,
       62; 1.000000; 1.000000; 1.000000; 1.000000;,
       63; 1.000000; 1.000000; 1.000000; 1.000000;,
       64; 1.000000; 1.000000; 1.000000; 1.000000;,
       65; 1.000000; 1.000000; 1.000000; 1.000000;,
       66; 1.000000; 1.000000; 1.000000; 1.000000;,
       67; 1.000000; 1.000000; 1.000000; 1.000000;,
       68; 1.000000; 1.000000; 1.000000; 1.000000;,
       69; 1.000000; 1.000000; 1.000000; 1.000000;,
       70; 1.000000; 1.000000; 1.000000; 1.000000;,
       71; 1.000000; 1.000000; 1.000000; 1.000000;,
       72; 1.000000; 1.000000; 1.000000; 1.000000;,
       73; 1.000000; 1.000000; 1.000000; 1.000000;,
       74; 1.000000; 1.000000; 1.000000; 1.000000;,
       75; 1.000000; 1.000000; 1.000000; 1.000000;,
       76; 1.000000; 1.000000; 1.000000; 1.000000;,
       77; 1.000000; 1.000000; 1.000000; 1.000000;,
       78; 1.000000; 1.000000; 1.000000; 1.000000;,
       79; 1.000000; 1.000000; 1.000000; 1.000000;,
       80; 1.000000; 1.000000; 1.000000; 1.000000;,
       81; 1.000000; 1.000000; 1.000000; 1.000000;,
       82; 1.000000; 1.000000; 1.000000; 1.000000;,
       83; 1.000000; 1.000000; 1.000000; 1.000000;,
       84; 1.000000; 1.000000; 1.000000; 1.000000;,
       85; 1.000000; 1.000000; 1.000000; 1.000000;,
       86; 1.000000; 1.000000; 1.000000; 1.000000;,
       87; 1.000000; 1.000000; 1.000000; 1.000000;,
       88; 1.000000; 1.000000; 1.000000; 1.000000;,
       89; 1.000000; 1.000000; 1.000000; 1.000000;,
       90; 1.000000; 1.000000; 1.000000; 1.000000;,
       91; 1.000000; 1.000000; 1.000000; 1.000000;,
       92; 1.000000; 1.000000; 1.000000; 1.000000;,
       93; 1.000000; 1.000000; 1.000000; 1.000000;,
       94; 1.000000; 1.000000; 1.000000; 1.000000;,
       95; 1.000000; 1.000000; 1.000000; 1.000000;,
       96; 1.000000; 1.000000; 1.000000; 1.000000;,
       97; 1.000000; 1.000000; 1.000000; 1.000000;,
       98; 1.000000; 1.000000; 1.000000; 1.000000;,
       99; 1.000000; 1.000000; 1.000000; 1.000000;,
       100; 1.000000; 1.000000; 1.000000; 1.000000;,
       101; 1.000000; 1.000000; 1.000000; 1.000000;,
       102; 1.000000; 1.000000; 1.000000; 1.000000;,
       103; 1.000000; 1.000000; 1.000000; 1.000000;,
       104; 1.000000; 1.000000; 1.000000; 1.000000;,
       105; 1.000000; 1.000000; 1.000000; 1.000000;,
       106; 1.000000; 1.000000; 1.000000; 1.000000;,
       107; 1.000000; 1.000000; 1.000000; 1.000000;,
       108; 1.000000; 1.000000; 1.000000; 1.000000;,
       109; 1.000000; 1.000000; 1.000000; 1.000000;,
       110; 1.000000; 1.000000; 1.000000; 1.000000;,
       111; 1.000000; 1.000000; 1.000000; 1.000000;,
       112; 1.000000; 1.000000; 1.000000; 1.000000;,
       113; 1.000000; 1.000000; 1.000000; 1.000000;,
       114; 1.000000; 1.000000; 1.000000; 1.000000;,
       115; 1.000000; 1.000000; 1.000000; 1.000000;,
       116; 1.000000; 1.000000; 1.000000; 1.000000;,
       117; 1.000000; 1.000000; 1.000000; 1.000000;,
       118; 1.000000; 1.000000; 1.000000; 1.000000;,
       119; 1.000000; 1.000000; 1.000000; 1.000000;,
       120; 1.000000; 1.000000; 1.000000; 1.000000;,
       121; 1.000000; 1.000000; 1.000000; 1.000000;,
       122; 1.000000; 1.000000; 1.000000; 1.000000;,
       123; 1.000000; 1.000000; 1.000000; 1.000000;,
       124; 1.000000; 1.000000; 1.000000; 1.000000;,
       125; 1.000000; 1.000000; 1.000000; 1.000000;,
       126; 1.000000; 1.000000; 1.000000; 1.000000;,
       127; 1.000000; 1.000000; 1.000000; 1.000000;,
       128; 1.000000; 1.000000; 1.000000; 1.000000;,
       129; 1.000000; 1.000000; 1.000000; 1.000000;,
       130; 1.000000; 1.000000; 1.000000; 1.000000;,
       131; 1.000000; 1.000000; 1.000000; 1.000000;,
       132; 1.000000; 1.000000; 1.000000; 1.000000;,
       133; 1.000000; 1.000000; 1.000000; 1.000000;,
       134; 1.000000; 1.000000; 1.000000; 1.000000;,
       135; 1.000000; 1.000000; 1.000000; 1.000000;,
       136; 1.000000; 1.000000; 1.000000; 1.000000;,
       137; 1.000000; 1.000000; 1.000000; 1.000000;,
       138; 1.000000; 1.000000; 1.000000; 1.000000;,
       139; 1.000000; 1.000000; 1.000000; 1.000000;,
       140; 1.000000; 1.000000; 1.000000; 1.000000;,
       141; 1.000000; 1.000000; 1.000000; 1.000000;,
       142; 1.000000; 1.000000; 1.000000; 1.000000;,
       143; 1.000000; 1.000000; 1.000000; 1.000000;,
       144; 1.000000; 1.000000; 1.000000; 1.000000;,
       145; 1.000000; 1.000000; 1.000000; 1.000000;,
       146; 1.000000; 1.000000; 1.000000; 1.000000;,
       147; 1.000000; 1.000000; 1.000000; 1.000000;,
       148; 1.000000; 1.000000; 1.000000; 1.000000;,
       149; 1.000000; 1.000000; 1.000000; 1.000000;,
       150; 1.000000; 1.000000; 1.000000; 1.000000;,
       151; 1.000000; 1.000000; 1.000000; 1.000000;,
       152; 1.000000; 1.000000; 1.000000; 1.000000;,
       153; 1.000000; 1.000000; 1.000000; 1.000000;,
       154; 1.000000; 1.000000; 1.000000; 1.000000;,
       155; 1.000000; 1.000000; 1.000000; 1.000000;,
       156; 1.000000; 1.000000; 1.000000; 1.000000;,
       157; 1.000000; 1.000000; 1.000000; 1.000000;,
       158; 1.000000; 1.000000; 1.000000; 1.000000;,
       159; 1.000000; 1.000000; 1.000000; 1.000000;,
       160; 1.000000; 1.000000; 1.000000; 1.000000;,
       161; 1.000000; 1.000000; 1.000000; 1.000000;,
       162; 1.000000; 1.000000; 1.000000; 1.000000;,
       163; 1.000000; 1.000000; 1.000000; 1.000000;,
       164; 1.000000; 1.000000; 1.000000; 1.000000;,
       165; 1.000000; 1.000000; 1.000000; 1.000000;,
       166; 1.000000; 1.000000; 1.000000; 1.000000;,
       167; 1.000000; 1.000000; 1.000000; 1.000000;,
       168; 1.000000; 1.000000; 1.000000; 1.000000;,
       169; 1.000000; 1.000000; 1.000000; 1.000000;,
       170; 1.000000; 1.000000; 1.000000; 1.000000;,
       171; 1.000000; 1.000000; 1.000000; 1.000000;,
       172; 1.000000; 1.000000; 1.000000; 1.000000;,
       173; 1.000000; 1.000000; 1.000000; 1.000000;,
       174; 1.000000; 1.000000; 1.000000; 1.000000;,
       175; 1.000000; 1.000000; 1.000000; 1.000000;,
       176; 1.000000; 1.000000; 1.000000; 1.000000;,
       177; 1.000000; 1.000000; 1.000000; 1.000000;,
       178; 1.000000; 1.000000; 1.000000; 1.000000;,
       179; 1.000000; 1.000000; 1.000000; 1.000000;,
       180; 1.000000; 1.000000; 1.000000; 1.000000;,
       181; 1.000000; 1.000000; 1.000000; 1.000000;,
       182; 1.000000; 1.000000; 1.000000; 1.000000;,
       183; 1.000000; 1.000000; 1.000000; 1.000000;,
       184; 1.000000; 1.000000; 1.000000; 1.000000;,
       185; 1.000000; 1.000000; 1.000000; 1.000000;,
       186; 1.000000; 1.000000; 1.000000; 1.000000;,
       187; 1.000000; 1.000000; 1.000000; 1.000000;,
       188; 1.000000; 1.000000; 1.000000; 1.000000;,
       189; 1.000000; 1.000000; 1.000000; 1.000000;,
       190; 1.000000; 1.000000; 1.000000; 1.000000;,
       191; 1.000000; 1.000000; 1.000000; 1.000000;,
       192; 1.000000; 1.000000; 1.000000; 1.000000;,
       193; 1.000000; 1.000000; 1.000000; 1.000000;,
       194; 1.000000; 1.000000; 1.000000; 1.000000;,
       195; 1.000000; 1.000000; 1.000000; 1.000000;,
       196; 1.000000; 1.000000; 1.000000; 1.000000;,
       197; 1.000000; 1.000000; 1.000000; 1.000000;,
       198; 1.000000; 1.000000; 1.000000; 1.000000;,
       199; 1.000000; 1.000000; 1.000000; 1.000000;,
       200; 1.000000; 1.000000; 1.000000; 1.000000;,
       201; 1.000000; 1.000000; 1.000000; 1.000000;,
       202; 1.000000; 1.000000; 1.000000; 1.000000;,
       203; 1.000000; 1.000000; 1.000000; 1.000000;,
       204; 1.000000; 1.000000; 1.000000; 1.000000;,
       205; 1.000000; 1.000000; 1.000000; 1.000000;,
       206; 1.000000; 1.000000; 1.000000; 1.000000;,
       207; 1.000000; 1.000000; 1.000000; 1.000000;,
       208; 1.000000; 1.000000; 1.000000; 1.000000;,
       209; 1.000000; 1.000000; 1.000000; 1.000000;,
       210; 1.000000; 1.000000; 1.000000; 1.000000;,
       211; 1.000000; 1.000000; 1.000000; 1.000000;,
       212; 1.000000; 1.000000; 1.000000; 1.000000;,
       213; 1.000000; 1.000000; 1.000000; 1.000000;,
       214; 1.000000; 1.000000; 1.000000; 1.000000;,
       215; 1.000000; 1.000000; 1.000000; 1.000000;,
       216; 1.000000; 1.000000; 1.000000; 1.000000;,
       217; 1.000000; 1.000000; 1.000000; 1.000000;,
       218; 1.000000; 1.000000; 1.000000; 1.000000;,
       219; 1.000000; 1.000000; 1.000000; 1.000000;,
       220; 1.000000; 1.000000; 1.000000; 1.000000;,
       221; 1.000000; 1.000000; 1.000000; 1.000000;,
       222; 1.000000; 1.000000; 1.000000; 1.000000;,
       223; 1.000000; 1.000000; 1.000000; 1.000000;,
       224; 1.000000; 1.000000; 1.000000; 1.000000;,
       225; 1.000000; 1.000000; 1.000000; 1.000000;,
       226; 1.000000; 1.000000; 1.000000; 1.000000;,
       227; 1.000000; 1.000000; 1.000000; 1.000000;,
       228; 1.000000; 1.000000; 1.000000; 1.000000;,
       229; 1.000000; 1.000000; 1.000000; 1.000000;,
       230; 1.000000; 1.000000; 1.000000; 1.000000;,
       231; 1.000000; 1.000000; 1.000000; 1.000000;,
       232; 1.000000; 1.000000; 1.000000; 1.000000;,
       233; 1.000000; 1.000000; 1.000000; 1.000000;,
       234; 1.000000; 1.000000; 1.000000; 1.000000;,
       235; 1.000000; 1.000000; 1.000000; 1.000000;,
       236; 1.000000; 1.000000; 1.000000; 1.000000;,
       237; 1.000000; 1.000000; 1.000000; 1.000000;,
       238; 1.000000; 1.000000; 1.000000; 1.000000;,
       239; 1.000000; 1.000000; 1.000000; 1.000000;,
       240; 1.000000; 1.000000; 1.000000; 1.000000;,
       241; 1.000000; 1.000000; 1.000000; 1.000000;,
       242; 1.000000; 1.000000; 1.000000; 1.000000;,
       243; 1.000000; 1.000000; 1.000000; 1.000000;,
       244; 1.000000; 1.000000; 1.000000; 1.000000;,
       245; 1.000000; 1.000000; 1.000000; 1.000000;,
       246; 1.000000; 1.000000; 1.000000; 1.000000;,
       247; 1.000000; 1.000000; 1.000000; 1.000000;,
       248; 1.000000; 1.000000; 1.000000; 1.000000;,
       249; 1.000000; 1.000000; 1.000000; 1.000000;,
       250; 1.000000; 1.000000; 1.000000; 1.000000;,
       251; 1.000000; 1.000000; 1.000000; 1.000000;,
       252; 1.000000; 1.000000; 1.000000; 1.000000;,
       253; 1.000000; 1.000000; 1.000000; 1.000000;,
       254; 1.000000; 1.000000; 1.000000; 1.000000;,
       255; 1.000000; 1.000000; 1.000000; 1.000000;,
       256; 1.000000; 1.000000; 1.000000; 1.000000;,
       257; 1.000000; 1.000000; 1.000000; 1.000000;,
       258; 1.000000; 1.000000; 1.000000; 1.000000;,
       259; 1.000000; 1.000000; 1.000000; 1.000000;,
       260; 1.000000; 1.000000; 1.000000; 1.000000;,
       261; 1.000000; 1.000000; 1.000000; 1.000000;,
       262; 1.000000; 1.000000; 1.000000; 1.000000;,
       263; 1.000000; 1.000000; 1.000000; 1.000000;,
       264; 1.000000; 1.000000; 1.000000; 1.000000;,
       265; 1.000000; 1.000000; 1.000000; 1.000000;,
       266; 1.000000; 1.000000; 1.000000; 1.000000;,
       267; 1.000000; 1.000000; 1.000000; 1.000000;,
       268; 1.000000; 1.000000; 1.000000; 1.000000;,
       269; 1.000000; 1.000000; 1.000000; 1.000000;,
       270; 1.000000; 1.000000; 1.000000; 1.000000;,
       271; 1.000000; 1.000000; 1.000000; 1.000000;,
       272; 1.000000; 1.000000; 1.000000; 1.000000;,
       273; 1.000000; 1.000000; 1.000000; 1.000000;,
       274; 1.000000; 1.000000; 1.000000; 1.000000;,
       275; 1.000000; 1.000000; 1.000000; 1.000000;,
       276; 1.000000; 1.000000; 1.000000; 1.000000;,
       277; 1.000000; 1.000000; 1.000000; 1.000000;,
       278; 1.000000; 1.000000; 1.000000; 1.000000;,
       279; 1.000000; 1.000000; 1.000000; 1.000000;,
       280; 1.000000; 1.000000; 1.000000; 1.000000;,
       281; 1.000000; 1.000000; 1.000000; 1.000000;,
       282; 1.000000; 1.000000; 1.000000; 1.000000;,
       283; 1.000000; 1.000000; 1.000000; 1.000000;,
       284; 1.000000; 1.000000; 1.000000; 1.000000;,
       285; 1.000000; 1.000000; 1.000000; 1.000000;,
       286; 1.000000; 1.000000; 1.000000; 1.000000;,
       287; 1.000000; 1.000000; 1.000000; 1.000000;,
       288; 1.000000; 1.000000; 1.000000; 1.000000;,
       289; 1.000000; 1.000000; 1.000000; 1.000000;,
       290; 1.000000; 1.000000; 1.000000; 1.000000;,
       291; 1.000000; 1.000000; 1.000000; 1.000000;,
       292; 1.000000; 1.000000; 1.000000; 1.000000;,
       293; 1.000000; 1.000000; 1.000000; 1.000000;,
       294; 1.000000; 1.000000; 1.000000; 1.000000;,
       295; 1.000000; 1.000000; 1.000000; 1.000000;,
       296; 1.000000; 1.000000; 1.000000; 1.000000;,
       297; 1.000000; 1.000000; 1.000000; 1.000000;,
       298; 1.000000; 1.000000; 1.000000; 1.000000;,
       299; 1.000000; 1.000000; 1.000000; 1.000000;,
       300; 1.000000; 1.000000; 1.000000; 1.000000;,
       301; 1.000000; 1.000000; 1.000000; 1.000000;,
       302; 1.000000; 1.000000; 1.000000; 1.000000;,
       303; 1.000000; 1.000000; 1.000000; 1.000000;;
      }

      MeshMaterialList {
       1;
       476;
       0,
       0,
       0,
       0,
       0,
       0,
       0,
       0,
       0,
       0,
       0,
       0,
       0,
       0,
       0,
       0,
       0,
       0,
       0,
       0,
       0,
       0,
       0,
       0,
       0,
       0,
       0,
       0,
       0,
       0,
       0,
       0,
       0,
       0,
       0,
       0,
       0,
       0,
       0,
       0,
       0,
       0,
       0,
       0,
       0,
       0,
       0,
       0,
       0,
       0,
       0,
       0,
       0,
       0,
       0,
       0,
       0,
       0,
       0,
       0,
       0,
       0,
       0,
       0,
       0,
       0,
       0,
       0,
       0,
       0,
       0,
       0,
       0,
       0,
       0,
       0,
       0,
       0,
       0,
       0,
       0,
       0,
       0,
       0,
       0,
       0,
       0,
       0,
       0,
       0,
       0,
       0,
       0,
       0,
       0,
       0,
       0,
       0,
       0,
       0,
       0,
       0,
       0,
       0,
       0,
       0,
       0,
       0,
       0,
       0,
       0,
       0,
       0,
       0,
       0,
       0,
       0,
       0,
       0,
       0,
       0,
       0,
       0,
       0,
       0,
       0,
       0,
       0,
       0,
       0,
       0,
       0,
       0,
       0,
       0,
       0,
       0,
       0,
       0,
       0,
       0,
       0,
       0,
       0,
       0,
       0,
       0,
       0,
       0,
       0,
       0,
       0,
       0,
       0,
       0,
       0,
       0,
       0,
       0,
       0,
       0,
       0,
       0,
       0,
       0,
       0,
       0,
       0,
       0,
       0,
       0,
       0,
       0,
       0,
       0,
       0,
       0,
       0,
       0,
       0,
       0,
       0,
       0,
       0,
       0,
       0,
       0,
       0,
       0,
       0,
       0,
       0,
       0,
       0,
       0,
       0,
       0,
       0,
       0,
       0,
       0,
       0,
       0,
       0,
       0,
       0,
       0,
       0,
       0,
       0,
       0,
       0,
       0,
       0,
       0,
       0,
       0,
       0,
       0,
       0,
       0,
       0,
       0,
       0,
       0,
       0,
       0,
       0,
       0,
       0,
       0,
       0,
       0,
       0,
       0,
       0,
       0,
       0,
       0,
       0,
       0,
       0,
       0,
       0,
       0,
       0,
       0,
       0,
       0,
       0,
       0,
       0,
       0,
       0,
       0,
       0,
       0,
       0,
       0,
       0,
       0,
       0,
       0,
       0,
       0,
       0,
       0,
       0,
       0,
       0,
       0,
       0,
       0,
       0,
       0,
       0,
       0,
       0,
       0,
       0,
       0,
       0,
       0,
       0,
       0,
       0,
       0,
       0,
       0,
       0,
       0,
       0,
       0,
       0,
       0,
       0,
       0,
       0,
       0,
       0,
       0,
       0,
       0,
       0,
       0,
       0,
       0,
       0,
       0,
       0,
       0,
       0,
       0,
       0,
       0,
       0,
       0,
       0,
       0,
       0,
       0,
       0,
       0,
       0,
       0,
       0,
       0,
       0,
       0,
       0,
       0,
       0,
       0,
       0,
       0,
       0,
       0,
       0,
       0,
       0,
       0,
       0,
       0,
       0,
       0,
       0,
       0,
       0,
       0,
       0,
       0,
       0,
       0,
       0,
       0,
       0,
       0,
       0,
       0,
       0,
       0,
       0,
       0,
       0,
       0,
       0,
       0,
       0,
       0,
       0,
       0,
       0,
       0,
       0,
       0,
       0,
       0,
       0,
       0,
       0,
       0,
       0,
       0,
       0,
       0,
       0,
       0,
       0,
       0,
       0,
       0,
       0,
       0,
       0,
       0,
       0,
       0,
       0,
       0,
       0,
       0,
       0,
       0,
       0,
       0,
       0,
       0,
       0,
       0,
       0,
       0,
       0,
       0,
       0,
       0,
       0,
       0,
       0,
       0,
       0,
       0,
       0,
       0,
       0,
       0,
       0,
       0,
       0,
       0,
       0,
       0,
       0,
       0,
       0,
       0,
       0,
       0,
       0,
       0,
       0,
       0,
       0,
       0,
       0,
       0,
       0,
       0,
       0,
       0,
       0,
       0,
       0,
       0,
       0,
       0,
       0,
       0,
       0,
       0,
       0,
       0,
       0,
       0,
       0,
       0,
       0,
       0,
       0,
       0,
       0,
       0,
       0,
       0,
       0,
       0,
       0;

       Material bowl {
        0.992157; 0.992157; 0.992157; 1.000000;;
        1.000000;
        0.992157; 0.992157; 0.992157;;
        0.000000; 0.000000; 0.000000;;

        TextureFilename {
         "bowl.dds";
        }
       }

      }

      XSkinMeshHeader {
       1;
       1;
       1;
      }

      SkinWeights {
       "Body";
       304;
       0,
       1,
       2,
       3,
       4,
       5,
       6,
       7,
       8,
       9,
       10,
       11,
       12,
       13,
       14,
       15,
       16,
       17,
       18,
       19,
       20,
       21,
       22,
       23,
       24,
       25,
       26,
       27,
       28,
       29,
       30,
       31,
       32,
       33,
       34,
       35,
       36,
       37,
       38,
       39,
       40,
       41,
       42,
       43,
       44,
       45,
       46,
       47,
       48,
       49,
       50,
       51,
       52,
       53,
       54,
       55,
       56,
       57,
       58,
       59,
       60,
       61,
       62,
       63,
       64,
       65,
       66,
       67,
       68,
       69,
       70,
       71,
       72,
       73,
       74,
       75,
       76,
       77,
       78,
       79,
       80,
       81,
       82,
       83,
       84,
       85,
       86,
       87,
       88,
       89,
       90,
       91,
       92,
       93,
       94,
       95,
       96,
       97,
       98,
       99,
       100,
       101,
       102,
       103,
       104,
       105,
       106,
       107,
       108,
       109,
       110,
       111,
       112,
       113,
       114,
       115,
       116,
       117,
       118,
       119,
       120,
       121,
       122,
       123,
       124,
       125,
       126,
       127,
       128,
       129,
       130,
       131,
       132,
       133,
       134,
       135,
       136,
       137,
       138,
       139,
       140,
       141,
       142,
       143,
       144,
       145,
       146,
       147,
       148,
       149,
       150,
       151,
       152,
       153,
       154,
       155,
       156,
       157,
       158,
       159,
       160,
       161,
       162,
       163,
       164,
       165,
       166,
       167,
       168,
       169,
       170,
       171,
       172,
       173,
       174,
       175,
       176,
       177,
       178,
       179,
       180,
       181,
       182,
       183,
       184,
       185,
       186,
       187,
       188,
       189,
       190,
       191,
       192,
       193,
       194,
       195,
       196,
       197,
       198,
       199,
       200,
       201,
       202,
       203,
       204,
       205,
       206,
       207,
       208,
       209,
       210,
       211,
       212,
       213,
       214,
       215,
       216,
       217,
       218,
       219,
       220,
       221,
       222,
       223,
       224,
       225,
       226,
       227,
       228,
       229,
       230,
       231,
       232,
       233,
       234,
       235,
       236,
       237,
       238,
       239,
       240,
       241,
       242,
       243,
       244,
       245,
       246,
       247,
       248,
       249,
       250,
       251,
       252,
       253,
       254,
       255,
       256,
       257,
       258,
       259,
       260,
       261,
       262,
       263,
       264,
       265,
       266,
       267,
       268,
       269,
       270,
       271,
       272,
       273,
       274,
       275,
       276,
       277,
       278,
       279,
       280,
       281,
       282,
       283,
       284,
       285,
       286,
       287,
       288,
       289,
       290,
       291,
       292,
       293,
       294,
       295,
       296,
       297,
       298,
       299,
       300,
       301,
       302,
       303;
       1.000000,
       1.000000,
       1.000000,
       1.000000,
       1.000000,
       1.000000,
       1.000000,
       1.000000,
       1.000000,
       1.000000,
       1.000000,
       1.000000,
       1.000000,
       1.000000,
       1.000000,
       1.000000,
       1.000000,
       1.000000,
       1.000000,
       1.000000,
       1.000000,
       1.000000,
       1.000000,
       1.000000,
       1.000000,
       1.000000,
       1.000000,
       1.000000,
       1.000000,
       1.000000,
       1.000000,
       1.000000,
       1.000000,
       1.000000,
       1.000000,
       1.000000,
       1.000000,
       1.000000,
       1.000000,
       1.000000,
       1.000000,
       1.000000,
       1.000000,
       1.000000,
       1.000000,
       1.000000,
       1.000000,
       1.000000,
       1.000000,
       1.000000,
       1.000000,
       1.000000,
       1.000000,
       1.000000,
       1.000000,
       1.000000,
       1.000000,
       1.000000,
       1.000000,
       1.000000,
       1.000000,
       1.000000,
       1.000000,
       1.000000,
       1.000000,
       1.000000,
       1.000000,
       1.000000,
       1.000000,
       1.000000,
       1.000000,
       1.000000,
       1.000000,
       1.000000,
       1.000000,
       1.000000,
       1.000000,
       1.000000,
       1.000000,
       1.000000,
       1.000000,
       1.000000,
       1.000000,
       1.000000,
       1.000000,
       1.000000,
       1.000000,
       1.000000,
       1.000000,
       1.000000,
       1.000000,
       1.000000,
       1.000000,
       1.000000,
       1.000000,
       1.000000,
       1.000000,
       1.000000,
       1.000000,
       1.000000,
       1.000000,
       1.000000,
       1.000000,
       1.000000,
       1.000000,
       1.000000,
       1.000000,
       1.000000,
       1.000000,
       1.000000,
       1.000000,
       1.000000,
       1.000000,
       1.000000,
       1.000000,
       1.000000,
       1.000000,
       1.000000,
       1.000000,
       1.000000,
       1.000000,
       1.000000,
       1.000000,
       1.000000,
       1.000000,
       1.000000,
       1.000000,
       1.000000,
       1.000000,
       1.000000,
       1.000000,
       1.000000,
       1.000000,
       1.000000,
       1.000000,
       1.000000,
       1.000000,
       1.000000,
       1.000000,
       1.000000,
       1.000000,
       1.000000,
       1.000000,
       1.000000,
       1.000000,
       1.000000,
       1.000000,
       1.000000,
       1.000000,
       1.000000,
       1.000000,
       1.000000,
       1.000000,
       1.000000,
       1.000000,
       1.000000,
       1.000000,
       1.000000,
       1.000000,
       1.000000,
       1.000000,
       1.000000,
       1.000000,
       1.000000,
       1.000000,
       1.000000,
       1.000000,
       1.000000,
       1.000000,
       1.000000,
       1.000000,
       1.000000,
       1.000000,
       1.000000,
       1.000000,
       1.000000,
       1.000000,
       1.000000,
       1.000000,
       1.000000,
       1.000000,
       1.000000,
       1.000000,
       1.000000,
       1.000000,
       1.000000,
       1.000000,
       1.000000,
       1.000000,
       1.000000,
       1.000000,
       1.000000,
       1.000000,
       1.000000,
       1.000000,
       1.000000,
       1.000000,
       1.000000,
       1.000000,
       1.000000,
       1.000000,
       1.000000,
       1.000000,
       1.000000,
       1.000000,
       1.000000,
       1.000000,
       1.000000,
       1.000000,
       1.000000,
       1.000000,
       1.000000,
       1.000000,
       1.000000,
       1.000000,
       1.000000,
       1.000000,
       1.000000,
       1.000000,
       1.000000,
       1.000000,
       1.000000,
       1.000000,
       1.000000,
       1.000000,
       1.000000,
       1.000000,
       1.000000,
       1.000000,
       1.000000,
       1.000000,
       1.000000,
       1.000000,
       1.000000,
       1.000000,
       1.000000,
       1.000000,
       1.000000,
       1.000000,
       1.000000,
       1.000000,
       1.000000,
       1.000000,
       1.000000,
       1.000000,
       1.000000,
       1.000000,
       1.000000,
       1.000000,
       1.000000,
       1.000000,
       1.000000,
       1.000000,
       1.000000,
       1.000000,
       1.000000,
       1.000000,
       1.000000,
       1.000000,
       1.000000,
       1.000000,
       1.000000,
       1.000000,
       1.000000,
       1.000000,
       1.000000,
       1.000000,
       1.000000,
       1.000000,
       1.000000,
       1.000000,
       1.000000,
       1.000000,
       1.000000,
       1.000000,
       1.000000,
       1.000000,
       1.000000,
       1.000000,
       1.000000,
       1.000000,
       1.000000,
       1.000000,
       1.000000,
       1.000000,
       1.000000,
       1.000000,
       1.000000,
       1.000000,
       1.000000,
       1.000000,
       1.000000,
       1.000000,
       1.000000,
       1.000000,
       1.000000,
       1.000000,
       1.000000,
       1.000000,
       1.000000,
       1.000000,
       1.000000,
       1.000000,
       1.000000;
          1.000000, -0.000000, 0.000000, 0.000000,
          -0.000000, 1.000000, -0.000000, 0.000000,
          0.000000, -0.000000, 1.000000, 0.000000,
          -0.000000, -0.000000, -0.000000, 1.000000;;
      }


     }
   }

// Start of Animation

AnimationSet Untitled {
}
