<?xml version="1.0" encoding="utf-8"?>
<COLLADA xmlns="http://www.collada.org/2005/11/COLLADASchema" version="1.4.1">
  <asset>
    <contributor>
      <author>Ultimate Unwrap3D Pro</author>
      <authoring_tool>Ultimate Unwrap3D Pro v3.19</authoring_tool>
      <comments>Exported from Ultimate Unwrap3D Pro on Thu Dec 10 21:25:54 2009</comments>
      <source_data>file:///C:/Users/Public/Documents/Unity%20Projects/Island%20Demo/Assets/new/castle_props/bowl.dae</source_data>
    </contributor>
    <created>2009-12-10T21:25:54Z</created>
    <modified>2009-12-10T21:25:54Z</modified>
    <unit meter="1" name="meter"/>
    <up_axis>Y_UP</up_axis>
  </asset>
  <library_images>
    <image id="Image" name="bowl">
      <init_from>./bowl.dds</init_from>
    </image>
  </library_images>
  <library_materials>
    <material id="VisualMaterial1" name="Unassigned">
      <instance_effect url="#Effect"/>
    </material>
    <material id="VisualMaterial" name="bowl">
      <instance_effect url="#Effect1"/>
    </material>
  </library_materials>
  <library_effects>
    <effect id="Effect" name="Unassigned_eff">
      <profile_COMMON>
        <technique sid="common">
          <phong>
            <ambient>
              <color>0 0 0 1</color>
            </ambient>
            <diffuse>
              <color>1 1 1 1</color>
            </diffuse>
            <specular>
              <color>0 0 0 1</color>
            </specular>
            <shininess>
              <float>100</float>
            </shininess>
            <reflective>
              <color>0 0 0 1</color>
            </reflective>
            <reflectivity>
              <float>1</float>
            </reflectivity>
            <transparent opaque="A_ONE">
              <color>1 1 1 1</color>
            </transparent>
            <transparency>
              <float>0</float>
            </transparency>
            <index_of_refraction>
              <float>0</float>
            </index_of_refraction>
          </phong>
          <extra>
            <technique profile="FCOLLADA">
              <spec_level>
                <float>0</float>
              </spec_level>
              <emission_level>
                <float>0</float>
              </emission_level>
            </technique>
          </extra>
        </technique>
      </profile_COMMON>
      <extra>
        <technique profile="MAX3D">
          <faceted>0</faceted>
          <double_sided>0</double_sided>
          <wireframe>0</wireframe>
          <face_map>0</face_map>
        </technique>
      </extra>
    </effect>
    <effect id="Effect1" name="bowl_eff">
      <profile_COMMON>
        <newparam sid="Image-surface">
          <surface type="2D">
            <init_from>Image</init_from>
            <format>A8R8G8B8</format>
          </surface>
        </newparam>
        <newparam sid="Image-sampler">
          <sampler2D>
            <source>Image-surface</source>
            <minfilter>LINEAR_MIPMAP_LINEAR</minfilter>
            <magfilter>LINEAR</magfilter>
          </sampler2D>
        </newparam>
        <technique sid="common">
          <phong>
            <ambient>
              <color>0 0 0 1</color>
            </ambient>
            <diffuse>
              <texture texture="Image-sampler" texcoord="UVSET0">
                <extra>
                  <technique profile="MAX3D">
                    <amount>1</amount>
                  </technique>
                </extra>
              </texture>
            </diffuse>
            <specular>
              <color>0.992157 0.992157 0.992157 1</color>
            </specular>
            <shininess>
              <float>0.78125</float>
            </shininess>
            <reflective>
              <color>0 0 0 1</color>
            </reflective>
            <reflectivity>
              <float>1</float>
            </reflectivity>
            <transparent opaque="A_ONE">
              <color>1 1 1 1</color>
            </transparent>
            <transparency>
              <float>0</float>
            </transparency>
            <index_of_refraction>
              <float>0</float>
            </index_of_refraction>
          </phong>
          <extra>
            <technique profile="FCOLLADA">
              <spec_level>
                <float>0</float>
              </spec_level>
              <emission_level>
                <float>0</float>
              </emission_level>
            </technique>
          </extra>
        </technique>
      </profile_COMMON>
      <extra>
        <technique profile="MAX3D">
          <faceted>0</faceted>
          <double_sided>0</double_sided>
          <wireframe>0</wireframe>
          <face_map>0</face_map>
        </technique>
      </extra>
    </effect>
  </library_effects>
  <library_geometries>
    <geometry id="geomU3D_id" name="geomU3D">
      <mesh>
        <source id="PositionSrc_id" name="PositionSrc">
          <float_array id="PositionSrc_id-array" count="912">-1.71329 0.273998 0.709751 -1.85446 0.273998 0.00005 -1.82894 0 0.757648 -1.97963 0 0.00005 -1.3113 0.273998 1.31135 -1.39981 0 1.39985 -0.709668 0.273998 1.71335 -0.757576 0 1.82895 -0.000003 0.273998 1.85445 -0.000003 0 1.97965 0.709666 0.273998 1.71335 0.757567 0 1.82895 1.3113 0.273998 1.31135 1.39981 0 1.39985 1.71329 0.273998 0.709751 1.82893 0 0.757648 1.85445 0.273998 0.00005 1.97962 0 0.00005 1.21892 0.433899 1.21895 1.5926 0.433899 0.659748 0.659675 0.433899 1.59265 -0.000003 0.433899 1.72385 -0.659682 0.433899 1.59265 -1.21893 0.433899 1.21895 -1.59261 0.433899 0.659748 -1.72383 0.433899 0.00005 1.72382 0.433899 0.00005 1.08159 0.4869 1.08165 1.41316 0.4869 0.585354 0.585349 0.4869 1.41315 -0.000003 0.4869 1.52965 -0.585356 0.4869 1.41315 -1.0816 0.4869 1.08165 -1.41317 0.4869 0.585354 -1.52961 0.4869 0.00005 1.5296 0.4869 0.00005 1.0254 0.7341 1.02545 1.33976 0.7341 0.554951 0.554943 0.7341 1.33975 -0.000003 0.7341 1.45015 -0.554949 0.7341 1.33975 -1.02541 0.7341 1.02545 -1.33976 0.7341 0.554951 -1.45015 0.7341 0.00005 1.45014 0.7341 0.00005 1.08159 0.848801 1.08165 1.41316 0.848801 0.585354 0.585349 0.848801 1.41315 -0.000003 0.848801 1.52965 -0.585356 0.848801 1.41315 -1.0816 0.848801 1.08165 -1.41317 0.848801 0.585354 -1.52961 0.848801 0.00005 1.5296 0.848801 0.00005 1.31881 1.1402 1.31885 1.7231 1.1402 0.713749 0.713731 1.1402 1.72315 -0.000003 1.1402 1.86515 -0.713737 1.1402 1.72315 -1.31882 1.1402 1.31885 -1.72311 1.1402 0.713749 -1.86508 1.1402 0.00005 1.86508 1.1402 0.00005 1.64342 1.6258 1.64345 2.14723 1.6258 0.889454 0.889411 1.6258 2.14725 -0.000003 1.6258 2.32415 -0.889419 1.6258 2.14725 -1.64343 1.6258 1.64345 -2.14724 1.6258 0.889454 -2.32416 1.6258 0.00005 2.32415 1.6258 0.00005 2.02538 2.2935 2.02545 2.64628 2.2935 1.09615 1.09612 2.2935 2.64635 -0.000003 2.2935 2.86435 -1.09613 2.2935 2.64635 -2.02538 2.2935 2.02545 -2.64628 2.2935 1.09615 -2.86432 2.2935 0.00005 2.86432 2.2935 0.00005 2.25636 3.0175 2.25635 2.94806 3.0175 1.22115 1.22113 3.0175 2.94806 -0.000003 3.0175 3.19105 -1.22114 3.0175 2.94806 -2.25636 3.0175 2.25635 -2.94807 3.0175 1.22115 -3.19097 3.0175 0.00005 3.19096 3.0175 0.00005 2.41242 3.6531 2.41245 3.15197 3.6531 1.30565 1.30559 3.6531 3.15205 -0.000003 3.6531 3.41176 -1.30559 3.6531 3.15205 -2.41242 3.6531 2.41245 -3.15198 3.6531 1.30565 -3.41168 3.6531 0.00005 3.41167 3.6531 0.00005 2.47484 3.812 2.47485 3.23354 3.812 1.33945 1.33937 3.812 3.23356 -0.000003 3.812 3.49995 -1.33938 3.812 3.23356 -2.47485 3.812 2.47485 -3.23355 3.812 1.33945 -3.49996 3.812 0.00005 3.49996 3.812 0.00005 -2.95276 3.812 1.22315 -3.19604 3.812 0.00005 -3.23355 3.812 1.33945 -3.49996 3.812 0.00005 -2.25994 3.812 2.25995 -2.47485 3.812 2.47485 -1.22307 3.812 2.95275 -1.33938 3.812 3.23356 -0.000003 3.812 3.19605 -0.000003 3.812 3.49995 1.22307 3.812 2.95275 1.33937 3.812 3.23356 2.25994 3.812 2.25995 2.47484 3.812 2.47485 2.95275 3.812 1.22315 3.23354 3.812 1.33945 3.19603 3.812 0.00005 3.49996 3.812 0.00005 2.95275 3.812 1.22315 3.19603 3.812 0.00005 2.54489 3.1506 1.05415 2.75457 3.1506 0.00005 2.25994 3.812 2.25995 1.94777 3.1506 1.94785 1.22307 3.812 2.95275 1.05412 3.1506 2.54495 -0.000003 3.812 3.19605 -0.000003 3.1506 2.75465 -1.22307 3.812 2.95275 -1.05413 3.1506 2.54495 -2.25994 3.812 2.25995 -1.94778 3.1506 1.94785 -2.95276 3.812 1.22315 -2.54489 3.1506 1.05415 -3.19604 3.812 0.00005 -2.75458 3.1506 0.00005 1.88549 2.1938 0.781055 2.04083 2.1938 0.00005 1.44308 2.1938 1.44315 0.78099 2.1938 1.88556 -0.000003 2.1938 2.04085 -0.780997 2.1938 1.88556 -1.44309 2.1938 1.44315 -1.88549 2.1938 0.781055 -2.04084 2.1938 0.00005 2.04083 2.1938 0.00005 -2.04084 2.1938 0.00005 1.88549 2.1938 0.781055 -1.88549 2.1938 0.781055 1.44308 2.1938 1.44315 -1.44309 2.1938 1.44315 0.78099 2.1938 1.88556 -0.780997 2.1938 1.88556 -0.000003 2.1938 2.04085 1.97962 0 0.00005 1.82893 0 0.757648 -1.97963 0 0.00005 1.39981 0 1.39985 -1.82894 0 0.757648 0.757567 0 1.82895 -1.39981 0 1.39985 -0.000003 0 1.97965 -0.757576 0 1.82895 -1.71329 0.273998 -0.709652 -1.82894 0 -0.757549 -1.3113 0.273998 -1.31124 -1.39981 0 -1.39975 -0.709668 0.273998 -1.71325 -0.757576 0 -1.82895 -0.000003 0.273998 -1.85445 -0.000003 0 -1.97965 0.709666 0.273998 -1.71325 0.757567 0 -1.82895 1.3113 0.273998 -1.31124 1.39981 0 -1.39975 1.71329 0.273998 -0.709652 1.82893 0 -0.757549 1.5926 0.433899 -0.659649 1.21892 0.433899 -1.21895 0.659675 0.433899 -1.59255 -0.000003 0.433899 -1.72375 -0.659682 0.433899 -1.59255 -1.21893 0.433899 -1.21895 -1.59261 0.433899 -0.659649 1.41316 0.4869 -0.585346 1.08159 0.4869 -1.08155 0.585349 0.4869 -1.41315 -0.000003 0.4869 -1.52954 -0.585356 0.4869 -1.41315 -1.0816 0.4869 -1.08155 -1.41317 0.4869 -0.585346 1.33976 0.7341 -0.554951 1.0254 0.7341 -1.02535 0.554943 0.7341 -1.33975 -0.000003 0.7341 -1.45015 -0.554949 0.7341 -1.33975 -1.02541 0.7341 -1.02535 -1.33976 0.7341 -0.554951 1.41316 0.848801 -0.585346 1.08159 0.848801 -1.08155 0.585349 0.848801 -1.41315 -0.000003 0.848801 -1.52954 -0.585356 0.848801 -1.41315 -1.0816 0.848801 -1.08155 -1.41317 0.848801 -0.585346 1.7231 1.1402 -0.713749 1.31881 1.1402 -1.31875 0.713731 1.1402 -1.72305 -0.000003 1.1402 -1.86505 -0.713737 1.1402 -1.72305 -1.31882 1.1402 -1.31875 -1.72311 1.1402 -0.713749 2.14723 1.6258 -0.889347 1.64342 1.6258 -1.64345 0.889411 1.6258 -2.14725 -0.000003 1.6258 -2.32415 -0.889419 1.6258 -2.14725 -1.64343 1.6258 -1.64345 -2.14724 1.6258 -0.889347 2.64628 2.2935 -1.09605 2.02538 2.2935 -2.02535 1.09612 2.2935 -2.64625 -0.000003 2.2935 -2.86425 -1.09613 2.2935 -2.64625 -2.02538 2.2935 -2.02535 -2.64628 2.2935 -1.09605 2.94806 3.0175 -1.22115 2.25636 3.0175 -2.25635 1.22113 3.0175 -2.94805 -0.000003 3.0175 -3.19094 -1.22114 3.0175 -2.94805 -2.25636 3.0175 -2.25635 -2.94807 3.0175 -1.22115 3.15197 3.6531 -1.30555 2.41242 3.6531 -2.41235 1.30559 3.6531 -3.15195 -0.000003 3.6531 -3.41165 -1.30559 3.6531 -3.15195 -2.41242 3.6531 -2.41235 -3.15198 3.6531 -1.30555 3.23354 3.812 -1.33935 2.47484 3.812 -2.47485 1.33937 3.812 -3.23355 -0.000003 3.812 -3.49995 -1.33938 3.812 -3.23355 -2.47485 3.812 -2.47485 -3.23355 3.812 -1.33935 -2.95276 3.812 -1.22305 -3.23355 3.812 -1.33935 -2.25994 3.812 -2.25994 -2.47485 3.812 -2.47485 -1.22307 3.812 -2.95275 -1.33938 3.812 -3.23355 -0.000003 3.812 -3.19605 -0.000003 3.812 -3.49995 1.22307 3.812 -2.95275 1.33937 3.812 -3.23355 2.25994 3.812 -2.25994 2.47484 3.812 -2.47485 2.95275 3.812 -1.22305 3.23354 3.812 -1.33935 2.95275 3.812 -1.22305 2.54489 3.1506 -1.05405 2.25994 3.812 -2.25994 1.94777 3.1506 -1.94775 1.22307 3.812 -2.95275 1.05412 3.1506 -2.54485 -0.000003 3.812 -3.19605 -0.000003 3.1506 -2.75455 -1.22307 3.812 -2.95275 -1.05413 3.1506 -2.54485 -2.25994 3.812 -2.25994 -1.94778 3.1506 -1.94775 -2.95276 3.812 -1.22305 -2.54489 3.1506 -1.05405 1.88549 2.1938 -0.780949 1.44308 2.1938 -1.44305 0.78099 2.1938 -1.88545 -0.000003 2.1938 -2.04085 -0.780997 2.1938 -1.88545 -1.44309 2.1938 -1.44305 -1.88549 2.1938 -0.780949 -1.88549 2.1938 -0.780949 1.88549 2.1938 -0.780949 -1.44309 2.1938 -1.44305 1.44308 2.1938 -1.44305 -0.780997 2.1938 -1.88545 0.78099 2.1938 -1.88545 -0.000003 2.1938 -2.04085 1.82893 0 -0.757549 1.39981 0 -1.39975 0.757567 0 -1.82895 -1.82894 0 -0.757549 -0.000003 0 -1.97965 -1.39981 0 -1.39975 -0.757576 0 -1.82895</float_array>
          <technique_common>
            <accessor source="#PositionSrc_id-array" count="304" stride="3">
              <param name="X" type="float"/>
              <param name="Y" type="float"/>
              <param name="Z" type="float"/>
            </accessor>
          </technique_common>
        </source>
        <source id="NormalSrc_id" name="NormalSrc">
          <float_array id="NormalSrc_id-array" count="912">-0.782519 0.52867 0.328895 -0.848818 0.528668 0.004393 -0.861851 0.414781 0.291837 -0.90793 0.414776 -0.060199 -0.597085 0.528674 0.603319 -0.684561 0.414765 0.599455 -0.320749 0.528674 0.785891 -0.403075 0.414699 0.815816 0.004401 0.528643 0.848833 -0.060176 0.414787 0.907926 0.328864 0.528629 0.78256 0.29181 0.414726 0.861887 0.603299 0.528697 0.597084 0.599437 0.414731 0.684597 0.785875 0.528687 0.320766 0.815784 0.414761 0.403076 0.848817 0.528668 -0.004394 0.907934 0.414767 0.060196 0.396582 0.839383 0.371697 0.508654 0.839372 0.19164 0.224154 0.839393 0.495152 0.017588 0.839346 0.543312 -0.191623 0.839369 0.508665 -0.371701 0.839376 0.396594 -0.495175 0.839375 0.224169 -0.543291 0.83936 0.017603 0.543283 0.839365 -0.0176 0.468187 0.725506 0.504422 0.625609 0.725499 0.286818 0.23955 0.725516 0.645168 -0.025602 0.725536 0.687708 -0.286812 0.725506 0.625603 -0.504399 0.72551 0.468206 -0.64519 0.725498 0.239544 -0.687747 0.7255 -0.025583 0.687753 0.725493 0.0256 0.702594 -0.147975 0.696035 0.915489 -0.147964 0.374147 0.382758 -0.147989 0.911919 0.004663 -0.147992 0.988978 -0.374147 -0.147944 0.915492 -0.696002 -0.147975 0.702627 -0.911923 -0.147956 0.38276 -0.988982 -0.147962 0.004677 0.988982 -0.147961 -0.004643 0.53026 -0.667637 0.522576 0.689913 -0.667601 0.279873 0.289913 -0.667636 0.68572 0.005439 -0.667697 0.744413 -0.279875 -0.667649 0.689866 -0.52256 -0.667633 0.530281 -0.685736 -0.667622 0.289909 -0.744484 -0.667619 0.00545 0.744488 -0.667613 -0.005425 0.487713 -0.721865 0.490965 0.638458 -0.721875 0.26696 0.262687 -0.721872 0.640232 -0.002298 -0.721872 0.692023 -0.266974 -0.721886 0.638439 -0.490959 -0.721876 0.487702 -0.64023 -0.721876 0.26268 -0.692024 -0.721871 -0.002302 0.69202 -0.721875 0.002317 0.530996 -0.658487 0.533328 0.694678 -0.658479 0.289529 0.286475 -0.658481 0.695942 -0.001636 -0.658464 0.752611 -0.289526 -0.658473 0.694685 -0.533334 -0.658474 0.531006 -0.695945 -0.658472 0.286487 -0.752601 -0.658475 -0.001648 0.752603 -0.658473 0.001648 0.598897 -0.524621 0.605058 0.784851 -0.524629 0.329809 0.321755 -0.524641 0.788178 -0.004374 -0.524656 0.851303 -0.329805 -0.524622 0.784857 -0.605056 -0.524636 0.598885 -0.788181 -0.524639 0.321753 -0.851313 -0.524641 -0.004355 0.851315 -0.524637 0.004358 0.656165 -0.370042 0.65766 0.857888 -0.370045 0.356505 0.354556 -0.370032 0.8587 -0.001066 -0.370061 0.929007 -0.356519 -0.370057 0.857876 -0.657664 -0.370022 0.656172 -0.858705 -0.37004 0.354536 -0.929016 -0.370037 -0.001057 0.929015 -0.37004 0.001066 0.647051 -0.408412 0.643836 0.844151 -0.408479 0.347209 0.351417 -0.408362 0.842465 0.002281 -0.408314 0.912839 -0.347234 -0.408411 0.844174 -0.643814 -0.408479 0.647031 -0.842408 -0.408494 0.351399 -0.912767 -0.408474 0.002275 0.912763 -0.408483 -0.002272 0.658002 -0.484808 0.57619 0.828371 -0.484892 0.280502 0.387465 -0.484661 0.784203 0.057873 -0.484519 0.872864 -0.280544 -0.484582 0.828538 -0.576199 -0.484745 0.65804 -0.784094 -0.484869 0.387424 -0.872679 -0.484854 0.05786 0.872662 -0.484885 -0.05786 0 1 0 0 1 0 0 1 0 0 1 0 0 1 0 0 1 0 0 1 0 0 1 0 0 1 0 0 1 0 0 1 0 0 1 0 0 1 0 0 1 0 0 1 0 0 1 0 0 1 0 0 1 0 -0.746188 0.554326 -0.368681 -0.83048 0.55432 -0.055065 -0.755109 0.576753 -0.311716 -0.816919 0.576752 0.000975 -0.548305 0.554287 -0.6262 -0.578341 0.576747 -0.576962 -0.266953 0.554274 -0.788363 -0.313521 0.576734 -0.754375 0.055072 0.554267 -0.830515 -0.000986 0.576737 -0.81693 0.368693 0.554276 -0.74622 0.31173 0.576726 -0.755124 0.626178 0.554305 -0.548312 0.57697 0.576733 -0.578346 0.788322 0.554338 -0.266944 0.754362 0.576751 -0.313523 0.830478 0.554323 0.055067 0.816918 0.576753 -0.000973 -0.759807 0.597077 -0.25728 -0.800423 0.597081 0.053073 -0.603517 0.597081 -0.528453 -0.355324 0.597081 -0.719193 -0.053077 0.597099 -0.800409 0.257267 0.597093 -0.759799 0.528455 0.597084 -0.603512 0.719192 0.597077 -0.355334 0.800423 0.597082 -0.053075 0 1 0 0 1 0 0 1 0 0 1 0 0 1 0 0 1 0 0 1 0 0 1 0 0 1 0 0 -1 0 0 -1 0 0 -1 0 0 -1 0 0 -1 0 0 -1 0 0 -1 0 0 -1 0 0 -1 0 -0.785895 0.528651 -0.320776 -0.815773 0.414779 -0.403079 -0.603319 0.528616 -0.597137 -0.599441 0.414807 -0.684548 -0.328897 0.528756 -0.78246 -0.291858 0.414899 -0.861787 -0.004398 0.528799 -0.848736 0.060213 0.414876 -0.907883 0.320772 0.528706 -0.78586 0.403077 0.414865 -0.81573 0.597114 0.528644 -0.603316 0.684583 0.414757 -0.599435 0.782519 0.528672 -0.328892 0.86186 0.414764 -0.291835 0.495207 0.839355 -0.224172 0.371723 0.839348 -0.396633 0.191622 0.839388 -0.508634 -0.01761 0.839402 -0.543225 -0.224168 0.839336 -0.495242 -0.396627 0.839337 -0.371752 -0.50867 0.839363 -0.191637 0.645199 0.72549 -0.239547 0.504391 0.725505 -0.468222 0.286842 0.725486 -0.625614 0.025595 0.725431 -0.687819 -0.239546 0.725465 -0.645227 -0.468217 0.725513 -0.504385 -0.625598 0.725496 -0.286848 0.911911 -0.147948 -0.382792 0.696024 -0.147959 -0.702609 0.374178 -0.14801 -0.915469 -0.004658 -0.147915 -0.988989 -0.382794 -0.14789 -0.91192 -0.702614 -0.147969 -0.696017 -0.915476 -0.14797 -0.374178 0.685734 -0.66761 -0.289941 0.522584 -0.667626 -0.530265 0.279892 -0.66755 -0.689955 -0.005435 -0.667525 -0.744568 -0.289933 -0.667611 -0.685737 -0.53027 -0.667617 -0.52259 -0.689894 -0.667614 -0.279889 0.640228 -0.721867 -0.262708 0.490968 -0.721871 -0.4877 0.266952 -0.72189 -0.638445 0.002311 -0.721892 -0.692002 -0.2627 -0.721876 -0.640221 -0.487674 -0.721893 -0.490962 -0.63846 -0.721875 -0.266957 0.695948 -0.658471 -0.286482 0.533336 -0.658493 -0.53098 0.289525 -0.658481 -0.694678 0.001641 -0.65847 -0.752605 -0.286467 -0.658486 -0.69594 -0.53101 -0.658473 -0.533331 -0.694702 -0.658459 -0.289519 0.788182 -0.524643 -0.321742 0.605053 -0.52464 -0.598885 0.329796 -0.524628 -0.784856 0.00436 -0.524632 -0.851318 -0.321748 -0.524634 -0.788186 -0.598899 -0.524636 -0.605043 -0.784838 -0.524651 -0.329804 0.858707 -0.370043 -0.354529 0.657667 -0.370019 -0.656171 0.356498 -0.370036 -0.857894 0.001069 -0.370054 -0.92901 -0.354532 -0.370041 -0.858706 -0.656164 -0.370032 -0.657666 -0.857892 -0.370034 -0.356505 0.842416 -0.408476 -0.351402 0.643803 -0.40853 -0.647009 0.347191 -0.408551 -0.844123 -0.002276 -0.408515 -0.912749 -0.3514 -0.408513 -0.842398 -0.647014 -0.408543 -0.64379 -0.844141 -0.408514 -0.347192 0.784066 -0.484943 -0.387391 0.57611 -0.485021 -0.657915 0.280481 -0.484956 -0.82834 -0.057856 -0.484949 -0.872626 -0.387375 -0.485032 -0.784018 -0.657922 -0.485031 -0.576093 -0.828379 -0.484887 -0.280488 0 1 0 0 1 0 0 1 0 0 1 0 0 1 0 0 1 0 0 1 0 0 1 0 0 1 0 0 1 0 0 1 0 0 1 0 0 1 0 0 1 0 -0.78833 0.554332 0.26693 -0.754361 0.576757 0.313512 -0.626167 0.554347 0.548284 -0.576953 0.576766 0.578331 -0.368672 0.554352 0.746174 -0.311721 0.576766 0.755097 -0.055068 0.554352 0.830459 0.000967 0.57676 0.816913 0.266939 0.55435 0.788314 0.313529 0.57676 0.754353 0.548289 0.554342 0.626166 0.578335 0.576766 0.576948 0.746184 0.554343 0.368665 0.755108 0.576756 0.311713 -0.71919 0.597079 0.355334 -0.528452 0.597085 0.603513 -0.257303 0.597071 0.759803 0.053076 0.597072 0.80043 0.355353 0.597083 0.719178 0.603518 0.597082 0.528449 0.759806 0.597077 0.257282 0 1 0 0 1 0 0 1 0 0 1 0 0 1 0 0 1 0 0 1 0 0 -1 0 0 -1 0 0 -1 0 0 -1 0 0 -1 0 0 -1 0 0 -1 0</float_array>
          <technique_common>
            <accessor source="#NormalSrc_id-array" count="304" stride="3">
              <param name="X" type="float"/>
              <param name="Y" type="float"/>
              <param name="Z" type="float"/>
            </accessor>
          </technique_common>
        </source>
        <source id="ColorSrc_id" name="ColorSrc">
          <float_array id="ColorSrc_id-array" count="1216">1 1 1 1 1 1 1 1 1 1 1 1 1 1 1 1 1 1 1 1 1 1 1 1 1 1 1 1 1 1 1 1 1 1 1 1 1 1 1 1 1 1 1 1 1 1 1 1 1 1 1 1 1 1 1 1 1 1 1 1 1 1 1 1 1 1 1 1 1 1 1 1 1 1 1 1 1 1 1 1 1 1 1 1 1 1 1 1 1 1 1 1 1 1 1 1 1 1 1 1 1 1 1 1 1 1 1 1 1 1 1 1 1 1 1 1 1 1 1 1 1 1 1 1 1 1 1 1 1 1 1 1 1 1 1 1 1 1 1 1 1 1 1 1 1 1 1 1 1 1 1 1 1 1 1 1 1 1 1 1 1 1 1 1 1 1 1 1 1 1 1 1 1 1 1 1 1 1 1 1 1 1 1 1 1 1 1 1 1 1 1 1 1 1 1 1 1 1 1 1 1 1 1 1 1 1 1 1 1 1 1 1 1 1 1 1 1 1 1 1 1 1 1 1 1 1 1 1 1 1 1 1 1 1 1 1 1 1 1 1 1 1 1 1 1 1 1 1 1 1 1 1 1 1 1 1 1 1 1 1 1 1 1 1 1 1 1 1 1 1 1 1 1 1 1 1 1 1 1 1 1 1 1 1 1 1 1 1 1 1 1 1 1 1 1 1 1 1 1 1 1 1 1 1 1 1 1 1 1 1 1 1 1 1 1 1 1 1 1 1 1 1 1 1 1 1 1 1 1 1 1 1 1 1 1 1 1 1 1 1 1 1 1 1 1 1 1 1 1 1 1 1 1 1 1 1 1 1 1 1 1 1 1 1 1 1 1 1 1 1 1 1 1 1 1 1 1 1 1 1 1 1 1 1 1 1 1 1 1 1 1 1 1 1 1 1 1 1 1 1 1 1 1 1 1 1 1 1 1 1 1 1 1 1 1 1 1 1 1 1 1 1 1 1 1 1 1 1 1 1 1 1 1 1 1 1 1 1 1 1 1 1 1 1 1 1 1 1 1 1 1 1 1 1 1 1 1 1 1 1 1 1 1 1 1 1 1 1 1 1 1 1 1 1 1 1 1 1 1 1 1 1 1 1 1 1 1 1 1 1 1 1 1 1 1 1 1 1 1 1 1 1 1 1 1 1 1 1 1 1 1 1 1 1 1 1 1 1 1 1 1 1 1 1 1 1 1 1 1 1 1 1 1 1 1 1 1 1 1 1 1 1 1 1 1 1 1 1 1 1 1 1 1 1 1 1 1 1 1 1 1 1 1 1 1 1 1 1 1 1 1 1 1 1 1 1 1 1 1 1 1 1 1 1 1 1 1 1 1 1 1 1 1 1 1 1 1 1 1 1 1 1 1 1 1 1 1 1 1 1 1 1 1 1 1 1 1 1 1 1 1 1 1 1 1 1 1 1 1 1 1 1 1 1 1 1 1 1 1 1 1 1 1 1 1 1 1 1 1 1 1 1 1 1 1 1 1 1 1 1 1 1 1 1 1 1 1 1 1 1 1 1 1 1 1 1 1 1 1 1 1 1 1 1 1 1 1 1 1 1 1 1 1 1 1 1 1 1 1 1 1 1 1 1 1 1 1 1 1 1 1 1 1 1 1 1 1 1 1 1 1 1 1 1 1 1 1 1 1 1 1 1 1 1 1 1 1 1 1 1 1 1 1 1 1 1 1 1 1 1 1 1 1 1 1 1 1 1 1 1 1 1 1 1 1 1 1 1 1 1 1 1 1 1 1 1 1 1 1 1 1 1 1 1 1 1 1 1 1 1 1 1 1 1 1 1 1 1 1 1 1 1 1 1 1 1 1 1 1 1 1 1 1 1 1 1 1 1 1 1 1 1 1 1 1 1 1 1 1 1 1 1 1 1 1 1 1 1 1 1 1 1 1 1 1 1 1 1 1 1 1 1 1 1 1 1 1 1 1 1 1 1 1 1 1 1 1 1 1 1 1 1 1 1 1 1 1 1 1 1 1 1 1 1 1 1 1 1 1 1 1 1 1 1 1 1 1 1 1 1 1 1 1 1 1 1 1 1 1 1 1 1 1 1 1 1 1 1 1 1 1 1 1 1 1 1 1 1 1 1 1 1 1 1 1 1 1 1 1 1 1 1 1 1 1 1 1 1 1 1 1 1 1 1 1 1 1 1 1 1 1 1 1 1 1 1 1 1 1 1 1 1 1 1 1 1 1 1 1 1 1 1 1 1 1 1 1 1 1 1 1 1 1 1 1 1 1 1 1 1 1 1 1 1 1 1 1 1 1 1 1 1 1 1 1 1 1 1 1 1 1 1 1 1 1 1 1 1 1 1 1 1 1 1 1 1 1 1 1 1 1 1 1 1 1 1 1 1 1 1 1 1 1 1 1 1 1 1 1 1 1 1 1 1 1 1 1 1 1 1 1 1 1 1 1 1 1 1 1 1 1 1 1 1 1 1 1 1 1 1 1 1 1 1 1 1 1 1 1 1 1 1 1 1 1 1 1 1 1 1 1 1 1 1 1 1 1 1 1 1 1 1 1 1 1 1 1 1 1 1 1 1 1 1 1 1 1 1 1 1 1 1 1 1 1 1 1 1 1 1 1 1 1 1 1 1 1 1 1 1 1 1 1 1 1 1 1 1 1 1 1 1 1 1 1 1 1 1 1 1 1 1 1 1 1 1 1 1 1 1 1 1 1 1 1 1 1 1 1 1 1 1 1 1 1 1 1 1 1 1 1 1 1 1 1 1</float_array>
          <technique_common>
            <accessor source="#ColorSrc_id-array" count="304" stride="4">
              <param name="R" type="float"/>
              <param name="G" type="float"/>
              <param name="B" type="float"/>
              <param name="A" type="float"/>
            </accessor>
          </technique_common>
        </source>
        <source id="Tex1Src_id" name="Tex1Src">
          <float_array id="Tex1Src_id-array" count="2856">0.264133 0.048511 0.232214 0.048511 0.249429 0.012898 0.232214 0.048511 0.216298 0.012898 0.249429 0.012898 0.315245 0.048511 0.264133 0.048511 0.303991 0.012898 0.264133 0.048511 0.249429 0.012898 0.303991 0.012898 0.391739 0.048511 0.315245 0.048511 0.385647 0.012898 0.315245 0.048511 0.303991 0.012898 0.385647 0.012898 0.481968 0.048511 0.391739 0.048511 0.481968 0.012898 0.391739 0.048511 0.385647 0.012898 0.481968 0.012898 0.572199 0.048511 0.481968 0.048511 0.578289 0.012898 0.481968 0.048511 0.481968 0.012898 0.578289 0.012898 0.648693 0.048511 0.572199 0.048511 0.659946 0.012898 0.572199 0.048511 0.578289 0.012898 0.659946 0.012898 0.699803 0.048511 0.648693 0.048511 0.714507 0.012898 0.648693 0.048511 0.659946 0.012898 0.714507 0.012898 0.731724 0.048511 0.699803 0.048511 0.747639 0.012898 0.699803 0.048511 0.714507 0.012898 0.747639 0.012898 0.648693 0.048511 0.699803 0.048511 0.636948 0.069302 0.699803 0.048511 0.684459 0.069302 0.636948 0.069302 0.572199 0.048511 0.648693 0.048511 0.565843 0.069302 0.648693 0.048511 0.636948 0.069302 0.565843 0.069302 0.481968 0.048511 0.572199 0.048511 0.481968 0.069302 0.572199 0.048511 0.565843 0.069302 0.481968 0.069302 0.391739 0.048511 0.481968 0.048511 0.398094 0.069302 0.481968 0.048511 0.481968 0.069302 0.398094 0.069302 0.315245 0.048511 0.391739 0.048511 0.326989 0.069302 0.391739 0.048511 0.398094 0.069302 0.326989 0.069302 0.264133 0.048511 0.315245 0.048511 0.279478 0.069302 0.315245 0.048511 0.326989 0.069302 0.279478 0.069302 0.232214 0.048511 0.264133 0.048511 0.248822 0.069302 0.264133 0.048511 0.279478 0.069302 0.248822 0.069302 0.699803 0.048511 0.731724 0.048511 0.684459 0.069302 0.731724 0.048511 0.715115 0.069302 0.684459 0.069302 0.636948 0.069302 0.684459 0.069302 0.619487 0.076188 0.684459 0.069302 0.661644 0.076188 0.619487 0.076188 0.565843 0.069302 0.636948 0.069302 0.556393 0.076188 0.636948 0.069302 0.619487 0.076188 0.556393 0.076188 0.481968 0.069302 0.565843 0.069302 0.481968 0.076188 0.565843 0.069302 0.556393 0.076188 0.481968 0.076188 0.398094 0.069302 0.481968 0.069302 0.407544 0.076188 0.481968 0.069302 0.481968 0.076188 0.407544 0.076188 0.326989 0.069302 0.398094 0.069302 0.34445 0.076188 0.398094 0.069302 0.407544 0.076188 0.34445 0.076188 0.279478 0.069302 0.326989 0.069302 0.302293 0.076188 0.326989 0.069302 0.34445 0.076188 0.302293 0.076188 0.248822 0.069302 0.279478 0.069302 0.273516 0.076188 0.279478 0.069302 0.302293 0.076188 0.273516 0.076188 0.684459 0.069302 0.715115 0.069302 0.661644 0.076188 0.715115 0.069302 0.690421 0.076188 0.661644 0.076188 0.619487 0.076188 0.661644 0.076188 0.612343 0.108323 0.661644 0.076188 0.652311 0.108323 0.612343 0.108323 0.556393 0.076188 0.619487 0.076188 0.552527 0.108323 0.619487 0.076188 0.612343 0.108323 0.552527 0.108323 0.481968 0.076188 0.556393 0.076188 0.481968 0.108323 0.556393 0.076188 0.552527 0.108323 0.481968 0.108323 0.407544 0.076188 0.481968 0.076188 0.41141 0.108323 0.481968 0.076188 0.481968 0.108323 0.41141 0.108323 0.34445 0.076188 0.407544 0.076188 0.351594 0.108323 0.407544 0.076188 0.41141 0.108323 0.351594 0.108323 0.302293 0.076188 0.34445 0.076188 0.311626 0.108323 0.34445 0.076188 0.351594 0.108323 0.311626 0.108323 0.273516 0.076188 0.302293 0.076188 0.283619 0.108323 0.302293 0.076188 0.311626 0.108323 0.283619 0.108323 0.661644 0.076188 0.690421 0.076188 0.652311 0.108323 0.690421 0.076188 0.681316 0.108323 0.652311 0.108323 0.612343 0.108323 0.652311 0.108323 0.619487 0.123243 0.652311 0.108323 0.661644 0.123243 0.619487 0.123243 0.552527 0.108323 0.612343 0.108323 0.556393 0.123243 0.612343 0.108323 0.619487 0.123243 0.556393 0.123243 0.481968 0.108323 0.552527 0.108323 0.481968 0.123243 0.552527 0.108323 0.556393 0.123243 0.481968 0.123243 0.41141 0.108323 0.481968 0.108323 0.407544 0.123243 0.481968 0.108323 0.481968 0.123243 0.407544 0.123243 0.351594 0.108323 0.41141 0.108323 0.34445 0.123243 0.41141 0.108323 0.407544 0.123243 0.34445 0.123243 0.311626 0.108323 0.351594 0.108323 0.302293 0.123243 0.351594 0.108323 0.34445 0.123243 0.302293 0.123243 0.283619 0.108323 0.311626 0.108323 0.273516 0.123243 0.311626 0.108323 0.302293 0.123243 0.273516 0.123243 0.652311 0.108323 0.681316 0.108323 0.661644 0.123243 0.681316 0.108323 0.691419 0.123243 0.661644 0.123243 0.619487 0.123243 0.661644 0.123243 0.649648 0.161117 0.661644 0.123243 0.701051 0.161117 0.649648 0.161117 0.556393 0.123243 0.619487 0.123243 0.572716 0.161117 0.619487 0.123243 0.649648 0.161117 0.572716 0.161117 0.481968 0.123243 0.556393 0.123243 0.481968 0.161117 0.556393 0.123243 0.572716 0.161117 0.481968 0.161117 0.407544 0.123243 0.481968 0.123243 0.391221 0.161117 0.481968 0.123243 0.481968 0.161117 0.391221 0.161117 0.34445 0.123243 0.407544 0.123243 0.314289 0.161117 0.407544 0.123243 0.391221 0.161117 0.314289 0.161117 0.302293 0.123243 0.34445 0.123243 0.262885 0.161117 0.34445 0.123243 0.314289 0.161117 0.262885 0.161117 0.273516 0.123243 0.302293 0.123243 0.230862 0.161117 0.302293 0.123243 0.262885 0.161117 0.230862 0.161117 0.661644 0.123243 0.691419 0.123243 0.701051 0.161117 0.691419 0.123243 0.730081 0.160119 0.701051 0.161117 0.649648 0.161117 0.701051 0.161117 0.690921 0.224242 0.701051 0.161117 0.754977 0.224242 0.690921 0.224242 0.572716 0.161117 0.649648 0.161117 0.595053 0.224242 0.649648 0.161117 0.690921 0.224242 0.595053 0.224242 0.481968 0.161117 0.572716 0.161117 0.481968 0.224242 0.572716 0.161117 0.595053 0.224242 0.481968 0.224242 0.391221 0.161117 0.481968 0.161117 0.368884 0.224242 0.481968 0.161117 0.481968 0.224242 0.368884 0.224242 0.314289 0.161117 0.391221 0.161117 0.273016 0.224242 0.391221 0.161117 0.368884 0.224242 0.273016 0.224242 0.262885 0.161117 0.314289 0.161117 0.208959 0.224242 0.314289 0.161117 0.273016 0.224242 0.208959 0.224242 0.230862 0.161117 0.262885 0.161117 0.172493 0.224242 0.262885 0.161117 0.208959 0.224242 0.172493 0.224242 0.701051 0.161117 0.730081 0.160119 0.754977 0.224242 0.730081 0.160119 0.80342 0.223244 0.754977 0.224242 0.690921 0.224242 0.754977 0.224242 0.739484 0.311053 0.754977 0.224242 0.818429 0.311053 0.739484 0.311053 0.595053 0.224242 0.690921 0.224242 0.621335 0.311053 0.690921 0.224242 0.739484 0.311053 0.621335 0.311053 0.481968 0.224242 0.595053 0.224242 0.481968 0.311053 0.595053 0.224242 0.621335 0.311053 0.481968 0.311053 0.368884 0.224242 0.481968 0.224242 0.342602 0.311053 0.481968 0.224242 0.481968 0.311053 0.342602 0.311053 0.273016 0.224242 0.368884 0.224242 0.224453 0.311053 0.368884 0.224242 0.342602 0.311053 0.224453 0.311053 0.208959 0.224242 0.273016 0.224242 0.145509 0.311053 0.273016 0.224242 0.224453 0.311053 0.145509 0.311053 0.172493 0.224242 0.208959 0.224242 0.107807 0.311053 0.208959 0.224242 0.145509 0.311053 0.107807 0.311053 0.754977 0.224242 0.80342 0.223244 0.818429 0.311053 0.80342 0.223244 0.865113 0.312051 0.818429 0.311053 0.739484 0.311053 0.818429 0.311053 0.768852 0.385494 0.818429 0.311053 0.856798 0.385494 0.768852 0.385494 0.621335 0.311053 0.739484 0.311053 0.637228 0.385494 0.739484 0.311053 0.768852 0.385494 0.637228 0.385494 0.481968 0.311053 0.621335 0.311053 0.481968 0.385494 0.621335 0.311053 0.637228 0.385494 0.481968 0.385494 0.342602 0.311053 0.481968 0.311053 0.326708 0.385494 0.481968 0.311053 0.481968 0.385494 0.326708 0.385494 0.224453 0.311053 0.342602 0.311053 0.195086 0.385494 0.342602 0.311053 0.326708 0.385494 0.195086 0.385494 0.145509 0.311053 0.224453 0.311053 0.107139 0.385494 0.224453 0.311053 0.195086 0.385494 0.107139 0.385494 0.107807 0.311053 0.145509 0.311053 0.080247 0.385494 0.145509 0.311053 0.107139 0.385494 0.080247 0.385494 0.818429 0.311053 0.865113 0.312051 0.856798 0.385494 0.865113 0.312051 0.887682 0.385494 0.856798 0.385494 0.768852 0.385494 0.856798 0.385494 0.788694 0.468129 0.856798 0.385494 0.882725 0.468129 0.788694 0.468129 0.637228 0.385494 0.768852 0.385494 0.647968 0.468129 0.768852 0.385494 0.788694 0.468129 0.647968 0.468129 0.481968 0.385494 0.637228 0.385494 0.481968 0.468129 0.637228 0.385494 0.647968 0.468129 0.481968 0.468129 0.326708 0.385494 0.481968 0.385494 0.31597 0.468129 0.481968 0.385494 0.481968 0.468129 0.31597 0.468129 0.195086 0.385494 0.326708 0.385494 0.175243 0.468129 0.326708 0.385494 0.31597 0.468129 0.175243 0.468129 0.107139 0.385494 0.195086 0.385494 0.081212 0.468129 0.195086 0.385494 0.175243 0.468129 0.081212 0.468129 0.080247 0.385494 0.107139 0.385494 0.052185 0.468129 0.107139 0.385494 0.081212 0.468129 0.052185 0.468129 0.856798 0.385494 0.887682 0.385494 0.882725 0.468129 0.887682 0.385494 0.915744 0.468129 0.882725 0.468129 0.788694 0.468129 0.882725 0.468129 0.796631 0.488788 0.882725 0.468129 0.893095 0.488788 0.796631 0.488788 0.647968 0.468129 0.788694 0.468129 0.652263 0.488788 0.788694 0.468129 0.796631 0.488788 0.652263 0.488788 0.481968 0.468129 0.647968 0.468129 0.481968 0.488788 0.647968 0.468129 0.652263 0.488788 0.481968 0.488788 0.31597 0.468129 0.481968 0.468129 0.311674 0.488788 0.481968 0.468129 0.481968 0.488788 0.311674 0.488788 0.175243 0.468129 0.31597 0.468129 0.167306 0.488788 0.31597 0.468129 0.311674 0.488788 0.167306 0.488788 0.081212 0.468129 0.175243 0.468129 0.070842 0.488788 0.175243 0.468129 0.167306 0.488788 0.070842 0.488788 0.052185 0.468129 0.081212 0.468129 0.040961 0.488788 0.081212 0.468129 0.070842 0.488788 0.040961 0.488788 0.882725 0.468129 0.915744 0.468129 0.893095 0.488788 0.915744 0.468129 0.926969 0.488788 0.893095 0.488788 0.410806 0.428055 0.465962 0.448403 0.40332 0.440272 0.465962 0.448403 0.463721 0.462554 0.40332 0.440272 0.367636 0.388149 0.410806 0.428055 0.356044 0.396571 0.410806 0.428055 0.40332 0.440272 0.356044 0.396571 0.343023 0.33476 0.367636 0.388149 0.329091 0.338105 0.367636 0.388149 0.356044 0.396571 0.329091 0.338105 0.340715 0.276016 0.343023 0.33476 0.326564 0.273775 0.343023 0.33476 0.329091 0.338105 0.326564 0.273775 0.361063 0.220861 0.340715 0.276016 0.348847 0.213374 0.340715 0.276016 0.326564 0.273775 0.348847 0.213374 0.400969 0.17769 0.361063 0.220861 0.392547 0.166099 0.361063 0.220861 0.348847 0.213374 0.392547 0.166099 0.454358 0.153077 0.400969 0.17769 0.451013 0.139145 0.400969 0.17769 0.392547 0.166099 0.451013 0.139145 0.513102 0.150769 0.454358 0.153077 0.515344 0.136618 0.454358 0.153077 0.451013 0.139145 0.515344 0.136618 0.857394 0.488788 0.888326 0.488788 0.760578 0.402806 0.888326 0.488788 0.832196 0.402806 0.760578 0.402806 0.769307 0.488788 0.857394 0.488788 0.729617 0.402806 0.857394 0.488788 0.760578 0.402806 0.729617 0.402806 0.637475 0.488788 0.769307 0.488788 0.615995 0.402806 0.769307 0.488788 0.729617 0.402806 0.615995 0.402806 0.481968 0.488788 0.637475 0.488788 0.481968 0.402806 0.637475 0.488788 0.615995 0.402806 0.481968 0.402806 0.326462 0.488788 0.481968 0.488788 0.347942 0.402806 0.481968 0.488788 0.481968 0.402806 0.347942 0.402806 0.19463 0.488788 0.326462 0.488788 0.23432 0.402806 0.326462 0.488788 0.347942 0.402806 0.23432 0.402806 0.106543 0.488788 0.19463 0.488788 0.1584 0.402806 0.19463 0.488788 0.23432 0.402806 0.1584 0.402806 0.191637 0.488788 0.106543 0.488788 0.247767 0.402806 0.106543 0.488788 0.1584 0.402806 0.247767 0.402806 0.760578 0.402806 0.832196 0.402806 0.697896 0.298083 0.832196 0.402806 0.741449 0.298083 0.697896 0.298083 0.729617 0.402806 0.760578 0.402806 0.665449 0.298083 0.760578 0.402806 0.697896 0.298083 0.665449 0.298083 0.615995 0.402806 0.729617 0.402806 0.581267 0.298083 0.729617 0.402806 0.665449 0.298083 0.581267 0.298083 0.481968 0.402806 0.615995 0.402806 0.481968 0.298083 0.615995 0.402806 0.581267 0.298083 0.481968 0.298083 0.347942 0.402806 0.481968 0.402806 0.38267 0.298083 0.481968 0.402806 0.481968 0.298083 0.38267 0.298083 0.23432 0.402806 0.347942 0.402806 0.298488 0.298083 0.347942 0.402806 0.38267 0.298083 0.298488 0.298083 0.1584 0.402806 0.23432 0.402806 0.24224 0.298083 0.23432 0.402806 0.298488 0.298083 0.24224 0.298083 0.247767 0.402806 0.1584 0.402806 0.338515 0.298083 0.1584 0.402806 0.24224 0.298083 0.338515 0.298083 0.648832 0.423081 0.274432 0.42308 0.634583 0.351442 0.274432 0.42308 0.288682 0.351442 0.634583 0.351442 0.634583 0.351442 0.288682 0.351442 0.594002 0.29071 0.288682 0.351442 0.329262 0.29071 0.594002 0.29071 0.594002 0.29071 0.329262 0.29071 0.53327 0.25013 0.329262 0.29071 0.389994 0.25013 0.53327 0.25013 0.53327 0.25013 0.389994 0.25013 0.461632 0.23588 0.643218 0.42308 0.629395 0.35359 0.280046 0.42308 0.629395 0.35359 0.590033 0.29468 0.280046 0.42308 0.280046 0.42308 0.590033 0.29468 0.293869 0.35359 0.590033 0.29468 0.531122 0.255317 0.293869 0.35359 0.293869 0.35359 0.531122 0.255317 0.333231 0.29468 0.531122 0.255317 0.461632 0.241494 0.333231 0.29468 0.333231 0.29468 0.461632 0.241494 0.392142 0.255317 0.232214 0.048511 0.264133 0.048511 0.216298 0.012898 0.264133 0.048511 0.249429 0.012898 0.216298 0.012898 0.264133 0.048511 0.315245 0.048511 0.249429 0.012898 0.315245 0.048511 0.303991 0.012898 0.249429 0.012898 0.315245 0.048511 0.391739 0.048511 0.303991 0.012898 0.391739 0.048511 0.385647 0.012898 0.303991 0.012898 0.391739 0.048511 0.481968 0.048511 0.385647 0.012898 0.481968 0.048511 0.481968 0.012898 0.385647 0.012898 0.481968 0.048511 0.572199 0.048511 0.481968 0.012898 0.572199 0.048511 0.578289 0.012898 0.481968 0.012898 0.572199 0.048511 0.648693 0.048511 0.578289 0.012898 0.648693 0.048511 0.659946 0.012898 0.578289 0.012898 0.648693 0.048511 0.699803 0.048511 0.659946 0.012898 0.699803 0.048511 0.714507 0.012898 0.659946 0.012898 0.699803 0.048511 0.731724 0.048511 0.714507 0.012898 0.731724 0.048511 0.747639 0.012898 0.714507 0.012898 0.699803 0.048511 0.648693 0.048511 0.684459 0.069302 0.648693 0.048511 0.636948 0.069302 0.684459 0.069302 0.648693 0.048511 0.572199 0.048511 0.636948 0.069302 0.572199 0.048511 0.565843 0.069302 0.636948 0.069302 0.572199 0.048511 0.481968 0.048511 0.565843 0.069302 0.481968 0.048511 0.481968 0.069302 0.565843 0.069302 0.481968 0.048511 0.391739 0.048511 0.481968 0.069302 0.391739 0.048511 0.398094 0.069302 0.481968 0.069302 0.391739 0.048511 0.315245 0.048511 0.398094 0.069302 0.315245 0.048511 0.326989 0.069302 0.398094 0.069302 0.315245 0.048511 0.264133 0.048511 0.326989 0.069302 0.264133 0.048511 0.279478 0.069302 0.326989 0.069302 0.264133 0.048511 0.232214 0.048511 0.279478 0.069302 0.232214 0.048511 0.248822 0.069302 0.279478 0.069302 0.731724 0.048511 0.699803 0.048511 0.715115 0.069302 0.699803 0.048511 0.684459 0.069302 0.715115 0.069302 0.684459 0.069302 0.636948 0.069302 0.661644 0.076188 0.636948 0.069302 0.619487 0.076188 0.661644 0.076188 0.636948 0.069302 0.565843 0.069302 0.619487 0.076188 0.565843 0.069302 0.556393 0.076188 0.619487 0.076188 0.565843 0.069302 0.481968 0.069302 0.556393 0.076188 0.481968 0.069302 0.481968 0.076188 0.556393 0.076188 0.481968 0.069302 0.398094 0.069302 0.481968 0.076188 0.398094 0.069302 0.407544 0.076188 0.481968 0.076188 0.398094 0.069302 0.326989 0.069302 0.407544 0.076188 0.326989 0.069302 0.34445 0.076188 0.407544 0.076188 0.326989 0.069302 0.279478 0.069302 0.34445 0.076188 0.279478 0.069302 0.302293 0.076188 0.34445 0.076188 0.279478 0.069302 0.248822 0.069302 0.302293 0.076188 0.248822 0.069302 0.273516 0.076188 0.302293 0.076188 0.715115 0.069302 0.684459 0.069302 0.690421 0.076188 0.684459 0.069302 0.661644 0.076188 0.690421 0.076188 0.661644 0.076188 0.619487 0.076188 0.652311 0.108323 0.619487 0.076188 0.612343 0.108323 0.652311 0.108323 0.619487 0.076188 0.556393 0.076188 0.612343 0.108323 0.556393 0.076188 0.552527 0.108323 0.612343 0.108323 0.556393 0.076188 0.481968 0.076188 0.552527 0.108323 0.481968 0.076188 0.481968 0.108323 0.552527 0.108323 0.481968 0.076188 0.407544 0.076188 0.481968 0.108323 0.407544 0.076188 0.41141 0.108323 0.481968 0.108323 0.407544 0.076188 0.34445 0.076188 0.41141 0.108323 0.34445 0.076188 0.351594 0.108323 0.41141 0.108323 0.34445 0.076188 0.302293 0.076188 0.351594 0.108323 0.302293 0.076188 0.311626 0.108323 0.351594 0.108323 0.302293 0.076188 0.273516 0.076188 0.311626 0.108323 0.273516 0.076188 0.283619 0.108323 0.311626 0.108323 0.690421 0.076188 0.661644 0.076188 0.681316 0.108323 0.661644 0.076188 0.652311 0.108323 0.681316 0.108323 0.652311 0.108323 0.612343 0.108323 0.661644 0.123243 0.612343 0.108323 0.619487 0.123243 0.661644 0.123243 0.612343 0.108323 0.552527 0.108323 0.619487 0.123243 0.552527 0.108323 0.556393 0.123243 0.619487 0.123243 0.552527 0.108323 0.481968 0.108323 0.556393 0.123243 0.481968 0.108323 0.481968 0.123243 0.556393 0.123243 0.481968 0.108323 0.41141 0.108323 0.481968 0.123243 0.41141 0.108323 0.407544 0.123243 0.481968 0.123243 0.41141 0.108323 0.351594 0.108323 0.407544 0.123243 0.351594 0.108323 0.34445 0.123243 0.407544 0.123243 0.351594 0.108323 0.311626 0.108323 0.34445 0.123243 0.311626 0.108323 0.302293 0.123243 0.34445 0.123243 0.311626 0.108323 0.283619 0.108323 0.302293 0.123243 0.283619 0.108323 0.273516 0.123243 0.302293 0.123243 0.681316 0.108323 0.652311 0.108323 0.691419 0.123243 0.652311 0.108323 0.661644 0.123243 0.691419 0.123243 0.661644 0.123243 0.619487 0.123243 0.701051 0.161117 0.619487 0.123243 0.649648 0.161117 0.701051 0.161117 0.619487 0.123243 0.556393 0.123243 0.649648 0.161117 0.556393 0.123243 0.572716 0.161117 0.649648 0.161117 0.556393 0.123243 0.481968 0.123243 0.572716 0.161117 0.481968 0.123243 0.481968 0.161117 0.572716 0.161117 0.481968 0.123243 0.407544 0.123243 0.481968 0.161117 0.407544 0.123243 0.391221 0.161117 0.481968 0.161117 0.407544 0.123243 0.34445 0.123243 0.391221 0.161117 0.34445 0.123243 0.314289 0.161117 0.391221 0.161117 0.34445 0.123243 0.302293 0.123243 0.314289 0.161117 0.302293 0.123243 0.262885 0.161117 0.314289 0.161117 0.302293 0.123243 0.273516 0.123243 0.262885 0.161117 0.273516 0.123243 0.230862 0.161117 0.262885 0.161117 0.691419 0.123243 0.661644 0.123243 0.730081 0.160119 0.661644 0.123243 0.701051 0.161117 0.730081 0.160119 0.701051 0.161117 0.649648 0.161117 0.754977 0.224242 0.649648 0.161117 0.690921 0.224242 0.754977 0.224242 0.649648 0.161117 0.572716 0.161117 0.690921 0.224242 0.572716 0.161117 0.595053 0.224242 0.690921 0.224242 0.572716 0.161117 0.481968 0.161117 0.595053 0.224242 0.481968 0.161117 0.481968 0.224242 0.595053 0.224242 0.481968 0.161117 0.391221 0.161117 0.481968 0.224242 0.391221 0.161117 0.368884 0.224242 0.481968 0.224242 0.391221 0.161117 0.314289 0.161117 0.368884 0.224242 0.314289 0.161117 0.273016 0.224242 0.368884 0.224242 0.314289 0.161117 0.262885 0.161117 0.273016 0.224242 0.262885 0.161117 0.208959 0.224242 0.273016 0.224242 0.262885 0.161117 0.230862 0.161117 0.208959 0.224242 0.230862 0.161117 0.172493 0.224242 0.208959 0.224242 0.730081 0.160119 0.701051 0.161117 0.80342 0.223244 0.701051 0.161117 0.754977 0.224242 0.80342 0.223244 0.754977 0.224242 0.690921 0.224242 0.818429 0.311053 0.690921 0.224242 0.739484 0.311053 0.818429 0.311053 0.690921 0.224242 0.595053 0.224242 0.739484 0.311053 0.595053 0.224242 0.621335 0.311053 0.739484 0.311053 0.595053 0.224242 0.481968 0.224242 0.621335 0.311053 0.481968 0.224242 0.481968 0.311053 0.621335 0.311053 0.481968 0.224242 0.368884 0.224242 0.481968 0.311053 0.368884 0.224242 0.342602 0.311053 0.481968 0.311053 0.368884 0.224242 0.273016 0.224242 0.342602 0.311053 0.273016 0.224242 0.224453 0.311053 0.342602 0.311053 0.273016 0.224242 0.208959 0.224242 0.224453 0.311053 0.208959 0.224242 0.145509 0.311053 0.224453 0.311053 0.208959 0.224242 0.172493 0.224242 0.145509 0.311053 0.172493 0.224242 0.107807 0.311053 0.145509 0.311053 0.80342 0.223244 0.754977 0.224242 0.865113 0.312051 0.754977 0.224242 0.818429 0.311053 0.865113 0.312051 0.818429 0.311053 0.739484 0.311053 0.856798 0.385494 0.739484 0.311053 0.768852 0.385494 0.856798 0.385494 0.739484 0.311053 0.621335 0.311053 0.768852 0.385494 0.621335 0.311053 0.637228 0.385494 0.768852 0.385494 0.621335 0.311053 0.481968 0.311053 0.637228 0.385494 0.481968 0.311053 0.481968 0.385494 0.637228 0.385494 0.481968 0.311053 0.342602 0.311053 0.481968 0.385494 0.342602 0.311053 0.326708 0.385494 0.481968 0.385494 0.342602 0.311053 0.224453 0.311053 0.326708 0.385494 0.224453 0.311053 0.195086 0.385494 0.326708 0.385494 0.224453 0.311053 0.145509 0.311053 0.195086 0.385494 0.145509 0.311053 0.107139 0.385494 0.195086 0.385494 0.145509 0.311053 0.107807 0.311053 0.107139 0.385494 0.107807 0.311053 0.080247 0.385494 0.107139 0.385494 0.865113 0.312051 0.818429 0.311053 0.887682 0.385494 0.818429 0.311053 0.856798 0.385494 0.887682 0.385494 0.856798 0.385494 0.768852 0.385494 0.882725 0.468129 0.768852 0.385494 0.788694 0.468129 0.882725 0.468129 0.768852 0.385494 0.637228 0.385494 0.788694 0.468129 0.637228 0.385494 0.647968 0.468129 0.788694 0.468129 0.637228 0.385494 0.481968 0.385494 0.647968 0.468129 0.481968 0.385494 0.481968 0.468129 0.647968 0.468129 0.481968 0.385494 0.326708 0.385494 0.481968 0.468129 0.326708 0.385494 0.31597 0.468129 0.481968 0.468129 0.326708 0.385494 0.195086 0.385494 0.31597 0.468129 0.195086 0.385494 0.175243 0.468129 0.31597 0.468129 0.195086 0.385494 0.107139 0.385494 0.175243 0.468129 0.107139 0.385494 0.081212 0.468129 0.175243 0.468129 0.107139 0.385494 0.080247 0.385494 0.081212 0.468129 0.080247 0.385494 0.052185 0.468129 0.081212 0.468129 0.887682 0.385494 0.856798 0.385494 0.915744 0.468129 0.856798 0.385494 0.882725 0.468129 0.915744 0.468129 0.882725 0.468129 0.788694 0.468129 0.893095 0.488788 0.788694 0.468129 0.796631 0.488788 0.893095 0.488788 0.788694 0.468129 0.647968 0.468129 0.796631 0.488788 0.647968 0.468129 0.652263 0.488788 0.796631 0.488788 0.647968 0.468129 0.481968 0.468129 0.652263 0.488788 0.481968 0.468129 0.481968 0.488788 0.652263 0.488788 0.481968 0.468129 0.31597 0.468129 0.481968 0.488788 0.31597 0.468129 0.311674 0.488788 0.481968 0.488788 0.31597 0.468129 0.175243 0.468129 0.311674 0.488788 0.175243 0.468129 0.167306 0.488788 0.311674 0.488788 0.175243 0.468129 0.081212 0.468129 0.167306 0.488788 0.081212 0.468129 0.070842 0.488788 0.167306 0.488788 0.081212 0.468129 0.052185 0.468129 0.070842 0.488788 0.052185 0.468129 0.040961 0.488788 0.070842 0.488788 0.915744 0.468129 0.882725 0.468129 0.926969 0.488788 0.882725 0.468129 0.893095 0.488788 0.926969 0.488788 0.465962 0.448403 0.524706 0.446095 0.463721 0.462554 0.524706 0.446095 0.528051 0.460027 0.463721 0.462554 0.524706 0.446095 0.578095 0.421483 0.528051 0.460027 0.578095 0.421483 0.586517 0.433074 0.528051 0.460027 0.578095 0.421483 0.618001 0.378312 0.586517 0.433074 0.618001 0.378312 0.630218 0.385799 0.586517 0.433074 0.618001 0.378312 0.638349 0.323157 0.630218 0.385799 0.638349 0.323157 0.652501 0.325398 0.630218 0.385799 0.638349 0.323157 0.636041 0.264413 0.652501 0.325398 0.636041 0.264413 0.649973 0.261068 0.652501 0.325398 0.636041 0.264413 0.611428 0.211024 0.649973 0.261068 0.611428 0.211024 0.62302 0.202602 0.649973 0.261068 0.611428 0.211024 0.568258 0.171117 0.62302 0.202602 0.568258 0.171117 0.575744 0.158901 0.62302 0.202602 0.568258 0.171117 0.513102 0.150769 0.575744 0.158901 0.513102 0.150769 0.515344 0.136618 0.575744 0.158901 0.888326 0.488788 0.857394 0.488788 0.832196 0.402806 0.857394 0.488788 0.760578 0.402806 0.832196 0.402806 0.857394 0.488788 0.769307 0.488788 0.760578 0.402806 0.769307 0.488788 0.729617 0.402806 0.760578 0.402806 0.769307 0.488788 0.637475 0.488788 0.729617 0.402806 0.637475 0.488788 0.615995 0.402806 0.729617 0.402806 0.637475 0.488788 0.481968 0.488788 0.615995 0.402806 0.481968 0.488788 0.481968 0.402806 0.615995 0.402806 0.481968 0.488788 0.326462 0.488788 0.481968 0.402806 0.326462 0.488788 0.347942 0.402806 0.481968 0.402806 0.326462 0.488788 0.19463 0.488788 0.347942 0.402806 0.19463 0.488788 0.23432 0.402806 0.347942 0.402806 0.19463 0.488788 0.106543 0.488788 0.23432 0.402806 0.106543 0.488788 0.1584 0.402806 0.23432 0.402806 0.106543 0.488788 0.191637 0.488788 0.1584 0.402806 0.191637 0.488788 0.247767 0.402806 0.1584 0.402806 0.832196 0.402806 0.760578 0.402806 0.741449 0.298083 0.760578 0.402806 0.697896 0.298083 0.741449 0.298083 0.760578 0.402806 0.729617 0.402806 0.697896 0.298083 0.729617 0.402806 0.665449 0.298083 0.697896 0.298083 0.729617 0.402806 0.615995 0.402806 0.665449 0.298083 0.615995 0.402806 0.581267 0.298083 0.665449 0.298083 0.615995 0.402806 0.481968 0.402806 0.581267 0.298083 0.481968 0.402806 0.481968 0.298083 0.581267 0.298083 0.481968 0.402806 0.347942 0.402806 0.481968 0.298083 0.347942 0.402806 0.38267 0.298083 0.481968 0.298083 0.347942 0.402806 0.23432 0.402806 0.38267 0.298083 0.23432 0.402806 0.298488 0.298083 0.38267 0.298083 0.23432 0.402806 0.1584 0.402806 0.298488 0.298083 0.1584 0.402806 0.24224 0.298083 0.298488 0.298083 0.1584 0.402806 0.247767 0.402806 0.24224 0.298083 0.247767 0.402806 0.338515 0.298083 0.24224 0.298083 0.274432 0.42308 0.648832 0.423081 0.288682 0.351442 0.648832 0.423081 0.634583 0.351442 0.288682 0.351442 0.288682 0.351442 0.634583 0.351442 0.329262 0.29071 0.634583 0.351442 0.594002 0.29071 0.329262 0.29071 0.329262 0.29071 0.594002 0.29071 0.389994 0.25013 0.594002 0.29071 0.53327 0.25013 0.389994 0.25013 0.389994 0.25013 0.53327 0.25013 0.461632 0.23588 0.629395 0.35359 0.643218 0.42308 0.590033 0.29468 0.643218 0.42308 0.280046 0.42308 0.590033 0.29468 0.590033 0.29468 0.280046 0.42308 0.531122 0.255317 0.280046 0.42308 0.293869 0.35359 0.531122 0.255317 0.531122 0.255317 0.293869 0.35359 0.461632 0.241494 0.293869 0.35359 0.333231 0.29468 0.461632 0.241494 0.461632 0.241494 0.333231 0.29468 0.392142 0.255317</float_array>
          <technique_common>
            <accessor source="#Tex1Src_id-array" count="1428" stride="2">
              <param name="S" type="float"/>
              <param name="T" type="float"/>
            </accessor>
          </technique_common>
        </source>
        <source id="Tex2Src_id" name="Tex2Src">
          <float_array id="Tex2Src_id-array" count="2856">0 1 0 1 0 1 0 1 0 1 0 1 0 1 0 1 0 1 0 1 0 1 0 1 0 1 0 1 0 1 0 1 0 1 0 1 0 1 0 1 0 1 0 1 0 1 0 1 0 1 0 1 0 1 0 1 0 1 0 1 0 1 0 1 0 1 0 1 0 1 0 1 0 1 0 1 0 1 0 1 0 1 0 1 0 1 0 1 0 1 0 1 0 1 0 1 0 1 0 1 0 1 0 1 0 1 0 1 0 1 0 1 0 1 0 1 0 1 0 1 0 1 0 1 0 1 0 1 0 1 0 1 0 1 0 1 0 1 0 1 0 1 0 1 0 1 0 1 0 1 0 1 0 1 0 1 0 1 0 1 0 1 0 1 0 1 0 1 0 1 0 1 0 1 0 1 0 1 0 1 0 1 0 1 0 1 0 1 0 1 0 1 0 1 0 1 0 1 0 1 0 1 0 1 0 1 0 1 0 1 0 1 0 1 0 1 0 1 0 1 0 1 0 1 0 1 0 1 0 1 0 1 0 1 0 1 0 1 0 1 0 1 0 1 0 1 0 1 0 1 0 1 0 1 0 1 0 1 0 1 0 1 0 1 0 1 0 1 0 1 0 1 0 1 0 1 0 1 0 1 0 1 0 1 0 1 0 1 0 1 0 1 0 1 0 1 0 1 0 1 0 1 0 1 0 1 0 1 0 1 0 1 0 1 0 1 0 1 0 1 0 1 0 1 0 1 0 1 0 1 0 1 0 1 0 1 0 1 0 1 0 1 0 1 0 1 0 1 0 1 0 1 0 1 0 1 0 1 0 1 0 1 0 1 0 1 0 1 0 1 0 1 0 1 0 1 0 1 0 1 0 1 0 1 0 1 0 1 0 1 0 1 0 1 0 1 0 1 0 1 0 1 0 1 0 1 0 1 0 1 0 1 0 1 0 1 0 1 0 1 0 1 0 1 0 1 0 1 0 1 0 1 0 1 0 1 0 1 0 1 0 1 0 1 0 1 0 1 0 1 0 1 0 1 0 1 0 1 0 1 0 1 0 1 0 1 0 1 0 1 0 1 0 1 0 1 0 1 0 1 0 1 0 1 0 1 0 1 0 1 0 1 0 1 0 1 0 1 0 1 0 1 0 1 0 1 0 1 0 1 0 1 0 1 0 1 0 1 0 1 0 1 0 1 0 1 0 1 0 1 0 1 0 1 0 1 0 1 0 1 0 1 0 1 0 1 0 1 0 1 0 1 0 1 0 1 0 1 0 1 0 1 0 1 0 1 0 1 0 1 0 1 0 1 0 1 0 1 0 1 0 1 0 1 0 1 0 1 0 1 0 1 0 1 0 1 0 1 0 1 0 1 0 1 0 1 0 1 0 1 0 1 0 1 0 1 0 1 0 1 0 1 0 1 0 1 0 1 0 1 0 1 0 1 0 1 0 1 0 1 0 1 0 1 0 1 0 1 0 1 0 1 0 1 0 1 0 1 0 1 0 1 0 1 0 1 0 1 0 1 0 1 0 1 0 1 0 1 0 1 0 1 0 1 0 1 0 1 0 1 0 1 0 1 0 1 0 1 0 1 0 1 0 1 0 1 0 1 0 1 0 1 0 1 0 1 0 1 0 1 0 1 0 1 0 1 0 1 0 1 0 1 0 1 0 1 0 1 0 1 0 1 0 1 0 1 0 1 0 1 0 1 0 1 0 1 0 1 0 1 0 1 0 1 0 1 0 1 0 1 0 1 0 1 0 1 0 1 0 1 0 1 0 1 0 1 0 1 0 1 0 1 0 1 0 1 0 1 0 1 0 1 0 1 0 1 0 1 0 1 0 1 0 1 0 1 0 1 0 1 0 1 0 1 0 1 0 1 0 1 0 1 0 1 0 1 0 1 0 1 0 1 0 1 0 1 0 1 0 1 0 1 0 1 0 1 0 1 0 1 0 1 0 1 0 1 0 1 0 1 0 1 0 1 0 1 0 1 0 1 0 1 0 1 0 1 0 1 0 1 0 1 0 1 0 1 0 1 0 1 0 1 0 1 0 1 0 1 0 1 0 1 0 1 0 1 0 1 0 1 0 1 0 1 0 1 0 1 0 1 0 1 0 1 0 1 0 1 0 1 0 1 0 1 0 1 0 1 0 1 0 1 0 1 0 1 0 1 0 1 0 1 0 1 0 1 0 1 0 1 0 1 0 1 0 1 0 1 0 1 0 1 0 1 0 1 0 1 0 1 0 1 0 1 0 1 0 1 0 1 0 1 0 1 0 1 0 1 0 1 0 1 0 1 0 1 0 1 0 1 0 1 0 1 0 1 0 1 0 1 0 1 0 1 0 1 0 1 0 1 0 1 0 1 0 1 0 1 0 1 0 1 0 1 0 1 0 1 0 1 0 1 0 1 0 1 0 1 0 1 0 1 0 1 0 1 0 1 0 1 0 1 0 1 0 1 0 1 0 1 0 1 0 1 0 1 0 1 0 1 0 1 0 1 0 1 0 1 0 1 0 1 0 1 0 1 0 1 0 1 0 1 0 1 0 1 0 1 0 1 0 1 0 1 0 1 0 1 0 1 0 1 0 1 0 1 0 1 0 1 0 1 0 1 0 1 0 1 0 1 0 1 0 1 0 1 0 1 0 1 0 1 0 1 0 1 0 1 0 1 0 1 0 1 0 1 0 1 0 1 0 1 0 1 0 1 0 1 0 1 0 1 0 1 0 1 0 1 0 1 0 1 0 1 0 1 0 1 0 1 0 1 0 1 0 1 0 1 0 1 0 1 0 1 0 1 0 1 0 1 0 1 0 1 0 1 0 1 0 1 0 1 0 1 0 1 0 1 0 1 0 1 0 1 0 1 0 1 0 1 0 1 0 1 0 1 0 1 0 1 0 1 0 1 0 1 0 1 0 1 0 1 0 1 0 1 0 1 0 1 0 1 0 1 0 1 0 1 0 1 0 1 0 1 0 1 0 1 0 1 0 1 0 1 0 1 0 1 0 1 0 1 0 1 0 1 0 1 0 1 0 1 0 1 0 1 0 1 0 1 0 1 0 1 0 1 0 1 0 1 0 1 0 1 0 1 0 1 0 1 0 1 0 1 0 1 0 1 0 1 0 1 0 1 0 1 0 1 0 1 0 1 0 1 0 1 0 1 0 1 0 1 0 1 0 1 0 1 0 1 0 1 0 1 0 1 0 1 0 1 0 1 0 1 0 1 0 1 0 1 0 1 0 1 0 1 0 1 0 1 0 1 0 1 0 1 0 1 0 1 0 1 0 1 0 1 0 1 0 1 0 1 0 1 0 1 0 1 0 1 0 1 0 1 0 1 0 1 0 1 0 1 0 1 0 1 0 1 0 1 0 1 0 1 0 1 0 1 0 1 0 1 0 1 0 1 0 1 0 1 0 1 0 1 0 1 0 1 0 1 0 1 0 1 0 1 0 1 0 1 0 1 0 1 0 1 0 1 0 1 0 1 0 1 0 1 0 1 0 1 0 1 0 1 0 1 0 1 0 1 0 1 0 1 0 1 0 1 0 1 0 1 0 1 0 1 0 1 0 1 0 1 0 1 0 1 0 1 0 1 0 1 0 1 0 1 0 1 0 1 0 1 0 1 0 1 0 1 0 1 0 1 0 1 0 1 0 1 0 1 0 1 0 1 0 1 0 1 0 1 0 1 0 1 0 1 0 1 0 1 0 1 0 1 0 1 0 1 0 1 0 1 0 1 0 1 0 1 0 1 0 1 0 1 0 1 0 1 0 1 0 1 0 1 0 1 0 1 0 1 0 1 0 1 0 1 0 1 0 1 0 1 0 1 0 1 0 1 0 1 0 1 0 1 0 1 0 1 0 1 0 1 0 1 0 1 0 1 0 1 0 1 0 1 0 1 0 1 0 1 0 1 0 1 0 1 0 1 0 1 0 1 0 1 0 1 0 1 0 1 0 1 0 1 0 1 0 1 0 1 0 1 0 1 0 1 0 1 0 1 0 1 0 1 0 1 0 1 0 1 0 1 0 1 0 1 0 1 0 1 0 1 0 1 0 1 0 1 0 1 0 1 0 1 0 1 0 1 0 1 0 1 0 1 0 1 0 1 0 1 0 1 0 1 0 1 0 1 0 1 0 1 0 1 0 1 0 1 0 1 0 1 0 1 0 1 0 1 0 1 0 1 0 1 0 1 0 1 0 1 0 1 0 1 0 1 0 1 0 1 0 1 0 1 0 1 0 1 0 1 0 1 0 1 0 1 0 1 0 1 0 1 0 1 0 1 0 1 0 1 0 1 0 1 0 1 0 1 0 1 0 1 0 1 0 1 0 1 0 1 0 1 0 1 0 1 0 1 0 1 0 1 0 1 0 1 0 1 0 1 0 1 0 1 0 1 0 1 0 1 0 1 0 1 0 1 0 1 0 1 0 1 0 1 0 1 0 1 0 1 0 1 0 1 0 1 0 1 0 1 0 1 0 1 0 1 0 1 0 1 0 1 0 1 0 1 0 1 0 1 0 1 0 1 0 1 0 1 0 1 0 1 0 1 0 1 0 1 0 1 0 1 0 1 0 1 0 1 0 1 0 1 0 1 0 1 0 1 0 1 0 1 0 1 0 1 0 1 0 1 0 1 0 1 0 1 0 1 0 1 0 1 0 1 0 1 0 1 0 1 0 1 0 1 0 1 0 1 0 1 0 1 0 1 0 1 0 1 0 1 0 1 0 1 0 1 0 1 0 1 0 1 0 1 0 1 0 1 0 1 0 1 0 1 0 1 0 1 0 1 0 1 0 1 0 1 0 1 0 1 0 1 0 1 0 1 0 1 0 1 0 1 0 1 0 1 0 1 0 1 0 1 0 1 0 1 0 1 0 1 0 1 0 1 0 1 0 1 0 1 0 1 0 1 0 1 0 1 0 1 0 1 0 1 0 1 0 1 0 1 0 1 0 1 0 1 0 1 0 1 0 1 0 1 0 1 0 1 0 1 0 1 0 1 0 1 0 1 0 1 0 1 0 1 0 1 0 1 0 1 0 1 0 1 0 1 0 1 0 1 0 1 0 1 0 1 0 1 0 1 0 1 0 1 0 1 0 1 0 1 0 1 0 1 0 1 0 1 0 1 0 1 0 1 0 1 0 1 0 1 0 1 0 1 0 1 0 1 0 1 0 1 0 1 0 1 0 1 0 1 0 1 0 1 0 1 0 1 0 1 0 1 0 1 0 1 0 1 0 1 0 1 0 1 0 1 0 1 0 1 0 1 0 1 0 1 0 1 0 1 0 1 0 1 0 1 0 1 0 1 0 1 0 1 0 1 0 1 0 1 0 1 0 1 0 1 0 1 0 1 0 1 0 1 0 1 0 1 0 1 0 1 0 1 0 1 0 1 0 1 0 1 0 1 0 1 0 1 0 1 0 1 0 1 0 1 0 1 0 1 0 1 0 1 0 1 0 1 0 1 0 1 0 1 0 1 0 1 0 1 0 1 0 1 0 1 0 1 0 1 0 1 0 1 0 1 0 1 0 1 0 1 0 1 0 1 0 1 0 1 0 1 0 1 0 1 0 1 0 1 0 1 0 1 0 1 0 1 0 1 0 1 0 1 0 1 0 1 0 1 0 1 0 1 0 1 0 1 0 1 0 1 0 1 0 1 0 1 0 1 0 1 0 1 0 1 0 1 0 1 0 1 0 1 0 1 0 1 0 1 0 1 0 1 0 1 0 1 0 1 0 1 0 1 0 1 0 1 0 1 0 1 0 1 0 1 0 1 0 1 0 1 0 1 0 1 0 1 0 1 0 1 0 1 0 1 0 1 0 1 0 1 0 1 0 1 0 1 0 1 0 1 0 1 0 1 0 1 0 1 0 1 0 1 0 1 0 1 0 1 0 1 0 1 0 1 0 1 0 1 0 1 0 1 0 1 0 1 0 1 0 1 0 1 0 1 0 1 0 1 0 1 0 1 0 1 0 1 0 1 0 1 0 1 0 1 0 1 0 1 0 1 0 1 0 1 0 1 0 1 0 1 0 1 0 1 0 1 0 1 0 1 0 1 0 1 0 1 0 1 0 1 0 1 0 1 0 1 0 1 0 1 0 1 0 1 0 1 0 1 0 1 0 1 0 1 0 1 0 1 0 1 0 1 0 1 0 1 0 1 0 1 0 1 0 1 0 1 0 1 0 1 0 1 0 1 0 1 0 1 0 1 0 1 0 1 0 1 0 1 0 1 0 1 0 1 0 1 0 1 0 1 0 1 0 1 0 1 0 1 0 1 0 1 0 1 0 1 0 1 0 1 0 1 0 1 0 1 0 1 0 1 0 1 0 1 0 1 0 1 0 1 0 1 0 1 0 1 0 1 0 1 0 1 0 1 0 1 0 1 0 1 0 1 0 1 0 1 0 1 0 1 0 1 0 1 0 1 0 1 0 1 0 1 0 1</float_array>
          <technique_common>
            <accessor source="#Tex2Src_id-array" count="1428" stride="2">
              <param name="S" type="float"/>
              <param name="T" type="float"/>
            </accessor>
          </technique_common>
        </source>
        <vertices id="geomU3D_id-vertices">
          <input semantic="POSITION" source="#PositionSrc_id"/>
        </vertices>
        <triangles count="0">
          <input semantic="VERTEX" source="#geomU3D_id-vertices" offset="0"/>
          <input semantic="NORMAL" source="#NormalSrc_id" offset="1"/>
          <input semantic="COLOR" source="#ColorSrc_id" offset="2" set="0"/>
          <input semantic="TEXCOORD" source="#Tex1Src_id" offset="3" set="0"/>
          <input semantic="TEXCOORD" source="#Tex2Src_id" offset="4" set="1"/>
          <p/>
        </triangles>
        <triangles material="VisualMaterialVisualMaterial" count="476">
          <input semantic="VERTEX" source="#geomU3D_id-vertices" offset="0"/>
          <input semantic="NORMAL" source="#NormalSrc_id" offset="1"/>
          <input semantic="COLOR" source="#ColorSrc_id" offset="2" set="0"/>
          <input semantic="TEXCOORD" source="#Tex1Src_id" offset="3" set="0"/>
          <input semantic="TEXCOORD" source="#Tex2Src_id" offset="4" set="1"/>
          <p>0 0 0 0 0 1 1 1 1 1 2 2 2 2 2 1 1 1 3 3 3 3 3 4 4 2 2 2 5 5 4 4 4 6 6 0 0 0 7 7 5 5 5 8 8 0 0 0 9 9 2 2 2 10 10 5 5 5 11 11 6 6 6 12 12 4 4 4 13 13 7 7 7 14 14 4 4 4 15 15 5 5 5 16 16 7 7 7 17 17 8 8 8 18 18 6 6 6 19 19 9 9 9 20 20 6 6 6 21 21 7 7 7 22 22 9 9 9 23 23 10 10 10 24 24 8 8 8 25 25 11 11 11 26 26 8 8 8 27 27 9 9 9 28 28 11 11 11 29 29 12 12 12 30 30 10 10 10 31 31 13 13 13 32 32 10 10 10 33 33 11 11 11 34 34 13 13 13 35 35 14 14 14 36 36 12 12 12 37 37 15 15 15 38 38 12 12 12 39 39 13 13 13 40 40 15 15 15 41 41 16 16 16 42 42 14 14 14 43 43 17 17 17 44 44 14 14 14 45 45 15 15 15 46 46 17 17 17 47 47 12 12 12 48 48 14 14 14 49 49 18 18 18 50 50 14 14 14 51 51 19 19 19 52 52 18 18 18 53 53 10 10 10 54 54 12 12 12 55 55 20 20 20 56 56 12 12 12 57 57 18 18 18 58 58 20 20 20 59 59 8 8 8 60 60 10 10 10 61 61 21 21 21 62 62 10 10 10 63 63 20 20 20 64 64 21 21 21 65 65 6 6 6 66 66 8 8 8 67 67 22 22 22 68 68 8 8 8 69 69 21 21 21 70 70 22 22 22 71 71 4 4 4 72 72 6 6 6 73 73 23 23 23 74 74 6 6 6 75 75 22 22 22 76 76 23 23 23 77 77 0 0 0 78 78 4 4 4 79 79 24 24 24 80 80 4 4 4 81 81 23 23 23 82 82 24 24 24 83 83 1 1 1 84 84 0 0 0 85 85 25 25 25 86 86 0 0 0 87 87 24 24 24 88 88 25 25 25 89 89 14 14 14 90 90 16 16 16 91 91 19 19 19 92 92 16 16 16 93 93 26 26 26 94 94 19 19 19 95 95 18 18 18 96 96 19 19 19 97 97 27 27 27 98 98 19 19 19 99 99 28 28 28 100 100 27 27 27 101 101 20 20 20 102 102 18 18 18 103 103 29 29 29 104 104 18 18 18 105 105 27 27 27 106 106 29 29 29 107 107 21 21 21 108 108 20 20 20 109 109 30 30 30 110 110 20 20 20 111 111 29 29 29 112 112 30 30 30 113 113 22 22 22 114 114 21 21 21 115 115 31 31 31 116 116 21 21 21 117 117 30 30 30 118 118 31 31 31 119 119 23 23 23 120 120 22 22 22 121 121 32 32 32 122 122 22 22 22 123 123 31 31 31 124 124 32 32 32 125 125 24 24 24 126 126 23 23 23 127 127 33 33 33 128 128 23 23 23 129 129 32 32 32 130 130 33 33 33 131 131 25 25 25 132 132 24 24 24 133 133 34 34 34 134 134 24 24 24 135 135 33 33 33 136 136 34 34 34 137 137 19 19 19 138 138 26 26 26 139 139 28 28 28 140 140 26 26 26 141 141 35 35 35 142 142 28 28 28 143 143 27 27 27 144 144 28 28 28 145 145 36 36 36 146 146 28 28 28 147 147 37 37 37 148 148 36 36 36 149 149 29 29 29 150 150 27 27 27 151 151 38 38 38 152 152 27 27 27 153 153 36 36 36 154 154 38 38 38 155 155 30 30 30 156 156 29 29 29 157 157 39 39 39 158 158 29 29 29 159 159 38 38 38 160 160 39 39 39 161 161 31 31 31 162 162 30 30 30 163 163 40 40 40 164 164 30 30 30 165 165 39 39 39 166 166 40 40 40 167 167 32 32 32 168 168 31 31 31 169 169 41 41 41 170 170 31 31 31 171 171 40 40 40 172 172 41 41 41 173 173 33 33 33 174 174 32 32 32 175 175 42 42 42 176 176 32 32 32 177 177 41 41 41 178 178 42 42 42 179 179 34 34 34 180 180 33 33 33 181 181 43 43 43 182 182 33 33 33 183 183 42 42 42 184 184 43 43 43 185 185 28 28 28 186 186 35 35 35 187 187 37 37 37 188 188 35 35 35 189 189 44 44 44 190 190 37 37 37 191 191 36 36 36 192 192 37 37 37 193 193 45 45 45 194 194 37 37 37 195 195 46 46 46 196 196 45 45 45 197 197 38 38 38 198 198 36 36 36 199 199 47 47 47 200 200 36 36 36 201 201 45 45 45 202 202 47 47 47 203 203 39 39 39 204 204 38 38 38 205 205 48 48 48 206 206 38 38 38 207 207 47 47 47 208 208 48 48 48 209 209 40 40 40 210 210 39 39 39 211 211 49 49 49 212 212 39 39 39 213 213 48 48 48 214 214 49 49 49 215 215 41 41 41 216 216 40 40 40 217 217 50 50 50 218 218 40 40 40 219 219 49 49 49 220 220 50 50 50 221 221 42 42 42 222 222 41 41 41 223 223 51 51 51 224 224 41 41 41 225 225 50 50 50 226 226 51 51 51 227 227 43 43 43 228 228 42 42 42 229 229 52 52 52 230 230 42 42 42 231 231 51 51 51 232 232 52 52 52 233 233 37 37 37 234 234 44 44 44 235 235 46 46 46 236 236 44 44 44 237 237 53 53 53 238 238 46 46 46 239 239 45 45 45 240 240 46 46 46 241 241 54 54 54 242 242 46 46 46 243 243 55 55 55 244 244 54 54 54 245 245 47 47 47 246 246 45 45 45 247 247 56 56 56 248 248 45 45 45 249 249 54 54 54 250 250 56 56 56 251 251 48 48 48 252 252 47 47 47 253 253 57 57 57 254 254 47 47 47 255 255 56 56 56 256 256 57 57 57 257 257 49 49 49 258 258 48 48 48 259 259 58 58 58 260 260 48 48 48 261 261 57 57 57 262 262 58 58 58 263 263 50 50 50 264 264 49 49 49 265 265 59 59 59 266 266 49 49 49 267 267 58 58 58 268 268 59 59 59 269 269 51 51 51 270 270 50 50 50 271 271 60 60 60 272 272 50 50 50 273 273 59 59 59 274 274 60 60 60 275 275 52 52 52 276 276 51 51 51 277 277 61 61 61 278 278 51 51 51 279 279 60 60 60 280 280 61 61 61 281 281 46 46 46 282 282 53 53 53 283 283 55 55 55 284 284 53 53 53 285 285 62 62 62 286 286 55 55 55 287 287 54 54 54 288 288 55 55 55 289 289 63 63 63 290 290 55 55 55 291 291 64 64 64 292 292 63 63 63 293 293 56 56 56 294 294 54 54 54 295 295 65 65 65 296 296 54 54 54 297 297 63 63 63 298 298 65 65 65 299 299 57 57 57 300 300 56 56 56 301 301 66 66 66 302 302 56 56 56 303 303 65 65 65 304 304 66 66 66 305 305 58 58 58 306 306 57 57 57 307 307 67 67 67 308 308 57 57 57 309 309 66 66 66 310 310 67 67 67 311 311 59 59 59 312 312 58 58 58 313 313 68 68 68 314 314 58 58 58 315 315 67 67 67 316 316 68 68 68 317 317 60 60 60 318 318 59 59 59 319 319 69 69 69 320 320 59 59 59 321 321 68 68 68 322 322 69 69 69 323 323 61 61 61 324 324 60 60 60 325 325 70 70 70 326 326 60 60 60 327 327 69 69 69 328 328 70 70 70 329 329 55 55 55 330 330 62 62 62 331 331 64 64 64 332 332 62 62 62 333 333 71 71 71 334 334 64 64 64 335 335 63 63 63 336 336 64 64 64 337 337 72 72 72 338 338 64 64 64 339 339 73 73 73 340 340 72 72 72 341 341 65 65 65 342 342 63 63 63 343 343 74 74 74 344 344 63 63 63 345 345 72 72 72 346 346 74 74 74 347 347 66 66 66 348 348 65 65 65 349 349 75 75 75 350 350 65 65 65 351 351 74 74 74 352 352 75 75 75 353 353 67 67 67 354 354 66 66 66 355 355 76 76 76 356 356 66 66 66 357 357 75 75 75 358 358 76 76 76 359 359 68 68 68 360 360 67 67 67 361 361 77 77 77 362 362 67 67 67 363 363 76 76 76 364 364 77 77 77 365 365 69 69 69 366 366 68 68 68 367 367 78 78 78 368 368 68 68 68 369 369 77 77 77 370 370 78 78 78 371 371 70 70 70 372 372 69 69 69 373 373 79 79 79 374 374 69 69 69 375 375 78 78 78 376 376 79 79 79 377 377 64 64 64 378 378 71 71 71 379 379 73 73 73 380 380 71 71 71 381 381 80 80 80 382 382 73 73 73 383 383 72 72 72 384 384 73 73 73 385 385 81 81 81 386 386 73 73 73 387 387 82 82 82 388 388 81 81 81 389 389 74 74 74 390 390 72 72 72 391 391 83 83 83 392 392 72 72 72 393 393 81 81 81 394 394 83 83 83 395 395 75 75 75 396 396 74 74 74 397 397 84 84 84 398 398 74 74 74 399 399 83 83 83 400 400 84 84 84 401 401 76 76 76 402 402 75 75 75 403 403 85 85 85 404 404 75 75 75 405 405 84 84 84 406 406 85 85 85 407 407 77 77 77 408 408 76 76 76 409 409 86 86 86 410 410 76 76 76 411 411 85 85 85 412 412 86 86 86 413 413 78 78 78 414 414 77 77 77 415 415 87 87 87 416 416 77 77 77 417 417 86 86 86 418 418 87 87 87 419 419 79 79 79 420 420 78 78 78 421 421 88 88 88 422 422 78 78 78 423 423 87 87 87 424 424 88 88 88 425 425 73 73 73 426 426 80 80 80 427 427 82 82 82 428 428 80 80 80 429 429 89 89 89 430 430 82 82 82 431 431 81 81 81 432 432 82 82 82 433 433 90 90 90 434 434 82 82 82 435 435 91 91 91 436 436 90 90 90 437 437 83 83 83 438 438 81 81 81 439 439 92 92 92 440 440 81 81 81 441 441 90 90 90 442 442 92 92 92 443 443 84 84 84 444 444 83 83 83 445 445 93 93 93 446 446 83 83 83 447 447 92 92 92 448 448 93 93 93 449 449 85 85 85 450 450 84 84 84 451 451 94 94 94 452 452 84 84 84 453 453 93 93 93 454 454 94 94 94 455 455 86 86 86 456 456 85 85 85 457 457 95 95 95 458 458 85 85 85 459 459 94 94 94 460 460 95 95 95 461 461 87 87 87 462 462 86 86 86 463 463 96 96 96 464 464 86 86 86 465 465 95 95 95 466 466 96 96 96 467 467 88 88 88 468 468 87 87 87 469 469 97 97 97 470 470 87 87 87 471 471 96 96 96 472 472 97 97 97 473 473 82 82 82 474 474 89 89 89 475 475 91 91 91 476 476 89 89 89 477 477 98 98 98 478 478 91 91 91 479 479 90 90 90 480 480 91 91 91 481 481 99 99 99 482 482 91 91 91 483 483 100 100 100 484 484 99 99 99 485 485 92 92 92 486 486 90 90 90 487 487 101 101 101 488 488 90 90 90 489 489 99 99 99 490 490 101 101 101 491 491 93 93 93 492 492 92 92 92 493 493 102 102 102 494 494 92 92 92 495 495 101 101 101 496 496 102 102 102 497 497 94 94 94 498 498 93 93 93 499 499 103 103 103 500 500 93 93 93 501 501 102 102 102 502 502 103 103 103 503 503 95 95 95 504 504 94 94 94 505 505 104 104 104 506 506 94 94 94 507 507 103 103 103 508 508 104 104 104 509 509 96 96 96 510 510 95 95 95 511 511 105 105 105 512 512 95 95 95 513 513 104 104 104 514 514 105 105 105 515 515 97 97 97 516 516 96 96 96 517 517 106 106 106 518 518 96 96 96 519 519 105 105 105 520 520 106 106 106 521 521 91 91 91 522 522 98 98 98 523 523 100 100 100 524 524 98 98 98 525 525 107 107 107 526 526 100 100 100 527 527 108 108 108 528 528 109 109 109 529 529 110 110 110 530 530 109 109 109 531 531 111 111 111 532 532 110 110 110 533 533 112 112 112 534 534 108 108 108 535 535 113 113 113 536 536 108 108 108 537 537 110 110 110 538 538 113 113 113 539 539 114 114 114 540 540 112 112 112 541 541 115 115 115 542 542 112 112 112 543 543 113 113 113 544 544 115 115 115 545 545 116 116 116 546 546 114 114 114 547 547 117 117 117 548 548 114 114 114 549 549 115 115 115 550 550 117 117 117 551 551 118 118 118 552 552 116 116 116 553 553 119 119 119 554 554 116 116 116 555 555 117 117 117 556 556 119 119 119 557 557 120 120 120 558 558 118 118 118 559 559 121 121 121 560 560 118 118 118 561 561 119 119 119 562 562 121 121 121 563 563 122 122 122 564 564 120 120 120 565 565 123 123 123 566 566 120 120 120 567 567 121 121 121 568 568 123 123 123 569 569 124 124 124 570 570 122 122 122 571 571 125 125 125 572 572 122 122 122 573 573 123 123 123 574 574 125 125 125 575 575 126 126 126 576 576 127 127 127 577 577 128 128 128 578 578 127 127 127 579 579 129 129 129 580 580 128 128 128 581 581 130 130 130 582 582 126 126 126 583 583 131 131 131 584 584 126 126 126 585 585 128 128 128 586 586 131 131 131 587 587 132 132 132 588 588 130 130 130 589 589 133 133 133 590 590 130 130 130 591 591 131 131 131 592 592 133 133 133 593 593 134 134 134 594 594 132 132 132 595 595 135 135 135 596 596 132 132 132 597 597 133 133 133 598 598 135 135 135 599 599 136 136 136 600 600 134 134 134 601 601 137 137 137 602 602 134 134 134 603 603 135 135 135 604 604 137 137 137 605 605 138 138 138 606 606 136 136 136 607 607 139 139 139 608 608 136 136 136 609 609 137 137 137 610 610 139 139 139 611 611 140 140 140 612 612 138 138 138 613 613 141 141 141 614 614 138 138 138 615 615 139 139 139 616 616 141 141 141 617 617 142 142 142 618 618 140 140 140 619 619 143 143 143 620 620 140 140 140 621 621 141 141 141 622 622 143 143 143 623 623 128 128 128 624 624 129 129 129 625 625 144 144 144 626 626 129 129 129 627 627 145 145 145 628 628 144 144 144 629 629 131 131 131 630 630 128 128 128 631 631 146 146 146 632 632 128 128 128 633 633 144 144 144 634 634 146 146 146 635 635 133 133 133 636 636 131 131 131 637 637 147 147 147 638 638 131 131 131 639 639 146 146 146 640 640 147 147 147 641 641 135 135 135 642 642 133 133 133 643 643 148 148 148 644 644 133 133 133 645 645 147 147 147 646 646 148 148 148 647 647 137 137 137 648 648 135 135 135 649 649 149 149 149 650 650 135 135 135 651 651 148 148 148 652 652 149 149 149 653 653 139 139 139 654 654 137 137 137 655 655 150 150 150 656 656 137 137 137 657 657 149 149 149 658 658 150 150 150 659 659 141 141 141 660 660 139 139 139 661 661 151 151 151 662 662 139 139 139 663 663 150 150 150 664 664 151 151 151 665 665 143 143 143 666 666 141 141 141 667 667 152 152 152 668 668 141 141 141 669 669 151 151 151 670 670 152 152 152 671 671 153 153 153 672 672 154 154 154 673 673 155 155 155 674 674 154 154 154 675 675 156 156 156 676 676 155 155 155 677 677 155 155 155 678 678 156 156 156 679 679 157 157 157 680 680 156 156 156 681 681 158 158 158 682 682 157 157 157 683 683 157 157 157 684 684 158 158 158 685 685 159 159 159 686 686 158 158 158 687 687 160 160 160 688 688 159 159 159 689 689 159 159 159 690 690 160 160 160 691 691 161 161 161 692 692 162 162 162 693 693 163 163 163 694 694 164 164 164 695 695 163 163 163 696 696 165 165 165 697 697 164 164 164 698 698 164 164 164 699 699 165 165 165 700 700 166 166 166 701 701 165 165 165 702 702 167 167 167 703 703 166 166 166 704 704 166 166 166 705 705 167 167 167 706 706 168 168 168 707 707 167 167 167 708 708 169 169 169 709 709 168 168 168 710 710 168 168 168 711 711 169 169 169 712 712 170 170 170 713 713 1 1 1 714 714 171 171 171 715 715 3 3 3 716 716 171 171 171 717 717 172 172 172 718 718 3 3 3 719 719 171 171 171 720 720 173 173 173 721 721 172 172 172 722 722 173 173 173 723 723 174 174 174 724 724 172 172 172 725 725 173 173 173 726 726 175 175 175 727 727 174 174 174 728 728 175 175 175 729 729 176 176 176 730 730 174 174 174 731 731 175 175 175 732 732 177 177 177 733 733 176 176 176 734 734 177 177 177 735 735 178 178 178 736 736 176 176 176 737 737 177 177 177 738 738 179 179 179 739 739 178 178 178 740 740 179 179 179 741 741 180 180 180 742 742 178 178 178 743 743 179 179 179 744 744 181 181 181 745 745 180 180 180 746 746 181 181 181 747 747 182 182 182 748 748 180 180 180 749 749 181 181 181 750 750 183 183 183 751 751 182 182 182 752 752 183 183 183 753 753 184 184 184 754 754 182 182 182 755 755 183 183 183 756 756 16 16 16 757 757 184 184 184 758 758 16 16 16 759 759 17 17 17 760 760 184 184 184 761 761 183 183 183 762 762 181 181 181 763 763 185 185 185 764 764 181 181 181 765 765 186 186 186 766 766 185 185 185 767 767 181 181 181 768 768 179 179 179 769 769 186 186 186 770 770 179 179 179 771 771 187 187 187 772 772 186 186 186 773 773 179 179 179 774 774 177 177 177 775 775 187 187 187 776 776 177 177 177 777 777 188 188 188 778 778 187 187 187 779 779 177 177 177 780 780 175 175 175 781 781 188 188 188 782 782 175 175 175 783 783 189 189 189 784 784 188 188 188 785 785 175 175 175 786 786 173 173 173 787 787 189 189 189 788 788 173 173 173 789 789 190 190 190 790 790 189 189 189 791 791 173 173 173 792 792 171 171 171 793 793 190 190 190 794 794 171 171 171 795 795 191 191 191 796 796 190 190 190 797 797 171 171 171 798 798 1 1 1 799 799 191 191 191 800 800 1 1 1 801 801 25 25 25 802 802 191 191 191 803 803 16 16 16 804 804 183 183 183 805 805 26 26 26 806 806 183 183 183 807 807 185 185 185 808 808 26 26 26 809 809 185 185 185 810 810 186 186 186 811 811 192 192 192 812 812 186 186 186 813 813 193 193 193 814 814 192 192 192 815 815 186 186 186 816 816 187 187 187 817 817 193 193 193 818 818 187 187 187 819 819 194 194 194 820 820 193 193 193 821 821 187 187 187 822 822 188 188 188 823 823 194 194 194 824 824 188 188 188 825 825 195 195 195 826 826 194 194 194 827 827 188 188 188 828 828 189 189 189 829 829 195 195 195 830 830 189 189 189 831 831 196 196 196 832 832 195 195 195 833 833 189 189 189 834 834 190 190 190 835 835 196 196 196 836 836 190 190 190 837 837 197 197 197 838 838 196 196 196 839 839 190 190 190 840 840 191 191 191 841 841 197 197 197 842 842 191 191 191 843 843 198 198 198 844 844 197 197 197 845 845 191 191 191 846 846 25 25 25 847 847 198 198 198 848 848 25 25 25 849 849 34 34 34 850 850 198 198 198 851 851 26 26 26 852 852 185 185 185 853 853 35 35 35 854 854 185 185 185 855 855 192 192 192 856 856 35 35 35 857 857 192 192 192 858 858 193 193 193 859 859 199 199 199 860 860 193 193 193 861 861 200 200 200 862 862 199 199 199 863 863 193 193 193 864 864 194 194 194 865 865 200 200 200 866 866 194 194 194 867 867 201 201 201 868 868 200 200 200 869 869 194 194 194 870 870 195 195 195 871 871 201 201 201 872 872 195 195 195 873 873 202 202 202 874 874 201 201 201 875 875 195 195 195 876 876 196 196 196 877 877 202 202 202 878 878 196 196 196 879 879 203 203 203 880 880 202 202 202 881 881 196 196 196 882 882 197 197 197 883 883 203 203 203 884 884 197 197 197 885 885 204 204 204 886 886 203 203 203 887 887 197 197 197 888 888 198 198 198 889 889 204 204 204 890 890 198 198 198 891 891 205 205 205 892 892 204 204 204 893 893 198 198 198 894 894 34 34 34 895 895 205 205 205 896 896 34 34 34 897 897 43 43 43 898 898 205 205 205 899 899 35 35 35 900 900 192 192 192 901 901 44 44 44 902 902 192 192 192 903 903 199 199 199 904 904 44 44 44 905 905 199 199 199 906 906 200 200 200 907 907 206 206 206 908 908 200 200 200 909 909 207 207 207 910 910 206 206 206 911 911 200 200 200 912 912 201 201 201 913 913 207 207 207 914 914 201 201 201 915 915 208 208 208 916 916 207 207 207 917 917 201 201 201 918 918 202 202 202 919 919 208 208 208 920 920 202 202 202 921 921 209 209 209 922 922 208 208 208 923 923 202 202 202 924 924 203 203 203 925 925 209 209 209 926 926 203 203 203 927 927 210 210 210 928 928 209 209 209 929 929 203 203 203 930 930 204 204 204 931 931 210 210 210 932 932 204 204 204 933 933 211 211 211 934 934 210 210 210 935 935 204 204 204 936 936 205 205 205 937 937 211 211 211 938 938 205 205 205 939 939 212 212 212 940 940 211 211 211 941 941 205 205 205 942 942 43 43 43 943 943 212 212 212 944 944 43 43 43 945 945 52 52 52 946 946 212 212 212 947 947 44 44 44 948 948 199 199 199 949 949 53 53 53 950 950 199 199 199 951 951 206 206 206 952 952 53 53 53 953 953 206 206 206 954 954 207 207 207 955 955 213 213 213 956 956 207 207 207 957 957 214 214 214 958 958 213 213 213 959 959 207 207 207 960 960 208 208 208 961 961 214 214 214 962 962 208 208 208 963 963 215 215 215 964 964 214 214 214 965 965 208 208 208 966 966 209 209 209 967 967 215 215 215 968 968 209 209 209 969 969 216 216 216 970 970 215 215 215 971 971 209 209 209 972 972 210 210 210 973 973 216 216 216 974 974 210 210 210 975 975 217 217 217 976 976 216 216 216 977 977 210 210 210 978 978 211 211 211 979 979 217 217 217 980 980 211 211 211 981 981 218 218 218 982 982 217 217 217 983 983 211 211 211 984 984 212 212 212 985 985 218 218 218 986 986 212 212 212 987 987 219 219 219 988 988 218 218 218 989 989 212 212 212 990 990 52 52 52 991 991 219 219 219 992 992 52 52 52 993 993 61 61 61 994 994 219 219 219 995 995 53 53 53 996 996 206 206 206 997 997 62 62 62 998 998 206 206 206 999 999 213 213 213 1000 1000 62 62 62 1001 1001 213 213 213 1002 1002 214 214 214 1003 1003 220 220 220 1004 1004 214 214 214 1005 1005 221 221 221 1006 1006 220 220 220 1007 1007 214 214 214 1008 1008 215 215 215 1009 1009 221 221 221 1010 1010 215 215 215 1011 1011 222 222 222 1012 1012 221 221 221 1013 1013 215 215 215 1014 1014 216 216 216 1015 1015 222 222 222 1016 1016 216 216 216 1017 1017 223 223 223 1018 1018 222 222 222 1019 1019 216 216 216 1020 1020 217 217 217 1021 1021 223 223 223 1022 1022 217 217 217 1023 1023 224 224 224 1024 1024 223 223 223 1025 1025 217 217 217 1026 1026 218 218 218 1027 1027 224 224 224 1028 1028 218 218 218 1029 1029 225 225 225 1030 1030 224 224 224 1031 1031 218 218 218 1032 1032 219 219 219 1033 1033 225 225 225 1034 1034 219 219 219 1035 1035 226 226 226 1036 1036 225 225 225 1037 1037 219 219 219 1038 1038 61 61 61 1039 1039 226 226 226 1040 1040 61 61 61 1041 1041 70 70 70 1042 1042 226 226 226 1043 1043 62 62 62 1044 1044 213 213 213 1045 1045 71 71 71 1046 1046 213 213 213 1047 1047 220 220 220 1048 1048 71 71 71 1049 1049 220 220 220 1050 1050 221 221 221 1051 1051 227 227 227 1052 1052 221 221 221 1053 1053 228 228 228 1054 1054 227 227 227 1055 1055 221 221 221 1056 1056 222 222 222 1057 1057 228 228 228 1058 1058 222 222 222 1059 1059 229 229 229 1060 1060 228 228 228 1061 1061 222 222 222 1062 1062 223 223 223 1063 1063 229 229 229 1064 1064 223 223 223 1065 1065 230 230 230 1066 1066 229 229 229 1067 1067 223 223 223 1068 1068 224 224 224 1069 1069 230 230 230 1070 1070 224 224 224 1071 1071 231 231 231 1072 1072 230 230 230 1073 1073 224 224 224 1074 1074 225 225 225 1075 1075 231 231 231 1076 1076 225 225 225 1077 1077 232 232 232 1078 1078 231 231 231 1079 1079 225 225 225 1080 1080 226 226 226 1081 1081 232 232 232 1082 1082 226 226 226 1083 1083 233 233 233 1084 1084 232 232 232 1085 1085 226 226 226 1086 1086 70 70 70 1087 1087 233 233 233 1088 1088 70 70 70 1089 1089 79 79 79 1090 1090 233 233 233 1091 1091 71 71 71 1092 1092 220 220 220 1093 1093 80 80 80 1094 1094 220 220 220 1095 1095 227 227 227 1096 1096 80 80 80 1097 1097 227 227 227 1098 1098 228 228 228 1099 1099 234 234 234 1100 1100 228 228 228 1101 1101 235 235 235 1102 1102 234 234 234 1103 1103 228 228 228 1104 1104 229 229 229 1105 1105 235 235 235 1106 1106 229 229 229 1107 1107 236 236 236 1108 1108 235 235 235 1109 1109 229 229 229 1110 1110 230 230 230 1111 1111 236 236 236 1112 1112 230 230 230 1113 1113 237 237 237 1114 1114 236 236 236 1115 1115 230 230 230 1116 1116 231 231 231 1117 1117 237 237 237 1118 1118 231 231 231 1119 1119 238 238 238 1120 1120 237 237 237 1121 1121 231 231 231 1122 1122 232 232 232 1123 1123 238 238 238 1124 1124 232 232 232 1125 1125 239 239 239 1126 1126 238 238 238 1127 1127 232 232 232 1128 1128 233 233 233 1129 1129 239 239 239 1130 1130 233 233 233 1131 1131 240 240 240 1132 1132 239 239 239 1133 1133 233 233 233 1134 1134 79 79 79 1135 1135 240 240 240 1136 1136 79 79 79 1137 1137 88 88 88 1138 1138 240 240 240 1139 1139 80 80 80 1140 1140 227 227 227 1141 1141 89 89 89 1142 1142 227 227 227 1143 1143 234 234 234 1144 1144 89 89 89 1145 1145 234 234 234 1146 1146 235 235 235 1147 1147 241 241 241 1148 1148 235 235 235 1149 1149 242 242 242 1150 1150 241 241 241 1151 1151 235 235 235 1152 1152 236 236 236 1153 1153 242 242 242 1154 1154 236 236 236 1155 1155 243 243 243 1156 1156 242 242 242 1157 1157 236 236 236 1158 1158 237 237 237 1159 1159 243 243 243 1160 1160 237 237 237 1161 1161 244 244 244 1162 1162 243 243 243 1163 1163 237 237 237 1164 1164 238 238 238 1165 1165 244 244 244 1166 1166 238 238 238 1167 1167 245 245 245 1168 1168 244 244 244 1169 1169 238 238 238 1170 1170 239 239 239 1171 1171 245 245 245 1172 1172 239 239 239 1173 1173 246 246 246 1174 1174 245 245 245 1175 1175 239 239 239 1176 1176 240 240 240 1177 1177 246 246 246 1178 1178 240 240 240 1179 1179 247 247 247 1180 1180 246 246 246 1181 1181 240 240 240 1182 1182 88 88 88 1183 1183 247 247 247 1184 1184 88 88 88 1185 1185 97 97 97 1186 1186 247 247 247 1187 1187 89 89 89 1188 1188 234 234 234 1189 1189 98 98 98 1190 1190 234 234 234 1191 1191 241 241 241 1192 1192 98 98 98 1193 1193 241 241 241 1194 1194 242 242 242 1195 1195 248 248 248 1196 1196 242 242 242 1197 1197 249 249 249 1198 1198 248 248 248 1199 1199 242 242 242 1200 1200 243 243 243 1201 1201 249 249 249 1202 1202 243 243 243 1203 1203 250 250 250 1204 1204 249 249 249 1205 1205 243 243 243 1206 1206 244 244 244 1207 1207 250 250 250 1208 1208 244 244 244 1209 1209 251 251 251 1210 1210 250 250 250 1211 1211 244 244 244 1212 1212 245 245 245 1213 1213 251 251 251 1214 1214 245 245 245 1215 1215 252 252 252 1216 1216 251 251 251 1217 1217 245 245 245 1218 1218 246 246 246 1219 1219 252 252 252 1220 1220 246 246 246 1221 1221 253 253 253 1222 1222 252 252 252 1223 1223 246 246 246 1224 1224 247 247 247 1225 1225 253 253 253 1226 1226 247 247 247 1227 1227 254 254 254 1228 1228 253 253 253 1229 1229 247 247 247 1230 1230 97 97 97 1231 1231 254 254 254 1232 1232 97 97 97 1233 1233 106 106 106 1234 1234 254 254 254 1235 1235 98 98 98 1236 1236 241 241 241 1237 1237 107 107 107 1238 1238 241 241 241 1239 1239 248 248 248 1240 1240 107 107 107 1241 1241 109 109 109 1242 1242 255 255 255 1243 1243 111 111 111 1244 1244 255 255 255 1245 1245 256 256 256 1246 1246 111 111 111 1247 1247 255 255 255 1248 1248 257 257 257 1249 1249 256 256 256 1250 1250 257 257 257 1251 1251 258 258 258 1252 1252 256 256 256 1253 1253 257 257 257 1254 1254 259 259 259 1255 1255 258 258 258 1256 1256 259 259 259 1257 1257 260 260 260 1258 1258 258 258 258 1259 1259 259 259 259 1260 1260 261 261 261 1261 1261 260 260 260 1262 1262 261 261 261 1263 1263 262 262 262 1264 1264 260 260 260 1265 1265 261 261 261 1266 1266 263 263 263 1267 1267 262 262 262 1268 1268 263 263 263 1269 1269 264 264 264 1270 1270 262 262 262 1271 1271 263 263 263 1272 1272 265 265 265 1273 1273 264 264 264 1274 1274 265 265 265 1275 1275 266 266 266 1276 1276 264 264 264 1277 1277 265 265 265 1278 1278 267 267 267 1279 1279 266 266 266 1280 1280 267 267 267 1281 1281 268 268 268 1282 1282 266 266 266 1283 1283 267 267 267 1284 1284 124 124 124 1285 1285 268 268 268 1286 1286 124 124 124 1287 1287 125 125 125 1288 1288 268 268 268 1289 1289 127 127 127 1290 1290 269 269 269 1291 1291 129 129 129 1292 1292 269 269 269 1293 1293 270 270 270 1294 1294 129 129 129 1295 1295 269 269 269 1296 1296 271 271 271 1297 1297 270 270 270 1298 1298 271 271 271 1299 1299 272 272 272 1300 1300 270 270 270 1301 1301 271 271 271 1302 1302 273 273 273 1303 1303 272 272 272 1304 1304 273 273 273 1305 1305 274 274 274 1306 1306 272 272 272 1307 1307 273 273 273 1308 1308 275 275 275 1309 1309 274 274 274 1310 1310 275 275 275 1311 1311 276 276 276 1312 1312 274 274 274 1313 1313 275 275 275 1314 1314 277 277 277 1315 1315 276 276 276 1316 1316 277 277 277 1317 1317 278 278 278 1318 1318 276 276 276 1319 1319 277 277 277 1320 1320 279 279 279 1321 1321 278 278 278 1322 1322 279 279 279 1323 1323 280 280 280 1324 1324 278 278 278 1325 1325 279 279 279 1326 1326 281 281 281 1327 1327 280 280 280 1328 1328 281 281 281 1329 1329 282 282 282 1330 1330 280 280 280 1331 1331 281 281 281 1332 1332 142 142 142 1333 1333 282 282 282 1334 1334 142 142 142 1335 1335 143 143 143 1336 1336 282 282 282 1337 1337 129 129 129 1338 1338 270 270 270 1339 1339 145 145 145 1340 1340 270 270 270 1341 1341 283 283 283 1342 1342 145 145 145 1343 1343 270 270 270 1344 1344 272 272 272 1345 1345 283 283 283 1346 1346 272 272 272 1347 1347 284 284 284 1348 1348 283 283 283 1349 1349 272 272 272 1350 1350 274 274 274 1351 1351 284 284 284 1352 1352 274 274 274 1353 1353 285 285 285 1354 1354 284 284 284 1355 1355 274 274 274 1356 1356 276 276 276 1357 1357 285 285 285 1358 1358 276 276 276 1359 1359 286 286 286 1360 1360 285 285 285 1361 1361 276 276 276 1362 1362 278 278 278 1363 1363 286 286 286 1364 1364 278 278 278 1365 1365 287 287 287 1366 1366 286 286 286 1367 1367 278 278 278 1368 1368 280 280 280 1369 1369 287 287 287 1370 1370 280 280 280 1371 1371 288 288 288 1372 1372 287 287 287 1373 1373 280 280 280 1374 1374 282 282 282 1375 1375 288 288 288 1376 1376 282 282 282 1377 1377 289 289 289 1378 1378 288 288 288 1379 1379 282 282 282 1380 1380 143 143 143 1381 1381 289 289 289 1382 1382 143 143 143 1383 1383 152 152 152 1384 1384 289 289 289 1385 1385 154 154 154 1386 1386 153 153 153 1387 1387 290 290 290 1388 1388 153 153 153 1389 1389 291 291 291 1390 1390 290 290 290 1391 1391 290 290 290 1392 1392 291 291 291 1393 1393 292 292 292 1394 1394 291 291 291 1395 1395 293 293 293 1396 1396 292 292 292 1397 1397 292 292 292 1398 1398 293 293 293 1399 1399 294 294 294 1400 1400 293 293 293 1401 1401 295 295 295 1402 1402 294 294 294 1403 1403 294 294 294 1404 1404 295 295 295 1405 1405 296 296 296 1406 1406 297 297 297 1407 1407 162 162 162 1408 1408 298 298 298 1409 1409 162 162 162 1410 1410 164 164 164 1411 1411 298 298 298 1412 1412 298 298 298 1413 1413 164 164 164 1414 1414 299 299 299 1415 1415 164 164 164 1416 1416 300 300 300 1417 1417 299 299 299 1418 1418 299 299 299 1419 1419 300 300 300 1420 1420 301 301 301 1421 1421 300 300 300 1422 1422 302 302 302 1423 1423 301 301 301 1424 1424 301 301 301 1425 1425 302 302 302 1426 1426 303 303 303 1427 1427</p>
        </triangles>
      </mesh>
    </geometry>
  </library_geometries>
  <library_controllers>
    <controller id="skinU3D_id" name="skinU3D">
      <skin source="#geomU3D_id">
        <bind_shape_matrix>1 0 0 0 0 1 0 0 0 0 1 0 0 0 0 1</bind_shape_matrix>
        <source id="skinU3D_id-joints">
          <Name_array id="skinU3D_id-joints-array" count="1">Body_id</Name_array>
          <technique_common>
            <accessor source="#skinU3D_id-joints-array" count="1" stride="1">
              <param name="JOINT" type="Name"/>
            </accessor>
          </technique_common>
        </source>
        <source id="skinU3D_id-bind_poses">
          <float_array id="skinU3D_id-bind_poses-array" count="16">1 0 0 0 0 1 0 0 0 0 1 0 0 0 0 1</float_array>
          <technique_common>
            <accessor source="#skinU3D_id-bind_poses-array" count="1" stride="16">
              <param name="TRANSFORM" type="float4x4"/>
            </accessor>
          </technique_common>
        </source>
        <source id="skinU3D_id-weights">
          <float_array id="skinU3D_id-weights-array" count="1">1</float_array>
          <technique_common>
            <accessor source="#skinU3D_id-weights-array" count="1" stride="1">
              <param name="WEIGHT" type="float"/>
            </accessor>
          </technique_common>
        </source>
        <joints>
          <input semantic="JOINT" source="#skinU3D_id-joints"/>
          <input semantic="INV_BIND_MATRIX" source="#skinU3D_id-bind_poses"/>
        </joints>
        <vertex_weights count="304">
          <input semantic="JOINT" source="#skinU3D_id-joints" offset="0"/>
          <input semantic="WEIGHT" source="#skinU3D_id-weights" offset="1"/>
          <vcount>1 1 1 1 1 1 1 1 1 1 1 1 1 1 1 1 1 1 1 1 1 1 1 1 1 1 1 1 1 1 1 1 1 1 1 1 1 1 1 1 1 1 1 1 1 1 1 1 1 1 1 1 1 1 1 1 1 1 1 1 1 1 1 1 1 1 1 1 1 1 1 1 1 1 1 1 1 1 1 1 1 1 1 1 1 1 1 1 1 1 1 1 1 1 1 1 1 1 1 1 1 1 1 1 1 1 1 1 1 1 1 1 1 1 1 1 1 1 1 1 1 1 1 1 1 1 1 1 1 1 1 1 1 1 1 1 1 1 1 1 1 1 1 1 1 1 1 1 1 1 1 1 1 1 1 1 1 1 1 1 1 1 1 1 1 1 1 1 1 1 1 1 1 1 1 1 1 1 1 1 1 1 1 1 1 1 1 1 1 1 1 1 1 1 1 1 1 1 1 1 1 1 1 1 1 1 1 1 1 1 1 1 1 1 1 1 1 1 1 1 1 1 1 1 1 1 1 1 1 1 1 1 1 1 1 1 1 1 1 1 1 1 1 1 1 1 1 1 1 1 1 1 1 1 1 1 1 1 1 1 1 1 1 1 1 1 1 1 1 1 1 1 1 1 1 1 1 1 1 1 1 1 1 1 1 1 1 1 1 1 1 1 1 1 1 1 1 1 1 1 1 1 1 1 </vcount>
          <v>0 0 0 0 0 0 0 0 0 0 0 0 0 0 0 0 0 0 0 0 0 0 0 0 0 0 0 0 0 0 0 0 0 0 0 0 0 0 0 0 0 0 0 0 0 0 0 0 0 0 0 0 0 0 0 0 0 0 0 0 0 0 0 0 0 0 0 0 0 0 0 0 0 0 0 0 0 0 0 0 0 0 0 0 0 0 0 0 0 0 0 0 0 0 0 0 0 0 0 0 0 0 0 0 0 0 0 0 0 0 0 0 0 0 0 0 0 0 0 0 0 0 0 0 0 0 0 0 0 0 0 0 0 0 0 0 0 0 0 0 0 0 0 0 0 0 0 0 0 0 0 0 0 0 0 0 0 0 0 0 0 0 0 0 0 0 0 0 0 0 0 0 0 0 0 0 0 0 0 0 0 0 0 0 0 0 0 0 0 0 0 0 0 0 0 0 0 0 0 0 0 0 0 0 0 0 0 0 0 0 0 0 0 0 0 0 0 0 0 0 0 0 0 0 0 0 0 0 0 0 0 0 0 0 0 0 0 0 0 0 0 0 0 0 0 0 0 0 0 0 0 0 0 0 0 0 0 0 0 0 0 0 0 0 0 0 0 0 0 0 0 0 0 0 0 0 0 0 0 0 0 0 0 0 0 0 0 0 0 0 0 0 0 0 0 0 0 0 0 0 0 0 0 0 0 0 0 0 0 0 0 0 0 0 0 0 0 0 0 0 0 0 0 0 0 0 0 0 0 0 0 0 0 0 0 0 0 0 0 0 0 0 0 0 0 0 0 0 0 0 0 0 0 0 0 0 0 0 0 0 0 0 0 0 0 0 0 0 0 0 0 0 0 0 0 0 0 0 0 0 0 0 0 0 0 0 0 0 0 0 0 0 0 0 0 0 0 0 0 0 0 0 0 0 0 0 0 0 0 0 0 0 0 0 0 0 0 0 0 0 0 0 0 0 0 0 0 0 0 0 0 0 0 0 0 0 0 0 0 0 0 0 0 0 0 0 0 0 0 0 0 0 0 0 0 0 0 0 0 0 0 0 0 0 0 0 0 0 0 0 0 0 0 0 0 0 0 0 0 0 0 0 0 0 0 0 0 0 0 0 0 0 0 0 0 0 0 0 0 0 0 0 0 0 0 0 0 0 0 0 0 0 0 0 0 0 0 0 0 0 0 0 0 0 0 0 0 0 0 0 0 0 0 0 0 0 0 0 0 0 0 0 0 0 0 0 0 0 0 0 0 0 0 0 0 0 0 0 0 0 0 0 0 0 0 0 0 0 0 0 0 0 0 0 0 0 0 0 0 0 0 0 0 0 0 0 0 0 0 0 0 0 0 0 0 0 0 0 0 0 0 0 0 0 0 0 0 0</v>
        </vertex_weights>
      </skin>
    </controller>
  </library_controllers>
  <library_visual_scenes>
    <visual_scene id="VisualSceneNode" name="rootU3D">
      <node id="Body_id" name="Body" sid="Body_id" type="JOINT">
        <translate>0 0 0</translate>
        <rotate sid="rotateZ">0 0 1 0</rotate>
        <rotate sid="rotateY">0 1 0 0</rotate>
        <rotate sid="rotateX">1 0 0 0</rotate>
        <scale>1 1 1</scale>
      </node>
      <node id="bowl_id" name="bowl" type="JOINT">
        <translate>0 0 0</translate>
        <rotate sid="rotateZ">0 0 1 0</rotate>
        <rotate sid="rotateY">0 1 0 0</rotate>
        <rotate sid="rotateX">1 0 0 0</rotate>
        <scale>1 1 1</scale>
      </node>
      <node id="meshU3D_id" name="meshU3D" type="NODE">
        <translate>0 0 0</translate>
        <rotate>1 0 0 0</rotate>
        <scale>1 1 1</scale>
        <instance_controller url="#skinU3D_id">
          <skeleton>#Body_id</skeleton>
          <bind_material>
            <technique_common>
              <instance_material symbol="VisualMaterialVisualMaterial" target="#VisualMaterial">
                <bind_vertex_input semantic="UVSET0" input_semantic="TEXCOORD" input_set="0"/>
              </instance_material>
            </technique_common>
          </bind_material>
        </instance_controller>
      </node>
      <extra>
        <technique profile="MAX3D">
          <frame_rate>30</frame_rate>
        </technique>
        <technique profile="MAYA">
          <start_time>0</start_time>
          <end_time>1</end_time>
        </technique>
      </extra>
    </visual_scene>
  </library_visual_scenes>
  <scene>
    <instance_visual_scene url="#VisualSceneNode"/>
  </scene>
</COLLADA>
