xof 0303txt 0032

// DirectX 9.0 file
// Creator: Ultimate Unwrap3D Pro v3.19
// Website: http://www.unwrap3d.com
// Time: Thu Dec 10 21:27:34 2009

// Start of Templates

template VertexDuplicationIndices {
 <b8d65549-d7c9-4995-89cf-53a9a8b031e3>
 DWORD nIndices;
 DWORD nOriginalVertices;
 array DWORD indices[nIndices];
}

template FVFData {
 <b6e70a0e-8ef9-4e83-94ad-ecc8b0c04897>
 DWORD dwFVF;
 DWORD nDWords;
 array DWORD data[nDWords];
}

template Header {
 <3D82AB43-62DA-11cf-AB39-0020AF71E433>
 WORD major;
 WORD minor;
 DWORD flags;
}

template Vector {
 <3D82AB5E-62DA-11cf-AB39-0020AF71E433>
 FLOAT x;
 FLOAT y;
 FLOAT z;
}

template Coords2d {
 <F6F23F44-7686-11cf-8F52-0040333594A3>
 FLOAT u;
 FLOAT v;
}

template Matrix4x4 {
 <F6F23F45-7686-11cf-8F52-0040333594A3>
 array FLOAT matrix[16];
}

template ColorRGBA {
 <35FF44E0-6C7C-11cf-8F52-0040333594A3>
 FLOAT red;
 FLOAT green;
 FLOAT blue;
 FLOAT alpha;
}

template ColorRGB {
 <D3E16E81-7835-11cf-8F52-0040333594A3>
 FLOAT red;
 FLOAT green;
 FLOAT blue;
}

template IndexedColor {
 <1630B820-7842-11cf-8F52-0040333594A3>
 DWORD index;
 ColorRGBA indexColor;
}

template Material {
 <3D82AB4D-62DA-11cf-AB39-0020AF71E433>
 ColorRGBA faceColor;
 FLOAT power;
 ColorRGB specularColor;
 ColorRGB emissiveColor;
 [...]
}

template TextureFilename {
 <A42790E1-7810-11cf-8F52-0040333594A3>
 STRING filename;
}

template MeshFace {
 <3D82AB5F-62DA-11cf-AB39-0020AF71E433>
 DWORD nFaceVertexIndices;
 array DWORD faceVertexIndices[nFaceVertexIndices];
}

template MeshTextureCoords {
 <F6F23F40-7686-11cf-8F52-0040333594A3>
 DWORD nTextureCoords;
 array Coords2d textureCoords[nTextureCoords];
}

template MeshMaterialList {
 <F6F23F42-7686-11cf-8F52-0040333594A3>
 DWORD nMaterials;
 DWORD nFaceIndexes;
 array DWORD faceIndexes[nFaceIndexes];
 [Material]
}

template MeshNormals {
 <F6F23F43-7686-11cf-8F52-0040333594A3>
 DWORD nNormals;
 array Vector normals[nNormals];
 DWORD nFaceNormals;
 array MeshFace faceNormals[nFaceNormals];
}

template MeshVertexColors {
 <1630B821-7842-11cf-8F52-0040333594A3>
 DWORD nVertexColors;
 array IndexedColor vertexColors[nVertexColors];
}

template Mesh {
 <3D82AB44-62DA-11cf-AB39-0020AF71E433>
 DWORD nVertices;
 array Vector vertices[nVertices];
 DWORD nFaces;
 array MeshFace faces[nFaces];
 [...]
}

template FrameTransformMatrix {
 <F6F23F41-7686-11cf-8F52-0040333594A3>
 Matrix4x4 frameMatrix;
}

template Frame {
 <3D82AB46-62DA-11cf-AB39-0020AF71E433>
 [...]
}

template FloatKeys {
 <10DD46A9-775B-11cf-8F52-0040333594A3>
 DWORD nValues;
 array FLOAT values[nValues];
}

template TimedFloatKeys {
 <F406B180-7B3B-11cf-8F52-0040333594A3>
 DWORD time;
 FloatKeys tfkeys;
}

template AnimationKey {
 <10DD46A8-775B-11cf-8F52-0040333594A3>
 DWORD keyType;
 DWORD nKeys;
 array TimedFloatKeys keys[nKeys];
}

template AnimationOptions {
 <E2BF56C0-840F-11cf-8F52-0040333594A3>
 DWORD openclosed;
 DWORD positionquality;
}

template Animation {
 <3D82AB4F-62DA-11cf-AB39-0020AF71E433>
 [...]
}

template AnimationSet {
 <3D82AB50-62DA-11cf-AB39-0020AF71E433>
 [Animation]
}

template XSkinMeshHeader {
 <3CF169CE-FF7C-44ab-93C0-F78F62D172E2>
 WORD nMaxSkinWeightsPerVertex;
 WORD nMaxSkinWeightsPerFace;
 WORD nBones;
}

template SkinWeights {
 <6F0D123B-BAD2-4167-A0D0-80224F25FABB>
 STRING transformNodeName;
 DWORD nWeights;
 array DWORD vertexIndices[nWeights];
 array FLOAT weights[nWeights];
 Matrix4x4 matrixOffset;
}

template AnimTicksPerSecond {
 <9E415A43-7BA6-4a73-8743-B73D47E88476>
 DWORD AnimTicksPerSecond;
}

AnimTicksPerSecond {
 30;
}

// Start of Frames

   Frame U3DMesh {
      FrameTransformMatrix {
       1.000000, 0.000000, 0.000000, 0.000000,
       0.000000, 1.000000, 0.000000, 0.000000,
       0.000000, 0.000000, 1.000000, 0.000000,
       0.000000, 0.000000, 0.000000, 1.000000;;
      }

   }

   Frame Body {
      FrameTransformMatrix {
       1.000000, 0.000000, 0.000000, 0.000000,
       0.000000, 1.000000, 0.000000, 0.000000,
       0.000000, 0.000000, 1.000000, 0.000000,
       0.000000, 0.000000, 0.000000, 1.000000;;
      }

      Mesh skinnedMesh {
       130;
       0.000000; 8.898401; 0.000000;,
       1.552700; 8.589602; 0.000000;,
       1.434500; 8.589602; -0.594093;,
       1.097900; 8.589602; -1.097900;,
       0.594200; 8.589602; -1.434395;,
       0.000000; 8.589602; -1.552597;,
       -0.594200; 8.589602; -1.434395;,
       -1.097900; 8.589602; -1.097900;,
       -1.434500; 8.589602; -0.594093;,
       -1.552601; 8.589602; 0.000000;,
       -1.434500; 8.589602; 0.594200;,
       -1.097900; 8.589602; 1.097900;,
       -0.594200; 8.589602; 1.434502;,
       0.000000; 8.589602; 1.552704;,
       0.594200; 8.589602; 1.434502;,
       1.097900; 8.589602; 1.097900;,
       1.434500; 8.589602; 0.594200;,
       2.650600; 7.710100; -1.097900;,
       2.868999; 7.710100; 0.000000;,
       2.028700; 7.710100; -2.028595;,
       1.097900; 7.710100; -2.650497;,
       0.000000; 7.710100; -2.868896;,
       -1.097900; 7.710100; -2.650497;,
       -2.028601; 7.710100; -2.028595;,
       -2.650499; 7.710100; -1.097900;,
       -2.868900; 7.710100; 0.000000;,
       -2.650499; 7.710100; 1.097900;,
       -2.028601; 7.710100; 2.028702;,
       -1.097900; 7.710100; 2.650604;,
       0.000000; 7.710100; 2.869003;,
       1.097900; 7.710100; 2.650604;,
       2.028700; 7.710100; 2.028702;,
       2.650600; 7.710100; 1.097900;,
       3.463100; 6.393801; -1.434395;,
       3.748501; 6.393801; 0.000000;,
       2.650600; 6.393801; -2.650497;,
       1.434500; 6.393801; -3.463097;,
       0.000000; 6.393801; -3.748398;,
       -1.434500; 6.393801; -3.463097;,
       -2.650499; 6.393801; -2.650497;,
       -3.463100; 6.393801; -1.434395;,
       -3.748400; 6.393801; 0.000000;,
       -3.463100; 6.393801; 1.434502;,
       -2.650499; 6.393801; 2.650604;,
       -1.434500; 6.393801; 3.463104;,
       0.000000; 6.393801; 3.748505;,
       1.434500; 6.393801; 3.463104;,
       2.650600; 6.393801; 2.650604;,
       3.463100; 6.393801; 1.434502;,
       3.748501; 4.841101; -1.552597;,
       4.057301; 4.841101; 0.000000;,
       2.868999; 4.841101; -2.868896;,
       1.552700; 4.841101; -3.748398;,
       0.000000; 4.841101; -4.057297;,
       -1.552601; 4.841101; -3.748398;,
       -2.868900; 4.841101; -2.868896;,
       -3.748400; 4.841101; -1.552597;,
       -4.057301; 4.841101; 0.000000;,
       -3.748400; 4.841101; 1.552704;,
       -2.868900; 4.841101; 2.869003;,
       -1.552601; 4.841101; 3.748505;,
       0.000000; 4.841101; 4.057304;,
       1.552700; 4.841101; 3.748505;,
       2.868999; 4.841101; 2.869003;,
       3.748501; 4.841101; 1.552704;,
       3.463100; 3.288401; -1.434395;,
       3.748501; 3.288401; 0.000000;,
       2.650600; 3.288401; -2.650497;,
       1.434500; 3.288401; -3.463097;,
       0.000000; 3.288401; -3.748398;,
       -1.434500; 3.288401; -3.463097;,
       -2.650499; 3.288401; -2.650497;,
       -3.463100; 3.288401; -1.434395;,
       -3.748400; 3.288401; 0.000000;,
       -3.463100; 3.288401; 1.434502;,
       -2.650499; 3.288401; 2.650604;,
       -1.434500; 3.288401; 3.463104;,
       0.000000; 3.288401; 3.748505;,
       1.434500; 3.288401; 3.463104;,
       2.650600; 3.288401; 2.650604;,
       3.463100; 3.288401; 1.434502;,
       2.650600; 1.972200; -1.097900;,
       2.868999; 1.972200; 0.000000;,
       2.028700; 1.972200; -2.028595;,
       1.097900; 1.972200; -2.650497;,
       0.000000; 1.972200; -2.868896;,
       -1.097900; 1.972200; -2.650497;,
       -2.028601; 1.972200; -2.028595;,
       -2.650499; 1.972200; -1.097900;,
       -2.868900; 1.972200; 0.000000;,
       -2.650499; 1.972200; 1.097900;,
       -2.028601; 1.972200; 2.028702;,
       -1.097900; 1.972200; 2.650604;,
       0.000000; 1.972200; 2.869003;,
       1.097900; 1.972200; 2.650604;,
       2.028700; 1.972200; 2.028702;,
       2.650600; 1.972200; 1.097900;,
       1.458500; 0.308802; -0.594093;,
       1.576700; 0.308802; 0.000000;,
       1.121901; 0.308802; -1.097900;,
       0.618200; 0.308802; -1.434395;,
       0.024000; 0.308802; -1.552597;,
       -0.570200; 0.308802; -1.434395;,
       -1.073900; 0.308802; -1.097900;,
       -1.410500; 0.308802; -0.594093;,
       -1.528601; 0.308802; 0.000000;,
       -1.410500; 0.308802; 0.594200;,
       -1.073900; 0.308802; 1.097900;,
       -0.570200; 0.308802; 1.434502;,
       0.024000; 0.308802; 1.552704;,
       0.618200; 0.308802; 1.434502;,
       1.121901; 0.308802; 1.097900;,
       1.458500; 0.308802; 0.594200;,
       1.576700; 0.308802; 0.000000;,
       0.024000; 0.000000; 0.000000;,
       1.458500; 0.308802; -0.594093;,
       1.121901; 0.308802; -1.097900;,
       0.618200; 0.308802; -1.434395;,
       0.024000; 0.308802; -1.552597;,
       -0.570200; 0.308802; -1.434395;,
       -1.073900; 0.308802; -1.097900;,
       -1.410500; 0.308802; -0.594093;,
       -1.528601; 0.308802; 0.000000;,
       -1.410500; 0.308802; 0.594200;,
       -1.073900; 0.308802; 1.097900;,
       -0.570200; 0.308802; 1.434502;,
       0.024000; 0.308802; 1.552704;,
       0.618200; 0.308802; 1.434502;,
       1.121901; 0.308802; 1.097900;,
       1.458500; 0.308802; 0.594200;;
       224;
       3;0, 1, 2;,
       3;0, 2, 3;,
       3;0, 3, 4;,
       3;0, 4, 5;,
       3;0, 5, 6;,
       3;0, 6, 7;,
       3;0, 7, 8;,
       3;0, 8, 9;,
       3;0, 9, 10;,
       3;0, 10, 11;,
       3;0, 11, 12;,
       3;0, 12, 13;,
       3;0, 13, 14;,
       3;0, 14, 15;,
       3;0, 15, 16;,
       3;0, 16, 1;,
       3;2, 1, 17;,
       3;1, 18, 17;,
       3;3, 2, 19;,
       3;2, 17, 19;,
       3;4, 3, 20;,
       3;3, 19, 20;,
       3;5, 4, 21;,
       3;4, 20, 21;,
       3;6, 5, 22;,
       3;5, 21, 22;,
       3;7, 6, 23;,
       3;6, 22, 23;,
       3;8, 7, 24;,
       3;7, 23, 24;,
       3;9, 8, 25;,
       3;8, 24, 25;,
       3;10, 9, 26;,
       3;9, 25, 26;,
       3;11, 10, 27;,
       3;10, 26, 27;,
       3;12, 11, 28;,
       3;11, 27, 28;,
       3;13, 12, 29;,
       3;12, 28, 29;,
       3;14, 13, 30;,
       3;13, 29, 30;,
       3;15, 14, 31;,
       3;14, 30, 31;,
       3;16, 15, 32;,
       3;15, 31, 32;,
       3;1, 16, 18;,
       3;16, 32, 18;,
       3;17, 18, 33;,
       3;18, 34, 33;,
       3;19, 17, 35;,
       3;17, 33, 35;,
       3;20, 19, 36;,
       3;19, 35, 36;,
       3;21, 20, 37;,
       3;20, 36, 37;,
       3;22, 21, 38;,
       3;21, 37, 38;,
       3;23, 22, 39;,
       3;22, 38, 39;,
       3;24, 23, 40;,
       3;23, 39, 40;,
       3;25, 24, 41;,
       3;24, 40, 41;,
       3;26, 25, 42;,
       3;25, 41, 42;,
       3;27, 26, 43;,
       3;26, 42, 43;,
       3;28, 27, 44;,
       3;27, 43, 44;,
       3;29, 28, 45;,
       3;28, 44, 45;,
       3;30, 29, 46;,
       3;29, 45, 46;,
       3;31, 30, 47;,
       3;30, 46, 47;,
       3;32, 31, 48;,
       3;31, 47, 48;,
       3;18, 32, 34;,
       3;32, 48, 34;,
       3;33, 34, 49;,
       3;34, 50, 49;,
       3;35, 33, 51;,
       3;33, 49, 51;,
       3;36, 35, 52;,
       3;35, 51, 52;,
       3;37, 36, 53;,
       3;36, 52, 53;,
       3;38, 37, 54;,
       3;37, 53, 54;,
       3;39, 38, 55;,
       3;38, 54, 55;,
       3;40, 39, 56;,
       3;39, 55, 56;,
       3;41, 40, 57;,
       3;40, 56, 57;,
       3;42, 41, 58;,
       3;41, 57, 58;,
       3;43, 42, 59;,
       3;42, 58, 59;,
       3;44, 43, 60;,
       3;43, 59, 60;,
       3;45, 44, 61;,
       3;44, 60, 61;,
       3;46, 45, 62;,
       3;45, 61, 62;,
       3;47, 46, 63;,
       3;46, 62, 63;,
       3;48, 47, 64;,
       3;47, 63, 64;,
       3;34, 48, 50;,
       3;48, 64, 50;,
       3;49, 50, 65;,
       3;50, 66, 65;,
       3;51, 49, 67;,
       3;49, 65, 67;,
       3;52, 51, 68;,
       3;51, 67, 68;,
       3;53, 52, 69;,
       3;52, 68, 69;,
       3;54, 53, 70;,
       3;53, 69, 70;,
       3;55, 54, 71;,
       3;54, 70, 71;,
       3;56, 55, 72;,
       3;55, 71, 72;,
       3;57, 56, 73;,
       3;56, 72, 73;,
       3;58, 57, 74;,
       3;57, 73, 74;,
       3;59, 58, 75;,
       3;58, 74, 75;,
       3;60, 59, 76;,
       3;59, 75, 76;,
       3;61, 60, 77;,
       3;60, 76, 77;,
       3;62, 61, 78;,
       3;61, 77, 78;,
       3;63, 62, 79;,
       3;62, 78, 79;,
       3;64, 63, 80;,
       3;63, 79, 80;,
       3;50, 64, 66;,
       3;64, 80, 66;,
       3;65, 66, 81;,
       3;66, 82, 81;,
       3;67, 65, 83;,
       3;65, 81, 83;,
       3;68, 67, 84;,
       3;67, 83, 84;,
       3;69, 68, 85;,
       3;68, 84, 85;,
       3;70, 69, 86;,
       3;69, 85, 86;,
       3;71, 70, 87;,
       3;70, 86, 87;,
       3;72, 71, 88;,
       3;71, 87, 88;,
       3;73, 72, 89;,
       3;72, 88, 89;,
       3;74, 73, 90;,
       3;73, 89, 90;,
       3;75, 74, 91;,
       3;74, 90, 91;,
       3;76, 75, 92;,
       3;75, 91, 92;,
       3;77, 76, 93;,
       3;76, 92, 93;,
       3;78, 77, 94;,
       3;77, 93, 94;,
       3;79, 78, 95;,
       3;78, 94, 95;,
       3;80, 79, 96;,
       3;79, 95, 96;,
       3;66, 80, 82;,
       3;80, 96, 82;,
       3;81, 82, 97;,
       3;82, 98, 97;,
       3;83, 81, 99;,
       3;81, 97, 99;,
       3;84, 83, 100;,
       3;83, 99, 100;,
       3;85, 84, 101;,
       3;84, 100, 101;,
       3;86, 85, 102;,
       3;85, 101, 102;,
       3;87, 86, 103;,
       3;86, 102, 103;,
       3;88, 87, 104;,
       3;87, 103, 104;,
       3;89, 88, 105;,
       3;88, 104, 105;,
       3;90, 89, 106;,
       3;89, 105, 106;,
       3;91, 90, 107;,
       3;90, 106, 107;,
       3;92, 91, 108;,
       3;91, 107, 108;,
       3;93, 92, 109;,
       3;92, 108, 109;,
       3;94, 93, 110;,
       3;93, 109, 110;,
       3;95, 94, 111;,
       3;94, 110, 111;,
       3;96, 95, 112;,
       3;95, 111, 112;,
       3;82, 96, 98;,
       3;96, 112, 98;,
       3;113, 114, 115;,
       3;115, 114, 116;,
       3;116, 114, 117;,
       3;117, 114, 118;,
       3;118, 114, 119;,
       3;119, 114, 120;,
       3;120, 114, 121;,
       3;121, 114, 122;,
       3;122, 114, 123;,
       3;123, 114, 124;,
       3;124, 114, 125;,
       3;125, 114, 126;,
       3;126, 114, 127;,
       3;127, 114, 128;,
       3;128, 114, 129;,
       3;129, 114, 113;;

      MeshNormals {
       130;
       -0.000002; 1.000000; -0.000003;,
       0.382175; 0.924090; -0.000007;,
       0.353085; 0.924090; -0.146251;,
       0.270230; 0.924090; -0.270245;,
       0.146244; 0.924084; -0.353101;,
       -0.000000; 0.924088; -0.382180;,
       -0.146241; 0.924087; -0.353097;,
       -0.270238; 0.924087; -0.270248;,
       -0.353113; 0.924082; -0.146230;,
       -0.382193; 0.924083; -0.000009;,
       -0.353091; 0.924089; 0.146237;,
       -0.270249; 0.924085; 0.270246;,
       -0.146263; 0.924091; 0.353077;,
       0.000000; 0.924090; 0.382174;,
       0.146265; 0.924089; 0.353080;,
       0.270239; 0.924089; 0.270240;,
       0.353074; 0.924092; 0.146260;,
       0.652803; 0.707622; -0.270407;,
       0.706589; 0.707625; -0.000004;,
       0.499623; 0.707622; -0.499648;,
       0.270387; 0.707627; -0.652806;,
       -0.000001; 0.707634; -0.706579;,
       -0.270392; 0.707632; -0.652798;,
       -0.499628; 0.707629; -0.499634;,
       -0.652813; 0.707619; -0.270387;,
       -0.706590; 0.707624; -0.000007;,
       -0.652803; 0.707631; 0.270382;,
       -0.499641; 0.707627; 0.499623;,
       -0.270414; 0.707626; 0.652795;,
       -0.000001; 0.707625; 0.706588;,
       0.270406; 0.707624; 0.652801;,
       0.499631; 0.707628; 0.499632;,
       0.652799; 0.707628; 0.270402;,
       0.853374; 0.383142; -0.353491;,
       0.923685; 0.383152; -0.000004;,
       0.653147; 0.383153; -0.653141;,
       0.353473; 0.383157; -0.853374;,
       -0.000000; 0.383161; -0.923681;,
       -0.353491; 0.383156; -0.853367;,
       -0.653152; 0.383148; -0.653138;,
       -0.853369; 0.383156; -0.353486;,
       -0.923682; 0.383159; -0.000004;,
       -0.853372; 0.383165; 0.353470;,
       -0.653146; 0.383160; 0.653138;,
       -0.353493; 0.383157; 0.853366;,
       -0.000000; 0.383149; 0.923687;,
       0.353476; 0.383150; 0.853376;,
       0.653141; 0.383163; 0.653141;,
       0.853374; 0.383156; 0.353474;,
       0.923882; -0.000000; -0.382678;,
       1.000000; -0.000000; -0.000008;,
       0.707116; 0.000001; -0.707097;,
       0.382685; -0.000000; -0.923879;,
       -0.000002; 0.000000; -1.000000;,
       -0.382698; 0.000000; -0.923873;,
       -0.707113; -0.000000; -0.707101;,
       -0.923877; -0.000000; -0.382691;,
       -1.000000; 0.000000; -0.000008;,
       -0.923879; 0.000000; 0.382686;,
       -0.707104; -0.000000; 0.707110;,
       -0.382685; 0.000001; 0.923879;,
       -0.000002; -0.000000; 1.000000;,
       0.382672; -0.000000; 0.923884;,
       0.707107; 0.000000; 0.707106;,
       0.923884; 0.000000; 0.382674;,
       0.853373; -0.383159; -0.353474;,
       0.923679; -0.383166; -0.000007;,
       0.653148; -0.383171; -0.653129;,
       0.353478; -0.383173; -0.853365;,
       -0.000003; -0.383179; -0.923674;,
       -0.353489; -0.383171; -0.853361;,
       -0.653146; -0.383165; -0.653134;,
       -0.853364; -0.383170; -0.353484;,
       -0.923675; -0.383177; -0.000006;,
       -0.853363; -0.383180; 0.353476;,
       -0.653134; -0.383175; 0.653140;,
       -0.353476; -0.383172; 0.853366;,
       -0.000003; -0.383164; 0.923681;,
       0.353466; -0.383167; 0.853373;,
       0.653137; -0.383178; 0.653136;,
       0.853370; -0.383174; 0.353465;,
       0.749168; -0.585211; -0.310282;,
       0.811078; -0.584938; -0.000003;,
       0.573031; -0.586001; -0.572921;,
       0.309851; -0.587186; -0.747800;,
       0.000106; -0.588568; -0.808448;,
       -0.308917; -0.589939; -0.746018;,
       -0.570313; -0.591083; -0.570406;,
       -0.744674; -0.591848; -0.308506;,
       -0.805848; -0.592122; -0.000003;,
       -0.744674; -0.591856; 0.308492;,
       -0.570309; -0.591087; 0.570406;,
       -0.308922; -0.589929; 0.746024;,
       0.000106; -0.588560; 0.808454;,
       0.309854; -0.587178; 0.747805;,
       0.573024; -0.586011; 0.572918;,
       0.749171; -0.585215; 0.310267;,
       0.483574; -0.852086; -0.200263;,
       0.523690; -0.851909; -0.000002;,
       0.369571; -0.852586; -0.369478;,
       0.199611; -0.853328; -0.481650;,
       0.000113; -0.854205; -0.519936;,
       -0.198331; -0.855072; -0.479079;,
       -0.365735; -0.855799; -0.365849;,
       -0.477176; -0.856282; -0.197698;,
       -0.516223; -0.856454; -0.000003;,
       -0.477173; -0.856286; 0.197689;,
       -0.365742; -0.855801; 0.365838;,
       -0.198336; -0.855076; 0.479070;,
       0.000113; -0.854209; 0.519930;,
       0.199615; -0.853333; 0.481640;,
       0.369577; -0.852589; 0.369464;,
       0.483576; -0.852087; 0.200256;,
       0.523690; -0.851909; -0.000002;,
       -0.000002; -1.000000; -0.000003;,
       0.483574; -0.852086; -0.200263;,
       0.369571; -0.852586; -0.369478;,
       0.199611; -0.853328; -0.481650;,
       0.000113; -0.854205; -0.519936;,
       -0.198331; -0.855072; -0.479079;,
       -0.365735; -0.855799; -0.365849;,
       -0.477176; -0.856282; -0.197698;,
       -0.516223; -0.856454; -0.000003;,
       -0.477173; -0.856286; 0.197689;,
       -0.365742; -0.855801; 0.365838;,
       -0.198336; -0.855076; 0.479070;,
       0.000113; -0.854209; 0.519930;,
       0.199615; -0.853333; 0.481640;,
       0.369577; -0.852589; 0.369464;,
       0.483576; -0.852087; 0.200256;;
       224;
       3;0, 1, 2;,
       3;0, 2, 3;,
       3;0, 3, 4;,
       3;0, 4, 5;,
       3;0, 5, 6;,
       3;0, 6, 7;,
       3;0, 7, 8;,
       3;0, 8, 9;,
       3;0, 9, 10;,
       3;0, 10, 11;,
       3;0, 11, 12;,
       3;0, 12, 13;,
       3;0, 13, 14;,
       3;0, 14, 15;,
       3;0, 15, 16;,
       3;0, 16, 1;,
       3;2, 1, 17;,
       3;1, 18, 17;,
       3;3, 2, 19;,
       3;2, 17, 19;,
       3;4, 3, 20;,
       3;3, 19, 20;,
       3;5, 4, 21;,
       3;4, 20, 21;,
       3;6, 5, 22;,
       3;5, 21, 22;,
       3;7, 6, 23;,
       3;6, 22, 23;,
       3;8, 7, 24;,
       3;7, 23, 24;,
       3;9, 8, 25;,
       3;8, 24, 25;,
       3;10, 9, 26;,
       3;9, 25, 26;,
       3;11, 10, 27;,
       3;10, 26, 27;,
       3;12, 11, 28;,
       3;11, 27, 28;,
       3;13, 12, 29;,
       3;12, 28, 29;,
       3;14, 13, 30;,
       3;13, 29, 30;,
       3;15, 14, 31;,
       3;14, 30, 31;,
       3;16, 15, 32;,
       3;15, 31, 32;,
       3;1, 16, 18;,
       3;16, 32, 18;,
       3;17, 18, 33;,
       3;18, 34, 33;,
       3;19, 17, 35;,
       3;17, 33, 35;,
       3;20, 19, 36;,
       3;19, 35, 36;,
       3;21, 20, 37;,
       3;20, 36, 37;,
       3;22, 21, 38;,
       3;21, 37, 38;,
       3;23, 22, 39;,
       3;22, 38, 39;,
       3;24, 23, 40;,
       3;23, 39, 40;,
       3;25, 24, 41;,
       3;24, 40, 41;,
       3;26, 25, 42;,
       3;25, 41, 42;,
       3;27, 26, 43;,
       3;26, 42, 43;,
       3;28, 27, 44;,
       3;27, 43, 44;,
       3;29, 28, 45;,
       3;28, 44, 45;,
       3;30, 29, 46;,
       3;29, 45, 46;,
       3;31, 30, 47;,
       3;30, 46, 47;,
       3;32, 31, 48;,
       3;31, 47, 48;,
       3;18, 32, 34;,
       3;32, 48, 34;,
       3;33, 34, 49;,
       3;34, 50, 49;,
       3;35, 33, 51;,
       3;33, 49, 51;,
       3;36, 35, 52;,
       3;35, 51, 52;,
       3;37, 36, 53;,
       3;36, 52, 53;,
       3;38, 37, 54;,
       3;37, 53, 54;,
       3;39, 38, 55;,
       3;38, 54, 55;,
       3;40, 39, 56;,
       3;39, 55, 56;,
       3;41, 40, 57;,
       3;40, 56, 57;,
       3;42, 41, 58;,
       3;41, 57, 58;,
       3;43, 42, 59;,
       3;42, 58, 59;,
       3;44, 43, 60;,
       3;43, 59, 60;,
       3;45, 44, 61;,
       3;44, 60, 61;,
       3;46, 45, 62;,
       3;45, 61, 62;,
       3;47, 46, 63;,
       3;46, 62, 63;,
       3;48, 47, 64;,
       3;47, 63, 64;,
       3;34, 48, 50;,
       3;48, 64, 50;,
       3;49, 50, 65;,
       3;50, 66, 65;,
       3;51, 49, 67;,
       3;49, 65, 67;,
       3;52, 51, 68;,
       3;51, 67, 68;,
       3;53, 52, 69;,
       3;52, 68, 69;,
       3;54, 53, 70;,
       3;53, 69, 70;,
       3;55, 54, 71;,
       3;54, 70, 71;,
       3;56, 55, 72;,
       3;55, 71, 72;,
       3;57, 56, 73;,
       3;56, 72, 73;,
       3;58, 57, 74;,
       3;57, 73, 74;,
       3;59, 58, 75;,
       3;58, 74, 75;,
       3;60, 59, 76;,
       3;59, 75, 76;,
       3;61, 60, 77;,
       3;60, 76, 77;,
       3;62, 61, 78;,
       3;61, 77, 78;,
       3;63, 62, 79;,
       3;62, 78, 79;,
       3;64, 63, 80;,
       3;63, 79, 80;,
       3;50, 64, 66;,
       3;64, 80, 66;,
       3;65, 66, 81;,
       3;66, 82, 81;,
       3;67, 65, 83;,
       3;65, 81, 83;,
       3;68, 67, 84;,
       3;67, 83, 84;,
       3;69, 68, 85;,
       3;68, 84, 85;,
       3;70, 69, 86;,
       3;69, 85, 86;,
       3;71, 70, 87;,
       3;70, 86, 87;,
       3;72, 71, 88;,
       3;71, 87, 88;,
       3;73, 72, 89;,
       3;72, 88, 89;,
       3;74, 73, 90;,
       3;73, 89, 90;,
       3;75, 74, 91;,
       3;74, 90, 91;,
       3;76, 75, 92;,
       3;75, 91, 92;,
       3;77, 76, 93;,
       3;76, 92, 93;,
       3;78, 77, 94;,
       3;77, 93, 94;,
       3;79, 78, 95;,
       3;78, 94, 95;,
       3;80, 79, 96;,
       3;79, 95, 96;,
       3;66, 80, 82;,
       3;80, 96, 82;,
       3;81, 82, 97;,
       3;82, 98, 97;,
       3;83, 81, 99;,
       3;81, 97, 99;,
       3;84, 83, 100;,
       3;83, 99, 100;,
       3;85, 84, 101;,
       3;84, 100, 101;,
       3;86, 85, 102;,
       3;85, 101, 102;,
       3;87, 86, 103;,
       3;86, 102, 103;,
       3;88, 87, 104;,
       3;87, 103, 104;,
       3;89, 88, 105;,
       3;88, 104, 105;,
       3;90, 89, 106;,
       3;89, 105, 106;,
       3;91, 90, 107;,
       3;90, 106, 107;,
       3;92, 91, 108;,
       3;91, 107, 108;,
       3;93, 92, 109;,
       3;92, 108, 109;,
       3;94, 93, 110;,
       3;93, 109, 110;,
       3;95, 94, 111;,
       3;94, 110, 111;,
       3;96, 95, 112;,
       3;95, 111, 112;,
       3;82, 96, 98;,
       3;96, 112, 98;,
       3;113, 114, 115;,
       3;115, 114, 116;,
       3;116, 114, 117;,
       3;117, 114, 118;,
       3;118, 114, 119;,
       3;119, 114, 120;,
       3;120, 114, 121;,
       3;121, 114, 122;,
       3;122, 114, 123;,
       3;123, 114, 124;,
       3;124, 114, 125;,
       3;125, 114, 126;,
       3;126, 114, 127;,
       3;127, 114, 128;,
       3;128, 114, 129;,
       3;129, 114, 113;;
      }

      MeshTextureCoords {
       130;
       0.278404; 0.423926;,
       0.312319; 0.439667;,
       0.351528; 0.439667;,
       0.334370; 0.439667;,
       0.308693; 0.439667;,
       0.278404; 0.439667;,
       0.248114; 0.439667;,
       0.222438; 0.439667;,
       0.205280; 0.439667;,
       0.244493; 0.439667;,
       0.205280; 0.439667;,
       0.222438; 0.439667;,
       0.248114; 0.439667;,
       0.278404; 0.439667;,
       0.308693; 0.439667;,
       0.334370; 0.439667;,
       0.351528; 0.439667;,
       0.413519; 0.484500;,
       0.379418; 0.484500;,
       0.381818; 0.484500;,
       0.334370; 0.484500;,
       0.278404; 0.484500;,
       0.222438; 0.484500;,
       0.174995; 0.484500;,
       0.143293; 0.484500;,
       0.177394; 0.484500;,
       0.143293; 0.484500;,
       0.174995; 0.484500;,
       0.222438; 0.484500;,
       0.278404; 0.484500;,
       0.334370; 0.484500;,
       0.381818; 0.484500;,
       0.413519; 0.484500;,
       0.454937; 0.551599;,
       0.424251; 0.551599;,
       0.413519; 0.551599;,
       0.351528; 0.551599;,
       0.278404; 0.551599;,
       0.205280; 0.551599;,
       0.143293; 0.551599;,
       0.101871; 0.551599;,
       0.132561; 0.551599;,
       0.101871; 0.551599;,
       0.143293; 0.551599;,
       0.205280; 0.551599;,
       0.278404; 0.551599;,
       0.351528; 0.551599;,
       0.413519; 0.551599;,
       0.454937; 0.551599;,
       0.469485; 0.630748;,
       0.439993; 0.630748;,
       0.424652; 0.630748;,
       0.357553; 0.630748;,
       0.278404; 0.630748;,
       0.199259; 0.630748;,
       0.132160; 0.630748;,
       0.087327; 0.630748;,
       0.116815; 0.630748;,
       0.087327; 0.630748;,
       0.132160; 0.630748;,
       0.199259; 0.630748;,
       0.278404; 0.630748;,
       0.357553; 0.630748;,
       0.424652; 0.630748;,
       0.469485; 0.630748;,
       0.454937; 0.709898;,
       0.424251; 0.709898;,
       0.413519; 0.709898;,
       0.351528; 0.709898;,
       0.278404; 0.709898;,
       0.205280; 0.709898;,
       0.143293; 0.709898;,
       0.101871; 0.709898;,
       0.132561; 0.709898;,
       0.101871; 0.709898;,
       0.143293; 0.709898;,
       0.205280; 0.709898;,
       0.278404; 0.709898;,
       0.351528; 0.709898;,
       0.413519; 0.709898;,
       0.454937; 0.709898;,
       0.413519; 0.776992;,
       0.379418; 0.776992;,
       0.381818; 0.776992;,
       0.334370; 0.776992;,
       0.278404; 0.776992;,
       0.222438; 0.776992;,
       0.174995; 0.776992;,
       0.143293; 0.776992;,
       0.177394; 0.776992;,
       0.143293; 0.776992;,
       0.174995; 0.776992;,
       0.222438; 0.776992;,
       0.278404; 0.776992;,
       0.334370; 0.776992;,
       0.381818; 0.776992;,
       0.413519; 0.776992;,
       0.352751; 0.861784;,
       0.313543; 0.861784;,
       0.335593; 0.861784;,
       0.309917; 0.861784;,
       0.279627; 0.861784;,
       0.249338; 0.861784;,
       0.223661; 0.861784;,
       0.206503; 0.861784;,
       0.245717; 0.861784;,
       0.206503; 0.861784;,
       0.223661; 0.861784;,
       0.249338; 0.861784;,
       0.279627; 0.861784;,
       0.309917; 0.861784;,
       0.335593; 0.861784;,
       0.352751; 0.861784;,
       0.819270; 0.635533;,
       0.755670; 0.635533;,
       0.814428; 0.611199;,
       0.800641; 0.590562;,
       0.780009; 0.576780;,
       0.755670; 0.571938;,
       0.731332; 0.576780;,
       0.710700; 0.590562;,
       0.696913; 0.611199;,
       0.692075; 0.635533;,
       0.696913; 0.659871;,
       0.710700; 0.680503;,
       0.731332; 0.694290;,
       0.755670; 0.699132;,
       0.780009; 0.694290;,
       0.800641; 0.680503;,
       0.814428; 0.659871;;
      }

      MeshVertexColors {
       130;
       0; 1.000000; 1.000000; 1.000000; 1.000000;,
       1; 1.000000; 1.000000; 1.000000; 1.000000;,
       2; 1.000000; 1.000000; 1.000000; 1.000000;,
       3; 1.000000; 1.000000; 1.000000; 1.000000;,
       4; 1.000000; 1.000000; 1.000000; 1.000000;,
       5; 1.000000; 1.000000; 1.000000; 1.000000;,
       6; 1.000000; 1.000000; 1.000000; 1.000000;,
       7; 1.000000; 1.000000; 1.000000; 1.000000;,
       8; 1.000000; 1.000000; 1.000000; 1.000000;,
       9; 1.000000; 1.000000; 1.000000; 1.000000;,
       10; 1.000000; 1.000000; 1.000000; 1.000000;,
       11; 1.000000; 1.000000; 1.000000; 1.000000;,
       12; 1.000000; 1.000000; 1.000000; 1.000000;,
       13; 1.000000; 1.000000; 1.000000; 1.000000;,
       14; 1.000000; 1.000000; 1.000000; 1.000000;,
       15; 1.000000; 1.000000; 1.000000; 1.000000;,
       16; 1.000000; 1.000000; 1.000000; 1.000000;,
       17; 1.000000; 1.000000; 1.000000; 1.000000;,
       18; 1.000000; 1.000000; 1.000000; 1.000000;,
       19; 1.000000; 1.000000; 1.000000; 1.000000;,
       20; 1.000000; 1.000000; 1.000000; 1.000000;,
       21; 1.000000; 1.000000; 1.000000; 1.000000;,
       22; 1.000000; 1.000000; 1.000000; 1.000000;,
       23; 1.000000; 1.000000; 1.000000; 1.000000;,
       24; 1.000000; 1.000000; 1.000000; 1.000000;,
       25; 1.000000; 1.000000; 1.000000; 1.000000;,
       26; 1.000000; 1.000000; 1.000000; 1.000000;,
       27; 1.000000; 1.000000; 1.000000; 1.000000;,
       28; 1.000000; 1.000000; 1.000000; 1.000000;,
       29; 1.000000; 1.000000; 1.000000; 1.000000;,
       30; 1.000000; 1.000000; 1.000000; 1.000000;,
       31; 1.000000; 1.000000; 1.000000; 1.000000;,
       32; 1.000000; 1.000000; 1.000000; 1.000000;,
       33; 1.000000; 1.000000; 1.000000; 1.000000;,
       34; 1.000000; 1.000000; 1.000000; 1.000000;,
       35; 1.000000; 1.000000; 1.000000; 1.000000;,
       36; 1.000000; 1.000000; 1.000000; 1.000000;,
       37; 1.000000; 1.000000; 1.000000; 1.000000;,
       38; 1.000000; 1.000000; 1.000000; 1.000000;,
       39; 1.000000; 1.000000; 1.000000; 1.000000;,
       40; 1.000000; 1.000000; 1.000000; 1.000000;,
       41; 1.000000; 1.000000; 1.000000; 1.000000;,
       42; 1.000000; 1.000000; 1.000000; 1.000000;,
       43; 1.000000; 1.000000; 1.000000; 1.000000;,
       44; 1.000000; 1.000000; 1.000000; 1.000000;,
       45; 1.000000; 1.000000; 1.000000; 1.000000;,
       46; 1.000000; 1.000000; 1.000000; 1.000000;,
       47; 1.000000; 1.000000; 1.000000; 1.000000;,
       48; 1.000000; 1.000000; 1.000000; 1.000000;,
       49; 1.000000; 1.000000; 1.000000; 1.000000;,
       50; 1.000000; 1.000000; 1.000000; 1.000000;,
       51; 1.000000; 1.000000; 1.000000; 1.000000;,
       52; 1.000000; 1.000000; 1.000000; 1.000000;,
       53; 1.000000; 1.000000; 1.000000; 1.000000;,
       54; 1.000000; 1.000000; 1.000000; 1.000000;,
       55; 1.000000; 1.000000; 1.000000; 1.000000;,
       56; 1.000000; 1.000000; 1.000000; 1.000000;,
       57; 1.000000; 1.000000; 1.000000; 1.000000;,
       58; 1.000000; 1.000000; 1.000000; 1.000000;,
       59; 1.000000; 1.000000; 1.000000; 1.000000;,
       60; 1.000000; 1.000000; 1.000000; 1.000000;,
       61; 1.000000; 1.000000; 1.000000; 1.000000;,
       62; 1.000000; 1.000000; 1.000000; 1.000000;,
       63; 1.000000; 1.000000; 1.000000; 1.000000;,
       64; 1.000000; 1.000000; 1.000000; 1.000000;,
       65; 1.000000; 1.000000; 1.000000; 1.000000;,
       66; 1.000000; 1.000000; 1.000000; 1.000000;,
       67; 1.000000; 1.000000; 1.000000; 1.000000;,
       68; 1.000000; 1.000000; 1.000000; 1.000000;,
       69; 1.000000; 1.000000; 1.000000; 1.000000;,
       70; 1.000000; 1.000000; 1.000000; 1.000000;,
       71; 1.000000; 1.000000; 1.000000; 1.000000;,
       72; 1.000000; 1.000000; 1.000000; 1.000000;,
       73; 1.000000; 1.000000; 1.000000; 1.000000;,
       74; 1.000000; 1.000000; 1.000000; 1.000000;,
       75; 1.000000; 1.000000; 1.000000; 1.000000;,
       76; 1.000000; 1.000000; 1.000000; 1.000000;,
       77; 1.000000; 1.000000; 1.000000; 1.000000;,
       78; 1.000000; 1.000000; 1.000000; 1.000000;,
       79; 1.000000; 1.000000; 1.000000; 1.000000;,
       80; 1.000000; 1.000000; 1.000000; 1.000000;,
       81; 1.000000; 1.000000; 1.000000; 1.000000;,
       82; 1.000000; 1.000000; 1.000000; 1.000000;,
       83; 1.000000; 1.000000; 1.000000; 1.000000;,
       84; 1.000000; 1.000000; 1.000000; 1.000000;,
       85; 1.000000; 1.000000; 1.000000; 1.000000;,
       86; 1.000000; 1.000000; 1.000000; 1.000000;,
       87; 1.000000; 1.000000; 1.000000; 1.000000;,
       88; 1.000000; 1.000000; 1.000000; 1.000000;,
       89; 1.000000; 1.000000; 1.000000; 1.000000;,
       90; 1.000000; 1.000000; 1.000000; 1.000000;,
       91; 1.000000; 1.000000; 1.000000; 1.000000;,
       92; 1.000000; 1.000000; 1.000000; 1.000000;,
       93; 1.000000; 1.000000; 1.000000; 1.000000;,
       94; 1.000000; 1.000000; 1.000000; 1.000000;,
       95; 1.000000; 1.000000; 1.000000; 1.000000;,
       96; 1.000000; 1.000000; 1.000000; 1.000000;,
       97; 1.000000; 1.000000; 1.000000; 1.000000;,
       98; 1.000000; 1.000000; 1.000000; 1.000000;,
       99; 1.000000; 1.000000; 1.000000; 1.000000;,
       100; 1.000000; 1.000000; 1.000000; 1.000000;,
       101; 1.000000; 1.000000; 1.000000; 1.000000;,
       102; 1.000000; 1.000000; 1.000000; 1.000000;,
       103; 1.000000; 1.000000; 1.000000; 1.000000;,
       104; 1.000000; 1.000000; 1.000000; 1.000000;,
       105; 1.000000; 1.000000; 1.000000; 1.000000;,
       106; 1.000000; 1.000000; 1.000000; 1.000000;,
       107; 1.000000; 1.000000; 1.000000; 1.000000;,
       108; 1.000000; 1.000000; 1.000000; 1.000000;,
       109; 1.000000; 1.000000; 1.000000; 1.000000;,
       110; 1.000000; 1.000000; 1.000000; 1.000000;,
       111; 1.000000; 1.000000; 1.000000; 1.000000;,
       112; 1.000000; 1.000000; 1.000000; 1.000000;,
       113; 1.000000; 1.000000; 1.000000; 1.000000;,
       114; 1.000000; 1.000000; 1.000000; 1.000000;,
       115; 1.000000; 1.000000; 1.000000; 1.000000;,
       116; 1.000000; 1.000000; 1.000000; 1.000000;,
       117; 1.000000; 1.000000; 1.000000; 1.000000;,
       118; 1.000000; 1.000000; 1.000000; 1.000000;,
       119; 1.000000; 1.000000; 1.000000; 1.000000;,
       120; 1.000000; 1.000000; 1.000000; 1.000000;,
       121; 1.000000; 1.000000; 1.000000; 1.000000;,
       122; 1.000000; 1.000000; 1.000000; 1.000000;,
       123; 1.000000; 1.000000; 1.000000; 1.000000;,
       124; 1.000000; 1.000000; 1.000000; 1.000000;,
       125; 1.000000; 1.000000; 1.000000; 1.000000;,
       126; 1.000000; 1.000000; 1.000000; 1.000000;,
       127; 1.000000; 1.000000; 1.000000; 1.000000;,
       128; 1.000000; 1.000000; 1.000000; 1.000000;,
       129; 1.000000; 1.000000; 1.000000; 1.000000;;
      }

      MeshMaterialList {
       1;
       224;
       0,
       0,
       0,
       0,
       0,
       0,
       0,
       0,
       0,
       0,
       0,
       0,
       0,
       0,
       0,
       0,
       0,
       0,
       0,
       0,
       0,
       0,
       0,
       0,
       0,
       0,
       0,
       0,
       0,
       0,
       0,
       0,
       0,
       0,
       0,
       0,
       0,
       0,
       0,
       0,
       0,
       0,
       0,
       0,
       0,
       0,
       0,
       0,
       0,
       0,
       0,
       0,
       0,
       0,
       0,
       0,
       0,
       0,
       0,
       0,
       0,
       0,
       0,
       0,
       0,
       0,
       0,
       0,
       0,
       0,
       0,
       0,
       0,
       0,
       0,
       0,
       0,
       0,
       0,
       0,
       0,
       0,
       0,
       0,
       0,
       0,
       0,
       0,
       0,
       0,
       0,
       0,
       0,
       0,
       0,
       0,
       0,
       0,
       0,
       0,
       0,
       0,
       0,
       0,
       0,
       0,
       0,
       0,
       0,
       0,
       0,
       0,
       0,
       0,
       0,
       0,
       0,
       0,
       0,
       0,
       0,
       0,
       0,
       0,
       0,
       0,
       0,
       0,
       0,
       0,
       0,
       0,
       0,
       0,
       0,
       0,
       0,
       0,
       0,
       0,
       0,
       0,
       0,
       0,
       0,
       0,
       0,
       0,
       0,
       0,
       0,
       0,
       0,
       0,
       0,
       0,
       0,
       0,
       0,
       0,
       0,
       0,
       0,
       0,
       0,
       0,
       0,
       0,
       0,
       0,
       0,
       0,
       0,
       0,
       0,
       0,
       0,
       0,
       0,
       0,
       0,
       0,
       0,
       0,
       0,
       0,
       0,
       0,
       0,
       0,
       0,
       0,
       0,
       0,
       0,
       0,
       0,
       0,
       0,
       0,
       0,
       0,
       0,
       0,
       0,
       0,
       0,
       0,
       0,
       0,
       0,
       0,
       0,
       0,
       0,
       0,
       0,
       0,
       0,
       0,
       0,
       0,
       0,
       0;

       Material veg_3 {
        0.992157; 0.992157; 0.992157; 1.000000;;
        1.000000;
        0.150000; 0.150000; 0.150000;;
        0.000000; 0.000000; 0.000000;;

        TextureFilename {
         "veg_3.jpg";
        }
       }

      }

      XSkinMeshHeader {
       1;
       1;
       1;
      }

      SkinWeights {
       "U3DMesh";
       130;
       0,
       1,
       2,
       3,
       4,
       5,
       6,
       7,
       8,
       9,
       10,
       11,
       12,
       13,
       14,
       15,
       16,
       17,
       18,
       19,
       20,
       21,
       22,
       23,
       24,
       25,
       26,
       27,
       28,
       29,
       30,
       31,
       32,
       33,
       34,
       35,
       36,
       37,
       38,
       39,
       40,
       41,
       42,
       43,
       44,
       45,
       46,
       47,
       48,
       49,
       50,
       51,
       52,
       53,
       54,
       55,
       56,
       57,
       58,
       59,
       60,
       61,
       62,
       63,
       64,
       65,
       66,
       67,
       68,
       69,
       70,
       71,
       72,
       73,
       74,
       75,
       76,
       77,
       78,
       79,
       80,
       81,
       82,
       83,
       84,
       85,
       86,
       87,
       88,
       89,
       90,
       91,
       92,
       93,
       94,
       95,
       96,
       97,
       98,
       99,
       100,
       101,
       102,
       103,
       104,
       105,
       106,
       107,
       108,
       109,
       110,
       111,
       112,
       113,
       114,
       115,
       116,
       117,
       118,
       119,
       120,
       121,
       122,
       123,
       124,
       125,
       126,
       127,
       128,
       129;
       1.000000,
       1.000000,
       1.000000,
       1.000000,
       1.000000,
       1.000000,
       1.000000,
       1.000000,
       1.000000,
       1.000000,
       1.000000,
       1.000000,
       1.000000,
       1.000000,
       1.000000,
       1.000000,
       1.000000,
       1.000000,
       1.000000,
       1.000000,
       1.000000,
       1.000000,
       1.000000,
       1.000000,
       1.000000,
       1.000000,
       1.000000,
       1.000000,
       1.000000,
       1.000000,
       1.000000,
       1.000000,
       1.000000,
       1.000000,
       1.000000,
       1.000000,
       1.000000,
       1.000000,
       1.000000,
       1.000000,
       1.000000,
       1.000000,
       1.000000,
       1.000000,
       1.000000,
       1.000000,
       1.000000,
       1.000000,
       1.000000,
       1.000000,
       1.000000,
       1.000000,
       1.000000,
       1.000000,
       1.000000,
       1.000000,
       1.000000,
       1.000000,
       1.000000,
       1.000000,
       1.000000,
       1.000000,
       1.000000,
       1.000000,
       1.000000,
       1.000000,
       1.000000,
       1.000000,
       1.000000,
       1.000000,
       1.000000,
       1.000000,
       1.000000,
       1.000000,
       1.000000,
       1.000000,
       1.000000,
       1.000000,
       1.000000,
       1.000000,
       1.000000,
       1.000000,
       1.000000,
       1.000000,
       1.000000,
       1.000000,
       1.000000,
       1.000000,
       1.000000,
       1.000000,
       1.000000,
       1.000000,
       1.000000,
       1.000000,
       1.000000,
       1.000000,
       1.000000,
       1.000000,
       1.000000,
       1.000000,
       1.000000,
       1.000000,
       1.000000,
       1.000000,
       1.000000,
       1.000000,
       1.000000,
       1.000000,
       1.000000,
       1.000000,
       1.000000,
       1.000000,
       1.000000,
       1.000000,
       1.000000,
       1.000000,
       1.000000,
       1.000000,
       1.000000,
       1.000000,
       1.000000,
       1.000000,
       1.000000,
       1.000000,
       1.000000,
       1.000000,
       1.000000,
       1.000000,
       1.000000,
       1.000000;
          1.000000, -0.000000, 0.000000, 0.000000,
          -0.000000, 1.000000, -0.000000, 0.000000,
          0.000000, -0.000000, 1.000000, 0.000000,
          -0.000000, -0.000000, -0.000000, 1.000000;;
      }


     }
   }

// Start of Animation

AnimationSet Untitled {
}
