xof 0303txt 0032

// DirectX 9.0 file
// Creator: Ultimate Unwrap3D Pro v3.19
// Website: http://www.unwrap3d.com
// Time: Thu Dec 10 21:28:31 2009

// Start of Templates

template VertexDuplicationIndices {
 <b8d65549-d7c9-4995-89cf-53a9a8b031e3>
 DWORD nIndices;
 DWORD nOriginalVertices;
 array DWORD indices[nIndices];
}

template FVFData {
 <b6e70a0e-8ef9-4e83-94ad-ecc8b0c04897>
 DWORD dwFVF;
 DWORD nDWords;
 array DWORD data[nDWords];
}

template Header {
 <3D82AB43-62DA-11cf-AB39-0020AF71E433>
 WORD major;
 WORD minor;
 DWORD flags;
}

template Vector {
 <3D82AB5E-62DA-11cf-AB39-0020AF71E433>
 FLOAT x;
 FLOAT y;
 FLOAT z;
}

template Coords2d {
 <F6F23F44-7686-11cf-8F52-0040333594A3>
 FLOAT u;
 FLOAT v;
}

template Matrix4x4 {
 <F6F23F45-7686-11cf-8F52-0040333594A3>
 array FLOAT matrix[16];
}

template ColorRGBA {
 <35FF44E0-6C7C-11cf-8F52-0040333594A3>
 FLOAT red;
 FLOAT green;
 FLOAT blue;
 FLOAT alpha;
}

template ColorRGB {
 <D3E16E81-7835-11cf-8F52-0040333594A3>
 FLOAT red;
 FLOAT green;
 FLOAT blue;
}

template IndexedColor {
 <1630B820-7842-11cf-8F52-0040333594A3>
 DWORD index;
 ColorRGBA indexColor;
}

template Material {
 <3D82AB4D-62DA-11cf-AB39-0020AF71E433>
 ColorRGBA faceColor;
 FLOAT power;
 ColorRGB specularColor;
 ColorRGB emissiveColor;
 [...]
}

template TextureFilename {
 <A42790E1-7810-11cf-8F52-0040333594A3>
 STRING filename;
}

template MeshFace {
 <3D82AB5F-62DA-11cf-AB39-0020AF71E433>
 DWORD nFaceVertexIndices;
 array DWORD faceVertexIndices[nFaceVertexIndices];
}

template MeshTextureCoords {
 <F6F23F40-7686-11cf-8F52-0040333594A3>
 DWORD nTextureCoords;
 array Coords2d textureCoords[nTextureCoords];
}

template MeshMaterialList {
 <F6F23F42-7686-11cf-8F52-0040333594A3>
 DWORD nMaterials;
 DWORD nFaceIndexes;
 array DWORD faceIndexes[nFaceIndexes];
 [Material]
}

template MeshNormals {
 <F6F23F43-7686-11cf-8F52-0040333594A3>
 DWORD nNormals;
 array Vector normals[nNormals];
 DWORD nFaceNormals;
 array MeshFace faceNormals[nFaceNormals];
}

template MeshVertexColors {
 <1630B821-7842-11cf-8F52-0040333594A3>
 DWORD nVertexColors;
 array IndexedColor vertexColors[nVertexColors];
}

template Mesh {
 <3D82AB44-62DA-11cf-AB39-0020AF71E433>
 DWORD nVertices;
 array Vector vertices[nVertices];
 DWORD nFaces;
 array MeshFace faces[nFaces];
 [...]
}

template FrameTransformMatrix {
 <F6F23F41-7686-11cf-8F52-0040333594A3>
 Matrix4x4 frameMatrix;
}

template Frame {
 <3D82AB46-62DA-11cf-AB39-0020AF71E433>
 [...]
}

template FloatKeys {
 <10DD46A9-775B-11cf-8F52-0040333594A3>
 DWORD nValues;
 array FLOAT values[nValues];
}

template TimedFloatKeys {
 <F406B180-7B3B-11cf-8F52-0040333594A3>
 DWORD time;
 FloatKeys tfkeys;
}

template AnimationKey {
 <10DD46A8-775B-11cf-8F52-0040333594A3>
 DWORD keyType;
 DWORD nKeys;
 array TimedFloatKeys keys[nKeys];
}

template AnimationOptions {
 <E2BF56C0-840F-11cf-8F52-0040333594A3>
 DWORD openclosed;
 DWORD positionquality;
}

template Animation {
 <3D82AB4F-62DA-11cf-AB39-0020AF71E433>
 [...]
}

template AnimationSet {
 <3D82AB50-62DA-11cf-AB39-0020AF71E433>
 [Animation]
}

template XSkinMeshHeader {
 <3CF169CE-FF7C-44ab-93C0-F78F62D172E2>
 WORD nMaxSkinWeightsPerVertex;
 WORD nMaxSkinWeightsPerFace;
 WORD nBones;
}

template SkinWeights {
 <6F0D123B-BAD2-4167-A0D0-80224F25FABB>
 STRING transformNodeName;
 DWORD nWeights;
 array DWORD vertexIndices[nWeights];
 array FLOAT weights[nWeights];
 Matrix4x4 matrixOffset;
}

template AnimTicksPerSecond {
 <9E415A43-7BA6-4a73-8743-B73D47E88476>
 DWORD AnimTicksPerSecond;
}

AnimTicksPerSecond {
 30;
}

// Start of Frames

   Frame Body {
      FrameTransformMatrix {
       1.000000, 0.000000, 0.000000, 0.000000,
       0.000000, 1.000000, 0.000000, 0.000000,
       0.000000, 0.000000, 1.000000, 0.000000,
       0.000000, 0.000000, 0.000000, 1.000000;;
      }

   }
   Frame def_surf_mat {
      FrameTransformMatrix {
       1.000000, 0.000000, 0.000000, 0.000000,
       0.000000, 1.000000, 0.000000, 0.000000,
       0.000000, 0.000000, 1.000000, 0.000000,
       0.000000, 0.000000, 0.000000, 1.000000;;
      }

   }

   Frame Body0 {
      FrameTransformMatrix {
       1.000000, 0.000000, 0.000000, 0.000000,
       0.000000, 1.000000, 0.000000, 0.000000,
       0.000000, 0.000000, 1.000000, 0.000000,
       0.000000, 0.000000, 0.000000, 1.000000;;
      }

      Mesh skinnedMesh {
       154;
       3.515465; 0.077599; -0.271202;,
       3.514265; 0.015697; 0.000000;,
       2.175165; 0.120098; -0.254402;,
       2.173965; 0.062000; 0.000000;,
       3.518965; 0.250999; -0.488602;,
       2.178365; 0.282799; -0.458397;,
       3.523965; 0.501499; -0.609299;,
       2.183065; 0.517899; -0.571701;,
       3.529465; 0.779598; -0.609299;,
       2.188265; 0.778801; -0.571701;,
       3.534565; 1.030201; -0.488602;,
       2.192966; 1.013901; -0.458397;,
       3.538065; 1.203499; -0.271202;,
       2.196265; 1.176598; -0.254402;,
       3.539165; 1.265400; 0.000000;,
       2.197365; 1.234600; 0.000000;,
       3.538065; 1.203499; 0.271103;,
       2.196265; 1.176598; 0.254402;,
       3.534565; 1.030201; 0.488602;,
       2.192966; 1.013901; 0.458397;,
       3.529465; 0.779598; 0.609299;,
       2.188265; 0.778801; 0.571701;,
       3.523965; 0.501499; 0.609299;,
       2.183065; 0.517899; 0.571701;,
       3.518965; 0.250999; 0.488602;,
       2.178365; 0.282799; 0.458397;,
       3.515465; 0.077599; 0.271103;,
       2.175165; 0.120098; 0.254402;,
       -3.971565; 0.638100; 0.000000;,
       -3.971445; 0.645401; 0.031700;,
       -3.971445; 0.645401; -0.031700;,
       -3.970965; 0.665600; 0.056999;,
       -3.970965; 0.665600; -0.057098;,
       -3.970485; 0.694901; 0.071098;,
       -3.970485; 0.694901; -0.071198;,
       -3.969765; 0.727398; 0.071098;,
       -3.969765; 0.727398; -0.071198;,
       -3.969155; 0.756599; 0.056999;,
       -3.969155; 0.756599; -0.057098;,
       -3.968795; 0.776897; 0.031700;,
       -3.968795; 0.776897; -0.031700;,
       -3.968675; 0.784100; 0.000000;,
       3.915865; 0.361198; 0.132797;,
       3.915265; 0.330799; 0.000000;,
       3.917565; 0.446098; 0.239304;,
       3.915865; 0.361198; -0.132797;,
       3.919965; 0.568798; 0.298401;,
       3.917565; 0.446098; -0.239304;,
       3.922765; 0.704998; 0.298401;,
       3.919965; 0.568798; -0.298500;,
       3.925265; 0.827801; 0.239304;,
       3.922765; 0.704998; -0.298500;,
       3.926965; 0.912701; 0.132797;,
       3.925265; 0.827801; -0.239304;,
       3.927565; 0.943001; 0.000000;,
       3.926965; 0.912701; -0.132797;,
       3.749465; 0.240398; 0.499199;,
       3.745865; 0.063198; 0.277000;,
       3.754465; 0.496399; 0.622498;,
       3.760165; 0.780499; 0.622498;,
       3.765365; 1.036499; 0.499199;,
       3.768765; 1.213699; 0.277000;,
       3.770065; 1.276897; 0.000000;,
       3.768765; 1.213699; -0.277100;,
       3.765365; 1.036499; -0.499298;,
       3.760165; 0.780499; -0.622498;,
       3.754465; 0.496399; -0.622498;,
       3.749465; 0.240398; -0.499298;,
       3.745865; 0.063198; -0.277100;,
       3.744565; 0.000000; 0.000000;,
       3.925165; 0.349899; 0.359901;,
       3.922665; 0.222099; 0.199699;,
       3.928765; 0.534401; 0.448799;,
       3.932865; 0.739300; 0.448799;,
       3.936666; 0.923798; 0.359901;,
       3.939165; 1.051498; 0.199699;,
       3.940166; 1.097099; 0.000000;,
       3.939165; 1.051498; -0.199799;,
       3.936666; 0.923798; -0.359901;,
       3.932865; 0.739300; -0.448799;,
       3.928765; 0.534401; -0.448799;,
       3.925165; 0.349899; -0.359901;,
       3.922665; 0.222099; -0.199799;,
       3.921665; 0.176598; 0.000000;,
       3.960765; 0.429398; 0.259697;,
       3.958965; 0.337299; 0.144096;,
       3.963465; 0.562599; 0.323799;,
       3.966365; 0.710400; 0.323799;,
       3.969165; 0.843597; 0.259697;,
       3.970865; 0.935799; 0.144096;,
       3.971565; 0.968700; 0.000000;,
       3.970865; 0.935799; -0.144203;,
       3.969165; 0.843597; -0.259796;,
       3.966365; 0.710400; -0.323898;,
       3.963465; 0.562599; -0.323898;,
       3.960765; 0.429398; -0.259796;,
       3.958965; 0.337299; -0.144203;,
       3.958365; 0.304398; 0.000000;,
       0.446865; 0.571198; -0.433998;,
       0.443265; 0.392799; -0.348099;,
       0.450765; 0.769398; -0.433998;,
       0.454365; 0.947899; -0.348099;,
       0.456865; 1.071400; -0.193199;,
       0.457765; 1.115498; 0.000000;,
       0.456865; 1.071400; 0.193100;,
       0.454365; 0.947899; 0.348000;,
       0.450765; 0.769398; 0.433998;,
       0.446865; 0.571198; 0.433998;,
       0.443265; 0.392799; 0.348000;,
       0.440866; 0.269199; 0.193100;,
       0.439965; 0.225201; 0.000000;,
       0.440866; 0.269199; -0.193199;,
       -1.370355; 0.605999; -0.355598;,
       -1.373295; 0.459801; -0.285202;,
       -1.367185; 0.768299; -0.355598;,
       -1.364244; 0.914398; -0.285202;,
       -1.362255; 1.015697; -0.158203;,
       -1.361435; 1.051800; 0.000000;,
       -1.362255; 1.015697; 0.158203;,
       -1.364244; 0.914398; 0.285103;,
       -1.367185; 0.768299; 0.355499;,
       -1.370355; 0.605999; 0.355499;,
       -1.373295; 0.459801; 0.285103;,
       -1.375285; 0.358601; 0.158203;,
       -1.375995; 0.322498; 0.000000;,
       -1.375285; 0.358601; -0.158203;,
       -3.538505; 0.661598; -0.199699;,
       -3.540155; 0.579498; -0.160103;,
       -3.536745; 0.752701; -0.199699;,
       -3.535105; 0.834801; -0.160103;,
       -3.533925; 0.891598; -0.088898;,
       -3.533455; 0.911900; 0.000000;,
       -3.533925; 0.891598; 0.088799;,
       -3.535105; 0.834801; 0.160103;,
       -3.536745; 0.752701; 0.199600;,
       -3.538505; 0.661598; 0.199600;,
       -3.540155; 0.579498; 0.160103;,
       -3.541325; 0.522697; 0.088799;,
       -3.541685; 0.502399; 0.000000;,
       -3.541325; 0.522697; -0.088898;,
       -3.909235; 0.682400; -0.123497;,
       -3.910315; 0.631599; -0.099098;,
       -3.908145; 0.738800; -0.123497;,
       -3.907065; 0.789497; -0.099098;,
       -3.906465; 0.824699; -0.055000;,
       -3.906225; 0.837200; 0.000000;,
       -3.906465; 0.824699; 0.054901;,
       -3.907065; 0.789497; 0.098999;,
       -3.908145; 0.738800; 0.123497;,
       -3.909235; 0.682400; 0.123497;,
       -3.910315; 0.631599; 0.098999;,
       -3.910915; 0.596500; 0.054901;,
       -3.911275; 0.583900; 0.000000;,
       -3.910915; 0.596500; -0.055000;;
       304;
       3;0, 1, 2;,
       3;1, 3, 2;,
       3;4, 0, 5;,
       3;0, 2, 5;,
       3;6, 4, 7;,
       3;4, 5, 7;,
       3;8, 6, 9;,
       3;6, 7, 9;,
       3;10, 8, 11;,
       3;8, 9, 11;,
       3;12, 10, 13;,
       3;10, 11, 13;,
       3;14, 12, 15;,
       3;12, 13, 15;,
       3;16, 14, 17;,
       3;14, 15, 17;,
       3;18, 16, 19;,
       3;16, 17, 19;,
       3;20, 18, 21;,
       3;18, 19, 21;,
       3;22, 20, 23;,
       3;20, 21, 23;,
       3;24, 22, 25;,
       3;22, 23, 25;,
       3;26, 24, 27;,
       3;24, 25, 27;,
       3;1, 26, 3;,
       3;26, 27, 3;,
       3;28, 29, 30;,
       3;29, 31, 30;,
       3;30, 31, 32;,
       3;31, 33, 32;,
       3;32, 33, 34;,
       3;33, 35, 34;,
       3;34, 35, 36;,
       3;35, 37, 36;,
       3;36, 37, 38;,
       3;37, 39, 38;,
       3;38, 39, 40;,
       3;39, 41, 40;,
       3;42, 43, 44;,
       3;43, 45, 44;,
       3;44, 45, 46;,
       3;45, 47, 46;,
       3;46, 47, 48;,
       3;47, 49, 48;,
       3;48, 49, 50;,
       3;49, 51, 50;,
       3;50, 51, 52;,
       3;51, 53, 52;,
       3;52, 53, 54;,
       3;53, 55, 54;,
       3;24, 26, 56;,
       3;26, 57, 56;,
       3;22, 24, 58;,
       3;24, 56, 58;,
       3;20, 22, 59;,
       3;22, 58, 59;,
       3;18, 20, 60;,
       3;20, 59, 60;,
       3;16, 18, 61;,
       3;18, 60, 61;,
       3;14, 16, 62;,
       3;16, 61, 62;,
       3;12, 14, 63;,
       3;14, 62, 63;,
       3;10, 12, 64;,
       3;12, 63, 64;,
       3;8, 10, 65;,
       3;10, 64, 65;,
       3;6, 8, 66;,
       3;8, 65, 66;,
       3;4, 6, 67;,
       3;6, 66, 67;,
       3;0, 4, 68;,
       3;4, 67, 68;,
       3;1, 0, 69;,
       3;0, 68, 69;,
       3;26, 1, 57;,
       3;1, 69, 57;,
       3;56, 57, 70;,
       3;57, 71, 70;,
       3;58, 56, 72;,
       3;56, 70, 72;,
       3;59, 58, 73;,
       3;58, 72, 73;,
       3;60, 59, 74;,
       3;59, 73, 74;,
       3;61, 60, 75;,
       3;60, 74, 75;,
       3;62, 61, 76;,
       3;61, 75, 76;,
       3;63, 62, 77;,
       3;62, 76, 77;,
       3;64, 63, 78;,
       3;63, 77, 78;,
       3;65, 64, 79;,
       3;64, 78, 79;,
       3;66, 65, 80;,
       3;65, 79, 80;,
       3;67, 66, 81;,
       3;66, 80, 81;,
       3;68, 67, 82;,
       3;67, 81, 82;,
       3;69, 68, 83;,
       3;68, 82, 83;,
       3;57, 69, 71;,
       3;69, 83, 71;,
       3;70, 71, 84;,
       3;71, 85, 84;,
       3;72, 70, 86;,
       3;70, 84, 86;,
       3;73, 72, 87;,
       3;72, 86, 87;,
       3;74, 73, 88;,
       3;73, 87, 88;,
       3;75, 74, 89;,
       3;74, 88, 89;,
       3;76, 75, 90;,
       3;75, 89, 90;,
       3;77, 76, 91;,
       3;76, 90, 91;,
       3;78, 77, 92;,
       3;77, 91, 92;,
       3;79, 78, 93;,
       3;78, 92, 93;,
       3;80, 79, 94;,
       3;79, 93, 94;,
       3;81, 80, 95;,
       3;80, 94, 95;,
       3;82, 81, 96;,
       3;81, 95, 96;,
       3;83, 82, 97;,
       3;82, 96, 97;,
       3;71, 83, 85;,
       3;83, 97, 85;,
       3;84, 85, 44;,
       3;85, 42, 44;,
       3;86, 84, 46;,
       3;84, 44, 46;,
       3;87, 86, 48;,
       3;86, 46, 48;,
       3;88, 87, 50;,
       3;87, 48, 50;,
       3;89, 88, 52;,
       3;88, 50, 52;,
       3;90, 89, 54;,
       3;89, 52, 54;,
       3;91, 90, 55;,
       3;90, 54, 55;,
       3;92, 91, 53;,
       3;91, 55, 53;,
       3;93, 92, 51;,
       3;92, 53, 51;,
       3;94, 93, 49;,
       3;93, 51, 49;,
       3;95, 94, 47;,
       3;94, 49, 47;,
       3;96, 95, 45;,
       3;95, 47, 45;,
       3;97, 96, 43;,
       3;96, 45, 43;,
       3;85, 97, 42;,
       3;97, 43, 42;,
       3;7, 5, 98;,
       3;5, 99, 98;,
       3;9, 7, 100;,
       3;7, 98, 100;,
       3;11, 9, 101;,
       3;9, 100, 101;,
       3;13, 11, 102;,
       3;11, 101, 102;,
       3;15, 13, 103;,
       3;13, 102, 103;,
       3;17, 15, 104;,
       3;15, 103, 104;,
       3;19, 17, 105;,
       3;17, 104, 105;,
       3;21, 19, 106;,
       3;19, 105, 106;,
       3;23, 21, 107;,
       3;21, 106, 107;,
       3;25, 23, 108;,
       3;23, 107, 108;,
       3;27, 25, 109;,
       3;25, 108, 109;,
       3;3, 27, 110;,
       3;27, 109, 110;,
       3;2, 3, 111;,
       3;3, 110, 111;,
       3;5, 2, 99;,
       3;2, 111, 99;,
       3;98, 99, 112;,
       3;99, 113, 112;,
       3;100, 98, 114;,
       3;98, 112, 114;,
       3;101, 100, 115;,
       3;100, 114, 115;,
       3;102, 101, 116;,
       3;101, 115, 116;,
       3;103, 102, 117;,
       3;102, 116, 117;,
       3;104, 103, 118;,
       3;103, 117, 118;,
       3;105, 104, 119;,
       3;104, 118, 119;,
       3;106, 105, 120;,
       3;105, 119, 120;,
       3;107, 106, 121;,
       3;106, 120, 121;,
       3;108, 107, 122;,
       3;107, 121, 122;,
       3;109, 108, 123;,
       3;108, 122, 123;,
       3;110, 109, 124;,
       3;109, 123, 124;,
       3;111, 110, 125;,
       3;110, 124, 125;,
       3;99, 111, 113;,
       3;111, 125, 113;,
       3;112, 113, 126;,
       3;113, 127, 126;,
       3;114, 112, 128;,
       3;112, 126, 128;,
       3;115, 114, 129;,
       3;114, 128, 129;,
       3;116, 115, 130;,
       3;115, 129, 130;,
       3;117, 116, 131;,
       3;116, 130, 131;,
       3;118, 117, 132;,
       3;117, 131, 132;,
       3;119, 118, 133;,
       3;118, 132, 133;,
       3;120, 119, 134;,
       3;119, 133, 134;,
       3;121, 120, 135;,
       3;120, 134, 135;,
       3;122, 121, 136;,
       3;121, 135, 136;,
       3;123, 122, 137;,
       3;122, 136, 137;,
       3;124, 123, 138;,
       3;123, 137, 138;,
       3;125, 124, 139;,
       3;124, 138, 139;,
       3;113, 125, 127;,
       3;125, 139, 127;,
       3;126, 127, 140;,
       3;127, 141, 140;,
       3;128, 126, 142;,
       3;126, 140, 142;,
       3;129, 128, 143;,
       3;128, 142, 143;,
       3;130, 129, 144;,
       3;129, 143, 144;,
       3;131, 130, 145;,
       3;130, 144, 145;,
       3;132, 131, 146;,
       3;131, 145, 146;,
       3;133, 132, 147;,
       3;132, 146, 147;,
       3;134, 133, 148;,
       3;133, 147, 148;,
       3;135, 134, 149;,
       3;134, 148, 149;,
       3;136, 135, 150;,
       3;135, 149, 150;,
       3;137, 136, 151;,
       3;136, 150, 151;,
       3;138, 137, 152;,
       3;137, 151, 152;,
       3;139, 138, 153;,
       3;138, 152, 153;,
       3;127, 139, 141;,
       3;139, 153, 141;,
       3;140, 141, 34;,
       3;141, 32, 34;,
       3;142, 140, 36;,
       3;140, 34, 36;,
       3;143, 142, 38;,
       3;142, 36, 38;,
       3;144, 143, 40;,
       3;143, 38, 40;,
       3;145, 144, 41;,
       3;144, 40, 41;,
       3;146, 145, 39;,
       3;145, 41, 39;,
       3;147, 146, 37;,
       3;146, 39, 37;,
       3;148, 147, 35;,
       3;147, 37, 35;,
       3;149, 148, 33;,
       3;148, 35, 33;,
       3;150, 149, 31;,
       3;149, 33, 31;,
       3;151, 150, 29;,
       3;150, 31, 29;,
       3;152, 151, 28;,
       3;151, 29, 28;,
       3;153, 152, 30;,
       3;152, 28, 30;,
       3;141, 153, 32;,
       3;153, 30, 32;;

      MeshNormals {
       154;
       -0.050661; -0.899606; -0.433754;,
       -0.051308; -0.998683; -0.000046;,
       -0.063090; -0.898941; -0.433503;,
       -0.064136; -0.997941; 0.000187;,
       -0.048684; -0.622209; -0.781336;,
       -0.060452; -0.621751; -0.780878;,
       -0.045554; -0.221437; -0.974110;,
       -0.056717; -0.221345; -0.973545;,
       -0.042138; 0.223213; -0.973858;,
       -0.052585; 0.223139; -0.973367;,
       -0.039212; 0.623549; -0.780800;,
       -0.048922; 0.623336; -0.780422;,
       -0.037183; 0.900548; -0.433164;,
       -0.046446; 0.900164; -0.433067;,
       -0.036374; 0.999338; 0.000072;,
       -0.045638; 0.998958; -0.000092;,
       -0.037084; 0.900514; 0.433244;,
       -0.046668; 0.900236; 0.432894;,
       -0.038987; 0.623601; 0.780770;,
       -0.049341; 0.623552; 0.780223;,
       -0.041877; 0.223077; 0.973901;,
       -0.053111; 0.223397; 0.973279;,
       -0.045222; -0.221622; 0.974084;,
       -0.057216; -0.221155; 0.973559;,
       -0.048299; -0.622315; 0.781275;,
       -0.060869; -0.621591; 0.780973;,
       -0.050526; -0.899649; 0.433680;,
       -0.063330; -0.898897; 0.433559;,
       -0.805490; -0.590765; 0.046719;,
       -0.877035; -0.411237; 0.248381;,
       -0.917934; -0.366660; -0.151521;,
       -0.915393; -0.213195; 0.341473;,
       -0.915923; -0.264244; -0.302094;,
       -0.912370; -0.043854; 0.407010;,
       -0.913328; -0.103451; -0.393866;,
       -0.909209; 0.141203; 0.391664;,
       -0.910086; 0.080036; -0.406617;,
       -0.906499; 0.296569; 0.300509;,
       -0.907480; 0.248031; -0.339058;,
       -0.905400; 0.397375; 0.149482;,
       -0.863939; 0.439468; -0.245920;,
       -0.788308; 0.613605; -0.045390;,
       0.712682; 0.651396; -0.260322;,
       0.819357; 0.571543; 0.044645;,
       0.877288; 0.317588; -0.359866;,
       0.878877; 0.408484; 0.246405;,
       0.874056; 0.127707; -0.468740;,
       0.876503; 0.258729; 0.405959;,
       0.870589; -0.089760; -0.483755;,
       0.872879; 0.055203; 0.484804;,
       0.867243; -0.291883; -0.403352;,
       0.869581; -0.162126; 0.466416;,
       0.865122; -0.438310; -0.243820;,
       0.866709; -0.348862; 0.356527;,
       0.802628; -0.594854; -0.044007;,
       0.696049; -0.670521; 0.256741;,
       0.357220; -0.596102; 0.719066;,
       0.354014; -0.849148; 0.391947;,
       0.361706; -0.226065; 0.904468;,
       0.366675; 0.188251; 0.911104;,
       0.371179; 0.565064; 0.736837;,
       0.374083; 0.828898; 0.415920;,
       0.375144; 0.926890; 0.011941;,
       0.374135; 0.839353; -0.394347;,
       0.371166; 0.583813; -0.722079;,
       0.366725; 0.211801; -0.905899;,
       0.361856; -0.202227; -0.910035;,
       0.357296; -0.576951; -0.734484;,
       0.354024; -0.838657; -0.413910;,
       0.353013; -0.935537; -0.012355;,
       0.864847; -0.336162; 0.372875;,
       0.862720; -0.465717; 0.197030;,
       0.868049; -0.143089; 0.475412;,
       0.871802; 0.075269; 0.484042;,
       0.875268; 0.276944; 0.396496;,
       0.877765; 0.420284; 0.229979;,
       0.878755; 0.476961; 0.017255;,
       0.877894; 0.435587; -0.198914;,
       0.875646; 0.303807; -0.375426;,
       0.872285; 0.108917; -0.476713;,
       0.868509; -0.109974; -0.483320;,
       0.865336; -0.309360; -0.394322;,
       0.862895; -0.451114; -0.227835;,
       0.861789; -0.506984; -0.016908;,
       0.930327; 0.172226; -0.323774;,
       0.932319; 0.294750; -0.209531;,
       0.927718; 0.012601; -0.373070;,
       0.925246; -0.151917; -0.347622;,
       0.923047; -0.288529; -0.254430;,
       0.922095; -0.370495; -0.111685;,
       0.921816; -0.384061; 0.052455;,
       0.922854; -0.325333; 0.206152;,
       0.924641; -0.206389; 0.320067;,
       0.927122; -0.049343; 0.371496;,
       0.929732; 0.115698; 0.349589;,
       0.932167; 0.254646; 0.257331;,
       0.933004; 0.341310; 0.114066;,
       0.933117; 0.355632; -0.053089;,
       -0.065177; -0.220791; -0.973141;,
       -0.069539; -0.620991; -0.780727;,
       -0.060319; 0.223261; -0.972890;,
       -0.055900; 0.623238; -0.780032;,
       -0.052806; 0.899963; -0.432756;,
       -0.051660; 0.998665; 0.000151;,
       -0.052701; 0.899857; 0.432990;,
       -0.055707; 0.623224; 0.780056;,
       -0.060080; 0.223252; 0.972907;,
       -0.064964; -0.221046; 0.973097;,
       -0.069369; -0.621296; 0.780499;,
       -0.072466; -0.898385; 0.433190;,
       -0.073613; -0.997287; -0.000012;,
       -0.072581; -0.898343; -0.433258;,
       -0.060931; -0.221027; -0.973362;,
       -0.064678; -0.621588; -0.780669;,
       -0.056806; 0.223305; -0.973092;,
       -0.053116; 0.623172; -0.780279;,
       -0.050564; 0.899967; -0.433015;,
       -0.049642; 0.998767; -0.000021;,
       -0.050551; 0.900008; 0.432931;,
       -0.053108; 0.623192; 0.780264;,
       -0.056829; 0.223361; 0.973078;,
       -0.060950; -0.220849; 0.973402;,
       -0.064660; -0.621478; 0.780758;,
       -0.067245; -0.898630; 0.433524;,
       -0.068157; -0.997675; -0.000017;,
       -0.067251; -0.898791; -0.433188;,
       -0.142238; -0.218505; -0.965414;,
       -0.145885; -0.615575; -0.774458;,
       -0.138019; 0.222424; -0.965131;,
       -0.134200; 0.618953; -0.773878;,
       -0.131588; 0.893347; -0.429670;,
       -0.130690; 0.991423; -0.000714;,
       -0.131616; 0.893924; 0.428459;,
       -0.134262; 0.620195; 0.772873;,
       -0.137917; 0.223477; 0.964903;,
       -0.142122; -0.216930; 0.965786;,
       -0.145957; -0.614748; 0.775101;,
       -0.148558; -0.890070; 0.430937;,
       -0.149460; -0.988768; 0.000505;,
       -0.148550; -0.890773; -0.429485;,
       -0.449623; -0.198152; -0.870962;,
       -0.454357; -0.556889; -0.695294;,
       -0.445359; 0.199398; -0.872867;,
       -0.441130; 0.557733; -0.703092;,
       -0.438333; 0.807622; -0.394475;,
       -0.437156; 0.899345; -0.008542;,
       -0.438190; 0.814777; 0.379643;,
       -0.441141; 0.571862; 0.691642;,
       -0.445493; 0.216475; 0.868720;,
       -0.449946; -0.182397; 0.874231;,
       -0.454265; -0.543395; 0.705950;,
       -0.456652; -0.796021; 0.397265;,
       -0.458138; -0.888841; 0.008446;,
       -0.456901; -0.803383; -0.381861;;
       304;
       3;0, 1, 2;,
       3;1, 3, 2;,
       3;4, 0, 5;,
       3;0, 2, 5;,
       3;6, 4, 7;,
       3;4, 5, 7;,
       3;8, 6, 9;,
       3;6, 7, 9;,
       3;10, 8, 11;,
       3;8, 9, 11;,
       3;12, 10, 13;,
       3;10, 11, 13;,
       3;14, 12, 15;,
       3;12, 13, 15;,
       3;16, 14, 17;,
       3;14, 15, 17;,
       3;18, 16, 19;,
       3;16, 17, 19;,
       3;20, 18, 21;,
       3;18, 19, 21;,
       3;22, 20, 23;,
       3;20, 21, 23;,
       3;24, 22, 25;,
       3;22, 23, 25;,
       3;26, 24, 27;,
       3;24, 25, 27;,
       3;1, 26, 3;,
       3;26, 27, 3;,
       3;28, 29, 30;,
       3;29, 31, 30;,
       3;30, 31, 32;,
       3;31, 33, 32;,
       3;32, 33, 34;,
       3;33, 35, 34;,
       3;34, 35, 36;,
       3;35, 37, 36;,
       3;36, 37, 38;,
       3;37, 39, 38;,
       3;38, 39, 40;,
       3;39, 41, 40;,
       3;42, 43, 44;,
       3;43, 45, 44;,
       3;44, 45, 46;,
       3;45, 47, 46;,
       3;46, 47, 48;,
       3;47, 49, 48;,
       3;48, 49, 50;,
       3;49, 51, 50;,
       3;50, 51, 52;,
       3;51, 53, 52;,
       3;52, 53, 54;,
       3;53, 55, 54;,
       3;24, 26, 56;,
       3;26, 57, 56;,
       3;22, 24, 58;,
       3;24, 56, 58;,
       3;20, 22, 59;,
       3;22, 58, 59;,
       3;18, 20, 60;,
       3;20, 59, 60;,
       3;16, 18, 61;,
       3;18, 60, 61;,
       3;14, 16, 62;,
       3;16, 61, 62;,
       3;12, 14, 63;,
       3;14, 62, 63;,
       3;10, 12, 64;,
       3;12, 63, 64;,
       3;8, 10, 65;,
       3;10, 64, 65;,
       3;6, 8, 66;,
       3;8, 65, 66;,
       3;4, 6, 67;,
       3;6, 66, 67;,
       3;0, 4, 68;,
       3;4, 67, 68;,
       3;1, 0, 69;,
       3;0, 68, 69;,
       3;26, 1, 57;,
       3;1, 69, 57;,
       3;56, 57, 70;,
       3;57, 71, 70;,
       3;58, 56, 72;,
       3;56, 70, 72;,
       3;59, 58, 73;,
       3;58, 72, 73;,
       3;60, 59, 74;,
       3;59, 73, 74;,
       3;61, 60, 75;,
       3;60, 74, 75;,
       3;62, 61, 76;,
       3;61, 75, 76;,
       3;63, 62, 77;,
       3;62, 76, 77;,
       3;64, 63, 78;,
       3;63, 77, 78;,
       3;65, 64, 79;,
       3;64, 78, 79;,
       3;66, 65, 80;,
       3;65, 79, 80;,
       3;67, 66, 81;,
       3;66, 80, 81;,
       3;68, 67, 82;,
       3;67, 81, 82;,
       3;69, 68, 83;,
       3;68, 82, 83;,
       3;57, 69, 71;,
       3;69, 83, 71;,
       3;70, 71, 84;,
       3;71, 85, 84;,
       3;72, 70, 86;,
       3;70, 84, 86;,
       3;73, 72, 87;,
       3;72, 86, 87;,
       3;74, 73, 88;,
       3;73, 87, 88;,
       3;75, 74, 89;,
       3;74, 88, 89;,
       3;76, 75, 90;,
       3;75, 89, 90;,
       3;77, 76, 91;,
       3;76, 90, 91;,
       3;78, 77, 92;,
       3;77, 91, 92;,
       3;79, 78, 93;,
       3;78, 92, 93;,
       3;80, 79, 94;,
       3;79, 93, 94;,
       3;81, 80, 95;,
       3;80, 94, 95;,
       3;82, 81, 96;,
       3;81, 95, 96;,
       3;83, 82, 97;,
       3;82, 96, 97;,
       3;71, 83, 85;,
       3;83, 97, 85;,
       3;84, 85, 44;,
       3;85, 42, 44;,
       3;86, 84, 46;,
       3;84, 44, 46;,
       3;87, 86, 48;,
       3;86, 46, 48;,
       3;88, 87, 50;,
       3;87, 48, 50;,
       3;89, 88, 52;,
       3;88, 50, 52;,
       3;90, 89, 54;,
       3;89, 52, 54;,
       3;91, 90, 55;,
       3;90, 54, 55;,
       3;92, 91, 53;,
       3;91, 55, 53;,
       3;93, 92, 51;,
       3;92, 53, 51;,
       3;94, 93, 49;,
       3;93, 51, 49;,
       3;95, 94, 47;,
       3;94, 49, 47;,
       3;96, 95, 45;,
       3;95, 47, 45;,
       3;97, 96, 43;,
       3;96, 45, 43;,
       3;85, 97, 42;,
       3;97, 43, 42;,
       3;7, 5, 98;,
       3;5, 99, 98;,
       3;9, 7, 100;,
       3;7, 98, 100;,
       3;11, 9, 101;,
       3;9, 100, 101;,
       3;13, 11, 102;,
       3;11, 101, 102;,
       3;15, 13, 103;,
       3;13, 102, 103;,
       3;17, 15, 104;,
       3;15, 103, 104;,
       3;19, 17, 105;,
       3;17, 104, 105;,
       3;21, 19, 106;,
       3;19, 105, 106;,
       3;23, 21, 107;,
       3;21, 106, 107;,
       3;25, 23, 108;,
       3;23, 107, 108;,
       3;27, 25, 109;,
       3;25, 108, 109;,
       3;3, 27, 110;,
       3;27, 109, 110;,
       3;2, 3, 111;,
       3;3, 110, 111;,
       3;5, 2, 99;,
       3;2, 111, 99;,
       3;98, 99, 112;,
       3;99, 113, 112;,
       3;100, 98, 114;,
       3;98, 112, 114;,
       3;101, 100, 115;,
       3;100, 114, 115;,
       3;102, 101, 116;,
       3;101, 115, 116;,
       3;103, 102, 117;,
       3;102, 116, 117;,
       3;104, 103, 118;,
       3;103, 117, 118;,
       3;105, 104, 119;,
       3;104, 118, 119;,
       3;106, 105, 120;,
       3;105, 119, 120;,
       3;107, 106, 121;,
       3;106, 120, 121;,
       3;108, 107, 122;,
       3;107, 121, 122;,
       3;109, 108, 123;,
       3;108, 122, 123;,
       3;110, 109, 124;,
       3;109, 123, 124;,
       3;111, 110, 125;,
       3;110, 124, 125;,
       3;99, 111, 113;,
       3;111, 125, 113;,
       3;112, 113, 126;,
       3;113, 127, 126;,
       3;114, 112, 128;,
       3;112, 126, 128;,
       3;115, 114, 129;,
       3;114, 128, 129;,
       3;116, 115, 130;,
       3;115, 129, 130;,
       3;117, 116, 131;,
       3;116, 130, 131;,
       3;118, 117, 132;,
       3;117, 131, 132;,
       3;119, 118, 133;,
       3;118, 132, 133;,
       3;120, 119, 134;,
       3;119, 133, 134;,
       3;121, 120, 135;,
       3;120, 134, 135;,
       3;122, 121, 136;,
       3;121, 135, 136;,
       3;123, 122, 137;,
       3;122, 136, 137;,
       3;124, 123, 138;,
       3;123, 137, 138;,
       3;125, 124, 139;,
       3;124, 138, 139;,
       3;113, 125, 127;,
       3;125, 139, 127;,
       3;126, 127, 140;,
       3;127, 141, 140;,
       3;128, 126, 142;,
       3;126, 140, 142;,
       3;129, 128, 143;,
       3;128, 142, 143;,
       3;130, 129, 144;,
       3;129, 143, 144;,
       3;131, 130, 145;,
       3;130, 144, 145;,
       3;132, 131, 146;,
       3;131, 145, 146;,
       3;133, 132, 147;,
       3;132, 146, 147;,
       3;134, 133, 148;,
       3;133, 147, 148;,
       3;135, 134, 149;,
       3;134, 148, 149;,
       3;136, 135, 150;,
       3;135, 149, 150;,
       3;137, 136, 151;,
       3;136, 150, 151;,
       3;138, 137, 152;,
       3;137, 151, 152;,
       3;139, 138, 153;,
       3;138, 152, 153;,
       3;127, 139, 141;,
       3;139, 153, 141;,
       3;140, 141, 34;,
       3;141, 32, 34;,
       3;142, 140, 36;,
       3;140, 34, 36;,
       3;143, 142, 38;,
       3;142, 36, 38;,
       3;144, 143, 40;,
       3;143, 38, 40;,
       3;145, 144, 41;,
       3;144, 40, 41;,
       3;146, 145, 39;,
       3;145, 41, 39;,
       3;147, 146, 37;,
       3;146, 39, 37;,
       3;148, 147, 35;,
       3;147, 37, 35;,
       3;149, 148, 33;,
       3;148, 35, 33;,
       3;150, 149, 31;,
       3;149, 33, 31;,
       3;151, 150, 29;,
       3;150, 31, 29;,
       3;152, 151, 28;,
       3;151, 29, 28;,
       3;153, 152, 30;,
       3;152, 28, 30;,
       3;141, 153, 32;,
       3;153, 30, 32;;
      }

      MeshTextureCoords {
       154;
       0.798084; 0.536109;,
       0.798687; 0.544744;,
       0.738356; 0.547146;,
       0.738951; 0.555783;,
       0.796418; 0.511910;,
       0.736683; 0.522949;,
       0.794008; 0.476953;,
       0.734272; 0.487991;,
       0.791324; 0.438151;,
       0.731596; 0.449188;,
       0.788913; 0.403184;,
       0.729177; 0.414223;,
       0.787247; 0.378995;,
       0.727510; 0.390025;,
       0.786645; 0.370359;,
       0.726917; 0.381396;,
       0.787247; 0.378995;,
       0.727510; 0.390025;,
       0.788913; 0.403184;,
       0.729177; 0.414223;,
       0.791324; 0.438151;,
       0.731596; 0.449188;,
       0.794008; 0.476953;,
       0.734272; 0.487991;,
       0.796418; 0.511910;,
       0.736683; 0.522949;,
       0.798084; 0.536109;,
       0.738356; 0.547146;,
       0.271958; 0.564517;,
       0.271904; 0.563759;,
       0.271904; 0.563759;,
       0.271763; 0.561652;,
       0.271763; 0.561652;,
       0.271546; 0.558601;,
       0.271546; 0.558601;,
       0.271317; 0.555215;,
       0.271317; 0.555215;,
       0.271108; 0.552171;,
       0.271108; 0.552171;,
       0.270959; 0.550057;,
       0.270959; 0.550057;,
       0.270906; 0.549307;,
       0.822962; 0.485400;,
       0.823219; 0.489031;,
       0.822266; 0.475227;,
       0.822962; 0.485400;,
       0.821248; 0.460528;,
       0.822266; 0.475227;,
       0.820123; 0.444217;,
       0.821248; 0.460528;,
       0.819113; 0.429517;,
       0.820123; 0.444217;,
       0.818409; 0.419346;,
       0.819113; 0.429517;,
       0.818160; 0.415713;,
       0.818409; 0.419346;,
       0.812332; 0.502201;,
       0.813794; 0.523415;,
       0.810210; 0.471542;,
       0.807867; 0.437513;,
       0.805752; 0.406852;,
       0.804282; 0.385631;,
       0.803758; 0.378060;,
       0.804282; 0.385631;,
       0.805752; 0.406852;,
       0.807867; 0.437513;,
       0.810210; 0.471542;,
       0.812332; 0.502201;,
       0.813794; 0.523415;,
       0.814317; 0.530986;,
       0.823732; 0.486620;,
       0.824791; 0.501915;,
       0.822205; 0.464512;,
       0.820512; 0.439981;,
       0.818992; 0.417880;,
       0.817934; 0.402585;,
       0.817559; 0.397119;,
       0.817934; 0.402585;,
       0.818992; 0.417880;,
       0.820512; 0.439981;,
       0.822205; 0.464512;,
       0.823732; 0.486620;,
       0.824791; 0.501915;,
       0.825165; 0.507372;,
       0.825487; 0.476604;,
       0.826253; 0.487644;,
       0.824390; 0.460650;,
       0.823167; 0.442950;,
       0.822071; 0.426997;,
       0.821304; 0.415956;,
       0.821030; 0.412017;,
       0.821304; 0.415956;,
       0.822071; 0.426997;,
       0.823167; 0.442950;,
       0.824390; 0.460650;,
       0.825487; 0.476604;,
       0.826253; 0.487644;,
       0.826527; 0.491583;,
       0.597079; 0.506405;,
       0.598653; 0.529187;,
       0.595331; 0.481116;,
       0.593764; 0.458333;,
       0.592675; 0.442569;,
       0.592287; 0.436941;,
       0.592675; 0.442569;,
       0.593764; 0.458333;,
       0.595331; 0.481116;,
       0.597079; 0.506405;,
       0.598653; 0.529187;,
       0.599742; 0.544951;,
       0.600130; 0.550578;,
       0.599742; 0.544951;,
       0.481875; 0.525855;,
       0.483220; 0.545370;,
       0.480374; 0.504189;,
       0.479028; 0.484674;,
       0.478094; 0.471161;,
       0.477768; 0.466342;,
       0.478094; 0.471161;,
       0.479028; 0.484674;,
       0.480374; 0.504189;,
       0.481875; 0.525855;,
       0.483220; 0.545370;,
       0.484155; 0.558883;,
       0.484489; 0.563700;,
       0.484155; 0.558883;,
       0.299282; 0.559299;,
       0.300208; 0.572723;,
       0.298249; 0.544416;,
       0.297324; 0.531006;,
       0.296687; 0.521717;,
       0.296464; 0.518402;,
       0.296687; 0.521717;,
       0.297324; 0.531006;,
       0.298249; 0.544416;,
       0.299282; 0.559299;,
       0.300208; 0.572723;,
       0.300844; 0.581999;,
       0.301078; 0.585311;,
       0.300844; 0.581999;,
       0.275431; 0.559144;,
       0.275793; 0.564440;,
       0.275023; 0.553270;,
       0.274663; 0.547983;,
       0.274403; 0.544318;,
       0.274313; 0.543013;,
       0.274403; 0.544318;,
       0.274663; 0.547983;,
       0.275023; 0.553270;,
       0.275431; 0.559144;,
       0.275793; 0.564440;,
       0.276051; 0.568096;,
       0.276135; 0.569411;,
       0.276051; 0.568096;;
      }

      MeshVertexColors {
       154;
       0; 1.000000; 1.000000; 1.000000; 1.000000;,
       1; 1.000000; 1.000000; 1.000000; 1.000000;,
       2; 1.000000; 1.000000; 1.000000; 1.000000;,
       3; 1.000000; 1.000000; 1.000000; 1.000000;,
       4; 1.000000; 1.000000; 1.000000; 1.000000;,
       5; 1.000000; 1.000000; 1.000000; 1.000000;,
       6; 1.000000; 1.000000; 1.000000; 1.000000;,
       7; 1.000000; 1.000000; 1.000000; 1.000000;,
       8; 1.000000; 1.000000; 1.000000; 1.000000;,
       9; 1.000000; 1.000000; 1.000000; 1.000000;,
       10; 1.000000; 1.000000; 1.000000; 1.000000;,
       11; 1.000000; 1.000000; 1.000000; 1.000000;,
       12; 1.000000; 1.000000; 1.000000; 1.000000;,
       13; 1.000000; 1.000000; 1.000000; 1.000000;,
       14; 1.000000; 1.000000; 1.000000; 1.000000;,
       15; 1.000000; 1.000000; 1.000000; 1.000000;,
       16; 1.000000; 1.000000; 1.000000; 1.000000;,
       17; 1.000000; 1.000000; 1.000000; 1.000000;,
       18; 1.000000; 1.000000; 1.000000; 1.000000;,
       19; 1.000000; 1.000000; 1.000000; 1.000000;,
       20; 1.000000; 1.000000; 1.000000; 1.000000;,
       21; 1.000000; 1.000000; 1.000000; 1.000000;,
       22; 1.000000; 1.000000; 1.000000; 1.000000;,
       23; 1.000000; 1.000000; 1.000000; 1.000000;,
       24; 1.000000; 1.000000; 1.000000; 1.000000;,
       25; 1.000000; 1.000000; 1.000000; 1.000000;,
       26; 1.000000; 1.000000; 1.000000; 1.000000;,
       27; 1.000000; 1.000000; 1.000000; 1.000000;,
       28; 1.000000; 1.000000; 1.000000; 1.000000;,
       29; 1.000000; 1.000000; 1.000000; 1.000000;,
       30; 1.000000; 1.000000; 1.000000; 1.000000;,
       31; 1.000000; 1.000000; 1.000000; 1.000000;,
       32; 1.000000; 1.000000; 1.000000; 1.000000;,
       33; 1.000000; 1.000000; 1.000000; 1.000000;,
       34; 1.000000; 1.000000; 1.000000; 1.000000;,
       35; 1.000000; 1.000000; 1.000000; 1.000000;,
       36; 1.000000; 1.000000; 1.000000; 1.000000;,
       37; 1.000000; 1.000000; 1.000000; 1.000000;,
       38; 1.000000; 1.000000; 1.000000; 1.000000;,
       39; 1.000000; 1.000000; 1.000000; 1.000000;,
       40; 1.000000; 1.000000; 1.000000; 1.000000;,
       41; 1.000000; 1.000000; 1.000000; 1.000000;,
       42; 1.000000; 1.000000; 1.000000; 1.000000;,
       43; 1.000000; 1.000000; 1.000000; 1.000000;,
       44; 1.000000; 1.000000; 1.000000; 1.000000;,
       45; 1.000000; 1.000000; 1.000000; 1.000000;,
       46; 1.000000; 1.000000; 1.000000; 1.000000;,
       47; 1.000000; 1.000000; 1.000000; 1.000000;,
       48; 1.000000; 1.000000; 1.000000; 1.000000;,
       49; 1.000000; 1.000000; 1.000000; 1.000000;,
       50; 1.000000; 1.000000; 1.000000; 1.000000;,
       51; 1.000000; 1.000000; 1.000000; 1.000000;,
       52; 1.000000; 1.000000; 1.000000; 1.000000;,
       53; 1.000000; 1.000000; 1.000000; 1.000000;,
       54; 1.000000; 1.000000; 1.000000; 1.000000;,
       55; 1.000000; 1.000000; 1.000000; 1.000000;,
       56; 1.000000; 1.000000; 1.000000; 1.000000;,
       57; 1.000000; 1.000000; 1.000000; 1.000000;,
       58; 1.000000; 1.000000; 1.000000; 1.000000;,
       59; 1.000000; 1.000000; 1.000000; 1.000000;,
       60; 1.000000; 1.000000; 1.000000; 1.000000;,
       61; 1.000000; 1.000000; 1.000000; 1.000000;,
       62; 1.000000; 1.000000; 1.000000; 1.000000;,
       63; 1.000000; 1.000000; 1.000000; 1.000000;,
       64; 1.000000; 1.000000; 1.000000; 1.000000;,
       65; 1.000000; 1.000000; 1.000000; 1.000000;,
       66; 1.000000; 1.000000; 1.000000; 1.000000;,
       67; 1.000000; 1.000000; 1.000000; 1.000000;,
       68; 1.000000; 1.000000; 1.000000; 1.000000;,
       69; 1.000000; 1.000000; 1.000000; 1.000000;,
       70; 1.000000; 1.000000; 1.000000; 1.000000;,
       71; 1.000000; 1.000000; 1.000000; 1.000000;,
       72; 1.000000; 1.000000; 1.000000; 1.000000;,
       73; 1.000000; 1.000000; 1.000000; 1.000000;,
       74; 1.000000; 1.000000; 1.000000; 1.000000;,
       75; 1.000000; 1.000000; 1.000000; 1.000000;,
       76; 1.000000; 1.000000; 1.000000; 1.000000;,
       77; 1.000000; 1.000000; 1.000000; 1.000000;,
       78; 1.000000; 1.000000; 1.000000; 1.000000;,
       79; 1.000000; 1.000000; 1.000000; 1.000000;,
       80; 1.000000; 1.000000; 1.000000; 1.000000;,
       81; 1.000000; 1.000000; 1.000000; 1.000000;,
       82; 1.000000; 1.000000; 1.000000; 1.000000;,
       83; 1.000000; 1.000000; 1.000000; 1.000000;,
       84; 1.000000; 1.000000; 1.000000; 1.000000;,
       85; 1.000000; 1.000000; 1.000000; 1.000000;,
       86; 1.000000; 1.000000; 1.000000; 1.000000;,
       87; 1.000000; 1.000000; 1.000000; 1.000000;,
       88; 1.000000; 1.000000; 1.000000; 1.000000;,
       89; 1.000000; 1.000000; 1.000000; 1.000000;,
       90; 1.000000; 1.000000; 1.000000; 1.000000;,
       91; 1.000000; 1.000000; 1.000000; 1.000000;,
       92; 1.000000; 1.000000; 1.000000; 1.000000;,
       93; 1.000000; 1.000000; 1.000000; 1.000000;,
       94; 1.000000; 1.000000; 1.000000; 1.000000;,
       95; 1.000000; 1.000000; 1.000000; 1.000000;,
       96; 1.000000; 1.000000; 1.000000; 1.000000;,
       97; 1.000000; 1.000000; 1.000000; 1.000000;,
       98; 1.000000; 1.000000; 1.000000; 1.000000;,
       99; 1.000000; 1.000000; 1.000000; 1.000000;,
       100; 1.000000; 1.000000; 1.000000; 1.000000;,
       101; 1.000000; 1.000000; 1.000000; 1.000000;,
       102; 1.000000; 1.000000; 1.000000; 1.000000;,
       103; 1.000000; 1.000000; 1.000000; 1.000000;,
       104; 1.000000; 1.000000; 1.000000; 1.000000;,
       105; 1.000000; 1.000000; 1.000000; 1.000000;,
       106; 1.000000; 1.000000; 1.000000; 1.000000;,
       107; 1.000000; 1.000000; 1.000000; 1.000000;,
       108; 1.000000; 1.000000; 1.000000; 1.000000;,
       109; 1.000000; 1.000000; 1.000000; 1.000000;,
       110; 1.000000; 1.000000; 1.000000; 1.000000;,
       111; 1.000000; 1.000000; 1.000000; 1.000000;,
       112; 1.000000; 1.000000; 1.000000; 1.000000;,
       113; 1.000000; 1.000000; 1.000000; 1.000000;,
       114; 1.000000; 1.000000; 1.000000; 1.000000;,
       115; 1.000000; 1.000000; 1.000000; 1.000000;,
       116; 1.000000; 1.000000; 1.000000; 1.000000;,
       117; 1.000000; 1.000000; 1.000000; 1.000000;,
       118; 1.000000; 1.000000; 1.000000; 1.000000;,
       119; 1.000000; 1.000000; 1.000000; 1.000000;,
       120; 1.000000; 1.000000; 1.000000; 1.000000;,
       121; 1.000000; 1.000000; 1.000000; 1.000000;,
       122; 1.000000; 1.000000; 1.000000; 1.000000;,
       123; 1.000000; 1.000000; 1.000000; 1.000000;,
       124; 1.000000; 1.000000; 1.000000; 1.000000;,
       125; 1.000000; 1.000000; 1.000000; 1.000000;,
       126; 1.000000; 1.000000; 1.000000; 1.000000;,
       127; 1.000000; 1.000000; 1.000000; 1.000000;,
       128; 1.000000; 1.000000; 1.000000; 1.000000;,
       129; 1.000000; 1.000000; 1.000000; 1.000000;,
       130; 1.000000; 1.000000; 1.000000; 1.000000;,
       131; 1.000000; 1.000000; 1.000000; 1.000000;,
       132; 1.000000; 1.000000; 1.000000; 1.000000;,
       133; 1.000000; 1.000000; 1.000000; 1.000000;,
       134; 1.000000; 1.000000; 1.000000; 1.000000;,
       135; 1.000000; 1.000000; 1.000000; 1.000000;,
       136; 1.000000; 1.000000; 1.000000; 1.000000;,
       137; 1.000000; 1.000000; 1.000000; 1.000000;,
       138; 1.000000; 1.000000; 1.000000; 1.000000;,
       139; 1.000000; 1.000000; 1.000000; 1.000000;,
       140; 1.000000; 1.000000; 1.000000; 1.000000;,
       141; 1.000000; 1.000000; 1.000000; 1.000000;,
       142; 1.000000; 1.000000; 1.000000; 1.000000;,
       143; 1.000000; 1.000000; 1.000000; 1.000000;,
       144; 1.000000; 1.000000; 1.000000; 1.000000;,
       145; 1.000000; 1.000000; 1.000000; 1.000000;,
       146; 1.000000; 1.000000; 1.000000; 1.000000;,
       147; 1.000000; 1.000000; 1.000000; 1.000000;,
       148; 1.000000; 1.000000; 1.000000; 1.000000;,
       149; 1.000000; 1.000000; 1.000000; 1.000000;,
       150; 1.000000; 1.000000; 1.000000; 1.000000;,
       151; 1.000000; 1.000000; 1.000000; 1.000000;,
       152; 1.000000; 1.000000; 1.000000; 1.000000;,
       153; 1.000000; 1.000000; 1.000000; 1.000000;;
      }

      MeshMaterialList {
       1;
       304;
       0,
       0,
       0,
       0,
       0,
       0,
       0,
       0,
       0,
       0,
       0,
       0,
       0,
       0,
       0,
       0,
       0,
       0,
       0,
       0,
       0,
       0,
       0,
       0,
       0,
       0,
       0,
       0,
       0,
       0,
       0,
       0,
       0,
       0,
       0,
       0,
       0,
       0,
       0,
       0,
       0,
       0,
       0,
       0,
       0,
       0,
       0,
       0,
       0,
       0,
       0,
       0,
       0,
       0,
       0,
       0,
       0,
       0,
       0,
       0,
       0,
       0,
       0,
       0,
       0,
       0,
       0,
       0,
       0,
       0,
       0,
       0,
       0,
       0,
       0,
       0,
       0,
       0,
       0,
       0,
       0,
       0,
       0,
       0,
       0,
       0,
       0,
       0,
       0,
       0,
       0,
       0,
       0,
       0,
       0,
       0,
       0,
       0,
       0,
       0,
       0,
       0,
       0,
       0,
       0,
       0,
       0,
       0,
       0,
       0,
       0,
       0,
       0,
       0,
       0,
       0,
       0,
       0,
       0,
       0,
       0,
       0,
       0,
       0,
       0,
       0,
       0,
       0,
       0,
       0,
       0,
       0,
       0,
       0,
       0,
       0,
       0,
       0,
       0,
       0,
       0,
       0,
       0,
       0,
       0,
       0,
       0,
       0,
       0,
       0,
       0,
       0,
       0,
       0,
       0,
       0,
       0,
       0,
       0,
       0,
       0,
       0,
       0,
       0,
       0,
       0,
       0,
       0,
       0,
       0,
       0,
       0,
       0,
       0,
       0,
       0,
       0,
       0,
       0,
       0,
       0,
       0,
       0,
       0,
       0,
       0,
       0,
       0,
       0,
       0,
       0,
       0,
       0,
       0,
       0,
       0,
       0,
       0,
       0,
       0,
       0,
       0,
       0,
       0,
       0,
       0,
       0,
       0,
       0,
       0,
       0,
       0,
       0,
       0,
       0,
       0,
       0,
       0,
       0,
       0,
       0,
       0,
       0,
       0,
       0,
       0,
       0,
       0,
       0,
       0,
       0,
       0,
       0,
       0,
       0,
       0,
       0,
       0,
       0,
       0,
       0,
       0,
       0,
       0,
       0,
       0,
       0,
       0,
       0,
       0,
       0,
       0,
       0,
       0,
       0,
       0,
       0,
       0,
       0,
       0,
       0,
       0,
       0,
       0,
       0,
       0,
       0,
       0,
       0,
       0,
       0,
       0,
       0,
       0,
       0,
       0,
       0,
       0,
       0,
       0,
       0,
       0,
       0,
       0,
       0,
       0,
       0,
       0,
       0,
       0,
       0,
       0,
       0,
       0,
       0,
       0,
       0,
       0,
       0,
       0,
       0,
       0,
       0,
       0;

       Material def_surf_mat {
        0.992157; 0.992157; 0.992157; 1.000000;;
        1.000000;
        0.150000; 0.150000; 0.150000;;
        0.000000; 0.000000; 0.000000;;

        TextureFilename {
         "veg.dds";
        }
       }

      }

      XSkinMeshHeader {
       1;
       1;
       1;
      }

      SkinWeights {
       "Body";
       154;
       0,
       1,
       2,
       3,
       4,
       5,
       6,
       7,
       8,
       9,
       10,
       11,
       12,
       13,
       14,
       15,
       16,
       17,
       18,
       19,
       20,
       21,
       22,
       23,
       24,
       25,
       26,
       27,
       28,
       29,
       30,
       31,
       32,
       33,
       34,
       35,
       36,
       37,
       38,
       39,
       40,
       41,
       42,
       43,
       44,
       45,
       46,
       47,
       48,
       49,
       50,
       51,
       52,
       53,
       54,
       55,
       56,
       57,
       58,
       59,
       60,
       61,
       62,
       63,
       64,
       65,
       66,
       67,
       68,
       69,
       70,
       71,
       72,
       73,
       74,
       75,
       76,
       77,
       78,
       79,
       80,
       81,
       82,
       83,
       84,
       85,
       86,
       87,
       88,
       89,
       90,
       91,
       92,
       93,
       94,
       95,
       96,
       97,
       98,
       99,
       100,
       101,
       102,
       103,
       104,
       105,
       106,
       107,
       108,
       109,
       110,
       111,
       112,
       113,
       114,
       115,
       116,
       117,
       118,
       119,
       120,
       121,
       122,
       123,
       124,
       125,
       126,
       127,
       128,
       129,
       130,
       131,
       132,
       133,
       134,
       135,
       136,
       137,
       138,
       139,
       140,
       141,
       142,
       143,
       144,
       145,
       146,
       147,
       148,
       149,
       150,
       151,
       152,
       153;
       1.000000,
       1.000000,
       1.000000,
       1.000000,
       1.000000,
       1.000000,
       1.000000,
       1.000000,
       1.000000,
       1.000000,
       1.000000,
       1.000000,
       1.000000,
       1.000000,
       1.000000,
       1.000000,
       1.000000,
       1.000000,
       1.000000,
       1.000000,
       1.000000,
       1.000000,
       1.000000,
       1.000000,
       1.000000,
       1.000000,
       1.000000,
       1.000000,
       1.000000,
       1.000000,
       1.000000,
       1.000000,
       1.000000,
       1.000000,
       1.000000,
       1.000000,
       1.000000,
       1.000000,
       1.000000,
       1.000000,
       1.000000,
       1.000000,
       1.000000,
       1.000000,
       1.000000,
       1.000000,
       1.000000,
       1.000000,
       1.000000,
       1.000000,
       1.000000,
       1.000000,
       1.000000,
       1.000000,
       1.000000,
       1.000000,
       1.000000,
       1.000000,
       1.000000,
       1.000000,
       1.000000,
       1.000000,
       1.000000,
       1.000000,
       1.000000,
       1.000000,
       1.000000,
       1.000000,
       1.000000,
       1.000000,
       1.000000,
       1.000000,
       1.000000,
       1.000000,
       1.000000,
       1.000000,
       1.000000,
       1.000000,
       1.000000,
       1.000000,
       1.000000,
       1.000000,
       1.000000,
       1.000000,
       1.000000,
       1.000000,
       1.000000,
       1.000000,
       1.000000,
       1.000000,
       1.000000,
       1.000000,
       1.000000,
       1.000000,
       1.000000,
       1.000000,
       1.000000,
       1.000000,
       1.000000,
       1.000000,
       1.000000,
       1.000000,
       1.000000,
       1.000000,
       1.000000,
       1.000000,
       1.000000,
       1.000000,
       1.000000,
       1.000000,
       1.000000,
       1.000000,
       1.000000,
       1.000000,
       1.000000,
       1.000000,
       1.000000,
       1.000000,
       1.000000,
       1.000000,
       1.000000,
       1.000000,
       1.000000,
       1.000000,
       1.000000,
       1.000000,
       1.000000,
       1.000000,
       1.000000,
       1.000000,
       1.000000,
       1.000000,
       1.000000,
       1.000000,
       1.000000,
       1.000000,
       1.000000,
       1.000000,
       1.000000,
       1.000000,
       1.000000,
       1.000000,
       1.000000,
       1.000000,
       1.000000,
       1.000000,
       1.000000,
       1.000000,
       1.000000,
       1.000000,
       1.000000,
       1.000000,
       1.000000,
       1.000000;
          1.000000, -0.000000, 0.000000, 0.000000,
          -0.000000, 1.000000, -0.000000, 0.000000,
          0.000000, -0.000000, 1.000000, 0.000000,
          -0.000000, -0.000000, -0.000000, 1.000000;;
      }


     }
   }

// Start of Animation

AnimationSet Untitled {
}
