xof 0303txt 0032

// DirectX 9.0 file
// Creator: Ultimate Unwrap3D Pro v3.19
// Website: http://www.unwrap3d.com
// Time: Thu Dec 10 21:30:36 2009

// Start of Templates

template VertexDuplicationIndices {
 <b8d65549-d7c9-4995-89cf-53a9a8b031e3>
 DWORD nIndices;
 DWORD nOriginalVertices;
 array DWORD indices[nIndices];
}

template FVFData {
 <b6e70a0e-8ef9-4e83-94ad-ecc8b0c04897>
 DWORD dwFVF;
 DWORD nDWords;
 array DWORD data[nDWords];
}

template Header {
 <3D82AB43-62DA-11cf-AB39-0020AF71E433>
 WORD major;
 WORD minor;
 DWORD flags;
}

template Vector {
 <3D82AB5E-62DA-11cf-AB39-0020AF71E433>
 FLOAT x;
 FLOAT y;
 FLOAT z;
}

template Coords2d {
 <F6F23F44-7686-11cf-8F52-0040333594A3>
 FLOAT u;
 FLOAT v;
}

template Matrix4x4 {
 <F6F23F45-7686-11cf-8F52-0040333594A3>
 array FLOAT matrix[16];
}

template ColorRGBA {
 <35FF44E0-6C7C-11cf-8F52-0040333594A3>
 FLOAT red;
 FLOAT green;
 FLOAT blue;
 FLOAT alpha;
}

template ColorRGB {
 <D3E16E81-7835-11cf-8F52-0040333594A3>
 FLOAT red;
 FLOAT green;
 FLOAT blue;
}

template IndexedColor {
 <1630B820-7842-11cf-8F52-0040333594A3>
 DWORD index;
 ColorRGBA indexColor;
}

template Material {
 <3D82AB4D-62DA-11cf-AB39-0020AF71E433>
 ColorRGBA faceColor;
 FLOAT power;
 ColorRGB specularColor;
 ColorRGB emissiveColor;
 [...]
}

template TextureFilename {
 <A42790E1-7810-11cf-8F52-0040333594A3>
 STRING filename;
}

template MeshFace {
 <3D82AB5F-62DA-11cf-AB39-0020AF71E433>
 DWORD nFaceVertexIndices;
 array DWORD faceVertexIndices[nFaceVertexIndices];
}

template MeshTextureCoords {
 <F6F23F40-7686-11cf-8F52-0040333594A3>
 DWORD nTextureCoords;
 array Coords2d textureCoords[nTextureCoords];
}

template MeshMaterialList {
 <F6F23F42-7686-11cf-8F52-0040333594A3>
 DWORD nMaterials;
 DWORD nFaceIndexes;
 array DWORD faceIndexes[nFaceIndexes];
 [Material]
}

template MeshNormals {
 <F6F23F43-7686-11cf-8F52-0040333594A3>
 DWORD nNormals;
 array Vector normals[nNormals];
 DWORD nFaceNormals;
 array MeshFace faceNormals[nFaceNormals];
}

template MeshVertexColors {
 <1630B821-7842-11cf-8F52-0040333594A3>
 DWORD nVertexColors;
 array IndexedColor vertexColors[nVertexColors];
}

template Mesh {
 <3D82AB44-62DA-11cf-AB39-0020AF71E433>
 DWORD nVertices;
 array Vector vertices[nVertices];
 DWORD nFaces;
 array MeshFace faces[nFaces];
 [...]
}

template FrameTransformMatrix {
 <F6F23F41-7686-11cf-8F52-0040333594A3>
 Matrix4x4 frameMatrix;
}

template Frame {
 <3D82AB46-62DA-11cf-AB39-0020AF71E433>
 [...]
}

template FloatKeys {
 <10DD46A9-775B-11cf-8F52-0040333594A3>
 DWORD nValues;
 array FLOAT values[nValues];
}

template TimedFloatKeys {
 <F406B180-7B3B-11cf-8F52-0040333594A3>
 DWORD time;
 FloatKeys tfkeys;
}

template AnimationKey {
 <10DD46A8-775B-11cf-8F52-0040333594A3>
 DWORD keyType;
 DWORD nKeys;
 array TimedFloatKeys keys[nKeys];
}

template AnimationOptions {
 <E2BF56C0-840F-11cf-8F52-0040333594A3>
 DWORD openclosed;
 DWORD positionquality;
}

template Animation {
 <3D82AB4F-62DA-11cf-AB39-0020AF71E433>
 [...]
}

template AnimationSet {
 <3D82AB50-62DA-11cf-AB39-0020AF71E433>
 [Animation]
}

template XSkinMeshHeader {
 <3CF169CE-FF7C-44ab-93C0-F78F62D172E2>
 WORD nMaxSkinWeightsPerVertex;
 WORD nMaxSkinWeightsPerFace;
 WORD nBones;
}

template SkinWeights {
 <6F0D123B-BAD2-4167-A0D0-80224F25FABB>
 STRING transformNodeName;
 DWORD nWeights;
 array DWORD vertexIndices[nWeights];
 array FLOAT weights[nWeights];
 Matrix4x4 matrixOffset;
}

template AnimTicksPerSecond {
 <9E415A43-7BA6-4a73-8743-B73D47E88476>
 DWORD AnimTicksPerSecond;
}

AnimTicksPerSecond {
 30;
}

// Start of Frames

   Frame U3DMesh {
      FrameTransformMatrix {
       1.000000, 0.000000, 0.000000, 0.000000,
       0.000000, 1.000000, 0.000000, 0.000000,
       0.000000, 0.000000, 1.000000, 0.000000,
       0.000000, 0.000000, 0.000000, 1.000000;;
      }

   }

   Frame Body {
      FrameTransformMatrix {
       1.000000, 0.000000, 0.000000, 0.000000,
       0.000000, 1.000000, 0.000000, 0.000000,
       0.000000, 0.000000, 1.000000, 0.000000,
       0.000000, 0.000000, 0.000000, 1.000000;;
      }

      Mesh skinnedMesh {
       154;
       1.011590; 2.866501; -0.639900;,
       1.011590; 3.012600; 0.000000;,
       3.171500; 2.923401; -0.667198;,
       3.171500; 3.075699; 0.000000;,
       1.011590; 2.457298; -1.153000;,
       3.171500; 2.496700; -1.202301;,
       1.011590; 1.866001; -1.437798;,
       3.171500; 1.880001; -1.499298;,
       1.011590; 1.209698; -1.437798;,
       3.171500; 1.195599; -1.499298;,
       1.011590; 0.618298; -1.153000;,
       3.171500; 0.578999; -1.202301;,
       1.011590; 0.209099; -0.639900;,
       3.171500; 0.152298; -0.667198;,
       1.011590; 0.063099; 0.000000;,
       3.171500; 0.000000; 0.000000;,
       1.011590; 0.209099; 0.639900;,
       3.171500; 0.152298; 0.667305;,
       1.011590; 0.618298; 1.153000;,
       3.171500; 0.578999; 1.202301;,
       1.011590; 1.209698; 1.437805;,
       3.171500; 1.195599; 1.499298;,
       1.011590; 1.866001; 1.437805;,
       3.171500; 1.880001; 1.499298;,
       1.011590; 2.457298; 1.153000;,
       3.171500; 2.496700; 1.202301;,
       1.011590; 2.866501; 0.639900;,
       3.171500; 2.923401; 0.667305;,
       6.768970; 2.094101; 0.000000;,
       6.768970; 2.043098; 0.223198;,
       6.768970; 2.043098; -0.223198;,
       6.768970; 1.900398; 0.402199;,
       6.768970; 1.900398; -0.402199;,
       6.768970; 1.694099; 0.501503;,
       6.768970; 1.694099; -0.501495;,
       6.768970; 1.465199; 0.501503;,
       6.768970; 1.465199; -0.501495;,
       6.768970; 1.258900; 0.402199;,
       6.768970; 1.258900; -0.402199;,
       6.768970; 1.116199; 0.223198;,
       6.768970; 1.116199; -0.223198;,
       6.768970; 1.065300; 0.000000;,
       -6.768970; 2.507999; 0.215401;,
       -6.768970; 2.557198; 0.000000;,
       -6.768970; 2.370300; 0.388100;,
       -6.768970; 2.507999; -0.215401;,
       -6.768970; 2.171200; 0.484001;,
       -6.768970; 2.370300; -0.388100;,
       -6.768970; 1.950298; 0.484001;,
       -6.768970; 2.171200; -0.484001;,
       -6.768970; 1.751198; 0.388100;,
       -6.768970; 1.950298; -0.484001;,
       -6.768970; 1.613400; 0.215401;,
       -6.768970; 1.751198; -0.388100;,
       -6.768970; 1.564301; 0.000000;,
       -6.768970; 1.613400; -0.215401;,
       4.238190; 3.090698; -0.667198;,
       4.238190; 3.243000; 0.000000;,
       4.238190; 3.090698; 0.667305;,
       4.238190; 2.663998; -1.202301;,
       4.238190; 2.047398; -1.499298;,
       4.238190; 1.362999; -1.499298;,
       4.238190; 0.746300; -1.202301;,
       4.238190; 0.319599; -0.667198;,
       4.238190; 0.167301; 0.000000;,
       4.238190; 0.319599; 0.667305;,
       4.238190; 0.746300; 1.202301;,
       4.238190; 1.362999; 1.499298;,
       4.238190; 2.047398; 1.499298;,
       4.238190; 2.663998; 1.202301;,
       5.346710; 3.073200; -0.658798;,
       5.346710; 3.223499; 0.000000;,
       5.346710; 3.073200; 0.658798;,
       5.346710; 2.651901; -1.187096;,
       5.346710; 2.651901; 1.187103;,
       5.346710; 2.042999; -1.480301;,
       5.346710; 1.367298; -1.480301;,
       5.346710; 0.758499; -1.187096;,
       5.346710; 0.337101; -0.658798;,
       5.346710; 0.186798; 0.000000;,
       5.346710; 0.337101; 0.658798;,
       5.346710; 0.758499; 1.187103;,
       5.346710; 1.367298; 1.480301;,
       5.346710; 2.042999; 1.480301;,
       6.162420; 2.799500; -0.587502;,
       6.162420; 2.933598; 0.000000;,
       6.162420; 2.799500; 0.587502;,
       6.162420; 2.423901; -1.058601;,
       6.162420; 2.423901; 1.058601;,
       6.162420; 1.881001; -1.320000;,
       6.162420; 1.881001; 1.320000;,
       6.162420; 1.278400; -1.320000;,
       6.162420; 0.735500; -1.058601;,
       6.162420; 0.359798; -0.587502;,
       6.162420; 0.225700; 0.000000;,
       6.162420; 0.359798; 0.587502;,
       6.162420; 0.735500; 1.058601;,
       6.162420; 1.278400; 1.320000;,
       -1.770166; 2.895401; 0.000000;,
       -1.770166; 2.760998; -0.588997;,
       -1.770166; 2.760998; 0.589005;,
       -1.770166; 2.384300; -1.061401;,
       -1.770166; 1.839901; -1.323601;,
       -1.770166; 1.235699; -1.323601;,
       -1.770166; 0.691399; -1.061401;,
       -1.770166; 0.314701; -0.588997;,
       -1.770166; 0.180199; 0.000000;,
       -1.770166; 0.314701; 0.589005;,
       -1.770166; 0.691399; 1.061401;,
       -1.770166; 1.235699; 1.323601;,
       -1.770166; 1.839901; 1.323601;,
       -1.770166; 2.384300; 1.061401;,
       -3.631640; 3.083698; 0.000000;,
       -3.631640; 2.949200; -0.588997;,
       -3.631640; 2.572498; -1.061401;,
       -3.631640; 2.949200; 0.589005;,
       -3.631640; 2.572498; 1.061401;,
       -3.631640; 2.028198; -1.323601;,
       -3.631640; 1.424000; -1.323601;,
       -3.631640; 0.879601; -1.061401;,
       -3.631640; 0.502899; -0.588997;,
       -3.631640; 0.368500; 0.000000;,
       -3.631640; 0.502899; 0.589005;,
       -3.631640; 0.879601; 1.061401;,
       -3.631640; 1.424000; 1.323601;,
       -3.631640; 2.028198; 1.323601;,
       -5.639530; 3.418301; 0.000000;,
       -5.639530; 3.283901; -0.588997;,
       -5.639530; 2.907200; -1.061401;,
       -5.639530; 3.283901; 0.589005;,
       -5.639530; 2.362801; -1.323601;,
       -5.639530; 2.907200; 1.061401;,
       -5.639530; 2.362801; 1.323601;,
       -5.639530; 1.758598; -1.323601;,
       -5.639530; 1.214298; -1.061401;,
       -5.639530; 0.837601; -0.588997;,
       -5.639530; 0.703098; 0.000000;,
       -5.639530; 0.837601; 0.589005;,
       -5.639530; 1.214298; 1.061401;,
       -5.639530; 1.758598; 1.323601;,
       -6.329740; 3.160999; 0.000000;,
       -6.329740; 3.052101; -0.477402;,
       -6.329740; 2.746799; -0.860298;,
       -6.329740; 3.052101; 0.477402;,
       -6.329740; 2.305599; -1.072701;,
       -6.329740; 2.746799; 0.860298;,
       -6.329740; 1.815899; -1.072701;,
       -6.329740; 2.305599; 1.072701;,
       -6.329740; 1.815899; 1.072701;,
       -6.329740; 1.374699; -0.860298;,
       -6.329740; 1.069401; -0.477402;,
       -6.329740; 0.960400; 0.000000;,
       -6.329740; 1.069401; 0.477402;,
       -6.329740; 1.374699; 0.860298;;
       304;
       3;0, 1, 2;,
       3;1, 3, 2;,
       3;4, 0, 5;,
       3;0, 2, 5;,
       3;6, 4, 7;,
       3;4, 5, 7;,
       3;8, 6, 9;,
       3;6, 7, 9;,
       3;10, 8, 11;,
       3;8, 9, 11;,
       3;12, 10, 13;,
       3;10, 11, 13;,
       3;14, 12, 15;,
       3;12, 13, 15;,
       3;16, 14, 17;,
       3;14, 15, 17;,
       3;18, 16, 19;,
       3;16, 17, 19;,
       3;20, 18, 21;,
       3;18, 19, 21;,
       3;22, 20, 23;,
       3;20, 21, 23;,
       3;24, 22, 25;,
       3;22, 23, 25;,
       3;26, 24, 27;,
       3;24, 25, 27;,
       3;1, 26, 3;,
       3;26, 27, 3;,
       3;28, 29, 30;,
       3;29, 31, 30;,
       3;30, 31, 32;,
       3;31, 33, 32;,
       3;32, 33, 34;,
       3;33, 35, 34;,
       3;34, 35, 36;,
       3;35, 37, 36;,
       3;36, 37, 38;,
       3;37, 39, 38;,
       3;38, 39, 40;,
       3;39, 41, 40;,
       3;42, 43, 44;,
       3;43, 45, 44;,
       3;44, 45, 46;,
       3;45, 47, 46;,
       3;46, 47, 48;,
       3;47, 49, 48;,
       3;48, 49, 50;,
       3;49, 51, 50;,
       3;50, 51, 52;,
       3;51, 53, 52;,
       3;52, 53, 54;,
       3;53, 55, 54;,
       3;56, 2, 57;,
       3;2, 3, 57;,
       3;57, 3, 58;,
       3;3, 27, 58;,
       3;59, 5, 56;,
       3;5, 2, 56;,
       3;60, 7, 59;,
       3;7, 5, 59;,
       3;61, 9, 60;,
       3;9, 7, 60;,
       3;62, 11, 61;,
       3;11, 9, 61;,
       3;63, 13, 62;,
       3;13, 11, 62;,
       3;64, 15, 63;,
       3;15, 13, 63;,
       3;65, 17, 64;,
       3;17, 15, 64;,
       3;66, 19, 65;,
       3;19, 17, 65;,
       3;67, 21, 66;,
       3;21, 19, 66;,
       3;68, 23, 67;,
       3;23, 21, 67;,
       3;69, 25, 68;,
       3;25, 23, 68;,
       3;58, 27, 69;,
       3;27, 25, 69;,
       3;70, 56, 71;,
       3;56, 57, 71;,
       3;71, 57, 72;,
       3;57, 58, 72;,
       3;73, 59, 70;,
       3;59, 56, 70;,
       3;72, 58, 74;,
       3;58, 69, 74;,
       3;75, 60, 73;,
       3;60, 59, 73;,
       3;76, 61, 75;,
       3;61, 60, 75;,
       3;77, 62, 76;,
       3;62, 61, 76;,
       3;78, 63, 77;,
       3;63, 62, 77;,
       3;79, 64, 78;,
       3;64, 63, 78;,
       3;80, 65, 79;,
       3;65, 64, 79;,
       3;81, 66, 80;,
       3;66, 65, 80;,
       3;82, 67, 81;,
       3;67, 66, 81;,
       3;83, 68, 82;,
       3;68, 67, 82;,
       3;74, 69, 83;,
       3;69, 68, 83;,
       3;84, 70, 85;,
       3;70, 71, 85;,
       3;85, 71, 86;,
       3;71, 72, 86;,
       3;87, 73, 84;,
       3;73, 70, 84;,
       3;86, 72, 88;,
       3;72, 74, 88;,
       3;89, 75, 87;,
       3;75, 73, 87;,
       3;88, 74, 90;,
       3;74, 83, 90;,
       3;91, 76, 89;,
       3;76, 75, 89;,
       3;92, 77, 91;,
       3;77, 76, 91;,
       3;93, 78, 92;,
       3;78, 77, 92;,
       3;94, 79, 93;,
       3;79, 78, 93;,
       3;95, 80, 94;,
       3;80, 79, 94;,
       3;96, 81, 95;,
       3;81, 80, 95;,
       3;97, 82, 96;,
       3;82, 81, 96;,
       3;90, 83, 97;,
       3;83, 82, 97;,
       3;30, 84, 28;,
       3;84, 85, 28;,
       3;28, 85, 29;,
       3;85, 86, 29;,
       3;32, 87, 30;,
       3;87, 84, 30;,
       3;29, 86, 31;,
       3;86, 88, 31;,
       3;34, 89, 32;,
       3;89, 87, 32;,
       3;31, 88, 33;,
       3;88, 90, 33;,
       3;36, 91, 34;,
       3;91, 89, 34;,
       3;33, 90, 35;,
       3;90, 97, 35;,
       3;38, 92, 36;,
       3;92, 91, 36;,
       3;40, 93, 38;,
       3;93, 92, 38;,
       3;41, 94, 40;,
       3;94, 93, 40;,
       3;39, 95, 41;,
       3;95, 94, 41;,
       3;37, 96, 39;,
       3;96, 95, 39;,
       3;35, 97, 37;,
       3;97, 96, 37;,
       3;98, 1, 99;,
       3;1, 0, 99;,
       3;100, 26, 98;,
       3;26, 1, 98;,
       3;99, 0, 101;,
       3;0, 4, 101;,
       3;101, 4, 102;,
       3;4, 6, 102;,
       3;102, 6, 103;,
       3;6, 8, 103;,
       3;103, 8, 104;,
       3;8, 10, 104;,
       3;104, 10, 105;,
       3;10, 12, 105;,
       3;105, 12, 106;,
       3;12, 14, 106;,
       3;106, 14, 107;,
       3;14, 16, 107;,
       3;107, 16, 108;,
       3;16, 18, 108;,
       3;108, 18, 109;,
       3;18, 20, 109;,
       3;109, 20, 110;,
       3;20, 22, 110;,
       3;110, 22, 111;,
       3;22, 24, 111;,
       3;111, 24, 100;,
       3;24, 26, 100;,
       3;112, 98, 113;,
       3;98, 99, 113;,
       3;113, 99, 114;,
       3;99, 101, 114;,
       3;115, 100, 112;,
       3;100, 98, 112;,
       3;116, 111, 115;,
       3;111, 100, 115;,
       3;114, 101, 117;,
       3;101, 102, 117;,
       3;117, 102, 118;,
       3;102, 103, 118;,
       3;118, 103, 119;,
       3;103, 104, 119;,
       3;119, 104, 120;,
       3;104, 105, 120;,
       3;120, 105, 121;,
       3;105, 106, 121;,
       3;121, 106, 122;,
       3;106, 107, 122;,
       3;122, 107, 123;,
       3;107, 108, 123;,
       3;123, 108, 124;,
       3;108, 109, 124;,
       3;124, 109, 125;,
       3;109, 110, 125;,
       3;125, 110, 116;,
       3;110, 111, 116;,
       3;126, 112, 127;,
       3;112, 113, 127;,
       3;127, 113, 128;,
       3;113, 114, 128;,
       3;129, 115, 126;,
       3;115, 112, 126;,
       3;128, 114, 130;,
       3;114, 117, 130;,
       3;131, 116, 129;,
       3;116, 115, 129;,
       3;132, 125, 131;,
       3;125, 116, 131;,
       3;130, 117, 133;,
       3;117, 118, 133;,
       3;133, 118, 134;,
       3;118, 119, 134;,
       3;134, 119, 135;,
       3;119, 120, 135;,
       3;135, 120, 136;,
       3;120, 121, 136;,
       3;136, 121, 137;,
       3;121, 122, 137;,
       3;137, 122, 138;,
       3;122, 123, 138;,
       3;138, 123, 139;,
       3;123, 124, 139;,
       3;139, 124, 132;,
       3;124, 125, 132;,
       3;140, 126, 141;,
       3;126, 127, 141;,
       3;141, 127, 142;,
       3;127, 128, 142;,
       3;143, 129, 140;,
       3;129, 126, 140;,
       3;142, 128, 144;,
       3;128, 130, 144;,
       3;145, 131, 143;,
       3;131, 129, 143;,
       3;144, 130, 146;,
       3;130, 133, 146;,
       3;147, 132, 145;,
       3;132, 131, 145;,
       3;148, 139, 147;,
       3;139, 132, 147;,
       3;146, 133, 149;,
       3;133, 134, 149;,
       3;149, 134, 150;,
       3;134, 135, 150;,
       3;150, 135, 151;,
       3;135, 136, 151;,
       3;151, 136, 152;,
       3;136, 137, 152;,
       3;152, 137, 153;,
       3;137, 138, 153;,
       3;153, 138, 148;,
       3;138, 139, 148;,
       3;43, 140, 45;,
       3;140, 141, 45;,
       3;45, 141, 47;,
       3;141, 142, 47;,
       3;42, 143, 43;,
       3;143, 140, 43;,
       3;47, 142, 49;,
       3;142, 144, 49;,
       3;44, 145, 42;,
       3;145, 143, 42;,
       3;49, 144, 51;,
       3;144, 146, 51;,
       3;46, 147, 44;,
       3;147, 145, 44;,
       3;51, 146, 53;,
       3;146, 149, 53;,
       3;48, 148, 46;,
       3;148, 147, 46;,
       3;50, 153, 48;,
       3;153, 148, 48;,
       3;53, 149, 55;,
       3;149, 150, 55;,
       3;55, 150, 54;,
       3;150, 151, 54;,
       3;54, 151, 52;,
       3;151, 152, 52;,
       3;52, 152, 50;,
       3;152, 153, 50;;

      MeshNormals {
       154;
       -0.035643; 0.900377; -0.433649;,
       -0.035648; 0.999364; 0.000000;,
       -0.084682; 0.897624; -0.432551;,
       -0.092283; 0.995733; -0.000009;,
       -0.035638; 0.623108; -0.781323;,
       -0.063270; 0.622028; -0.780434;,
       -0.035635; 0.222409; -0.974302;,
       -0.032028; 0.222296; -0.974453;,
       -0.035633; -0.222376; -0.974310;,
       0.002815; -0.222408; -0.974950;,
       -0.035635; -0.623084; -0.781343;,
       0.034098; -0.622915; -0.781546;,
       -0.035637; -0.900410; -0.433581;,
       0.055573; -0.899484; -0.433406;,
       -0.035633; -0.999365; 0.000000;,
       0.063176; -0.998002; -0.000009;,
       -0.035641; -0.900410; 0.433581;,
       0.055560; -0.899478; 0.433420;,
       -0.035642; -0.623087; 0.781340;,
       0.034109; -0.622898; 0.781560;,
       -0.035633; -0.222381; 0.974308;,
       0.002833; -0.222411; 0.974949;,
       -0.035632; 0.222414; 0.974301;,
       -0.032012; 0.222299; 0.974453;,
       -0.035635; 0.623112; 0.781320;,
       -0.063257; 0.622012; 0.780448;,
       -0.035644; 0.900377; 0.433649;,
       -0.084693; 0.897616; 0.432565;,
       0.913507; 0.406823; 0.000002;,
       0.913508; 0.366545; 0.176490;,
       0.913511; 0.366536; -0.176489;,
       0.913519; 0.253640; 0.318040;,
       0.913521; 0.253639; -0.318037;,
       0.913511; 0.090509; 0.396617;,
       0.913514; 0.090507; -0.396611;,
       0.913509; -0.090511; 0.396621;,
       0.913508; -0.090512; -0.396623;,
       0.913510; -0.253633; 0.318073;,
       0.913511; -0.253629; -0.318071;,
       0.913509; -0.366528; 0.176517;,
       0.913516; -0.366514; -0.176511;,
       0.913515; -0.406805; 0.000002;,
       -0.912633; 0.368317; 0.177324;,
       -0.912618; 0.408813; -0.000003;,
       -0.912634; 0.254860; 0.319603;,
       -0.912626; 0.368332; -0.177328;,
       -0.912621; 0.090941; 0.398562;,
       -0.912639; 0.254854; -0.319592;,
       -0.912626; -0.090936; 0.398552;,
       -0.912626; 0.090936; -0.398552;,
       -0.912630; -0.254871; 0.319604;,
       -0.912621; -0.090941; -0.398562;,
       -0.912621; -0.368321; 0.177376;,
       -0.912634; -0.254861; -0.319602;,
       -0.912625; -0.408798; -0.000004;,
       -0.912621; -0.368325; -0.177369;,
       -0.061390; 0.899171; -0.433270;,
       -0.068981; 0.997618; -0.000017;,
       -0.061360; 0.899159; 0.433299;,
       -0.039919; 0.622795; -0.781366;,
       -0.008632; 0.222406; -0.974916;,
       0.026208; -0.222338; -0.974617;,
       0.057442; -0.622262; -0.780698;,
       0.078877; -0.898064; -0.432735;,
       0.086480; -0.996254; -0.000017;,
       0.078885; -0.898050; 0.432763;,
       0.057468; -0.622223; 0.780727;,
       0.026215; -0.222338; 0.974617;,
       -0.008641; 0.222406; 0.974916;,
       -0.039914; 0.622757; 0.781397;,
       0.172016; 0.887339; -0.427832;,
       0.178793; 0.983887; -0.000008;,
       0.172049; 0.887329; 0.427840;,
       0.152760; 0.615570; -0.773135;,
       0.152765; 0.615548; 0.773151;,
       0.124174; 0.220016; -0.967561;,
       0.091457; -0.222183; -0.970706;,
       0.061307; -0.622552; -0.780173;,
       0.040191; -0.900285; -0.433441;,
       0.032622; -0.999468; -0.000009;,
       0.040203; -0.900279; 0.433454;,
       0.061329; -0.622533; 0.780187;,
       0.091474; -0.222179; 0.970705;,
       0.124150; 0.220015; 0.967564;,
       0.596186; 0.723140; -0.348755;,
       0.601566; 0.798823; 0.000003;,
       0.596182; 0.723146; 0.348751;,
       0.580692; 0.506956; -0.637019;,
       0.580702; 0.506948; 0.637015;,
       0.557334; 0.183901; -0.809666;,
       0.557325; 0.183901; 0.809672;,
       0.530110; -0.189303; -0.826527;,
       0.504547; -0.538545; -0.674835;,
       0.486366; -0.787271; -0.379015;,
       0.479768; -0.877395; 0.000001;,
       0.486356; -0.787277; 0.379016;,
       0.504548; -0.538546; 0.674833;,
       0.530128; -0.189297; 0.826517;,
       0.029351; 0.999569; -0.000000;,
       0.024381; 0.900659; -0.433843;,
       0.024379; 0.900658; 0.433844;,
       0.010422; 0.623384; -0.781846;,
       -0.009804; 0.222483; -0.974887;,
       -0.032285; -0.222378; -0.974426;,
       -0.052497; -0.622560; -0.780809;,
       -0.066423; -0.898936; -0.433015;,
       -0.071381; -0.997449; -0.000001;,
       -0.066429; -0.898935; 0.433016;,
       -0.052500; -0.622560; 0.780809;,
       -0.032287; -0.222381; 0.974425;,
       -0.009800; 0.222485; 0.974887;,
       0.010429; 0.623385; 0.781846;,
       0.132583; 0.991172; -0.000002;,
       0.119650; 0.894344; -0.431083;,
       0.083114; 0.621026; -0.779371;,
       0.119649; 0.894343; 0.431086;,
       0.083114; 0.621023; 0.779373;,
       0.029755; 0.222263; -0.974532;,
       -0.029754; -0.222263; -0.974532;,
       -0.083113; -0.621026; -0.779371;,
       -0.119649; -0.894344; -0.431084;,
       -0.132584; -0.991172; -0.000001;,
       -0.119650; -0.894343; 0.431086;,
       -0.083112; -0.621023; 0.779374;,
       -0.029754; -0.222263; 0.974533;,
       0.029755; 0.222263; 0.974533;,
       -0.096000; 0.995381; -0.000001;,
       -0.104045; 0.895965; -0.431766;,
       -0.126668; 0.618249; -0.775708;,
       -0.104016; 0.895966; 0.431770;,
       -0.159572; 0.219564; -0.962460;,
       -0.126694; 0.618246; 0.775706;,
       -0.159604; 0.219561; 0.962455;,
       -0.195979; -0.218097; -0.956047;,
       -0.228317; -0.606810; -0.761350;,
       -0.250348; -0.872168; -0.420297;,
       -0.258139; -0.966108; -0.000001;,
       -0.250349; -0.872167; 0.420298;,
       -0.228292; -0.606808; 0.761359;,
       -0.195946; -0.218102; 0.956053;,
       -0.606287; 0.795246; -0.000002;,
       -0.606296; 0.716510; -0.344990;,
       -0.606296; 0.495833; -0.621735;,
       -0.606293; 0.716511; 0.344994;,
       -0.606305; 0.176948; -0.775296;,
       -0.606305; 0.495828; 0.621731;,
       -0.606331; -0.176959; -0.775273;,
       -0.606319; 0.176945; 0.775285;,
       -0.606308; -0.176964; 0.775290;,
       -0.606313; -0.495842; -0.621712;,
       -0.606274; -0.716495; -0.345060;,
       -0.606302; -0.795235; -0.000004;,
       -0.606285; -0.716484; 0.345063;,
       -0.606283; -0.495855; 0.621730;;
       304;
       3;0, 1, 2;,
       3;1, 3, 2;,
       3;4, 0, 5;,
       3;0, 2, 5;,
       3;6, 4, 7;,
       3;4, 5, 7;,
       3;8, 6, 9;,
       3;6, 7, 9;,
       3;10, 8, 11;,
       3;8, 9, 11;,
       3;12, 10, 13;,
       3;10, 11, 13;,
       3;14, 12, 15;,
       3;12, 13, 15;,
       3;16, 14, 17;,
       3;14, 15, 17;,
       3;18, 16, 19;,
       3;16, 17, 19;,
       3;20, 18, 21;,
       3;18, 19, 21;,
       3;22, 20, 23;,
       3;20, 21, 23;,
       3;24, 22, 25;,
       3;22, 23, 25;,
       3;26, 24, 27;,
       3;24, 25, 27;,
       3;1, 26, 3;,
       3;26, 27, 3;,
       3;28, 29, 30;,
       3;29, 31, 30;,
       3;30, 31, 32;,
       3;31, 33, 32;,
       3;32, 33, 34;,
       3;33, 35, 34;,
       3;34, 35, 36;,
       3;35, 37, 36;,
       3;36, 37, 38;,
       3;37, 39, 38;,
       3;38, 39, 40;,
       3;39, 41, 40;,
       3;42, 43, 44;,
       3;43, 45, 44;,
       3;44, 45, 46;,
       3;45, 47, 46;,
       3;46, 47, 48;,
       3;47, 49, 48;,
       3;48, 49, 50;,
       3;49, 51, 50;,
       3;50, 51, 52;,
       3;51, 53, 52;,
       3;52, 53, 54;,
       3;53, 55, 54;,
       3;56, 2, 57;,
       3;2, 3, 57;,
       3;57, 3, 58;,
       3;3, 27, 58;,
       3;59, 5, 56;,
       3;5, 2, 56;,
       3;60, 7, 59;,
       3;7, 5, 59;,
       3;61, 9, 60;,
       3;9, 7, 60;,
       3;62, 11, 61;,
       3;11, 9, 61;,
       3;63, 13, 62;,
       3;13, 11, 62;,
       3;64, 15, 63;,
       3;15, 13, 63;,
       3;65, 17, 64;,
       3;17, 15, 64;,
       3;66, 19, 65;,
       3;19, 17, 65;,
       3;67, 21, 66;,
       3;21, 19, 66;,
       3;68, 23, 67;,
       3;23, 21, 67;,
       3;69, 25, 68;,
       3;25, 23, 68;,
       3;58, 27, 69;,
       3;27, 25, 69;,
       3;70, 56, 71;,
       3;56, 57, 71;,
       3;71, 57, 72;,
       3;57, 58, 72;,
       3;73, 59, 70;,
       3;59, 56, 70;,
       3;72, 58, 74;,
       3;58, 69, 74;,
       3;75, 60, 73;,
       3;60, 59, 73;,
       3;76, 61, 75;,
       3;61, 60, 75;,
       3;77, 62, 76;,
       3;62, 61, 76;,
       3;78, 63, 77;,
       3;63, 62, 77;,
       3;79, 64, 78;,
       3;64, 63, 78;,
       3;80, 65, 79;,
       3;65, 64, 79;,
       3;81, 66, 80;,
       3;66, 65, 80;,
       3;82, 67, 81;,
       3;67, 66, 81;,
       3;83, 68, 82;,
       3;68, 67, 82;,
       3;74, 69, 83;,
       3;69, 68, 83;,
       3;84, 70, 85;,
       3;70, 71, 85;,
       3;85, 71, 86;,
       3;71, 72, 86;,
       3;87, 73, 84;,
       3;73, 70, 84;,
       3;86, 72, 88;,
       3;72, 74, 88;,
       3;89, 75, 87;,
       3;75, 73, 87;,
       3;88, 74, 90;,
       3;74, 83, 90;,
       3;91, 76, 89;,
       3;76, 75, 89;,
       3;92, 77, 91;,
       3;77, 76, 91;,
       3;93, 78, 92;,
       3;78, 77, 92;,
       3;94, 79, 93;,
       3;79, 78, 93;,
       3;95, 80, 94;,
       3;80, 79, 94;,
       3;96, 81, 95;,
       3;81, 80, 95;,
       3;97, 82, 96;,
       3;82, 81, 96;,
       3;90, 83, 97;,
       3;83, 82, 97;,
       3;30, 84, 28;,
       3;84, 85, 28;,
       3;28, 85, 29;,
       3;85, 86, 29;,
       3;32, 87, 30;,
       3;87, 84, 30;,
       3;29, 86, 31;,
       3;86, 88, 31;,
       3;34, 89, 32;,
       3;89, 87, 32;,
       3;31, 88, 33;,
       3;88, 90, 33;,
       3;36, 91, 34;,
       3;91, 89, 34;,
       3;33, 90, 35;,
       3;90, 97, 35;,
       3;38, 92, 36;,
       3;92, 91, 36;,
       3;40, 93, 38;,
       3;93, 92, 38;,
       3;41, 94, 40;,
       3;94, 93, 40;,
       3;39, 95, 41;,
       3;95, 94, 41;,
       3;37, 96, 39;,
       3;96, 95, 39;,
       3;35, 97, 37;,
       3;97, 96, 37;,
       3;98, 1, 99;,
       3;1, 0, 99;,
       3;100, 26, 98;,
       3;26, 1, 98;,
       3;99, 0, 101;,
       3;0, 4, 101;,
       3;101, 4, 102;,
       3;4, 6, 102;,
       3;102, 6, 103;,
       3;6, 8, 103;,
       3;103, 8, 104;,
       3;8, 10, 104;,
       3;104, 10, 105;,
       3;10, 12, 105;,
       3;105, 12, 106;,
       3;12, 14, 106;,
       3;106, 14, 107;,
       3;14, 16, 107;,
       3;107, 16, 108;,
       3;16, 18, 108;,
       3;108, 18, 109;,
       3;18, 20, 109;,
       3;109, 20, 110;,
       3;20, 22, 110;,
       3;110, 22, 111;,
       3;22, 24, 111;,
       3;111, 24, 100;,
       3;24, 26, 100;,
       3;112, 98, 113;,
       3;98, 99, 113;,
       3;113, 99, 114;,
       3;99, 101, 114;,
       3;115, 100, 112;,
       3;100, 98, 112;,
       3;116, 111, 115;,
       3;111, 100, 115;,
       3;114, 101, 117;,
       3;101, 102, 117;,
       3;117, 102, 118;,
       3;102, 103, 118;,
       3;118, 103, 119;,
       3;103, 104, 119;,
       3;119, 104, 120;,
       3;104, 105, 120;,
       3;120, 105, 121;,
       3;105, 106, 121;,
       3;121, 106, 122;,
       3;106, 107, 122;,
       3;122, 107, 123;,
       3;107, 108, 123;,
       3;123, 108, 124;,
       3;108, 109, 124;,
       3;124, 109, 125;,
       3;109, 110, 125;,
       3;125, 110, 116;,
       3;110, 111, 116;,
       3;126, 112, 127;,
       3;112, 113, 127;,
       3;127, 113, 128;,
       3;113, 114, 128;,
       3;129, 115, 126;,
       3;115, 112, 126;,
       3;128, 114, 130;,
       3;114, 117, 130;,
       3;131, 116, 129;,
       3;116, 115, 129;,
       3;132, 125, 131;,
       3;125, 116, 131;,
       3;130, 117, 133;,
       3;117, 118, 133;,
       3;133, 118, 134;,
       3;118, 119, 134;,
       3;134, 119, 135;,
       3;119, 120, 135;,
       3;135, 120, 136;,
       3;120, 121, 136;,
       3;136, 121, 137;,
       3;121, 122, 137;,
       3;137, 122, 138;,
       3;122, 123, 138;,
       3;138, 123, 139;,
       3;123, 124, 139;,
       3;139, 124, 132;,
       3;124, 125, 132;,
       3;140, 126, 141;,
       3;126, 127, 141;,
       3;141, 127, 142;,
       3;127, 128, 142;,
       3;143, 129, 140;,
       3;129, 126, 140;,
       3;142, 128, 144;,
       3;128, 130, 144;,
       3;145, 131, 143;,
       3;131, 129, 143;,
       3;144, 130, 146;,
       3;130, 133, 146;,
       3;147, 132, 145;,
       3;132, 131, 145;,
       3;148, 139, 147;,
       3;139, 132, 147;,
       3;146, 133, 149;,
       3;133, 134, 149;,
       3;149, 134, 150;,
       3;134, 135, 150;,
       3;150, 135, 151;,
       3;135, 136, 151;,
       3;151, 136, 152;,
       3;136, 137, 152;,
       3;152, 137, 153;,
       3;137, 138, 153;,
       3;153, 138, 148;,
       3;138, 139, 148;,
       3;43, 140, 45;,
       3;140, 141, 45;,
       3;45, 141, 47;,
       3;141, 142, 47;,
       3;42, 143, 43;,
       3;143, 140, 43;,
       3;47, 142, 49;,
       3;142, 144, 49;,
       3;44, 145, 42;,
       3;145, 143, 42;,
       3;49, 144, 51;,
       3;144, 146, 51;,
       3;46, 147, 44;,
       3;147, 145, 44;,
       3;51, 146, 53;,
       3;146, 149, 53;,
       3;48, 148, 46;,
       3;148, 147, 46;,
       3;50, 153, 48;,
       3;153, 148, 48;,
       3;53, 149, 55;,
       3;149, 150, 55;,
       3;55, 150, 54;,
       3;150, 151, 54;,
       3;54, 151, 52;,
       3;151, 152, 52;,
       3;52, 152, 50;,
       3;152, 153, 50;;
      }

      MeshTextureCoords {
       154;
       0.574988; 0.095761;,
       0.574988; 0.116673;,
       0.704762; 0.092336;,
       0.704762; 0.112875;,
       0.574988; 0.120389;,
       0.704762; 0.118018;,
       0.574988; 0.155977;,
       0.704762; 0.155135;,
       0.574988; 0.195478;,
       0.704762; 0.196327;,
       0.574988; 0.231072;,
       0.704762; 0.233437;,
       0.574988; 0.255700;,
       0.704762; 0.259119;,
       0.574988; 0.236433;,
       0.704762; 0.240230;,
       0.574988; 0.255700;,
       0.704762; 0.259119;,
       0.574988; 0.231072;,
       0.704762; 0.233437;,
       0.574988; 0.195478;,
       0.704762; 0.196327;,
       0.574988; 0.155977;,
       0.704762; 0.155135;,
       0.574988; 0.120389;,
       0.704762; 0.118018;,
       0.574988; 0.095761;,
       0.704762; 0.092336;,
       0.920909; 0.171954;,
       0.920909; 0.145319;,
       0.920909; 0.145319;,
       0.920909; 0.153907;,
       0.920909; 0.153907;,
       0.920909; 0.166323;,
       0.920909; 0.166323;,
       0.920909; 0.180100;,
       0.920909; 0.180100;,
       0.920909; 0.192517;,
       0.920909; 0.192517;,
       0.920909; 0.201105;,
       0.920909; 0.201105;,
       0.920909; 0.176114;,
       0.107509; 0.117338;,
       0.107509; 0.144082;,
       0.107509; 0.125625;,
       0.107509; 0.117338;,
       0.107509; 0.137609;,
       0.107509; 0.125625;,
       0.107509; 0.150904;,
       0.107509; 0.137609;,
       0.107509; 0.162887;,
       0.107509; 0.150904;,
       0.107509; 0.171180;,
       0.107509; 0.162887;,
       0.107509; 0.146081;,
       0.107509; 0.171180;,
       0.768852; 0.082267;,
       0.768852; 0.102806;,
       0.768852; 0.082267;,
       0.768852; 0.107949;,
       0.768852; 0.145060;,
       0.768852; 0.186251;,
       0.768852; 0.223368;,
       0.768852; 0.249050;,
       0.768852; 0.230161;,
       0.768852; 0.249050;,
       0.768852; 0.223368;,
       0.768852; 0.186251;,
       0.768852; 0.145060;,
       0.768852; 0.107949;,
       0.835455; 0.083320;,
       0.835455; 0.103980;,
       0.835455; 0.083320;,
       0.835455; 0.108677;,
       0.835455; 0.108677;,
       0.835455; 0.145324;,
       0.835455; 0.185993;,
       0.835455; 0.222634;,
       0.835455; 0.247996;,
       0.835455; 0.228988;,
       0.835455; 0.247996;,
       0.835455; 0.222634;,
       0.835455; 0.185993;,
       0.835455; 0.145324;,
       0.884465; 0.099793;,
       0.884465; 0.121428;,
       0.884465; 0.099793;,
       0.884465; 0.122399;,
       0.884465; 0.122399;,
       0.884465; 0.155075;,
       0.884465; 0.155075;,
       0.884465; 0.191343;,
       0.884465; 0.224018;,
       0.884465; 0.246630;,
       0.884465; 0.226646;,
       0.884465; 0.246630;,
       0.884465; 0.224018;,
       0.884465; 0.191343;,
       0.407852; 0.123727;,
       0.407852; 0.102111;,
       0.407852; 0.102111;,
       0.407852; 0.124783;,
       0.407852; 0.157548;,
       0.407852; 0.193913;,
       0.407852; 0.226673;,
       0.407852; 0.249345;,
       0.407852; 0.229385;,
       0.407852; 0.249345;,
       0.407852; 0.226673;,
       0.407852; 0.193913;,
       0.407852; 0.157548;,
       0.407852; 0.124783;,
       0.296009; 0.112394;,
       0.296009; 0.090784;,
       0.296009; 0.113456;,
       0.296009; 0.090784;,
       0.296009; 0.113456;,
       0.296009; 0.146215;,
       0.296009; 0.182580;,
       0.296009; 0.215345;,
       0.296009; 0.238018;,
       0.296009; 0.218052;,
       0.296009; 0.238018;,
       0.296009; 0.215345;,
       0.296009; 0.182580;,
       0.296009; 0.146215;,
       0.175369; 0.092255;,
       0.175369; 0.070639;,
       0.175369; 0.093311;,
       0.175369; 0.070639;,
       0.175369; 0.126077;,
       0.175369; 0.093311;,
       0.175369; 0.126077;,
       0.175369; 0.162442;,
       0.175369; 0.195201;,
       0.175369; 0.217873;,
       0.175369; 0.197913;,
       0.175369; 0.217873;,
       0.175369; 0.195201;,
       0.175369; 0.162442;,
       0.133899; 0.107741;,
       0.133899; 0.084590;,
       0.133899; 0.102965;,
       0.133899; 0.084590;,
       0.133899; 0.129520;,
       0.133899; 0.102965;,
       0.133899; 0.158993;,
       0.133899; 0.129520;,
       0.133899; 0.158993;,
       0.133899; 0.185547;,
       0.133899; 0.203922;,
       0.133899; 0.182427;,
       0.133899; 0.203922;,
       0.133899; 0.185547;;
      }

      MeshVertexColors {
       154;
       0; 1.000000; 1.000000; 1.000000; 1.000000;,
       1; 1.000000; 1.000000; 1.000000; 1.000000;,
       2; 1.000000; 1.000000; 1.000000; 1.000000;,
       3; 1.000000; 1.000000; 1.000000; 1.000000;,
       4; 1.000000; 1.000000; 1.000000; 1.000000;,
       5; 1.000000; 1.000000; 1.000000; 1.000000;,
       6; 1.000000; 1.000000; 1.000000; 1.000000;,
       7; 1.000000; 1.000000; 1.000000; 1.000000;,
       8; 1.000000; 1.000000; 1.000000; 1.000000;,
       9; 1.000000; 1.000000; 1.000000; 1.000000;,
       10; 1.000000; 1.000000; 1.000000; 1.000000;,
       11; 1.000000; 1.000000; 1.000000; 1.000000;,
       12; 1.000000; 1.000000; 1.000000; 1.000000;,
       13; 1.000000; 1.000000; 1.000000; 1.000000;,
       14; 1.000000; 1.000000; 1.000000; 1.000000;,
       15; 1.000000; 1.000000; 1.000000; 1.000000;,
       16; 1.000000; 1.000000; 1.000000; 1.000000;,
       17; 1.000000; 1.000000; 1.000000; 1.000000;,
       18; 1.000000; 1.000000; 1.000000; 1.000000;,
       19; 1.000000; 1.000000; 1.000000; 1.000000;,
       20; 1.000000; 1.000000; 1.000000; 1.000000;,
       21; 1.000000; 1.000000; 1.000000; 1.000000;,
       22; 1.000000; 1.000000; 1.000000; 1.000000;,
       23; 1.000000; 1.000000; 1.000000; 1.000000;,
       24; 1.000000; 1.000000; 1.000000; 1.000000;,
       25; 1.000000; 1.000000; 1.000000; 1.000000;,
       26; 1.000000; 1.000000; 1.000000; 1.000000;,
       27; 1.000000; 1.000000; 1.000000; 1.000000;,
       28; 1.000000; 1.000000; 1.000000; 1.000000;,
       29; 1.000000; 1.000000; 1.000000; 1.000000;,
       30; 1.000000; 1.000000; 1.000000; 1.000000;,
       31; 1.000000; 1.000000; 1.000000; 1.000000;,
       32; 1.000000; 1.000000; 1.000000; 1.000000;,
       33; 1.000000; 1.000000; 1.000000; 1.000000;,
       34; 1.000000; 1.000000; 1.000000; 1.000000;,
       35; 1.000000; 1.000000; 1.000000; 1.000000;,
       36; 1.000000; 1.000000; 1.000000; 1.000000;,
       37; 1.000000; 1.000000; 1.000000; 1.000000;,
       38; 1.000000; 1.000000; 1.000000; 1.000000;,
       39; 1.000000; 1.000000; 1.000000; 1.000000;,
       40; 1.000000; 1.000000; 1.000000; 1.000000;,
       41; 1.000000; 1.000000; 1.000000; 1.000000;,
       42; 1.000000; 1.000000; 1.000000; 1.000000;,
       43; 1.000000; 1.000000; 1.000000; 1.000000;,
       44; 1.000000; 1.000000; 1.000000; 1.000000;,
       45; 1.000000; 1.000000; 1.000000; 1.000000;,
       46; 1.000000; 1.000000; 1.000000; 1.000000;,
       47; 1.000000; 1.000000; 1.000000; 1.000000;,
       48; 1.000000; 1.000000; 1.000000; 1.000000;,
       49; 1.000000; 1.000000; 1.000000; 1.000000;,
       50; 1.000000; 1.000000; 1.000000; 1.000000;,
       51; 1.000000; 1.000000; 1.000000; 1.000000;,
       52; 1.000000; 1.000000; 1.000000; 1.000000;,
       53; 1.000000; 1.000000; 1.000000; 1.000000;,
       54; 1.000000; 1.000000; 1.000000; 1.000000;,
       55; 1.000000; 1.000000; 1.000000; 1.000000;,
       56; 1.000000; 1.000000; 1.000000; 1.000000;,
       57; 1.000000; 1.000000; 1.000000; 1.000000;,
       58; 1.000000; 1.000000; 1.000000; 1.000000;,
       59; 1.000000; 1.000000; 1.000000; 1.000000;,
       60; 1.000000; 1.000000; 1.000000; 1.000000;,
       61; 1.000000; 1.000000; 1.000000; 1.000000;,
       62; 1.000000; 1.000000; 1.000000; 1.000000;,
       63; 1.000000; 1.000000; 1.000000; 1.000000;,
       64; 1.000000; 1.000000; 1.000000; 1.000000;,
       65; 1.000000; 1.000000; 1.000000; 1.000000;,
       66; 1.000000; 1.000000; 1.000000; 1.000000;,
       67; 1.000000; 1.000000; 1.000000; 1.000000;,
       68; 1.000000; 1.000000; 1.000000; 1.000000;,
       69; 1.000000; 1.000000; 1.000000; 1.000000;,
       70; 1.000000; 1.000000; 1.000000; 1.000000;,
       71; 1.000000; 1.000000; 1.000000; 1.000000;,
       72; 1.000000; 1.000000; 1.000000; 1.000000;,
       73; 1.000000; 1.000000; 1.000000; 1.000000;,
       74; 1.000000; 1.000000; 1.000000; 1.000000;,
       75; 1.000000; 1.000000; 1.000000; 1.000000;,
       76; 1.000000; 1.000000; 1.000000; 1.000000;,
       77; 1.000000; 1.000000; 1.000000; 1.000000;,
       78; 1.000000; 1.000000; 1.000000; 1.000000;,
       79; 1.000000; 1.000000; 1.000000; 1.000000;,
       80; 1.000000; 1.000000; 1.000000; 1.000000;,
       81; 1.000000; 1.000000; 1.000000; 1.000000;,
       82; 1.000000; 1.000000; 1.000000; 1.000000;,
       83; 1.000000; 1.000000; 1.000000; 1.000000;,
       84; 1.000000; 1.000000; 1.000000; 1.000000;,
       85; 1.000000; 1.000000; 1.000000; 1.000000;,
       86; 1.000000; 1.000000; 1.000000; 1.000000;,
       87; 1.000000; 1.000000; 1.000000; 1.000000;,
       88; 1.000000; 1.000000; 1.000000; 1.000000;,
       89; 1.000000; 1.000000; 1.000000; 1.000000;,
       90; 1.000000; 1.000000; 1.000000; 1.000000;,
       91; 1.000000; 1.000000; 1.000000; 1.000000;,
       92; 1.000000; 1.000000; 1.000000; 1.000000;,
       93; 1.000000; 1.000000; 1.000000; 1.000000;,
       94; 1.000000; 1.000000; 1.000000; 1.000000;,
       95; 1.000000; 1.000000; 1.000000; 1.000000;,
       96; 1.000000; 1.000000; 1.000000; 1.000000;,
       97; 1.000000; 1.000000; 1.000000; 1.000000;,
       98; 1.000000; 1.000000; 1.000000; 1.000000;,
       99; 1.000000; 1.000000; 1.000000; 1.000000;,
       100; 1.000000; 1.000000; 1.000000; 1.000000;,
       101; 1.000000; 1.000000; 1.000000; 1.000000;,
       102; 1.000000; 1.000000; 1.000000; 1.000000;,
       103; 1.000000; 1.000000; 1.000000; 1.000000;,
       104; 1.000000; 1.000000; 1.000000; 1.000000;,
       105; 1.000000; 1.000000; 1.000000; 1.000000;,
       106; 1.000000; 1.000000; 1.000000; 1.000000;,
       107; 1.000000; 1.000000; 1.000000; 1.000000;,
       108; 1.000000; 1.000000; 1.000000; 1.000000;,
       109; 1.000000; 1.000000; 1.000000; 1.000000;,
       110; 1.000000; 1.000000; 1.000000; 1.000000;,
       111; 1.000000; 1.000000; 1.000000; 1.000000;,
       112; 1.000000; 1.000000; 1.000000; 1.000000;,
       113; 1.000000; 1.000000; 1.000000; 1.000000;,
       114; 1.000000; 1.000000; 1.000000; 1.000000;,
       115; 1.000000; 1.000000; 1.000000; 1.000000;,
       116; 1.000000; 1.000000; 1.000000; 1.000000;,
       117; 1.000000; 1.000000; 1.000000; 1.000000;,
       118; 1.000000; 1.000000; 1.000000; 1.000000;,
       119; 1.000000; 1.000000; 1.000000; 1.000000;,
       120; 1.000000; 1.000000; 1.000000; 1.000000;,
       121; 1.000000; 1.000000; 1.000000; 1.000000;,
       122; 1.000000; 1.000000; 1.000000; 1.000000;,
       123; 1.000000; 1.000000; 1.000000; 1.000000;,
       124; 1.000000; 1.000000; 1.000000; 1.000000;,
       125; 1.000000; 1.000000; 1.000000; 1.000000;,
       126; 1.000000; 1.000000; 1.000000; 1.000000;,
       127; 1.000000; 1.000000; 1.000000; 1.000000;,
       128; 1.000000; 1.000000; 1.000000; 1.000000;,
       129; 1.000000; 1.000000; 1.000000; 1.000000;,
       130; 1.000000; 1.000000; 1.000000; 1.000000;,
       131; 1.000000; 1.000000; 1.000000; 1.000000;,
       132; 1.000000; 1.000000; 1.000000; 1.000000;,
       133; 1.000000; 1.000000; 1.000000; 1.000000;,
       134; 1.000000; 1.000000; 1.000000; 1.000000;,
       135; 1.000000; 1.000000; 1.000000; 1.000000;,
       136; 1.000000; 1.000000; 1.000000; 1.000000;,
       137; 1.000000; 1.000000; 1.000000; 1.000000;,
       138; 1.000000; 1.000000; 1.000000; 1.000000;,
       139; 1.000000; 1.000000; 1.000000; 1.000000;,
       140; 1.000000; 1.000000; 1.000000; 1.000000;,
       141; 1.000000; 1.000000; 1.000000; 1.000000;,
       142; 1.000000; 1.000000; 1.000000; 1.000000;,
       143; 1.000000; 1.000000; 1.000000; 1.000000;,
       144; 1.000000; 1.000000; 1.000000; 1.000000;,
       145; 1.000000; 1.000000; 1.000000; 1.000000;,
       146; 1.000000; 1.000000; 1.000000; 1.000000;,
       147; 1.000000; 1.000000; 1.000000; 1.000000;,
       148; 1.000000; 1.000000; 1.000000; 1.000000;,
       149; 1.000000; 1.000000; 1.000000; 1.000000;,
       150; 1.000000; 1.000000; 1.000000; 1.000000;,
       151; 1.000000; 1.000000; 1.000000; 1.000000;,
       152; 1.000000; 1.000000; 1.000000; 1.000000;,
       153; 1.000000; 1.000000; 1.000000; 1.000000;;
      }

      MeshMaterialList {
       1;
       304;
       0,
       0,
       0,
       0,
       0,
       0,
       0,
       0,
       0,
       0,
       0,
       0,
       0,
       0,
       0,
       0,
       0,
       0,
       0,
       0,
       0,
       0,
       0,
       0,
       0,
       0,
       0,
       0,
       0,
       0,
       0,
       0,
       0,
       0,
       0,
       0,
       0,
       0,
       0,
       0,
       0,
       0,
       0,
       0,
       0,
       0,
       0,
       0,
       0,
       0,
       0,
       0,
       0,
       0,
       0,
       0,
       0,
       0,
       0,
       0,
       0,
       0,
       0,
       0,
       0,
       0,
       0,
       0,
       0,
       0,
       0,
       0,
       0,
       0,
       0,
       0,
       0,
       0,
       0,
       0,
       0,
       0,
       0,
       0,
       0,
       0,
       0,
       0,
       0,
       0,
       0,
       0,
       0,
       0,
       0,
       0,
       0,
       0,
       0,
       0,
       0,
       0,
       0,
       0,
       0,
       0,
       0,
       0,
       0,
       0,
       0,
       0,
       0,
       0,
       0,
       0,
       0,
       0,
       0,
       0,
       0,
       0,
       0,
       0,
       0,
       0,
       0,
       0,
       0,
       0,
       0,
       0,
       0,
       0,
       0,
       0,
       0,
       0,
       0,
       0,
       0,
       0,
       0,
       0,
       0,
       0,
       0,
       0,
       0,
       0,
       0,
       0,
       0,
       0,
       0,
       0,
       0,
       0,
       0,
       0,
       0,
       0,
       0,
       0,
       0,
       0,
       0,
       0,
       0,
       0,
       0,
       0,
       0,
       0,
       0,
       0,
       0,
       0,
       0,
       0,
       0,
       0,
       0,
       0,
       0,
       0,
       0,
       0,
       0,
       0,
       0,
       0,
       0,
       0,
       0,
       0,
       0,
       0,
       0,
       0,
       0,
       0,
       0,
       0,
       0,
       0,
       0,
       0,
       0,
       0,
       0,
       0,
       0,
       0,
       0,
       0,
       0,
       0,
       0,
       0,
       0,
       0,
       0,
       0,
       0,
       0,
       0,
       0,
       0,
       0,
       0,
       0,
       0,
       0,
       0,
       0,
       0,
       0,
       0,
       0,
       0,
       0,
       0,
       0,
       0,
       0,
       0,
       0,
       0,
       0,
       0,
       0,
       0,
       0,
       0,
       0,
       0,
       0,
       0,
       0,
       0,
       0,
       0,
       0,
       0,
       0,
       0,
       0,
       0,
       0,
       0,
       0,
       0,
       0,
       0,
       0,
       0,
       0,
       0,
       0,
       0,
       0,
       0,
       0,
       0,
       0,
       0,
       0,
       0,
       0,
       0,
       0,
       0,
       0,
       0,
       0,
       0,
       0,
       0,
       0,
       0,
       0,
       0,
       0;

       Material veg_3 {
        0.992157; 0.992157; 0.992157; 1.000000;;
        1.000000;
        0.150000; 0.150000; 0.150000;;
        0.000000; 0.000000; 0.000000;;

        TextureFilename {
         "veg_3.jpg";
        }
       }

      }

      XSkinMeshHeader {
       1;
       1;
       1;
      }

      SkinWeights {
       "U3DMesh";
       154;
       0,
       1,
       2,
       3,
       4,
       5,
       6,
       7,
       8,
       9,
       10,
       11,
       12,
       13,
       14,
       15,
       16,
       17,
       18,
       19,
       20,
       21,
       22,
       23,
       24,
       25,
       26,
       27,
       28,
       29,
       30,
       31,
       32,
       33,
       34,
       35,
       36,
       37,
       38,
       39,
       40,
       41,
       42,
       43,
       44,
       45,
       46,
       47,
       48,
       49,
       50,
       51,
       52,
       53,
       54,
       55,
       56,
       57,
       58,
       59,
       60,
       61,
       62,
       63,
       64,
       65,
       66,
       67,
       68,
       69,
       70,
       71,
       72,
       73,
       74,
       75,
       76,
       77,
       78,
       79,
       80,
       81,
       82,
       83,
       84,
       85,
       86,
       87,
       88,
       89,
       90,
       91,
       92,
       93,
       94,
       95,
       96,
       97,
       98,
       99,
       100,
       101,
       102,
       103,
       104,
       105,
       106,
       107,
       108,
       109,
       110,
       111,
       112,
       113,
       114,
       115,
       116,
       117,
       118,
       119,
       120,
       121,
       122,
       123,
       124,
       125,
       126,
       127,
       128,
       129,
       130,
       131,
       132,
       133,
       134,
       135,
       136,
       137,
       138,
       139,
       140,
       141,
       142,
       143,
       144,
       145,
       146,
       147,
       148,
       149,
       150,
       151,
       152,
       153;
       1.000000,
       1.000000,
       1.000000,
       1.000000,
       1.000000,
       1.000000,
       1.000000,
       1.000000,
       1.000000,
       1.000000,
       1.000000,
       1.000000,
       1.000000,
       1.000000,
       1.000000,
       1.000000,
       1.000000,
       1.000000,
       1.000000,
       1.000000,
       1.000000,
       1.000000,
       1.000000,
       1.000000,
       1.000000,
       1.000000,
       1.000000,
       1.000000,
       1.000000,
       1.000000,
       1.000000,
       1.000000,
       1.000000,
       1.000000,
       1.000000,
       1.000000,
       1.000000,
       1.000000,
       1.000000,
       1.000000,
       1.000000,
       1.000000,
       1.000000,
       1.000000,
       1.000000,
       1.000000,
       1.000000,
       1.000000,
       1.000000,
       1.000000,
       1.000000,
       1.000000,
       1.000000,
       1.000000,
       1.000000,
       1.000000,
       1.000000,
       1.000000,
       1.000000,
       1.000000,
       1.000000,
       1.000000,
       1.000000,
       1.000000,
       1.000000,
       1.000000,
       1.000000,
       1.000000,
       1.000000,
       1.000000,
       1.000000,
       1.000000,
       1.000000,
       1.000000,
       1.000000,
       1.000000,
       1.000000,
       1.000000,
       1.000000,
       1.000000,
       1.000000,
       1.000000,
       1.000000,
       1.000000,
       1.000000,
       1.000000,
       1.000000,
       1.000000,
       1.000000,
       1.000000,
       1.000000,
       1.000000,
       1.000000,
       1.000000,
       1.000000,
       1.000000,
       1.000000,
       1.000000,
       1.000000,
       1.000000,
       1.000000,
       1.000000,
       1.000000,
       1.000000,
       1.000000,
       1.000000,
       1.000000,
       1.000000,
       1.000000,
       1.000000,
       1.000000,
       1.000000,
       1.000000,
       1.000000,
       1.000000,
       1.000000,
       1.000000,
       1.000000,
       1.000000,
       1.000000,
       1.000000,
       1.000000,
       1.000000,
       1.000000,
       1.000000,
       1.000000,
       1.000000,
       1.000000,
       1.000000,
       1.000000,
       1.000000,
       1.000000,
       1.000000,
       1.000000,
       1.000000,
       1.000000,
       1.000000,
       1.000000,
       1.000000,
       1.000000,
       1.000000,
       1.000000,
       1.000000,
       1.000000,
       1.000000,
       1.000000,
       1.000000,
       1.000000,
       1.000000,
       1.000000,
       1.000000,
       1.000000,
       1.000000,
       1.000000;
          1.000000, -0.000000, 0.000000, 0.000000,
          -0.000000, 1.000000, -0.000000, 0.000000,
          0.000000, -0.000000, 1.000000, 0.000000,
          -0.000000, -0.000000, -0.000000, 1.000000;;
      }


     }
   }

// Start of Animation

AnimationSet Untitled {
}
