xof 0303txt 0032

// DirectX 9.0 file
// Creator: Ultimate Unwrap3D Pro v3.19
// Website: http://www.unwrap3d.com
// Time: Thu Dec 10 21:32:10 2009

// Start of Templates

template VertexDuplicationIndices {
 <b8d65549-d7c9-4995-89cf-53a9a8b031e3>
 DWORD nIndices;
 DWORD nOriginalVertices;
 array DWORD indices[nIndices];
}

template FVFData {
 <b6e70a0e-8ef9-4e83-94ad-ecc8b0c04897>
 DWORD dwFVF;
 DWORD nDWords;
 array DWORD data[nDWords];
}

template Header {
 <3D82AB43-62DA-11cf-AB39-0020AF71E433>
 WORD major;
 WORD minor;
 DWORD flags;
}

template Vector {
 <3D82AB5E-62DA-11cf-AB39-0020AF71E433>
 FLOAT x;
 FLOAT y;
 FLOAT z;
}

template Coords2d {
 <F6F23F44-7686-11cf-8F52-0040333594A3>
 FLOAT u;
 FLOAT v;
}

template Matrix4x4 {
 <F6F23F45-7686-11cf-8F52-0040333594A3>
 array FLOAT matrix[16];
}

template ColorRGBA {
 <35FF44E0-6C7C-11cf-8F52-0040333594A3>
 FLOAT red;
 FLOAT green;
 FLOAT blue;
 FLOAT alpha;
}

template ColorRGB {
 <D3E16E81-7835-11cf-8F52-0040333594A3>
 FLOAT red;
 FLOAT green;
 FLOAT blue;
}

template IndexedColor {
 <1630B820-7842-11cf-8F52-0040333594A3>
 DWORD index;
 ColorRGBA indexColor;
}

template Material {
 <3D82AB4D-62DA-11cf-AB39-0020AF71E433>
 ColorRGBA faceColor;
 FLOAT power;
 ColorRGB specularColor;
 ColorRGB emissiveColor;
 [...]
}

template TextureFilename {
 <A42790E1-7810-11cf-8F52-0040333594A3>
 STRING filename;
}

template MeshFace {
 <3D82AB5F-62DA-11cf-AB39-0020AF71E433>
 DWORD nFaceVertexIndices;
 array DWORD faceVertexIndices[nFaceVertexIndices];
}

template MeshTextureCoords {
 <F6F23F40-7686-11cf-8F52-0040333594A3>
 DWORD nTextureCoords;
 array Coords2d textureCoords[nTextureCoords];
}

template MeshMaterialList {
 <F6F23F42-7686-11cf-8F52-0040333594A3>
 DWORD nMaterials;
 DWORD nFaceIndexes;
 array DWORD faceIndexes[nFaceIndexes];
 [Material]
}

template MeshNormals {
 <F6F23F43-7686-11cf-8F52-0040333594A3>
 DWORD nNormals;
 array Vector normals[nNormals];
 DWORD nFaceNormals;
 array MeshFace faceNormals[nFaceNormals];
}

template MeshVertexColors {
 <1630B821-7842-11cf-8F52-0040333594A3>
 DWORD nVertexColors;
 array IndexedColor vertexColors[nVertexColors];
}

template Mesh {
 <3D82AB44-62DA-11cf-AB39-0020AF71E433>
 DWORD nVertices;
 array Vector vertices[nVertices];
 DWORD nFaces;
 array MeshFace faces[nFaces];
 [...]
}

template FrameTransformMatrix {
 <F6F23F41-7686-11cf-8F52-0040333594A3>
 Matrix4x4 frameMatrix;
}

template Frame {
 <3D82AB46-62DA-11cf-AB39-0020AF71E433>
 [...]
}

template FloatKeys {
 <10DD46A9-775B-11cf-8F52-0040333594A3>
 DWORD nValues;
 array FLOAT values[nValues];
}

template TimedFloatKeys {
 <F406B180-7B3B-11cf-8F52-0040333594A3>
 DWORD time;
 FloatKeys tfkeys;
}

template AnimationKey {
 <10DD46A8-775B-11cf-8F52-0040333594A3>
 DWORD keyType;
 DWORD nKeys;
 array TimedFloatKeys keys[nKeys];
}

template AnimationOptions {
 <E2BF56C0-840F-11cf-8F52-0040333594A3>
 DWORD openclosed;
 DWORD positionquality;
}

template Animation {
 <3D82AB4F-62DA-11cf-AB39-0020AF71E433>
 [...]
}

template AnimationSet {
 <3D82AB50-62DA-11cf-AB39-0020AF71E433>
 [Animation]
}

template XSkinMeshHeader {
 <3CF169CE-FF7C-44ab-93C0-F78F62D172E2>
 WORD nMaxSkinWeightsPerVertex;
 WORD nMaxSkinWeightsPerFace;
 WORD nBones;
}

template SkinWeights {
 <6F0D123B-BAD2-4167-A0D0-80224F25FABB>
 STRING transformNodeName;
 DWORD nWeights;
 array DWORD vertexIndices[nWeights];
 array FLOAT weights[nWeights];
 Matrix4x4 matrixOffset;
}

template AnimTicksPerSecond {
 <9E415A43-7BA6-4a73-8743-B73D47E88476>
 DWORD AnimTicksPerSecond;
}

AnimTicksPerSecond {
 30;
}

// Start of Frames

   Frame Body {
      FrameTransformMatrix {
       1.000000, 0.000000, 0.000000, 0.000000,
       0.000000, 1.000000, 0.000000, 0.000000,
       0.000000, 0.000000, 1.000000, 0.000000,
       0.000000, 0.000000, 0.000000, 1.000000;;
      }

   }
   Frame bowl {
      FrameTransformMatrix {
       1.000000, 0.000000, 0.000000, 0.000000,
       0.000000, 1.000000, 0.000000, 0.000000,
       0.000000, 0.000000, 1.000000, 0.000000,
       0.000000, 0.000000, 0.000000, 1.000000;;
      }

   }

   Frame Body0 {
      FrameTransformMatrix {
       1.000000, 0.000000, 0.000000, 0.000000,
       0.000000, 1.000000, 0.000000, 0.000000,
       0.000000, 0.000000, 1.000000, 0.000000,
       0.000000, 0.000000, 0.000000, 1.000000;;
      }

      Mesh skinnedMesh {
       304;
       -2.287947; 0.659599; 0.947754;,
       -2.476447; 0.659599; 0.000053;,
       -2.442377; 0.000000; 1.011749;,
       -2.643617; 0.000000; 0.000053;,
       -1.751117; 0.659599; 1.751152;,
       -1.869317; 0.000000; 1.869354;,
       -0.947687; 0.659599; 2.287949;,
       -1.011667; 0.000000; 2.442451;,
       0.000003; 0.659599; 2.476448;,
       0.000003; 0.000000; 2.643654;,
       0.947703; 0.659599; 2.287949;,
       1.011673; 0.000000; 2.442451;,
       1.751123; 0.659599; 1.751152;,
       1.869323; 0.000000; 1.869354;,
       2.287943; 0.659599; 0.947754;,
       2.442383; 0.000000; 1.011749;,
       2.476453; 0.659599; 0.000053;,
       2.643616; 0.000000; 0.000053;,
       1.627773; 1.697201; 1.627754;,
       2.126783; 1.697201; 0.880951;,
       0.880943; 1.697201; 2.126854;,
       0.000003; 1.697201; 2.302048;,
       -0.880937; 1.697201; 2.126854;,
       -1.627767; 1.697201; 1.627754;,
       -2.126777; 1.697201; 0.880951;,
       -2.302007; 1.697201; 0.000053;,
       2.302003; 1.697201; 0.000053;,
       1.444373; 1.768002; 1.444450;,
       1.887153; 1.768002; 0.781754;,
       0.781683; 1.768002; 1.887154;,
       0.000003; 1.768002; 2.042648;,
       -0.781687; 1.768002; 1.887154;,
       -1.444367; 1.768002; 1.444450;,
       -1.887147; 1.768002; 0.781754;,
       -2.042647; 1.768002; 0.000053;,
       2.042643; 1.768002; 0.000053;,
       1.369343; 2.239002; 1.369354;,
       1.789133; 2.239002; 0.741150;,
       0.741083; 2.239002; 1.789154;,
       0.000003; 2.239002; 1.936554;,
       -0.741077; 2.239002; 1.789154;,
       -1.369337; 2.239002; 1.369354;,
       -1.789127; 2.239002; 0.741150;,
       -1.936537; 2.239002; 0.000053;,
       1.936533; 2.239002; 0.000053;,
       1.444373; 2.392200; 1.444450;,
       1.887153; 2.392200; 0.781754;,
       0.781683; 2.392200; 1.887154;,
       0.000003; 2.392200; 2.042648;,
       -0.781687; 2.392200; 1.887154;,
       -1.444367; 2.392200; 1.444450;,
       -1.887147; 2.392200; 0.781754;,
       -2.042647; 2.392200; 0.000053;,
       2.042643; 2.392200; 0.000053;,
       1.761153; 2.781300; 1.761154;,
       2.301053; 2.781300; 0.953148;,
       0.953133; 2.781300; 2.301048;,
       0.000003; 2.781300; 2.490654;,
       -0.953127; 2.781300; 2.301048;,
       -1.761157; 2.781300; 1.761154;,
       -2.301047; 2.781300; 0.953148;,
       -2.490647; 2.781300; 0.000053;,
       2.490643; 2.781300; 0.000053;,
       1.942233; 3.157402; 1.942253;,
       2.537651; 3.157402; 1.051147;,
       1.051133; 3.157402; 2.537651;,
       0.000003; 3.157402; 2.746750;,
       -1.051127; 3.157402; 2.537651;,
       -1.942237; 3.157402; 1.942253;,
       -2.537647; 3.157402; 1.051147;,
       -2.746737; 3.157402; 0.000053;,
       2.746737; 3.157402; 0.000053;,
       2.295433; 4.431301; 2.295448;,
       2.999134; 4.431301; 1.242348;,
       1.242283; 4.431301; 2.999153;,
       0.000003; 4.431301; 3.246254;,
       -1.242277; 4.431301; 2.999153;,
       -2.295437; 4.431301; 2.295448;,
       -2.999127; 4.431301; 1.242348;,
       -3.246237; 4.431301; 0.000053;,
       3.246237; 4.431301; 0.000053;,
       2.263103; 5.966202; 2.263153;,
       2.956877; 5.966202; 1.224854;,
       1.224783; 5.966202; 2.956955;,
       0.000003; 5.966202; 3.200554;,
       -1.224777; 5.966202; 2.956955;,
       -2.263097; 5.966202; 2.263153;,
       -2.956877; 5.966202; 1.224854;,
       -3.200507; 5.966202; 0.000053;,
       3.200504; 5.966202; 0.000053;,
       2.267333; 6.383900; 2.232948;,
       2.962417; 6.383900; 1.208450;,
       1.227073; 6.383900; 2.917549;,
       0.000003; 6.383900; 3.157852;,
       -1.227067; 6.383900; 2.917549;,
       -2.267337; 6.383900; 2.232948;,
       -2.962417; 6.383900; 1.208450;,
       -3.206497; 6.383900; 0.000053;,
       3.206496; 6.383900; 0.000053;,
       2.290733; 6.706802; 2.290749;,
       2.992988; 6.706802; 1.239754;,
       1.239733; 6.706802; 2.993050;,
       0.000003; 6.706802; 3.239655;,
       -1.239737; 6.706802; 2.993050;,
       -2.290727; 6.706802; 2.290749;,
       -2.992987; 6.706802; 1.239754;,
       -3.239577; 6.706802; 0.000053;,
       3.239588; 6.706802; 0.000053;,
       -2.733087; 6.706802; 1.132149;,
       -2.958267; 6.706802; 0.000053;,
       -2.992987; 6.706802; 1.239754;,
       -3.239577; 6.706802; 0.000053;,
       -2.091817; 6.706802; 2.091850;,
       -2.290727; 6.706802; 2.290749;,
       -1.132077; 6.706802; 2.733154;,
       -1.239737; 6.706802; 2.993050;,
       0.000003; 6.706802; 2.958351;,
       0.000003; 6.706802; 3.239655;,
       1.132083; 6.706802; 2.733154;,
       1.239733; 6.706802; 2.993050;,
       2.091813; 6.706802; 2.091850;,
       2.290733; 6.706802; 2.290749;,
       2.733087; 6.706802; 1.132149;,
       2.992988; 6.706802; 1.239754;,
       2.958271; 6.706802; 0.000053;,
       3.239588; 6.706802; 0.000053;,
       2.733087; 6.706802; 1.132149;,
       2.958271; 6.706802; 0.000053;,
       2.552495; 6.099701; 1.057350;,
       2.762803; 6.099701; 0.000053;,
       2.091813; 6.706802; 2.091850;,
       1.953603; 6.099701; 1.953651;,
       1.132083; 6.706802; 2.733154;,
       1.057273; 6.099701; 2.552551;,
       0.000003; 6.706802; 2.958351;,
       0.000003; 6.099701; 2.762848;,
       -1.132077; 6.706802; 2.733154;,
       -1.057277; 6.099701; 2.552551;,
       -2.091817; 6.706802; 2.091850;,
       -1.953597; 6.099701; 1.953651;,
       -2.733087; 6.706802; 1.132149;,
       -2.552497; 6.099701; 1.057350;,
       -2.958267; 6.706802; 0.000053;,
       -2.762797; 6.099701; 0.000053;,
       2.056803; 3.874599; 0.851952;,
       2.226253; 3.874599; 0.000053;,
       1.574203; 3.874599; 1.574249;,
       0.851953; 3.874599; 2.056854;,
       0.000003; 3.874599; 2.226250;,
       -0.851947; 3.874599; 2.056854;,
       -1.574197; 3.874599; 1.574249;,
       -2.056787; 3.874599; 0.851952;,
       -2.226257; 3.874599; 0.000053;,
       2.226253; 3.874599; 0.000053;,
       -2.226257; 3.874599; 0.000053;,
       2.056803; 3.874599; 0.851952;,
       -2.056787; 3.874599; 0.851952;,
       1.574203; 3.874599; 1.574249;,
       -1.574197; 3.874599; 1.574249;,
       0.851953; 3.874599; 2.056854;,
       -0.851947; 3.874599; 2.056854;,
       0.000003; 3.874599; 2.226250;,
       2.643616; 0.000000; 0.000053;,
       2.442383; 0.000000; 1.011749;,
       -2.643617; 0.000000; 0.000053;,
       1.869323; 0.000000; 1.869354;,
       -2.442377; 0.000000; 1.011749;,
       1.011673; 0.000000; 2.442451;,
       -1.869317; 0.000000; 1.869354;,
       0.000003; 0.000000; 2.643654;,
       -1.011667; 0.000000; 2.442451;,
       -2.287947; 0.659599; -0.947647;,
       -2.442377; 0.000000; -1.011650;,
       -1.751117; 0.659599; -1.751045;,
       -1.869317; 0.000000; -1.869247;,
       -0.947687; 0.659599; -2.287949;,
       -1.011667; 0.000000; -2.442352;,
       0.000003; 0.659599; -2.476448;,
       0.000003; 0.000000; -2.643547;,
       0.947703; 0.659599; -2.287949;,
       1.011673; 0.000000; -2.442352;,
       1.751123; 0.659599; -1.751045;,
       1.869323; 0.000000; -1.869247;,
       2.287943; 0.659599; -0.947647;,
       2.442383; 0.000000; -1.011650;,
       2.126783; 1.697201; -0.880951;,
       1.627773; 1.697201; -1.627747;,
       0.880943; 1.697201; -2.126747;,
       0.000003; 1.697201; -2.301949;,
       -0.880937; 1.697201; -2.126747;,
       -1.627767; 1.697201; -1.627747;,
       -2.126777; 1.697201; -0.880951;,
       1.887153; 1.768002; -0.781647;,
       1.444373; 1.768002; -1.444351;,
       0.781683; 1.768002; -1.887146;,
       0.000003; 1.768002; -2.042648;,
       -0.781687; 1.768002; -1.887146;,
       -1.444367; 1.768002; -1.444351;,
       -1.887147; 1.768002; -0.781647;,
       1.789133; 2.239002; -0.741051;,
       1.369343; 2.239002; -1.369347;,
       0.741083; 2.239002; -1.789146;,
       0.000003; 2.239002; -1.936546;,
       -0.741077; 2.239002; -1.789146;,
       -1.369337; 2.239002; -1.369347;,
       -1.789127; 2.239002; -0.741051;,
       1.887153; 2.392200; -0.781647;,
       1.444373; 2.392200; -1.444351;,
       0.781683; 2.392200; -1.887146;,
       0.000003; 2.392200; -2.042648;,
       -0.781687; 2.392200; -1.887146;,
       -1.444367; 2.392200; -1.444351;,
       -1.887147; 2.392200; -0.781647;,
       2.301053; 2.781300; -0.953148;,
       1.761153; 2.781300; -1.761147;,
       0.953133; 2.781300; -2.301048;,
       0.000003; 2.781300; -2.490646;,
       -0.953127; 2.781300; -2.301048;,
       -1.761157; 2.781300; -1.761147;,
       -2.301047; 2.781300; -0.953148;,
       2.537651; 3.157402; -1.051147;,
       1.942233; 3.157402; -1.942245;,
       1.051133; 3.157402; -2.537651;,
       0.000003; 3.157402; -2.746750;,
       -1.051127; 3.157402; -2.537651;,
       -1.942237; 3.157402; -1.942245;,
       -2.537647; 3.157402; -1.051147;,
       2.999134; 4.431301; -1.242249;,
       2.295433; 4.431301; -2.295448;,
       1.242283; 4.431301; -2.999146;,
       0.000003; 4.431301; -3.246246;,
       -1.242277; 4.431301; -2.999146;,
       -2.295437; 4.431301; -2.295448;,
       -2.999127; 4.431301; -1.242249;,
       2.956877; 5.966202; -1.224747;,
       2.263103; 5.966202; -2.263046;,
       1.224783; 5.966202; -2.956848;,
       0.000003; 5.966202; -3.200447;,
       -1.224777; 5.966202; -2.956848;,
       -2.263097; 5.966202; -2.263046;,
       -2.956877; 5.966202; -1.224747;,
       2.962417; 6.383900; -1.208450;,
       2.267333; 6.383900; -2.232948;,
       1.227073; 6.383900; -2.917450;,
       0.000003; 6.383900; -3.157852;,
       -1.227067; 6.383900; -2.917450;,
       -2.267337; 6.383900; -2.232948;,
       -2.962417; 6.383900; -1.208450;,
       2.992988; 6.706802; -1.239746;,
       2.290733; 6.706802; -2.290749;,
       1.239733; 6.706802; -2.992950;,
       0.000003; 6.706802; -3.239548;,
       -1.239737; 6.706802; -2.992950;,
       -2.290727; 6.706802; -2.290749;,
       -2.992987; 6.706802; -1.239746;,
       -2.733087; 6.706802; -1.132050;,
       -2.992987; 6.706802; -1.239746;,
       -2.091817; 6.706802; -2.091751;,
       -2.290727; 6.706802; -2.290749;,
       -1.132077; 6.706802; -2.733047;,
       -1.239737; 6.706802; -2.992950;,
       0.000003; 6.706802; -2.958252;,
       0.000003; 6.706802; -3.239548;,
       1.132083; 6.706802; -2.733047;,
       1.239733; 6.706802; -2.992950;,
       2.091813; 6.706802; -2.091751;,
       2.290733; 6.706802; -2.290749;,
       2.733087; 6.706802; -1.132050;,
       2.992988; 6.706802; -1.239746;,
       2.733087; 6.706802; -1.132050;,
       2.552495; 6.099701; -1.057251;,
       2.091813; 6.706802; -2.091751;,
       1.953603; 6.099701; -1.953552;,
       1.132083; 6.706802; -2.733047;,
       1.057273; 6.099701; -2.552452;,
       0.000003; 6.706802; -2.958252;,
       0.000003; 6.099701; -2.762749;,
       -1.132077; 6.706802; -2.733047;,
       -1.057277; 6.099701; -2.552452;,
       -2.091817; 6.706802; -2.091751;,
       -1.953597; 6.099701; -1.953552;,
       -2.733087; 6.706802; -1.132050;,
       -2.552497; 6.099701; -1.057251;,
       2.056803; 3.874599; -0.851952;,
       1.574203; 3.874599; -1.574150;,
       0.851953; 3.874599; -2.056747;,
       0.000003; 3.874599; -2.226250;,
       -0.851947; 3.874599; -2.056747;,
       -1.574197; 3.874599; -1.574150;,
       -2.056787; 3.874599; -0.851952;,
       -2.056787; 3.874599; -0.851952;,
       2.056803; 3.874599; -0.851952;,
       -1.574197; 3.874599; -1.574150;,
       1.574203; 3.874599; -1.574150;,
       -0.851947; 3.874599; -2.056747;,
       0.851953; 3.874599; -2.056747;,
       0.000003; 3.874599; -2.226250;,
       2.442383; 0.000000; -1.011650;,
       1.869323; 0.000000; -1.869247;,
       1.011673; 0.000000; -2.442352;,
       -2.442377; 0.000000; -1.011650;,
       0.000003; 0.000000; -2.643547;,
       -1.869317; 0.000000; -1.869247;,
       -1.011667; 0.000000; -2.442352;;
       476;
       3;0, 1, 2;,
       3;1, 3, 2;,
       3;4, 0, 5;,
       3;0, 2, 5;,
       3;6, 4, 7;,
       3;4, 5, 7;,
       3;8, 6, 9;,
       3;6, 7, 9;,
       3;10, 8, 11;,
       3;8, 9, 11;,
       3;12, 10, 13;,
       3;10, 11, 13;,
       3;14, 12, 15;,
       3;12, 13, 15;,
       3;16, 14, 17;,
       3;14, 15, 17;,
       3;12, 14, 18;,
       3;14, 19, 18;,
       3;10, 12, 20;,
       3;12, 18, 20;,
       3;8, 10, 21;,
       3;10, 20, 21;,
       3;6, 8, 22;,
       3;8, 21, 22;,
       3;4, 6, 23;,
       3;6, 22, 23;,
       3;0, 4, 24;,
       3;4, 23, 24;,
       3;1, 0, 25;,
       3;0, 24, 25;,
       3;14, 16, 19;,
       3;16, 26, 19;,
       3;18, 19, 27;,
       3;19, 28, 27;,
       3;20, 18, 29;,
       3;18, 27, 29;,
       3;21, 20, 30;,
       3;20, 29, 30;,
       3;22, 21, 31;,
       3;21, 30, 31;,
       3;23, 22, 32;,
       3;22, 31, 32;,
       3;24, 23, 33;,
       3;23, 32, 33;,
       3;25, 24, 34;,
       3;24, 33, 34;,
       3;19, 26, 28;,
       3;26, 35, 28;,
       3;27, 28, 36;,
       3;28, 37, 36;,
       3;29, 27, 38;,
       3;27, 36, 38;,
       3;30, 29, 39;,
       3;29, 38, 39;,
       3;31, 30, 40;,
       3;30, 39, 40;,
       3;32, 31, 41;,
       3;31, 40, 41;,
       3;33, 32, 42;,
       3;32, 41, 42;,
       3;34, 33, 43;,
       3;33, 42, 43;,
       3;28, 35, 37;,
       3;35, 44, 37;,
       3;36, 37, 45;,
       3;37, 46, 45;,
       3;38, 36, 47;,
       3;36, 45, 47;,
       3;39, 38, 48;,
       3;38, 47, 48;,
       3;40, 39, 49;,
       3;39, 48, 49;,
       3;41, 40, 50;,
       3;40, 49, 50;,
       3;42, 41, 51;,
       3;41, 50, 51;,
       3;43, 42, 52;,
       3;42, 51, 52;,
       3;37, 44, 46;,
       3;44, 53, 46;,
       3;45, 46, 54;,
       3;46, 55, 54;,
       3;47, 45, 56;,
       3;45, 54, 56;,
       3;48, 47, 57;,
       3;47, 56, 57;,
       3;49, 48, 58;,
       3;48, 57, 58;,
       3;50, 49, 59;,
       3;49, 58, 59;,
       3;51, 50, 60;,
       3;50, 59, 60;,
       3;52, 51, 61;,
       3;51, 60, 61;,
       3;46, 53, 55;,
       3;53, 62, 55;,
       3;54, 55, 63;,
       3;55, 64, 63;,
       3;56, 54, 65;,
       3;54, 63, 65;,
       3;57, 56, 66;,
       3;56, 65, 66;,
       3;58, 57, 67;,
       3;57, 66, 67;,
       3;59, 58, 68;,
       3;58, 67, 68;,
       3;60, 59, 69;,
       3;59, 68, 69;,
       3;61, 60, 70;,
       3;60, 69, 70;,
       3;55, 62, 64;,
       3;62, 71, 64;,
       3;63, 64, 72;,
       3;64, 73, 72;,
       3;65, 63, 74;,
       3;63, 72, 74;,
       3;66, 65, 75;,
       3;65, 74, 75;,
       3;67, 66, 76;,
       3;66, 75, 76;,
       3;68, 67, 77;,
       3;67, 76, 77;,
       3;69, 68, 78;,
       3;68, 77, 78;,
       3;70, 69, 79;,
       3;69, 78, 79;,
       3;64, 71, 73;,
       3;71, 80, 73;,
       3;72, 73, 81;,
       3;73, 82, 81;,
       3;74, 72, 83;,
       3;72, 81, 83;,
       3;75, 74, 84;,
       3;74, 83, 84;,
       3;76, 75, 85;,
       3;75, 84, 85;,
       3;77, 76, 86;,
       3;76, 85, 86;,
       3;78, 77, 87;,
       3;77, 86, 87;,
       3;79, 78, 88;,
       3;78, 87, 88;,
       3;73, 80, 82;,
       3;80, 89, 82;,
       3;81, 82, 90;,
       3;82, 91, 90;,
       3;83, 81, 92;,
       3;81, 90, 92;,
       3;84, 83, 93;,
       3;83, 92, 93;,
       3;85, 84, 94;,
       3;84, 93, 94;,
       3;86, 85, 95;,
       3;85, 94, 95;,
       3;87, 86, 96;,
       3;86, 95, 96;,
       3;88, 87, 97;,
       3;87, 96, 97;,
       3;82, 89, 91;,
       3;89, 98, 91;,
       3;90, 91, 99;,
       3;91, 100, 99;,
       3;92, 90, 101;,
       3;90, 99, 101;,
       3;93, 92, 102;,
       3;92, 101, 102;,
       3;94, 93, 103;,
       3;93, 102, 103;,
       3;95, 94, 104;,
       3;94, 103, 104;,
       3;96, 95, 105;,
       3;95, 104, 105;,
       3;97, 96, 106;,
       3;96, 105, 106;,
       3;91, 98, 100;,
       3;98, 107, 100;,
       3;108, 109, 110;,
       3;109, 111, 110;,
       3;112, 108, 113;,
       3;108, 110, 113;,
       3;114, 112, 115;,
       3;112, 113, 115;,
       3;116, 114, 117;,
       3;114, 115, 117;,
       3;118, 116, 119;,
       3;116, 117, 119;,
       3;120, 118, 121;,
       3;118, 119, 121;,
       3;122, 120, 123;,
       3;120, 121, 123;,
       3;124, 122, 125;,
       3;122, 123, 125;,
       3;126, 127, 128;,
       3;127, 129, 128;,
       3;130, 126, 131;,
       3;126, 128, 131;,
       3;132, 130, 133;,
       3;130, 131, 133;,
       3;134, 132, 135;,
       3;132, 133, 135;,
       3;136, 134, 137;,
       3;134, 135, 137;,
       3;138, 136, 139;,
       3;136, 137, 139;,
       3;140, 138, 141;,
       3;138, 139, 141;,
       3;142, 140, 143;,
       3;140, 141, 143;,
       3;128, 129, 144;,
       3;129, 145, 144;,
       3;131, 128, 146;,
       3;128, 144, 146;,
       3;133, 131, 147;,
       3;131, 146, 147;,
       3;135, 133, 148;,
       3;133, 147, 148;,
       3;137, 135, 149;,
       3;135, 148, 149;,
       3;139, 137, 150;,
       3;137, 149, 150;,
       3;141, 139, 151;,
       3;139, 150, 151;,
       3;143, 141, 152;,
       3;141, 151, 152;,
       3;153, 154, 155;,
       3;154, 156, 155;,
       3;155, 156, 157;,
       3;156, 158, 157;,
       3;157, 158, 159;,
       3;158, 160, 159;,
       3;159, 160, 161;,
       3;162, 163, 164;,
       3;163, 165, 164;,
       3;164, 165, 166;,
       3;165, 167, 166;,
       3;166, 167, 168;,
       3;167, 169, 168;,
       3;168, 169, 170;,
       3;1, 171, 3;,
       3;171, 172, 3;,
       3;171, 173, 172;,
       3;173, 174, 172;,
       3;173, 175, 174;,
       3;175, 176, 174;,
       3;175, 177, 176;,
       3;177, 178, 176;,
       3;177, 179, 178;,
       3;179, 180, 178;,
       3;179, 181, 180;,
       3;181, 182, 180;,
       3;181, 183, 182;,
       3;183, 184, 182;,
       3;183, 16, 184;,
       3;16, 17, 184;,
       3;183, 181, 185;,
       3;181, 186, 185;,
       3;181, 179, 186;,
       3;179, 187, 186;,
       3;179, 177, 187;,
       3;177, 188, 187;,
       3;177, 175, 188;,
       3;175, 189, 188;,
       3;175, 173, 189;,
       3;173, 190, 189;,
       3;173, 171, 190;,
       3;171, 191, 190;,
       3;171, 1, 191;,
       3;1, 25, 191;,
       3;16, 183, 26;,
       3;183, 185, 26;,
       3;185, 186, 192;,
       3;186, 193, 192;,
       3;186, 187, 193;,
       3;187, 194, 193;,
       3;187, 188, 194;,
       3;188, 195, 194;,
       3;188, 189, 195;,
       3;189, 196, 195;,
       3;189, 190, 196;,
       3;190, 197, 196;,
       3;190, 191, 197;,
       3;191, 198, 197;,
       3;191, 25, 198;,
       3;25, 34, 198;,
       3;26, 185, 35;,
       3;185, 192, 35;,
       3;192, 193, 199;,
       3;193, 200, 199;,
       3;193, 194, 200;,
       3;194, 201, 200;,
       3;194, 195, 201;,
       3;195, 202, 201;,
       3;195, 196, 202;,
       3;196, 203, 202;,
       3;196, 197, 203;,
       3;197, 204, 203;,
       3;197, 198, 204;,
       3;198, 205, 204;,
       3;198, 34, 205;,
       3;34, 43, 205;,
       3;35, 192, 44;,
       3;192, 199, 44;,
       3;199, 200, 206;,
       3;200, 207, 206;,
       3;200, 201, 207;,
       3;201, 208, 207;,
       3;201, 202, 208;,
       3;202, 209, 208;,
       3;202, 203, 209;,
       3;203, 210, 209;,
       3;203, 204, 210;,
       3;204, 211, 210;,
       3;204, 205, 211;,
       3;205, 212, 211;,
       3;205, 43, 212;,
       3;43, 52, 212;,
       3;44, 199, 53;,
       3;199, 206, 53;,
       3;206, 207, 213;,
       3;207, 214, 213;,
       3;207, 208, 214;,
       3;208, 215, 214;,
       3;208, 209, 215;,
       3;209, 216, 215;,
       3;209, 210, 216;,
       3;210, 217, 216;,
       3;210, 211, 217;,
       3;211, 218, 217;,
       3;211, 212, 218;,
       3;212, 219, 218;,
       3;212, 52, 219;,
       3;52, 61, 219;,
       3;53, 206, 62;,
       3;206, 213, 62;,
       3;213, 214, 220;,
       3;214, 221, 220;,
       3;214, 215, 221;,
       3;215, 222, 221;,
       3;215, 216, 222;,
       3;216, 223, 222;,
       3;216, 217, 223;,
       3;217, 224, 223;,
       3;217, 218, 224;,
       3;218, 225, 224;,
       3;218, 219, 225;,
       3;219, 226, 225;,
       3;219, 61, 226;,
       3;61, 70, 226;,
       3;62, 213, 71;,
       3;213, 220, 71;,
       3;220, 221, 227;,
       3;221, 228, 227;,
       3;221, 222, 228;,
       3;222, 229, 228;,
       3;222, 223, 229;,
       3;223, 230, 229;,
       3;223, 224, 230;,
       3;224, 231, 230;,
       3;224, 225, 231;,
       3;225, 232, 231;,
       3;225, 226, 232;,
       3;226, 233, 232;,
       3;226, 70, 233;,
       3;70, 79, 233;,
       3;71, 220, 80;,
       3;220, 227, 80;,
       3;227, 228, 234;,
       3;228, 235, 234;,
       3;228, 229, 235;,
       3;229, 236, 235;,
       3;229, 230, 236;,
       3;230, 237, 236;,
       3;230, 231, 237;,
       3;231, 238, 237;,
       3;231, 232, 238;,
       3;232, 239, 238;,
       3;232, 233, 239;,
       3;233, 240, 239;,
       3;233, 79, 240;,
       3;79, 88, 240;,
       3;80, 227, 89;,
       3;227, 234, 89;,
       3;234, 235, 241;,
       3;235, 242, 241;,
       3;235, 236, 242;,
       3;236, 243, 242;,
       3;236, 237, 243;,
       3;237, 244, 243;,
       3;237, 238, 244;,
       3;238, 245, 244;,
       3;238, 239, 245;,
       3;239, 246, 245;,
       3;239, 240, 246;,
       3;240, 247, 246;,
       3;240, 88, 247;,
       3;88, 97, 247;,
       3;89, 234, 98;,
       3;234, 241, 98;,
       3;241, 242, 248;,
       3;242, 249, 248;,
       3;242, 243, 249;,
       3;243, 250, 249;,
       3;243, 244, 250;,
       3;244, 251, 250;,
       3;244, 245, 251;,
       3;245, 252, 251;,
       3;245, 246, 252;,
       3;246, 253, 252;,
       3;246, 247, 253;,
       3;247, 254, 253;,
       3;247, 97, 254;,
       3;97, 106, 254;,
       3;98, 241, 107;,
       3;241, 248, 107;,
       3;109, 255, 111;,
       3;255, 256, 111;,
       3;255, 257, 256;,
       3;257, 258, 256;,
       3;257, 259, 258;,
       3;259, 260, 258;,
       3;259, 261, 260;,
       3;261, 262, 260;,
       3;261, 263, 262;,
       3;263, 264, 262;,
       3;263, 265, 264;,
       3;265, 266, 264;,
       3;265, 267, 266;,
       3;267, 268, 266;,
       3;267, 124, 268;,
       3;124, 125, 268;,
       3;127, 269, 129;,
       3;269, 270, 129;,
       3;269, 271, 270;,
       3;271, 272, 270;,
       3;271, 273, 272;,
       3;273, 274, 272;,
       3;273, 275, 274;,
       3;275, 276, 274;,
       3;275, 277, 276;,
       3;277, 278, 276;,
       3;277, 279, 278;,
       3;279, 280, 278;,
       3;279, 281, 280;,
       3;281, 282, 280;,
       3;281, 142, 282;,
       3;142, 143, 282;,
       3;129, 270, 145;,
       3;270, 283, 145;,
       3;270, 272, 283;,
       3;272, 284, 283;,
       3;272, 274, 284;,
       3;274, 285, 284;,
       3;274, 276, 285;,
       3;276, 286, 285;,
       3;276, 278, 286;,
       3;278, 287, 286;,
       3;278, 280, 287;,
       3;280, 288, 287;,
       3;280, 282, 288;,
       3;282, 289, 288;,
       3;282, 143, 289;,
       3;143, 152, 289;,
       3;154, 153, 290;,
       3;153, 291, 290;,
       3;290, 291, 292;,
       3;291, 293, 292;,
       3;292, 293, 294;,
       3;293, 295, 294;,
       3;294, 295, 296;,
       3;297, 162, 298;,
       3;162, 164, 298;,
       3;298, 164, 299;,
       3;164, 300, 299;,
       3;299, 300, 301;,
       3;300, 302, 301;,
       3;301, 302, 303;;

      MeshNormals {
       304;
       -0.904283; 0.205921; 0.373991;,
       -0.978570; 0.205914; -0.000535;,
       -0.918266; 0.245164; 0.310938;,
       -0.967358; 0.245164; -0.064136;,
       -0.692321; 0.205942; 0.691578;,
       -0.729378; 0.245160; 0.638674;,
       -0.374972; 0.205938; 0.903872;,
       -0.429434; 0.245217; 0.869169;,
       -0.000537; 0.205924; 0.978568;,
       -0.064135; 0.245227; 0.967342;,
       0.373973; 0.205915; 0.904292;,
       0.310925; 0.245233; 0.918252;,
       0.691572; 0.205918; 0.692334;,
       0.638664; 0.245181; 0.729380;,
       0.903872; 0.205927; 0.374980;,
       0.869172; 0.245169; 0.429455;,
       0.978569; 0.205919; 0.000538;,
       0.967358; 0.245162; 0.064140;,
       0.541285; 0.674786; 0.501671;,
       0.692063; 0.674781; 0.256359;,
       0.308092; 0.674802; 0.670613;,
       0.028002; 0.674785; 0.737483;,
       -0.256361; 0.674777; 0.692065;,
       -0.501700; 0.674767; 0.541283;,
       -0.670622; 0.674791; 0.308097;,
       -0.737480; 0.674788; 0.028004;,
       0.737484; 0.674784; -0.027995;,
       0.489196; 0.694507; 0.527587;,
       0.653862; 0.694508; 0.300207;,
       0.250064; 0.694495; 0.674644;,
       -0.027134; 0.694512; 0.718969;,
       -0.300180; 0.694528; 0.653852;,
       -0.527553; 0.694522; 0.489211;,
       -0.674640; 0.694493; 0.250080;,
       -0.718977; 0.694505; -0.027129;,
       0.718974; 0.694507; 0.027129;,
       0.697725; -0.192062; 0.690139;,
       0.908726; -0.192063; 0.370579;,
       0.380516; -0.191989; 0.904626;,
       0.005383; -0.192021; 0.981376;,
       -0.370561; -0.192069; 0.908732;,
       -0.690108; -0.192081; 0.697751;,
       -0.904608; -0.192023; 0.380540;,
       -0.981372; -0.192039; 0.005385;,
       0.981372; -0.192041; -0.005383;,
       0.530249; -0.667636; 0.522588;,
       0.689928; -0.667581; 0.279884;,
       0.289914; -0.667599; 0.685756;,
       0.005440; -0.667572; 0.744525;,
       -0.279876; -0.667554; 0.689957;,
       -0.522566; -0.667627; 0.530282;,
       -0.685739; -0.667607; 0.289934;,
       -0.744498; -0.667602; 0.005441;,
       0.744502; -0.667598; -0.005438;,
       0.524359; -0.664634; 0.532268;,
       0.688124; -0.664646; 0.291085;,
       0.280750; -0.664643; 0.692409;,
       -0.005590; -0.664655; 0.747129;,
       -0.291078; -0.664653; 0.688120;,
       -0.532254; -0.664639; 0.524367;,
       -0.692408; -0.664639; 0.280760;,
       -0.747135; -0.664649; -0.005582;,
       0.747131; -0.664653; 0.005597;,
       0.622853; -0.467040; 0.627637;,
       0.815625; -0.467040; 0.341511;,
       0.335256; -0.467044; 0.818214;,
       -0.003377; -0.467043; 0.884228;,
       -0.341505; -0.467042; 0.815627;,
       -0.627628; -0.467043; 0.622859;,
       -0.818214; -0.467041; 0.335259;,
       -0.884233; -0.467034; -0.003372;,
       0.884231; -0.467038; 0.003387;,
       0.695059; -0.171370; 0.698230;,
       0.909351; -0.171363; 0.379098;,
       0.374950; -0.171374; 0.911067;,
       -0.002232; -0.171371; 0.985204;,
       -0.379093; -0.171375; 0.909351;,
       -0.698221; -0.171363; 0.695070;,
       -0.911065; -0.171361; 0.374960;,
       -0.985206; -0.171357; -0.002236;,
       0.985207; -0.171354; 0.002239;,
       0.705727; 0.042373; 0.707216;,
       0.923220; 0.021265; 0.383682;,
       0.381717; 0.060125; 0.922322;,
       0.000615; 0.064299; 0.997931;,
       -0.381086; 0.052444; 0.923051;,
       -0.705956; 0.031422; 0.707558;,
       -0.923610; 0.013445; 0.383098;,
       -0.999958; 0.009198; -0.000503;,
       0.999958; 0.009206; 0.000507;,
       0.702292; -0.078412; 0.707557;,
       0.920541; -0.069760; 0.384367;,
       0.379453; -0.079524; 0.921787;,
       0.000762; -0.072756; 0.997350;,
       -0.378667; -0.062115; 0.923446;,
       -0.702776; -0.053531; 0.709395;,
       -0.921326; -0.051927; 0.385307;,
       -0.998280; -0.058629; 0.000215;,
       0.998278; -0.058653; -0.000200;,
       0.741345; -0.161227; 0.651470;,
       0.940526; -0.116197; 0.319232;,
       0.431306; -0.212888; 0.876729;,
       0.063348; -0.241526; 0.968325;,
       -0.311575; -0.231492; 0.921592;,
       -0.645765; -0.188229; 0.739971;,
       -0.887358; -0.135803; 0.440629;,
       -0.992183; -0.105450; 0.066730;,
       0.992182; -0.105474; -0.066714;,
       0.000000; 1.000000; 0.000000;,
       0.000000; 1.000000; 0.000000;,
       0.000000; 1.000000; 0.000000;,
       0.000000; 1.000000; 0.000000;,
       0.000000; 1.000000; 0.000000;,
       0.000000; 1.000000; 0.000000;,
       0.000000; 1.000000; 0.000000;,
       0.000000; 1.000000; 0.000000;,
       0.000000; 1.000000; 0.000000;,
       0.000000; 1.000000; 0.000000;,
       0.000000; 1.000000; 0.000000;,
       0.000000; 1.000000; 0.000000;,
       0.000000; 1.000000; 0.000000;,
       0.000000; 1.000000; 0.000000;,
       0.000000; 1.000000; 0.000000;,
       0.000000; 1.000000; 0.000000;,
       0.000000; 1.000000; 0.000000;,
       0.000000; 1.000000; 0.000000;,
       -0.853569; 0.305862; -0.421744;,
       -0.949988; 0.305868; -0.062988;,
       -0.889151; 0.270652; -0.368996;,
       -0.962678; 0.270649; -0.000649;,
       -0.627207; 0.305858; -0.716284;,
       -0.680257; 0.270640; -0.681179;,
       -0.305357; 0.305899; -0.901767;,
       -0.367790; 0.270654; -0.889650;,
       0.062985; 0.305907; -0.949976;,
       0.000634; 0.270675; -0.962671;,
       0.421746; 0.305873; -0.853564;,
       0.368999; 0.270662; -0.889146;,
       0.716284; 0.305857; -0.627207;,
       0.681178; 0.270650; -0.680254;,
       0.901779; 0.305868; -0.305351;,
       0.889644; 0.270651; -0.367807;,
       0.949988; 0.305869; 0.062985;,
       0.962678; 0.270648; 0.000648;,
       -0.920895; 0.233934; -0.311814;,
       -0.970125; 0.233927; 0.064315;,
       -0.731470; 0.233936; -0.640489;,
       -0.430657; 0.233928; -0.871672;,
       -0.064321; 0.233940; -0.970121;,
       0.311801; 0.233937; -0.920899;,
       0.640508; 0.233930; -0.731455;,
       0.871661; 0.233938; -0.430675;,
       0.970123; 0.233931; -0.064328;,
       0.000000; 1.000000; 0.000000;,
       0.000000; 1.000000; 0.000000;,
       0.000000; 1.000000; 0.000000;,
       0.000000; 1.000000; 0.000000;,
       0.000000; 1.000000; 0.000000;,
       0.000000; 1.000000; 0.000000;,
       0.000000; 1.000000; 0.000000;,
       0.000000; 1.000000; 0.000000;,
       0.000000; 1.000000; 0.000000;,
       0.000000; -1.000000; 0.000000;,
       0.000000; -1.000000; 0.000000;,
       0.000000; -1.000000; 0.000000;,
       0.000000; -1.000000; 0.000000;,
       0.000000; -1.000000; 0.000000;,
       0.000000; -1.000000; 0.000000;,
       0.000000; -1.000000; 0.000000;,
       0.000000; -1.000000; 0.000000;,
       0.000000; -1.000000; 0.000000;,
       -0.903875; 0.205908; -0.374983;,
       -0.869171; 0.245163; -0.429461;,
       -0.691580; 0.205908; -0.692328;,
       -0.638691; 0.245146; -0.729368;,
       -0.374002; 0.205919; -0.904279;,
       -0.310935; 0.245104; -0.918283;,
       0.000537; 0.205899; -0.978573;,
       0.064137; 0.245083; -0.967378;,
       0.374989; 0.205889; -0.903877;,
       0.429471; 0.245129; -0.869176;,
       0.692353; 0.205888; -0.691562;,
       0.729379; 0.245166; -0.638671;,
       0.904286; 0.205913; -0.373988;,
       0.918263; 0.245172; -0.310939;,
       0.670632; 0.674784; -0.308091;,
       0.501684; 0.674785; -0.541275;,
       0.256338; 0.674797; -0.692055;,
       -0.027996; 0.674784; -0.737484;,
       -0.308093; 0.674777; -0.670637;,
       -0.541280; 0.674772; -0.501696;,
       -0.692058; 0.674789; -0.256349;,
       0.674631; 0.694507; -0.250065;,
       0.527591; 0.694495; -0.489209;,
       0.300219; 0.694476; -0.653890;,
       0.027130; 0.694480; -0.719000;,
       -0.250083; 0.694489; -0.674644;,
       -0.489218; 0.694498; -0.527577;,
       -0.653871; 0.694502; -0.300198;,
       0.904617; -0.192039; -0.380512;,
       0.690140; -0.192029; -0.697733;,
       0.370587; -0.192005; -0.908735;,
       -0.005382; -0.192025; -0.981375;,
       -0.380533; -0.192026; -0.904611;,
       -0.697756; -0.192017; -0.690120;,
       -0.908738; -0.192021; -0.370572;,
       0.685762; -0.667587; -0.289929;,
       0.522612; -0.667575; -0.530302;,
       0.279894; -0.667570; -0.689935;,
       -0.005440; -0.667582; -0.744516;,
       -0.289956; -0.667563; -0.685774;,
       -0.530309; -0.667581; -0.522598;,
       -0.689915; -0.667597; -0.279879;,
       0.692396; -0.664658; -0.280744;,
       0.532251; -0.664655; -0.524350;,
       0.291081; -0.664655; -0.688117;,
       0.005590; -0.664657; -0.747128;,
       -0.280752; -0.664657; -0.692394;,
       -0.524342; -0.664662; -0.532249;,
       -0.688116; -0.664658; -0.291077;,
       0.818219; -0.467033; -0.335258;,
       0.627636; -0.467038; -0.622856;,
       0.341507; -0.467043; -0.815625;,
       0.003378; -0.467045; -0.884227;,
       -0.335256; -0.467042; -0.818215;,
       -0.622852; -0.467041; -0.627636;,
       -0.815635; -0.467032; -0.341499;,
       0.911072; -0.171351; -0.374950;,
       0.698233; -0.171348; -0.695062;,
       0.379095; -0.171344; -0.909356;,
       0.002232; -0.171337; -0.985210;,
       -0.374950; -0.171343; -0.911073;,
       -0.695073; -0.171339; -0.698224;,
       -0.909360; -0.171347; -0.379084;,
       0.923614; 0.013419; -0.383088;,
       0.705958; 0.031367; -0.707559;,
       0.381077; 0.052435; -0.923055;,
       -0.000602; 0.064243; -0.997934;,
       -0.381727; 0.060107; -0.922319;,
       -0.705725; 0.042322; -0.707221;,
       -0.923221; 0.021204; -0.383685;,
       0.921326; -0.051985; -0.385300;,
       0.702759; -0.053594; -0.709407;,
       0.378659; -0.062161; -0.923446;,
       -0.000763; -0.072738; -0.997351;,
       -0.379452; -0.079519; -0.921788;,
       -0.702264; -0.078498; -0.707576;,
       -0.920542; -0.069783; -0.384361;,
       0.887359; -0.135807; -0.440625;,
       0.645732; -0.188240; -0.739997;,
       0.311582; -0.231381; -0.921618;,
       -0.063372; -0.241324; -0.968373;,
       -0.431265; -0.212888; -0.876749;,
       -0.741335; -0.161208; -0.651486;,
       -0.940533; -0.116176; -0.319220;,
       0.000000; 1.000000; 0.000000;,
       0.000000; 1.000000; 0.000000;,
       0.000000; 1.000000; 0.000000;,
       0.000000; 1.000000; 0.000000;,
       0.000000; 1.000000; 0.000000;,
       0.000000; 1.000000; 0.000000;,
       0.000000; 1.000000; 0.000000;,
       0.000000; 1.000000; 0.000000;,
       0.000000; 1.000000; 0.000000;,
       0.000000; 1.000000; 0.000000;,
       0.000000; 1.000000; 0.000000;,
       0.000000; 1.000000; 0.000000;,
       0.000000; 1.000000; 0.000000;,
       0.000000; 1.000000; 0.000000;,
       -0.901778; 0.305869; 0.305354;,
       -0.889649; 0.270643; 0.367801;,
       -0.716286; 0.305851; 0.627208;,
       -0.681171; 0.270642; 0.680264;,
       -0.421747; 0.305867; 0.853566;,
       -0.368998; 0.270661; 0.889147;,
       -0.062986; 0.305904; 0.949977;,
       -0.000654; 0.270659; 0.962675;,
       0.305356; 0.305888; 0.901771;,
       0.367808; 0.270644; 0.889645;,
       0.627205; 0.305859; 0.716285;,
       0.680255; 0.270644; 0.681179;,
       0.853569; 0.305864; 0.421743;,
       0.889149; 0.270649; 0.369003;,
       -0.871660; 0.233925; 0.430682;,
       -0.640487; 0.233930; 0.731473;,
       -0.311837; 0.233921; 0.920890;,
       0.064321; 0.233918; 0.970126;,
       0.430691; 0.233931; 0.871655;,
       0.731457; 0.233929; 0.640506;,
       0.920892; 0.233927; 0.311829;,
       0.000000; 1.000000; 0.000000;,
       0.000000; 1.000000; 0.000000;,
       0.000000; 1.000000; 0.000000;,
       0.000000; 1.000000; 0.000000;,
       0.000000; 1.000000; 0.000000;,
       0.000000; 1.000000; 0.000000;,
       0.000000; 1.000000; 0.000000;,
       0.000000; -1.000000; 0.000000;,
       0.000000; -1.000000; 0.000000;,
       0.000000; -1.000000; 0.000000;,
       0.000000; -1.000000; 0.000000;,
       0.000000; -1.000000; 0.000000;,
       0.000000; -1.000000; 0.000000;,
       0.000000; -1.000000; 0.000000;;
       476;
       3;0, 1, 2;,
       3;1, 3, 2;,
       3;4, 0, 5;,
       3;0, 2, 5;,
       3;6, 4, 7;,
       3;4, 5, 7;,
       3;8, 6, 9;,
       3;6, 7, 9;,
       3;10, 8, 11;,
       3;8, 9, 11;,
       3;12, 10, 13;,
       3;10, 11, 13;,
       3;14, 12, 15;,
       3;12, 13, 15;,
       3;16, 14, 17;,
       3;14, 15, 17;,
       3;12, 14, 18;,
       3;14, 19, 18;,
       3;10, 12, 20;,
       3;12, 18, 20;,
       3;8, 10, 21;,
       3;10, 20, 21;,
       3;6, 8, 22;,
       3;8, 21, 22;,
       3;4, 6, 23;,
       3;6, 22, 23;,
       3;0, 4, 24;,
       3;4, 23, 24;,
       3;1, 0, 25;,
       3;0, 24, 25;,
       3;14, 16, 19;,
       3;16, 26, 19;,
       3;18, 19, 27;,
       3;19, 28, 27;,
       3;20, 18, 29;,
       3;18, 27, 29;,
       3;21, 20, 30;,
       3;20, 29, 30;,
       3;22, 21, 31;,
       3;21, 30, 31;,
       3;23, 22, 32;,
       3;22, 31, 32;,
       3;24, 23, 33;,
       3;23, 32, 33;,
       3;25, 24, 34;,
       3;24, 33, 34;,
       3;19, 26, 28;,
       3;26, 35, 28;,
       3;27, 28, 36;,
       3;28, 37, 36;,
       3;29, 27, 38;,
       3;27, 36, 38;,
       3;30, 29, 39;,
       3;29, 38, 39;,
       3;31, 30, 40;,
       3;30, 39, 40;,
       3;32, 31, 41;,
       3;31, 40, 41;,
       3;33, 32, 42;,
       3;32, 41, 42;,
       3;34, 33, 43;,
       3;33, 42, 43;,
       3;28, 35, 37;,
       3;35, 44, 37;,
       3;36, 37, 45;,
       3;37, 46, 45;,
       3;38, 36, 47;,
       3;36, 45, 47;,
       3;39, 38, 48;,
       3;38, 47, 48;,
       3;40, 39, 49;,
       3;39, 48, 49;,
       3;41, 40, 50;,
       3;40, 49, 50;,
       3;42, 41, 51;,
       3;41, 50, 51;,
       3;43, 42, 52;,
       3;42, 51, 52;,
       3;37, 44, 46;,
       3;44, 53, 46;,
       3;45, 46, 54;,
       3;46, 55, 54;,
       3;47, 45, 56;,
       3;45, 54, 56;,
       3;48, 47, 57;,
       3;47, 56, 57;,
       3;49, 48, 58;,
       3;48, 57, 58;,
       3;50, 49, 59;,
       3;49, 58, 59;,
       3;51, 50, 60;,
       3;50, 59, 60;,
       3;52, 51, 61;,
       3;51, 60, 61;,
       3;46, 53, 55;,
       3;53, 62, 55;,
       3;54, 55, 63;,
       3;55, 64, 63;,
       3;56, 54, 65;,
       3;54, 63, 65;,
       3;57, 56, 66;,
       3;56, 65, 66;,
       3;58, 57, 67;,
       3;57, 66, 67;,
       3;59, 58, 68;,
       3;58, 67, 68;,
       3;60, 59, 69;,
       3;59, 68, 69;,
       3;61, 60, 70;,
       3;60, 69, 70;,
       3;55, 62, 64;,
       3;62, 71, 64;,
       3;63, 64, 72;,
       3;64, 73, 72;,
       3;65, 63, 74;,
       3;63, 72, 74;,
       3;66, 65, 75;,
       3;65, 74, 75;,
       3;67, 66, 76;,
       3;66, 75, 76;,
       3;68, 67, 77;,
       3;67, 76, 77;,
       3;69, 68, 78;,
       3;68, 77, 78;,
       3;70, 69, 79;,
       3;69, 78, 79;,
       3;64, 71, 73;,
       3;71, 80, 73;,
       3;72, 73, 81;,
       3;73, 82, 81;,
       3;74, 72, 83;,
       3;72, 81, 83;,
       3;75, 74, 84;,
       3;74, 83, 84;,
       3;76, 75, 85;,
       3;75, 84, 85;,
       3;77, 76, 86;,
       3;76, 85, 86;,
       3;78, 77, 87;,
       3;77, 86, 87;,
       3;79, 78, 88;,
       3;78, 87, 88;,
       3;73, 80, 82;,
       3;80, 89, 82;,
       3;81, 82, 90;,
       3;82, 91, 90;,
       3;83, 81, 92;,
       3;81, 90, 92;,
       3;84, 83, 93;,
       3;83, 92, 93;,
       3;85, 84, 94;,
       3;84, 93, 94;,
       3;86, 85, 95;,
       3;85, 94, 95;,
       3;87, 86, 96;,
       3;86, 95, 96;,
       3;88, 87, 97;,
       3;87, 96, 97;,
       3;82, 89, 91;,
       3;89, 98, 91;,
       3;90, 91, 99;,
       3;91, 100, 99;,
       3;92, 90, 101;,
       3;90, 99, 101;,
       3;93, 92, 102;,
       3;92, 101, 102;,
       3;94, 93, 103;,
       3;93, 102, 103;,
       3;95, 94, 104;,
       3;94, 103, 104;,
       3;96, 95, 105;,
       3;95, 104, 105;,
       3;97, 96, 106;,
       3;96, 105, 106;,
       3;91, 98, 100;,
       3;98, 107, 100;,
       3;108, 109, 110;,
       3;109, 111, 110;,
       3;112, 108, 113;,
       3;108, 110, 113;,
       3;114, 112, 115;,
       3;112, 113, 115;,
       3;116, 114, 117;,
       3;114, 115, 117;,
       3;118, 116, 119;,
       3;116, 117, 119;,
       3;120, 118, 121;,
       3;118, 119, 121;,
       3;122, 120, 123;,
       3;120, 121, 123;,
       3;124, 122, 125;,
       3;122, 123, 125;,
       3;126, 127, 128;,
       3;127, 129, 128;,
       3;130, 126, 131;,
       3;126, 128, 131;,
       3;132, 130, 133;,
       3;130, 131, 133;,
       3;134, 132, 135;,
       3;132, 133, 135;,
       3;136, 134, 137;,
       3;134, 135, 137;,
       3;138, 136, 139;,
       3;136, 137, 139;,
       3;140, 138, 141;,
       3;138, 139, 141;,
       3;142, 140, 143;,
       3;140, 141, 143;,
       3;128, 129, 144;,
       3;129, 145, 144;,
       3;131, 128, 146;,
       3;128, 144, 146;,
       3;133, 131, 147;,
       3;131, 146, 147;,
       3;135, 133, 148;,
       3;133, 147, 148;,
       3;137, 135, 149;,
       3;135, 148, 149;,
       3;139, 137, 150;,
       3;137, 149, 150;,
       3;141, 139, 151;,
       3;139, 150, 151;,
       3;143, 141, 152;,
       3;141, 151, 152;,
       3;153, 154, 155;,
       3;154, 156, 155;,
       3;155, 156, 157;,
       3;156, 158, 157;,
       3;157, 158, 159;,
       3;158, 160, 159;,
       3;159, 160, 161;,
       3;162, 163, 164;,
       3;163, 165, 164;,
       3;164, 165, 166;,
       3;165, 167, 166;,
       3;166, 167, 168;,
       3;167, 169, 168;,
       3;168, 169, 170;,
       3;1, 171, 3;,
       3;171, 172, 3;,
       3;171, 173, 172;,
       3;173, 174, 172;,
       3;173, 175, 174;,
       3;175, 176, 174;,
       3;175, 177, 176;,
       3;177, 178, 176;,
       3;177, 179, 178;,
       3;179, 180, 178;,
       3;179, 181, 180;,
       3;181, 182, 180;,
       3;181, 183, 182;,
       3;183, 184, 182;,
       3;183, 16, 184;,
       3;16, 17, 184;,
       3;183, 181, 185;,
       3;181, 186, 185;,
       3;181, 179, 186;,
       3;179, 187, 186;,
       3;179, 177, 187;,
       3;177, 188, 187;,
       3;177, 175, 188;,
       3;175, 189, 188;,
       3;175, 173, 189;,
       3;173, 190, 189;,
       3;173, 171, 190;,
       3;171, 191, 190;,
       3;171, 1, 191;,
       3;1, 25, 191;,
       3;16, 183, 26;,
       3;183, 185, 26;,
       3;185, 186, 192;,
       3;186, 193, 192;,
       3;186, 187, 193;,
       3;187, 194, 193;,
       3;187, 188, 194;,
       3;188, 195, 194;,
       3;188, 189, 195;,
       3;189, 196, 195;,
       3;189, 190, 196;,
       3;190, 197, 196;,
       3;190, 191, 197;,
       3;191, 198, 197;,
       3;191, 25, 198;,
       3;25, 34, 198;,
       3;26, 185, 35;,
       3;185, 192, 35;,
       3;192, 193, 199;,
       3;193, 200, 199;,
       3;193, 194, 200;,
       3;194, 201, 200;,
       3;194, 195, 201;,
       3;195, 202, 201;,
       3;195, 196, 202;,
       3;196, 203, 202;,
       3;196, 197, 203;,
       3;197, 204, 203;,
       3;197, 198, 204;,
       3;198, 205, 204;,
       3;198, 34, 205;,
       3;34, 43, 205;,
       3;35, 192, 44;,
       3;192, 199, 44;,
       3;199, 200, 206;,
       3;200, 207, 206;,
       3;200, 201, 207;,
       3;201, 208, 207;,
       3;201, 202, 208;,
       3;202, 209, 208;,
       3;202, 203, 209;,
       3;203, 210, 209;,
       3;203, 204, 210;,
       3;204, 211, 210;,
       3;204, 205, 211;,
       3;205, 212, 211;,
       3;205, 43, 212;,
       3;43, 52, 212;,
       3;44, 199, 53;,
       3;199, 206, 53;,
       3;206, 207, 213;,
       3;207, 214, 213;,
       3;207, 208, 214;,
       3;208, 215, 214;,
       3;208, 209, 215;,
       3;209, 216, 215;,
       3;209, 210, 216;,
       3;210, 217, 216;,
       3;210, 211, 217;,
       3;211, 218, 217;,
       3;211, 212, 218;,
       3;212, 219, 218;,
       3;212, 52, 219;,
       3;52, 61, 219;,
       3;53, 206, 62;,
       3;206, 213, 62;,
       3;213, 214, 220;,
       3;214, 221, 220;,
       3;214, 215, 221;,
       3;215, 222, 221;,
       3;215, 216, 222;,
       3;216, 223, 222;,
       3;216, 217, 223;,
       3;217, 224, 223;,
       3;217, 218, 224;,
       3;218, 225, 224;,
       3;218, 219, 225;,
       3;219, 226, 225;,
       3;219, 61, 226;,
       3;61, 70, 226;,
       3;62, 213, 71;,
       3;213, 220, 71;,
       3;220, 221, 227;,
       3;221, 228, 227;,
       3;221, 222, 228;,
       3;222, 229, 228;,
       3;222, 223, 229;,
       3;223, 230, 229;,
       3;223, 224, 230;,
       3;224, 231, 230;,
       3;224, 225, 231;,
       3;225, 232, 231;,
       3;225, 226, 232;,
       3;226, 233, 232;,
       3;226, 70, 233;,
       3;70, 79, 233;,
       3;71, 220, 80;,
       3;220, 227, 80;,
       3;227, 228, 234;,
       3;228, 235, 234;,
       3;228, 229, 235;,
       3;229, 236, 235;,
       3;229, 230, 236;,
       3;230, 237, 236;,
       3;230, 231, 237;,
       3;231, 238, 237;,
       3;231, 232, 238;,
       3;232, 239, 238;,
       3;232, 233, 239;,
       3;233, 240, 239;,
       3;233, 79, 240;,
       3;79, 88, 240;,
       3;80, 227, 89;,
       3;227, 234, 89;,
       3;234, 235, 241;,
       3;235, 242, 241;,
       3;235, 236, 242;,
       3;236, 243, 242;,
       3;236, 237, 243;,
       3;237, 244, 243;,
       3;237, 238, 244;,
       3;238, 245, 244;,
       3;238, 239, 245;,
       3;239, 246, 245;,
       3;239, 240, 246;,
       3;240, 247, 246;,
       3;240, 88, 247;,
       3;88, 97, 247;,
       3;89, 234, 98;,
       3;234, 241, 98;,
       3;241, 242, 248;,
       3;242, 249, 248;,
       3;242, 243, 249;,
       3;243, 250, 249;,
       3;243, 244, 250;,
       3;244, 251, 250;,
       3;244, 245, 251;,
       3;245, 252, 251;,
       3;245, 246, 252;,
       3;246, 253, 252;,
       3;246, 247, 253;,
       3;247, 254, 253;,
       3;247, 97, 254;,
       3;97, 106, 254;,
       3;98, 241, 107;,
       3;241, 248, 107;,
       3;109, 255, 111;,
       3;255, 256, 111;,
       3;255, 257, 256;,
       3;257, 258, 256;,
       3;257, 259, 258;,
       3;259, 260, 258;,
       3;259, 261, 260;,
       3;261, 262, 260;,
       3;261, 263, 262;,
       3;263, 264, 262;,
       3;263, 265, 264;,
       3;265, 266, 264;,
       3;265, 267, 266;,
       3;267, 268, 266;,
       3;267, 124, 268;,
       3;124, 125, 268;,
       3;127, 269, 129;,
       3;269, 270, 129;,
       3;269, 271, 270;,
       3;271, 272, 270;,
       3;271, 273, 272;,
       3;273, 274, 272;,
       3;273, 275, 274;,
       3;275, 276, 274;,
       3;275, 277, 276;,
       3;277, 278, 276;,
       3;277, 279, 278;,
       3;279, 280, 278;,
       3;279, 281, 280;,
       3;281, 282, 280;,
       3;281, 142, 282;,
       3;142, 143, 282;,
       3;129, 270, 145;,
       3;270, 283, 145;,
       3;270, 272, 283;,
       3;272, 284, 283;,
       3;272, 274, 284;,
       3;274, 285, 284;,
       3;274, 276, 285;,
       3;276, 286, 285;,
       3;276, 278, 286;,
       3;278, 287, 286;,
       3;278, 280, 287;,
       3;280, 288, 287;,
       3;280, 282, 288;,
       3;282, 289, 288;,
       3;282, 143, 289;,
       3;143, 152, 289;,
       3;154, 153, 290;,
       3;153, 291, 290;,
       3;290, 291, 292;,
       3;291, 293, 292;,
       3;292, 293, 294;,
       3;293, 295, 294;,
       3;294, 295, 296;,
       3;297, 162, 298;,
       3;162, 164, 298;,
       3;298, 164, 299;,
       3;164, 300, 299;,
       3;299, 300, 301;,
       3;300, 302, 301;,
       3;301, 302, 303;;
      }

      MeshTextureCoords {
       304;
       0.266745; 0.611333;,
       0.333813; 0.611333;,
       0.253334; 0.670656;,
       0.319296; 0.670656;,
       0.313361; 0.611333;,
       0.303097; 0.670656;,
       0.383129; 0.611333;,
       0.377573; 0.670656;,
       0.465424; 0.611333;,
       0.465424; 0.670656;,
       0.547720; 0.611333;,
       0.553275; 0.670656;,
       0.617486; 0.611333;,
       0.627750; 0.670656;,
       0.664102; 0.611333;,
       0.677513; 0.670656;,
       0.571079; 0.611333;,
       0.585595; 0.670656;,
       0.606775; 0.518014;,
       0.650108; 0.518014;,
       0.541922; 0.518014;,
       0.465424; 0.518014;,
       0.388925; 0.518014;,
       0.324073; 0.518014;,
       0.280740; 0.518014;,
       0.348960; 0.518014;,
       0.555930; 0.518014;,
       0.590849; 0.511646;,
       0.629299; 0.511646;,
       0.533303; 0.511646;,
       0.465424; 0.511646;,
       0.397544; 0.511646;,
       0.339999; 0.511646;,
       0.301549; 0.511646;,
       0.371483; 0.511646;,
       0.533408; 0.511646;,
       0.584334; 0.469284;,
       0.620787; 0.469284;,
       0.529777; 0.469284;,
       0.465424; 0.469284;,
       0.401071; 0.469284;,
       0.346514; 0.469284;,
       0.310061; 0.469284;,
       0.380697; 0.469284;,
       0.524193; 0.469284;,
       0.590849; 0.455506;,
       0.629299; 0.455506;,
       0.533303; 0.455506;,
       0.465424; 0.455506;,
       0.397544; 0.455506;,
       0.339999; 0.455506;,
       0.301549; 0.455506;,
       0.371483; 0.455506;,
       0.533408; 0.455506;,
       0.618357; 0.420511;,
       0.665241; 0.420511;,
       0.548191; 0.420511;,
       0.465424; 0.420511;,
       0.382657; 0.420511;,
       0.312490; 0.420511;,
       0.265607; 0.420511;,
       0.332579; 0.420511;,
       0.572311; 0.420511;,
       0.634082; 0.386685;,
       0.685786; 0.386685;,
       0.556701; 0.386685;,
       0.465424; 0.386685;,
       0.374147; 0.386685;,
       0.296765; 0.386685;,
       0.245061; 0.386685;,
       0.310341; 0.386685;,
       0.594549; 0.386685;,
       0.664753; 0.272112;,
       0.725860; 0.272112;,
       0.573300; 0.272112;,
       0.465424; 0.272112;,
       0.357548; 0.272112;,
       0.266094; 0.272112;,
       0.204988; 0.272112;,
       0.266966; 0.272112;,
       0.637924; 0.272112;,
       0.661945; 0.134065;,
       0.722191; 0.134065;,
       0.571780; 0.134065;,
       0.465424; 0.134065;,
       0.359067; 0.134065;,
       0.268902; 0.134065;,
       0.208657; 0.134065;,
       0.270937; 0.134065;,
       0.633953; 0.134065;,
       0.662313; 0.096498;,
       0.722672; 0.096498;,
       0.571979; 0.096498;,
       0.465424; 0.096498;,
       0.358868; 0.096498;,
       0.268534; 0.096498;,
       0.208176; 0.096498;,
       0.270417; 0.096498;,
       0.634473; 0.096498;,
       0.664345; 0.067457;,
       0.725326; 0.067457;,
       0.573079; 0.067457;,
       0.465424; 0.067457;,
       0.357768; 0.067457;,
       0.266503; 0.067457;,
       0.205521; 0.067457;,
       0.267545; 0.067457;,
       0.746741; 0.067457;,
       0.316627; 0.331775;,
       0.306200; 0.279356;,
       0.304593; 0.336757;,
       0.293175; 0.279356;,
       0.346319; 0.376211;,
       0.337109; 0.385420;,
       0.390757; 0.405904;,
       0.385772; 0.417938;,
       0.443174; 0.416331;,
       0.443174; 0.429356;,
       0.495592; 0.405904;,
       0.500576; 0.417938;,
       0.540029; 0.376211;,
       0.549240; 0.385420;,
       0.569721; 0.331775;,
       0.581755; 0.336757;,
       0.580148; 0.279356;,
       0.593173; 0.279356;,
       0.702757; 0.067457;,
       0.722312; 0.067457;,
       0.687075; 0.122058;,
       0.705338; 0.122058;,
       0.647071; 0.067457;,
       0.635069; 0.122058;,
       0.563731; 0.067457;,
       0.557234; 0.122058;,
       0.465424; 0.067457;,
       0.465424; 0.122058;,
       0.367117; 0.067457;,
       0.373613; 0.122058;,
       0.283776; 0.067457;,
       0.295779; 0.122058;,
       0.228090; 0.067457;,
       0.386541; 0.122058;,
       0.208536; 0.067457;,
       0.496216; 0.122058;,
       0.644031; 0.322181;,
       0.658745; 0.322181;,
       0.602123; 0.322181;,
       0.539405; 0.322181;,
       0.465424; 0.322181;,
       0.391443; 0.322181;,
       0.328725; 0.322181;,
       0.429588; 0.322181;,
       0.542807; 0.322181;,
       0.629984; 0.251671;,
       0.326820; 0.251671;,
       0.618447; 0.309675;,
       0.338359; 0.309675;,
       0.585587; 0.358856;,
       0.371218; 0.358856;,
       0.536411; 0.391716;,
       0.420395; 0.391716;,
       0.478403; 0.403249;,
       0.658402; 0.251671;,
       0.644700; 0.320556;,
       0.298403; 0.251671;,
       0.605682; 0.378949;,
       0.312105; 0.320556;,
       0.547286; 0.417970;,
       0.351124; 0.378949;,
       0.478403; 0.431670;,
       0.409520; 0.417970;,
       0.266745; 0.611333;,
       0.253334; 0.670656;,
       0.313361; 0.611333;,
       0.303097; 0.670656;,
       0.383129; 0.611333;,
       0.377573; 0.670656;,
       0.465424; 0.611333;,
       0.465424; 0.670656;,
       0.547720; 0.611333;,
       0.553275; 0.670656;,
       0.617486; 0.611333;,
       0.627750; 0.670656;,
       0.664102; 0.611333;,
       0.677513; 0.670656;,
       0.650108; 0.518014;,
       0.606775; 0.518014;,
       0.541922; 0.518014;,
       0.465424; 0.518014;,
       0.388925; 0.518014;,
       0.324073; 0.518014;,
       0.280740; 0.518014;,
       0.629299; 0.511646;,
       0.590849; 0.511646;,
       0.533303; 0.511646;,
       0.465424; 0.511646;,
       0.397544; 0.511646;,
       0.339999; 0.511646;,
       0.301549; 0.511646;,
       0.620787; 0.469284;,
       0.584334; 0.469284;,
       0.529777; 0.469284;,
       0.465424; 0.469284;,
       0.401071; 0.469284;,
       0.346514; 0.469284;,
       0.310061; 0.469284;,
       0.629299; 0.455506;,
       0.590849; 0.455506;,
       0.533303; 0.455506;,
       0.465424; 0.455506;,
       0.397544; 0.455506;,
       0.339999; 0.455506;,
       0.301549; 0.455506;,
       0.665241; 0.420511;,
       0.618357; 0.420511;,
       0.548191; 0.420511;,
       0.465424; 0.420511;,
       0.382657; 0.420511;,
       0.312490; 0.420511;,
       0.265607; 0.420511;,
       0.685786; 0.386685;,
       0.634082; 0.386685;,
       0.556701; 0.386685;,
       0.465424; 0.386685;,
       0.374147; 0.386685;,
       0.296765; 0.386685;,
       0.245061; 0.386685;,
       0.725860; 0.272112;,
       0.664753; 0.272112;,
       0.573300; 0.272112;,
       0.465424; 0.272112;,
       0.357548; 0.272112;,
       0.266094; 0.272112;,
       0.204988; 0.272112;,
       0.722191; 0.134065;,
       0.661945; 0.134065;,
       0.571780; 0.134065;,
       0.465424; 0.134065;,
       0.359067; 0.134065;,
       0.268902; 0.134065;,
       0.208657; 0.134065;,
       0.722672; 0.096498;,
       0.662313; 0.096498;,
       0.571979; 0.096498;,
       0.465424; 0.096498;,
       0.358868; 0.096498;,
       0.268534; 0.096498;,
       0.208176; 0.096498;,
       0.725326; 0.067457;,
       0.664345; 0.067457;,
       0.573079; 0.067457;,
       0.465424; 0.067457;,
       0.357768; 0.067457;,
       0.266503; 0.067457;,
       0.205521; 0.067457;,
       0.316627; 0.226938;,
       0.304593; 0.221951;,
       0.346319; 0.182501;,
       0.337109; 0.173288;,
       0.390757; 0.152808;,
       0.385772; 0.140774;,
       0.443174; 0.142381;,
       0.443174; 0.129356;,
       0.495592; 0.152808;,
       0.500576; 0.140774;,
       0.540029; 0.182501;,
       0.549240; 0.173288;,
       0.569721; 0.226938;,
       0.581755; 0.221951;,
       0.702757; 0.067457;,
       0.687075; 0.122058;,
       0.647071; 0.067457;,
       0.635069; 0.122058;,
       0.563731; 0.067457;,
       0.557234; 0.122058;,
       0.465424; 0.067457;,
       0.465424; 0.122058;,
       0.367117; 0.067457;,
       0.373613; 0.122058;,
       0.283776; 0.067457;,
       0.295779; 0.122058;,
       0.228090; 0.067457;,
       0.243772; 0.122058;,
       0.644031; 0.322181;,
       0.602123; 0.322181;,
       0.539405; 0.322181;,
       0.465424; 0.322181;,
       0.391443; 0.322181;,
       0.328725; 0.322181;,
       0.286818; 0.322181;,
       0.338359; 0.193659;,
       0.618447; 0.193659;,
       0.371218; 0.144486;,
       0.585587; 0.144486;,
       0.420395; 0.111626;,
       0.536411; 0.111626;,
       0.478403; 0.100085;,
       0.644700; 0.182785;,
       0.605682; 0.124393;,
       0.547286; 0.085371;,
       0.312105; 0.182785;,
       0.478403; 0.071672;,
       0.351124; 0.124393;,
       0.409520; 0.085371;;
      }

      MeshVertexColors {
       304;
       0; 1.000000; 1.000000; 1.000000; 1.000000;,
       1; 1.000000; 1.000000; 1.000000; 1.000000;,
       2; 1.000000; 1.000000; 1.000000; 1.000000;,
       3; 1.000000; 1.000000; 1.000000; 1.000000;,
       4; 1.000000; 1.000000; 1.000000; 1.000000;,
       5; 1.000000; 1.000000; 1.000000; 1.000000;,
       6; 1.000000; 1.000000; 1.000000; 1.000000;,
       7; 1.000000; 1.000000; 1.000000; 1.000000;,
       8; 1.000000; 1.000000; 1.000000; 1.000000;,
       9; 1.000000; 1.000000; 1.000000; 1.000000;,
       10; 1.000000; 1.000000; 1.000000; 1.000000;,
       11; 1.000000; 1.000000; 1.000000; 1.000000;,
       12; 1.000000; 1.000000; 1.000000; 1.000000;,
       13; 1.000000; 1.000000; 1.000000; 1.000000;,
       14; 1.000000; 1.000000; 1.000000; 1.000000;,
       15; 1.000000; 1.000000; 1.000000; 1.000000;,
       16; 1.000000; 1.000000; 1.000000; 1.000000;,
       17; 1.000000; 1.000000; 1.000000; 1.000000;,
       18; 1.000000; 1.000000; 1.000000; 1.000000;,
       19; 1.000000; 1.000000; 1.000000; 1.000000;,
       20; 1.000000; 1.000000; 1.000000; 1.000000;,
       21; 1.000000; 1.000000; 1.000000; 1.000000;,
       22; 1.000000; 1.000000; 1.000000; 1.000000;,
       23; 1.000000; 1.000000; 1.000000; 1.000000;,
       24; 1.000000; 1.000000; 1.000000; 1.000000;,
       25; 1.000000; 1.000000; 1.000000; 1.000000;,
       26; 1.000000; 1.000000; 1.000000; 1.000000;,
       27; 1.000000; 1.000000; 1.000000; 1.000000;,
       28; 1.000000; 1.000000; 1.000000; 1.000000;,
       29; 1.000000; 1.000000; 1.000000; 1.000000;,
       30; 1.000000; 1.000000; 1.000000; 1.000000;,
       31; 1.000000; 1.000000; 1.000000; 1.000000;,
       32; 1.000000; 1.000000; 1.000000; 1.000000;,
       33; 1.000000; 1.000000; 1.000000; 1.000000;,
       34; 1.000000; 1.000000; 1.000000; 1.000000;,
       35; 1.000000; 1.000000; 1.000000; 1.000000;,
       36; 1.000000; 1.000000; 1.000000; 1.000000;,
       37; 1.000000; 1.000000; 1.000000; 1.000000;,
       38; 1.000000; 1.000000; 1.000000; 1.000000;,
       39; 1.000000; 1.000000; 1.000000; 1.000000;,
       40; 1.000000; 1.000000; 1.000000; 1.000000;,
       41; 1.000000; 1.000000; 1.000000; 1.000000;,
       42; 1.000000; 1.000000; 1.000000; 1.000000;,
       43; 1.000000; 1.000000; 1.000000; 1.000000;,
       44; 1.000000; 1.000000; 1.000000; 1.000000;,
       45; 1.000000; 1.000000; 1.000000; 1.000000;,
       46; 1.000000; 1.000000; 1.000000; 1.000000;,
       47; 1.000000; 1.000000; 1.000000; 1.000000;,
       48; 1.000000; 1.000000; 1.000000; 1.000000;,
       49; 1.000000; 1.000000; 1.000000; 1.000000;,
       50; 1.000000; 1.000000; 1.000000; 1.000000;,
       51; 1.000000; 1.000000; 1.000000; 1.000000;,
       52; 1.000000; 1.000000; 1.000000; 1.000000;,
       53; 1.000000; 1.000000; 1.000000; 1.000000;,
       54; 1.000000; 1.000000; 1.000000; 1.000000;,
       55; 1.000000; 1.000000; 1.000000; 1.000000;,
       56; 1.000000; 1.000000; 1.000000; 1.000000;,
       57; 1.000000; 1.000000; 1.000000; 1.000000;,
       58; 1.000000; 1.000000; 1.000000; 1.000000;,
       59; 1.000000; 1.000000; 1.000000; 1.000000;,
       60; 1.000000; 1.000000; 1.000000; 1.000000;,
       61; 1.000000; 1.000000; 1.000000; 1.000000;,
       62; 1.000000; 1.000000; 1.000000; 1.000000;,
       63; 1.000000; 1.000000; 1.000000; 1.000000;,
       64; 1.000000; 1.000000; 1.000000; 1.000000;,
       65; 1.000000; 1.000000; 1.000000; 1.000000;,
       66; 1.000000; 1.000000; 1.000000; 1.000000;,
       67; 1.000000; 1.000000; 1.000000; 1.000000;,
       68; 1.000000; 1.000000; 1.000000; 1.000000;,
       69; 1.000000; 1.000000; 1.000000; 1.000000;,
       70; 1.000000; 1.000000; 1.000000; 1.000000;,
       71; 1.000000; 1.000000; 1.000000; 1.000000;,
       72; 1.000000; 1.000000; 1.000000; 1.000000;,
       73; 1.000000; 1.000000; 1.000000; 1.000000;,
       74; 1.000000; 1.000000; 1.000000; 1.000000;,
       75; 1.000000; 1.000000; 1.000000; 1.000000;,
       76; 1.000000; 1.000000; 1.000000; 1.000000;,
       77; 1.000000; 1.000000; 1.000000; 1.000000;,
       78; 1.000000; 1.000000; 1.000000; 1.000000;,
       79; 1.000000; 1.000000; 1.000000; 1.000000;,
       80; 1.000000; 1.000000; 1.000000; 1.000000;,
       81; 1.000000; 1.000000; 1.000000; 1.000000;,
       82; 1.000000; 1.000000; 1.000000; 1.000000;,
       83; 1.000000; 1.000000; 1.000000; 1.000000;,
       84; 1.000000; 1.000000; 1.000000; 1.000000;,
       85; 1.000000; 1.000000; 1.000000; 1.000000;,
       86; 1.000000; 1.000000; 1.000000; 1.000000;,
       87; 1.000000; 1.000000; 1.000000; 1.000000;,
       88; 1.000000; 1.000000; 1.000000; 1.000000;,
       89; 1.000000; 1.000000; 1.000000; 1.000000;,
       90; 1.000000; 1.000000; 1.000000; 1.000000;,
       91; 1.000000; 1.000000; 1.000000; 1.000000;,
       92; 1.000000; 1.000000; 1.000000; 1.000000;,
       93; 1.000000; 1.000000; 1.000000; 1.000000;,
       94; 1.000000; 1.000000; 1.000000; 1.000000;,
       95; 1.000000; 1.000000; 1.000000; 1.000000;,
       96; 1.000000; 1.000000; 1.000000; 1.000000;,
       97; 1.000000; 1.000000; 1.000000; 1.000000;,
       98; 1.000000; 1.000000; 1.000000; 1.000000;,
       99; 1.000000; 1.000000; 1.000000; 1.000000;,
       100; 1.000000; 1.000000; 1.000000; 1.000000;,
       101; 1.000000; 1.000000; 1.000000; 1.000000;,
       102; 1.000000; 1.000000; 1.000000; 1.000000;,
       103; 1.000000; 1.000000; 1.000000; 1.000000;,
       104; 1.000000; 1.000000; 1.000000; 1.000000;,
       105; 1.000000; 1.000000; 1.000000; 1.000000;,
       106; 1.000000; 1.000000; 1.000000; 1.000000;,
       107; 1.000000; 1.000000; 1.000000; 1.000000;,
       108; 1.000000; 1.000000; 1.000000; 1.000000;,
       109; 1.000000; 1.000000; 1.000000; 1.000000;,
       110; 1.000000; 1.000000; 1.000000; 1.000000;,
       111; 1.000000; 1.000000; 1.000000; 1.000000;,
       112; 1.000000; 1.000000; 1.000000; 1.000000;,
       113; 1.000000; 1.000000; 1.000000; 1.000000;,
       114; 1.000000; 1.000000; 1.000000; 1.000000;,
       115; 1.000000; 1.000000; 1.000000; 1.000000;,
       116; 1.000000; 1.000000; 1.000000; 1.000000;,
       117; 1.000000; 1.000000; 1.000000; 1.000000;,
       118; 1.000000; 1.000000; 1.000000; 1.000000;,
       119; 1.000000; 1.000000; 1.000000; 1.000000;,
       120; 1.000000; 1.000000; 1.000000; 1.000000;,
       121; 1.000000; 1.000000; 1.000000; 1.000000;,
       122; 1.000000; 1.000000; 1.000000; 1.000000;,
       123; 1.000000; 1.000000; 1.000000; 1.000000;,
       124; 1.000000; 1.000000; 1.000000; 1.000000;,
       125; 1.000000; 1.000000; 1.000000; 1.000000;,
       126; 1.000000; 1.000000; 1.000000; 1.000000;,
       127; 1.000000; 1.000000; 1.000000; 1.000000;,
       128; 1.000000; 1.000000; 1.000000; 1.000000;,
       129; 1.000000; 1.000000; 1.000000; 1.000000;,
       130; 1.000000; 1.000000; 1.000000; 1.000000;,
       131; 1.000000; 1.000000; 1.000000; 1.000000;,
       132; 1.000000; 1.000000; 1.000000; 1.000000;,
       133; 1.000000; 1.000000; 1.000000; 1.000000;,
       134; 1.000000; 1.000000; 1.000000; 1.000000;,
       135; 1.000000; 1.000000; 1.000000; 1.000000;,
       136; 1.000000; 1.000000; 1.000000; 1.000000;,
       137; 1.000000; 1.000000; 1.000000; 1.000000;,
       138; 1.000000; 1.000000; 1.000000; 1.000000;,
       139; 1.000000; 1.000000; 1.000000; 1.000000;,
       140; 1.000000; 1.000000; 1.000000; 1.000000;,
       141; 1.000000; 1.000000; 1.000000; 1.000000;,
       142; 1.000000; 1.000000; 1.000000; 1.000000;,
       143; 1.000000; 1.000000; 1.000000; 1.000000;,
       144; 1.000000; 1.000000; 1.000000; 1.000000;,
       145; 1.000000; 1.000000; 1.000000; 1.000000;,
       146; 1.000000; 1.000000; 1.000000; 1.000000;,
       147; 1.000000; 1.000000; 1.000000; 1.000000;,
       148; 1.000000; 1.000000; 1.000000; 1.000000;,
       149; 1.000000; 1.000000; 1.000000; 1.000000;,
       150; 1.000000; 1.000000; 1.000000; 1.000000;,
       151; 1.000000; 1.000000; 1.000000; 1.000000;,
       152; 1.000000; 1.000000; 1.000000; 1.000000;,
       153; 1.000000; 1.000000; 1.000000; 1.000000;,
       154; 1.000000; 1.000000; 1.000000; 1.000000;,
       155; 1.000000; 1.000000; 1.000000; 1.000000;,
       156; 1.000000; 1.000000; 1.000000; 1.000000;,
       157; 1.000000; 1.000000; 1.000000; 1.000000;,
       158; 1.000000; 1.000000; 1.000000; 1.000000;,
       159; 1.000000; 1.000000; 1.000000; 1.000000;,
       160; 1.000000; 1.000000; 1.000000; 1.000000;,
       161; 1.000000; 1.000000; 1.000000; 1.000000;,
       162; 1.000000; 1.000000; 1.000000; 1.000000;,
       163; 1.000000; 1.000000; 1.000000; 1.000000;,
       164; 1.000000; 1.000000; 1.000000; 1.000000;,
       165; 1.000000; 1.000000; 1.000000; 1.000000;,
       166; 1.000000; 1.000000; 1.000000; 1.000000;,
       167; 1.000000; 1.000000; 1.000000; 1.000000;,
       168; 1.000000; 1.000000; 1.000000; 1.000000;,
       169; 1.000000; 1.000000; 1.000000; 1.000000;,
       170; 1.000000; 1.000000; 1.000000; 1.000000;,
       171; 1.000000; 1.000000; 1.000000; 1.000000;,
       172; 1.000000; 1.000000; 1.000000; 1.000000;,
       173; 1.000000; 1.000000; 1.000000; 1.000000;,
       174; 1.000000; 1.000000; 1.000000; 1.000000;,
       175; 1.000000; 1.000000; 1.000000; 1.000000;,
       176; 1.000000; 1.000000; 1.000000; 1.000000;,
       177; 1.000000; 1.000000; 1.000000; 1.000000;,
       178; 1.000000; 1.000000; 1.000000; 1.000000;,
       179; 1.000000; 1.000000; 1.000000; 1.000000;,
       180; 1.000000; 1.000000; 1.000000; 1.000000;,
       181; 1.000000; 1.000000; 1.000000; 1.000000;,
       182; 1.000000; 1.000000; 1.000000; 1.000000;,
       183; 1.000000; 1.000000; 1.000000; 1.000000;,
       184; 1.000000; 1.000000; 1.000000; 1.000000;,
       185; 1.000000; 1.000000; 1.000000; 1.000000;,
       186; 1.000000; 1.000000; 1.000000; 1.000000;,
       187; 1.000000; 1.000000; 1.000000; 1.000000;,
       188; 1.000000; 1.000000; 1.000000; 1.000000;,
       189; 1.000000; 1.000000; 1.000000; 1.000000;,
       190; 1.000000; 1.000000; 1.000000; 1.000000;,
       191; 1.000000; 1.000000; 1.000000; 1.000000;,
       192; 1.000000; 1.000000; 1.000000; 1.000000;,
       193; 1.000000; 1.000000; 1.000000; 1.000000;,
       194; 1.000000; 1.000000; 1.000000; 1.000000;,
       195; 1.000000; 1.000000; 1.000000; 1.000000;,
       196; 1.000000; 1.000000; 1.000000; 1.000000;,
       197; 1.000000; 1.000000; 1.000000; 1.000000;,
       198; 1.000000; 1.000000; 1.000000; 1.000000;,
       199; 1.000000; 1.000000; 1.000000; 1.000000;,
       200; 1.000000; 1.000000; 1.000000; 1.000000;,
       201; 1.000000; 1.000000; 1.000000; 1.000000;,
       202; 1.000000; 1.000000; 1.000000; 1.000000;,
       203; 1.000000; 1.000000; 1.000000; 1.000000;,
       204; 1.000000; 1.000000; 1.000000; 1.000000;,
       205; 1.000000; 1.000000; 1.000000; 1.000000;,
       206; 1.000000; 1.000000; 1.000000; 1.000000;,
       207; 1.000000; 1.000000; 1.000000; 1.000000;,
       208; 1.000000; 1.000000; 1.000000; 1.000000;,
       209; 1.000000; 1.000000; 1.000000; 1.000000;,
       210; 1.000000; 1.000000; 1.000000; 1.000000;,
       211; 1.000000; 1.000000; 1.000000; 1.000000;,
       212; 1.000000; 1.000000; 1.000000; 1.000000;,
       213; 1.000000; 1.000000; 1.000000; 1.000000;,
       214; 1.000000; 1.000000; 1.000000; 1.000000;,
       215; 1.000000; 1.000000; 1.000000; 1.000000;,
       216; 1.000000; 1.000000; 1.000000; 1.000000;,
       217; 1.000000; 1.000000; 1.000000; 1.000000;,
       218; 1.000000; 1.000000; 1.000000; 1.000000;,
       219; 1.000000; 1.000000; 1.000000; 1.000000;,
       220; 1.000000; 1.000000; 1.000000; 1.000000;,
       221; 1.000000; 1.000000; 1.000000; 1.000000;,
       222; 1.000000; 1.000000; 1.000000; 1.000000;,
       223; 1.000000; 1.000000; 1.000000; 1.000000;,
       224; 1.000000; 1.000000; 1.000000; 1.000000;,
       225; 1.000000; 1.000000; 1.000000; 1.000000;,
       226; 1.000000; 1.000000; 1.000000; 1.000000;,
       227; 1.000000; 1.000000; 1.000000; 1.000000;,
       228; 1.000000; 1.000000; 1.000000; 1.000000;,
       229; 1.000000; 1.000000; 1.000000; 1.000000;,
       230; 1.000000; 1.000000; 1.000000; 1.000000;,
       231; 1.000000; 1.000000; 1.000000; 1.000000;,
       232; 1.000000; 1.000000; 1.000000; 1.000000;,
       233; 1.000000; 1.000000; 1.000000; 1.000000;,
       234; 1.000000; 1.000000; 1.000000; 1.000000;,
       235; 1.000000; 1.000000; 1.000000; 1.000000;,
       236; 1.000000; 1.000000; 1.000000; 1.000000;,
       237; 1.000000; 1.000000; 1.000000; 1.000000;,
       238; 1.000000; 1.000000; 1.000000; 1.000000;,
       239; 1.000000; 1.000000; 1.000000; 1.000000;,
       240; 1.000000; 1.000000; 1.000000; 1.000000;,
       241; 1.000000; 1.000000; 1.000000; 1.000000;,
       242; 1.000000; 1.000000; 1.000000; 1.000000;,
       243; 1.000000; 1.000000; 1.000000; 1.000000;,
       244; 1.000000; 1.000000; 1.000000; 1.000000;,
       245; 1.000000; 1.000000; 1.000000; 1.000000;,
       246; 1.000000; 1.000000; 1.000000; 1.000000;,
       247; 1.000000; 1.000000; 1.000000; 1.000000;,
       248; 1.000000; 1.000000; 1.000000; 1.000000;,
       249; 1.000000; 1.000000; 1.000000; 1.000000;,
       250; 1.000000; 1.000000; 1.000000; 1.000000;,
       251; 1.000000; 1.000000; 1.000000; 1.000000;,
       252; 1.000000; 1.000000; 1.000000; 1.000000;,
       253; 1.000000; 1.000000; 1.000000; 1.000000;,
       254; 1.000000; 1.000000; 1.000000; 1.000000;,
       255; 1.000000; 1.000000; 1.000000; 1.000000;,
       256; 1.000000; 1.000000; 1.000000; 1.000000;,
       257; 1.000000; 1.000000; 1.000000; 1.000000;,
       258; 1.000000; 1.000000; 1.000000; 1.000000;,
       259; 1.000000; 1.000000; 1.000000; 1.000000;,
       260; 1.000000; 1.000000; 1.000000; 1.000000;,
       261; 1.000000; 1.000000; 1.000000; 1.000000;,
       262; 1.000000; 1.000000; 1.000000; 1.000000;,
       263; 1.000000; 1.000000; 1.000000; 1.000000;,
       264; 1.000000; 1.000000; 1.000000; 1.000000;,
       265; 1.000000; 1.000000; 1.000000; 1.000000;,
       266; 1.000000; 1.000000; 1.000000; 1.000000;,
       267; 1.000000; 1.000000; 1.000000; 1.000000;,
       268; 1.000000; 1.000000; 1.000000; 1.000000;,
       269; 1.000000; 1.000000; 1.000000; 1.000000;,
       270; 1.000000; 1.000000; 1.000000; 1.000000;,
       271; 1.000000; 1.000000; 1.000000; 1.000000;,
       272; 1.000000; 1.000000; 1.000000; 1.000000;,
       273; 1.000000; 1.000000; 1.000000; 1.000000;,
       274; 1.000000; 1.000000; 1.000000; 1.000000;,
       275; 1.000000; 1.000000; 1.000000; 1.000000;,
       276; 1.000000; 1.000000; 1.000000; 1.000000;,
       277; 1.000000; 1.000000; 1.000000; 1.000000;,
       278; 1.000000; 1.000000; 1.000000; 1.000000;,
       279; 1.000000; 1.000000; 1.000000; 1.000000;,
       280; 1.000000; 1.000000; 1.000000; 1.000000;,
       281; 1.000000; 1.000000; 1.000000; 1.000000;,
       282; 1.000000; 1.000000; 1.000000; 1.000000;,
       283; 1.000000; 1.000000; 1.000000; 1.000000;,
       284; 1.000000; 1.000000; 1.000000; 1.000000;,
       285; 1.000000; 1.000000; 1.000000; 1.000000;,
       286; 1.000000; 1.000000; 1.000000; 1.000000;,
       287; 1.000000; 1.000000; 1.000000; 1.000000;,
       288; 1.000000; 1.000000; 1.000000; 1.000000;,
       289; 1.000000; 1.000000; 1.000000; 1.000000;,
       290; 1.000000; 1.000000; 1.000000; 1.000000;,
       291; 1.000000; 1.000000; 1.000000; 1.000000;,
       292; 1.000000; 1.000000; 1.000000; 1.000000;,
       293; 1.000000; 1.000000; 1.000000; 1.000000;,
       294; 1.000000; 1.000000; 1.000000; 1.000000;,
       295; 1.000000; 1.000000; 1.000000; 1.000000;,
       296; 1.000000; 1.000000; 1.000000; 1.000000;,
       297; 1.000000; 1.000000; 1.000000; 1.000000;,
       298; 1.000000; 1.000000; 1.000000; 1.000000;,
       299; 1.000000; 1.000000; 1.000000; 1.000000;,
       300; 1.000000; 1.000000; 1.000000; 1.000000;,
       301; 1.000000; 1.000000; 1.000000; 1.000000;,
       302; 1.000000; 1.000000; 1.000000; 1.000000;,
       303; 1.000000; 1.000000; 1.000000; 1.000000;;
      }

      MeshMaterialList {
       1;
       476;
       0,
       0,
       0,
       0,
       0,
       0,
       0,
       0,
       0,
       0,
       0,
       0,
       0,
       0,
       0,
       0,
       0,
       0,
       0,
       0,
       0,
       0,
       0,
       0,
       0,
       0,
       0,
       0,
       0,
       0,
       0,
       0,
       0,
       0,
       0,
       0,
       0,
       0,
       0,
       0,
       0,
       0,
       0,
       0,
       0,
       0,
       0,
       0,
       0,
       0,
       0,
       0,
       0,
       0,
       0,
       0,
       0,
       0,
       0,
       0,
       0,
       0,
       0,
       0,
       0,
       0,
       0,
       0,
       0,
       0,
       0,
       0,
       0,
       0,
       0,
       0,
       0,
       0,
       0,
       0,
       0,
       0,
       0,
       0,
       0,
       0,
       0,
       0,
       0,
       0,
       0,
       0,
       0,
       0,
       0,
       0,
       0,
       0,
       0,
       0,
       0,
       0,
       0,
       0,
       0,
       0,
       0,
       0,
       0,
       0,
       0,
       0,
       0,
       0,
       0,
       0,
       0,
       0,
       0,
       0,
       0,
       0,
       0,
       0,
       0,
       0,
       0,
       0,
       0,
       0,
       0,
       0,
       0,
       0,
       0,
       0,
       0,
       0,
       0,
       0,
       0,
       0,
       0,
       0,
       0,
       0,
       0,
       0,
       0,
       0,
       0,
       0,
       0,
       0,
       0,
       0,
       0,
       0,
       0,
       0,
       0,
       0,
       0,
       0,
       0,
       0,
       0,
       0,
       0,
       0,
       0,
       0,
       0,
       0,
       0,
       0,
       0,
       0,
       0,
       0,
       0,
       0,
       0,
       0,
       0,
       0,
       0,
       0,
       0,
       0,
       0,
       0,
       0,
       0,
       0,
       0,
       0,
       0,
       0,
       0,
       0,
       0,
       0,
       0,
       0,
       0,
       0,
       0,
       0,
       0,
       0,
       0,
       0,
       0,
       0,
       0,
       0,
       0,
       0,
       0,
       0,
       0,
       0,
       0,
       0,
       0,
       0,
       0,
       0,
       0,
       0,
       0,
       0,
       0,
       0,
       0,
       0,
       0,
       0,
       0,
       0,
       0,
       0,
       0,
       0,
       0,
       0,
       0,
       0,
       0,
       0,
       0,
       0,
       0,
       0,
       0,
       0,
       0,
       0,
       0,
       0,
       0,
       0,
       0,
       0,
       0,
       0,
       0,
       0,
       0,
       0,
       0,
       0,
       0,
       0,
       0,
       0,
       0,
       0,
       0,
       0,
       0,
       0,
       0,
       0,
       0,
       0,
       0,
       0,
       0,
       0,
       0,
       0,
       0,
       0,
       0,
       0,
       0,
       0,
       0,
       0,
       0,
       0,
       0,
       0,
       0,
       0,
       0,
       0,
       0,
       0,
       0,
       0,
       0,
       0,
       0,
       0,
       0,
       0,
       0,
       0,
       0,
       0,
       0,
       0,
       0,
       0,
       0,
       0,
       0,
       0,
       0,
       0,
       0,
       0,
       0,
       0,
       0,
       0,
       0,
       0,
       0,
       0,
       0,
       0,
       0,
       0,
       0,
       0,
       0,
       0,
       0,
       0,
       0,
       0,
       0,
       0,
       0,
       0,
       0,
       0,
       0,
       0,
       0,
       0,
       0,
       0,
       0,
       0,
       0,
       0,
       0,
       0,
       0,
       0,
       0,
       0,
       0,
       0,
       0,
       0,
       0,
       0,
       0,
       0,
       0,
       0,
       0,
       0,
       0,
       0,
       0,
       0,
       0,
       0,
       0,
       0,
       0,
       0,
       0,
       0,
       0,
       0,
       0,
       0,
       0,
       0,
       0,
       0,
       0,
       0,
       0,
       0,
       0,
       0,
       0,
       0,
       0,
       0,
       0,
       0,
       0,
       0,
       0,
       0,
       0,
       0,
       0,
       0,
       0,
       0,
       0,
       0,
       0,
       0,
       0,
       0,
       0,
       0,
       0,
       0,
       0,
       0,
       0,
       0,
       0,
       0,
       0,
       0,
       0,
       0,
       0,
       0,
       0,
       0,
       0,
       0,
       0,
       0,
       0,
       0,
       0,
       0,
       0,
       0,
       0,
       0,
       0,
       0,
       0,
       0,
       0,
       0,
       0,
       0,
       0;

       Material bowl {
        0.992157; 0.992157; 0.992157; 1.000000;;
        1.000000;
        0.992157; 0.992157; 0.992157;;
        0.000000; 0.000000; 0.000000;;

        TextureFilename {
         "deep_bowl.dds";
        }
       }

      }

      XSkinMeshHeader {
       1;
       1;
       1;
      }

      SkinWeights {
       "Body";
       304;
       0,
       1,
       2,
       3,
       4,
       5,
       6,
       7,
       8,
       9,
       10,
       11,
       12,
       13,
       14,
       15,
       16,
       17,
       18,
       19,
       20,
       21,
       22,
       23,
       24,
       25,
       26,
       27,
       28,
       29,
       30,
       31,
       32,
       33,
       34,
       35,
       36,
       37,
       38,
       39,
       40,
       41,
       42,
       43,
       44,
       45,
       46,
       47,
       48,
       49,
       50,
       51,
       52,
       53,
       54,
       55,
       56,
       57,
       58,
       59,
       60,
       61,
       62,
       63,
       64,
       65,
       66,
       67,
       68,
       69,
       70,
       71,
       72,
       73,
       74,
       75,
       76,
       77,
       78,
       79,
       80,
       81,
       82,
       83,
       84,
       85,
       86,
       87,
       88,
       89,
       90,
       91,
       92,
       93,
       94,
       95,
       96,
       97,
       98,
       99,
       100,
       101,
       102,
       103,
       104,
       105,
       106,
       107,
       108,
       109,
       110,
       111,
       112,
       113,
       114,
       115,
       116,
       117,
       118,
       119,
       120,
       121,
       122,
       123,
       124,
       125,
       126,
       127,
       128,
       129,
       130,
       131,
       132,
       133,
       134,
       135,
       136,
       137,
       138,
       139,
       140,
       141,
       142,
       143,
       144,
       145,
       146,
       147,
       148,
       149,
       150,
       151,
       152,
       153,
       154,
       155,
       156,
       157,
       158,
       159,
       160,
       161,
       162,
       163,
       164,
       165,
       166,
       167,
       168,
       169,
       170,
       171,
       172,
       173,
       174,
       175,
       176,
       177,
       178,
       179,
       180,
       181,
       182,
       183,
       184,
       185,
       186,
       187,
       188,
       189,
       190,
       191,
       192,
       193,
       194,
       195,
       196,
       197,
       198,
       199,
       200,
       201,
       202,
       203,
       204,
       205,
       206,
       207,
       208,
       209,
       210,
       211,
       212,
       213,
       214,
       215,
       216,
       217,
       218,
       219,
       220,
       221,
       222,
       223,
       224,
       225,
       226,
       227,
       228,
       229,
       230,
       231,
       232,
       233,
       234,
       235,
       236,
       237,
       238,
       239,
       240,
       241,
       242,
       243,
       244,
       245,
       246,
       247,
       248,
       249,
       250,
       251,
       252,
       253,
       254,
       255,
       256,
       257,
       258,
       259,
       260,
       261,
       262,
       263,
       264,
       265,
       266,
       267,
       268,
       269,
       270,
       271,
       272,
       273,
       274,
       275,
       276,
       277,
       278,
       279,
       280,
       281,
       282,
       283,
       284,
       285,
       286,
       287,
       288,
       289,
       290,
       291,
       292,
       293,
       294,
       295,
       296,
       297,
       298,
       299,
       300,
       301,
       302,
       303;
       1.000000,
       1.000000,
       1.000000,
       1.000000,
       1.000000,
       1.000000,
       1.000000,
       1.000000,
       1.000000,
       1.000000,
       1.000000,
       1.000000,
       1.000000,
       1.000000,
       1.000000,
       1.000000,
       1.000000,
       1.000000,
       1.000000,
       1.000000,
       1.000000,
       1.000000,
       1.000000,
       1.000000,
       1.000000,
       1.000000,
       1.000000,
       1.000000,
       1.000000,
       1.000000,
       1.000000,
       1.000000,
       1.000000,
       1.000000,
       1.000000,
       1.000000,
       1.000000,
       1.000000,
       1.000000,
       1.000000,
       1.000000,
       1.000000,
       1.000000,
       1.000000,
       1.000000,
       1.000000,
       1.000000,
       1.000000,
       1.000000,
       1.000000,
       1.000000,
       1.000000,
       1.000000,
       1.000000,
       1.000000,
       1.000000,
       1.000000,
       1.000000,
       1.000000,
       1.000000,
       1.000000,
       1.000000,
       1.000000,
       1.000000,
       1.000000,
       1.000000,
       1.000000,
       1.000000,
       1.000000,
       1.000000,
       1.000000,
       1.000000,
       1.000000,
       1.000000,
       1.000000,
       1.000000,
       1.000000,
       1.000000,
       1.000000,
       1.000000,
       1.000000,
       1.000000,
       1.000000,
       1.000000,
       1.000000,
       1.000000,
       1.000000,
       1.000000,
       1.000000,
       1.000000,
       1.000000,
       1.000000,
       1.000000,
       1.000000,
       1.000000,
       1.000000,
       1.000000,
       1.000000,
       1.000000,
       1.000000,
       1.000000,
       1.000000,
       1.000000,
       1.000000,
       1.000000,
       1.000000,
       1.000000,
       1.000000,
       1.000000,
       1.000000,
       1.000000,
       1.000000,
       1.000000,
       1.000000,
       1.000000,
       1.000000,
       1.000000,
       1.000000,
       1.000000,
       1.000000,
       1.000000,
       1.000000,
       1.000000,
       1.000000,
       1.000000,
       1.000000,
       1.000000,
       1.000000,
       1.000000,
       1.000000,
       1.000000,
       1.000000,
       1.000000,
       1.000000,
       1.000000,
       1.000000,
       1.000000,
       1.000000,
       1.000000,
       1.000000,
       1.000000,
       1.000000,
       1.000000,
       1.000000,
       1.000000,
       1.000000,
       1.000000,
       1.000000,
       1.000000,
       1.000000,
       1.000000,
       1.000000,
       1.000000,
       1.000000,
       1.000000,
       1.000000,
       1.000000,
       1.000000,
       1.000000,
       1.000000,
       1.000000,
       1.000000,
       1.000000,
       1.000000,
       1.000000,
       1.000000,
       1.000000,
       1.000000,
       1.000000,
       1.000000,
       1.000000,
       1.000000,
       1.000000,
       1.000000,
       1.000000,
       1.000000,
       1.000000,
       1.000000,
       1.000000,
       1.000000,
       1.000000,
       1.000000,
       1.000000,
       1.000000,
       1.000000,
       1.000000,
       1.000000,
       1.000000,
       1.000000,
       1.000000,
       1.000000,
       1.000000,
       1.000000,
       1.000000,
       1.000000,
       1.000000,
       1.000000,
       1.000000,
       1.000000,
       1.000000,
       1.000000,
       1.000000,
       1.000000,
       1.000000,
       1.000000,
       1.000000,
       1.000000,
       1.000000,
       1.000000,
       1.000000,
       1.000000,
       1.000000,
       1.000000,
       1.000000,
       1.000000,
       1.000000,
       1.000000,
       1.000000,
       1.000000,
       1.000000,
       1.000000,
       1.000000,
       1.000000,
       1.000000,
       1.000000,
       1.000000,
       1.000000,
       1.000000,
       1.000000,
       1.000000,
       1.000000,
       1.000000,
       1.000000,
       1.000000,
       1.000000,
       1.000000,
       1.000000,
       1.000000,
       1.000000,
       1.000000,
       1.000000,
       1.000000,
       1.000000,
       1.000000,
       1.000000,
       1.000000,
       1.000000,
       1.000000,
       1.000000,
       1.000000,
       1.000000,
       1.000000,
       1.000000,
       1.000000,
       1.000000,
       1.000000,
       1.000000,
       1.000000,
       1.000000,
       1.000000,
       1.000000,
       1.000000,
       1.000000,
       1.000000,
       1.000000,
       1.000000,
       1.000000,
       1.000000,
       1.000000,
       1.000000,
       1.000000,
       1.000000,
       1.000000,
       1.000000,
       1.000000,
       1.000000,
       1.000000,
       1.000000,
       1.000000,
       1.000000,
       1.000000,
       1.000000,
       1.000000,
       1.000000,
       1.000000,
       1.000000,
       1.000000,
       1.000000,
       1.000000,
       1.000000,
       1.000000,
       1.000000,
       1.000000,
       1.000000,
       1.000000,
       1.000000,
       1.000000,
       1.000000,
       1.000000,
       1.000000,
       1.000000,
       1.000000,
       1.000000,
       1.000000;
          1.000000, -0.000000, 0.000000, 0.000000,
          -0.000000, 1.000000, -0.000000, 0.000000,
          0.000000, -0.000000, 1.000000, 0.000000,
          -0.000000, -0.000000, -0.000000, 1.000000;;
      }


     }
   }

// Start of Animation

AnimationSet Untitled {
}
