xof 0303txt 0032

// DirectX 9.0 file
// Creator: Ultimate Unwrap3D Pro v3.19
// Website: http://www.unwrap3d.com
// Time: Thu Dec 10 21:36:53 2009

// Start of Templates

template VertexDuplicationIndices {
 <b8d65549-d7c9-4995-89cf-53a9a8b031e3>
 DWORD nIndices;
 DWORD nOriginalVertices;
 array DWORD indices[nIndices];
}

template FVFData {
 <b6e70a0e-8ef9-4e83-94ad-ecc8b0c04897>
 DWORD dwFVF;
 DWORD nDWords;
 array DWORD data[nDWords];
}

template Header {
 <3D82AB43-62DA-11cf-AB39-0020AF71E433>
 WORD major;
 WORD minor;
 DWORD flags;
}

template Vector {
 <3D82AB5E-62DA-11cf-AB39-0020AF71E433>
 FLOAT x;
 FLOAT y;
 FLOAT z;
}

template Coords2d {
 <F6F23F44-7686-11cf-8F52-0040333594A3>
 FLOAT u;
 FLOAT v;
}

template Matrix4x4 {
 <F6F23F45-7686-11cf-8F52-0040333594A3>
 array FLOAT matrix[16];
}

template ColorRGBA {
 <35FF44E0-6C7C-11cf-8F52-0040333594A3>
 FLOAT red;
 FLOAT green;
 FLOAT blue;
 FLOAT alpha;
}

template ColorRGB {
 <D3E16E81-7835-11cf-8F52-0040333594A3>
 FLOAT red;
 FLOAT green;
 FLOAT blue;
}

template IndexedColor {
 <1630B820-7842-11cf-8F52-0040333594A3>
 DWORD index;
 ColorRGBA indexColor;
}

template Material {
 <3D82AB4D-62DA-11cf-AB39-0020AF71E433>
 ColorRGBA faceColor;
 FLOAT power;
 ColorRGB specularColor;
 ColorRGB emissiveColor;
 [...]
}

template TextureFilename {
 <A42790E1-7810-11cf-8F52-0040333594A3>
 STRING filename;
}

template MeshFace {
 <3D82AB5F-62DA-11cf-AB39-0020AF71E433>
 DWORD nFaceVertexIndices;
 array DWORD faceVertexIndices[nFaceVertexIndices];
}

template MeshTextureCoords {
 <F6F23F40-7686-11cf-8F52-0040333594A3>
 DWORD nTextureCoords;
 array Coords2d textureCoords[nTextureCoords];
}

template MeshMaterialList {
 <F6F23F42-7686-11cf-8F52-0040333594A3>
 DWORD nMaterials;
 DWORD nFaceIndexes;
 array DWORD faceIndexes[nFaceIndexes];
 [Material]
}

template MeshNormals {
 <F6F23F43-7686-11cf-8F52-0040333594A3>
 DWORD nNormals;
 array Vector normals[nNormals];
 DWORD nFaceNormals;
 array MeshFace faceNormals[nFaceNormals];
}

template MeshVertexColors {
 <1630B821-7842-11cf-8F52-0040333594A3>
 DWORD nVertexColors;
 array IndexedColor vertexColors[nVertexColors];
}

template Mesh {
 <3D82AB44-62DA-11cf-AB39-0020AF71E433>
 DWORD nVertices;
 array Vector vertices[nVertices];
 DWORD nFaces;
 array MeshFace faces[nFaces];
 [...]
}

template FrameTransformMatrix {
 <F6F23F41-7686-11cf-8F52-0040333594A3>
 Matrix4x4 frameMatrix;
}

template Frame {
 <3D82AB46-62DA-11cf-AB39-0020AF71E433>
 [...]
}

template FloatKeys {
 <10DD46A9-775B-11cf-8F52-0040333594A3>
 DWORD nValues;
 array FLOAT values[nValues];
}

template TimedFloatKeys {
 <F406B180-7B3B-11cf-8F52-0040333594A3>
 DWORD time;
 FloatKeys tfkeys;
}

template AnimationKey {
 <10DD46A8-775B-11cf-8F52-0040333594A3>
 DWORD keyType;
 DWORD nKeys;
 array TimedFloatKeys keys[nKeys];
}

template AnimationOptions {
 <E2BF56C0-840F-11cf-8F52-0040333594A3>
 DWORD openclosed;
 DWORD positionquality;
}

template Animation {
 <3D82AB4F-62DA-11cf-AB39-0020AF71E433>
 [...]
}

template AnimationSet {
 <3D82AB50-62DA-11cf-AB39-0020AF71E433>
 [Animation]
}

template XSkinMeshHeader {
 <3CF169CE-FF7C-44ab-93C0-F78F62D172E2>
 WORD nMaxSkinWeightsPerVertex;
 WORD nMaxSkinWeightsPerFace;
 WORD nBones;
}

template SkinWeights {
 <6F0D123B-BAD2-4167-A0D0-80224F25FABB>
 STRING transformNodeName;
 DWORD nWeights;
 array DWORD vertexIndices[nWeights];
 array FLOAT weights[nWeights];
 Matrix4x4 matrixOffset;
}

template AnimTicksPerSecond {
 <9E415A43-7BA6-4a73-8743-B73D47E88476>
 DWORD AnimTicksPerSecond;
}

AnimTicksPerSecond {
 30;
}

// Start of Frames

   Frame Form1 {
      FrameTransformMatrix {
       1.000000, 0.000000, 0.000000, 0.000000,
       0.000000, 1.000000, 0.000000, 0.000000,
       0.000000, 0.000000, 1.000000, 0.000000,
       0.000000, 0.000000, 0.000000, 1.000000;;
      }

   }
   Frame Form3 {
      FrameTransformMatrix {
       1.000000, 0.000000, 0.000000, 0.000000,
       0.000000, 1.000000, 0.000000, 0.000000,
       0.000000, 0.000000, 1.000000, 0.000000,
       0.000000, 0.000000, 0.000000, 1.000000;;
      }

   }

   Frame Body {
      FrameTransformMatrix {
       1.000000, 0.000000, 0.000000, 0.000000,
       0.000000, 1.000000, 0.000000, 0.000000,
       0.000000, 0.000000, 1.000000, 0.000000,
       0.000000, 0.000000, 0.000000, 1.000000;;
      }

      Mesh skinnedMesh {
       238;
       -15.744699; 1.734299; 0.663650;,
       -15.744699; 12.374500; 1.737780;,
       -19.079201; 3.116699; 0.803210;,
       -19.079201; 12.374500; 1.737780;,
       -15.744699; 28.708099; 1.628490;,
       -19.079201; 28.708099; 1.628490;,
       -15.744699; 43.250298; 1.736070;,
       -19.079201; 43.250298; 1.736070;,
       -15.744699; 52.847595; 0.714320;,
       -19.079201; 52.847595; 0.714320;,
       -12.052500; 0.990898; 0.588610;,
       -12.052500; 12.374500; 1.737780;,
       -12.052500; 28.708099; 1.628490;,
       -12.052500; 43.250298; 1.736070;,
       -12.052500; 52.847595; 0.714320;,
       -7.567510; 0.495798; 0.538620;,
       -7.567510; 12.374500; 1.737780;,
       -7.567510; 28.708099; 1.628490;,
       -7.567510; 43.250298; 1.736070;,
       -7.567510; 52.847595; 0.714320;,
       -3.568460; -0.000002; 0.488570;,
       -3.568460; 12.374500; 1.737780;,
       -3.568460; 28.708099; 1.628490;,
       -3.568460; 43.250298; 1.736070;,
       -3.568460; 52.847595; 0.714320;,
       0.196092; -0.000002; 0.488570;,
       0.196093; 12.374500; 1.737780;,
       0.196093; 28.708099; 1.628490;,
       0.196093; 43.250298; 1.736070;,
       0.196093; 52.847595; 0.714320;,
       3.067170; -0.000002; 0.488570;,
       3.067170; 12.374500; 1.737780;,
       3.067170; 28.708099; 1.628490;,
       3.067170; 43.250298; 1.736070;,
       3.067170; 52.847595; 0.714320;,
       8.453410; 0.495798; 0.538620;,
       8.453410; 12.374500; 1.737780;,
       8.453410; 28.708099; 1.628490;,
       8.453410; 43.250298; 1.736070;,
       8.453410; 52.847595; 0.714320;,
       14.684900; 0.990898; 0.588610;,
       19.943300; 3.116699; 0.803210;,
       14.684900; 12.374500; 1.737780;,
       19.943300; 12.374500; 1.737780;,
       14.684900; 28.708099; 1.628490;,
       19.943300; 28.708099; 1.628490;,
       14.684900; 43.250298; 1.736070;,
       19.943300; 43.250298; 1.736070;,
       14.684900; 52.847595; 0.714320;,
       19.943300; 52.847595; 0.714320;,
       -24.269899; 53.117195; 1.360590;,
       -24.267500; 53.545700; 1.221360;,
       -24.272301; 52.688698; 1.221360;,
       -24.265900; 53.810600; 0.856840;,
       -24.273800; 52.423897; 0.856840;,
       -24.265900; 53.810600; 0.406270;,
       -24.273800; 52.423897; 0.406270;,
       -24.267500; 53.545700; 0.041750;,
       -24.272301; 52.688698; 0.041750;,
       -24.269899; 53.117195; -0.097480;,
       -24.265900; 53.810600; 0.856840;,
       -24.267500; 53.545700; 1.221360;,
       -22.826000; 53.802399; 0.856840;,
       -22.827499; 53.537498; 1.221360;,
       -24.265900; 53.810600; 0.406270;,
       -22.826000; 53.802399; 0.406270;,
       -24.267500; 53.545700; 0.041750;,
       -22.827499; 53.537498; 0.041750;,
       -24.269899; 53.117195; -0.097480;,
       -24.267500; 53.545700; 0.041750;,
       -22.830000; 53.109001; -0.097480;,
       -22.827499; 53.537498; 0.041750;,
       -24.272301; 52.688698; 0.041750;,
       -22.832399; 52.680496; 0.041750;,
       -24.273800; 52.423897; 0.406270;,
       -24.272301; 52.688698; 0.041750;,
       -22.833900; 52.415695; 0.406270;,
       -22.832399; 52.680496; 0.041750;,
       -24.273800; 52.423897; 0.856840;,
       -22.833900; 52.415695; 0.856840;,
       -24.272301; 52.688698; 1.221360;,
       -22.832399; 52.680496; 1.221360;,
       -24.269899; 53.117195; 1.360590;,
       -24.272301; 52.688698; 1.221360;,
       -22.830000; 53.109001; 1.360590;,
       -22.832399; 52.680496; 1.221360;,
       -24.267500; 53.545700; 1.221360;,
       -22.827499; 53.537498; 1.221360;,
       -22.021601; 53.797798; 0.856840;,
       -22.023100; 53.532898; 1.221360;,
       0.000000; 53.672302; 0.856840;,
       -0.001510; 53.407501; 1.221360;,
       -22.021601; 53.797798; 0.406270;,
       0.000000; 53.672302; 0.406270;,
       -22.827499; 53.537498; -1.598550;,
       -22.826000; 53.802399; -1.234030;,
       -22.023100; 53.532898; -1.598550;,
       -22.021601; 53.797798; -1.234030;,
       -22.023100; 53.532898; 0.041750;,
       0.001510; 53.407501; 0.041750;,
       -22.830000; 53.109001; -1.737780;,
       -22.827499; 53.537498; -1.598550;,
       -22.025600; 53.104401; -1.737780;,
       -22.023100; 53.532898; -1.598550;,
       -22.025600; 53.104401; -0.097480;,
       -22.023100; 53.532898; 0.041750;,
       -0.003950; 52.978996; -0.097480;,
       0.001510; 53.407501; 0.041750;,
       -22.832399; 52.680496; -1.598550;,
       -22.028000; 52.675896; -1.598550;,
       -22.028000; 52.675896; 0.041750;,
       -0.006390; 52.550499; 0.041750;,
       -22.833900; 52.415695; -1.234030;,
       -22.832399; 52.680496; -1.598550;,
       -22.029499; 52.411102; -1.234030;,
       -22.028000; 52.675896; -1.598550;,
       -22.029499; 52.411102; 0.406270;,
       -22.028000; 52.675896; 0.041750;,
       -0.007900; 52.285599; 0.406270;,
       -0.006390; 52.550499; 0.041750;,
       -22.029499; 52.411102; 0.856840;,
       0.007900; 52.285599; 0.856840;,
       -22.028000; 52.675896; 1.221360;,
       -0.006390; 52.550499; 1.221360;,
       -22.025600; 53.104401; 1.360590;,
       -22.028000; 52.675896; 1.221360;,
       -0.003950; 52.978996; 1.360590;,
       -0.006390; 52.550499; 1.221360;,
       -22.023100; 53.532898; 1.221360;,
       -0.001510; 53.407501; 1.221360;,
       -22.833900; 52.415695; -1.234030;,
       -22.833900; 52.415695; 0.406270;,
       -22.832399; 52.680496; -1.598550;,
       -22.832399; 52.680496; 0.041750;,
       -22.830000; 53.109001; -1.737780;,
       -22.830000; 53.109001; -0.097480;,
       -22.827499; 53.537498; -1.598550;,
       -22.827499; 53.537498; 0.041750;,
       -22.826000; 53.802399; -1.234030;,
       -22.826000; 53.802399; 0.406270;,
       -22.021601; 53.797798; -1.234030;,
       -22.021601; 53.797798; 0.406270;,
       -22.023100; 53.532898; -1.598550;,
       -22.023100; 53.532898; 0.041750;,
       -22.025600; 53.104401; -1.737780;,
       -22.025600; 53.104401; -0.097480;,
       -22.028000; 52.675896; -1.598550;,
       -22.028000; 52.675896; 0.041750;,
       -22.029499; 52.411102; -1.234030;,
       -22.029499; 52.411102; 0.406270;,
       24.267401; 53.545700; 1.221360;,
       24.269899; 53.117195; 1.360590;,
       24.265900; 53.810600; 0.856840;,
       24.272301; 52.688698; 1.221360;,
       24.265900; 53.810600; 0.406270;,
       24.273800; 52.423897; 0.856840;,
       24.267401; 53.545700; 0.041750;,
       24.273800; 52.423897; 0.406270;,
       24.269899; 53.117195; -0.097480;,
       24.272301; 52.688698; 0.041750;,
       24.267401; 53.545700; 1.221360;,
       24.265900; 53.810600; 0.856840;,
       22.827499; 53.537498; 1.221360;,
       22.826000; 53.802399; 0.856840;,
       24.265900; 53.810600; 0.406270;,
       22.826000; 53.802399; 0.406270;,
       24.267401; 53.545700; 0.041750;,
       22.827499; 53.537498; 0.041750;,
       24.267401; 53.545700; 0.041750;,
       24.269899; 53.117195; -0.097480;,
       22.827499; 53.537498; 0.041750;,
       22.830000; 53.109001; -0.097480;,
       24.272301; 52.688698; 0.041750;,
       22.832399; 52.680496; 0.041750;,
       24.272301; 52.688698; 0.041750;,
       24.273800; 52.423897; 0.406270;,
       22.832399; 52.680496; 0.041750;,
       22.833900; 52.415695; 0.406270;,
       24.273800; 52.423897; 0.856840;,
       22.833900; 52.415695; 0.856840;,
       24.272301; 52.688698; 1.221360;,
       22.832399; 52.680496; 1.221360;,
       24.272301; 52.688698; 1.221360;,
       24.269899; 53.117195; 1.360590;,
       22.832399; 52.680496; 1.221360;,
       22.830000; 53.109001; 1.360590;,
       24.267401; 53.545700; 1.221360;,
       22.827499; 53.537498; 1.221360;,
       22.023100; 53.532898; 1.221360;,
       22.021601; 53.797798; 0.856840;,
       0.001510; 53.407501; 1.221360;,
       22.021601; 53.797798; 0.406270;,
       22.826000; 53.802399; -1.234030;,
       22.827499; 53.537498; -1.598550;,
       22.021601; 53.797798; -1.234030;,
       22.023100; 53.532898; -1.598550;,
       22.023100; 53.532898; 0.041750;,
       22.827499; 53.537498; -1.598550;,
       22.830000; 53.109001; -1.737780;,
       22.023100; 53.532898; -1.598550;,
       22.025600; 53.104401; -1.737780;,
       22.023100; 53.532898; 0.041750;,
       22.025600; 53.104401; -0.097480;,
       22.832399; 52.680496; -1.598550;,
       22.028000; 52.675896; -1.598550;,
       22.028000; 52.675896; 0.041750;,
       22.832399; 52.680496; -1.598550;,
       22.833900; 52.415695; -1.234030;,
       22.028000; 52.675896; -1.598550;,
       22.029501; 52.411102; -1.234030;,
       22.028000; 52.675896; 0.041750;,
       22.029501; 52.411102; 0.406270;,
       22.029501; 52.411102; 0.856840;,
       22.028000; 52.675896; 1.221360;,
       22.028000; 52.675896; 1.221360;,
       22.025600; 53.104401; 1.360590;,
       22.023100; 53.532898; 1.221360;,
       0.001510; 53.407501; 1.221360;,
       22.833900; 52.415695; 0.406270;,
       22.833900; 52.415695; -1.234030;,
       22.832399; 52.680496; 0.041750;,
       22.832399; 52.680496; -1.598550;,
       22.830000; 53.109001; -0.097480;,
       22.830000; 53.109001; -1.737780;,
       22.827499; 53.537498; 0.041750;,
       22.827499; 53.537498; -1.598550;,
       22.826000; 53.802399; 0.406270;,
       22.826000; 53.802399; -1.234030;,
       22.021601; 53.797798; 0.406270;,
       22.021601; 53.797798; -1.234030;,
       22.023100; 53.532898; 0.041750;,
       22.023100; 53.532898; -1.598550;,
       22.025600; 53.104401; -0.097480;,
       22.025600; 53.104401; -1.737780;,
       22.028000; 52.675896; 0.041750;,
       22.028000; 52.675896; -1.598550;,
       22.029501; 52.411102; 0.406270;,
       22.029501; 52.411102; -1.234030;;
       248;
       3;0, 1, 2;,
       3;1, 3, 2;,
       3;1, 4, 3;,
       3;4, 5, 3;,
       3;4, 6, 5;,
       3;6, 7, 5;,
       3;6, 8, 7;,
       3;8, 9, 7;,
       3;10, 11, 0;,
       3;11, 1, 0;,
       3;11, 12, 1;,
       3;12, 4, 1;,
       3;12, 13, 4;,
       3;13, 6, 4;,
       3;13, 14, 6;,
       3;14, 8, 6;,
       3;15, 16, 10;,
       3;16, 11, 10;,
       3;16, 17, 11;,
       3;17, 12, 11;,
       3;17, 18, 12;,
       3;18, 13, 12;,
       3;18, 19, 13;,
       3;19, 14, 13;,
       3;20, 21, 15;,
       3;21, 16, 15;,
       3;21, 22, 16;,
       3;22, 17, 16;,
       3;22, 23, 17;,
       3;23, 18, 17;,
       3;23, 24, 18;,
       3;24, 19, 18;,
       3;25, 26, 20;,
       3;26, 21, 20;,
       3;26, 27, 21;,
       3;27, 22, 21;,
       3;27, 28, 22;,
       3;28, 23, 22;,
       3;28, 29, 23;,
       3;29, 24, 23;,
       3;30, 31, 25;,
       3;31, 26, 25;,
       3;31, 32, 26;,
       3;32, 27, 26;,
       3;32, 33, 27;,
       3;33, 28, 27;,
       3;33, 34, 28;,
       3;34, 29, 28;,
       3;35, 36, 30;,
       3;36, 31, 30;,
       3;36, 37, 31;,
       3;37, 32, 31;,
       3;37, 38, 32;,
       3;38, 33, 32;,
       3;38, 39, 33;,
       3;39, 34, 33;,
       3;40, 41, 42;,
       3;41, 43, 42;,
       3;40, 42, 35;,
       3;42, 36, 35;,
       3;42, 43, 44;,
       3;43, 45, 44;,
       3;42, 44, 36;,
       3;44, 37, 36;,
       3;44, 45, 46;,
       3;45, 47, 46;,
       3;44, 46, 37;,
       3;46, 38, 37;,
       3;46, 47, 48;,
       3;47, 49, 48;,
       3;46, 48, 38;,
       3;48, 39, 38;,
       3;50, 51, 52;,
       3;51, 53, 52;,
       3;52, 53, 54;,
       3;53, 55, 54;,
       3;54, 55, 56;,
       3;55, 57, 56;,
       3;56, 57, 58;,
       3;57, 59, 58;,
       3;60, 61, 62;,
       3;61, 63, 62;,
       3;64, 60, 65;,
       3;60, 62, 65;,
       3;66, 64, 67;,
       3;64, 65, 67;,
       3;68, 69, 70;,
       3;69, 71, 70;,
       3;72, 68, 73;,
       3;68, 70, 73;,
       3;74, 75, 76;,
       3;75, 77, 76;,
       3;78, 74, 79;,
       3;74, 76, 79;,
       3;80, 78, 81;,
       3;78, 79, 81;,
       3;82, 83, 84;,
       3;83, 85, 84;,
       3;86, 82, 87;,
       3;82, 84, 87;,
       3;62, 63, 88;,
       3;63, 89, 88;,
       3;88, 89, 90;,
       3;89, 91, 90;,
       3;65, 62, 92;,
       3;62, 88, 92;,
       3;92, 88, 93;,
       3;88, 90, 93;,
       3;94, 95, 96;,
       3;95, 97, 96;,
       3;98, 92, 99;,
       3;92, 93, 99;,
       3;100, 101, 102;,
       3;101, 103, 102;,
       3;104, 105, 106;,
       3;105, 107, 106;,
       3;108, 100, 109;,
       3;100, 102, 109;,
       3;110, 104, 111;,
       3;104, 106, 111;,
       3;112, 113, 114;,
       3;113, 115, 114;,
       3;116, 117, 118;,
       3;117, 119, 118;,
       3;79, 76, 120;,
       3;76, 116, 120;,
       3;120, 116, 121;,
       3;116, 118, 121;,
       3;81, 79, 122;,
       3;79, 120, 122;,
       3;122, 120, 123;,
       3;120, 121, 123;,
       3;84, 85, 124;,
       3;85, 125, 124;,
       3;124, 125, 126;,
       3;125, 127, 126;,
       3;87, 84, 128;,
       3;84, 124, 128;,
       3;128, 124, 129;,
       3;124, 126, 129;,
       3;130, 131, 132;,
       3;131, 133, 132;,
       3;114, 116, 112;,
       3;116, 76, 112;,
       3;132, 133, 134;,
       3;133, 135, 134;,
       3;134, 135, 136;,
       3;135, 137, 136;,
       3;136, 137, 138;,
       3;137, 139, 138;,
       3;95, 65, 97;,
       3;65, 92, 97;,
       3;140, 141, 142;,
       3;141, 143, 142;,
       3;142, 143, 144;,
       3;143, 145, 144;,
       3;144, 145, 146;,
       3;145, 147, 146;,
       3;146, 147, 148;,
       3;147, 149, 148;,
       3;150, 151, 152;,
       3;151, 153, 152;,
       3;152, 153, 154;,
       3;153, 155, 154;,
       3;154, 155, 156;,
       3;155, 157, 156;,
       3;156, 157, 158;,
       3;157, 159, 158;,
       3;160, 161, 162;,
       3;161, 163, 162;,
       3;161, 164, 163;,
       3;164, 165, 163;,
       3;164, 166, 165;,
       3;166, 167, 165;,
       3;168, 169, 170;,
       3;169, 171, 170;,
       3;169, 172, 171;,
       3;172, 173, 171;,
       3;174, 175, 176;,
       3;175, 177, 176;,
       3;175, 178, 177;,
       3;178, 179, 177;,
       3;178, 180, 179;,
       3;180, 181, 179;,
       3;182, 183, 184;,
       3;183, 185, 184;,
       3;183, 186, 185;,
       3;186, 187, 185;,
       3;162, 163, 188;,
       3;163, 189, 188;,
       3;188, 189, 190;,
       3;189, 90, 190;,
       3;163, 165, 189;,
       3;165, 191, 189;,
       3;189, 191, 90;,
       3;191, 93, 90;,
       3;192, 193, 194;,
       3;193, 195, 194;,
       3;191, 196, 93;,
       3;196, 99, 93;,
       3;197, 198, 199;,
       3;198, 200, 199;,
       3;201, 202, 107;,
       3;202, 106, 107;,
       3;198, 203, 200;,
       3;203, 204, 200;,
       3;202, 205, 106;,
       3;205, 111, 106;,
       3;206, 207, 208;,
       3;207, 209, 208;,
       3;210, 211, 119;,
       3;211, 118, 119;,
       3;177, 179, 211;,
       3;179, 212, 211;,
       3;211, 212, 118;,
       3;212, 121, 118;,
       3;179, 181, 212;,
       3;181, 213, 212;,
       3;212, 213, 121;,
       3;213, 123, 121;,
       3;184, 185, 214;,
       3;185, 215, 214;,
       3;214, 215, 127;,
       3;215, 126, 127;,
       3;185, 187, 215;,
       3;187, 216, 215;,
       3;215, 216, 126;,
       3;216, 217, 126;,
       3;218, 219, 220;,
       3;219, 221, 220;,
       3;211, 209, 177;,
       3;209, 207, 177;,
       3;220, 221, 222;,
       3;221, 223, 222;,
       3;222, 223, 224;,
       3;223, 225, 224;,
       3;224, 225, 226;,
       3;225, 227, 226;,
       3;165, 192, 191;,
       3;192, 194, 191;,
       3;228, 229, 230;,
       3;229, 231, 230;,
       3;230, 231, 232;,
       3;231, 233, 232;,
       3;232, 233, 234;,
       3;233, 235, 234;,
       3;234, 235, 236;,
       3;235, 237, 236;;

      MeshNormals {
       238;
       0.000000; -0.100439; 0.994943;,
       0.000000; -0.046942; 0.998898;,
       0.000000; -0.100440; 0.994943;,
       0.000000; -0.046942; 0.998898;,
       0.000000; -0.000353; 1.000000;,
       0.000000; -0.000353; 1.000000;,
       0.000000; 0.049313; 0.998783;,
       0.000000; 0.049313; 0.998783;,
       0.000000; 0.105864; 0.994381;,
       0.000000; 0.105864; 0.994381;,
       0.000000; -0.100440; 0.994943;,
       0.000000; -0.046942; 0.998898;,
       0.000000; -0.000353; 1.000000;,
       0.000000; 0.049313; 0.998783;,
       0.000000; 0.105864; 0.994381;,
       0.000000; -0.100440; 0.994943;,
       0.000000; -0.046942; 0.998898;,
       0.000000; -0.000353; 1.000000;,
       0.000000; 0.049313; 0.998783;,
       0.000000; 0.105864; 0.994381;,
       0.000000; -0.100440; 0.994943;,
       0.000000; -0.046942; 0.998898;,
       0.000000; -0.000353; 1.000000;,
       0.000000; 0.049313; 0.998783;,
       0.000000; 0.105864; 0.994381;,
       0.000000; -0.100440; 0.994943;,
       0.000000; -0.046942; 0.998898;,
       0.000000; -0.000353; 1.000000;,
       0.000000; 0.049313; 0.998783;,
       0.000000; 0.105864; 0.994381;,
       0.000000; -0.100440; 0.994943;,
       0.000000; -0.046942; 0.998898;,
       0.000000; -0.000353; 1.000000;,
       0.000000; 0.049313; 0.998783;,
       0.000000; 0.105864; 0.994381;,
       0.000000; -0.100440; 0.994943;,
       0.000000; -0.046942; 0.998898;,
       0.000000; -0.000353; 1.000000;,
       0.000000; 0.049313; 0.998783;,
       0.000000; 0.105864; 0.994381;,
       -0.000000; -0.100439; 0.994943;,
       -0.000000; -0.100439; 0.994943;,
       -0.000000; -0.046942; 0.998898;,
       -0.000000; -0.046942; 0.998898;,
       0.000000; -0.000353; 1.000000;,
       0.000000; -0.000353; 1.000000;,
       0.000000; 0.049313; 0.998783;,
       0.000000; 0.049313; 0.998783;,
       0.000000; 0.105864; 0.994381;,
       0.000000; 0.105864; 0.994381;,
       -0.999985; 0.005463; -0.000420;,
       -0.999985; 0.005463; -0.000420;,
       -0.999985; 0.005463; -0.000420;,
       -0.999985; 0.005463; -0.000420;,
       -0.999985; 0.005463; -0.000420;,
       -0.999985; 0.005463; -0.000420;,
       -0.999985; 0.005463; -0.000420;,
       -0.999985; 0.005463; -0.000420;,
       -0.999985; 0.005463; -0.000420;,
       -0.999985; 0.005463; -0.000420;,
       0.005417; 0.951023; 0.309073;,
       0.004607; 0.808935; 0.587881;,
       0.005428; 0.951023; 0.309073;,
       0.004617; 0.808935; 0.587880;,
       0.005417; 0.951023; -0.309073;,
       0.005641; 0.988282; -0.152536;,
       0.004608; 0.808935; -0.587881;,
       0.004608; 0.808935; -0.587881;,
       0.000001; -0.000003; -1.000000;,
       0.001760; 0.309008; -0.951058;,
       0.000001; -0.000003; -1.000000;,
       0.001760; 0.309008; -0.951058;,
       -0.001758; -0.309013; -0.951056;,
       -0.001758; -0.309013; -0.951056;,
       -0.005417; -0.951051; -0.308988;,
       -0.004608; -0.809040; -0.587736;,
       -0.005636; -0.988288; -0.152495;,
       -0.004608; -0.809040; -0.587736;,
       -0.005417; -0.951051; 0.308988;,
       -0.005424; -0.951050; 0.308988;,
       -0.004608; -0.809040; 0.587736;,
       -0.004614; -0.809040; 0.587736;,
       -0.000001; -0.000003; 1.000000;,
       -0.001760; -0.309013; 0.951056;,
       -0.000000; -0.000000; 1.000000;,
       -0.001764; -0.309010; 0.951057;,
       0.001758; 0.309008; 0.951058;,
       0.001763; 0.309010; 0.951057;,
       0.005428; 0.951023; 0.309073;,
       0.004616; 0.808935; 0.587880;,
       -0.000001; 0.951037; 0.309077;,
       0.004606; 0.808935; 0.587880;,
       0.005643; 0.988282; -0.152536;,
       0.000001; 0.951037; -0.309077;,
       0.004626; 0.808935; -0.587880;,
       0.005439; 0.951023; -0.309073;,
       0.004626; 0.808935; -0.587880;,
       0.005439; 0.951023; -0.309073;,
       0.004610; 0.808935; -0.587880;,
       0.000002; 0.808944; -0.587886;,
       0.000000; 0.000002; -1.000000;,
       0.001767; 0.309012; -0.951056;,
       0.000000; 0.000002; -1.000000;,
       0.001767; 0.309012; -0.951056;,
       -0.000000; 0.000002; -1.000000;,
       0.001759; 0.309012; -0.951056;,
       -0.000000; 0.000002; -1.000000;,
       0.000000; 0.309013; -0.951058;,
       -0.001767; -0.309008; -0.951058;,
       -0.001767; -0.309008; -0.951058;,
       -0.001760; -0.309008; -0.951058;,
       -0.000001; -0.309008; -0.951059;,
       -0.005434; -0.951050; -0.308988;,
       -0.004627; -0.809040; -0.587736;,
       -0.005434; -0.951050; -0.308988;,
       -0.004627; -0.809040; -0.587736;,
       -0.005637; -0.988289; -0.152492;,
       -0.004607; -0.809048; -0.587725;,
       0.000000; -0.951067; -0.308986;,
       0.000000; -0.809056; -0.587731;,
       -0.005424; -0.951052; 0.308985;,
       -0.000001; -0.951067; 0.308986;,
       -0.004613; -0.809044; 0.587730;,
       -0.000002; -0.809056; 0.587731;,
       0.000000; 0.000002; 1.000000;,
       -0.001763; -0.309008; 0.951058;,
       -0.000000; 0.000002; 1.000000;,
       -0.000000; -0.309008; 0.951059;,
       0.001764; 0.309012; 0.951056;,
       0.001760; 0.309012; 0.951056;,
       -0.999984; 0.005669; 0.000000;,
       -0.999984; 0.005669; 0.000000;,
       -0.999984; 0.005634; 0.000000;,
       -0.999984; 0.005634; 0.000000;,
       -0.999984; 0.005717; 0.000000;,
       -0.999984; 0.005717; 0.000000;,
       -0.999983; 0.005747; 0.000000;,
       -0.999983; 0.005747; 0.000000;,
       -0.999984; 0.005659; 0.000000;,
       -0.999984; 0.005659; 0.000000;,
       0.999984; -0.005659; 0.000000;,
       0.999984; -0.005659; 0.000000;,
       0.999983; -0.005747; 0.000000;,
       0.999983; -0.005747; 0.000000;,
       0.999984; -0.005717; 0.000000;,
       0.999984; -0.005717; 0.000000;,
       0.999984; -0.005631; 0.000000;,
       0.999984; -0.005631; 0.000000;,
       0.999984; -0.005662; 0.000000;,
       0.999984; -0.005662; 0.000000;,
       0.999984; 0.005717; -0.000349;,
       0.999984; 0.005717; -0.000349;,
       0.999984; 0.005717; -0.000349;,
       0.999984; 0.005717; -0.000349;,
       0.999984; 0.005717; -0.000349;,
       0.999984; 0.005717; -0.000349;,
       0.999984; 0.005717; -0.000349;,
       0.999984; 0.005717; -0.000349;,
       0.999984; 0.005717; -0.000349;,
       0.999984; 0.005717; -0.000349;,
       -0.004608; 0.808935; 0.587880;,
       -0.005417; 0.951023; 0.309073;,
       -0.004617; 0.808935; 0.587880;,
       -0.005428; 0.951023; 0.309073;,
       -0.005417; 0.951023; -0.309073;,
       -0.005641; 0.988282; -0.152536;,
       -0.004608; 0.808935; -0.587880;,
       -0.004608; 0.808935; -0.587880;,
       -0.001758; 0.309007; -0.951058;,
       0.000001; -0.000003; -1.000000;,
       -0.001758; 0.309007; -0.951058;,
       0.000001; -0.000003; -1.000000;,
       0.001760; -0.309013; -0.951056;,
       0.001760; -0.309013; -0.951056;,
       0.004608; -0.809040; -0.587736;,
       0.005417; -0.951051; -0.308988;,
       0.004608; -0.809040; -0.587736;,
       0.005636; -0.988288; -0.152495;,
       0.005417; -0.951051; 0.308988;,
       0.005426; -0.951050; 0.308988;,
       0.004608; -0.809040; 0.587736;,
       0.004618; -0.809040; 0.587736;,
       0.001758; -0.309013; 0.951056;,
       -0.000001; -0.000003; 1.000000;,
       0.001763; -0.309010; 0.951057;,
       -0.000000; -0.000000; 1.000000;,
       -0.001760; 0.309007; 0.951058;,
       -0.001764; 0.309010; 0.951057;,
       -0.004618; 0.808935; 0.587880;,
       -0.005429; 0.951023; 0.309073;,
       -0.004610; 0.808935; 0.587880;,
       -0.005642; 0.988282; -0.152536;,
       -0.005439; 0.951023; -0.309073;,
       -0.004626; 0.808935; -0.587880;,
       -0.005439; 0.951023; -0.309073;,
       -0.004626; 0.808935; -0.587880;,
       -0.004606; 0.808935; -0.587880;,
       -0.001767; 0.309012; -0.951056;,
       -0.000000; 0.000002; -1.000000;,
       -0.001767; 0.309012; -0.951056;,
       -0.000000; 0.000002; -1.000000;,
       -0.001759; 0.309012; -0.951056;,
       -0.000000; 0.000002; -1.000000;,
       0.001767; -0.309008; -0.951058;,
       0.001767; -0.309008; -0.951058;,
       0.001759; -0.309008; -0.951058;,
       0.004619; -0.809040; -0.587736;,
       0.005430; -0.951050; -0.308988;,
       0.004619; -0.809040; -0.587736;,
       0.005430; -0.951050; -0.308988;,
       0.004608; -0.809048; -0.587725;,
       0.005637; -0.988289; -0.152492;,
       0.005425; -0.951052; 0.308985;,
       0.004616; -0.809044; 0.587730;,
       0.001763; -0.309008; 0.951058;,
       -0.000000; 0.000002; 1.000000;,
       -0.001763; 0.309012; 0.951056;,
       -0.001760; 0.309012; 0.951056;,
       0.999984; 0.005669; 0.000000;,
       0.999984; 0.005669; 0.000000;,
       0.999984; 0.005634; 0.000000;,
       0.999984; 0.005634; 0.000000;,
       0.999984; 0.005717; 0.000000;,
       0.999984; 0.005717; 0.000000;,
       0.999983; 0.005747; 0.000000;,
       0.999983; 0.005747; 0.000000;,
       0.999984; 0.005659; 0.000000;,
       0.999984; 0.005659; 0.000000;,
       -0.999984; -0.005659; 0.000000;,
       -0.999984; -0.005659; 0.000000;,
       -0.999983; -0.005747; 0.000000;,
       -0.999983; -0.005747; 0.000000;,
       -0.999984; -0.005717; 0.000000;,
       -0.999984; -0.005717; 0.000000;,
       -0.999984; -0.005634; 0.000000;,
       -0.999984; -0.005634; 0.000000;,
       -0.999984; -0.005669; 0.000000;,
       -0.999984; -0.005669; 0.000000;;
       248;
       3;0, 1, 2;,
       3;1, 3, 2;,
       3;1, 4, 3;,
       3;4, 5, 3;,
       3;4, 6, 5;,
       3;6, 7, 5;,
       3;6, 8, 7;,
       3;8, 9, 7;,
       3;10, 11, 0;,
       3;11, 1, 0;,
       3;11, 12, 1;,
       3;12, 4, 1;,
       3;12, 13, 4;,
       3;13, 6, 4;,
       3;13, 14, 6;,
       3;14, 8, 6;,
       3;15, 16, 10;,
       3;16, 11, 10;,
       3;16, 17, 11;,
       3;17, 12, 11;,
       3;17, 18, 12;,
       3;18, 13, 12;,
       3;18, 19, 13;,
       3;19, 14, 13;,
       3;20, 21, 15;,
       3;21, 16, 15;,
       3;21, 22, 16;,
       3;22, 17, 16;,
       3;22, 23, 17;,
       3;23, 18, 17;,
       3;23, 24, 18;,
       3;24, 19, 18;,
       3;25, 26, 20;,
       3;26, 21, 20;,
       3;26, 27, 21;,
       3;27, 22, 21;,
       3;27, 28, 22;,
       3;28, 23, 22;,
       3;28, 29, 23;,
       3;29, 24, 23;,
       3;30, 31, 25;,
       3;31, 26, 25;,
       3;31, 32, 26;,
       3;32, 27, 26;,
       3;32, 33, 27;,
       3;33, 28, 27;,
       3;33, 34, 28;,
       3;34, 29, 28;,
       3;35, 36, 30;,
       3;36, 31, 30;,
       3;36, 37, 31;,
       3;37, 32, 31;,
       3;37, 38, 32;,
       3;38, 33, 32;,
       3;38, 39, 33;,
       3;39, 34, 33;,
       3;40, 41, 42;,
       3;41, 43, 42;,
       3;40, 42, 35;,
       3;42, 36, 35;,
       3;42, 43, 44;,
       3;43, 45, 44;,
       3;42, 44, 36;,
       3;44, 37, 36;,
       3;44, 45, 46;,
       3;45, 47, 46;,
       3;44, 46, 37;,
       3;46, 38, 37;,
       3;46, 47, 48;,
       3;47, 49, 48;,
       3;46, 48, 38;,
       3;48, 39, 38;,
       3;50, 51, 52;,
       3;51, 53, 52;,
       3;52, 53, 54;,
       3;53, 55, 54;,
       3;54, 55, 56;,
       3;55, 57, 56;,
       3;56, 57, 58;,
       3;57, 59, 58;,
       3;60, 61, 62;,
       3;61, 63, 62;,
       3;64, 60, 65;,
       3;60, 62, 65;,
       3;66, 64, 67;,
       3;64, 65, 67;,
       3;68, 69, 70;,
       3;69, 71, 70;,
       3;72, 68, 73;,
       3;68, 70, 73;,
       3;74, 75, 76;,
       3;75, 77, 76;,
       3;78, 74, 79;,
       3;74, 76, 79;,
       3;80, 78, 81;,
       3;78, 79, 81;,
       3;82, 83, 84;,
       3;83, 85, 84;,
       3;86, 82, 87;,
       3;82, 84, 87;,
       3;62, 63, 88;,
       3;63, 89, 88;,
       3;88, 89, 90;,
       3;89, 91, 90;,
       3;65, 62, 92;,
       3;62, 88, 92;,
       3;92, 88, 93;,
       3;88, 90, 93;,
       3;94, 95, 96;,
       3;95, 97, 96;,
       3;98, 92, 99;,
       3;92, 93, 99;,
       3;100, 101, 102;,
       3;101, 103, 102;,
       3;104, 105, 106;,
       3;105, 107, 106;,
       3;108, 100, 109;,
       3;100, 102, 109;,
       3;110, 104, 111;,
       3;104, 106, 111;,
       3;112, 113, 114;,
       3;113, 115, 114;,
       3;116, 117, 118;,
       3;117, 119, 118;,
       3;79, 76, 120;,
       3;76, 116, 120;,
       3;120, 116, 121;,
       3;116, 118, 121;,
       3;81, 79, 122;,
       3;79, 120, 122;,
       3;122, 120, 123;,
       3;120, 121, 123;,
       3;84, 85, 124;,
       3;85, 125, 124;,
       3;124, 125, 126;,
       3;125, 127, 126;,
       3;87, 84, 128;,
       3;84, 124, 128;,
       3;128, 124, 129;,
       3;124, 126, 129;,
       3;130, 131, 132;,
       3;131, 133, 132;,
       3;114, 116, 112;,
       3;116, 76, 112;,
       3;132, 133, 134;,
       3;133, 135, 134;,
       3;134, 135, 136;,
       3;135, 137, 136;,
       3;136, 137, 138;,
       3;137, 139, 138;,
       3;95, 65, 97;,
       3;65, 92, 97;,
       3;140, 141, 142;,
       3;141, 143, 142;,
       3;142, 143, 144;,
       3;143, 145, 144;,
       3;144, 145, 146;,
       3;145, 147, 146;,
       3;146, 147, 148;,
       3;147, 149, 148;,
       3;150, 151, 152;,
       3;151, 153, 152;,
       3;152, 153, 154;,
       3;153, 155, 154;,
       3;154, 155, 156;,
       3;155, 157, 156;,
       3;156, 157, 158;,
       3;157, 159, 158;,
       3;160, 161, 162;,
       3;161, 163, 162;,
       3;161, 164, 163;,
       3;164, 165, 163;,
       3;164, 166, 165;,
       3;166, 167, 165;,
       3;168, 169, 170;,
       3;169, 171, 170;,
       3;169, 172, 171;,
       3;172, 173, 171;,
       3;174, 175, 176;,
       3;175, 177, 176;,
       3;175, 178, 177;,
       3;178, 179, 177;,
       3;178, 180, 179;,
       3;180, 181, 179;,
       3;182, 183, 184;,
       3;183, 185, 184;,
       3;183, 186, 185;,
       3;186, 187, 185;,
       3;162, 163, 188;,
       3;163, 189, 188;,
       3;188, 189, 190;,
       3;189, 90, 190;,
       3;163, 165, 189;,
       3;165, 191, 189;,
       3;189, 191, 90;,
       3;191, 93, 90;,
       3;192, 193, 194;,
       3;193, 195, 194;,
       3;191, 196, 93;,
       3;196, 99, 93;,
       3;197, 198, 199;,
       3;198, 200, 199;,
       3;201, 202, 107;,
       3;202, 106, 107;,
       3;198, 203, 200;,
       3;203, 204, 200;,
       3;202, 205, 106;,
       3;205, 111, 106;,
       3;206, 207, 208;,
       3;207, 209, 208;,
       3;210, 211, 119;,
       3;211, 118, 119;,
       3;177, 179, 211;,
       3;179, 212, 211;,
       3;211, 212, 118;,
       3;212, 121, 118;,
       3;179, 181, 212;,
       3;181, 213, 212;,
       3;212, 213, 121;,
       3;213, 123, 121;,
       3;184, 185, 214;,
       3;185, 215, 214;,
       3;214, 215, 127;,
       3;215, 126, 127;,
       3;185, 187, 215;,
       3;187, 216, 215;,
       3;215, 216, 126;,
       3;216, 217, 126;,
       3;218, 219, 220;,
       3;219, 221, 220;,
       3;211, 209, 177;,
       3;209, 207, 177;,
       3;220, 221, 222;,
       3;221, 223, 222;,
       3;222, 223, 224;,
       3;223, 225, 224;,
       3;224, 225, 226;,
       3;225, 227, 226;,
       3;165, 192, 191;,
       3;192, 194, 191;,
       3;228, 229, 230;,
       3;229, 231, 230;,
       3;230, 231, 232;,
       3;231, 233, 232;,
       3;232, 233, 234;,
       3;233, 235, 234;,
       3;234, 235, 236;,
       3;235, 237, 236;;
      }

      MeshTextureCoords {
       238;
       0.254169; 0.909864;,
       0.254169; 0.752237;,
       0.208267; 0.899388;,
       0.208267; 0.752237;,
       0.254169; 0.431872;,
       0.208267; 0.431872;,
       0.254169; 0.200727;,
       0.208267; 0.200727;,
       0.254169; 0.048180;,
       0.208267; 0.048180;,
       0.304996; 0.916570;,
       0.304996; 0.752237;,
       0.304996; 0.431872;,
       0.304996; 0.200727;,
       0.304996; 0.048180;,
       0.366736; 0.924440;,
       0.366736; 0.752237;,
       0.366736; 0.431872;,
       0.366736; 0.200727;,
       0.366736; 0.048180;,
       0.421787; 0.932320;,
       0.421787; 0.752237;,
       0.421787; 0.431872;,
       0.421787; 0.200727;,
       0.421787; 0.048180;,
       0.473610; 0.932320;,
       0.473610; 0.752237;,
       0.473610; 0.431872;,
       0.473610; 0.200727;,
       0.473610; 0.048180;,
       0.513134; 0.932320;,
       0.513134; 0.752237;,
       0.513134; 0.431872;,
       0.513134; 0.200727;,
       0.513134; 0.048180;,
       0.587281; 0.924440;,
       0.587281; 0.752237;,
       0.587281; 0.431872;,
       0.587281; 0.200727;,
       0.587281; 0.048180;,
       0.673063; 0.933177;,
       0.745451; 0.899388;,
       0.673063; 0.752237;,
       0.745451; 0.752237;,
       0.673063; 0.431872;,
       0.745451; 0.431872;,
       0.673063; 0.200727;,
       0.745451; 0.200727;,
       0.673063; 0.048180;,
       0.745451; 0.048180;,
       -4.621325; 0.316059;,
       -4.636291; 0.186996;,
       -4.636291; 0.445120;,
       -4.675476; 0.107209;,
       -4.675476; 0.524877;,
       -4.723911; 0.107209;,
       -4.723911; 0.524877;,
       -4.763098; 0.186996;,
       -4.763098; 0.445120;,
       -4.778064; 0.316059;,
       -4.777893; -0.108000;,
       -4.778064; 0.001791;,
       -4.623106; -0.108000;,
       -4.623266; 0.001791;,
       -4.777893; -0.243710;,
       -4.623106; -0.243710;,
       -4.778064; -0.353501;,
       -4.623266; -0.353501;,
       -4.430070; 1.164525;,
       -4.430328; 1.035461;,
       -4.584857; 1.166993;,
       -4.585126; 1.037932;,
       -4.429812; 1.293586;,
       -4.584599; 1.296057;,
       0.476985; -0.602050;,
       0.477147; -0.492259;,
       0.631772; -0.602050;,
       0.631934; -0.492259;,
       0.476985; -0.737759;,
       0.631772; -0.737759;,
       0.477147; -0.847551;,
       0.631934; -0.847551;,
       -4.777806; 0.759358;,
       -4.778064; 0.888419;,
       -4.623019; 0.761826;,
       -4.623277; 0.890889;,
       -4.777549; 0.630294;,
       -4.622750; 0.632765;,
       -4.536633; -0.108000;,
       -4.536795; 0.001791;,
       -2.169347; -0.108000;,
       -2.169509; 0.001791;,
       -4.536633; -0.243710;,
       -2.169347; -0.243710;,
       -4.623266; -0.847551;,
       -4.623106; -0.737759;,
       -4.536795; -0.847551;,
       -4.536633; -0.737759;,
       -4.536795; -0.353501;,
       -2.169184; -0.353501;,
       -4.180825; 1.164523;,
       -4.181093; 1.035461;,
       -4.267296; 1.165909;,
       -4.267566; 1.036847;,
       5.213720; 0.759356;,
       5.213451; 0.630294;,
       2.846428; 0.797127;,
       2.845840; 0.668063;,
       -4.180567; 1.293586;,
       -4.267038; 1.294971;,
       5.213979; 0.888419;,
       2.846689; 0.926188;,
       0.631772; -0.108000;,
       0.631934; 0.001791;,
       0.718244; -0.108000;,
       0.718405; 0.001791;,
       0.718244; -0.602050;,
       0.718405; -0.492259;,
       3.085531; -0.602050;,
       3.085694; -0.492259;,
       0.718244; -0.737759;,
       3.087229; -0.737759;,
       0.718405; -0.847551;,
       3.085694; -0.847551;,
       -4.536548; 0.763211;,
       -4.536806; 0.892275;,
       -2.169255; 0.800983;,
       -2.169518; 0.930044;,
       -4.536280; 0.634150;,
       -2.168993; 0.671919;,
       -4.067077; 0.524877;,
       -3.890746; 0.524877;,
       -4.106262; 0.445120;,
       -3.929932; 0.445120;,
       -4.121229; 0.316057;,
       -3.944899; 0.316057;,
       -4.106262; 0.186996;,
       -3.929932; 0.186996;,
       -4.067077; 0.107209;,
       -3.890746; 0.107209;,
       -3.676792; 0.107209;,
       -3.853122; 0.107209;,
       -3.637607; 0.186996;,
       -3.813937; 0.186996;,
       -3.622640; 0.316057;,
       -3.798970; 0.316057;,
       -3.637607; 0.445120;,
       -3.813937; 0.445120;,
       -3.676792; 0.524875;,
       -3.853122; 0.524875;,
       -4.568733; 0.186996;,
       -4.583700; 0.316059;,
       -4.529548; 0.107209;,
       -4.568733; 0.445120;,
       -4.481112; 0.107209;,
       -4.529548; 0.524877;,
       -4.441927; 0.186996;,
       -4.481112; 0.524877;,
       -4.426959; 0.316059;,
       -4.441927; 0.445120;,
       0.439361; 0.001791;,
       0.439200; -0.108000;,
       0.284574; 0.001791;,
       0.284412; -0.108000;,
       0.439200; -0.243710;,
       0.284412; -0.243710;,
       0.439361; -0.353501;,
       0.284574; -0.353501;,
       -4.777538; 1.035461;,
       -4.777806; 1.164525;,
       -4.622750; 1.037932;,
       -4.623019; 1.166993;,
       -4.778064; 1.293586;,
       -4.623277; 1.296057;,
       5.695614; -0.492259;,
       5.695774; -0.602050;,
       5.540828; -0.492259;,
       5.540989; -0.602050;,
       5.695774; -0.737759;,
       5.540989; -0.737759;,
       5.695614; -0.847551;,
       5.540828; -0.847551;,
       0.440403; 0.888419;,
       0.440146; 0.759358;,
       0.285616; 0.890889;,
       0.285359; 0.761826;,
       0.439877; 0.630294;,
       0.285090; 0.632765;,
       0.198102; 0.001791;,
       0.197941; -0.108000;,
       -2.169184; 0.001791;,
       0.197941; -0.243710;,
       0.284412; -0.737759;,
       0.284574; -0.847551;,
       0.197941; -0.737759;,
       0.198102; -0.847551;,
       0.198102; -0.353501;,
       -4.391661; 1.035461;,
       -4.391930; 1.164523;,
       -4.305189; 1.036847;,
       -4.305458; 1.165909;,
       0.478554; 0.630294;,
       0.478286; 0.759356;,
       -4.392187; 1.293586;,
       -4.305717; 1.294971;,
       0.478028; 0.888419;,
       5.540828; 0.001791;,
       5.540989; -0.108000;,
       5.454355; 0.001791;,
       5.454517; -0.108000;,
       5.454355; -0.492259;,
       5.454517; -0.602050;,
       5.454517; -0.737759;,
       5.454355; -0.847551;,
       0.199145; 0.892275;,
       0.198887; 0.763211;,
       0.198619; 0.634150;,
       -2.168668; 0.671919;,
       -4.389336; 0.524877;,
       -4.213006; 0.524877;,
       -4.350150; 0.445120;,
       -4.173820; 0.445120;,
       -4.335183; 0.316057;,
       -4.158854; 0.316057;,
       -4.350150; 0.186996;,
       -4.173820; 0.186996;,
       -4.389336; 0.107209;,
       -4.213006; 0.107209;,
       -3.354534; 0.107209;,
       -3.530864; 0.107209;,
       -3.393719; 0.186996;,
       -3.570049; 0.186996;,
       -3.408685; 0.316057;,
       -3.585016; 0.316057;,
       -3.393719; 0.445120;,
       -3.570049; 0.445120;,
       -3.354534; 0.524875;,
       -3.530864; 0.524875;;
      }

      MeshVertexColors {
       238;
       0; 1.000000; 1.000000; 1.000000; 1.000000;,
       1; 1.000000; 1.000000; 1.000000; 1.000000;,
       2; 1.000000; 1.000000; 1.000000; 1.000000;,
       3; 1.000000; 1.000000; 1.000000; 1.000000;,
       4; 1.000000; 1.000000; 1.000000; 1.000000;,
       5; 1.000000; 1.000000; 1.000000; 1.000000;,
       6; 1.000000; 1.000000; 1.000000; 1.000000;,
       7; 1.000000; 1.000000; 1.000000; 1.000000;,
       8; 1.000000; 1.000000; 1.000000; 1.000000;,
       9; 1.000000; 1.000000; 1.000000; 1.000000;,
       10; 1.000000; 1.000000; 1.000000; 1.000000;,
       11; 1.000000; 1.000000; 1.000000; 1.000000;,
       12; 1.000000; 1.000000; 1.000000; 1.000000;,
       13; 1.000000; 1.000000; 1.000000; 1.000000;,
       14; 1.000000; 1.000000; 1.000000; 1.000000;,
       15; 1.000000; 1.000000; 1.000000; 1.000000;,
       16; 1.000000; 1.000000; 1.000000; 1.000000;,
       17; 1.000000; 1.000000; 1.000000; 1.000000;,
       18; 1.000000; 1.000000; 1.000000; 1.000000;,
       19; 1.000000; 1.000000; 1.000000; 1.000000;,
       20; 1.000000; 1.000000; 1.000000; 1.000000;,
       21; 1.000000; 1.000000; 1.000000; 1.000000;,
       22; 1.000000; 1.000000; 1.000000; 1.000000;,
       23; 1.000000; 1.000000; 1.000000; 1.000000;,
       24; 1.000000; 1.000000; 1.000000; 1.000000;,
       25; 1.000000; 1.000000; 1.000000; 1.000000;,
       26; 1.000000; 1.000000; 1.000000; 1.000000;,
       27; 1.000000; 1.000000; 1.000000; 1.000000;,
       28; 1.000000; 1.000000; 1.000000; 1.000000;,
       29; 1.000000; 1.000000; 1.000000; 1.000000;,
       30; 1.000000; 1.000000; 1.000000; 1.000000;,
       31; 1.000000; 1.000000; 1.000000; 1.000000;,
       32; 1.000000; 1.000000; 1.000000; 1.000000;,
       33; 1.000000; 1.000000; 1.000000; 1.000000;,
       34; 1.000000; 1.000000; 1.000000; 1.000000;,
       35; 1.000000; 1.000000; 1.000000; 1.000000;,
       36; 1.000000; 1.000000; 1.000000; 1.000000;,
       37; 1.000000; 1.000000; 1.000000; 1.000000;,
       38; 1.000000; 1.000000; 1.000000; 1.000000;,
       39; 1.000000; 1.000000; 1.000000; 1.000000;,
       40; 1.000000; 1.000000; 1.000000; 1.000000;,
       41; 1.000000; 1.000000; 1.000000; 1.000000;,
       42; 1.000000; 1.000000; 1.000000; 1.000000;,
       43; 1.000000; 1.000000; 1.000000; 1.000000;,
       44; 1.000000; 1.000000; 1.000000; 1.000000;,
       45; 1.000000; 1.000000; 1.000000; 1.000000;,
       46; 1.000000; 1.000000; 1.000000; 1.000000;,
       47; 1.000000; 1.000000; 1.000000; 1.000000;,
       48; 1.000000; 1.000000; 1.000000; 1.000000;,
       49; 1.000000; 1.000000; 1.000000; 1.000000;,
       50; 1.000000; 1.000000; 1.000000; 1.000000;,
       51; 1.000000; 1.000000; 1.000000; 1.000000;,
       52; 1.000000; 1.000000; 1.000000; 1.000000;,
       53; 1.000000; 1.000000; 1.000000; 1.000000;,
       54; 1.000000; 1.000000; 1.000000; 1.000000;,
       55; 1.000000; 1.000000; 1.000000; 1.000000;,
       56; 1.000000; 1.000000; 1.000000; 1.000000;,
       57; 1.000000; 1.000000; 1.000000; 1.000000;,
       58; 1.000000; 1.000000; 1.000000; 1.000000;,
       59; 1.000000; 1.000000; 1.000000; 1.000000;,
       60; 1.000000; 1.000000; 1.000000; 1.000000;,
       61; 1.000000; 1.000000; 1.000000; 1.000000;,
       62; 1.000000; 1.000000; 1.000000; 1.000000;,
       63; 1.000000; 1.000000; 1.000000; 1.000000;,
       64; 1.000000; 1.000000; 1.000000; 1.000000;,
       65; 1.000000; 1.000000; 1.000000; 1.000000;,
       66; 1.000000; 1.000000; 1.000000; 1.000000;,
       67; 1.000000; 1.000000; 1.000000; 1.000000;,
       68; 1.000000; 1.000000; 1.000000; 1.000000;,
       69; 1.000000; 1.000000; 1.000000; 1.000000;,
       70; 1.000000; 1.000000; 1.000000; 1.000000;,
       71; 1.000000; 1.000000; 1.000000; 1.000000;,
       72; 1.000000; 1.000000; 1.000000; 1.000000;,
       73; 1.000000; 1.000000; 1.000000; 1.000000;,
       74; 1.000000; 1.000000; 1.000000; 1.000000;,
       75; 1.000000; 1.000000; 1.000000; 1.000000;,
       76; 1.000000; 1.000000; 1.000000; 1.000000;,
       77; 1.000000; 1.000000; 1.000000; 1.000000;,
       78; 1.000000; 1.000000; 1.000000; 1.000000;,
       79; 1.000000; 1.000000; 1.000000; 1.000000;,
       80; 1.000000; 1.000000; 1.000000; 1.000000;,
       81; 1.000000; 1.000000; 1.000000; 1.000000;,
       82; 1.000000; 1.000000; 1.000000; 1.000000;,
       83; 1.000000; 1.000000; 1.000000; 1.000000;,
       84; 1.000000; 1.000000; 1.000000; 1.000000;,
       85; 1.000000; 1.000000; 1.000000; 1.000000;,
       86; 1.000000; 1.000000; 1.000000; 1.000000;,
       87; 1.000000; 1.000000; 1.000000; 1.000000;,
       88; 1.000000; 1.000000; 1.000000; 1.000000;,
       89; 1.000000; 1.000000; 1.000000; 1.000000;,
       90; 1.000000; 1.000000; 1.000000; 1.000000;,
       91; 1.000000; 1.000000; 1.000000; 1.000000;,
       92; 1.000000; 1.000000; 1.000000; 1.000000;,
       93; 1.000000; 1.000000; 1.000000; 1.000000;,
       94; 1.000000; 1.000000; 1.000000; 1.000000;,
       95; 1.000000; 1.000000; 1.000000; 1.000000;,
       96; 1.000000; 1.000000; 1.000000; 1.000000;,
       97; 1.000000; 1.000000; 1.000000; 1.000000;,
       98; 1.000000; 1.000000; 1.000000; 1.000000;,
       99; 1.000000; 1.000000; 1.000000; 1.000000;,
       100; 1.000000; 1.000000; 1.000000; 1.000000;,
       101; 1.000000; 1.000000; 1.000000; 1.000000;,
       102; 1.000000; 1.000000; 1.000000; 1.000000;,
       103; 1.000000; 1.000000; 1.000000; 1.000000;,
       104; 1.000000; 1.000000; 1.000000; 1.000000;,
       105; 1.000000; 1.000000; 1.000000; 1.000000;,
       106; 1.000000; 1.000000; 1.000000; 1.000000;,
       107; 1.000000; 1.000000; 1.000000; 1.000000;,
       108; 1.000000; 1.000000; 1.000000; 1.000000;,
       109; 1.000000; 1.000000; 1.000000; 1.000000;,
       110; 1.000000; 1.000000; 1.000000; 1.000000;,
       111; 1.000000; 1.000000; 1.000000; 1.000000;,
       112; 1.000000; 1.000000; 1.000000; 1.000000;,
       113; 1.000000; 1.000000; 1.000000; 1.000000;,
       114; 1.000000; 1.000000; 1.000000; 1.000000;,
       115; 1.000000; 1.000000; 1.000000; 1.000000;,
       116; 1.000000; 1.000000; 1.000000; 1.000000;,
       117; 1.000000; 1.000000; 1.000000; 1.000000;,
       118; 1.000000; 1.000000; 1.000000; 1.000000;,
       119; 1.000000; 1.000000; 1.000000; 1.000000;,
       120; 1.000000; 1.000000; 1.000000; 1.000000;,
       121; 1.000000; 1.000000; 1.000000; 1.000000;,
       122; 1.000000; 1.000000; 1.000000; 1.000000;,
       123; 1.000000; 1.000000; 1.000000; 1.000000;,
       124; 1.000000; 1.000000; 1.000000; 1.000000;,
       125; 1.000000; 1.000000; 1.000000; 1.000000;,
       126; 1.000000; 1.000000; 1.000000; 1.000000;,
       127; 1.000000; 1.000000; 1.000000; 1.000000;,
       128; 1.000000; 1.000000; 1.000000; 1.000000;,
       129; 1.000000; 1.000000; 1.000000; 1.000000;,
       130; 1.000000; 1.000000; 1.000000; 1.000000;,
       131; 1.000000; 1.000000; 1.000000; 1.000000;,
       132; 1.000000; 1.000000; 1.000000; 1.000000;,
       133; 1.000000; 1.000000; 1.000000; 1.000000;,
       134; 1.000000; 1.000000; 1.000000; 1.000000;,
       135; 1.000000; 1.000000; 1.000000; 1.000000;,
       136; 1.000000; 1.000000; 1.000000; 1.000000;,
       137; 1.000000; 1.000000; 1.000000; 1.000000;,
       138; 1.000000; 1.000000; 1.000000; 1.000000;,
       139; 1.000000; 1.000000; 1.000000; 1.000000;,
       140; 1.000000; 1.000000; 1.000000; 1.000000;,
       141; 1.000000; 1.000000; 1.000000; 1.000000;,
       142; 1.000000; 1.000000; 1.000000; 1.000000;,
       143; 1.000000; 1.000000; 1.000000; 1.000000;,
       144; 1.000000; 1.000000; 1.000000; 1.000000;,
       145; 1.000000; 1.000000; 1.000000; 1.000000;,
       146; 1.000000; 1.000000; 1.000000; 1.000000;,
       147; 1.000000; 1.000000; 1.000000; 1.000000;,
       148; 1.000000; 1.000000; 1.000000; 1.000000;,
       149; 1.000000; 1.000000; 1.000000; 1.000000;,
       150; 1.000000; 1.000000; 1.000000; 1.000000;,
       151; 1.000000; 1.000000; 1.000000; 1.000000;,
       152; 1.000000; 1.000000; 1.000000; 1.000000;,
       153; 1.000000; 1.000000; 1.000000; 1.000000;,
       154; 1.000000; 1.000000; 1.000000; 1.000000;,
       155; 1.000000; 1.000000; 1.000000; 1.000000;,
       156; 1.000000; 1.000000; 1.000000; 1.000000;,
       157; 1.000000; 1.000000; 1.000000; 1.000000;,
       158; 1.000000; 1.000000; 1.000000; 1.000000;,
       159; 1.000000; 1.000000; 1.000000; 1.000000;,
       160; 1.000000; 1.000000; 1.000000; 1.000000;,
       161; 1.000000; 1.000000; 1.000000; 1.000000;,
       162; 1.000000; 1.000000; 1.000000; 1.000000;,
       163; 1.000000; 1.000000; 1.000000; 1.000000;,
       164; 1.000000; 1.000000; 1.000000; 1.000000;,
       165; 1.000000; 1.000000; 1.000000; 1.000000;,
       166; 1.000000; 1.000000; 1.000000; 1.000000;,
       167; 1.000000; 1.000000; 1.000000; 1.000000;,
       168; 1.000000; 1.000000; 1.000000; 1.000000;,
       169; 1.000000; 1.000000; 1.000000; 1.000000;,
       170; 1.000000; 1.000000; 1.000000; 1.000000;,
       171; 1.000000; 1.000000; 1.000000; 1.000000;,
       172; 1.000000; 1.000000; 1.000000; 1.000000;,
       173; 1.000000; 1.000000; 1.000000; 1.000000;,
       174; 1.000000; 1.000000; 1.000000; 1.000000;,
       175; 1.000000; 1.000000; 1.000000; 1.000000;,
       176; 1.000000; 1.000000; 1.000000; 1.000000;,
       177; 1.000000; 1.000000; 1.000000; 1.000000;,
       178; 1.000000; 1.000000; 1.000000; 1.000000;,
       179; 1.000000; 1.000000; 1.000000; 1.000000;,
       180; 1.000000; 1.000000; 1.000000; 1.000000;,
       181; 1.000000; 1.000000; 1.000000; 1.000000;,
       182; 1.000000; 1.000000; 1.000000; 1.000000;,
       183; 1.000000; 1.000000; 1.000000; 1.000000;,
       184; 1.000000; 1.000000; 1.000000; 1.000000;,
       185; 1.000000; 1.000000; 1.000000; 1.000000;,
       186; 1.000000; 1.000000; 1.000000; 1.000000;,
       187; 1.000000; 1.000000; 1.000000; 1.000000;,
       188; 1.000000; 1.000000; 1.000000; 1.000000;,
       189; 1.000000; 1.000000; 1.000000; 1.000000;,
       190; 1.000000; 1.000000; 1.000000; 1.000000;,
       191; 1.000000; 1.000000; 1.000000; 1.000000;,
       192; 1.000000; 1.000000; 1.000000; 1.000000;,
       193; 1.000000; 1.000000; 1.000000; 1.000000;,
       194; 1.000000; 1.000000; 1.000000; 1.000000;,
       195; 1.000000; 1.000000; 1.000000; 1.000000;,
       196; 1.000000; 1.000000; 1.000000; 1.000000;,
       197; 1.000000; 1.000000; 1.000000; 1.000000;,
       198; 1.000000; 1.000000; 1.000000; 1.000000;,
       199; 1.000000; 1.000000; 1.000000; 1.000000;,
       200; 1.000000; 1.000000; 1.000000; 1.000000;,
       201; 1.000000; 1.000000; 1.000000; 1.000000;,
       202; 1.000000; 1.000000; 1.000000; 1.000000;,
       203; 1.000000; 1.000000; 1.000000; 1.000000;,
       204; 1.000000; 1.000000; 1.000000; 1.000000;,
       205; 1.000000; 1.000000; 1.000000; 1.000000;,
       206; 1.000000; 1.000000; 1.000000; 1.000000;,
       207; 1.000000; 1.000000; 1.000000; 1.000000;,
       208; 1.000000; 1.000000; 1.000000; 1.000000;,
       209; 1.000000; 1.000000; 1.000000; 1.000000;,
       210; 1.000000; 1.000000; 1.000000; 1.000000;,
       211; 1.000000; 1.000000; 1.000000; 1.000000;,
       212; 1.000000; 1.000000; 1.000000; 1.000000;,
       213; 1.000000; 1.000000; 1.000000; 1.000000;,
       214; 1.000000; 1.000000; 1.000000; 1.000000;,
       215; 1.000000; 1.000000; 1.000000; 1.000000;,
       216; 1.000000; 1.000000; 1.000000; 1.000000;,
       217; 1.000000; 1.000000; 1.000000; 1.000000;,
       218; 1.000000; 1.000000; 1.000000; 1.000000;,
       219; 1.000000; 1.000000; 1.000000; 1.000000;,
       220; 1.000000; 1.000000; 1.000000; 1.000000;,
       221; 1.000000; 1.000000; 1.000000; 1.000000;,
       222; 1.000000; 1.000000; 1.000000; 1.000000;,
       223; 1.000000; 1.000000; 1.000000; 1.000000;,
       224; 1.000000; 1.000000; 1.000000; 1.000000;,
       225; 1.000000; 1.000000; 1.000000; 1.000000;,
       226; 1.000000; 1.000000; 1.000000; 1.000000;,
       227; 1.000000; 1.000000; 1.000000; 1.000000;,
       228; 1.000000; 1.000000; 1.000000; 1.000000;,
       229; 1.000000; 1.000000; 1.000000; 1.000000;,
       230; 1.000000; 1.000000; 1.000000; 1.000000;,
       231; 1.000000; 1.000000; 1.000000; 1.000000;,
       232; 1.000000; 1.000000; 1.000000; 1.000000;,
       233; 1.000000; 1.000000; 1.000000; 1.000000;,
       234; 1.000000; 1.000000; 1.000000; 1.000000;,
       235; 1.000000; 1.000000; 1.000000; 1.000000;,
       236; 1.000000; 1.000000; 1.000000; 1.000000;,
       237; 1.000000; 1.000000; 1.000000; 1.000000;;
      }

      MeshMaterialList {
       2;
       248;
       0,
       0,
       0,
       0,
       0,
       0,
       0,
       0,
       0,
       0,
       0,
       0,
       0,
       0,
       0,
       0,
       0,
       0,
       0,
       0,
       0,
       0,
       0,
       0,
       0,
       0,
       0,
       0,
       0,
       0,
       0,
       0,
       0,
       0,
       0,
       0,
       0,
       0,
       0,
       0,
       0,
       0,
       0,
       0,
       0,
       0,
       0,
       0,
       0,
       0,
       0,
       0,
       0,
       0,
       0,
       0,
       0,
       0,
       0,
       0,
       0,
       0,
       0,
       0,
       0,
       0,
       0,
       0,
       0,
       0,
       0,
       0,
       1,
       1,
       1,
       1,
       1,
       1,
       1,
       1,
       1,
       1,
       1,
       1,
       1,
       1,
       1,
       1,
       1,
       1,
       1,
       1,
       1,
       1,
       1,
       1,
       1,
       1,
       1,
       1,
       1,
       1,
       1,
       1,
       1,
       1,
       1,
       1,
       1,
       1,
       1,
       1,
       1,
       1,
       1,
       1,
       1,
       1,
       1,
       1,
       1,
       1,
       1,
       1,
       1,
       1,
       1,
       1,
       1,
       1,
       1,
       1,
       1,
       1,
       1,
       1,
       1,
       1,
       1,
       1,
       1,
       1,
       1,
       1,
       1,
       1,
       1,
       1,
       1,
       1,
       1,
       1,
       1,
       1,
       1,
       1,
       1,
       1,
       1,
       1,
       1,
       1,
       1,
       1,
       1,
       1,
       1,
       1,
       1,
       1,
       1,
       1,
       1,
       1,
       1,
       1,
       1,
       1,
       1,
       1,
       1,
       1,
       1,
       1,
       1,
       1,
       1,
       1,
       1,
       1,
       1,
       1,
       1,
       1,
       1,
       1,
       1,
       1,
       1,
       1,
       1,
       1,
       1,
       1,
       1,
       1,
       1,
       1,
       1,
       1,
       1,
       1,
       1,
       1,
       1,
       1,
       1,
       1,
       1,
       1,
       1,
       1,
       1,
       1,
       1,
       1,
       1,
       1,
       1,
       1,
       1,
       1,
       1,
       1,
       1,
       1,
       1,
       1,
       1,
       1,
       1,
       1,
       1,
       1,
       1,
       1,
       1,
       1;

       Material flag {
        1.000000; 1.000000; 1.000000; 1.000000;;
        1.000000;
        0.000000; 0.000000; 0.000000;;
        0.000000; 0.000000; 0.000000;;

        TextureFilename {
         "flag.jpg";
        }
       }

       Material drawbridge_metal {
        0.992157; 0.992157; 0.992157; 1.000000;;
        1.000000;
        0.150000; 0.150000; 0.150000;;
        0.000000; 0.000000; 0.000000;;
       }

      }

      XSkinMeshHeader {
       1;
       1;
       2;
      }

      SkinWeights {
       "Form1";
       50;
       0,
       1,
       2,
       3,
       4,
       5,
       6,
       7,
       8,
       9,
       10,
       11,
       12,
       13,
       14,
       15,
       16,
       17,
       18,
       19,
       20,
       21,
       22,
       23,
       24,
       25,
       26,
       27,
       28,
       29,
       30,
       31,
       32,
       33,
       34,
       35,
       36,
       37,
       38,
       39,
       40,
       41,
       42,
       43,
       44,
       45,
       46,
       47,
       48,
       49;
       1.000000,
       1.000000,
       1.000000,
       1.000000,
       1.000000,
       1.000000,
       1.000000,
       1.000000,
       1.000000,
       1.000000,
       1.000000,
       1.000000,
       1.000000,
       1.000000,
       1.000000,
       1.000000,
       1.000000,
       1.000000,
       1.000000,
       1.000000,
       1.000000,
       1.000000,
       1.000000,
       1.000000,
       1.000000,
       1.000000,
       1.000000,
       1.000000,
       1.000000,
       1.000000,
       1.000000,
       1.000000,
       1.000000,
       1.000000,
       1.000000,
       1.000000,
       1.000000,
       1.000000,
       1.000000,
       1.000000,
       1.000000,
       1.000000,
       1.000000,
       1.000000,
       1.000000,
       1.000000,
       1.000000,
       1.000000,
       1.000000,
       1.000000;
          1.000000, -0.000000, 0.000000, 0.000000,
          -0.000000, 1.000000, -0.000000, 0.000000,
          0.000000, -0.000000, 1.000000, 0.000000,
          -0.000000, -0.000000, -0.000000, 1.000000;;
      }

      SkinWeights {
       "Form3";
       188;
       50,
       51,
       52,
       53,
       54,
       55,
       56,
       57,
       58,
       59,
       60,
       61,
       62,
       63,
       64,
       65,
       66,
       67,
       68,
       69,
       70,
       71,
       72,
       73,
       74,
       75,
       76,
       77,
       78,
       79,
       80,
       81,
       82,
       83,
       84,
       85,
       86,
       87,
       88,
       89,
       90,
       91,
       92,
       93,
       94,
       95,
       96,
       97,
       98,
       99,
       100,
       101,
       102,
       103,
       104,
       105,
       106,
       107,
       108,
       109,
       110,
       111,
       112,
       113,
       114,
       115,
       116,
       117,
       118,
       119,
       120,
       121,
       122,
       123,
       124,
       125,
       126,
       127,
       128,
       129,
       130,
       131,
       132,
       133,
       134,
       135,
       136,
       137,
       138,
       139,
       140,
       141,
       142,
       143,
       144,
       145,
       146,
       147,
       148,
       149,
       150,
       151,
       152,
       153,
       154,
       155,
       156,
       157,
       158,
       159,
       160,
       161,
       162,
       163,
       164,
       165,
       166,
       167,
       168,
       169,
       170,
       171,
       172,
       173,
       174,
       175,
       176,
       177,
       178,
       179,
       180,
       181,
       182,
       183,
       184,
       185,
       186,
       187,
       188,
       189,
       190,
       191,
       192,
       193,
       194,
       195,
       196,
       197,
       198,
       199,
       200,
       201,
       202,
       203,
       204,
       205,
       206,
       207,
       208,
       209,
       210,
       211,
       212,
       213,
       214,
       215,
       216,
       217,
       218,
       219,
       220,
       221,
       222,
       223,
       224,
       225,
       226,
       227,
       228,
       229,
       230,
       231,
       232,
       233,
       234,
       235,
       236,
       237;
       1.000000,
       1.000000,
       1.000000,
       1.000000,
       1.000000,
       1.000000,
       1.000000,
       1.000000,
       1.000000,
       1.000000,
       1.000000,
       1.000000,
       1.000000,
       1.000000,
       1.000000,
       1.000000,
       1.000000,
       1.000000,
       1.000000,
       1.000000,
       1.000000,
       1.000000,
       1.000000,
       1.000000,
       1.000000,
       1.000000,
       1.000000,
       1.000000,
       1.000000,
       1.000000,
       1.000000,
       1.000000,
       1.000000,
       1.000000,
       1.000000,
       1.000000,
       1.000000,
       1.000000,
       1.000000,
       1.000000,
       1.000000,
       1.000000,
       1.000000,
       1.000000,
       1.000000,
       1.000000,
       1.000000,
       1.000000,
       1.000000,
       1.000000,
       1.000000,
       1.000000,
       1.000000,
       1.000000,
       1.000000,
       1.000000,
       1.000000,
       1.000000,
       1.000000,
       1.000000,
       1.000000,
       1.000000,
       1.000000,
       1.000000,
       1.000000,
       1.000000,
       1.000000,
       1.000000,
       1.000000,
       1.000000,
       1.000000,
       1.000000,
       1.000000,
       1.000000,
       1.000000,
       1.000000,
       1.000000,
       1.000000,
       1.000000,
       1.000000,
       1.000000,
       1.000000,
       1.000000,
       1.000000,
       1.000000,
       1.000000,
       1.000000,
       1.000000,
       1.000000,
       1.000000,
       1.000000,
       1.000000,
       1.000000,
       1.000000,
       1.000000,
       1.000000,
       1.000000,
       1.000000,
       1.000000,
       1.000000,
       1.000000,
       1.000000,
       1.000000,
       1.000000,
       1.000000,
       1.000000,
       1.000000,
       1.000000,
       1.000000,
       1.000000,
       1.000000,
       1.000000,
       1.000000,
       1.000000,
       1.000000,
       1.000000,
       1.000000,
       1.000000,
       1.000000,
       1.000000,
       1.000000,
       1.000000,
       1.000000,
       1.000000,
       1.000000,
       1.000000,
       1.000000,
       1.000000,
       1.000000,
       1.000000,
       1.000000,
       1.000000,
       1.000000,
       1.000000,
       1.000000,
       1.000000,
       1.000000,
       1.000000,
       1.000000,
       1.000000,
       1.000000,
       1.000000,
       1.000000,
       1.000000,
       1.000000,
       1.000000,
       1.000000,
       1.000000,
       1.000000,
       1.000000,
       1.000000,
       1.000000,
       1.000000,
       1.000000,
       1.000000,
       1.000000,
       1.000000,
       1.000000,
       1.000000,
       1.000000,
       1.000000,
       1.000000,
       1.000000,
       1.000000,
       1.000000,
       1.000000,
       1.000000,
       1.000000,
       1.000000,
       1.000000,
       1.000000,
       1.000000,
       1.000000,
       1.000000,
       1.000000,
       1.000000,
       1.000000,
       1.000000,
       1.000000,
       1.000000,
       1.000000,
       1.000000,
       1.000000,
       1.000000,
       1.000000,
       1.000000,
       1.000000,
       1.000000;
          1.000000, -0.000000, 0.000000, 0.000000,
          -0.000000, 1.000000, -0.000000, 0.000000,
          0.000000, -0.000000, 1.000000, 0.000000,
          -0.000000, -0.000000, -0.000000, 1.000000;;
      }


     }
   }

// Start of Animation

AnimationSet Untitled {
}
