xof 0303txt 0032

// DirectX 9.0 file
// Creator: Ultimate Unwrap3D Pro v3.19
// Website: http://www.unwrap3d.com
// Time: Thu Dec 10 21:38:24 2009

// Start of Templates

template VertexDuplicationIndices {
 <b8d65549-d7c9-4995-89cf-53a9a8b031e3>
 DWORD nIndices;
 DWORD nOriginalVertices;
 array DWORD indices[nIndices];
}

template FVFData {
 <b6e70a0e-8ef9-4e83-94ad-ecc8b0c04897>
 DWORD dwFVF;
 DWORD nDWords;
 array DWORD data[nDWords];
}

template Header {
 <3D82AB43-62DA-11cf-AB39-0020AF71E433>
 WORD major;
 WORD minor;
 DWORD flags;
}

template Vector {
 <3D82AB5E-62DA-11cf-AB39-0020AF71E433>
 FLOAT x;
 FLOAT y;
 FLOAT z;
}

template Coords2d {
 <F6F23F44-7686-11cf-8F52-0040333594A3>
 FLOAT u;
 FLOAT v;
}

template Matrix4x4 {
 <F6F23F45-7686-11cf-8F52-0040333594A3>
 array FLOAT matrix[16];
}

template ColorRGBA {
 <35FF44E0-6C7C-11cf-8F52-0040333594A3>
 FLOAT red;
 FLOAT green;
 FLOAT blue;
 FLOAT alpha;
}

template ColorRGB {
 <D3E16E81-7835-11cf-8F52-0040333594A3>
 FLOAT red;
 FLOAT green;
 FLOAT blue;
}

template IndexedColor {
 <1630B820-7842-11cf-8F52-0040333594A3>
 DWORD index;
 ColorRGBA indexColor;
}

template Material {
 <3D82AB4D-62DA-11cf-AB39-0020AF71E433>
 ColorRGBA faceColor;
 FLOAT power;
 ColorRGB specularColor;
 ColorRGB emissiveColor;
 [...]
}

template TextureFilename {
 <A42790E1-7810-11cf-8F52-0040333594A3>
 STRING filename;
}

template MeshFace {
 <3D82AB5F-62DA-11cf-AB39-0020AF71E433>
 DWORD nFaceVertexIndices;
 array DWORD faceVertexIndices[nFaceVertexIndices];
}

template MeshTextureCoords {
 <F6F23F40-7686-11cf-8F52-0040333594A3>
 DWORD nTextureCoords;
 array Coords2d textureCoords[nTextureCoords];
}

template MeshMaterialList {
 <F6F23F42-7686-11cf-8F52-0040333594A3>
 DWORD nMaterials;
 DWORD nFaceIndexes;
 array DWORD faceIndexes[nFaceIndexes];
 [Material]
}

template MeshNormals {
 <F6F23F43-7686-11cf-8F52-0040333594A3>
 DWORD nNormals;
 array Vector normals[nNormals];
 DWORD nFaceNormals;
 array MeshFace faceNormals[nFaceNormals];
}

template MeshVertexColors {
 <1630B821-7842-11cf-8F52-0040333594A3>
 DWORD nVertexColors;
 array IndexedColor vertexColors[nVertexColors];
}

template Mesh {
 <3D82AB44-62DA-11cf-AB39-0020AF71E433>
 DWORD nVertices;
 array Vector vertices[nVertices];
 DWORD nFaces;
 array MeshFace faces[nFaces];
 [...]
}

template FrameTransformMatrix {
 <F6F23F41-7686-11cf-8F52-0040333594A3>
 Matrix4x4 frameMatrix;
}

template Frame {
 <3D82AB46-62DA-11cf-AB39-0020AF71E433>
 [...]
}

template FloatKeys {
 <10DD46A9-775B-11cf-8F52-0040333594A3>
 DWORD nValues;
 array FLOAT values[nValues];
}

template TimedFloatKeys {
 <F406B180-7B3B-11cf-8F52-0040333594A3>
 DWORD time;
 FloatKeys tfkeys;
}

template AnimationKey {
 <10DD46A8-775B-11cf-8F52-0040333594A3>
 DWORD keyType;
 DWORD nKeys;
 array TimedFloatKeys keys[nKeys];
}

template AnimationOptions {
 <E2BF56C0-840F-11cf-8F52-0040333594A3>
 DWORD openclosed;
 DWORD positionquality;
}

template Animation {
 <3D82AB4F-62DA-11cf-AB39-0020AF71E433>
 [...]
}

template AnimationSet {
 <3D82AB50-62DA-11cf-AB39-0020AF71E433>
 [Animation]
}

template XSkinMeshHeader {
 <3CF169CE-FF7C-44ab-93C0-F78F62D172E2>
 WORD nMaxSkinWeightsPerVertex;
 WORD nMaxSkinWeightsPerFace;
 WORD nBones;
}

template SkinWeights {
 <6F0D123B-BAD2-4167-A0D0-80224F25FABB>
 STRING transformNodeName;
 DWORD nWeights;
 array DWORD vertexIndices[nWeights];
 array FLOAT weights[nWeights];
 Matrix4x4 matrixOffset;
}

template AnimTicksPerSecond {
 <9E415A43-7BA6-4a73-8743-B73D47E88476>
 DWORD AnimTicksPerSecond;
}

AnimTicksPerSecond {
 30;
}

// Start of Frames

   Frame Body {
      FrameTransformMatrix {
       1.000000, 0.000000, 0.000000, 0.000000,
       0.000000, 1.000000, 0.000000, 0.000000,
       0.000000, 0.000000, 1.000000, 0.000000,
       0.000000, 0.000000, 0.000000, 1.000000;;
      }

   }
   Frame def_surf_mat {
      FrameTransformMatrix {
       1.000000, 0.000000, 0.000000, 0.000000,
       0.000000, 1.000000, 0.000000, 0.000000,
       0.000000, 0.000000, 1.000000, 0.000000,
       0.000000, 0.000000, 0.000000, 1.000000;;
      }

   }

   Frame Body0 {
      FrameTransformMatrix {
       1.000000, 0.000000, 0.000000, 0.000000,
       0.000000, 1.000000, 0.000000, 0.000000,
       0.000000, 0.000000, 1.000000, 0.000000,
       0.000000, 0.000000, 0.000000, 1.000000;;
      }

      Mesh skinnedMesh {
       289;
       -3.771035; 14.352798; -0.006348;,
       -3.055015; 13.718800; -1.653748;,
       -4.031325; 13.718800; -0.006348;,
       -2.794715; 14.352798; -1.653748;,
       -6.875665; 5.841099; 0.008553;,
       -5.497075; 6.889400; -2.034744;,
       -5.484165; 5.841099; -2.101250;,
       -6.886515; 6.889400; 0.008354;,
       -6.928355; 4.942600; 0.008652;,
       -5.536155; 4.942600; -2.123848;,
       -6.927275; 4.410099; 0.008354;,
       -5.537235; 4.410099; -2.054344;,
       -6.921885; 2.681801; 0.006950;,
       -5.781165; 2.681801; -1.708649;,
       -6.915465; 1.026798; 0.005249;,
       -6.010725; 0.655701; -1.296249;,
       -6.893826; 0.000000; 0.000053;,
       -0.584378; 14.682198; -3.617348;,
       0.590873; 14.765301; 0.006454;,
       0.590873; 14.765301; -3.720444;,
       -0.636036; 14.682198; 0.006653;,
       -1.387235; 14.515198; -3.184044;,
       -2.239565; 14.515198; 0.007050;,
       -0.584377; 14.064999; -3.617348;,
       0.590873; 14.765301; -3.720444;,
       0.590873; 14.124901; -3.720444;,
       -0.584378; 14.682198; -3.617348;,
       -1.398825; 13.932800; -3.184044;,
       -1.387235; 14.515198; -3.184044;,
       -1.412585; 9.940098; -4.345146;,
       -0.539886; 9.940098; -4.451744;,
       0.590873; 9.940098; -4.315147;,
       -0.522762; 7.125999; -4.686745;,
       0.590873; 8.520000; -4.442146;,
       0.590873; 7.315300; -4.541451;,
       -0.530287; 8.520000; -4.583649;,
       -1.397025; 6.889400; -4.591751;,
       -1.403855; 8.520000; -4.483551;,
       -0.503526; 6.199600; -4.804848;,
       0.590873; 6.267097; -4.656647;,
       -1.389105; 6.125099; -4.717049;,
       -0.500550; 5.300999; -4.845551;,
       0.590873; 5.368500; -4.695747;,
       -1.386415; 5.226601; -4.759750;,
       -0.502588; 4.863300; -4.719749;,
       0.590873; 4.836098; -4.574547;,
       -1.387595; 4.694099; -4.627647;,
       -0.485198; 3.391998; -4.714447;,
       0.590873; 3.212700; -4.695946;,
       -1.393455; 3.308399; -4.626350;,
       -0.495586; 2.087898; -4.783844;,
       0.590873; 1.973598; -4.752251;,
       -1.400445; 2.228500; -4.769646;,
       -1.752215; 14.482399; -2.898148;,
       -2.548865; 14.482399; 0.006851;,
       -2.794715; 14.352798; -1.653748;,
       -3.771035; 14.352798; -0.006348;,
       -1.764615; 13.895500; -2.904747;,
       -1.752215; 14.482399; -2.898148;,
       -2.186545; 9.940098; -4.016548;,
       -5.031015; 9.940098; -1.904045;,
       -2.296805; 6.889400; -4.235146;,
       -2.177935; 8.520000; -4.156044;,
       -5.412605; 8.520000; -1.977448;,
       -2.583725; 6.105801; -4.390945;,
       -2.581055; 5.207500; -4.433647;,
       -2.582325; 4.674999; -4.395348;,
       -2.585885; 3.268997; -4.382744;,
       -3.377515; 2.060497; -3.822044;,
       4.341255; 14.352798; -1.653748;,
       5.577875; 13.718800; -0.006348;,
       4.601555; 13.718800; -1.653748;,
       5.317575; 14.352798; 0.006355;,
       6.448935; 9.940098; -0.007744;,
       5.063535; 9.940098; -1.904045;,
       6.832785; 8.520000; -0.008049;,
       5.557145; 7.060497; -2.034744;,
       5.445115; 8.520000; -1.977448;,
       6.928355; 6.836098; -0.008347;,
       5.375134; 6.028099; -2.101250;,
       6.748364; 5.803398; -0.008545;,
       5.281344; 5.132999; -2.123848;,
       6.655265; 4.908100; -0.008644;,
       5.196424; 4.607300; -2.054344;,
       6.568214; 4.382797; -0.008347;,
       5.302805; 2.521797; -1.708649;,
       6.428555; 2.337601; -0.006950;,
       5.023965; 0.549297; -1.641747;,
       6.309365; 1.977600; -0.005249;,
       6.203085; 0.071999; -0.002647;,
       1.555105; 14.682198; 0.006653;,
       1.503445; 14.682198; -3.617348;,
       3.158625; 14.515198; 0.007050;,
       2.306295; 14.515198; -3.184044;,
       1.503445; 14.682198; -3.617348;,
       1.503445; 14.064999; -3.617348;,
       2.306295; 14.515198; -3.184044;,
       2.317895; 13.932800; -3.184044;,
       1.458955; 9.940098; -4.451744;,
       2.331655; 9.940098; -4.345146;,
       1.449355; 8.520000; -4.583649;,
       1.441825; 7.125999; -4.686745;,
       2.322915; 8.520000; -4.483551;,
       2.316085; 6.889400; -4.591751;,
       1.422595; 6.199600; -4.804848;,
       2.308175; 6.125099; -4.717049;,
       1.419615; 5.300999; -4.845551;,
       2.305475; 5.226601; -4.759750;,
       1.421655; 4.863300; -4.719749;,
       2.306655; 4.694099; -4.627647;,
       1.404265; 3.063297; -4.714447;,
       2.312515; 2.979698; -4.626350;,
       1.414655; 1.848900; -4.783844;,
       2.468905; 1.481499; -4.769646;,
       4.095405; 14.482399; 0.006851;,
       3.119475; 14.482399; -2.898148;,
       5.317575; 14.352798; 0.006355;,
       4.341255; 14.352798; -1.653748;,
       3.119475; 14.482399; -2.898148;,
       3.131875; 13.895500; -2.904747;,
       3.105605; 9.940098; -4.016548;,
       3.097005; 8.520000; -4.156044;,
       3.215875; 6.889400; -4.235146;,
       3.502785; 6.105801; -4.390945;,
       3.500125; 5.207500; -4.433647;,
       3.501385; 4.674999; -4.395348;,
       3.504955; 2.940300; -4.382744;,
       3.997775; 1.164101; -3.822044;,
       -0.536920; 9.501301; -4.492546;,
       -1.409895; 9.501499; -4.387947;,
       0.590873; 9.501099; -4.354347;,
       -2.185385; 9.684498; -4.059647;,
       6.563925; 9.514698; -0.007851;,
       5.177754; 9.514999; -1.926048;,
       1.455985; 9.501301; -4.492546;,
       2.328955; 9.501499; -4.387947;,
       3.102955; 9.501499; -4.059647;,
       -0.532990; 8.919899; -4.546547;,
       -1.406315; 8.920300; -4.444550;,
       0.590873; 8.919498; -4.406448;,
       -2.188675; 9.029301; -4.107849;,
       5.329095; 8.951797; -1.955147;,
       6.716295; 8.951000; -0.007950;,
       2.325385; 8.920300; -4.444550;,
       1.452055; 8.919899; -4.546547;,
       3.099425; 8.920399; -4.116745;,
       -5.144865; 9.578400; -1.926048;,
       -2.487545; 9.673698; -3.841850;,
       -2.493735; 9.056297; -3.895546;,
       -5.284085; 9.303600; -1.953445;,
       -6.309075; 9.940098; 0.028152;,
       -6.695415; 8.520000; 0.028755;,
       -6.487255; 9.526299; 0.028053;,
       -6.569255; 9.404198; 0.028549;,
       -5.147575; 9.250900; -1.785446;,
       -2.351045; 9.620998; -3.673851;,
       -2.357235; 9.003597; -3.727547;,
       -5.008365; 9.525700; -1.757950;,
       -6.379325; 9.351498; -0.095947;,
       -6.289055; 9.491798; -0.099350;,
       -6.421576; 9.377300; -0.185844;,
       -6.334265; 9.525101; -0.189346;,
       -2.794715; 14.352798; 1.653755;,
       -3.055015; 13.718800; 1.653755;,
       -5.484165; 5.841099; 2.101250;,
       -5.497075; 6.889400; 2.034752;,
       -5.536155; 4.942600; 2.123856;,
       -5.537235; 4.410099; 2.054352;,
       -5.781165; 2.681801; 1.708656;,
       -6.010725; 0.655701; 1.296249;,
       0.590873; 14.765301; 3.720451;,
       -0.584378; 14.682198; 3.617355;,
       -1.387235; 14.515198; 3.184052;,
       -0.584378; 14.682198; 3.617355;,
       0.590873; 14.124901; 3.720451;,
       0.590873; 14.765301; 3.720451;,
       -0.584377; 14.064999; 3.617355;,
       -1.387235; 14.515198; 3.184052;,
       -1.398825; 13.932800; 3.184052;,
       -0.539886; 9.940098; 4.451752;,
       -1.412585; 9.940098; 4.345154;,
       0.590873; 9.940098; 4.315155;,
       -0.530287; 8.520000; 4.583656;,
       0.590873; 7.315300; 4.541550;,
       0.590873; 8.520000; 4.442154;,
       -0.522762; 7.125999; 4.686752;,
       -1.403855; 8.520000; 4.483551;,
       -1.397025; 6.889400; 4.591751;,
       0.590873; 6.267097; 4.656654;,
       -0.503526; 6.199600; 4.804855;,
       -1.389105; 6.125099; 4.717056;,
       0.590873; 5.368500; 4.695755;,
       -0.500550; 5.300999; 4.845551;,
       -1.386415; 5.226601; 4.759750;,
       0.590873; 4.836098; 4.574554;,
       -0.502588; 4.863300; 4.719749;,
       -1.387595; 4.694099; 4.627655;,
       0.590873; 3.212700; 4.696053;,
       -0.485198; 3.391998; 4.714455;,
       -1.393455; 3.308399; 4.626350;,
       0.590873; 1.973598; 4.752251;,
       -0.495586; 2.087898; 4.783852;,
       -1.400445; 2.228500; 4.769653;,
       -1.752215; 14.482399; 2.898155;,
       -2.794715; 14.352798; 1.653755;,
       -1.752215; 14.482399; 2.898155;,
       -1.764615; 13.895500; 2.904755;,
       -5.031015; 9.940098; 1.904053;,
       -2.186545; 9.940098; 4.016556;,
       -2.177935; 8.520000; 4.156151;,
       -2.296805; 6.889400; 4.235153;,
       -5.412605; 8.520000; 1.977455;,
       -2.583725; 6.105801; 4.390953;,
       -2.581055; 5.207500; 4.433655;,
       -2.582325; 4.674999; 4.395355;,
       -2.585885; 3.268997; 4.382751;,
       -3.377515; 2.060497; 3.822052;,
       4.601555; 13.718800; 1.653755;,
       4.341255; 14.352798; 1.653755;,
       5.063535; 9.940098; 1.904053;,
       5.445115; 8.520000; 1.977455;,
       5.557145; 7.060497; 2.034752;,
       5.375134; 6.028099; 2.101250;,
       5.281344; 5.132999; 2.123856;,
       5.196424; 4.607300; 2.054352;,
       5.302805; 2.521797; 1.708656;,
       5.023965; 0.549297; 1.641754;,
       1.503445; 14.682198; 3.617355;,
       2.306295; 14.515198; 3.184052;,
       1.503445; 14.064999; 3.617355;,
       1.503445; 14.682198; 3.617355;,
       2.317895; 13.932800; 3.184052;,
       2.306295; 14.515198; 3.184052;,
       2.331655; 9.940098; 4.345154;,
       1.458955; 9.940098; 4.451752;,
       1.441825; 7.125999; 4.686752;,
       1.449355; 8.520000; 4.583656;,
       2.316085; 6.889400; 4.591751;,
       2.322915; 8.520000; 4.483551;,
       1.422595; 6.199600; 4.804855;,
       2.308175; 6.125099; 4.717056;,
       1.419615; 5.300999; 4.845551;,
       2.305475; 5.226601; 4.759750;,
       1.421655; 4.863300; 4.719749;,
       2.306655; 4.694099; 4.627655;,
       1.404265; 3.063297; 4.714455;,
       2.312515; 2.979698; 4.626350;,
       1.414655; 1.848900; 4.783852;,
       2.468905; 1.481499; 4.769653;,
       3.119475; 14.482399; 2.898155;,
       4.341255; 14.352798; 1.653755;,
       3.131875; 13.895500; 2.904755;,
       3.119475; 14.482399; 2.898155;,
       3.105605; 9.940098; 4.016556;,
       3.215875; 6.889400; 4.235153;,
       3.097005; 8.520000; 4.156151;,
       3.502785; 6.105801; 4.390953;,
       3.500125; 5.207500; 4.433655;,
       3.501385; 4.674999; 4.395355;,
       3.504955; 2.940300; 4.382751;,
       3.997775; 1.164101; 3.822052;,
       -1.409895; 9.501499; 4.387955;,
       -0.536920; 9.501301; 4.492554;,
       0.590873; 9.501099; 4.354355;,
       -2.185385; 9.684498; 4.059654;,
       5.177754; 9.514999; 1.926056;,
       2.328955; 9.501499; 4.387955;,
       1.455985; 9.501301; 4.492554;,
       3.102955; 9.501499; 4.059654;,
       -1.406315; 8.920300; 4.444550;,
       -0.532990; 8.919899; 4.546555;,
       0.590873; 8.919498; 4.406456;,
       -2.188675; 9.029301; 4.107849;,
       5.329095; 8.951797; 1.955154;,
       1.452055; 8.919899; 4.546555;,
       2.325385; 8.920300; 4.444550;,
       3.099425; 8.920399; 4.116753;,
       -5.144865; 9.578400; 1.926056;,
       -2.487545; 9.673698; 3.841850;,
       -2.493735; 9.056297; 3.895554;,
       -5.284085; 9.303600; 1.953453;,
       -5.008365; 9.525700; 1.758049;,
       -2.357235; 9.003597; 3.727554;,
       -2.351045; 9.620998; 3.673851;,
       -5.147575; 9.250900; 1.785454;,
       -6.289055; 9.491798; 0.099350;,
       -6.379325; 9.351498; 0.095955;,
       -6.334265; 9.525101; 0.189354;,
       -6.421576; 9.377300; 0.185852;;
       514;
       3;0, 1, 2;,
       3;0, 3, 1;,
       3;4, 5, 6;,
       3;4, 7, 5;,
       3;8, 6, 9;,
       3;8, 4, 6;,
       3;10, 9, 11;,
       3;10, 8, 9;,
       3;12, 11, 13;,
       3;12, 10, 11;,
       3;14, 13, 15;,
       3;14, 12, 13;,
       3;16, 14, 15;,
       3;17, 18, 19;,
       3;17, 20, 18;,
       3;21, 20, 17;,
       3;21, 22, 20;,
       3;23, 24, 25;,
       3;23, 26, 24;,
       3;27, 26, 23;,
       3;27, 28, 26;,
       3;23, 29, 27;,
       3;23, 30, 29;,
       3;25, 30, 23;,
       3;25, 31, 30;,
       3;32, 33, 34;,
       3;32, 35, 33;,
       3;36, 35, 32;,
       3;36, 37, 35;,
       3;38, 34, 39;,
       3;38, 32, 34;,
       3;40, 32, 38;,
       3;40, 36, 32;,
       3;41, 39, 42;,
       3;41, 38, 39;,
       3;43, 38, 41;,
       3;43, 40, 38;,
       3;44, 42, 45;,
       3;44, 41, 42;,
       3;46, 41, 44;,
       3;46, 43, 41;,
       3;47, 45, 48;,
       3;47, 44, 45;,
       3;49, 44, 47;,
       3;49, 46, 44;,
       3;50, 48, 51;,
       3;50, 47, 48;,
       3;52, 47, 50;,
       3;52, 49, 47;,
       3;53, 22, 21;,
       3;53, 54, 22;,
       3;55, 54, 53;,
       3;55, 56, 54;,
       3;57, 28, 27;,
       3;57, 58, 28;,
       3;1, 58, 57;,
       3;1, 3, 58;,
       3;59, 1, 57;,
       3;59, 60, 1;,
       3;27, 59, 57;,
       3;27, 29, 59;,
       3;61, 37, 36;,
       3;61, 62, 37;,
       3;5, 62, 61;,
       3;5, 63, 62;,
       3;64, 36, 40;,
       3;64, 61, 36;,
       3;6, 61, 64;,
       3;6, 5, 61;,
       3;65, 40, 43;,
       3;65, 64, 40;,
       3;9, 64, 65;,
       3;9, 6, 64;,
       3;66, 43, 46;,
       3;66, 65, 43;,
       3;11, 65, 66;,
       3;11, 9, 65;,
       3;67, 46, 49;,
       3;67, 66, 46;,
       3;13, 66, 67;,
       3;13, 11, 66;,
       3;68, 49, 52;,
       3;68, 67, 49;,
       3;15, 67, 68;,
       3;15, 13, 67;,
       3;69, 70, 71;,
       3;69, 72, 70;,
       3;71, 73, 74;,
       3;71, 70, 73;,
       3;75, 76, 77;,
       3;75, 78, 76;,
       3;78, 79, 76;,
       3;78, 80, 79;,
       3;80, 81, 79;,
       3;80, 82, 81;,
       3;82, 83, 81;,
       3;82, 84, 83;,
       3;84, 85, 83;,
       3;84, 86, 85;,
       3;86, 87, 85;,
       3;86, 88, 87;,
       3;87, 88, 89;,
       3;90, 19, 18;,
       3;90, 91, 19;,
       3;92, 91, 90;,
       3;92, 93, 91;,
       3;94, 25, 24;,
       3;94, 95, 25;,
       3;96, 95, 94;,
       3;96, 97, 95;,
       3;98, 97, 99;,
       3;98, 95, 97;,
       3;31, 95, 98;,
       3;31, 25, 95;,
       3;100, 34, 33;,
       3;100, 101, 34;,
       3;102, 101, 100;,
       3;102, 103, 101;,
       3;101, 39, 34;,
       3;101, 104, 39;,
       3;103, 104, 101;,
       3;103, 105, 104;,
       3;104, 42, 39;,
       3;104, 106, 42;,
       3;105, 106, 104;,
       3;105, 107, 106;,
       3;106, 45, 42;,
       3;106, 108, 45;,
       3;107, 108, 106;,
       3;107, 109, 108;,
       3;108, 48, 45;,
       3;108, 110, 48;,
       3;109, 110, 108;,
       3;109, 111, 110;,
       3;110, 51, 48;,
       3;110, 112, 51;,
       3;111, 112, 110;,
       3;111, 113, 112;,
       3;114, 93, 92;,
       3;114, 115, 93;,
       3;116, 115, 114;,
       3;116, 117, 115;,
       3;118, 97, 96;,
       3;118, 119, 97;,
       3;69, 119, 118;,
       3;69, 71, 119;,
       3;74, 119, 71;,
       3;74, 120, 119;,
       3;99, 119, 120;,
       3;99, 97, 119;,
       3;121, 103, 102;,
       3;121, 122, 103;,
       3;77, 122, 121;,
       3;77, 76, 122;,
       3;122, 105, 103;,
       3;122, 123, 105;,
       3;76, 123, 122;,
       3;76, 79, 123;,
       3;123, 107, 105;,
       3;123, 124, 107;,
       3;79, 124, 123;,
       3;79, 81, 124;,
       3;124, 109, 107;,
       3;124, 125, 109;,
       3;81, 125, 124;,
       3;81, 83, 125;,
       3;125, 111, 109;,
       3;125, 126, 111;,
       3;83, 126, 125;,
       3;83, 85, 126;,
       3;126, 113, 111;,
       3;126, 127, 113;,
       3;85, 127, 126;,
       3;85, 87, 127;,
       3;29, 128, 129;,
       3;29, 30, 128;,
       3;30, 130, 128;,
       3;30, 31, 130;,
       3;59, 129, 131;,
       3;59, 29, 129;,
       3;74, 132, 133;,
       3;74, 73, 132;,
       3;134, 99, 135;,
       3;134, 98, 99;,
       3;130, 98, 134;,
       3;130, 31, 98;,
       3;133, 120, 74;,
       3;133, 136, 120;,
       3;135, 120, 136;,
       3;135, 99, 120;,
       3;137, 37, 138;,
       3;137, 35, 37;,
       3;129, 137, 138;,
       3;129, 128, 137;,
       3;139, 35, 137;,
       3;139, 33, 35;,
       3;128, 139, 137;,
       3;128, 130, 139;,
       3;138, 62, 140;,
       3;138, 37, 62;,
       3;131, 138, 140;,
       3;131, 129, 138;,
       3;141, 75, 77;,
       3;141, 142, 75;,
       3;133, 142, 141;,
       3;133, 132, 142;,
       3;143, 134, 135;,
       3;143, 144, 134;,
       3;102, 144, 143;,
       3;102, 100, 144;,
       3;144, 130, 134;,
       3;144, 139, 130;,
       3;100, 139, 144;,
       3;100, 33, 139;,
       3;141, 136, 133;,
       3;141, 145, 136;,
       3;77, 145, 141;,
       3;77, 121, 145;,
       3;145, 135, 136;,
       3;145, 143, 135;,
       3;121, 143, 145;,
       3;121, 102, 143;,
       3;131, 60, 59;,
       3;131, 146, 60;,
       3;147, 146, 131;,
       3;131, 148, 147;,
       3;131, 140, 148;,
       3;140, 149, 148;,
       3;140, 63, 149;,
       3;62, 63, 140;,
       3;2, 60, 150;,
       3;2, 1, 60;,
       3;7, 63, 5;,
       3;7, 151, 63;,
       3;150, 146, 152;,
       3;150, 60, 146;,
       3;153, 63, 151;,
       3;153, 149, 63;,
       3;154, 155, 156;,
       3;154, 157, 155;,
       3;158, 157, 154;,
       3;158, 159, 157;,
       3;157, 147, 155;,
       3;157, 146, 147;,
       3;159, 146, 157;,
       3;159, 152, 146;,
       3;156, 149, 154;,
       3;156, 148, 149;,
       3;154, 153, 158;,
       3;154, 149, 153;,
       3;155, 148, 156;,
       3;155, 147, 148;,
       3;160, 152, 161;,
       3;160, 153, 152;,
       3;161, 152, 159;,
       3;160, 158, 153;,
       3;161, 158, 160;,
       3;161, 159, 158;,
       3;162, 2, 163;,
       3;162, 0, 2;,
       3;7, 164, 165;,
       3;7, 4, 164;,
       3;4, 166, 164;,
       3;4, 8, 166;,
       3;8, 167, 166;,
       3;8, 10, 167;,
       3;10, 168, 167;,
       3;10, 12, 168;,
       3;12, 169, 168;,
       3;12, 14, 169;,
       3;169, 14, 16;,
       3;20, 170, 18;,
       3;20, 171, 170;,
       3;22, 171, 20;,
       3;22, 172, 171;,
       3;173, 174, 175;,
       3;173, 176, 174;,
       3;177, 176, 173;,
       3;177, 178, 176;,
       3;179, 178, 180;,
       3;179, 176, 178;,
       3;181, 176, 179;,
       3;181, 174, 176;,
       3;182, 183, 184;,
       3;182, 185, 183;,
       3;186, 185, 182;,
       3;186, 187, 185;,
       3;185, 188, 183;,
       3;185, 189, 188;,
       3;187, 189, 185;,
       3;187, 190, 189;,
       3;189, 191, 188;,
       3;189, 192, 191;,
       3;190, 192, 189;,
       3;190, 193, 192;,
       3;192, 194, 191;,
       3;192, 195, 194;,
       3;193, 195, 192;,
       3;193, 196, 195;,
       3;195, 197, 194;,
       3;195, 198, 197;,
       3;196, 198, 195;,
       3;196, 199, 198;,
       3;198, 200, 197;,
       3;198, 201, 200;,
       3;199, 201, 198;,
       3;199, 202, 201;,
       3;54, 172, 22;,
       3;54, 203, 172;,
       3;56, 203, 54;,
       3;56, 204, 203;,
       3;205, 178, 177;,
       3;205, 206, 178;,
       3;162, 206, 205;,
       3;162, 163, 206;,
       3;207, 206, 163;,
       3;207, 208, 206;,
       3;180, 206, 208;,
       3;180, 178, 206;,
       3;209, 187, 186;,
       3;209, 210, 187;,
       3;211, 210, 209;,
       3;211, 165, 210;,
       3;210, 190, 187;,
       3;210, 212, 190;,
       3;165, 212, 210;,
       3;165, 164, 212;,
       3;212, 193, 190;,
       3;212, 213, 193;,
       3;164, 213, 212;,
       3;164, 166, 213;,
       3;213, 196, 193;,
       3;213, 214, 196;,
       3;166, 214, 213;,
       3;166, 167, 214;,
       3;214, 199, 196;,
       3;214, 215, 199;,
       3;167, 215, 214;,
       3;167, 168, 215;,
       3;215, 202, 199;,
       3;215, 216, 202;,
       3;168, 216, 215;,
       3;168, 169, 216;,
       3;72, 217, 70;,
       3;72, 218, 217;,
       3;70, 219, 73;,
       3;70, 217, 219;,
       3;78, 220, 221;,
       3;78, 75, 220;,
       3;80, 221, 222;,
       3;80, 78, 221;,
       3;82, 222, 223;,
       3;82, 80, 222;,
       3;84, 223, 224;,
       3;84, 82, 223;,
       3;86, 224, 225;,
       3;86, 84, 224;,
       3;88, 225, 226;,
       3;88, 86, 225;,
       3;89, 88, 226;,
       3;227, 18, 170;,
       3;227, 90, 18;,
       3;228, 90, 227;,
       3;228, 92, 90;,
       3;229, 175, 174;,
       3;229, 230, 175;,
       3;231, 230, 229;,
       3;231, 232, 230;,
       3;229, 233, 231;,
       3;229, 234, 233;,
       3;174, 234, 229;,
       3;174, 181, 234;,
       3;235, 184, 183;,
       3;235, 236, 184;,
       3;237, 236, 235;,
       3;237, 238, 236;,
       3;239, 183, 188;,
       3;239, 235, 183;,
       3;240, 235, 239;,
       3;240, 237, 235;,
       3;241, 188, 191;,
       3;241, 239, 188;,
       3;242, 239, 241;,
       3;242, 240, 239;,
       3;243, 191, 194;,
       3;243, 241, 191;,
       3;244, 241, 243;,
       3;244, 242, 241;,
       3;245, 194, 197;,
       3;245, 243, 194;,
       3;246, 243, 245;,
       3;246, 244, 243;,
       3;247, 197, 200;,
       3;247, 245, 197;,
       3;248, 245, 247;,
       3;248, 246, 245;,
       3;249, 92, 228;,
       3;249, 114, 92;,
       3;250, 114, 249;,
       3;250, 116, 114;,
       3;251, 232, 231;,
       3;251, 252, 232;,
       3;217, 252, 251;,
       3;217, 218, 252;,
       3;253, 217, 251;,
       3;253, 219, 217;,
       3;231, 253, 251;,
       3;231, 233, 253;,
       3;254, 238, 237;,
       3;254, 255, 238;,
       3;221, 255, 254;,
       3;221, 220, 255;,
       3;256, 237, 240;,
       3;256, 254, 237;,
       3;222, 254, 256;,
       3;222, 221, 254;,
       3;257, 240, 242;,
       3;257, 256, 240;,
       3;223, 256, 257;,
       3;223, 222, 256;,
       3;258, 242, 244;,
       3;258, 257, 242;,
       3;224, 257, 258;,
       3;224, 223, 257;,
       3;259, 244, 246;,
       3;259, 258, 244;,
       3;225, 258, 259;,
       3;225, 224, 258;,
       3;260, 246, 248;,
       3;260, 259, 246;,
       3;226, 259, 260;,
       3;226, 225, 259;,
       3;179, 261, 262;,
       3;179, 180, 261;,
       3;181, 262, 263;,
       3;181, 179, 262;,
       3;180, 264, 261;,
       3;180, 208, 264;,
       3;73, 265, 132;,
       3;73, 219, 265;,
       3;234, 266, 233;,
       3;234, 267, 266;,
       3;181, 267, 234;,
       3;181, 263, 267;,
       3;268, 219, 253;,
       3;268, 265, 219;,
       3;233, 268, 253;,
       3;233, 266, 268;,
       3;182, 269, 186;,
       3;182, 270, 269;,
       3;262, 269, 270;,
       3;262, 261, 269;,
       3;184, 270, 182;,
       3;184, 271, 270;,
       3;263, 270, 271;,
       3;263, 262, 270;,
       3;186, 272, 209;,
       3;186, 269, 272;,
       3;261, 272, 269;,
       3;261, 264, 272;,
       3;142, 220, 75;,
       3;142, 273, 220;,
       3;132, 273, 142;,
       3;132, 265, 273;,
       3;274, 266, 267;,
       3;274, 275, 266;,
       3;236, 275, 274;,
       3;236, 238, 275;,
       3;271, 267, 263;,
       3;271, 274, 267;,
       3;184, 274, 271;,
       3;184, 236, 274;,
       3;276, 265, 268;,
       3;276, 273, 265;,
       3;255, 273, 276;,
       3;255, 220, 273;,
       3;275, 268, 266;,
       3;275, 276, 268;,
       3;238, 276, 275;,
       3;238, 255, 276;,
       3;277, 208, 207;,
       3;277, 264, 208;,
       3;278, 264, 277;,
       3;272, 278, 279;,
       3;272, 264, 278;,
       3;211, 279, 280;,
       3;211, 272, 279;,
       3;209, 272, 211;,
       3;163, 150, 207;,
       3;163, 2, 150;,
       3;151, 165, 211;,
       3;151, 7, 165;,
       3;207, 152, 277;,
       3;207, 150, 152;,
       3;280, 151, 211;,
       3;280, 153, 151;,
       3;281, 282, 283;,
       3;281, 284, 282;,
       3;285, 284, 281;,
       3;285, 286, 284;,
       3;277, 283, 278;,
       3;277, 281, 283;,
       3;152, 281, 277;,
       3;152, 285, 281;,
       3;279, 284, 280;,
       3;279, 282, 284;,
       3;280, 286, 153;,
       3;280, 284, 286;,
       3;278, 282, 279;,
       3;278, 283, 282;,
       3;153, 287, 152;,
       3;153, 288, 287;,
       3;285, 152, 287;,
       3;153, 286, 288;;

      MeshNormals {
       289;
       -0.909844; 0.373544; -0.180689;,
       -0.739741; 0.295959; -0.604311;,
       -0.895545; 0.444938; -0.005468;,
       -0.779913; 0.320208; -0.537775;,
       -0.999438; 0.033482; -0.001443;,
       -0.708825; 0.044600; -0.703973;,
       -0.730464; 0.101767; -0.675327;,
       -0.998569; 0.053283; 0.004609;,
       -0.999844; 0.017316; 0.003467;,
       -0.735402; -0.003535; -0.677622;,
       -0.999879; -0.015123; 0.003575;,
       -0.731169; -0.049524; -0.680396;,
       -0.999980; -0.004833; 0.004118;,
       -0.737965; -0.030169; -0.674164;,
       -0.991252; -0.015167; -0.131110;,
       -0.759714; 0.011614; -0.650154;,
       -0.999777; -0.021075; 0.001182;,
       -0.114666; 0.993403; -0.001299;,
       0.009484; 0.999955; 0.000044;,
       0.035489; 0.999370; -0.000433;,
       -0.103141; 0.994655; -0.004848;,
       -0.140687; 0.989847; -0.020266;,
       -0.128013; 0.991772; 0.001058;,
       -0.229705; 0.108883; -0.967150;,
       -0.020931; -0.000000; -0.999781;,
       0.047131; 0.079944; -0.995684;,
       -0.350888; 0.003219; -0.936412;,
       -0.509479; 0.135375; -0.849767;,
       -0.568952; 0.014531; -0.822242;,
       -0.272874; 0.165151; -0.947768;,
       0.004045; 0.135036; -0.990832;,
       0.010342; 0.131915; -0.991207;,
       -0.006245; 0.107171; -0.994221;,
       0.008238; 0.083342; -0.996487;,
       -0.018316; 0.097705; -0.995047;,
       0.003147; 0.081182; -0.996694;,
       -0.230760; 0.137070; -0.963308;,
       -0.250252; 0.079416; -0.964918;,
       0.009127; 0.083374; -0.996477;,
       -0.014885; 0.080200; -0.996668;,
       -0.192388; 0.095787; -0.976633;,
       0.032431; -0.111406; -0.993246;,
       -0.022708; -0.099083; -0.994820;,
       -0.165748; -0.068834; -0.983763;,
       0.026258; -0.131425; -0.990978;,
       -0.040427; -0.096274; -0.994534;,
       -0.134123; -0.128074; -0.982654;,
       -0.004030; 0.051121; -0.998684;,
       -0.020446; 0.048297; -0.998624;,
       -0.191054; -0.011425; -0.981513;,
       0.017464; 0.050501; -0.998571;,
       -0.003420; 0.049195; -0.998783;,
       -0.187684; 0.103862; -0.976723;,
       -0.133341; 0.990405; -0.036298;,
       -0.119545; 0.992791; -0.008659;,
       -0.143159; 0.988119; -0.055923;,
       -0.198480; 0.978033; 0.063692;,
       -0.648868; 0.120129; -0.751358;,
       -0.696299; 0.118497; -0.707902;,
       -0.516906; 0.219560; -0.827406;,
       -0.689564; 0.318297; -0.650529;,
       -0.480545; 0.156731; -0.862851;,
       -0.475877; 0.074422; -0.876357;,
       -0.728676; 0.099118; -0.677649;,
       -0.464609; 0.163532; -0.870285;,
       -0.447987; -0.016981; -0.893879;,
       -0.430732; -0.076200; -0.899257;,
       -0.449745; -0.043017; -0.892120;,
       -0.475507; -0.008976; -0.879666;,
       0.758144; 0.244880; -0.604361;,
       0.955653; 0.293841; 0.019618;,
       0.759650; 0.214239; -0.614030;,
       0.909852; 0.373534; 0.180672;,
       0.970986; 0.238883; 0.011022;,
       0.747065; 0.189025; -0.637309;,
       0.960253; 0.168599; -0.222461;,
       0.769138; 0.063791; -0.635891;,
       0.725367; 0.130716; -0.675838;,
       0.999061; -0.043300; 0.001644;,
       0.801964; -0.076516; -0.592451;,
       0.991727; -0.128356; 0.001445;,
       0.809221; -0.113027; -0.576529;,
       0.989518; -0.144366; -0.003468;,
       0.815804; -0.108272; -0.568103;,
       0.991688; -0.128625; -0.003192;,
       0.838311; -0.062914; -0.541550;,
       0.985575; -0.167517; 0.024070;,
       0.846406; -0.152661; -0.510188;,
       0.970738; -0.183013; 0.155479;,
       0.998448; -0.055687; -0.000933;,
       0.112585; 0.993630; 0.004866;,
       0.143753; 0.989370; -0.021967;,
       0.093157; 0.995645; -0.003720;,
       0.105949; 0.993938; -0.029352;,
       0.236991; 0.000000; -0.971512;,
       0.260805; 0.088956; -0.961284;,
       0.427035; 0.005344; -0.904219;,
       0.347304; 0.126050; -0.929242;,
       0.044208; 0.157391; -0.986546;,
       0.244219; 0.179702; -0.952924;,
       -0.068742; 0.083792; -0.994109;,
       -0.013650; 0.095998; -0.995288;,
       0.209309; 0.079180; -0.974638;,
       0.251742; 0.105181; -0.962062;,
       -0.026487; 0.091524; -0.995451;,
       0.201628; 0.121366; -0.971914;,
       -0.042476; -0.107209; -0.993329;,
       0.170157; -0.103455; -0.979971;,
       -0.021486; -0.122434; -0.992244;,
       0.149045; -0.091941; -0.984547;,
       0.039025; 0.025512; -0.998913;,
       0.140380; 0.044246; -0.989109;,
       0.040141; 0.071615; -0.996624;,
       0.257908; 0.028734; -0.965742;,
       0.081081; 0.996643; 0.011335;,
       0.135420; 0.988529; -0.066872;,
       0.155490; 0.986993; -0.040836;,
       0.252884; 0.955997; -0.148723;,
       0.468254; 0.016069; -0.883448;,
       0.550996; 0.165697; -0.817892;,
       0.564548; 0.152987; -0.811098;,
       0.488317; 0.077463; -0.869221;,
       0.508386; 0.176031; -0.842945;,
       0.519469; 0.117356; -0.846392;,
       0.541659; -0.060013; -0.838453;,
       0.532056; -0.058300; -0.844700;,
       0.599127; -0.003468; -0.800647;,
       0.763943; -0.073447; -0.641091;,
       0.001325; 0.092633; -0.995699;,
       -0.246635; 0.102780; -0.963643;,
       -0.038547; 0.090923; -0.995112;,
       -0.475970; 0.239635; -0.846184;,
       0.962424; 0.271524; -0.003864;,
       0.752743; 0.202461; -0.626409;,
       0.026699; 0.093847; -0.995229;,
       0.301396; 0.090928; -0.949154;,
       0.588637; 0.107828; -0.801174;,
       -0.036276; 0.093658; -0.994943;,
       -0.295974; 0.086485; -0.951273;,
       0.001498; 0.090922; -0.995857;,
       -0.483375; 0.000175; -0.875414;,
       0.745692; 0.202127; -0.634893;,
       0.962473; 0.271351; -0.003834;,
       0.254937; 0.091554; -0.962614;,
       -0.022333; 0.092616; -0.995451;,
       0.545573; 0.104262; -0.831553;,
       -0.721966; -0.392678; -0.569710;,
       -0.712267; -0.701683; -0.017802;,
       -0.926930; 0.285065; 0.244004;,
       -0.094303; 0.993315; -0.066580;,
       -0.895791; 0.444318; -0.011816;,
       -0.967051; 0.125383; 0.221565;,
       -0.960718; 0.274338; 0.041947;,
       -0.848108; 0.522634; 0.086983;,
       -0.243215; 0.886900; -0.392752;,
       -0.958778; -0.215557; -0.185148;,
       -0.439859; 0.896932; 0.045135;,
       -0.630855; -0.444004; -0.636304;,
       0.046906; -0.055401; -0.997362;,
       -0.128718; -0.604570; -0.786083;,
       -0.508795; -0.247780; -0.824459;,
       0.583534; 0.253159; -0.771621;,
       -0.780684; 0.246586; 0.574219;,
       -0.741267; 0.382039; 0.551879;,
       -0.733771; 0.035773; 0.678455;,
       -0.715151; 0.106589; 0.690796;,
       -0.734685; -0.010127; 0.678333;,
       -0.734813; -0.040330; 0.677069;,
       -0.747466; -0.014277; 0.664146;,
       -0.789458; -0.029618; 0.613089;,
       -0.015883; 0.999874; 0.000338;,
       -0.137109; 0.990312; 0.021990;,
       -0.151994; 0.987529; 0.041053;,
       -0.220623; -0.000000; 0.975359;,
       -0.031506; 0.079832; 0.996310;,
       0.045914; 0.000000; 0.998945;,
       -0.257688; 0.089041; 0.962117;,
       -0.522770; 0.007242; 0.852443;,
       -0.495505; 0.121833; 0.860018;,
       -0.102946; 0.157771; 0.982095;,
       -0.335859; 0.191362; 0.922269;,
       -0.029031; 0.120911; 0.992239;,
       0.003977; 0.085144; 0.996361;,
       -0.017377; 0.097738; 0.995061;,
       -0.037721; 0.086201; 0.995563;,
       -0.004428; 0.095847; 0.995386;,
       -0.254640; 0.077257; 0.963945;,
       -0.251725; 0.105173; 0.962067;,
       -0.024412; 0.080119; 0.996486;,
       0.006226; 0.091331; 0.995801;,
       -0.201627; 0.121365; 0.971914;,
       -0.020020; -0.098804; 0.994905;,
       0.021503; -0.107415; 0.993982;,
       -0.170154; -0.103453; 0.979972;,
       0.009680; -0.096283; 0.995307;,
       0.007140; -0.122602; 0.992430;,
       -0.149012; -0.092103; 0.984537;,
       0.020338; 0.048875; 0.998598;,
       -0.037531; 0.023902; 0.999010;,
       -0.131658; 0.051301; 0.989967;,
       0.009259; 0.047824; 0.998813;,
       -0.020662; 0.079529; 0.996618;,
       -0.210322; 0.040691; 0.976785;,
       -0.200943; 0.974985; 0.095005;,
       -0.375513; 0.900121; 0.220842;,
       -0.667782; 0.019259; 0.744108;,
       -0.623650; 0.219583; 0.750229;,
       -0.697757; 0.327472; 0.637101;,
       -0.503468; 0.217810; 0.836109;,
       -0.453980; 0.071819; 0.888113;,
       -0.447131; 0.166455; 0.878844;,
       -0.647412; 0.094928; 0.756205;,
       -0.438032; 0.135872; 0.888632;,
       -0.438303; -0.038031; 0.898023;,
       -0.415796; -0.041199; 0.908524;,
       -0.466558; -0.003147; 0.884485;,
       -0.586033; -0.048819; 0.808815;,
       0.754896; 0.208923; 0.621678;,
       0.759094; 0.311660; 0.571529;,
       0.769711; 0.164259; 0.616898;,
       0.770647; 0.148897; 0.619624;,
       0.761368; -0.012792; 0.648194;,
       0.793733; -0.005140; 0.608245;,
       0.803619; -0.109881; 0.584912;,
       0.811563; -0.101886; 0.575313;,
       0.821718; -0.106716; 0.559814;,
       0.849187; -0.046826; 0.526011;,
       0.127440; 0.991845; 0.001390;,
       0.118002; 0.992911; 0.014249;,
       0.242402; 0.108541; 0.964085;,
       0.358543; 0.003215; 0.933508;,
       0.414228; 0.130618; 0.900752;,
       0.378949; 0.011228; 0.925349;,
       0.318061; 0.164245; 0.933735;,
       0.028957; 0.136205; 0.990257;,
       -0.011293; 0.107362; 0.994156;,
       0.024448; 0.082445; 0.996296;,
       0.230761; 0.137072; 0.963307;,
       0.295883; 0.078814; 0.951967;,
       -0.027933; 0.083446; 0.996121;,
       0.192388; 0.095788; 0.976633;,
       -0.054060; -0.111423; 0.992302;,
       0.165746; -0.068835; 0.983763;,
       -0.047287; -0.130928; 0.990264;,
       0.134132; -0.127791; 0.982689;,
       0.007060; 0.048477; 0.998799;,
       0.210166; -0.001924; 0.977664;,
       -0.003389; 0.053199; 0.998578;,
       0.233901; 0.102602; 0.966832;,
       0.079753; 0.996478; 0.025891;,
       0.132358; 0.989497; 0.058109;,
       0.466468; 0.102770; 0.878548;,
       0.576515; 0.112072; 0.809364;,
       0.546186; 0.170612; 0.820105;,
       0.551312; 0.142791; 0.821989;,
       0.590886; 0.102901; 0.800166;,
       0.558421; 0.149050; 0.816057;,
       0.558805; -0.034733; 0.828571;,
       0.552416; -0.073592; 0.830314;,
       0.576373; -0.048411; 0.815751;,
       0.602290; 0.005982; 0.798255;,
       -0.249992; 0.088678; 0.964178;,
       0.001572; 0.092552; 0.995707;,
       0.010343; 0.089923; 0.995895;,
       -0.431025; 0.265630; 0.862356;,
       0.747042; 0.201262; 0.633579;,
       0.210350; 0.092047; 0.973283;,
       -0.065911; 0.091275; 0.993642;,
       0.540210; 0.101969; 0.835329;,
       -0.206730; 0.092059; 0.974057;,
       0.043832; 0.091254; 0.994863;,
       -0.046563; 0.089905; 0.994861;,
       -0.477472; 0.081242; 0.874883;,
       0.740465; 0.201046; 0.641321;,
       -0.022295; 0.092569; 0.995457;,
       0.254259; 0.091569; 0.962791;,
       0.552546; 0.103892; 0.826982;,
       -0.591907; -0.495573; 0.635652;,
       -0.993378; -0.114165; -0.012906;,
       -0.613028; 0.647638; 0.452505;,
       -0.379093; 0.841137; 0.385715;,
       -0.570279; -0.496024; 0.654784;,
       -0.883967; 0.462002; 0.071805;,
       -0.623720; -0.745093; 0.236240;,
       -0.292609; 0.900606; 0.321384;,
       -0.720475; 0.433442; 0.541336;,
       -0.305416; 0.916368; 0.258825;,
       -0.456999; 0.759824; 0.462406;,
       -0.695964; -0.421578; 0.581297;;
       514;
       3;0, 1, 2;,
       3;0, 3, 1;,
       3;4, 5, 6;,
       3;4, 7, 5;,
       3;8, 6, 9;,
       3;8, 4, 6;,
       3;10, 9, 11;,
       3;10, 8, 9;,
       3;12, 11, 13;,
       3;12, 10, 11;,
       3;14, 13, 15;,
       3;14, 12, 13;,
       3;16, 14, 15;,
       3;17, 18, 19;,
       3;17, 20, 18;,
       3;21, 20, 17;,
       3;21, 22, 20;,
       3;23, 24, 25;,
       3;23, 26, 24;,
       3;27, 26, 23;,
       3;27, 28, 26;,
       3;23, 29, 27;,
       3;23, 30, 29;,
       3;25, 30, 23;,
       3;25, 31, 30;,
       3;32, 33, 34;,
       3;32, 35, 33;,
       3;36, 35, 32;,
       3;36, 37, 35;,
       3;38, 34, 39;,
       3;38, 32, 34;,
       3;40, 32, 38;,
       3;40, 36, 32;,
       3;41, 39, 42;,
       3;41, 38, 39;,
       3;43, 38, 41;,
       3;43, 40, 38;,
       3;44, 42, 45;,
       3;44, 41, 42;,
       3;46, 41, 44;,
       3;46, 43, 41;,
       3;47, 45, 48;,
       3;47, 44, 45;,
       3;49, 44, 47;,
       3;49, 46, 44;,
       3;50, 48, 51;,
       3;50, 47, 48;,
       3;52, 47, 50;,
       3;52, 49, 47;,
       3;53, 22, 21;,
       3;53, 54, 22;,
       3;55, 54, 53;,
       3;55, 56, 54;,
       3;57, 28, 27;,
       3;57, 58, 28;,
       3;1, 58, 57;,
       3;1, 3, 58;,
       3;59, 1, 57;,
       3;59, 60, 1;,
       3;27, 59, 57;,
       3;27, 29, 59;,
       3;61, 37, 36;,
       3;61, 62, 37;,
       3;5, 62, 61;,
       3;5, 63, 62;,
       3;64, 36, 40;,
       3;64, 61, 36;,
       3;6, 61, 64;,
       3;6, 5, 61;,
       3;65, 40, 43;,
       3;65, 64, 40;,
       3;9, 64, 65;,
       3;9, 6, 64;,
       3;66, 43, 46;,
       3;66, 65, 43;,
       3;11, 65, 66;,
       3;11, 9, 65;,
       3;67, 46, 49;,
       3;67, 66, 46;,
       3;13, 66, 67;,
       3;13, 11, 66;,
       3;68, 49, 52;,
       3;68, 67, 49;,
       3;15, 67, 68;,
       3;15, 13, 67;,
       3;69, 70, 71;,
       3;69, 72, 70;,
       3;71, 73, 74;,
       3;71, 70, 73;,
       3;75, 76, 77;,
       3;75, 78, 76;,
       3;78, 79, 76;,
       3;78, 80, 79;,
       3;80, 81, 79;,
       3;80, 82, 81;,
       3;82, 83, 81;,
       3;82, 84, 83;,
       3;84, 85, 83;,
       3;84, 86, 85;,
       3;86, 87, 85;,
       3;86, 88, 87;,
       3;87, 88, 89;,
       3;90, 19, 18;,
       3;90, 91, 19;,
       3;92, 91, 90;,
       3;92, 93, 91;,
       3;94, 25, 24;,
       3;94, 95, 25;,
       3;96, 95, 94;,
       3;96, 97, 95;,
       3;98, 97, 99;,
       3;98, 95, 97;,
       3;31, 95, 98;,
       3;31, 25, 95;,
       3;100, 34, 33;,
       3;100, 101, 34;,
       3;102, 101, 100;,
       3;102, 103, 101;,
       3;101, 39, 34;,
       3;101, 104, 39;,
       3;103, 104, 101;,
       3;103, 105, 104;,
       3;104, 42, 39;,
       3;104, 106, 42;,
       3;105, 106, 104;,
       3;105, 107, 106;,
       3;106, 45, 42;,
       3;106, 108, 45;,
       3;107, 108, 106;,
       3;107, 109, 108;,
       3;108, 48, 45;,
       3;108, 110, 48;,
       3;109, 110, 108;,
       3;109, 111, 110;,
       3;110, 51, 48;,
       3;110, 112, 51;,
       3;111, 112, 110;,
       3;111, 113, 112;,
       3;114, 93, 92;,
       3;114, 115, 93;,
       3;116, 115, 114;,
       3;116, 117, 115;,
       3;118, 97, 96;,
       3;118, 119, 97;,
       3;69, 119, 118;,
       3;69, 71, 119;,
       3;74, 119, 71;,
       3;74, 120, 119;,
       3;99, 119, 120;,
       3;99, 97, 119;,
       3;121, 103, 102;,
       3;121, 122, 103;,
       3;77, 122, 121;,
       3;77, 76, 122;,
       3;122, 105, 103;,
       3;122, 123, 105;,
       3;76, 123, 122;,
       3;76, 79, 123;,
       3;123, 107, 105;,
       3;123, 124, 107;,
       3;79, 124, 123;,
       3;79, 81, 124;,
       3;124, 109, 107;,
       3;124, 125, 109;,
       3;81, 125, 124;,
       3;81, 83, 125;,
       3;125, 111, 109;,
       3;125, 126, 111;,
       3;83, 126, 125;,
       3;83, 85, 126;,
       3;126, 113, 111;,
       3;126, 127, 113;,
       3;85, 127, 126;,
       3;85, 87, 127;,
       3;29, 128, 129;,
       3;29, 30, 128;,
       3;30, 130, 128;,
       3;30, 31, 130;,
       3;59, 129, 131;,
       3;59, 29, 129;,
       3;74, 132, 133;,
       3;74, 73, 132;,
       3;134, 99, 135;,
       3;134, 98, 99;,
       3;130, 98, 134;,
       3;130, 31, 98;,
       3;133, 120, 74;,
       3;133, 136, 120;,
       3;135, 120, 136;,
       3;135, 99, 120;,
       3;137, 37, 138;,
       3;137, 35, 37;,
       3;129, 137, 138;,
       3;129, 128, 137;,
       3;139, 35, 137;,
       3;139, 33, 35;,
       3;128, 139, 137;,
       3;128, 130, 139;,
       3;138, 62, 140;,
       3;138, 37, 62;,
       3;131, 138, 140;,
       3;131, 129, 138;,
       3;141, 75, 77;,
       3;141, 142, 75;,
       3;133, 142, 141;,
       3;133, 132, 142;,
       3;143, 134, 135;,
       3;143, 144, 134;,
       3;102, 144, 143;,
       3;102, 100, 144;,
       3;144, 130, 134;,
       3;144, 139, 130;,
       3;100, 139, 144;,
       3;100, 33, 139;,
       3;141, 136, 133;,
       3;141, 145, 136;,
       3;77, 145, 141;,
       3;77, 121, 145;,
       3;145, 135, 136;,
       3;145, 143, 135;,
       3;121, 143, 145;,
       3;121, 102, 143;,
       3;131, 60, 59;,
       3;131, 146, 60;,
       3;147, 146, 131;,
       3;131, 148, 147;,
       3;131, 140, 148;,
       3;140, 149, 148;,
       3;140, 63, 149;,
       3;62, 63, 140;,
       3;2, 60, 150;,
       3;2, 1, 60;,
       3;7, 63, 5;,
       3;7, 151, 63;,
       3;150, 146, 152;,
       3;150, 60, 146;,
       3;153, 63, 151;,
       3;153, 149, 63;,
       3;154, 155, 156;,
       3;154, 157, 155;,
       3;158, 157, 154;,
       3;158, 159, 157;,
       3;157, 147, 155;,
       3;157, 146, 147;,
       3;159, 146, 157;,
       3;159, 152, 146;,
       3;156, 149, 154;,
       3;156, 148, 149;,
       3;154, 153, 158;,
       3;154, 149, 153;,
       3;155, 148, 156;,
       3;155, 147, 148;,
       3;160, 152, 161;,
       3;160, 153, 152;,
       3;161, 152, 159;,
       3;160, 158, 153;,
       3;161, 158, 160;,
       3;161, 159, 158;,
       3;162, 2, 163;,
       3;162, 0, 2;,
       3;7, 164, 165;,
       3;7, 4, 164;,
       3;4, 166, 164;,
       3;4, 8, 166;,
       3;8, 167, 166;,
       3;8, 10, 167;,
       3;10, 168, 167;,
       3;10, 12, 168;,
       3;12, 169, 168;,
       3;12, 14, 169;,
       3;169, 14, 16;,
       3;20, 170, 18;,
       3;20, 171, 170;,
       3;22, 171, 20;,
       3;22, 172, 171;,
       3;173, 174, 175;,
       3;173, 176, 174;,
       3;177, 176, 173;,
       3;177, 178, 176;,
       3;179, 178, 180;,
       3;179, 176, 178;,
       3;181, 176, 179;,
       3;181, 174, 176;,
       3;182, 183, 184;,
       3;182, 185, 183;,
       3;186, 185, 182;,
       3;186, 187, 185;,
       3;185, 188, 183;,
       3;185, 189, 188;,
       3;187, 189, 185;,
       3;187, 190, 189;,
       3;189, 191, 188;,
       3;189, 192, 191;,
       3;190, 192, 189;,
       3;190, 193, 192;,
       3;192, 194, 191;,
       3;192, 195, 194;,
       3;193, 195, 192;,
       3;193, 196, 195;,
       3;195, 197, 194;,
       3;195, 198, 197;,
       3;196, 198, 195;,
       3;196, 199, 198;,
       3;198, 200, 197;,
       3;198, 201, 200;,
       3;199, 201, 198;,
       3;199, 202, 201;,
       3;54, 172, 22;,
       3;54, 203, 172;,
       3;56, 203, 54;,
       3;56, 204, 203;,
       3;205, 178, 177;,
       3;205, 206, 178;,
       3;162, 206, 205;,
       3;162, 163, 206;,
       3;207, 206, 163;,
       3;207, 208, 206;,
       3;180, 206, 208;,
       3;180, 178, 206;,
       3;209, 187, 186;,
       3;209, 210, 187;,
       3;211, 210, 209;,
       3;211, 165, 210;,
       3;210, 190, 187;,
       3;210, 212, 190;,
       3;165, 212, 210;,
       3;165, 164, 212;,
       3;212, 193, 190;,
       3;212, 213, 193;,
       3;164, 213, 212;,
       3;164, 166, 213;,
       3;213, 196, 193;,
       3;213, 214, 196;,
       3;166, 214, 213;,
       3;166, 167, 214;,
       3;214, 199, 196;,
       3;214, 215, 199;,
       3;167, 215, 214;,
       3;167, 168, 215;,
       3;215, 202, 199;,
       3;215, 216, 202;,
       3;168, 216, 215;,
       3;168, 169, 216;,
       3;72, 217, 70;,
       3;72, 218, 217;,
       3;70, 219, 73;,
       3;70, 217, 219;,
       3;78, 220, 221;,
       3;78, 75, 220;,
       3;80, 221, 222;,
       3;80, 78, 221;,
       3;82, 222, 223;,
       3;82, 80, 222;,
       3;84, 223, 224;,
       3;84, 82, 223;,
       3;86, 224, 225;,
       3;86, 84, 224;,
       3;88, 225, 226;,
       3;88, 86, 225;,
       3;89, 88, 226;,
       3;227, 18, 170;,
       3;227, 90, 18;,
       3;228, 90, 227;,
       3;228, 92, 90;,
       3;229, 175, 174;,
       3;229, 230, 175;,
       3;231, 230, 229;,
       3;231, 232, 230;,
       3;229, 233, 231;,
       3;229, 234, 233;,
       3;174, 234, 229;,
       3;174, 181, 234;,
       3;235, 184, 183;,
       3;235, 236, 184;,
       3;237, 236, 235;,
       3;237, 238, 236;,
       3;239, 183, 188;,
       3;239, 235, 183;,
       3;240, 235, 239;,
       3;240, 237, 235;,
       3;241, 188, 191;,
       3;241, 239, 188;,
       3;242, 239, 241;,
       3;242, 240, 239;,
       3;243, 191, 194;,
       3;243, 241, 191;,
       3;244, 241, 243;,
       3;244, 242, 241;,
       3;245, 194, 197;,
       3;245, 243, 194;,
       3;246, 243, 245;,
       3;246, 244, 243;,
       3;247, 197, 200;,
       3;247, 245, 197;,
       3;248, 245, 247;,
       3;248, 246, 245;,
       3;249, 92, 228;,
       3;249, 114, 92;,
       3;250, 114, 249;,
       3;250, 116, 114;,
       3;251, 232, 231;,
       3;251, 252, 232;,
       3;217, 252, 251;,
       3;217, 218, 252;,
       3;253, 217, 251;,
       3;253, 219, 217;,
       3;231, 253, 251;,
       3;231, 233, 253;,
       3;254, 238, 237;,
       3;254, 255, 238;,
       3;221, 255, 254;,
       3;221, 220, 255;,
       3;256, 237, 240;,
       3;256, 254, 237;,
       3;222, 254, 256;,
       3;222, 221, 254;,
       3;257, 240, 242;,
       3;257, 256, 240;,
       3;223, 256, 257;,
       3;223, 222, 256;,
       3;258, 242, 244;,
       3;258, 257, 242;,
       3;224, 257, 258;,
       3;224, 223, 257;,
       3;259, 244, 246;,
       3;259, 258, 244;,
       3;225, 258, 259;,
       3;225, 224, 258;,
       3;260, 246, 248;,
       3;260, 259, 246;,
       3;226, 259, 260;,
       3;226, 225, 259;,
       3;179, 261, 262;,
       3;179, 180, 261;,
       3;181, 262, 263;,
       3;181, 179, 262;,
       3;180, 264, 261;,
       3;180, 208, 264;,
       3;73, 265, 132;,
       3;73, 219, 265;,
       3;234, 266, 233;,
       3;234, 267, 266;,
       3;181, 267, 234;,
       3;181, 263, 267;,
       3;268, 219, 253;,
       3;268, 265, 219;,
       3;233, 268, 253;,
       3;233, 266, 268;,
       3;182, 269, 186;,
       3;182, 270, 269;,
       3;262, 269, 270;,
       3;262, 261, 269;,
       3;184, 270, 182;,
       3;184, 271, 270;,
       3;263, 270, 271;,
       3;263, 262, 270;,
       3;186, 272, 209;,
       3;186, 269, 272;,
       3;261, 272, 269;,
       3;261, 264, 272;,
       3;142, 220, 75;,
       3;142, 273, 220;,
       3;132, 273, 142;,
       3;132, 265, 273;,
       3;274, 266, 267;,
       3;274, 275, 266;,
       3;236, 275, 274;,
       3;236, 238, 275;,
       3;271, 267, 263;,
       3;271, 274, 267;,
       3;184, 274, 271;,
       3;184, 236, 274;,
       3;276, 265, 268;,
       3;276, 273, 265;,
       3;255, 273, 276;,
       3;255, 220, 273;,
       3;275, 268, 266;,
       3;275, 276, 268;,
       3;238, 276, 275;,
       3;238, 255, 276;,
       3;277, 208, 207;,
       3;277, 264, 208;,
       3;278, 264, 277;,
       3;272, 278, 279;,
       3;272, 264, 278;,
       3;211, 279, 280;,
       3;211, 272, 279;,
       3;209, 272, 211;,
       3;163, 150, 207;,
       3;163, 2, 150;,
       3;151, 165, 211;,
       3;151, 7, 165;,
       3;207, 152, 277;,
       3;207, 150, 152;,
       3;280, 151, 211;,
       3;280, 153, 151;,
       3;281, 282, 283;,
       3;281, 284, 282;,
       3;285, 284, 281;,
       3;285, 286, 284;,
       3;277, 283, 278;,
       3;277, 281, 283;,
       3;152, 281, 277;,
       3;152, 285, 281;,
       3;279, 284, 280;,
       3;279, 282, 284;,
       3;280, 286, 153;,
       3;280, 284, 286;,
       3;278, 282, 279;,
       3;278, 283, 282;,
       3;153, 287, 152;,
       3;153, 288, 287;,
       3;285, 152, 287;,
       3;153, 286, 288;;
      }

      MeshTextureCoords {
       289;
       0.170557; 0.075642;,
       0.194282; 0.095426;,
       0.161932; 0.095426;,
       0.202907; 0.075642;,
       0.071627; 0.341249;,
       0.113364; 0.308536;,
       0.113792; 0.341249;,
       0.071268; 0.308536;,
       0.069881; 0.369286;,
       0.112069; 0.369286;,
       0.069917; 0.385903;,
       0.112033; 0.385903;,
       0.070096; 0.439834;,
       0.103951; 0.439834;,
       0.070308; 0.491479;,
       0.096344; 0.503059;,
       0.071025; 0.523520;,
       0.289608; 0.224173;,
       0.314850; 0.146343;,
       0.314850; 0.226387;,
       0.288499; 0.146339;,
       0.272365; 0.214867;,
       0.254059; 0.146330;,
       0.276147; 0.084623;,
       0.315089; 0.062770;,
       0.315089; 0.082753;,
       0.276147; 0.065363;,
       0.249160; 0.088748;,
       0.249544; 0.070574;,
       0.248704; 0.213340;,
       0.277621; 0.213340;,
       0.315089; 0.213340;,
       0.278188; 0.301153;,
       0.315089; 0.257654;,
       0.315089; 0.295246;,
       0.277939; 0.257654;,
       0.249219; 0.308536;,
       0.248993; 0.257654;,
       0.278826; 0.330062;,
       0.315089; 0.327955;,
       0.249482; 0.332386;,
       0.278924; 0.358102;,
       0.315089; 0.355996;,
       0.249571; 0.360424;,
       0.278857; 0.371761;,
       0.315089; 0.372610;,
       0.249532; 0.377041;,
       0.279433; 0.417673;,
       0.315089; 0.423268;,
       0.249338; 0.420281;,
       0.279089; 0.458367;,
       0.315089; 0.461934;,
       0.249106; 0.453980;,
       0.264526; 0.208727;,
       0.247416; 0.146335;,
       0.242136; 0.182000;,
       0.221167; 0.146618;,
       0.237039; 0.089912;,
       0.237450; 0.071598;,
       0.223059; 0.213340;,
       0.128807; 0.213340;,
       0.219405; 0.308536;,
       0.223344; 0.257654;,
       0.116163; 0.257654;,
       0.209898; 0.332989;,
       0.209987; 0.361020;,
       0.209945; 0.377637;,
       0.209827; 0.421511;,
       0.183596; 0.459222;,
       0.439358; 0.075642;,
       0.480334; 0.095426;,
       0.447983; 0.095426;,
       0.471709; 0.075642;,
       0.509197; 0.213340;,
       0.463291; 0.213340;,
       0.521916; 0.257654;,
       0.479647; 0.303197;,
       0.475935; 0.257654;,
       0.525083; 0.310200;,
       0.473616; 0.335413;,
       0.519119; 0.342425;,
       0.470508; 0.363345;,
       0.516034; 0.370363;,
       0.467695; 0.379749;,
       0.513150; 0.386755;,
       0.471219; 0.444827;,
       0.508522; 0.450575;,
       0.461980; 0.506380;,
       0.504573; 0.461809;,
       0.501051; 0.521274;,
       0.335559; 0.146339;,
       0.334450; 0.224173;,
       0.369999; 0.146330;,
       0.351693; 0.214867;,
       0.345327; 0.065363;,
       0.345327; 0.084623;,
       0.371929; 0.070574;,
       0.372314; 0.088748;,
       0.343853; 0.213340;,
       0.372770; 0.213340;,
       0.343535; 0.257654;,
       0.343285; 0.301153;,
       0.372480; 0.257654;,
       0.372254; 0.308536;,
       0.342648; 0.330062;,
       0.371992; 0.332386;,
       0.342549; 0.358102;,
       0.371902; 0.360424;,
       0.342617; 0.371761;,
       0.371941; 0.377041;,
       0.342041; 0.427930;,
       0.372136; 0.430538;,
       0.342385; 0.465825;,
       0.377318; 0.477290;,
       0.390118; 0.146335;,
       0.369158; 0.208727;,
       0.416367; 0.146345;,
       0.395398; 0.182000;,
       0.398874; 0.071598;,
       0.399285; 0.089912;,
       0.398415; 0.213340;,
       0.398130; 0.257654;,
       0.402068; 0.308536;,
       0.411575; 0.332989;,
       0.411487; 0.361020;,
       0.411529; 0.377637;,
       0.411647; 0.431768;,
       0.427977; 0.487195;,
       0.277719; 0.227032;,
       0.248793; 0.227026;,
       0.315089; 0.227039;,
       0.223097; 0.221316;,
       0.513007; 0.226614;,
       0.467076; 0.226605;,
       0.343754; 0.227032;,
       0.372680; 0.227026;,
       0.398327; 0.227026;,
       0.277849; 0.245175;,
       0.248912; 0.245162;,
       0.315089; 0.245187;,
       0.222988; 0.241761;,
       0.472091; 0.244180;,
       0.518056; 0.244204;,
       0.372562; 0.245162;,
       0.343624; 0.245175;,
       0.398210; 0.245159;,
       0.125035; 0.224627;,
       0.213085; 0.221653;,
       0.212880; 0.240919;,
       0.120422; 0.233202;,
       0.086458; 0.213340;,
       0.073657; 0.257654;,
       0.080554; 0.226252;,
       0.077837; 0.230063;,
       0.124945; 0.234846;,
       0.217608; 0.223297;,
       0.217403; 0.242563;,
       0.129558; 0.226271;,
       0.084131; 0.231707;,
       0.087122; 0.227329;,
       0.082731; 0.230902;,
       0.085624; 0.226290;,
       0.202907; 0.075642;,
       0.194282; 0.095426;,
       0.113792; 0.341249;,
       0.113364; 0.308536;,
       0.112069; 0.369286;,
       0.112033; 0.385903;,
       0.103951; 0.439834;,
       0.096344; 0.503059;,
       0.314850; 0.066576;,
       0.289608; 0.068790;,
       0.272365; 0.078097;,
       0.276147; 0.065363;,
       0.315089; 0.082753;,
       0.315089; 0.062770;,
       0.276147; 0.084623;,
       0.249544; 0.070574;,
       0.249160; 0.088748;,
       0.277621; 0.213340;,
       0.248704; 0.213340;,
       0.315089; 0.213340;,
       0.277939; 0.257654;,
       0.315089; 0.295246;,
       0.315089; 0.257654;,
       0.278188; 0.301153;,
       0.248993; 0.257654;,
       0.249219; 0.308536;,
       0.315089; 0.327955;,
       0.278826; 0.330062;,
       0.249482; 0.332386;,
       0.315089; 0.355996;,
       0.278924; 0.358102;,
       0.249571; 0.360424;,
       0.315089; 0.372610;,
       0.278857; 0.371761;,
       0.249532; 0.377041;,
       0.315089; 0.423268;,
       0.279433; 0.417673;,
       0.249338; 0.420281;,
       0.315089; 0.461934;,
       0.279089; 0.458367;,
       0.249106; 0.453980;,
       0.264526; 0.084237;,
       0.242136; 0.110964;,
       0.237450; 0.071598;,
       0.237039; 0.089912;,
       0.128807; 0.213340;,
       0.223059; 0.213340;,
       0.223344; 0.257654;,
       0.219405; 0.308536;,
       0.116163; 0.257654;,
       0.209898; 0.332989;,
       0.209987; 0.361020;,
       0.209945; 0.377637;,
       0.209827; 0.421511;,
       0.183596; 0.459222;,
       0.447983; 0.095426;,
       0.439358; 0.075642;,
       0.463291; 0.213340;,
       0.475935; 0.257654;,
       0.479647; 0.303197;,
       0.473616; 0.335413;,
       0.470508; 0.363345;,
       0.467695; 0.379749;,
       0.471219; 0.444827;,
       0.461980; 0.506380;,
       0.334450; 0.068790;,
       0.351693; 0.078097;,
       0.345327; 0.084623;,
       0.345327; 0.065363;,
       0.372314; 0.088748;,
       0.371929; 0.070574;,
       0.372770; 0.213340;,
       0.343853; 0.213340;,
       0.343285; 0.301153;,
       0.343535; 0.257654;,
       0.372254; 0.308536;,
       0.372480; 0.257654;,
       0.342648; 0.330062;,
       0.371992; 0.332386;,
       0.342549; 0.358102;,
       0.371902; 0.360424;,
       0.342617; 0.371761;,
       0.371941; 0.377041;,
       0.342041; 0.427930;,
       0.372136; 0.430538;,
       0.342385; 0.465825;,
       0.377318; 0.477290;,
       0.369158; 0.084237;,
       0.395398; 0.110964;,
       0.399285; 0.089912;,
       0.398874; 0.071598;,
       0.398415; 0.213340;,
       0.402068; 0.308536;,
       0.398130; 0.257654;,
       0.411575; 0.332989;,
       0.411487; 0.361020;,
       0.411529; 0.377637;,
       0.411647; 0.431768;,
       0.427977; 0.487195;,
       0.248793; 0.227026;,
       0.277719; 0.227032;,
       0.315089; 0.227039;,
       0.223097; 0.221316;,
       0.467076; 0.226605;,
       0.372680; 0.227026;,
       0.343754; 0.227032;,
       0.398327; 0.227026;,
       0.248912; 0.245162;,
       0.277849; 0.245175;,
       0.315089; 0.245187;,
       0.222988; 0.241761;,
       0.472091; 0.244180;,
       0.343624; 0.245175;,
       0.372562; 0.245162;,
       0.398210; 0.245159;,
       0.125035; 0.224627;,
       0.213085; 0.221653;,
       0.212880; 0.240919;,
       0.120422; 0.233202;,
       0.129558; 0.226271;,
       0.217403; 0.242563;,
       0.217608; 0.223297;,
       0.124945; 0.234846;,
       0.087122; 0.227329;,
       0.084131; 0.231707;,
       0.085624; 0.226290;,
       0.082731; 0.230902;;
      }

      MeshVertexColors {
       289;
       0; 1.000000; 1.000000; 1.000000; 1.000000;,
       1; 1.000000; 1.000000; 1.000000; 1.000000;,
       2; 1.000000; 1.000000; 1.000000; 1.000000;,
       3; 1.000000; 1.000000; 1.000000; 1.000000;,
       4; 1.000000; 1.000000; 1.000000; 1.000000;,
       5; 1.000000; 1.000000; 1.000000; 1.000000;,
       6; 1.000000; 1.000000; 1.000000; 1.000000;,
       7; 1.000000; 1.000000; 1.000000; 1.000000;,
       8; 1.000000; 1.000000; 1.000000; 1.000000;,
       9; 1.000000; 1.000000; 1.000000; 1.000000;,
       10; 1.000000; 1.000000; 1.000000; 1.000000;,
       11; 1.000000; 1.000000; 1.000000; 1.000000;,
       12; 1.000000; 1.000000; 1.000000; 1.000000;,
       13; 1.000000; 1.000000; 1.000000; 1.000000;,
       14; 1.000000; 1.000000; 1.000000; 1.000000;,
       15; 1.000000; 1.000000; 1.000000; 1.000000;,
       16; 1.000000; 1.000000; 1.000000; 1.000000;,
       17; 1.000000; 1.000000; 1.000000; 1.000000;,
       18; 1.000000; 1.000000; 1.000000; 1.000000;,
       19; 1.000000; 1.000000; 1.000000; 1.000000;,
       20; 1.000000; 1.000000; 1.000000; 1.000000;,
       21; 1.000000; 1.000000; 1.000000; 1.000000;,
       22; 1.000000; 1.000000; 1.000000; 1.000000;,
       23; 1.000000; 1.000000; 1.000000; 1.000000;,
       24; 1.000000; 1.000000; 1.000000; 1.000000;,
       25; 1.000000; 1.000000; 1.000000; 1.000000;,
       26; 1.000000; 1.000000; 1.000000; 1.000000;,
       27; 1.000000; 1.000000; 1.000000; 1.000000;,
       28; 1.000000; 1.000000; 1.000000; 1.000000;,
       29; 1.000000; 1.000000; 1.000000; 1.000000;,
       30; 1.000000; 1.000000; 1.000000; 1.000000;,
       31; 1.000000; 1.000000; 1.000000; 1.000000;,
       32; 1.000000; 1.000000; 1.000000; 1.000000;,
       33; 1.000000; 1.000000; 1.000000; 1.000000;,
       34; 1.000000; 1.000000; 1.000000; 1.000000;,
       35; 1.000000; 1.000000; 1.000000; 1.000000;,
       36; 1.000000; 1.000000; 1.000000; 1.000000;,
       37; 1.000000; 1.000000; 1.000000; 1.000000;,
       38; 1.000000; 1.000000; 1.000000; 1.000000;,
       39; 1.000000; 1.000000; 1.000000; 1.000000;,
       40; 1.000000; 1.000000; 1.000000; 1.000000;,
       41; 1.000000; 1.000000; 1.000000; 1.000000;,
       42; 1.000000; 1.000000; 1.000000; 1.000000;,
       43; 1.000000; 1.000000; 1.000000; 1.000000;,
       44; 1.000000; 1.000000; 1.000000; 1.000000;,
       45; 1.000000; 1.000000; 1.000000; 1.000000;,
       46; 1.000000; 1.000000; 1.000000; 1.000000;,
       47; 1.000000; 1.000000; 1.000000; 1.000000;,
       48; 1.000000; 1.000000; 1.000000; 1.000000;,
       49; 1.000000; 1.000000; 1.000000; 1.000000;,
       50; 1.000000; 1.000000; 1.000000; 1.000000;,
       51; 1.000000; 1.000000; 1.000000; 1.000000;,
       52; 1.000000; 1.000000; 1.000000; 1.000000;,
       53; 1.000000; 1.000000; 1.000000; 1.000000;,
       54; 1.000000; 1.000000; 1.000000; 1.000000;,
       55; 1.000000; 1.000000; 1.000000; 1.000000;,
       56; 1.000000; 1.000000; 1.000000; 1.000000;,
       57; 1.000000; 1.000000; 1.000000; 1.000000;,
       58; 1.000000; 1.000000; 1.000000; 1.000000;,
       59; 1.000000; 1.000000; 1.000000; 1.000000;,
       60; 1.000000; 1.000000; 1.000000; 1.000000;,
       61; 1.000000; 1.000000; 1.000000; 1.000000;,
       62; 1.000000; 1.000000; 1.000000; 1.000000;,
       63; 1.000000; 1.000000; 1.000000; 1.000000;,
       64; 1.000000; 1.000000; 1.000000; 1.000000;,
       65; 1.000000; 1.000000; 1.000000; 1.000000;,
       66; 1.000000; 1.000000; 1.000000; 1.000000;,
       67; 1.000000; 1.000000; 1.000000; 1.000000;,
       68; 1.000000; 1.000000; 1.000000; 1.000000;,
       69; 1.000000; 1.000000; 1.000000; 1.000000;,
       70; 1.000000; 1.000000; 1.000000; 1.000000;,
       71; 1.000000; 1.000000; 1.000000; 1.000000;,
       72; 1.000000; 1.000000; 1.000000; 1.000000;,
       73; 1.000000; 1.000000; 1.000000; 1.000000;,
       74; 1.000000; 1.000000; 1.000000; 1.000000;,
       75; 1.000000; 1.000000; 1.000000; 1.000000;,
       76; 1.000000; 1.000000; 1.000000; 1.000000;,
       77; 1.000000; 1.000000; 1.000000; 1.000000;,
       78; 1.000000; 1.000000; 1.000000; 1.000000;,
       79; 1.000000; 1.000000; 1.000000; 1.000000;,
       80; 1.000000; 1.000000; 1.000000; 1.000000;,
       81; 1.000000; 1.000000; 1.000000; 1.000000;,
       82; 1.000000; 1.000000; 1.000000; 1.000000;,
       83; 1.000000; 1.000000; 1.000000; 1.000000;,
       84; 1.000000; 1.000000; 1.000000; 1.000000;,
       85; 1.000000; 1.000000; 1.000000; 1.000000;,
       86; 1.000000; 1.000000; 1.000000; 1.000000;,
       87; 1.000000; 1.000000; 1.000000; 1.000000;,
       88; 1.000000; 1.000000; 1.000000; 1.000000;,
       89; 1.000000; 1.000000; 1.000000; 1.000000;,
       90; 1.000000; 1.000000; 1.000000; 1.000000;,
       91; 1.000000; 1.000000; 1.000000; 1.000000;,
       92; 1.000000; 1.000000; 1.000000; 1.000000;,
       93; 1.000000; 1.000000; 1.000000; 1.000000;,
       94; 1.000000; 1.000000; 1.000000; 1.000000;,
       95; 1.000000; 1.000000; 1.000000; 1.000000;,
       96; 1.000000; 1.000000; 1.000000; 1.000000;,
       97; 1.000000; 1.000000; 1.000000; 1.000000;,
       98; 1.000000; 1.000000; 1.000000; 1.000000;,
       99; 1.000000; 1.000000; 1.000000; 1.000000;,
       100; 1.000000; 1.000000; 1.000000; 1.000000;,
       101; 1.000000; 1.000000; 1.000000; 1.000000;,
       102; 1.000000; 1.000000; 1.000000; 1.000000;,
       103; 1.000000; 1.000000; 1.000000; 1.000000;,
       104; 1.000000; 1.000000; 1.000000; 1.000000;,
       105; 1.000000; 1.000000; 1.000000; 1.000000;,
       106; 1.000000; 1.000000; 1.000000; 1.000000;,
       107; 1.000000; 1.000000; 1.000000; 1.000000;,
       108; 1.000000; 1.000000; 1.000000; 1.000000;,
       109; 1.000000; 1.000000; 1.000000; 1.000000;,
       110; 1.000000; 1.000000; 1.000000; 1.000000;,
       111; 1.000000; 1.000000; 1.000000; 1.000000;,
       112; 1.000000; 1.000000; 1.000000; 1.000000;,
       113; 1.000000; 1.000000; 1.000000; 1.000000;,
       114; 1.000000; 1.000000; 1.000000; 1.000000;,
       115; 1.000000; 1.000000; 1.000000; 1.000000;,
       116; 1.000000; 1.000000; 1.000000; 1.000000;,
       117; 1.000000; 1.000000; 1.000000; 1.000000;,
       118; 1.000000; 1.000000; 1.000000; 1.000000;,
       119; 1.000000; 1.000000; 1.000000; 1.000000;,
       120; 1.000000; 1.000000; 1.000000; 1.000000;,
       121; 1.000000; 1.000000; 1.000000; 1.000000;,
       122; 1.000000; 1.000000; 1.000000; 1.000000;,
       123; 1.000000; 1.000000; 1.000000; 1.000000;,
       124; 1.000000; 1.000000; 1.000000; 1.000000;,
       125; 1.000000; 1.000000; 1.000000; 1.000000;,
       126; 1.000000; 1.000000; 1.000000; 1.000000;,
       127; 1.000000; 1.000000; 1.000000; 1.000000;,
       128; 1.000000; 1.000000; 1.000000; 1.000000;,
       129; 1.000000; 1.000000; 1.000000; 1.000000;,
       130; 1.000000; 1.000000; 1.000000; 1.000000;,
       131; 1.000000; 1.000000; 1.000000; 1.000000;,
       132; 1.000000; 1.000000; 1.000000; 1.000000;,
       133; 1.000000; 1.000000; 1.000000; 1.000000;,
       134; 1.000000; 1.000000; 1.000000; 1.000000;,
       135; 1.000000; 1.000000; 1.000000; 1.000000;,
       136; 1.000000; 1.000000; 1.000000; 1.000000;,
       137; 1.000000; 1.000000; 1.000000; 1.000000;,
       138; 1.000000; 1.000000; 1.000000; 1.000000;,
       139; 1.000000; 1.000000; 1.000000; 1.000000;,
       140; 1.000000; 1.000000; 1.000000; 1.000000;,
       141; 1.000000; 1.000000; 1.000000; 1.000000;,
       142; 1.000000; 1.000000; 1.000000; 1.000000;,
       143; 1.000000; 1.000000; 1.000000; 1.000000;,
       144; 1.000000; 1.000000; 1.000000; 1.000000;,
       145; 1.000000; 1.000000; 1.000000; 1.000000;,
       146; 1.000000; 1.000000; 1.000000; 1.000000;,
       147; 1.000000; 1.000000; 1.000000; 1.000000;,
       148; 1.000000; 1.000000; 1.000000; 1.000000;,
       149; 1.000000; 1.000000; 1.000000; 1.000000;,
       150; 1.000000; 1.000000; 1.000000; 1.000000;,
       151; 1.000000; 1.000000; 1.000000; 1.000000;,
       152; 1.000000; 1.000000; 1.000000; 1.000000;,
       153; 1.000000; 1.000000; 1.000000; 1.000000;,
       154; 1.000000; 1.000000; 1.000000; 1.000000;,
       155; 1.000000; 1.000000; 1.000000; 1.000000;,
       156; 1.000000; 1.000000; 1.000000; 1.000000;,
       157; 1.000000; 1.000000; 1.000000; 1.000000;,
       158; 1.000000; 1.000000; 1.000000; 1.000000;,
       159; 1.000000; 1.000000; 1.000000; 1.000000;,
       160; 1.000000; 1.000000; 1.000000; 1.000000;,
       161; 1.000000; 1.000000; 1.000000; 1.000000;,
       162; 1.000000; 1.000000; 1.000000; 1.000000;,
       163; 1.000000; 1.000000; 1.000000; 1.000000;,
       164; 1.000000; 1.000000; 1.000000; 1.000000;,
       165; 1.000000; 1.000000; 1.000000; 1.000000;,
       166; 1.000000; 1.000000; 1.000000; 1.000000;,
       167; 1.000000; 1.000000; 1.000000; 1.000000;,
       168; 1.000000; 1.000000; 1.000000; 1.000000;,
       169; 1.000000; 1.000000; 1.000000; 1.000000;,
       170; 1.000000; 1.000000; 1.000000; 1.000000;,
       171; 1.000000; 1.000000; 1.000000; 1.000000;,
       172; 1.000000; 1.000000; 1.000000; 1.000000;,
       173; 1.000000; 1.000000; 1.000000; 1.000000;,
       174; 1.000000; 1.000000; 1.000000; 1.000000;,
       175; 1.000000; 1.000000; 1.000000; 1.000000;,
       176; 1.000000; 1.000000; 1.000000; 1.000000;,
       177; 1.000000; 1.000000; 1.000000; 1.000000;,
       178; 1.000000; 1.000000; 1.000000; 1.000000;,
       179; 1.000000; 1.000000; 1.000000; 1.000000;,
       180; 1.000000; 1.000000; 1.000000; 1.000000;,
       181; 1.000000; 1.000000; 1.000000; 1.000000;,
       182; 1.000000; 1.000000; 1.000000; 1.000000;,
       183; 1.000000; 1.000000; 1.000000; 1.000000;,
       184; 1.000000; 1.000000; 1.000000; 1.000000;,
       185; 1.000000; 1.000000; 1.000000; 1.000000;,
       186; 1.000000; 1.000000; 1.000000; 1.000000;,
       187; 1.000000; 1.000000; 1.000000; 1.000000;,
       188; 1.000000; 1.000000; 1.000000; 1.000000;,
       189; 1.000000; 1.000000; 1.000000; 1.000000;,
       190; 1.000000; 1.000000; 1.000000; 1.000000;,
       191; 1.000000; 1.000000; 1.000000; 1.000000;,
       192; 1.000000; 1.000000; 1.000000; 1.000000;,
       193; 1.000000; 1.000000; 1.000000; 1.000000;,
       194; 1.000000; 1.000000; 1.000000; 1.000000;,
       195; 1.000000; 1.000000; 1.000000; 1.000000;,
       196; 1.000000; 1.000000; 1.000000; 1.000000;,
       197; 1.000000; 1.000000; 1.000000; 1.000000;,
       198; 1.000000; 1.000000; 1.000000; 1.000000;,
       199; 1.000000; 1.000000; 1.000000; 1.000000;,
       200; 1.000000; 1.000000; 1.000000; 1.000000;,
       201; 1.000000; 1.000000; 1.000000; 1.000000;,
       202; 1.000000; 1.000000; 1.000000; 1.000000;,
       203; 1.000000; 1.000000; 1.000000; 1.000000;,
       204; 1.000000; 1.000000; 1.000000; 1.000000;,
       205; 1.000000; 1.000000; 1.000000; 1.000000;,
       206; 1.000000; 1.000000; 1.000000; 1.000000;,
       207; 1.000000; 1.000000; 1.000000; 1.000000;,
       208; 1.000000; 1.000000; 1.000000; 1.000000;,
       209; 1.000000; 1.000000; 1.000000; 1.000000;,
       210; 1.000000; 1.000000; 1.000000; 1.000000;,
       211; 1.000000; 1.000000; 1.000000; 1.000000;,
       212; 1.000000; 1.000000; 1.000000; 1.000000;,
       213; 1.000000; 1.000000; 1.000000; 1.000000;,
       214; 1.000000; 1.000000; 1.000000; 1.000000;,
       215; 1.000000; 1.000000; 1.000000; 1.000000;,
       216; 1.000000; 1.000000; 1.000000; 1.000000;,
       217; 1.000000; 1.000000; 1.000000; 1.000000;,
       218; 1.000000; 1.000000; 1.000000; 1.000000;,
       219; 1.000000; 1.000000; 1.000000; 1.000000;,
       220; 1.000000; 1.000000; 1.000000; 1.000000;,
       221; 1.000000; 1.000000; 1.000000; 1.000000;,
       222; 1.000000; 1.000000; 1.000000; 1.000000;,
       223; 1.000000; 1.000000; 1.000000; 1.000000;,
       224; 1.000000; 1.000000; 1.000000; 1.000000;,
       225; 1.000000; 1.000000; 1.000000; 1.000000;,
       226; 1.000000; 1.000000; 1.000000; 1.000000;,
       227; 1.000000; 1.000000; 1.000000; 1.000000;,
       228; 1.000000; 1.000000; 1.000000; 1.000000;,
       229; 1.000000; 1.000000; 1.000000; 1.000000;,
       230; 1.000000; 1.000000; 1.000000; 1.000000;,
       231; 1.000000; 1.000000; 1.000000; 1.000000;,
       232; 1.000000; 1.000000; 1.000000; 1.000000;,
       233; 1.000000; 1.000000; 1.000000; 1.000000;,
       234; 1.000000; 1.000000; 1.000000; 1.000000;,
       235; 1.000000; 1.000000; 1.000000; 1.000000;,
       236; 1.000000; 1.000000; 1.000000; 1.000000;,
       237; 1.000000; 1.000000; 1.000000; 1.000000;,
       238; 1.000000; 1.000000; 1.000000; 1.000000;,
       239; 1.000000; 1.000000; 1.000000; 1.000000;,
       240; 1.000000; 1.000000; 1.000000; 1.000000;,
       241; 1.000000; 1.000000; 1.000000; 1.000000;,
       242; 1.000000; 1.000000; 1.000000; 1.000000;,
       243; 1.000000; 1.000000; 1.000000; 1.000000;,
       244; 1.000000; 1.000000; 1.000000; 1.000000;,
       245; 1.000000; 1.000000; 1.000000; 1.000000;,
       246; 1.000000; 1.000000; 1.000000; 1.000000;,
       247; 1.000000; 1.000000; 1.000000; 1.000000;,
       248; 1.000000; 1.000000; 1.000000; 1.000000;,
       249; 1.000000; 1.000000; 1.000000; 1.000000;,
       250; 1.000000; 1.000000; 1.000000; 1.000000;,
       251; 1.000000; 1.000000; 1.000000; 1.000000;,
       252; 1.000000; 1.000000; 1.000000; 1.000000;,
       253; 1.000000; 1.000000; 1.000000; 1.000000;,
       254; 1.000000; 1.000000; 1.000000; 1.000000;,
       255; 1.000000; 1.000000; 1.000000; 1.000000;,
       256; 1.000000; 1.000000; 1.000000; 1.000000;,
       257; 1.000000; 1.000000; 1.000000; 1.000000;,
       258; 1.000000; 1.000000; 1.000000; 1.000000;,
       259; 1.000000; 1.000000; 1.000000; 1.000000;,
       260; 1.000000; 1.000000; 1.000000; 1.000000;,
       261; 1.000000; 1.000000; 1.000000; 1.000000;,
       262; 1.000000; 1.000000; 1.000000; 1.000000;,
       263; 1.000000; 1.000000; 1.000000; 1.000000;,
       264; 1.000000; 1.000000; 1.000000; 1.000000;,
       265; 1.000000; 1.000000; 1.000000; 1.000000;,
       266; 1.000000; 1.000000; 1.000000; 1.000000;,
       267; 1.000000; 1.000000; 1.000000; 1.000000;,
       268; 1.000000; 1.000000; 1.000000; 1.000000;,
       269; 1.000000; 1.000000; 1.000000; 1.000000;,
       270; 1.000000; 1.000000; 1.000000; 1.000000;,
       271; 1.000000; 1.000000; 1.000000; 1.000000;,
       272; 1.000000; 1.000000; 1.000000; 1.000000;,
       273; 1.000000; 1.000000; 1.000000; 1.000000;,
       274; 1.000000; 1.000000; 1.000000; 1.000000;,
       275; 1.000000; 1.000000; 1.000000; 1.000000;,
       276; 1.000000; 1.000000; 1.000000; 1.000000;,
       277; 1.000000; 1.000000; 1.000000; 1.000000;,
       278; 1.000000; 1.000000; 1.000000; 1.000000;,
       279; 1.000000; 1.000000; 1.000000; 1.000000;,
       280; 1.000000; 1.000000; 1.000000; 1.000000;,
       281; 1.000000; 1.000000; 1.000000; 1.000000;,
       282; 1.000000; 1.000000; 1.000000; 1.000000;,
       283; 1.000000; 1.000000; 1.000000; 1.000000;,
       284; 1.000000; 1.000000; 1.000000; 1.000000;,
       285; 1.000000; 1.000000; 1.000000; 1.000000;,
       286; 1.000000; 1.000000; 1.000000; 1.000000;,
       287; 1.000000; 1.000000; 1.000000; 1.000000;,
       288; 1.000000; 1.000000; 1.000000; 1.000000;;
      }

      MeshMaterialList {
       1;
       514;
       0,
       0,
       0,
       0,
       0,
       0,
       0,
       0,
       0,
       0,
       0,
       0,
       0,
       0,
       0,
       0,
       0,
       0,
       0,
       0,
       0,
       0,
       0,
       0,
       0,
       0,
       0,
       0,
       0,
       0,
       0,
       0,
       0,
       0,
       0,
       0,
       0,
       0,
       0,
       0,
       0,
       0,
       0,
       0,
       0,
       0,
       0,
       0,
       0,
       0,
       0,
       0,
       0,
       0,
       0,
       0,
       0,
       0,
       0,
       0,
       0,
       0,
       0,
       0,
       0,
       0,
       0,
       0,
       0,
       0,
       0,
       0,
       0,
       0,
       0,
       0,
       0,
       0,
       0,
       0,
       0,
       0,
       0,
       0,
       0,
       0,
       0,
       0,
       0,
       0,
       0,
       0,
       0,
       0,
       0,
       0,
       0,
       0,
       0,
       0,
       0,
       0,
       0,
       0,
       0,
       0,
       0,
       0,
       0,
       0,
       0,
       0,
       0,
       0,
       0,
       0,
       0,
       0,
       0,
       0,
       0,
       0,
       0,
       0,
       0,
       0,
       0,
       0,
       0,
       0,
       0,
       0,
       0,
       0,
       0,
       0,
       0,
       0,
       0,
       0,
       0,
       0,
       0,
       0,
       0,
       0,
       0,
       0,
       0,
       0,
       0,
       0,
       0,
       0,
       0,
       0,
       0,
       0,
       0,
       0,
       0,
       0,
       0,
       0,
       0,
       0,
       0,
       0,
       0,
       0,
       0,
       0,
       0,
       0,
       0,
       0,
       0,
       0,
       0,
       0,
       0,
       0,
       0,
       0,
       0,
       0,
       0,
       0,
       0,
       0,
       0,
       0,
       0,
       0,
       0,
       0,
       0,
       0,
       0,
       0,
       0,
       0,
       0,
       0,
       0,
       0,
       0,
       0,
       0,
       0,
       0,
       0,
       0,
       0,
       0,
       0,
       0,
       0,
       0,
       0,
       0,
       0,
       0,
       0,
       0,
       0,
       0,
       0,
       0,
       0,
       0,
       0,
       0,
       0,
       0,
       0,
       0,
       0,
       0,
       0,
       0,
       0,
       0,
       0,
       0,
       0,
       0,
       0,
       0,
       0,
       0,
       0,
       0,
       0,
       0,
       0,
       0,
       0,
       0,
       0,
       0,
       0,
       0,
       0,
       0,
       0,
       0,
       0,
       0,
       0,
       0,
       0,
       0,
       0,
       0,
       0,
       0,
       0,
       0,
       0,
       0,
       0,
       0,
       0,
       0,
       0,
       0,
       0,
       0,
       0,
       0,
       0,
       0,
       0,
       0,
       0,
       0,
       0,
       0,
       0,
       0,
       0,
       0,
       0,
       0,
       0,
       0,
       0,
       0,
       0,
       0,
       0,
       0,
       0,
       0,
       0,
       0,
       0,
       0,
       0,
       0,
       0,
       0,
       0,
       0,
       0,
       0,
       0,
       0,
       0,
       0,
       0,
       0,
       0,
       0,
       0,
       0,
       0,
       0,
       0,
       0,
       0,
       0,
       0,
       0,
       0,
       0,
       0,
       0,
       0,
       0,
       0,
       0,
       0,
       0,
       0,
       0,
       0,
       0,
       0,
       0,
       0,
       0,
       0,
       0,
       0,
       0,
       0,
       0,
       0,
       0,
       0,
       0,
       0,
       0,
       0,
       0,
       0,
       0,
       0,
       0,
       0,
       0,
       0,
       0,
       0,
       0,
       0,
       0,
       0,
       0,
       0,
       0,
       0,
       0,
       0,
       0,
       0,
       0,
       0,
       0,
       0,
       0,
       0,
       0,
       0,
       0,
       0,
       0,
       0,
       0,
       0,
       0,
       0,
       0,
       0,
       0,
       0,
       0,
       0,
       0,
       0,
       0,
       0,
       0,
       0,
       0,
       0,
       0,
       0,
       0,
       0,
       0,
       0,
       0,
       0,
       0,
       0,
       0,
       0,
       0,
       0,
       0,
       0,
       0,
       0,
       0,
       0,
       0,
       0,
       0,
       0,
       0,
       0,
       0,
       0,
       0,
       0,
       0,
       0,
       0,
       0,
       0,
       0,
       0,
       0,
       0,
       0,
       0,
       0,
       0,
       0,
       0,
       0,
       0,
       0,
       0,
       0,
       0,
       0,
       0,
       0,
       0,
       0,
       0,
       0,
       0,
       0,
       0,
       0,
       0,
       0,
       0,
       0,
       0,
       0,
       0,
       0,
       0,
       0,
       0,
       0,
       0,
       0,
       0,
       0,
       0,
       0,
       0,
       0,
       0,
       0,
       0,
       0;

       Material def_surf_mat {
        0.992157; 0.992157; 0.992157; 1.000000;;
        1.000000;
        0.150000; 0.150000; 0.150000;;
        0.000000; 0.000000; 0.000000;;

        TextureFilename {
         "helmet.dds";
        }
       }

      }

      XSkinMeshHeader {
       1;
       1;
       1;
      }

      SkinWeights {
       "Body";
       289;
       0,
       1,
       2,
       3,
       4,
       5,
       6,
       7,
       8,
       9,
       10,
       11,
       12,
       13,
       14,
       15,
       16,
       17,
       18,
       19,
       20,
       21,
       22,
       23,
       24,
       25,
       26,
       27,
       28,
       29,
       30,
       31,
       32,
       33,
       34,
       35,
       36,
       37,
       38,
       39,
       40,
       41,
       42,
       43,
       44,
       45,
       46,
       47,
       48,
       49,
       50,
       51,
       52,
       53,
       54,
       55,
       56,
       57,
       58,
       59,
       60,
       61,
       62,
       63,
       64,
       65,
       66,
       67,
       68,
       69,
       70,
       71,
       72,
       73,
       74,
       75,
       76,
       77,
       78,
       79,
       80,
       81,
       82,
       83,
       84,
       85,
       86,
       87,
       88,
       89,
       90,
       91,
       92,
       93,
       94,
       95,
       96,
       97,
       98,
       99,
       100,
       101,
       102,
       103,
       104,
       105,
       106,
       107,
       108,
       109,
       110,
       111,
       112,
       113,
       114,
       115,
       116,
       117,
       118,
       119,
       120,
       121,
       122,
       123,
       124,
       125,
       126,
       127,
       128,
       129,
       130,
       131,
       132,
       133,
       134,
       135,
       136,
       137,
       138,
       139,
       140,
       141,
       142,
       143,
       144,
       145,
       146,
       147,
       148,
       149,
       150,
       151,
       152,
       153,
       154,
       155,
       156,
       157,
       158,
       159,
       160,
       161,
       162,
       163,
       164,
       165,
       166,
       167,
       168,
       169,
       170,
       171,
       172,
       173,
       174,
       175,
       176,
       177,
       178,
       179,
       180,
       181,
       182,
       183,
       184,
       185,
       186,
       187,
       188,
       189,
       190,
       191,
       192,
       193,
       194,
       195,
       196,
       197,
       198,
       199,
       200,
       201,
       202,
       203,
       204,
       205,
       206,
       207,
       208,
       209,
       210,
       211,
       212,
       213,
       214,
       215,
       216,
       217,
       218,
       219,
       220,
       221,
       222,
       223,
       224,
       225,
       226,
       227,
       228,
       229,
       230,
       231,
       232,
       233,
       234,
       235,
       236,
       237,
       238,
       239,
       240,
       241,
       242,
       243,
       244,
       245,
       246,
       247,
       248,
       249,
       250,
       251,
       252,
       253,
       254,
       255,
       256,
       257,
       258,
       259,
       260,
       261,
       262,
       263,
       264,
       265,
       266,
       267,
       268,
       269,
       270,
       271,
       272,
       273,
       274,
       275,
       276,
       277,
       278,
       279,
       280,
       281,
       282,
       283,
       284,
       285,
       286,
       287,
       288;
       1.000000,
       1.000000,
       1.000000,
       1.000000,
       1.000000,
       1.000000,
       1.000000,
       1.000000,
       1.000000,
       1.000000,
       1.000000,
       1.000000,
       1.000000,
       1.000000,
       1.000000,
       1.000000,
       1.000000,
       1.000000,
       1.000000,
       1.000000,
       1.000000,
       1.000000,
       1.000000,
       1.000000,
       1.000000,
       1.000000,
       1.000000,
       1.000000,
       1.000000,
       1.000000,
       1.000000,
       1.000000,
       1.000000,
       1.000000,
       1.000000,
       1.000000,
       1.000000,
       1.000000,
       1.000000,
       1.000000,
       1.000000,
       1.000000,
       1.000000,
       1.000000,
       1.000000,
       1.000000,
       1.000000,
       1.000000,
       1.000000,
       1.000000,
       1.000000,
       1.000000,
       1.000000,
       1.000000,
       1.000000,
       1.000000,
       1.000000,
       1.000000,
       1.000000,
       1.000000,
       1.000000,
       1.000000,
       1.000000,
       1.000000,
       1.000000,
       1.000000,
       1.000000,
       1.000000,
       1.000000,
       1.000000,
       1.000000,
       1.000000,
       1.000000,
       1.000000,
       1.000000,
       1.000000,
       1.000000,
       1.000000,
       1.000000,
       1.000000,
       1.000000,
       1.000000,
       1.000000,
       1.000000,
       1.000000,
       1.000000,
       1.000000,
       1.000000,
       1.000000,
       1.000000,
       1.000000,
       1.000000,
       1.000000,
       1.000000,
       1.000000,
       1.000000,
       1.000000,
       1.000000,
       1.000000,
       1.000000,
       1.000000,
       1.000000,
       1.000000,
       1.000000,
       1.000000,
       1.000000,
       1.000000,
       1.000000,
       1.000000,
       1.000000,
       1.000000,
       1.000000,
       1.000000,
       1.000000,
       1.000000,
       1.000000,
       1.000000,
       1.000000,
       1.000000,
       1.000000,
       1.000000,
       1.000000,
       1.000000,
       1.000000,
       1.000000,
       1.000000,
       1.000000,
       1.000000,
       1.000000,
       1.000000,
       1.000000,
       1.000000,
       1.000000,
       1.000000,
       1.000000,
       1.000000,
       1.000000,
       1.000000,
       1.000000,
       1.000000,
       1.000000,
       1.000000,
       1.000000,
       1.000000,
       1.000000,
       1.000000,
       1.000000,
       1.000000,
       1.000000,
       1.000000,
       1.000000,
       1.000000,
       1.000000,
       1.000000,
       1.000000,
       1.000000,
       1.000000,
       1.000000,
       1.000000,
       1.000000,
       1.000000,
       1.000000,
       1.000000,
       1.000000,
       1.000000,
       1.000000,
       1.000000,
       1.000000,
       1.000000,
       1.000000,
       1.000000,
       1.000000,
       1.000000,
       1.000000,
       1.000000,
       1.000000,
       1.000000,
       1.000000,
       1.000000,
       1.000000,
       1.000000,
       1.000000,
       1.000000,
       1.000000,
       1.000000,
       1.000000,
       1.000000,
       1.000000,
       1.000000,
       1.000000,
       1.000000,
       1.000000,
       1.000000,
       1.000000,
       1.000000,
       1.000000,
       1.000000,
       1.000000,
       1.000000,
       1.000000,
       1.000000,
       1.000000,
       1.000000,
       1.000000,
       1.000000,
       1.000000,
       1.000000,
       1.000000,
       1.000000,
       1.000000,
       1.000000,
       1.000000,
       1.000000,
       1.000000,
       1.000000,
       1.000000,
       1.000000,
       1.000000,
       1.000000,
       1.000000,
       1.000000,
       1.000000,
       1.000000,
       1.000000,
       1.000000,
       1.000000,
       1.000000,
       1.000000,
       1.000000,
       1.000000,
       1.000000,
       1.000000,
       1.000000,
       1.000000,
       1.000000,
       1.000000,
       1.000000,
       1.000000,
       1.000000,
       1.000000,
       1.000000,
       1.000000,
       1.000000,
       1.000000,
       1.000000,
       1.000000,
       1.000000,
       1.000000,
       1.000000,
       1.000000,
       1.000000,
       1.000000,
       1.000000,
       1.000000,
       1.000000,
       1.000000,
       1.000000,
       1.000000,
       1.000000,
       1.000000,
       1.000000,
       1.000000,
       1.000000,
       1.000000,
       1.000000,
       1.000000,
       1.000000,
       1.000000,
       1.000000,
       1.000000,
       1.000000,
       1.000000,
       1.000000,
       1.000000,
       1.000000,
       1.000000,
       1.000000,
       1.000000,
       1.000000,
       1.000000,
       1.000000,
       1.000000,
       1.000000,
       1.000000,
       1.000000,
       1.000000,
       1.000000,
       1.000000,
       1.000000;
          1.000000, -0.000000, 0.000000, 0.000000,
          -0.000000, 1.000000, -0.000000, 0.000000,
          0.000000, -0.000000, 1.000000, 0.000000,
          -0.000000, -0.000000, -0.000000, 1.000000;;
      }


     }
   }

// Start of Animation

AnimationSet Untitled {
}
