<?xml version="1.0" encoding="utf-8"?>
<COLLADA xmlns="http://www.collada.org/2005/11/COLLADASchema" version="1.4.1">
  <asset>
    <contributor>
      <author>Ultimate Unwrap3D Pro</author>
      <authoring_tool>Ultimate Unwrap3D Pro v3.19</authoring_tool>
      <comments>Exported from Ultimate Unwrap3D Pro on Thu Dec 10 21:38:38 2009</comments>
      <source_data>file:///C:/Users/Public/Documents/Unity%20Projects/Island%20Demo/Assets/new/castle_props/helmet.dae</source_data>
    </contributor>
    <created>2009-12-10T21:38:38Z</created>
    <modified>2009-12-10T21:38:38Z</modified>
    <unit meter="1" name="meter"/>
    <up_axis>Y_UP</up_axis>
  </asset>
  <library_images>
    <image id="Image" name="helmet">
      <init_from>./helmet.dds</init_from>
    </image>
  </library_images>
  <library_materials>
    <material id="VisualMaterial1" name="Unassigned">
      <instance_effect url="#Effect"/>
    </material>
    <material id="VisualMaterial" name="def_surf_mat">
      <instance_effect url="#Effect1"/>
    </material>
  </library_materials>
  <library_effects>
    <effect id="Effect" name="Unassigned_eff">
      <profile_COMMON>
        <technique sid="common">
          <phong>
            <ambient>
              <color>0 0 0 1</color>
            </ambient>
            <diffuse>
              <color>1 1 1 1</color>
            </diffuse>
            <specular>
              <color>0 0 0 1</color>
            </specular>
            <shininess>
              <float>100</float>
            </shininess>
            <reflective>
              <color>0 0 0 1</color>
            </reflective>
            <reflectivity>
              <float>1</float>
            </reflectivity>
            <transparent opaque="A_ONE">
              <color>1 1 1 1</color>
            </transparent>
            <transparency>
              <float>0</float>
            </transparency>
            <index_of_refraction>
              <float>0</float>
            </index_of_refraction>
          </phong>
          <extra>
            <technique profile="FCOLLADA">
              <spec_level>
                <float>0</float>
              </spec_level>
              <emission_level>
                <float>0</float>
              </emission_level>
            </technique>
          </extra>
        </technique>
      </profile_COMMON>
      <extra>
        <technique profile="MAX3D">
          <faceted>0</faceted>
          <double_sided>0</double_sided>
          <wireframe>0</wireframe>
          <face_map>0</face_map>
        </technique>
      </extra>
    </effect>
    <effect id="Effect1" name="def_surf_mat_eff">
      <profile_COMMON>
        <newparam sid="Image-surface">
          <surface type="2D">
            <init_from>Image</init_from>
            <format>A8R8G8B8</format>
          </surface>
        </newparam>
        <newparam sid="Image-sampler">
          <sampler2D>
            <source>Image-surface</source>
            <minfilter>LINEAR_MIPMAP_LINEAR</minfilter>
            <magfilter>LINEAR</magfilter>
          </sampler2D>
        </newparam>
        <technique sid="common">
          <phong>
            <ambient>
              <color>0 0 0 1</color>
            </ambient>
            <diffuse>
              <texture texture="Image-sampler" texcoord="UVSET0">
                <extra>
                  <technique profile="MAX3D">
                    <amount>1</amount>
                  </technique>
                </extra>
              </texture>
            </diffuse>
            <specular>
              <color>0.15 0.15 0.15 1</color>
            </specular>
            <shininess>
              <float>0.78125</float>
            </shininess>
            <reflective>
              <color>0 0 0 1</color>
            </reflective>
            <reflectivity>
              <float>1</float>
            </reflectivity>
            <transparent opaque="A_ONE">
              <color>1 1 1 1</color>
            </transparent>
            <transparency>
              <float>0</float>
            </transparency>
            <index_of_refraction>
              <float>0</float>
            </index_of_refraction>
          </phong>
          <extra>
            <technique profile="FCOLLADA">
              <spec_level>
                <float>0</float>
              </spec_level>
              <emission_level>
                <float>0</float>
              </emission_level>
            </technique>
          </extra>
        </technique>
      </profile_COMMON>
      <extra>
        <technique profile="MAX3D">
          <faceted>0</faceted>
          <double_sided>0</double_sided>
          <wireframe>0</wireframe>
          <face_map>0</face_map>
        </technique>
      </extra>
    </effect>
  </library_effects>
  <library_geometries>
    <geometry id="geomU3D_id" name="geomU3D">
      <mesh>
        <source id="PositionSrc_id" name="PositionSrc">
          <float_array id="PositionSrc_id-array" count="867">-3.77103 14.3528 -0.006348 -3.05502 13.7188 -1.65375 -4.03132 13.7188 -0.006348 -2.79471 14.3528 -1.65375 -6.87567 5.8411 0.008553 -5.49708 6.8894 -2.03474 -5.48417 5.8411 -2.10125 -6.88652 6.8894 0.008354 -6.92836 4.9426 0.008652 -5.53616 4.9426 -2.12385 -6.92728 4.4101 0.008354 -5.53723 4.4101 -2.05434 -6.92189 2.6818 0.00695 -5.78117 2.6818 -1.70865 -6.91546 1.0268 0.005249 -6.01073 0.655701 -1.29625 -6.89383 0 0.000053 -0.584378 14.6822 -3.61735 0.590873 14.7653 0.006454 0.590873 14.7653 -3.72044 -0.636036 14.6822 0.006653 -1.38724 14.5152 -3.18404 -2.23956 14.5152 0.00705 -0.584377 14.065 -3.61735 0.590873 14.7653 -3.72044 0.590873 14.1249 -3.72044 -0.584378 14.6822 -3.61735 -1.39883 13.9328 -3.18404 -1.38724 14.5152 -3.18404 -1.41259 9.9401 -4.34515 -0.539886 9.9401 -4.45174 0.590873 9.9401 -4.31515 -0.522762 7.126 -4.68675 0.590873 8.52 -4.44215 0.590873 7.3153 -4.54145 -0.530287 8.52 -4.58365 -1.39702 6.8894 -4.59175 -1.40385 8.52 -4.48355 -0.503526 6.1996 -4.80485 0.590873 6.2671 -4.65665 -1.3891 6.1251 -4.71705 -0.50055 5.301 -4.84555 0.590873 5.3685 -4.69575 -1.38642 5.2266 -4.75975 -0.502588 4.8633 -4.71975 0.590873 4.8361 -4.57455 -1.3876 4.6941 -4.62765 -0.485198 3.392 -4.71445 0.590873 3.2127 -4.69595 -1.39346 3.3084 -4.62635 -0.495586 2.0879 -4.78384 0.590873 1.9736 -4.75225 -1.40044 2.2285 -4.76965 -1.75222 14.4824 -2.89815 -2.54887 14.4824 0.006851 -2.79471 14.3528 -1.65375 -3.77103 14.3528 -0.006348 -1.76462 13.8955 -2.90475 -1.75222 14.4824 -2.89815 -2.18654 9.9401 -4.01655 -5.03101 9.9401 -1.90404 -2.2968 6.8894 -4.23515 -2.17793 8.52 -4.15604 -5.4126 8.52 -1.97745 -2.58372 6.1058 -4.39094 -2.58105 5.2075 -4.43365 -2.58232 4.675 -4.39535 -2.58589 3.269 -4.38274 -3.37752 2.0605 -3.82204 4.34126 14.3528 -1.65375 5.57788 13.7188 -0.006348 4.60155 13.7188 -1.65375 5.31757 14.3528 0.006355 6.44894 9.9401 -0.007744 5.06354 9.9401 -1.90404 6.83279 8.52 -0.008049 5.55715 7.0605 -2.03474 5.44512 8.52 -1.97745 6.92836 6.8361 -0.008347 5.37513 6.0281 -2.10125 6.74836 5.8034 -0.008545 5.28134 5.133 -2.12385 6.65526 4.9081 -0.008644 5.19642 4.6073 -2.05434 6.56821 4.3828 -0.008347 5.3028 2.5218 -1.70865 6.42856 2.3376 -0.00695 5.02396 0.549297 -1.64175 6.30936 1.9776 -0.005249 6.20308 0.071999 -0.002647 1.5551 14.6822 0.006653 1.50345 14.6822 -3.61735 3.15862 14.5152 0.00705 2.30629 14.5152 -3.18404 1.50345 14.6822 -3.61735 1.50345 14.065 -3.61735 2.30629 14.5152 -3.18404 2.31789 13.9328 -3.18404 1.45896 9.9401 -4.45174 2.33166 9.9401 -4.34515 1.44936 8.52 -4.58365 1.44183 7.126 -4.68675 2.32292 8.52 -4.48355 2.31609 6.8894 -4.59175 1.4226 6.1996 -4.80485 2.30818 6.1251 -4.71705 1.41962 5.301 -4.84555 2.30547 5.2266 -4.75975 1.42166 4.8633 -4.71975 2.30665 4.6941 -4.62765 1.40427 3.0633 -4.71445 2.31252 2.9797 -4.62635 1.41465 1.8489 -4.78384 2.4689 1.4815 -4.76965 4.09541 14.4824 0.006851 3.11947 14.4824 -2.89815 5.31757 14.3528 0.006355 4.34126 14.3528 -1.65375 3.11947 14.4824 -2.89815 3.13188 13.8955 -2.90475 3.1056 9.9401 -4.01655 3.097 8.52 -4.15604 3.21587 6.8894 -4.23515 3.50278 6.1058 -4.39094 3.50012 5.2075 -4.43365 3.50138 4.675 -4.39535 3.50496 2.9403 -4.38274 3.99778 1.1641 -3.82204 -0.53692 9.5013 -4.49255 -1.40989 9.5015 -4.38795 0.590873 9.5011 -4.35435 -2.18538 9.6845 -4.05965 6.56392 9.5147 -0.007851 5.17775 9.515 -1.92605 1.45598 9.5013 -4.49255 2.32895 9.5015 -4.38795 3.10296 9.5015 -4.05965 -0.53299 8.9199 -4.54655 -1.40631 8.9203 -4.44455 0.590873 8.9195 -4.40645 -2.18867 9.0293 -4.10785 5.32909 8.9518 -1.95515 6.71629 8.951 -0.00795 2.32539 8.9203 -4.44455 1.45205 8.9199 -4.54655 3.09943 8.9204 -4.11674 -5.14487 9.5784 -1.92605 -2.48755 9.6737 -3.84185 -2.49374 9.0563 -3.89555 -5.28408 9.3036 -1.95344 -6.30907 9.9401 0.028152 -6.69542 8.52 0.028755 -6.48726 9.5263 0.028053 -6.56925 9.4042 0.028549 -5.14757 9.2509 -1.78545 -2.35104 9.621 -3.67385 -2.35723 9.0036 -3.72755 -5.00837 9.5257 -1.75795 -6.37932 9.3515 -0.095947 -6.28905 9.4918 -0.09935 -6.42158 9.3773 -0.185844 -6.33427 9.5251 -0.189346 -2.79471 14.3528 1.65375 -3.05502 13.7188 1.65375 -5.48417 5.8411 2.10125 -5.49708 6.8894 2.03475 -5.53616 4.9426 2.12386 -5.53723 4.4101 2.05435 -5.78117 2.6818 1.70866 -6.01073 0.655701 1.29625 0.590873 14.7653 3.72045 -0.584378 14.6822 3.61736 -1.38724 14.5152 3.18405 -0.584378 14.6822 3.61736 0.590873 14.1249 3.72045 0.590873 14.7653 3.72045 -0.584377 14.065 3.61736 -1.38724 14.5152 3.18405 -1.39883 13.9328 3.18405 -0.539886 9.9401 4.45175 -1.41259 9.9401 4.34515 0.590873 9.9401 4.31516 -0.530287 8.52 4.58366 0.590873 7.3153 4.54155 0.590873 8.52 4.44215 -0.522762 7.126 4.68675 -1.40385 8.52 4.48355 -1.39702 6.8894 4.59175 0.590873 6.2671 4.65665 -0.503526 6.1996 4.80485 -1.3891 6.1251 4.71706 0.590873 5.3685 4.69576 -0.50055 5.301 4.84555 -1.38642 5.2266 4.75975 0.590873 4.8361 4.57455 -0.502588 4.8633 4.71975 -1.3876 4.6941 4.62766 0.590873 3.2127 4.69605 -0.485198 3.392 4.71446 -1.39346 3.3084 4.62635 0.590873 1.9736 4.75225 -0.495586 2.0879 4.78385 -1.40044 2.2285 4.76965 -1.75222 14.4824 2.89815 -2.79471 14.3528 1.65375 -1.75222 14.4824 2.89815 -1.76462 13.8955 2.90476 -5.03101 9.9401 1.90405 -2.18654 9.9401 4.01656 -2.17793 8.52 4.15615 -2.2968 6.8894 4.23515 -5.4126 8.52 1.97746 -2.58372 6.1058 4.39095 -2.58105 5.2075 4.43365 -2.58232 4.675 4.39536 -2.58589 3.269 4.38275 -3.37752 2.0605 3.82205 4.60155 13.7188 1.65375 4.34126 14.3528 1.65375 5.06354 9.9401 1.90405 5.44512 8.52 1.97746 5.55715 7.0605 2.03475 5.37513 6.0281 2.10125 5.28134 5.133 2.12386 5.19642 4.6073 2.05435 5.3028 2.5218 1.70866 5.02396 0.549297 1.64175 1.50345 14.6822 3.61736 2.30629 14.5152 3.18405 1.50345 14.065 3.61736 1.50345 14.6822 3.61736 2.31789 13.9328 3.18405 2.30629 14.5152 3.18405 2.33166 9.9401 4.34515 1.45896 9.9401 4.45175 1.44183 7.126 4.68675 1.44936 8.52 4.58366 2.31609 6.8894 4.59175 2.32292 8.52 4.48355 1.4226 6.1996 4.80485 2.30818 6.1251 4.71706 1.41962 5.301 4.84555 2.30547 5.2266 4.75975 1.42166 4.8633 4.71975 2.30665 4.6941 4.62766 1.40427 3.0633 4.71446 2.31252 2.9797 4.62635 1.41465 1.8489 4.78385 2.4689 1.4815 4.76965 3.11947 14.4824 2.89815 4.34126 14.3528 1.65375 3.13188 13.8955 2.90476 3.11947 14.4824 2.89815 3.1056 9.9401 4.01656 3.21587 6.8894 4.23515 3.097 8.52 4.15615 3.50278 6.1058 4.39095 3.50012 5.2075 4.43365 3.50138 4.675 4.39536 3.50496 2.9403 4.38275 3.99778 1.1641 3.82205 -1.40989 9.5015 4.38796 -0.53692 9.5013 4.49255 0.590873 9.5011 4.35435 -2.18538 9.6845 4.05965 5.17775 9.515 1.92606 2.32895 9.5015 4.38796 1.45598 9.5013 4.49255 3.10296 9.5015 4.05965 -1.40631 8.9203 4.44455 -0.53299 8.9199 4.54656 0.590873 8.9195 4.40646 -2.18867 9.0293 4.10785 5.32909 8.9518 1.95515 1.45205 8.9199 4.54656 2.32539 8.9203 4.44455 3.09943 8.9204 4.11675 -5.14487 9.5784 1.92606 -2.48755 9.6737 3.84185 -2.49374 9.0563 3.89555 -5.28408 9.3036 1.95345 -5.00837 9.5257 1.75805 -2.35723 9.0036 3.72755 -2.35104 9.621 3.67385 -5.14757 9.2509 1.78545 -6.28905 9.4918 0.09935 -6.37932 9.3515 0.095955 -6.33427 9.5251 0.189354 -6.42158 9.3773 0.185852</float_array>
          <technique_common>
            <accessor source="#PositionSrc_id-array" count="289" stride="3">
              <param name="X" type="float"/>
              <param name="Y" type="float"/>
              <param name="Z" type="float"/>
            </accessor>
          </technique_common>
        </source>
        <source id="NormalSrc_id" name="NormalSrc">
          <float_array id="NormalSrc_id-array" count="867">-0.909844 0.373544 -0.180689 -0.739741 0.295959 -0.604311 -0.895545 0.444938 -0.005467 -0.779913 0.320208 -0.537775 -0.999438 0.033481 -0.001443 -0.708825 0.044599 -0.703973 -0.730464 0.101767 -0.675327 -0.998569 0.053282 0.004609 -0.999844 0.017316 0.003467 -0.735402 -0.003535 -0.677622 -0.999879 -0.015122 0.003575 -0.731169 -0.049523 -0.680396 -0.99998 -0.004832 0.004117 -0.737965 -0.030168 -0.674164 -0.991252 -0.015167 -0.13111 -0.759714 0.011614 -0.650154 -0.999777 -0.021075 0.001182 -0.114666 0.993403 -0.001298 0.009484 0.999955 0.000044 0.035488 0.99937 -0.000432 -0.103141 0.994655 -0.004848 -0.140687 0.989847 -0.020266 -0.128013 0.991772 0.001058 -0.229705 0.108883 -0.96715 -0.020931 0 -0.999781 0.047131 0.079943 -0.995684 -0.350888 0.003218 -0.936412 -0.509479 0.135375 -0.849767 -0.568952 0.01453 -0.822242 -0.272874 0.165151 -0.947768 0.004044 0.135036 -0.990832 0.010341 0.131915 -0.991207 -0.006245 0.107171 -0.994221 0.008237 0.083341 -0.996487 -0.018316 0.097704 -0.995047 0.003147 0.081181 -0.996694 -0.23076 0.13707 -0.963308 -0.250252 0.079416 -0.964918 0.009127 0.083374 -0.996477 -0.014885 0.080199 -0.996668 -0.192388 0.095786 -0.976633 0.032431 -0.111406 -0.993246 -0.022707 -0.099083 -0.99482 -0.165748 -0.068834 -0.983763 0.026258 -0.131425 -0.990978 -0.040426 -0.096273 -0.994534 -0.134123 -0.128074 -0.982654 -0.00403 0.05112 -0.998684 -0.020446 0.048297 -0.998624 -0.191054 -0.011425 -0.981513 0.017463 0.050501 -0.998571 -0.003419 0.049195 -0.998783 -0.187684 0.103862 -0.976723 -0.133341 0.990405 -0.036297 -0.119545 0.992791 -0.008658 -0.143159 0.988119 -0.055922 -0.19848 0.978033 0.063692 -0.648868 0.120129 -0.751358 -0.696299 0.118497 -0.707902 -0.516906 0.21956 -0.827406 -0.689564 0.318297 -0.650529 -0.480545 0.156731 -0.862851 -0.475877 0.074421 -0.876357 -0.728676 0.099118 -0.677649 -0.464609 0.163532 -0.870285 -0.447987 -0.016981 -0.893879 -0.430732 -0.076199 -0.899257 -0.449745 -0.043016 -0.89212 -0.475507 -0.008976 -0.879666 0.758144 0.24488 -0.604361 0.955653 0.293841 0.019618 0.75965 0.214239 -0.61403 0.909852 0.373534 0.180672 0.970986 0.238883 0.011022 0.747065 0.189025 -0.637309 0.960253 0.168599 -0.222461 0.769138 0.063791 -0.635891 0.725367 0.130716 -0.675838 0.999061 -0.0433 0.001643 0.801964 -0.076515 -0.592451 0.991727 -0.128356 0.001444 0.809221 -0.113027 -0.576529 0.989518 -0.144366 -0.003467 0.815804 -0.108272 -0.568103 0.991688 -0.128625 -0.003192 0.838311 -0.062913 -0.54155 0.985575 -0.167517 0.024069 0.846406 -0.152661 -0.510188 0.970738 -0.183013 0.155479 0.998448 -0.055687 -0.000932 0.112585 0.99363 0.004866 0.143753 0.98937 -0.021966 0.093156 0.995645 -0.003719 0.105949 0.993938 -0.029352 0.236991 0 -0.971512 0.260805 0.088956 -0.961284 0.427035 0.005343 -0.904219 0.347304 0.12605 -0.929242 0.044208 0.157391 -0.986546 0.244219 0.179702 -0.952924 -0.068742 0.083792 -0.994109 -0.01365 0.095997 -0.995288 0.209309 0.079179 -0.974638 0.251742 0.105181 -0.962062 -0.026487 0.091524 -0.995451 0.201628 0.121366 -0.971914 -0.042476 -0.107209 -0.993329 0.170157 -0.103455 -0.979971 -0.021485 -0.122434 -0.992244 0.149045 -0.09194 -0.984547 0.039024 0.025511 -0.998913 0.14038 0.044245 -0.989109 0.040141 0.071615 -0.996624 0.257908 0.028733 -0.965742 0.08108 0.996643 0.011335 0.13542 0.988529 -0.066871 0.15549 0.986993 -0.040836 0.252884 0.955997 -0.148723 0.468254 0.016068 -0.883448 0.550996 0.165697 -0.817892 0.564548 0.152987 -0.811098 0.488317 0.077462 -0.869221 0.508386 0.176031 -0.842945 0.519469 0.117356 -0.846392 0.541659 -0.060013 -0.838453 0.532056 -0.058299 -0.8447 0.599127 -0.003467 -0.800647 0.763943 -0.073447 -0.641091 0.001325 0.092633 -0.995699 -0.246635 0.10278 -0.963643 -0.038546 0.090922 -0.995112 -0.47597 0.239635 -0.846184 0.962424 0.271524 -0.003864 0.752743 0.202461 -0.626409 0.026699 0.093847 -0.995229 0.301396 0.090928 -0.949154 0.588637 0.107828 -0.801174 -0.036276 0.093657 -0.994943 -0.295974 0.086485 -0.951273 0.001497 0.090922 -0.995857 -0.483375 0.000174 -0.875414 0.745692 0.202127 -0.634893 0.962473 0.271351 -0.003833 0.254937 0.091554 -0.962614 -0.022332 0.092615 -0.995451 0.545573 0.104262 -0.831553 -0.721966 -0.392678 -0.56971 -0.712267 -0.701683 -0.017801 -0.92693 0.285065 0.244004 -0.094303 0.993315 -0.066579 -0.895791 0.444318 -0.011816 -0.967051 0.125383 0.221565 -0.960718 0.274338 0.041947 -0.848108 0.522634 0.086983 -0.243215 0.8869 -0.392752 -0.958778 -0.215557 -0.185148 -0.439859 0.896932 0.045134 -0.630855 -0.444004 -0.636304 0.046906 -0.0554 -0.997362 -0.128718 -0.60457 -0.786083 -0.508795 -0.24778 -0.824459 0.583534 0.253159 -0.771621 -0.780684 0.246586 0.574219 -0.741267 0.382039 0.551879 -0.733771 0.035772 0.678455 -0.715151 0.106589 0.690796 -0.734685 -0.010127 0.678333 -0.734813 -0.040329 0.677069 -0.747466 -0.014277 0.664146 -0.789458 -0.029617 0.613089 -0.015882 0.999874 0.000337 -0.137109 0.990312 0.02199 -0.151994 0.987529 0.041052 -0.220623 -0.000000 0.975359 -0.031506 0.079832 0.99631 0.045914 0 0.998945 -0.257688 0.08904 0.962117 -0.52277 0.007242 0.852443 -0.495505 0.121833 0.860018 -0.102946 0.157771 0.982095 -0.335859 0.191362 0.922269 -0.02903 0.120911 0.992239 0.003977 0.085144 0.996361 -0.017377 0.097737 0.995061 -0.037721 0.0862 0.995563 -0.004428 0.095847 0.995386 -0.25464 0.077256 0.963945 -0.251725 0.105173 0.962067 -0.024411 0.080119 0.996486 0.006225 0.091331 0.995801 -0.201627 0.121365 0.971914 -0.02002 -0.098804 0.994905 0.021503 -0.107415 0.993982 -0.170154 -0.103453 0.979972 0.009679 -0.096282 0.995307 0.00714 -0.122602 0.99243 -0.149012 -0.092102 0.984537 0.020338 0.048874 0.998598 -0.037531 0.023901 0.99901 -0.131658 0.051301 0.989967 0.009258 0.047824 0.998813 -0.020662 0.079529 0.996618 -0.210322 0.040691 0.976785 -0.200943 0.974985 0.095004 -0.375513 0.900121 0.220842 -0.667782 0.019259 0.744108 -0.62365 0.219583 0.750229 -0.697757 0.327472 0.637101 -0.503468 0.21781 0.836109 -0.45398 0.071819 0.888113 -0.447131 0.166455 0.878844 -0.647412 0.094928 0.756205 -0.438032 0.135872 0.888632 -0.438303 -0.03803 0.898023 -0.415796 -0.041198 0.908524 -0.466558 -0.003146 0.884485 -0.586033 -0.048818 0.808815 0.754896 0.208923 0.621678 0.759094 0.31166 0.571529 0.769711 0.164259 0.616898 0.770647 0.148897 0.619624 0.761368 -0.012791 0.648194 0.793733 -0.005139 0.608245 0.803619 -0.109881 0.584912 0.811563 -0.101886 0.575313 0.821718 -0.106716 0.559814 0.849187 -0.046826 0.526011 0.12744 0.991845 0.00139 0.118002 0.992911 0.014248 0.242402 0.108541 0.964085 0.358543 0.003214 0.933508 0.414228 0.130618 0.900752 0.378949 0.011227 0.925349 0.318061 0.164245 0.933735 0.028957 0.136205 0.990257 -0.011293 0.107362 0.994156 0.024448 0.082444 0.996296 0.230761 0.137072 0.963307 0.295883 0.078813 0.951967 -0.027932 0.083445 0.996121 0.192388 0.095787 0.976633 -0.05406 -0.111423 0.992302 0.165746 -0.068834 0.983763 -0.047286 -0.130928 0.990264 0.134132 -0.127791 0.982689 0.00706 0.048477 0.998799 0.210166 -0.001923 0.977664 -0.003389 0.053198 0.998578 0.233901 0.102602 0.966832 0.079752 0.996478 0.02589 0.132358 0.989497 0.058108 0.466468 0.10277 0.878548 0.576515 0.112072 0.809364 0.546186 0.170612 0.820105 0.551312 0.142791 0.821989 0.590886 0.102901 0.800166 0.558421 0.14905 0.816057 0.558805 -0.034733 0.828571 0.552416 -0.073592 0.830314 0.576373 -0.04841 0.815751 0.60229 0.005981 0.798255 -0.249992 0.088678 0.964178 0.001571 0.092552 0.995707 0.010342 0.089923 0.995895 -0.431025 0.26563 0.862356 0.747042 0.201262 0.633579 0.21035 0.092046 0.973283 -0.06591 0.091275 0.993642 0.54021 0.101969 0.835329 -0.20673 0.092059 0.974057 0.043831 0.091254 0.994863 -0.046562 0.089905 0.994861 -0.477472 0.081241 0.874883 0.740465 0.201046 0.641321 -0.022294 0.092569 0.995457 0.254259 0.091568 0.962791 0.552546 0.103892 0.826982 -0.591907 -0.495573 0.635652 -0.993378 -0.114165 -0.012905 -0.613028 0.647638 0.452505 -0.379093 0.841137 0.385715 -0.570279 -0.496024 0.654784 -0.883967 0.462002 0.071805 -0.62372 -0.745093 0.23624 -0.292609 0.900606 0.321384 -0.720475 0.433442 0.541336 -0.305416 0.916368 0.258825 -0.456999 0.759824 0.462406 -0.695964 -0.421578 0.581297</float_array>
          <technique_common>
            <accessor source="#NormalSrc_id-array" count="289" stride="3">
              <param name="X" type="float"/>
              <param name="Y" type="float"/>
              <param name="Z" type="float"/>
            </accessor>
          </technique_common>
        </source>
        <source id="ColorSrc_id" name="ColorSrc">
          <float_array id="ColorSrc_id-array" count="1156">1 1 1 1 1 1 1 1 1 1 1 1 1 1 1 1 1 1 1 1 1 1 1 1 1 1 1 1 1 1 1 1 1 1 1 1 1 1 1 1 1 1 1 1 1 1 1 1 1 1 1 1 1 1 1 1 1 1 1 1 1 1 1 1 1 1 1 1 1 1 1 1 1 1 1 1 1 1 1 1 1 1 1 1 1 1 1 1 1 1 1 1 1 1 1 1 1 1 1 1 1 1 1 1 1 1 1 1 1 1 1 1 1 1 1 1 1 1 1 1 1 1 1 1 1 1 1 1 1 1 1 1 1 1 1 1 1 1 1 1 1 1 1 1 1 1 1 1 1 1 1 1 1 1 1 1 1 1 1 1 1 1 1 1 1 1 1 1 1 1 1 1 1 1 1 1 1 1 1 1 1 1 1 1 1 1 1 1 1 1 1 1 1 1 1 1 1 1 1 1 1 1 1 1 1 1 1 1 1 1 1 1 1 1 1 1 1 1 1 1 1 1 1 1 1 1 1 1 1 1 1 1 1 1 1 1 1 1 1 1 1 1 1 1 1 1 1 1 1 1 1 1 1 1 1 1 1 1 1 1 1 1 1 1 1 1 1 1 1 1 1 1 1 1 1 1 1 1 1 1 1 1 1 1 1 1 1 1 1 1 1 1 1 1 1 1 1 1 1 1 1 1 1 1 1 1 1 1 1 1 1 1 1 1 1 1 1 1 1 1 1 1 1 1 1 1 1 1 1 1 1 1 1 1 1 1 1 1 1 1 1 1 1 1 1 1 1 1 1 1 1 1 1 1 1 1 1 1 1 1 1 1 1 1 1 1 1 1 1 1 1 1 1 1 1 1 1 1 1 1 1 1 1 1 1 1 1 1 1 1 1 1 1 1 1 1 1 1 1 1 1 1 1 1 1 1 1 1 1 1 1 1 1 1 1 1 1 1 1 1 1 1 1 1 1 1 1 1 1 1 1 1 1 1 1 1 1 1 1 1 1 1 1 1 1 1 1 1 1 1 1 1 1 1 1 1 1 1 1 1 1 1 1 1 1 1 1 1 1 1 1 1 1 1 1 1 1 1 1 1 1 1 1 1 1 1 1 1 1 1 1 1 1 1 1 1 1 1 1 1 1 1 1 1 1 1 1 1 1 1 1 1 1 1 1 1 1 1 1 1 1 1 1 1 1 1 1 1 1 1 1 1 1 1 1 1 1 1 1 1 1 1 1 1 1 1 1 1 1 1 1 1 1 1 1 1 1 1 1 1 1 1 1 1 1 1 1 1 1 1 1 1 1 1 1 1 1 1 1 1 1 1 1 1 1 1 1 1 1 1 1 1 1 1 1 1 1 1 1 1 1 1 1 1 1 1 1 1 1 1 1 1 1 1 1 1 1 1 1 1 1 1 1 1 1 1 1 1 1 1 1 1 1 1 1 1 1 1 1 1 1 1 1 1 1 1 1 1 1 1 1 1 1 1 1 1 1 1 1 1 1 1 1 1 1 1 1 1 1 1 1 1 1 1 1 1 1 1 1 1 1 1 1 1 1 1 1 1 1 1 1 1 1 1 1 1 1 1 1 1 1 1 1 1 1 1 1 1 1 1 1 1 1 1 1 1 1 1 1 1 1 1 1 1 1 1 1 1 1 1 1 1 1 1 1 1 1 1 1 1 1 1 1 1 1 1 1 1 1 1 1 1 1 1 1 1 1 1 1 1 1 1 1 1 1 1 1 1 1 1 1 1 1 1 1 1 1 1 1 1 1 1 1 1 1 1 1 1 1 1 1 1 1 1 1 1 1 1 1 1 1 1 1 1 1 1 1 1 1 1 1 1 1 1 1 1 1 1 1 1 1 1 1 1 1 1 1 1 1 1 1 1 1 1 1 1 1 1 1 1 1 1 1 1 1 1 1 1 1 1 1 1 1 1 1 1 1 1 1 1 1 1 1 1 1 1 1 1 1 1 1 1 1 1 1 1 1 1 1 1 1 1 1 1 1 1 1 1 1 1 1 1 1 1 1 1 1 1 1 1 1 1 1 1 1 1 1 1 1 1 1 1 1 1 1 1 1 1 1 1 1 1 1 1 1 1 1 1 1 1 1 1 1 1 1 1 1 1 1 1 1 1 1 1 1 1 1 1 1 1 1 1 1 1 1 1 1 1 1 1 1 1 1 1 1 1 1 1 1 1 1 1 1 1 1 1 1 1 1 1 1 1 1 1 1 1 1 1 1 1 1 1 1 1 1 1 1 1 1 1 1 1 1 1 1 1 1 1 1 1 1 1 1 1 1 1 1 1 1 1 1 1 1 1 1 1 1 1 1 1 1 1 1 1 1 1 1 1 1 1 1 1 1 1 1 1 1 1 1 1 1 1 1 1 1 1 1 1 1 1 1 1 1 1 1 1 1 1 1 1 1 1 1 1 1 1 1 1 1 1 1 1 1 1 1 1 1 1 1 1 1 1 1 1 1 1 1 1 1 1 1 1 1 1 1 1 1 1 1 1 1 1 1 1 1 1 1 1 1 1 1 1 1 1 1 1 1 1 1 1 1 1 1 1 1 1 1 1 1 1 1 1 1 1 1 1 1 1 1 1 1 1 1 1 1 1</float_array>
          <technique_common>
            <accessor source="#ColorSrc_id-array" count="289" stride="4">
              <param name="R" type="float"/>
              <param name="G" type="float"/>
              <param name="B" type="float"/>
              <param name="A" type="float"/>
            </accessor>
          </technique_common>
        </source>
        <source id="Tex1Src_id" name="Tex1Src">
          <float_array id="Tex1Src_id-array" count="3084">0.170557 0.924358 0.194282 0.904574 0.161932 0.904574 0.170557 0.924358 0.202907 0.924358 0.194282 0.904574 0.071627 0.658751 0.113364 0.691464 0.113792 0.658751 0.071627 0.658751 0.071268 0.691464 0.113364 0.691464 0.069881 0.630714 0.113792 0.658751 0.112069 0.630714 0.069881 0.630714 0.071627 0.658751 0.113792 0.658751 0.069917 0.614097 0.112069 0.630714 0.112033 0.614097 0.069917 0.614097 0.069881 0.630714 0.112069 0.630714 0.070096 0.560166 0.112033 0.614097 0.103951 0.560166 0.070096 0.560166 0.069917 0.614097 0.112033 0.614097 0.070308 0.508521 0.103951 0.560166 0.096344 0.496941 0.070308 0.508521 0.070096 0.560166 0.103951 0.560166 0.071025 0.47648 0.070308 0.508521 0.096344 0.496941 0.289608 0.775827 0.31485 0.853657 0.31485 0.773613 0.289608 0.775827 0.288499 0.853661 0.31485 0.853657 0.272365 0.785133 0.288499 0.853661 0.289608 0.775827 0.272365 0.785133 0.254059 0.85367 0.288499 0.853661 0.276147 0.915377 0.315089 0.93723 0.315089 0.917247 0.276147 0.915377 0.276147 0.934637 0.315089 0.93723 0.24916 0.911252 0.276147 0.934637 0.276147 0.915377 0.24916 0.911252 0.249544 0.929426 0.276147 0.934637 0.276147 0.915377 0.248704 0.78666 0.24916 0.911252 0.276147 0.915377 0.277621 0.78666 0.248704 0.78666 0.315089 0.917247 0.277621 0.78666 0.276147 0.915377 0.315089 0.917247 0.315089 0.78666 0.277621 0.78666 0.278188 0.698847 0.315089 0.742346 0.315089 0.704754 0.278188 0.698847 0.277939 0.742346 0.315089 0.742346 0.249219 0.691464 0.277939 0.742346 0.278188 0.698847 0.249219 0.691464 0.248993 0.742346 0.277939 0.742346 0.278826 0.669938 0.315089 0.704754 0.315089 0.672045 0.278826 0.669938 0.278188 0.698847 0.315089 0.704754 0.249482 0.667614 0.278188 0.698847 0.278826 0.669938 0.249482 0.667614 0.249219 0.691464 0.278188 0.698847 0.278924 0.641898 0.315089 0.672045 0.315089 0.644004 0.278924 0.641898 0.278826 0.669938 0.315089 0.672045 0.249571 0.639576 0.278826 0.669938 0.278924 0.641898 0.249571 0.639576 0.249482 0.667614 0.278826 0.669938 0.278857 0.628239 0.315089 0.644004 0.315089 0.62739 0.278857 0.628239 0.278924 0.641898 0.315089 0.644004 0.249532 0.622959 0.278924 0.641898 0.278857 0.628239 0.249532 0.622959 0.249571 0.639576 0.278924 0.641898 0.279433 0.582327 0.315089 0.62739 0.315089 0.576732 0.279433 0.582327 0.278857 0.628239 0.315089 0.62739 0.249338 0.579719 0.278857 0.628239 0.279433 0.582327 0.249338 0.579719 0.249532 0.622959 0.278857 0.628239 0.279089 0.541633 0.315089 0.576732 0.315089 0.538066 0.279089 0.541633 0.279433 0.582327 0.315089 0.576732 0.249106 0.54602 0.279433 0.582327 0.279089 0.541633 0.249106 0.54602 0.249338 0.579719 0.279433 0.582327 0.264526 0.791273 0.254059 0.85367 0.272365 0.785133 0.264526 0.791273 0.247416 0.853665 0.254059 0.85367 0.242136 0.818 0.247416 0.853665 0.264526 0.791273 0.242136 0.818 0.221167 0.853382 0.247416 0.853665 0.237039 0.910088 0.249544 0.929426 0.24916 0.911252 0.237039 0.910088 0.23745 0.928402 0.249544 0.929426 0.194282 0.904574 0.23745 0.928402 0.237039 0.910088 0.194282 0.904574 0.202907 0.924358 0.23745 0.928402 0.223059 0.78666 0.194282 0.904574 0.237039 0.910088 0.223059 0.78666 0.128807 0.78666 0.194282 0.904574 0.24916 0.911252 0.223059 0.78666 0.237039 0.910088 0.24916 0.911252 0.248704 0.78666 0.223059 0.78666 0.219405 0.691464 0.248993 0.742346 0.249219 0.691464 0.219405 0.691464 0.223344 0.742346 0.248993 0.742346 0.113364 0.691464 0.223344 0.742346 0.219405 0.691464 0.113364 0.691464 0.116163 0.742346 0.223344 0.742346 0.209898 0.667011 0.249219 0.691464 0.249482 0.667614 0.209898 0.667011 0.219405 0.691464 0.249219 0.691464 0.113792 0.658751 0.219405 0.691464 0.209898 0.667011 0.113792 0.658751 0.113364 0.691464 0.219405 0.691464 0.209987 0.63898 0.249482 0.667614 0.249571 0.639576 0.209987 0.63898 0.209898 0.667011 0.249482 0.667614 0.112069 0.630714 0.209898 0.667011 0.209987 0.63898 0.112069 0.630714 0.113792 0.658751 0.209898 0.667011 0.209945 0.622363 0.249571 0.639576 0.249532 0.622959 0.209945 0.622363 0.209987 0.63898 0.249571 0.639576 0.112033 0.614097 0.209987 0.63898 0.209945 0.622363 0.112033 0.614097 0.112069 0.630714 0.209987 0.63898 0.209827 0.578489 0.249532 0.622959 0.249338 0.579719 0.209827 0.578489 0.209945 0.622363 0.249532 0.622959 0.103951 0.560166 0.209945 0.622363 0.209827 0.578489 0.103951 0.560166 0.112033 0.614097 0.209945 0.622363 0.183596 0.540778 0.249338 0.579719 0.249106 0.54602 0.183596 0.540778 0.209827 0.578489 0.249338 0.579719 0.096344 0.496941 0.209827 0.578489 0.183596 0.540778 0.096344 0.496941 0.103951 0.560166 0.209827 0.578489 0.439358 0.924358 0.480334 0.904574 0.447983 0.904574 0.439358 0.924358 0.471709 0.924358 0.480334 0.904574 0.447983 0.904574 0.509197 0.78666 0.463291 0.78666 0.447983 0.904574 0.480334 0.904574 0.509197 0.78666 0.521916 0.742346 0.479647 0.696803 0.475935 0.742346 0.521916 0.742346 0.525083 0.6898 0.479647 0.696803 0.525083 0.6898 0.473616 0.664587 0.479647 0.696803 0.525083 0.6898 0.519119 0.657575 0.473616 0.664587 0.519119 0.657575 0.470508 0.636655 0.473616 0.664587 0.519119 0.657575 0.516034 0.629637 0.470508 0.636655 0.516034 0.629637 0.467695 0.620251 0.470508 0.636655 0.516034 0.629637 0.51315 0.613245 0.467695 0.620251 0.51315 0.613245 0.471219 0.555173 0.467695 0.620251 0.51315 0.613245 0.508522 0.549425 0.471219 0.555173 0.508522 0.549425 0.46198 0.49362 0.471219 0.555173 0.508522 0.549425 0.504573 0.538191 0.46198 0.49362 0.46198 0.49362 0.504573 0.538191 0.501051 0.478726 0.335559 0.853661 0.31485 0.773613 0.31485 0.853657 0.335559 0.853661 0.33445 0.775827 0.31485 0.773613 0.369999 0.85367 0.33445 0.775827 0.335559 0.853661 0.369999 0.85367 0.351693 0.785133 0.33445 0.775827 0.345327 0.934637 0.315089 0.917247 0.315089 0.93723 0.345327 0.934637 0.345327 0.915377 0.315089 0.917247 0.371929 0.929426 0.345327 0.915377 0.345327 0.934637 0.371929 0.929426 0.372314 0.911252 0.345327 0.915377 0.343853 0.78666 0.372314 0.911252 0.37277 0.78666 0.343853 0.78666 0.345327 0.915377 0.372314 0.911252 0.315089 0.78666 0.345327 0.915377 0.343853 0.78666 0.315089 0.78666 0.315089 0.917247 0.345327 0.915377 0.343535 0.742346 0.315089 0.704754 0.315089 0.742346 0.343535 0.742346 0.343285 0.698847 0.315089 0.704754 0.37248 0.742346 0.343285 0.698847 0.343535 0.742346 0.37248 0.742346 0.372254 0.691464 0.343285 0.698847 0.343285 0.698847 0.315089 0.672045 0.315089 0.704754 0.343285 0.698847 0.342648 0.669938 0.315089 0.672045 0.372254 0.691464 0.342648 0.669938 0.343285 0.698847 0.372254 0.691464 0.371992 0.667614 0.342648 0.669938 0.342648 0.669938 0.315089 0.644004 0.315089 0.672045 0.342648 0.669938 0.342549 0.641898 0.315089 0.644004 0.371992 0.667614 0.342549 0.641898 0.342648 0.669938 0.371992 0.667614 0.371902 0.639576 0.342549 0.641898 0.342549 0.641898 0.315089 0.62739 0.315089 0.644004 0.342549 0.641898 0.342617 0.628239 0.315089 0.62739 0.371902 0.639576 0.342617 0.628239 0.342549 0.641898 0.371902 0.639576 0.371941 0.622959 0.342617 0.628239 0.342617 0.628239 0.315089 0.576732 0.315089 0.62739 0.342617 0.628239 0.342041 0.57207 0.315089 0.576732 0.371941 0.622959 0.342041 0.57207 0.342617 0.628239 0.371941 0.622959 0.372136 0.569462 0.342041 0.57207 0.342041 0.57207 0.315089 0.538066 0.315089 0.576732 0.342041 0.57207 0.342385 0.534175 0.315089 0.538066 0.372136 0.569462 0.342385 0.534175 0.342041 0.57207 0.372136 0.569462 0.377318 0.52271 0.342385 0.534175 0.390118 0.853665 0.351693 0.785133 0.369999 0.85367 0.390118 0.853665 0.369158 0.791273 0.351693 0.785133 0.416367 0.853655 0.369158 0.791273 0.390118 0.853665 0.416367 0.853655 0.395398 0.818 0.369158 0.791273 0.398874 0.928402 0.372314 0.911252 0.371929 0.929426 0.398874 0.928402 0.399285 0.910088 0.372314 0.911252 0.439358 0.924358 0.399285 0.910088 0.398874 0.928402 0.439358 0.924358 0.447983 0.904574 0.399285 0.910088 0.463291 0.78666 0.399285 0.910088 0.447983 0.904574 0.463291 0.78666 0.398415 0.78666 0.399285 0.910088 0.37277 0.78666 0.399285 0.910088 0.398415 0.78666 0.37277 0.78666 0.372314 0.911252 0.399285 0.910088 0.39813 0.742346 0.372254 0.691464 0.37248 0.742346 0.39813 0.742346 0.402068 0.691464 0.372254 0.691464 0.475935 0.742346 0.402068 0.691464 0.39813 0.742346 0.475935 0.742346 0.479647 0.696803 0.402068 0.691464 0.402068 0.691464 0.371992 0.667614 0.372254 0.691464 0.402068 0.691464 0.411575 0.667011 0.371992 0.667614 0.479647 0.696803 0.411575 0.667011 0.402068 0.691464 0.479647 0.696803 0.473616 0.664587 0.411575 0.667011 0.411575 0.667011 0.371902 0.639576 0.371992 0.667614 0.411575 0.667011 0.411487 0.63898 0.371902 0.639576 0.473616 0.664587 0.411487 0.63898 0.411575 0.667011 0.473616 0.664587 0.470508 0.636655 0.411487 0.63898 0.411487 0.63898 0.371941 0.622959 0.371902 0.639576 0.411487 0.63898 0.411529 0.622363 0.371941 0.622959 0.470508 0.636655 0.411529 0.622363 0.411487 0.63898 0.470508 0.636655 0.467695 0.620251 0.411529 0.622363 0.411529 0.622363 0.372136 0.569462 0.371941 0.622959 0.411529 0.622363 0.411647 0.568232 0.372136 0.569462 0.467695 0.620251 0.411647 0.568232 0.411529 0.622363 0.467695 0.620251 0.471219 0.555173 0.411647 0.568232 0.411647 0.568232 0.377318 0.52271 0.372136 0.569462 0.411647 0.568232 0.427977 0.512805 0.377318 0.52271 0.471219 0.555173 0.427977 0.512805 0.411647 0.568232 0.471219 0.555173 0.46198 0.49362 0.427977 0.512805 0.248704 0.78666 0.277719 0.772968 0.248793 0.772974 0.248704 0.78666 0.277621 0.78666 0.277719 0.772968 0.277621 0.78666 0.315089 0.772961 0.277719 0.772968 0.277621 0.78666 0.315089 0.78666 0.315089 0.772961 0.223059 0.78666 0.248793 0.772974 0.223097 0.778684 0.223059 0.78666 0.248704 0.78666 0.248793 0.772974 0.463291 0.78666 0.513007 0.773386 0.467076 0.773395 0.463291 0.78666 0.509197 0.78666 0.513007 0.773386 0.343754 0.772968 0.37277 0.78666 0.37268 0.772974 0.343754 0.772968 0.343853 0.78666 0.37277 0.78666 0.315089 0.772961 0.343853 0.78666 0.343754 0.772968 0.315089 0.772961 0.315089 0.78666 0.343853 0.78666 0.467076 0.773395 0.398415 0.78666 0.463291 0.78666 0.467076 0.773395 0.398327 0.772974 0.398415 0.78666 0.37268 0.772974 0.398415 0.78666 0.398327 0.772974 0.37268 0.772974 0.37277 0.78666 0.398415 0.78666 0.277849 0.754825 0.248993 0.742346 0.248912 0.754838 0.277849 0.754825 0.277939 0.742346 0.248993 0.742346 0.248793 0.772974 0.277849 0.754825 0.248912 0.754838 0.248793 0.772974 0.277719 0.772968 0.277849 0.754825 0.315089 0.754813 0.277939 0.742346 0.277849 0.754825 0.315089 0.754813 0.315089 0.742346 0.277939 0.742346 0.277719 0.772968 0.315089 0.754813 0.277849 0.754825 0.277719 0.772968 0.315089 0.772961 0.315089 0.754813 0.248912 0.754838 0.223344 0.742346 0.222988 0.758239 0.248912 0.754838 0.248993 0.742346 0.223344 0.742346 0.223097 0.778684 0.248912 0.754838 0.222988 0.758239 0.223097 0.778684 0.248793 0.772974 0.248912 0.754838 0.472091 0.75582 0.521916 0.742346 0.475935 0.742346 0.472091 0.75582 0.518056 0.755796 0.521916 0.742346 0.467076 0.773395 0.518056 0.755796 0.472091 0.75582 0.467076 0.773395 0.513007 0.773386 0.518056 0.755796 0.372562 0.754838 0.343754 0.772968 0.37268 0.772974 0.372562 0.754838 0.343624 0.754825 0.343754 0.772968 0.37248 0.742346 0.343624 0.754825 0.372562 0.754838 0.37248 0.742346 0.343535 0.742346 0.343624 0.754825 0.343624 0.754825 0.315089 0.772961 0.343754 0.772968 0.343624 0.754825 0.315089 0.754813 0.315089 0.772961 0.343535 0.742346 0.315089 0.754813 0.343624 0.754825 0.343535 0.742346 0.315089 0.742346 0.315089 0.754813 0.472091 0.75582 0.398327 0.772974 0.467076 0.773395 0.472091 0.75582 0.39821 0.754841 0.398327 0.772974 0.475935 0.742346 0.39821 0.754841 0.472091 0.75582 0.475935 0.742346 0.39813 0.742346 0.39821 0.754841 0.39821 0.754841 0.37268 0.772974 0.398327 0.772974 0.39821 0.754841 0.372562 0.754838 0.37268 0.772974 0.39813 0.742346 0.372562 0.754838 0.39821 0.754841 0.39813 0.742346 0.37248 0.742346 0.372562 0.754838 0.223097 0.778684 0.128807 0.78666 0.223059 0.78666 0.223097 0.778684 0.125035 0.775373 0.128807 0.78666 0.213085 0.778347 0.125035 0.775373 0.223097 0.778684 0.223097 0.778684 0.21288 0.759081 0.213085 0.778347 0.223097 0.778684 0.222988 0.758239 0.21288 0.759081 0.222988 0.758239 0.120422 0.766798 0.21288 0.759081 0.222988 0.758239 0.116163 0.742346 0.120422 0.766798 0.223344 0.742346 0.116163 0.742346 0.222988 0.758239 0.161932 0.904574 0.128807 0.78666 0.086458 0.78666 0.161932 0.904574 0.194282 0.904574 0.128807 0.78666 0.071268 0.691464 0.116163 0.742346 0.113364 0.691464 0.071268 0.691464 0.073657 0.742346 0.116163 0.742346 0.086458 0.78666 0.125035 0.775373 0.080554 0.773748 0.086458 0.78666 0.128807 0.78666 0.125035 0.775373 0.077837 0.769937 0.116163 0.742346 0.073657 0.742346 0.077837 0.769937 0.120422 0.766798 0.116163 0.742346 0.124945 0.765154 0.217608 0.776703 0.217403 0.757437 0.124945 0.765154 0.129558 0.773729 0.217608 0.776703 0.084131 0.768293 0.129558 0.773729 0.124945 0.765154 0.084131 0.768293 0.087122 0.772671 0.129558 0.773729 0.129558 0.773729 0.213085 0.778347 0.217608 0.776703 0.129558 0.773729 0.125035 0.775373 0.213085 0.778347 0.087122 0.772671 0.125035 0.775373 0.129558 0.773729 0.087122 0.772671 0.080554 0.773748 0.125035 0.775373 0.217403 0.757437 0.120422 0.766798 0.124945 0.765154 0.217403 0.757437 0.21288 0.759081 0.120422 0.766798 0.124945 0.765154 0.077837 0.769937 0.084131 0.768293 0.124945 0.765154 0.120422 0.766798 0.077837 0.769937 0.217608 0.776703 0.21288 0.759081 0.217403 0.757437 0.217608 0.776703 0.213085 0.778347 0.21288 0.759081 0.082731 0.769098 0.080554 0.773748 0.085624 0.77371 0.082731 0.769098 0.077837 0.769937 0.080554 0.773748 0.085624 0.77371 0.080554 0.773748 0.087122 0.772671 0.082731 0.769098 0.084131 0.768293 0.077837 0.769937 0.085624 0.77371 0.084131 0.768293 0.082731 0.769098 0.085624 0.77371 0.087122 0.772671 0.084131 0.768293 0.202907 0.924358 0.161932 0.904574 0.194282 0.904574 0.202907 0.924358 0.170557 0.924358 0.161932 0.904574 0.071268 0.691464 0.113792 0.658751 0.113364 0.691464 0.071268 0.691464 0.071627 0.658751 0.113792 0.658751 0.071627 0.658751 0.112069 0.630714 0.113792 0.658751 0.071627 0.658751 0.069881 0.630714 0.112069 0.630714 0.069881 0.630714 0.112033 0.614097 0.112069 0.630714 0.069881 0.630714 0.069917 0.614097 0.112033 0.614097 0.069917 0.614097 0.103951 0.560166 0.112033 0.614097 0.069917 0.614097 0.070096 0.560166 0.103951 0.560166 0.070096 0.560166 0.096344 0.496941 0.103951 0.560166 0.070096 0.560166 0.070308 0.508521 0.096344 0.496941 0.096344 0.496941 0.070308 0.508521 0.071025 0.47648 0.288499 0.853661 0.31485 0.933424 0.31485 0.853657 0.288499 0.853661 0.289608 0.93121 0.31485 0.933424 0.254059 0.85367 0.289608 0.93121 0.288499 0.853661 0.254059 0.85367 0.272365 0.921903 0.289608 0.93121 0.276147 0.934637 0.315089 0.917247 0.315089 0.93723 0.276147 0.934637 0.276147 0.915377 0.315089 0.917247 0.249544 0.929426 0.276147 0.915377 0.276147 0.934637 0.249544 0.929426 0.24916 0.911252 0.276147 0.915377 0.277621 0.78666 0.24916 0.911252 0.248704 0.78666 0.277621 0.78666 0.276147 0.915377 0.24916 0.911252 0.315089 0.78666 0.276147 0.915377 0.277621 0.78666 0.315089 0.78666 0.315089 0.917247 0.276147 0.915377 0.277939 0.742346 0.315089 0.704754 0.315089 0.742346 0.277939 0.742346 0.278188 0.698847 0.315089 0.704754 0.248993 0.742346 0.278188 0.698847 0.277939 0.742346 0.248993 0.742346 0.249219 0.691464 0.278188 0.698847 0.278188 0.698847 0.315089 0.672045 0.315089 0.704754 0.278188 0.698847 0.278826 0.669938 0.315089 0.672045 0.249219 0.691464 0.278826 0.669938 0.278188 0.698847 0.249219 0.691464 0.249482 0.667614 0.278826 0.669938 0.278826 0.669938 0.315089 0.644004 0.315089 0.672045 0.278826 0.669938 0.278924 0.641898 0.315089 0.644004 0.249482 0.667614 0.278924 0.641898 0.278826 0.669938 0.249482 0.667614 0.249571 0.639576 0.278924 0.641898 0.278924 0.641898 0.315089 0.62739 0.315089 0.644004 0.278924 0.641898 0.278857 0.628239 0.315089 0.62739 0.249571 0.639576 0.278857 0.628239 0.278924 0.641898 0.249571 0.639576 0.249532 0.622959 0.278857 0.628239 0.278857 0.628239 0.315089 0.576732 0.315089 0.62739 0.278857 0.628239 0.279433 0.582327 0.315089 0.576732 0.249532 0.622959 0.279433 0.582327 0.278857 0.628239 0.249532 0.622959 0.249338 0.579719 0.279433 0.582327 0.279433 0.582327 0.315089 0.538066 0.315089 0.576732 0.279433 0.582327 0.279089 0.541633 0.315089 0.538066 0.249338 0.579719 0.279089 0.541633 0.279433 0.582327 0.249338 0.579719 0.249106 0.54602 0.279089 0.541633 0.247416 0.853665 0.272365 0.921903 0.254059 0.85367 0.247416 0.853665 0.264526 0.915763 0.272365 0.921903 0.221167 0.853382 0.264526 0.915763 0.247416 0.853665 0.221167 0.853382 0.242136 0.889036 0.264526 0.915763 0.23745 0.928402 0.24916 0.911252 0.249544 0.929426 0.23745 0.928402 0.237039 0.910088 0.24916 0.911252 0.202907 0.924358 0.237039 0.910088 0.23745 0.928402 0.202907 0.924358 0.194282 0.904574 0.237039 0.910088 0.128807 0.78666 0.237039 0.910088 0.194282 0.904574 0.128807 0.78666 0.223059 0.78666 0.237039 0.910088 0.248704 0.78666 0.237039 0.910088 0.223059 0.78666 0.248704 0.78666 0.24916 0.911252 0.237039 0.910088 0.223344 0.742346 0.249219 0.691464 0.248993 0.742346 0.223344 0.742346 0.219405 0.691464 0.249219 0.691464 0.116163 0.742346 0.219405 0.691464 0.223344 0.742346 0.116163 0.742346 0.113364 0.691464 0.219405 0.691464 0.219405 0.691464 0.249482 0.667614 0.249219 0.691464 0.219405 0.691464 0.209898 0.667011 0.249482 0.667614 0.113364 0.691464 0.209898 0.667011 0.219405 0.691464 0.113364 0.691464 0.113792 0.658751 0.209898 0.667011 0.209898 0.667011 0.249571 0.639576 0.249482 0.667614 0.209898 0.667011 0.209987 0.63898 0.249571 0.639576 0.113792 0.658751 0.209987 0.63898 0.209898 0.667011 0.113792 0.658751 0.112069 0.630714 0.209987 0.63898 0.209987 0.63898 0.249532 0.622959 0.249571 0.639576 0.209987 0.63898 0.209945 0.622363 0.249532 0.622959 0.112069 0.630714 0.209945 0.622363 0.209987 0.63898 0.112069 0.630714 0.112033 0.614097 0.209945 0.622363 0.209945 0.622363 0.249338 0.579719 0.249532 0.622959 0.209945 0.622363 0.209827 0.578489 0.249338 0.579719 0.112033 0.614097 0.209827 0.578489 0.209945 0.622363 0.112033 0.614097 0.103951 0.560166 0.209827 0.578489 0.209827 0.578489 0.249106 0.54602 0.249338 0.579719 0.209827 0.578489 0.183596 0.540778 0.249106 0.54602 0.103951 0.560166 0.183596 0.540778 0.209827 0.578489 0.103951 0.560166 0.096344 0.496941 0.183596 0.540778 0.471709 0.924358 0.447983 0.904574 0.480334 0.904574 0.471709 0.924358 0.439358 0.924358 0.447983 0.904574 0.480334 0.904574 0.463291 0.78666 0.509197 0.78666 0.480334 0.904574 0.447983 0.904574 0.463291 0.78666 0.525083 0.6898 0.475935 0.742346 0.479647 0.696803 0.525083 0.6898 0.521916 0.742346 0.475935 0.742346 0.519119 0.657575 0.479647 0.696803 0.473616 0.664587 0.519119 0.657575 0.525083 0.6898 0.479647 0.696803 0.516034 0.629637 0.473616 0.664587 0.470508 0.636655 0.516034 0.629637 0.519119 0.657575 0.473616 0.664587 0.51315 0.613245 0.470508 0.636655 0.467695 0.620251 0.51315 0.613245 0.516034 0.629637 0.470508 0.636655 0.508522 0.549425 0.467695 0.620251 0.471219 0.555173 0.508522 0.549425 0.51315 0.613245 0.467695 0.620251 0.504573 0.538191 0.471219 0.555173 0.46198 0.49362 0.504573 0.538191 0.508522 0.549425 0.471219 0.555173 0.501051 0.478726 0.504573 0.538191 0.46198 0.49362 0.33445 0.93121 0.31485 0.853657 0.31485 0.933424 0.33445 0.93121 0.335559 0.853661 0.31485 0.853657 0.351693 0.921903 0.335559 0.853661 0.33445 0.93121 0.351693 0.921903 0.369999 0.85367 0.335559 0.853661 0.345327 0.915377 0.315089 0.93723 0.315089 0.917247 0.345327 0.915377 0.345327 0.934637 0.315089 0.93723 0.372314 0.911252 0.345327 0.934637 0.345327 0.915377 0.372314 0.911252 0.371929 0.929426 0.345327 0.934637 0.345327 0.915377 0.37277 0.78666 0.372314 0.911252 0.345327 0.915377 0.343853 0.78666 0.37277 0.78666 0.315089 0.917247 0.343853 0.78666 0.345327 0.915377 0.315089 0.917247 0.315089 0.78666 0.343853 0.78666 0.343285 0.698847 0.315089 0.742346 0.315089 0.704754 0.343285 0.698847 0.343535 0.742346 0.315089 0.742346 0.372254 0.691464 0.343535 0.742346 0.343285 0.698847 0.372254 0.691464 0.37248 0.742346 0.343535 0.742346 0.342648 0.669938 0.315089 0.704754 0.315089 0.672045 0.342648 0.669938 0.343285 0.698847 0.315089 0.704754 0.371992 0.667614 0.343285 0.698847 0.342648 0.669938 0.371992 0.667614 0.372254 0.691464 0.343285 0.698847 0.342549 0.641898 0.315089 0.672045 0.315089 0.644004 0.342549 0.641898 0.342648 0.669938 0.315089 0.672045 0.371902 0.639576 0.342648 0.669938 0.342549 0.641898 0.371902 0.639576 0.371992 0.667614 0.342648 0.669938 0.342617 0.628239 0.315089 0.644004 0.315089 0.62739 0.342617 0.628239 0.342549 0.641898 0.315089 0.644004 0.371941 0.622959 0.342549 0.641898 0.342617 0.628239 0.371941 0.622959 0.371902 0.639576 0.342549 0.641898 0.342041 0.57207 0.315089 0.62739 0.315089 0.576732 0.342041 0.57207 0.342617 0.628239 0.315089 0.62739 0.372136 0.569462 0.342617 0.628239 0.342041 0.57207 0.372136 0.569462 0.371941 0.622959 0.342617 0.628239 0.342385 0.534175 0.315089 0.576732 0.315089 0.538066 0.342385 0.534175 0.342041 0.57207 0.315089 0.576732 0.377318 0.52271 0.342041 0.57207 0.342385 0.534175 0.377318 0.52271 0.372136 0.569462 0.342041 0.57207 0.369158 0.915763 0.369999 0.85367 0.351693 0.921903 0.369158 0.915763 0.390118 0.853665 0.369999 0.85367 0.395398 0.889036 0.390118 0.853665 0.369158 0.915763 0.395398 0.889036 0.416367 0.853655 0.390118 0.853665 0.399285 0.910088 0.371929 0.929426 0.372314 0.911252 0.399285 0.910088 0.398874 0.928402 0.371929 0.929426 0.447983 0.904574 0.398874 0.928402 0.399285 0.910088 0.447983 0.904574 0.439358 0.924358 0.398874 0.928402 0.398415 0.78666 0.447983 0.904574 0.399285 0.910088 0.398415 0.78666 0.463291 0.78666 0.447983 0.904574 0.372314 0.911252 0.398415 0.78666 0.399285 0.910088 0.372314 0.911252 0.37277 0.78666 0.398415 0.78666 0.402068 0.691464 0.37248 0.742346 0.372254 0.691464 0.402068 0.691464 0.39813 0.742346 0.37248 0.742346 0.479647 0.696803 0.39813 0.742346 0.402068 0.691464 0.479647 0.696803 0.475935 0.742346 0.39813 0.742346 0.411575 0.667011 0.372254 0.691464 0.371992 0.667614 0.411575 0.667011 0.402068 0.691464 0.372254 0.691464 0.473616 0.664587 0.402068 0.691464 0.411575 0.667011 0.473616 0.664587 0.479647 0.696803 0.402068 0.691464 0.411487 0.63898 0.371992 0.667614 0.371902 0.639576 0.411487 0.63898 0.411575 0.667011 0.371992 0.667614 0.470508 0.636655 0.411575 0.667011 0.411487 0.63898 0.470508 0.636655 0.473616 0.664587 0.411575 0.667011 0.411529 0.622363 0.371902 0.639576 0.371941 0.622959 0.411529 0.622363 0.411487 0.63898 0.371902 0.639576 0.467695 0.620251 0.411487 0.63898 0.411529 0.622363 0.467695 0.620251 0.470508 0.636655 0.411487 0.63898 0.411647 0.568232 0.371941 0.622959 0.372136 0.569462 0.411647 0.568232 0.411529 0.622363 0.371941 0.622959 0.471219 0.555173 0.411529 0.622363 0.411647 0.568232 0.471219 0.555173 0.467695 0.620251 0.411529 0.622363 0.427977 0.512805 0.372136 0.569462 0.377318 0.52271 0.427977 0.512805 0.411647 0.568232 0.372136 0.569462 0.46198 0.49362 0.411647 0.568232 0.427977 0.512805 0.46198 0.49362 0.471219 0.555173 0.411647 0.568232 0.277621 0.78666 0.248793 0.772974 0.277719 0.772968 0.277621 0.78666 0.248704 0.78666 0.248793 0.772974 0.315089 0.78666 0.277719 0.772968 0.315089 0.772961 0.315089 0.78666 0.277621 0.78666 0.277719 0.772968 0.248704 0.78666 0.223097 0.778684 0.248793 0.772974 0.248704 0.78666 0.223059 0.78666 0.223097 0.778684 0.509197 0.78666 0.467076 0.773395 0.513007 0.773386 0.509197 0.78666 0.463291 0.78666 0.467076 0.773395 0.343853 0.78666 0.37268 0.772974 0.37277 0.78666 0.343853 0.78666 0.343754 0.772968 0.37268 0.772974 0.315089 0.78666 0.343754 0.772968 0.343853 0.78666 0.315089 0.78666 0.315089 0.772961 0.343754 0.772968 0.398327 0.772974 0.463291 0.78666 0.398415 0.78666 0.398327 0.772974 0.467076 0.773395 0.463291 0.78666 0.37277 0.78666 0.398327 0.772974 0.398415 0.78666 0.37277 0.78666 0.37268 0.772974 0.398327 0.772974 0.277939 0.742346 0.248912 0.754838 0.248993 0.742346 0.277939 0.742346 0.277849 0.754825 0.248912 0.754838 0.277719 0.772968 0.248912 0.754838 0.277849 0.754825 0.277719 0.772968 0.248793 0.772974 0.248912 0.754838 0.315089 0.742346 0.277849 0.754825 0.277939 0.742346 0.315089 0.742346 0.315089 0.754813 0.277849 0.754825 0.315089 0.772961 0.277849 0.754825 0.315089 0.754813 0.315089 0.772961 0.277719 0.772968 0.277849 0.754825 0.248993 0.742346 0.222988 0.758239 0.223344 0.742346 0.248993 0.742346 0.248912 0.754838 0.222988 0.758239 0.248793 0.772974 0.222988 0.758239 0.248912 0.754838 0.248793 0.772974 0.223097 0.778684 0.222988 0.758239 0.518056 0.755796 0.475935 0.742346 0.521916 0.742346 0.518056 0.755796 0.472091 0.75582 0.475935 0.742346 0.513007 0.773386 0.472091 0.75582 0.518056 0.755796 0.513007 0.773386 0.467076 0.773395 0.472091 0.75582 0.343624 0.754825 0.37268 0.772974 0.343754 0.772968 0.343624 0.754825 0.372562 0.754838 0.37268 0.772974 0.343535 0.742346 0.372562 0.754838 0.343624 0.754825 0.343535 0.742346 0.37248 0.742346 0.372562 0.754838 0.315089 0.754813 0.343754 0.772968 0.315089 0.772961 0.315089 0.754813 0.343624 0.754825 0.343754 0.772968 0.315089 0.742346 0.343624 0.754825 0.315089 0.754813 0.315089 0.742346 0.343535 0.742346 0.343624 0.754825 0.39821 0.754841 0.467076 0.773395 0.398327 0.772974 0.39821 0.754841 0.472091 0.75582 0.467076 0.773395 0.39813 0.742346 0.472091 0.75582 0.39821 0.754841 0.39813 0.742346 0.475935 0.742346 0.472091 0.75582 0.372562 0.754838 0.398327 0.772974 0.37268 0.772974 0.372562 0.754838 0.39821 0.754841 0.398327 0.772974 0.37248 0.742346 0.39821 0.754841 0.372562 0.754838 0.37248 0.742346 0.39813 0.742346 0.39821 0.754841 0.125035 0.775373 0.223059 0.78666 0.128807 0.78666 0.125035 0.775373 0.223097 0.778684 0.223059 0.78666 0.213085 0.778347 0.223097 0.778684 0.125035 0.775373 0.222988 0.758239 0.213085 0.778347 0.21288 0.759081 0.222988 0.758239 0.223097 0.778684 0.213085 0.778347 0.116163 0.742346 0.21288 0.759081 0.120422 0.766798 0.116163 0.742346 0.222988 0.758239 0.21288 0.759081 0.223344 0.742346 0.222988 0.758239 0.116163 0.742346 0.194282 0.904574 0.086458 0.78666 0.128807 0.78666 0.194282 0.904574 0.161932 0.904574 0.086458 0.78666 0.073657 0.742346 0.113364 0.691464 0.116163 0.742346 0.073657 0.742346 0.071268 0.691464 0.113364 0.691464 0.128807 0.78666 0.080554 0.773748 0.125035 0.775373 0.128807 0.78666 0.086458 0.78666 0.080554 0.773748 0.120422 0.766798 0.073657 0.742346 0.116163 0.742346 0.120422 0.766798 0.077837 0.769937 0.073657 0.742346 0.129558 0.773729 0.217403 0.757437 0.217608 0.776703 0.129558 0.773729 0.124945 0.765154 0.217403 0.757437 0.087122 0.772671 0.124945 0.765154 0.129558 0.773729 0.087122 0.772671 0.084131 0.768293 0.124945 0.765154 0.125035 0.775373 0.217608 0.776703 0.213085 0.778347 0.125035 0.775373 0.129558 0.773729 0.217608 0.776703 0.080554 0.773748 0.129558 0.773729 0.125035 0.775373 0.080554 0.773748 0.087122 0.772671 0.129558 0.773729 0.21288 0.759081 0.124945 0.765154 0.120422 0.766798 0.21288 0.759081 0.217403 0.757437 0.124945 0.765154 0.120422 0.766798 0.084131 0.768293 0.077837 0.769937 0.120422 0.766798 0.124945 0.765154 0.084131 0.768293 0.213085 0.778347 0.217403 0.757437 0.21288 0.759081 0.213085 0.778347 0.217608 0.776703 0.217403 0.757437 0.077837 0.769937 0.085624 0.77371 0.080554 0.773748 0.077837 0.769937 0.082731 0.769098 0.085624 0.77371 0.087122 0.772671 0.080554 0.773748 0.085624 0.77371 0.077837 0.769937 0.084131 0.768293 0.082731 0.769098</float_array>
          <technique_common>
            <accessor source="#Tex1Src_id-array" count="1542" stride="2">
              <param name="S" type="float"/>
              <param name="T" type="float"/>
            </accessor>
          </technique_common>
        </source>
        <source id="Tex2Src_id" name="Tex2Src">
          <float_array id="Tex2Src_id-array" count="3084">0 1 0 1 0 1 0 1 0 1 0 1 0 1 0 1 0 1 0 1 0 1 0 1 0 1 0 1 0 1 0 1 0 1 0 1 0 1 0 1 0 1 0 1 0 1 0 1 0 1 0 1 0 1 0 1 0 1 0 1 0 1 0 1 0 1 0 1 0 1 0 1 0 1 0 1 0 1 0 1 0 1 0 1 0 1 0 1 0 1 0 1 0 1 0 1 0 1 0 1 0 1 0 1 0 1 0 1 0 1 0 1 0 1 0 1 0 1 0 1 0 1 0 1 0 1 0 1 0 1 0 1 0 1 0 1 0 1 0 1 0 1 0 1 0 1 0 1 0 1 0 1 0 1 0 1 0 1 0 1 0 1 0 1 0 1 0 1 0 1 0 1 0 1 0 1 0 1 0 1 0 1 0 1 0 1 0 1 0 1 0 1 0 1 0 1 0 1 0 1 0 1 0 1 0 1 0 1 0 1 0 1 0 1 0 1 0 1 0 1 0 1 0 1 0 1 0 1 0 1 0 1 0 1 0 1 0 1 0 1 0 1 0 1 0 1 0 1 0 1 0 1 0 1 0 1 0 1 0 1 0 1 0 1 0 1 0 1 0 1 0 1 0 1 0 1 0 1 0 1 0 1 0 1 0 1 0 1 0 1 0 1 0 1 0 1 0 1 0 1 0 1 0 1 0 1 0 1 0 1 0 1 0 1 0 1 0 1 0 1 0 1 0 1 0 1 0 1 0 1 0 1 0 1 0 1 0 1 0 1 0 1 0 1 0 1 0 1 0 1 0 1 0 1 0 1 0 1 0 1 0 1 0 1 0 1 0 1 0 1 0 1 0 1 0 1 0 1 0 1 0 1 0 1 0 1 0 1 0 1 0 1 0 1 0 1 0 1 0 1 0 1 0 1 0 1 0 1 0 1 0 1 0 1 0 1 0 1 0 1 0 1 0 1 0 1 0 1 0 1 0 1 0 1 0 1 0 1 0 1 0 1 0 1 0 1 0 1 0 1 0 1 0 1 0 1 0 1 0 1 0 1 0 1 0 1 0 1 0 1 0 1 0 1 0 1 0 1 0 1 0 1 0 1 0 1 0 1 0 1 0 1 0 1 0 1 0 1 0 1 0 1 0 1 0 1 0 1 0 1 0 1 0 1 0 1 0 1 0 1 0 1 0 1 0 1 0 1 0 1 0 1 0 1 0 1 0 1 0 1 0 1 0 1 0 1 0 1 0 1 0 1 0 1 0 1 0 1 0 1 0 1 0 1 0 1 0 1 0 1 0 1 0 1 0 1 0 1 0 1 0 1 0 1 0 1 0 1 0 1 0 1 0 1 0 1 0 1 0 1 0 1 0 1 0 1 0 1 0 1 0 1 0 1 0 1 0 1 0 1 0 1 0 1 0 1 0 1 0 1 0 1 0 1 0 1 0 1 0 1 0 1 0 1 0 1 0 1 0 1 0 1 0 1 0 1 0 1 0 1 0 1 0 1 0 1 0 1 0 1 0 1 0 1 0 1 0 1 0 1 0 1 0 1 0 1 0 1 0 1 0 1 0 1 0 1 0 1 0 1 0 1 0 1 0 1 0 1 0 1 0 1 0 1 0 1 0 1 0 1 0 1 0 1 0 1 0 1 0 1 0 1 0 1 0 1 0 1 0 1 0 1 0 1 0 1 0 1 0 1 0 1 0 1 0 1 0 1 0 1 0 1 0 1 0 1 0 1 0 1 0 1 0 1 0 1 0 1 0 1 0 1 0 1 0 1 0 1 0 1 0 1 0 1 0 1 0 1 0 1 0 1 0 1 0 1 0 1 0 1 0 1 0 1 0 1 0 1 0 1 0 1 0 1 0 1 0 1 0 1 0 1 0 1 0 1 0 1 0 1 0 1 0 1 0 1 0 1 0 1 0 1 0 1 0 1 0 1 0 1 0 1 0 1 0 1 0 1 0 1 0 1 0 1 0 1 0 1 0 1 0 1 0 1 0 1 0 1 0 1 0 1 0 1 0 1 0 1 0 1 0 1 0 1 0 1 0 1 0 1 0 1 0 1 0 1 0 1 0 1 0 1 0 1 0 1 0 1 0 1 0 1 0 1 0 1 0 1 0 1 0 1 0 1 0 1 0 1 0 1 0 1 0 1 0 1 0 1 0 1 0 1 0 1 0 1 0 1 0 1 0 1 0 1 0 1 0 1 0 1 0 1 0 1 0 1 0 1 0 1 0 1 0 1 0 1 0 1 0 1 0 1 0 1 0 1 0 1 0 1 0 1 0 1 0 1 0 1 0 1 0 1 0 1 0 1 0 1 0 1 0 1 0 1 0 1 0 1 0 1 0 1 0 1 0 1 0 1 0 1 0 1 0 1 0 1 0 1 0 1 0 1 0 1 0 1 0 1 0 1 0 1 0 1 0 1 0 1 0 1 0 1 0 1 0 1 0 1 0 1 0 1 0 1 0 1 0 1 0 1 0 1 0 1 0 1 0 1 0 1 0 1 0 1 0 1 0 1 0 1 0 1 0 1 0 1 0 1 0 1 0 1 0 1 0 1 0 1 0 1 0 1 0 1 0 1 0 1 0 1 0 1 0 1 0 1 0 1 0 1 0 1 0 1 0 1 0 1 0 1 0 1 0 1 0 1 0 1 0 1 0 1 0 1 0 1 0 1 0 1 0 1 0 1 0 1 0 1 0 1 0 1 0 1 0 1 0 1 0 1 0 1 0 1 0 1 0 1 0 1 0 1 0 1 0 1 0 1 0 1 0 1 0 1 0 1 0 1 0 1 0 1 0 1 0 1 0 1 0 1 0 1 0 1 0 1 0 1 0 1 0 1 0 1 0 1 0 1 0 1 0 1 0 1 0 1 0 1 0 1 0 1 0 1 0 1 0 1 0 1 0 1 0 1 0 1 0 1 0 1 0 1 0 1 0 1 0 1 0 1 0 1 0 1 0 1 0 1 0 1 0 1 0 1 0 1 0 1 0 1 0 1 0 1 0 1 0 1 0 1 0 1 0 1 0 1 0 1 0 1 0 1 0 1 0 1 0 1 0 1 0 1 0 1 0 1 0 1 0 1 0 1 0 1 0 1 0 1 0 1 0 1 0 1 0 1 0 1 0 1 0 1 0 1 0 1 0 1 0 1 0 1 0 1 0 1 0 1 0 1 0 1 0 1 0 1 0 1 0 1 0 1 0 1 0 1 0 1 0 1 0 1 0 1 0 1 0 1 0 1 0 1 0 1 0 1 0 1 0 1 0 1 0 1 0 1 0 1 0 1 0 1 0 1 0 1 0 1 0 1 0 1 0 1 0 1 0 1 0 1 0 1 0 1 0 1 0 1 0 1 0 1 0 1 0 1 0 1 0 1 0 1 0 1 0 1 0 1 0 1 0 1 0 1 0 1 0 1 0 1 0 1 0 1 0 1 0 1 0 1 0 1 0 1 0 1 0 1 0 1 0 1 0 1 0 1 0 1 0 1 0 1 0 1 0 1 0 1 0 1 0 1 0 1 0 1 0 1 0 1 0 1 0 1 0 1 0 1 0 1 0 1 0 1 0 1 0 1 0 1 0 1 0 1 0 1 0 1 0 1 0 1 0 1 0 1 0 1 0 1 0 1 0 1 0 1 0 1 0 1 0 1 0 1 0 1 0 1 0 1 0 1 0 1 0 1 0 1 0 1 0 1 0 1 0 1 0 1 0 1 0 1 0 1 0 1 0 1 0 1 0 1 0 1 0 1 0 1 0 1 0 1 0 1 0 1 0 1 0 1 0 1 0 1 0 1 0 1 0 1 0 1 0 1 0 1 0 1 0 1 0 1 0 1 0 1 0 1 0 1 0 1 0 1 0 1 0 1 0 1 0 1 0 1 0 1 0 1 0 1 0 1 0 1 0 1 0 1 0 1 0 1 0 1 0 1 0 1 0 1 0 1 0 1 0 1 0 1 0 1 0 1 0 1 0 1 0 1 0 1 0 1 0 1 0 1 0 1 0 1 0 1 0 1 0 1 0 1 0 1 0 1 0 1 0 1 0 1 0 1 0 1 0 1 0 1 0 1 0 1 0 1 0 1 0 1 0 1 0 1 0 1 0 1 0 1 0 1 0 1 0 1 0 1 0 1 0 1 0 1 0 1 0 1 0 1 0 1 0 1 0 1 0 1 0 1 0 1 0 1 0 1 0 1 0 1 0 1 0 1 0 1 0 1 0 1 0 1 0 1 0 1 0 1 0 1 0 1 0 1 0 1 0 1 0 1 0 1 0 1 0 1 0 1 0 1 0 1 0 1 0 1 0 1 0 1 0 1 0 1 0 1 0 1 0 1 0 1 0 1 0 1 0 1 0 1 0 1 0 1 0 1 0 1 0 1 0 1 0 1 0 1 0 1 0 1 0 1 0 1 0 1 0 1 0 1 0 1 0 1 0 1 0 1 0 1 0 1 0 1 0 1 0 1 0 1 0 1 0 1 0 1 0 1 0 1 0 1 0 1 0 1 0 1 0 1 0 1 0 1 0 1 0 1 0 1 0 1 0 1 0 1 0 1 0 1 0 1 0 1 0 1 0 1 0 1 0 1 0 1 0 1 0 1 0 1 0 1 0 1 0 1 0 1 0 1 0 1 0 1 0 1 0 1 0 1 0 1 0 1 0 1 0 1 0 1 0 1 0 1 0 1 0 1 0 1 0 1 0 1 0 1 0 1 0 1 0 1 0 1 0 1 0 1 0 1 0 1 0 1 0 1 0 1 0 1 0 1 0 1 0 1 0 1 0 1 0 1 0 1 0 1 0 1 0 1 0 1 0 1 0 1 0 1 0 1 0 1 0 1 0 1 0 1 0 1 0 1 0 1 0 1 0 1 0 1 0 1 0 1 0 1 0 1 0 1 0 1 0 1 0 1 0 1 0 1 0 1 0 1 0 1 0 1 0 1 0 1 0 1 0 1 0 1 0 1 0 1 0 1 0 1 0 1 0 1 0 1 0 1 0 1 0 1 0 1 0 1 0 1 0 1 0 1 0 1 0 1 0 1 0 1 0 1 0 1 0 1 0 1 0 1 0 1 0 1 0 1 0 1 0 1 0 1 0 1 0 1 0 1 0 1 0 1 0 1 0 1 0 1 0 1 0 1 0 1 0 1 0 1 0 1 0 1 0 1 0 1 0 1 0 1 0 1 0 1 0 1 0 1 0 1 0 1 0 1 0 1 0 1 0 1 0 1 0 1 0 1 0 1 0 1 0 1 0 1 0 1 0 1 0 1 0 1 0 1 0 1 0 1 0 1 0 1 0 1 0 1 0 1 0 1 0 1 0 1 0 1 0 1 0 1 0 1 0 1 0 1 0 1 0 1 0 1 0 1 0 1 0 1 0 1 0 1 0 1 0 1 0 1 0 1 0 1 0 1 0 1 0 1 0 1 0 1 0 1 0 1 0 1 0 1 0 1 0 1 0 1 0 1 0 1 0 1 0 1 0 1 0 1 0 1 0 1 0 1 0 1 0 1 0 1 0 1 0 1 0 1 0 1 0 1 0 1 0 1 0 1 0 1 0 1 0 1 0 1 0 1 0 1 0 1 0 1 0 1 0 1 0 1 0 1 0 1 0 1 0 1 0 1 0 1 0 1 0 1 0 1 0 1 0 1 0 1 0 1 0 1 0 1 0 1 0 1 0 1 0 1 0 1 0 1 0 1 0 1 0 1 0 1 0 1 0 1 0 1 0 1 0 1 0 1 0 1 0 1 0 1 0 1 0 1 0 1 0 1 0 1 0 1 0 1 0 1 0 1 0 1 0 1 0 1 0 1 0 1 0 1 0 1 0 1 0 1 0 1 0 1 0 1 0 1 0 1 0 1 0 1 0 1 0 1 0 1 0 1 0 1 0 1 0 1 0 1 0 1 0 1 0 1 0 1 0 1 0 1 0 1 0 1 0 1 0 1 0 1 0 1 0 1 0 1 0 1 0 1 0 1 0 1 0 1 0 1 0 1 0 1 0 1 0 1 0 1 0 1 0 1 0 1 0 1 0 1 0 1 0 1 0 1 0 1 0 1 0 1 0 1 0 1 0 1 0 1 0 1 0 1 0 1 0 1 0 1 0 1 0 1 0 1 0 1 0 1 0 1 0 1 0 1 0 1 0 1 0 1 0 1 0 1 0 1 0 1 0 1 0 1 0 1 0 1 0 1 0 1 0 1 0 1 0 1 0 1 0 1 0 1 0 1 0 1 0 1 0 1 0 1 0 1 0 1 0 1 0 1 0 1 0 1 0 1 0 1 0 1 0 1 0 1 0 1 0 1 0 1 0 1 0 1 0 1 0 1 0 1 0 1 0 1 0 1 0 1 0 1 0 1 0 1 0 1 0 1 0 1 0 1 0 1 0 1 0 1 0 1 0 1 0 1 0 1 0 1 0 1 0 1 0 1 0 1 0 1 0 1 0 1 0 1 0 1 0 1 0 1 0 1 0 1 0 1 0 1 0 1 0 1 0 1 0 1 0 1 0 1 0 1 0 1 0 1 0 1 0 1 0 1 0 1 0 1 0 1 0 1 0 1 0 1 0 1 0 1 0 1 0 1 0 1 0 1 0 1 0 1 0 1 0 1 0 1 0 1 0 1 0 1 0 1 0 1 0 1 0 1 0 1 0 1 0 1 0 1 0 1 0 1 0 1 0 1 0 1 0 1 0 1 0 1 0 1 0 1 0 1 0 1 0 1 0 1 0 1 0 1 0 1 0 1 0 1 0 1 0 1 0 1 0 1 0 1 0 1 0 1 0 1 0 1 0 1 0 1 0 1 0 1 0 1 0 1 0 1 0 1 0 1 0 1 0 1 0 1 0 1 0 1 0 1 0 1 0 1 0 1 0 1 0 1 0 1 0 1 0 1 0 1 0 1 0 1 0 1 0 1 0 1 0 1 0 1 0 1</float_array>
          <technique_common>
            <accessor source="#Tex2Src_id-array" count="1542" stride="2">
              <param name="S" type="float"/>
              <param name="T" type="float"/>
            </accessor>
          </technique_common>
        </source>
        <vertices id="geomU3D_id-vertices">
          <input semantic="POSITION" source="#PositionSrc_id"/>
        </vertices>
        <triangles count="0">
          <input semantic="VERTEX" source="#geomU3D_id-vertices" offset="0"/>
          <input semantic="NORMAL" source="#NormalSrc_id" offset="1"/>
          <input semantic="COLOR" source="#ColorSrc_id" offset="2" set="0"/>
          <input semantic="TEXCOORD" source="#Tex1Src_id" offset="3" set="0"/>
          <input semantic="TEXCOORD" source="#Tex2Src_id" offset="4" set="1"/>
          <p/>
        </triangles>
        <triangles material="VisualMaterialVisualMaterial" count="514">
          <input semantic="VERTEX" source="#geomU3D_id-vertices" offset="0"/>
          <input semantic="NORMAL" source="#NormalSrc_id" offset="1"/>
          <input semantic="COLOR" source="#ColorSrc_id" offset="2" set="0"/>
          <input semantic="TEXCOORD" source="#Tex1Src_id" offset="3" set="0"/>
          <input semantic="TEXCOORD" source="#Tex2Src_id" offset="4" set="1"/>
          <p>0 0 0 0 0 1 1 1 1 1 2 2 2 2 2 0 0 0 3 3 3 3 3 4 4 1 1 1 5 5 4 4 4 6 6 5 5 5 7 7 6 6 6 8 8 4 4 4 9 9 7 7 7 10 10 5 5 5 11 11 8 8 8 12 12 6 6 6 13 13 9 9 9 14 14 8 8 8 15 15 4 4 4 16 16 6 6 6 17 17 10 10 10 18 18 9 9 9 19 19 11 11 11 20 20 10 10 10 21 21 8 8 8 22 22 9 9 9 23 23 12 12 12 24 24 11 11 11 25 25 13 13 13 26 26 12 12 12 27 27 10 10 10 28 28 11 11 11 29 29 14 14 14 30 30 13 13 13 31 31 15 15 15 32 32 14 14 14 33 33 12 12 12 34 34 13 13 13 35 35 16 16 16 36 36 14 14 14 37 37 15 15 15 38 38 17 17 17 39 39 18 18 18 40 40 19 19 19 41 41 17 17 17 42 42 20 20 20 43 43 18 18 18 44 44 21 21 21 45 45 20 20 20 46 46 17 17 17 47 47 21 21 21 48 48 22 22 22 49 49 20 20 20 50 50 23 23 23 51 51 24 24 24 52 52 25 25 25 53 53 23 23 23 54 54 26 26 26 55 55 24 24 24 56 56 27 27 27 57 57 26 26 26 58 58 23 23 23 59 59 27 27 27 60 60 28 28 28 61 61 26 26 26 62 62 23 23 23 63 63 29 29 29 64 64 27 27 27 65 65 23 23 23 66 66 30 30 30 67 67 29 29 29 68 68 25 25 25 69 69 30 30 30 70 70 23 23 23 71 71 25 25 25 72 72 31 31 31 73 73 30 30 30 74 74 32 32 32 75 75 33 33 33 76 76 34 34 34 77 77 32 32 32 78 78 35 35 35 79 79 33 33 33 80 80 36 36 36 81 81 35 35 35 82 82 32 32 32 83 83 36 36 36 84 84 37 37 37 85 85 35 35 35 86 86 38 38 38 87 87 34 34 34 88 88 39 39 39 89 89 38 38 38 90 90 32 32 32 91 91 34 34 34 92 92 40 40 40 93 93 32 32 32 94 94 38 38 38 95 95 40 40 40 96 96 36 36 36 97 97 32 32 32 98 98 41 41 41 99 99 39 39 39 100 100 42 42 42 101 101 41 41 41 102 102 38 38 38 103 103 39 39 39 104 104 43 43 43 105 105 38 38 38 106 106 41 41 41 107 107 43 43 43 108 108 40 40 40 109 109 38 38 38 110 110 44 44 44 111 111 42 42 42 112 112 45 45 45 113 113 44 44 44 114 114 41 41 41 115 115 42 42 42 116 116 46 46 46 117 117 41 41 41 118 118 44 44 44 119 119 46 46 46 120 120 43 43 43 121 121 41 41 41 122 122 47 47 47 123 123 45 45 45 124 124 48 48 48 125 125 47 47 47 126 126 44 44 44 127 127 45 45 45 128 128 49 49 49 129 129 44 44 44 130 130 47 47 47 131 131 49 49 49 132 132 46 46 46 133 133 44 44 44 134 134 50 50 50 135 135 48 48 48 136 136 51 51 51 137 137 50 50 50 138 138 47 47 47 139 139 48 48 48 140 140 52 52 52 141 141 47 47 47 142 142 50 50 50 143 143 52 52 52 144 144 49 49 49 145 145 47 47 47 146 146 53 53 53 147 147 22 22 22 148 148 21 21 21 149 149 53 53 53 150 150 54 54 54 151 151 22 22 22 152 152 55 55 55 153 153 54 54 54 154 154 53 53 53 155 155 55 55 55 156 156 56 56 56 157 157 54 54 54 158 158 57 57 57 159 159 28 28 28 160 160 27 27 27 161 161 57 57 57 162 162 58 58 58 163 163 28 28 28 164 164 1 1 1 165 165 58 58 58 166 166 57 57 57 167 167 1 1 1 168 168 3 3 3 169 169 58 58 58 170 170 59 59 59 171 171 1 1 1 172 172 57 57 57 173 173 59 59 59 174 174 60 60 60 175 175 1 1 1 176 176 27 27 27 177 177 59 59 59 178 178 57 57 57 179 179 27 27 27 180 180 29 29 29 181 181 59 59 59 182 182 61 61 61 183 183 37 37 37 184 184 36 36 36 185 185 61 61 61 186 186 62 62 62 187 187 37 37 37 188 188 5 5 5 189 189 62 62 62 190 190 61 61 61 191 191 5 5 5 192 192 63 63 63 193 193 62 62 62 194 194 64 64 64 195 195 36 36 36 196 196 40 40 40 197 197 64 64 64 198 198 61 61 61 199 199 36 36 36 200 200 6 6 6 201 201 61 61 61 202 202 64 64 64 203 203 6 6 6 204 204 5 5 5 205 205 61 61 61 206 206 65 65 65 207 207 40 40 40 208 208 43 43 43 209 209 65 65 65 210 210 64 64 64 211 211 40 40 40 212 212 9 9 9 213 213 64 64 64 214 214 65 65 65 215 215 9 9 9 216 216 6 6 6 217 217 64 64 64 218 218 66 66 66 219 219 43 43 43 220 220 46 46 46 221 221 66 66 66 222 222 65 65 65 223 223 43 43 43 224 224 11 11 11 225 225 65 65 65 226 226 66 66 66 227 227 11 11 11 228 228 9 9 9 229 229 65 65 65 230 230 67 67 67 231 231 46 46 46 232 232 49 49 49 233 233 67 67 67 234 234 66 66 66 235 235 46 46 46 236 236 13 13 13 237 237 66 66 66 238 238 67 67 67 239 239 13 13 13 240 240 11 11 11 241 241 66 66 66 242 242 68 68 68 243 243 49 49 49 244 244 52 52 52 245 245 68 68 68 246 246 67 67 67 247 247 49 49 49 248 248 15 15 15 249 249 67 67 67 250 250 68 68 68 251 251 15 15 15 252 252 13 13 13 253 253 67 67 67 254 254 69 69 69 255 255 70 70 70 256 256 71 71 71 257 257 69 69 69 258 258 72 72 72 259 259 70 70 70 260 260 71 71 71 261 261 73 73 73 262 262 74 74 74 263 263 71 71 71 264 264 70 70 70 265 265 73 73 73 266 266 75 75 75 267 267 76 76 76 268 268 77 77 77 269 269 75 75 75 270 270 78 78 78 271 271 76 76 76 272 272 78 78 78 273 273 79 79 79 274 274 76 76 76 275 275 78 78 78 276 276 80 80 80 277 277 79 79 79 278 278 80 80 80 279 279 81 81 81 280 280 79 79 79 281 281 80 80 80 282 282 82 82 82 283 283 81 81 81 284 284 82 82 82 285 285 83 83 83 286 286 81 81 81 287 287 82 82 82 288 288 84 84 84 289 289 83 83 83 290 290 84 84 84 291 291 85 85 85 292 292 83 83 83 293 293 84 84 84 294 294 86 86 86 295 295 85 85 85 296 296 86 86 86 297 297 87 87 87 298 298 85 85 85 299 299 86 86 86 300 300 88 88 88 301 301 87 87 87 302 302 87 87 87 303 303 88 88 88 304 304 89 89 89 305 305 90 90 90 306 306 19 19 19 307 307 18 18 18 308 308 90 90 90 309 309 91 91 91 310 310 19 19 19 311 311 92 92 92 312 312 91 91 91 313 313 90 90 90 314 314 92 92 92 315 315 93 93 93 316 316 91 91 91 317 317 94 94 94 318 318 25 25 25 319 319 24 24 24 320 320 94 94 94 321 321 95 95 95 322 322 25 25 25 323 323 96 96 96 324 324 95 95 95 325 325 94 94 94 326 326 96 96 96 327 327 97 97 97 328 328 95 95 95 329 329 98 98 98 330 330 97 97 97 331 331 99 99 99 332 332 98 98 98 333 333 95 95 95 334 334 97 97 97 335 335 31 31 31 336 336 95 95 95 337 337 98 98 98 338 338 31 31 31 339 339 25 25 25 340 340 95 95 95 341 341 100 100 100 342 342 34 34 34 343 343 33 33 33 344 344 100 100 100 345 345 101 101 101 346 346 34 34 34 347 347 102 102 102 348 348 101 101 101 349 349 100 100 100 350 350 102 102 102 351 351 103 103 103 352 352 101 101 101 353 353 101 101 101 354 354 39 39 39 355 355 34 34 34 356 356 101 101 101 357 357 104 104 104 358 358 39 39 39 359 359 103 103 103 360 360 104 104 104 361 361 101 101 101 362 362 103 103 103 363 363 105 105 105 364 364 104 104 104 365 365 104 104 104 366 366 42 42 42 367 367 39 39 39 368 368 104 104 104 369 369 106 106 106 370 370 42 42 42 371 371 105 105 105 372 372 106 106 106 373 373 104 104 104 374 374 105 105 105 375 375 107 107 107 376 376 106 106 106 377 377 106 106 106 378 378 45 45 45 379 379 42 42 42 380 380 106 106 106 381 381 108 108 108 382 382 45 45 45 383 383 107 107 107 384 384 108 108 108 385 385 106 106 106 386 386 107 107 107 387 387 109 109 109 388 388 108 108 108 389 389 108 108 108 390 390 48 48 48 391 391 45 45 45 392 392 108 108 108 393 393 110 110 110 394 394 48 48 48 395 395 109 109 109 396 396 110 110 110 397 397 108 108 108 398 398 109 109 109 399 399 111 111 111 400 400 110 110 110 401 401 110 110 110 402 402 51 51 51 403 403 48 48 48 404 404 110 110 110 405 405 112 112 112 406 406 51 51 51 407 407 111 111 111 408 408 112 112 112 409 409 110 110 110 410 410 111 111 111 411 411 113 113 113 412 412 112 112 112 413 413 114 114 114 414 414 93 93 93 415 415 92 92 92 416 416 114 114 114 417 417 115 115 115 418 418 93 93 93 419 419 116 116 116 420 420 115 115 115 421 421 114 114 114 422 422 116 116 116 423 423 117 117 117 424 424 115 115 115 425 425 118 118 118 426 426 97 97 97 427 427 96 96 96 428 428 118 118 118 429 429 119 119 119 430 430 97 97 97 431 431 69 69 69 432 432 119 119 119 433 433 118 118 118 434 434 69 69 69 435 435 71 71 71 436 436 119 119 119 437 437 74 74 74 438 438 119 119 119 439 439 71 71 71 440 440 74 74 74 441 441 120 120 120 442 442 119 119 119 443 443 99 99 99 444 444 119 119 119 445 445 120 120 120 446 446 99 99 99 447 447 97 97 97 448 448 119 119 119 449 449 121 121 121 450 450 103 103 103 451 451 102 102 102 452 452 121 121 121 453 453 122 122 122 454 454 103 103 103 455 455 77 77 77 456 456 122 122 122 457 457 121 121 121 458 458 77 77 77 459 459 76 76 76 460 460 122 122 122 461 461 122 122 122 462 462 105 105 105 463 463 103 103 103 464 464 122 122 122 465 465 123 123 123 466 466 105 105 105 467 467 76 76 76 468 468 123 123 123 469 469 122 122 122 470 470 76 76 76 471 471 79 79 79 472 472 123 123 123 473 473 123 123 123 474 474 107 107 107 475 475 105 105 105 476 476 123 123 123 477 477 124 124 124 478 478 107 107 107 479 479 79 79 79 480 480 124 124 124 481 481 123 123 123 482 482 79 79 79 483 483 81 81 81 484 484 124 124 124 485 485 124 124 124 486 486 109 109 109 487 487 107 107 107 488 488 124 124 124 489 489 125 125 125 490 490 109 109 109 491 491 81 81 81 492 492 125 125 125 493 493 124 124 124 494 494 81 81 81 495 495 83 83 83 496 496 125 125 125 497 497 125 125 125 498 498 111 111 111 499 499 109 109 109 500 500 125 125 125 501 501 126 126 126 502 502 111 111 111 503 503 83 83 83 504 504 126 126 126 505 505 125 125 125 506 506 83 83 83 507 507 85 85 85 508 508 126 126 126 509 509 126 126 126 510 510 113 113 113 511 511 111 111 111 512 512 126 126 126 513 513 127 127 127 514 514 113 113 113 515 515 85 85 85 516 516 127 127 127 517 517 126 126 126 518 518 85 85 85 519 519 87 87 87 520 520 127 127 127 521 521 29 29 29 522 522 128 128 128 523 523 129 129 129 524 524 29 29 29 525 525 30 30 30 526 526 128 128 128 527 527 30 30 30 528 528 130 130 130 529 529 128 128 128 530 530 30 30 30 531 531 31 31 31 532 532 130 130 130 533 533 59 59 59 534 534 129 129 129 535 535 131 131 131 536 536 59 59 59 537 537 29 29 29 538 538 129 129 129 539 539 74 74 74 540 540 132 132 132 541 541 133 133 133 542 542 74 74 74 543 543 73 73 73 544 544 132 132 132 545 545 134 134 134 546 546 99 99 99 547 547 135 135 135 548 548 134 134 134 549 549 98 98 98 550 550 99 99 99 551 551 130 130 130 552 552 98 98 98 553 553 134 134 134 554 554 130 130 130 555 555 31 31 31 556 556 98 98 98 557 557 133 133 133 558 558 120 120 120 559 559 74 74 74 560 560 133 133 133 561 561 136 136 136 562 562 120 120 120 563 563 135 135 135 564 564 120 120 120 565 565 136 136 136 566 566 135 135 135 567 567 99 99 99 568 568 120 120 120 569 569 137 137 137 570 570 37 37 37 571 571 138 138 138 572 572 137 137 137 573 573 35 35 35 574 574 37 37 37 575 575 129 129 129 576 576 137 137 137 577 577 138 138 138 578 578 129 129 129 579 579 128 128 128 580 580 137 137 137 581 581 139 139 139 582 582 35 35 35 583 583 137 137 137 584 584 139 139 139 585 585 33 33 33 586 586 35 35 35 587 587 128 128 128 588 588 139 139 139 589 589 137 137 137 590 590 128 128 128 591 591 130 130 130 592 592 139 139 139 593 593 138 138 138 594 594 62 62 62 595 595 140 140 140 596 596 138 138 138 597 597 37 37 37 598 598 62 62 62 599 599 131 131 131 600 600 138 138 138 601 601 140 140 140 602 602 131 131 131 603 603 129 129 129 604 604 138 138 138 605 605 141 141 141 606 606 75 75 75 607 607 77 77 77 608 608 141 141 141 609 609 142 142 142 610 610 75 75 75 611 611 133 133 133 612 612 142 142 142 613 613 141 141 141 614 614 133 133 133 615 615 132 132 132 616 616 142 142 142 617 617 143 143 143 618 618 134 134 134 619 619 135 135 135 620 620 143 143 143 621 621 144 144 144 622 622 134 134 134 623 623 102 102 102 624 624 144 144 144 625 625 143 143 143 626 626 102 102 102 627 627 100 100 100 628 628 144 144 144 629 629 144 144 144 630 630 130 130 130 631 631 134 134 134 632 632 144 144 144 633 633 139 139 139 634 634 130 130 130 635 635 100 100 100 636 636 139 139 139 637 637 144 144 144 638 638 100 100 100 639 639 33 33 33 640 640 139 139 139 641 641 141 141 141 642 642 136 136 136 643 643 133 133 133 644 644 141 141 141 645 645 145 145 145 646 646 136 136 136 647 647 77 77 77 648 648 145 145 145 649 649 141 141 141 650 650 77 77 77 651 651 121 121 121 652 652 145 145 145 653 653 145 145 145 654 654 135 135 135 655 655 136 136 136 656 656 145 145 145 657 657 143 143 143 658 658 135 135 135 659 659 121 121 121 660 660 143 143 143 661 661 145 145 145 662 662 121 121 121 663 663 102 102 102 664 664 143 143 143 665 665 131 131 131 666 666 60 60 60 667 667 59 59 59 668 668 131 131 131 669 669 146 146 146 670 670 60 60 60 671 671 147 147 147 672 672 146 146 146 673 673 131 131 131 674 674 131 131 131 675 675 148 148 148 676 676 147 147 147 677 677 131 131 131 678 678 140 140 140 679 679 148 148 148 680 680 140 140 140 681 681 149 149 149 682 682 148 148 148 683 683 140 140 140 684 684 63 63 63 685 685 149 149 149 686 686 62 62 62 687 687 63 63 63 688 688 140 140 140 689 689 2 2 2 690 690 60 60 60 691 691 150 150 150 692 692 2 2 2 693 693 1 1 1 694 694 60 60 60 695 695 7 7 7 696 696 63 63 63 697 697 5 5 5 698 698 7 7 7 699 699 151 151 151 700 700 63 63 63 701 701 150 150 150 702 702 146 146 146 703 703 152 152 152 704 704 150 150 150 705 705 60 60 60 706 706 146 146 146 707 707 153 153 153 708 708 63 63 63 709 709 151 151 151 710 710 153 153 153 711 711 149 149 149 712 712 63 63 63 713 713 154 154 154 714 714 155 155 155 715 715 156 156 156 716 716 154 154 154 717 717 157 157 157 718 718 155 155 155 719 719 158 158 158 720 720 157 157 157 721 721 154 154 154 722 722 158 158 158 723 723 159 159 159 724 724 157 157 157 725 725 157 157 157 726 726 147 147 147 727 727 155 155 155 728 728 157 157 157 729 729 146 146 146 730 730 147 147 147 731 731 159 159 159 732 732 146 146 146 733 733 157 157 157 734 734 159 159 159 735 735 152 152 152 736 736 146 146 146 737 737 156 156 156 738 738 149 149 149 739 739 154 154 154 740 740 156 156 156 741 741 148 148 148 742 742 149 149 149 743 743 154 154 154 744 744 153 153 153 745 745 158 158 158 746 746 154 154 154 747 747 149 149 149 748 748 153 153 153 749 749 155 155 155 750 750 148 148 148 751 751 156 156 156 752 752 155 155 155 753 753 147 147 147 754 754 148 148 148 755 755 160 160 160 756 756 152 152 152 757 757 161 161 161 758 758 160 160 160 759 759 153 153 153 760 760 152 152 152 761 761 161 161 161 762 762 152 152 152 763 763 159 159 159 764 764 160 160 160 765 765 158 158 158 766 766 153 153 153 767 767 161 161 161 768 768 158 158 158 769 769 160 160 160 770 770 161 161 161 771 771 159 159 159 772 772 158 158 158 773 773 162 162 162 774 774 2 2 2 775 775 163 163 163 776 776 162 162 162 777 777 0 0 0 778 778 2 2 2 779 779 7 7 7 780 780 164 164 164 781 781 165 165 165 782 782 7 7 7 783 783 4 4 4 784 784 164 164 164 785 785 4 4 4 786 786 166 166 166 787 787 164 164 164 788 788 4 4 4 789 789 8 8 8 790 790 166 166 166 791 791 8 8 8 792 792 167 167 167 793 793 166 166 166 794 794 8 8 8 795 795 10 10 10 796 796 167 167 167 797 797 10 10 10 798 798 168 168 168 799 799 167 167 167 800 800 10 10 10 801 801 12 12 12 802 802 168 168 168 803 803 12 12 12 804 804 169 169 169 805 805 168 168 168 806 806 12 12 12 807 807 14 14 14 808 808 169 169 169 809 809 169 169 169 810 810 14 14 14 811 811 16 16 16 812 812 20 20 20 813 813 170 170 170 814 814 18 18 18 815 815 20 20 20 816 816 171 171 171 817 817 170 170 170 818 818 22 22 22 819 819 171 171 171 820 820 20 20 20 821 821 22 22 22 822 822 172 172 172 823 823 171 171 171 824 824 173 173 173 825 825 174 174 174 826 826 175 175 175 827 827 173 173 173 828 828 176 176 176 829 829 174 174 174 830 830 177 177 177 831 831 176 176 176 832 832 173 173 173 833 833 177 177 177 834 834 178 178 178 835 835 176 176 176 836 836 179 179 179 837 837 178 178 178 838 838 180 180 180 839 839 179 179 179 840 840 176 176 176 841 841 178 178 178 842 842 181 181 181 843 843 176 176 176 844 844 179 179 179 845 845 181 181 181 846 846 174 174 174 847 847 176 176 176 848 848 182 182 182 849 849 183 183 183 850 850 184 184 184 851 851 182 182 182 852 852 185 185 185 853 853 183 183 183 854 854 186 186 186 855 855 185 185 185 856 856 182 182 182 857 857 186 186 186 858 858 187 187 187 859 859 185 185 185 860 860 185 185 185 861 861 188 188 188 862 862 183 183 183 863 863 185 185 185 864 864 189 189 189 865 865 188 188 188 866 866 187 187 187 867 867 189 189 189 868 868 185 185 185 869 869 187 187 187 870 870 190 190 190 871 871 189 189 189 872 872 189 189 189 873 873 191 191 191 874 874 188 188 188 875 875 189 189 189 876 876 192 192 192 877 877 191 191 191 878 878 190 190 190 879 879 192 192 192 880 880 189 189 189 881 881 190 190 190 882 882 193 193 193 883 883 192 192 192 884 884 192 192 192 885 885 194 194 194 886 886 191 191 191 887 887 192 192 192 888 888 195 195 195 889 889 194 194 194 890 890 193 193 193 891 891 195 195 195 892 892 192 192 192 893 893 193 193 193 894 894 196 196 196 895 895 195 195 195 896 896 195 195 195 897 897 197 197 197 898 898 194 194 194 899 899 195 195 195 900 900 198 198 198 901 901 197 197 197 902 902 196 196 196 903 903 198 198 198 904 904 195 195 195 905 905 196 196 196 906 906 199 199 199 907 907 198 198 198 908 908 198 198 198 909 909 200 200 200 910 910 197 197 197 911 911 198 198 198 912 912 201 201 201 913 913 200 200 200 914 914 199 199 199 915 915 201 201 201 916 916 198 198 198 917 917 199 199 199 918 918 202 202 202 919 919 201 201 201 920 920 54 54 54 921 921 172 172 172 922 922 22 22 22 923 923 54 54 54 924 924 203 203 203 925 925 172 172 172 926 926 56 56 56 927 927 203 203 203 928 928 54 54 54 929 929 56 56 56 930 930 204 204 204 931 931 203 203 203 932 932 205 205 205 933 933 178 178 178 934 934 177 177 177 935 935 205 205 205 936 936 206 206 206 937 937 178 178 178 938 938 162 162 162 939 939 206 206 206 940 940 205 205 205 941 941 162 162 162 942 942 163 163 163 943 943 206 206 206 944 944 207 207 207 945 945 206 206 206 946 946 163 163 163 947 947 207 207 207 948 948 208 208 208 949 949 206 206 206 950 950 180 180 180 951 951 206 206 206 952 952 208 208 208 953 953 180 180 180 954 954 178 178 178 955 955 206 206 206 956 956 209 209 209 957 957 187 187 187 958 958 186 186 186 959 959 209 209 209 960 960 210 210 210 961 961 187 187 187 962 962 211 211 211 963 963 210 210 210 964 964 209 209 209 965 965 211 211 211 966 966 165 165 165 967 967 210 210 210 968 968 210 210 210 969 969 190 190 190 970 970 187 187 187 971 971 210 210 210 972 972 212 212 212 973 973 190 190 190 974 974 165 165 165 975 975 212 212 212 976 976 210 210 210 977 977 165 165 165 978 978 164 164 164 979 979 212 212 212 980 980 212 212 212 981 981 193 193 193 982 982 190 190 190 983 983 212 212 212 984 984 213 213 213 985 985 193 193 193 986 986 164 164 164 987 987 213 213 213 988 988 212 212 212 989 989 164 164 164 990 990 166 166 166 991 991 213 213 213 992 992 213 213 213 993 993 196 196 196 994 994 193 193 193 995 995 213 213 213 996 996 214 214 214 997 997 196 196 196 998 998 166 166 166 999 999 214 214 214 1000 1000 213 213 213 1001 1001 166 166 166 1002 1002 167 167 167 1003 1003 214 214 214 1004 1004 214 214 214 1005 1005 199 199 199 1006 1006 196 196 196 1007 1007 214 214 214 1008 1008 215 215 215 1009 1009 199 199 199 1010 1010 167 167 167 1011 1011 215 215 215 1012 1012 214 214 214 1013 1013 167 167 167 1014 1014 168 168 168 1015 1015 215 215 215 1016 1016 215 215 215 1017 1017 202 202 202 1018 1018 199 199 199 1019 1019 215 215 215 1020 1020 216 216 216 1021 1021 202 202 202 1022 1022 168 168 168 1023 1023 216 216 216 1024 1024 215 215 215 1025 1025 168 168 168 1026 1026 169 169 169 1027 1027 216 216 216 1028 1028 72 72 72 1029 1029 217 217 217 1030 1030 70 70 70 1031 1031 72 72 72 1032 1032 218 218 218 1033 1033 217 217 217 1034 1034 70 70 70 1035 1035 219 219 219 1036 1036 73 73 73 1037 1037 70 70 70 1038 1038 217 217 217 1039 1039 219 219 219 1040 1040 78 78 78 1041 1041 220 220 220 1042 1042 221 221 221 1043 1043 78 78 78 1044 1044 75 75 75 1045 1045 220 220 220 1046 1046 80 80 80 1047 1047 221 221 221 1048 1048 222 222 222 1049 1049 80 80 80 1050 1050 78 78 78 1051 1051 221 221 221 1052 1052 82 82 82 1053 1053 222 222 222 1054 1054 223 223 223 1055 1055 82 82 82 1056 1056 80 80 80 1057 1057 222 222 222 1058 1058 84 84 84 1059 1059 223 223 223 1060 1060 224 224 224 1061 1061 84 84 84 1062 1062 82 82 82 1063 1063 223 223 223 1064 1064 86 86 86 1065 1065 224 224 224 1066 1066 225 225 225 1067 1067 86 86 86 1068 1068 84 84 84 1069 1069 224 224 224 1070 1070 88 88 88 1071 1071 225 225 225 1072 1072 226 226 226 1073 1073 88 88 88 1074 1074 86 86 86 1075 1075 225 225 225 1076 1076 89 89 89 1077 1077 88 88 88 1078 1078 226 226 226 1079 1079 227 227 227 1080 1080 18 18 18 1081 1081 170 170 170 1082 1082 227 227 227 1083 1083 90 90 90 1084 1084 18 18 18 1085 1085 228 228 228 1086 1086 90 90 90 1087 1087 227 227 227 1088 1088 228 228 228 1089 1089 92 92 92 1090 1090 90 90 90 1091 1091 229 229 229 1092 1092 175 175 175 1093 1093 174 174 174 1094 1094 229 229 229 1095 1095 230 230 230 1096 1096 175 175 175 1097 1097 231 231 231 1098 1098 230 230 230 1099 1099 229 229 229 1100 1100 231 231 231 1101 1101 232 232 232 1102 1102 230 230 230 1103 1103 229 229 229 1104 1104 233 233 233 1105 1105 231 231 231 1106 1106 229 229 229 1107 1107 234 234 234 1108 1108 233 233 233 1109 1109 174 174 174 1110 1110 234 234 234 1111 1111 229 229 229 1112 1112 174 174 174 1113 1113 181 181 181 1114 1114 234 234 234 1115 1115 235 235 235 1116 1116 184 184 184 1117 1117 183 183 183 1118 1118 235 235 235 1119 1119 236 236 236 1120 1120 184 184 184 1121 1121 237 237 237 1122 1122 236 236 236 1123 1123 235 235 235 1124 1124 237 237 237 1125 1125 238 238 238 1126 1126 236 236 236 1127 1127 239 239 239 1128 1128 183 183 183 1129 1129 188 188 188 1130 1130 239 239 239 1131 1131 235 235 235 1132 1132 183 183 183 1133 1133 240 240 240 1134 1134 235 235 235 1135 1135 239 239 239 1136 1136 240 240 240 1137 1137 237 237 237 1138 1138 235 235 235 1139 1139 241 241 241 1140 1140 188 188 188 1141 1141 191 191 191 1142 1142 241 241 241 1143 1143 239 239 239 1144 1144 188 188 188 1145 1145 242 242 242 1146 1146 239 239 239 1147 1147 241 241 241 1148 1148 242 242 242 1149 1149 240 240 240 1150 1150 239 239 239 1151 1151 243 243 243 1152 1152 191 191 191 1153 1153 194 194 194 1154 1154 243 243 243 1155 1155 241 241 241 1156 1156 191 191 191 1157 1157 244 244 244 1158 1158 241 241 241 1159 1159 243 243 243 1160 1160 244 244 244 1161 1161 242 242 242 1162 1162 241 241 241 1163 1163 245 245 245 1164 1164 194 194 194 1165 1165 197 197 197 1166 1166 245 245 245 1167 1167 243 243 243 1168 1168 194 194 194 1169 1169 246 246 246 1170 1170 243 243 243 1171 1171 245 245 245 1172 1172 246 246 246 1173 1173 244 244 244 1174 1174 243 243 243 1175 1175 247 247 247 1176 1176 197 197 197 1177 1177 200 200 200 1178 1178 247 247 247 1179 1179 245 245 245 1180 1180 197 197 197 1181 1181 248 248 248 1182 1182 245 245 245 1183 1183 247 247 247 1184 1184 248 248 248 1185 1185 246 246 246 1186 1186 245 245 245 1187 1187 249 249 249 1188 1188 92 92 92 1189 1189 228 228 228 1190 1190 249 249 249 1191 1191 114 114 114 1192 1192 92 92 92 1193 1193 250 250 250 1194 1194 114 114 114 1195 1195 249 249 249 1196 1196 250 250 250 1197 1197 116 116 116 1198 1198 114 114 114 1199 1199 251 251 251 1200 1200 232 232 232 1201 1201 231 231 231 1202 1202 251 251 251 1203 1203 252 252 252 1204 1204 232 232 232 1205 1205 217 217 217 1206 1206 252 252 252 1207 1207 251 251 251 1208 1208 217 217 217 1209 1209 218 218 218 1210 1210 252 252 252 1211 1211 253 253 253 1212 1212 217 217 217 1213 1213 251 251 251 1214 1214 253 253 253 1215 1215 219 219 219 1216 1216 217 217 217 1217 1217 231 231 231 1218 1218 253 253 253 1219 1219 251 251 251 1220 1220 231 231 231 1221 1221 233 233 233 1222 1222 253 253 253 1223 1223 254 254 254 1224 1224 238 238 238 1225 1225 237 237 237 1226 1226 254 254 254 1227 1227 255 255 255 1228 1228 238 238 238 1229 1229 221 221 221 1230 1230 255 255 255 1231 1231 254 254 254 1232 1232 221 221 221 1233 1233 220 220 220 1234 1234 255 255 255 1235 1235 256 256 256 1236 1236 237 237 237 1237 1237 240 240 240 1238 1238 256 256 256 1239 1239 254 254 254 1240 1240 237 237 237 1241 1241 222 222 222 1242 1242 254 254 254 1243 1243 256 256 256 1244 1244 222 222 222 1245 1245 221 221 221 1246 1246 254 254 254 1247 1247 257 257 257 1248 1248 240 240 240 1249 1249 242 242 242 1250 1250 257 257 257 1251 1251 256 256 256 1252 1252 240 240 240 1253 1253 223 223 223 1254 1254 256 256 256 1255 1255 257 257 257 1256 1256 223 223 223 1257 1257 222 222 222 1258 1258 256 256 256 1259 1259 258 258 258 1260 1260 242 242 242 1261 1261 244 244 244 1262 1262 258 258 258 1263 1263 257 257 257 1264 1264 242 242 242 1265 1265 224 224 224 1266 1266 257 257 257 1267 1267 258 258 258 1268 1268 224 224 224 1269 1269 223 223 223 1270 1270 257 257 257 1271 1271 259 259 259 1272 1272 244 244 244 1273 1273 246 246 246 1274 1274 259 259 259 1275 1275 258 258 258 1276 1276 244 244 244 1277 1277 225 225 225 1278 1278 258 258 258 1279 1279 259 259 259 1280 1280 225 225 225 1281 1281 224 224 224 1282 1282 258 258 258 1283 1283 260 260 260 1284 1284 246 246 246 1285 1285 248 248 248 1286 1286 260 260 260 1287 1287 259 259 259 1288 1288 246 246 246 1289 1289 226 226 226 1290 1290 259 259 259 1291 1291 260 260 260 1292 1292 226 226 226 1293 1293 225 225 225 1294 1294 259 259 259 1295 1295 179 179 179 1296 1296 261 261 261 1297 1297 262 262 262 1298 1298 179 179 179 1299 1299 180 180 180 1300 1300 261 261 261 1301 1301 181 181 181 1302 1302 262 262 262 1303 1303 263 263 263 1304 1304 181 181 181 1305 1305 179 179 179 1306 1306 262 262 262 1307 1307 180 180 180 1308 1308 264 264 264 1309 1309 261 261 261 1310 1310 180 180 180 1311 1311 208 208 208 1312 1312 264 264 264 1313 1313 73 73 73 1314 1314 265 265 265 1315 1315 132 132 132 1316 1316 73 73 73 1317 1317 219 219 219 1318 1318 265 265 265 1319 1319 234 234 234 1320 1320 266 266 266 1321 1321 233 233 233 1322 1322 234 234 234 1323 1323 267 267 267 1324 1324 266 266 266 1325 1325 181 181 181 1326 1326 267 267 267 1327 1327 234 234 234 1328 1328 181 181 181 1329 1329 263 263 263 1330 1330 267 267 267 1331 1331 268 268 268 1332 1332 219 219 219 1333 1333 253 253 253 1334 1334 268 268 268 1335 1335 265 265 265 1336 1336 219 219 219 1337 1337 233 233 233 1338 1338 268 268 268 1339 1339 253 253 253 1340 1340 233 233 233 1341 1341 266 266 266 1342 1342 268 268 268 1343 1343 182 182 182 1344 1344 269 269 269 1345 1345 186 186 186 1346 1346 182 182 182 1347 1347 270 270 270 1348 1348 269 269 269 1349 1349 262 262 262 1350 1350 269 269 269 1351 1351 270 270 270 1352 1352 262 262 262 1353 1353 261 261 261 1354 1354 269 269 269 1355 1355 184 184 184 1356 1356 270 270 270 1357 1357 182 182 182 1358 1358 184 184 184 1359 1359 271 271 271 1360 1360 270 270 270 1361 1361 263 263 263 1362 1362 270 270 270 1363 1363 271 271 271 1364 1364 263 263 263 1365 1365 262 262 262 1366 1366 270 270 270 1367 1367 186 186 186 1368 1368 272 272 272 1369 1369 209 209 209 1370 1370 186 186 186 1371 1371 269 269 269 1372 1372 272 272 272 1373 1373 261 261 261 1374 1374 272 272 272 1375 1375 269 269 269 1376 1376 261 261 261 1377 1377 264 264 264 1378 1378 272 272 272 1379 1379 142 142 142 1380 1380 220 220 220 1381 1381 75 75 75 1382 1382 142 142 142 1383 1383 273 273 273 1384 1384 220 220 220 1385 1385 132 132 132 1386 1386 273 273 273 1387 1387 142 142 142 1388 1388 132 132 132 1389 1389 265 265 265 1390 1390 273 273 273 1391 1391 274 274 274 1392 1392 266 266 266 1393 1393 267 267 267 1394 1394 274 274 274 1395 1395 275 275 275 1396 1396 266 266 266 1397 1397 236 236 236 1398 1398 275 275 275 1399 1399 274 274 274 1400 1400 236 236 236 1401 1401 238 238 238 1402 1402 275 275 275 1403 1403 271 271 271 1404 1404 267 267 267 1405 1405 263 263 263 1406 1406 271 271 271 1407 1407 274 274 274 1408 1408 267 267 267 1409 1409 184 184 184 1410 1410 274 274 274 1411 1411 271 271 271 1412 1412 184 184 184 1413 1413 236 236 236 1414 1414 274 274 274 1415 1415 276 276 276 1416 1416 265 265 265 1417 1417 268 268 268 1418 1418 276 276 276 1419 1419 273 273 273 1420 1420 265 265 265 1421 1421 255 255 255 1422 1422 273 273 273 1423 1423 276 276 276 1424 1424 255 255 255 1425 1425 220 220 220 1426 1426 273 273 273 1427 1427 275 275 275 1428 1428 268 268 268 1429 1429 266 266 266 1430 1430 275 275 275 1431 1431 276 276 276 1432 1432 268 268 268 1433 1433 238 238 238 1434 1434 276 276 276 1435 1435 275 275 275 1436 1436 238 238 238 1437 1437 255 255 255 1438 1438 276 276 276 1439 1439 277 277 277 1440 1440 208 208 208 1441 1441 207 207 207 1442 1442 277 277 277 1443 1443 264 264 264 1444 1444 208 208 208 1445 1445 278 278 278 1446 1446 264 264 264 1447 1447 277 277 277 1448 1448 272 272 272 1449 1449 278 278 278 1450 1450 279 279 279 1451 1451 272 272 272 1452 1452 264 264 264 1453 1453 278 278 278 1454 1454 211 211 211 1455 1455 279 279 279 1456 1456 280 280 280 1457 1457 211 211 211 1458 1458 272 272 272 1459 1459 279 279 279 1460 1460 209 209 209 1461 1461 272 272 272 1462 1462 211 211 211 1463 1463 163 163 163 1464 1464 150 150 150 1465 1465 207 207 207 1466 1466 163 163 163 1467 1467 2 2 2 1468 1468 150 150 150 1469 1469 151 151 151 1470 1470 165 165 165 1471 1471 211 211 211 1472 1472 151 151 151 1473 1473 7 7 7 1474 1474 165 165 165 1475 1475 207 207 207 1476 1476 152 152 152 1477 1477 277 277 277 1478 1478 207 207 207 1479 1479 150 150 150 1480 1480 152 152 152 1481 1481 280 280 280 1482 1482 151 151 151 1483 1483 211 211 211 1484 1484 280 280 280 1485 1485 153 153 153 1486 1486 151 151 151 1487 1487 281 281 281 1488 1488 282 282 282 1489 1489 283 283 283 1490 1490 281 281 281 1491 1491 284 284 284 1492 1492 282 282 282 1493 1493 285 285 285 1494 1494 284 284 284 1495 1495 281 281 281 1496 1496 285 285 285 1497 1497 286 286 286 1498 1498 284 284 284 1499 1499 277 277 277 1500 1500 283 283 283 1501 1501 278 278 278 1502 1502 277 277 277 1503 1503 281 281 281 1504 1504 283 283 283 1505 1505 152 152 152 1506 1506 281 281 281 1507 1507 277 277 277 1508 1508 152 152 152 1509 1509 285 285 285 1510 1510 281 281 281 1511 1511 279 279 279 1512 1512 284 284 284 1513 1513 280 280 280 1514 1514 279 279 279 1515 1515 282 282 282 1516 1516 284 284 284 1517 1517 280 280 280 1518 1518 286 286 286 1519 1519 153 153 153 1520 1520 280 280 280 1521 1521 284 284 284 1522 1522 286 286 286 1523 1523 278 278 278 1524 1524 282 282 282 1525 1525 279 279 279 1526 1526 278 278 278 1527 1527 283 283 283 1528 1528 282 282 282 1529 1529 153 153 153 1530 1530 287 287 287 1531 1531 152 152 152 1532 1532 153 153 153 1533 1533 288 288 288 1534 1534 287 287 287 1535 1535 285 285 285 1536 1536 152 152 152 1537 1537 287 287 287 1538 1538 153 153 153 1539 1539 286 286 286 1540 1540 288 288 288 1541 1541</p>
        </triangles>
      </mesh>
    </geometry>
  </library_geometries>
  <library_controllers>
    <controller id="skinU3D_id" name="skinU3D">
      <skin source="#geomU3D_id">
        <bind_shape_matrix>1 0 0 0 0 1 0 0 0 0 1 0 0 0 0 1</bind_shape_matrix>
        <source id="skinU3D_id-joints">
          <Name_array id="skinU3D_id-joints-array" count="1">Body_id</Name_array>
          <technique_common>
            <accessor source="#skinU3D_id-joints-array" count="1" stride="1">
              <param name="JOINT" type="Name"/>
            </accessor>
          </technique_common>
        </source>
        <source id="skinU3D_id-bind_poses">
          <float_array id="skinU3D_id-bind_poses-array" count="16">1 0 0 0 0 1 0 0 0 0 1 0 0 0 0 1</float_array>
          <technique_common>
            <accessor source="#skinU3D_id-bind_poses-array" count="1" stride="16">
              <param name="TRANSFORM" type="float4x4"/>
            </accessor>
          </technique_common>
        </source>
        <source id="skinU3D_id-weights">
          <float_array id="skinU3D_id-weights-array" count="1">1</float_array>
          <technique_common>
            <accessor source="#skinU3D_id-weights-array" count="1" stride="1">
              <param name="WEIGHT" type="float"/>
            </accessor>
          </technique_common>
        </source>
        <joints>
          <input semantic="JOINT" source="#skinU3D_id-joints"/>
          <input semantic="INV_BIND_MATRIX" source="#skinU3D_id-bind_poses"/>
        </joints>
        <vertex_weights count="289">
          <input semantic="JOINT" source="#skinU3D_id-joints" offset="0"/>
          <input semantic="WEIGHT" source="#skinU3D_id-weights" offset="1"/>
          <vcount>1 1 1 1 1 1 1 1 1 1 1 1 1 1 1 1 1 1 1 1 1 1 1 1 1 1 1 1 1 1 1 1 1 1 1 1 1 1 1 1 1 1 1 1 1 1 1 1 1 1 1 1 1 1 1 1 1 1 1 1 1 1 1 1 1 1 1 1 1 1 1 1 1 1 1 1 1 1 1 1 1 1 1 1 1 1 1 1 1 1 1 1 1 1 1 1 1 1 1 1 1 1 1 1 1 1 1 1 1 1 1 1 1 1 1 1 1 1 1 1 1 1 1 1 1 1 1 1 1 1 1 1 1 1 1 1 1 1 1 1 1 1 1 1 1 1 1 1 1 1 1 1 1 1 1 1 1 1 1 1 1 1 1 1 1 1 1 1 1 1 1 1 1 1 1 1 1 1 1 1 1 1 1 1 1 1 1 1 1 1 1 1 1 1 1 1 1 1 1 1 1 1 1 1 1 1 1 1 1 1 1 1 1 1 1 1 1 1 1 1 1 1 1 1 1 1 1 1 1 1 1 1 1 1 1 1 1 1 1 1 1 1 1 1 1 1 1 1 1 1 1 1 1 1 1 1 1 1 1 1 1 1 1 1 1 1 1 1 1 1 1 1 1 1 1 1 1 1 1 1 1 1 1 1 1 1 1 1 1 </vcount>
          <v>0 0 0 0 0 0 0 0 0 0 0 0 0 0 0 0 0 0 0 0 0 0 0 0 0 0 0 0 0 0 0 0 0 0 0 0 0 0 0 0 0 0 0 0 0 0 0 0 0 0 0 0 0 0 0 0 0 0 0 0 0 0 0 0 0 0 0 0 0 0 0 0 0 0 0 0 0 0 0 0 0 0 0 0 0 0 0 0 0 0 0 0 0 0 0 0 0 0 0 0 0 0 0 0 0 0 0 0 0 0 0 0 0 0 0 0 0 0 0 0 0 0 0 0 0 0 0 0 0 0 0 0 0 0 0 0 0 0 0 0 0 0 0 0 0 0 0 0 0 0 0 0 0 0 0 0 0 0 0 0 0 0 0 0 0 0 0 0 0 0 0 0 0 0 0 0 0 0 0 0 0 0 0 0 0 0 0 0 0 0 0 0 0 0 0 0 0 0 0 0 0 0 0 0 0 0 0 0 0 0 0 0 0 0 0 0 0 0 0 0 0 0 0 0 0 0 0 0 0 0 0 0 0 0 0 0 0 0 0 0 0 0 0 0 0 0 0 0 0 0 0 0 0 0 0 0 0 0 0 0 0 0 0 0 0 0 0 0 0 0 0 0 0 0 0 0 0 0 0 0 0 0 0 0 0 0 0 0 0 0 0 0 0 0 0 0 0 0 0 0 0 0 0 0 0 0 0 0 0 0 0 0 0 0 0 0 0 0 0 0 0 0 0 0 0 0 0 0 0 0 0 0 0 0 0 0 0 0 0 0 0 0 0 0 0 0 0 0 0 0 0 0 0 0 0 0 0 0 0 0 0 0 0 0 0 0 0 0 0 0 0 0 0 0 0 0 0 0 0 0 0 0 0 0 0 0 0 0 0 0 0 0 0 0 0 0 0 0 0 0 0 0 0 0 0 0 0 0 0 0 0 0 0 0 0 0 0 0 0 0 0 0 0 0 0 0 0 0 0 0 0 0 0 0 0 0 0 0 0 0 0 0 0 0 0 0 0 0 0 0 0 0 0 0 0 0 0 0 0 0 0 0 0 0 0 0 0 0 0 0 0 0 0 0 0 0 0 0 0 0 0 0 0 0 0 0 0 0 0 0 0 0 0 0 0 0 0 0 0 0 0 0 0 0 0 0 0 0 0 0 0 0 0 0 0 0 0 0 0 0 0 0 0 0 0 0 0 0 0 0 0 0 0 0 0 0 0 0 0 0 0 0 0 0 0 0 0 0 0 0 0 0 0 0 0 0 0 0 0 0 0 0 0 0 0 0 0 0 0 0 0 0 0 0 0 0 0 0</v>
        </vertex_weights>
      </skin>
    </controller>
  </library_controllers>
  <library_visual_scenes>
    <visual_scene id="VisualSceneNode" name="rootU3D">
      <node id="Body_id" name="Body" sid="Body_id" type="JOINT">
        <translate>0 0 0</translate>
        <rotate sid="rotateZ">0 0 1 0</rotate>
        <rotate sid="rotateY">0 1 0 0</rotate>
        <rotate sid="rotateX">1 0 0 0</rotate>
        <scale>1 1 1</scale>
      </node>
      <node id="def_surf_mat_id" name="def_surf_mat" type="JOINT">
        <translate>0 0 0</translate>
        <rotate sid="rotateZ">0 0 1 0</rotate>
        <rotate sid="rotateY">0 1 0 0</rotate>
        <rotate sid="rotateX">1 0 0 0</rotate>
        <scale>1 1 1</scale>
      </node>
      <node id="meshU3D_id" name="meshU3D" type="NODE">
        <translate>0 0 0</translate>
        <rotate>1 0 0 0</rotate>
        <scale>1 1 1</scale>
        <instance_controller url="#skinU3D_id">
          <skeleton>#Body_id</skeleton>
          <bind_material>
            <technique_common>
              <instance_material symbol="VisualMaterialVisualMaterial" target="#VisualMaterial">
                <bind_vertex_input semantic="UVSET0" input_semantic="TEXCOORD" input_set="0"/>
              </instance_material>
            </technique_common>
          </bind_material>
        </instance_controller>
      </node>
      <extra>
        <technique profile="MAX3D">
          <frame_rate>30</frame_rate>
        </technique>
        <technique profile="MAYA">
          <start_time>0</start_time>
          <end_time>1</end_time>
        </technique>
      </extra>
    </visual_scene>
  </library_visual_scenes>
  <scene>
    <instance_visual_scene url="#VisualSceneNode"/>
  </scene>
</COLLADA>
