xof 0303txt 0032

// DirectX 9.0 file
// Creator: Ultimate Unwrap3D Pro v3.19
// Website: http://www.unwrap3d.com
// Time: Thu Dec 10 21:40:38 2009

// Start of Templates

template VertexDuplicationIndices {
 <b8d65549-d7c9-4995-89cf-53a9a8b031e3>
 DWORD nIndices;
 DWORD nOriginalVertices;
 array DWORD indices[nIndices];
}

template FVFData {
 <b6e70a0e-8ef9-4e83-94ad-ecc8b0c04897>
 DWORD dwFVF;
 DWORD nDWords;
 array DWORD data[nDWords];
}

template Header {
 <3D82AB43-62DA-11cf-AB39-0020AF71E433>
 WORD major;
 WORD minor;
 DWORD flags;
}

template Vector {
 <3D82AB5E-62DA-11cf-AB39-0020AF71E433>
 FLOAT x;
 FLOAT y;
 FLOAT z;
}

template Coords2d {
 <F6F23F44-7686-11cf-8F52-0040333594A3>
 FLOAT u;
 FLOAT v;
}

template Matrix4x4 {
 <F6F23F45-7686-11cf-8F52-0040333594A3>
 array FLOAT matrix[16];
}

template ColorRGBA {
 <35FF44E0-6C7C-11cf-8F52-0040333594A3>
 FLOAT red;
 FLOAT green;
 FLOAT blue;
 FLOAT alpha;
}

template ColorRGB {
 <D3E16E81-7835-11cf-8F52-0040333594A3>
 FLOAT red;
 FLOAT green;
 FLOAT blue;
}

template IndexedColor {
 <1630B820-7842-11cf-8F52-0040333594A3>
 DWORD index;
 ColorRGBA indexColor;
}

template Material {
 <3D82AB4D-62DA-11cf-AB39-0020AF71E433>
 ColorRGBA faceColor;
 FLOAT power;
 ColorRGB specularColor;
 ColorRGB emissiveColor;
 [...]
}

template TextureFilename {
 <A42790E1-7810-11cf-8F52-0040333594A3>
 STRING filename;
}

template MeshFace {
 <3D82AB5F-62DA-11cf-AB39-0020AF71E433>
 DWORD nFaceVertexIndices;
 array DWORD faceVertexIndices[nFaceVertexIndices];
}

template MeshTextureCoords {
 <F6F23F40-7686-11cf-8F52-0040333594A3>
 DWORD nTextureCoords;
 array Coords2d textureCoords[nTextureCoords];
}

template MeshMaterialList {
 <F6F23F42-7686-11cf-8F52-0040333594A3>
 DWORD nMaterials;
 DWORD nFaceIndexes;
 array DWORD faceIndexes[nFaceIndexes];
 [Material]
}

template MeshNormals {
 <F6F23F43-7686-11cf-8F52-0040333594A3>
 DWORD nNormals;
 array Vector normals[nNormals];
 DWORD nFaceNormals;
 array MeshFace faceNormals[nFaceNormals];
}

template MeshVertexColors {
 <1630B821-7842-11cf-8F52-0040333594A3>
 DWORD nVertexColors;
 array IndexedColor vertexColors[nVertexColors];
}

template Mesh {
 <3D82AB44-62DA-11cf-AB39-0020AF71E433>
 DWORD nVertices;
 array Vector vertices[nVertices];
 DWORD nFaces;
 array MeshFace faces[nFaces];
 [...]
}

template FrameTransformMatrix {
 <F6F23F41-7686-11cf-8F52-0040333594A3>
 Matrix4x4 frameMatrix;
}

template Frame {
 <3D82AB46-62DA-11cf-AB39-0020AF71E433>
 [...]
}

template FloatKeys {
 <10DD46A9-775B-11cf-8F52-0040333594A3>
 DWORD nValues;
 array FLOAT values[nValues];
}

template TimedFloatKeys {
 <F406B180-7B3B-11cf-8F52-0040333594A3>
 DWORD time;
 FloatKeys tfkeys;
}

template AnimationKey {
 <10DD46A8-775B-11cf-8F52-0040333594A3>
 DWORD keyType;
 DWORD nKeys;
 array TimedFloatKeys keys[nKeys];
}

template AnimationOptions {
 <E2BF56C0-840F-11cf-8F52-0040333594A3>
 DWORD openclosed;
 DWORD positionquality;
}

template Animation {
 <3D82AB4F-62DA-11cf-AB39-0020AF71E433>
 [...]
}

template AnimationSet {
 <3D82AB50-62DA-11cf-AB39-0020AF71E433>
 [Animation]
}

template XSkinMeshHeader {
 <3CF169CE-FF7C-44ab-93C0-F78F62D172E2>
 WORD nMaxSkinWeightsPerVertex;
 WORD nMaxSkinWeightsPerFace;
 WORD nBones;
}

template SkinWeights {
 <6F0D123B-BAD2-4167-A0D0-80224F25FABB>
 STRING transformNodeName;
 DWORD nWeights;
 array DWORD vertexIndices[nWeights];
 array FLOAT weights[nWeights];
 Matrix4x4 matrixOffset;
}

template AnimTicksPerSecond {
 <9E415A43-7BA6-4a73-8743-B73D47E88476>
 DWORD AnimTicksPerSecond;
}

AnimTicksPerSecond {
 30;
}

// Start of Frames

   Frame Body {
      FrameTransformMatrix {
       1.000000, 0.000000, 0.000000, 0.000000,
       0.000000, 1.000000, 0.000000, 0.000000,
       0.000000, 0.000000, 1.000000, 0.000000,
       0.000000, 0.000000, 0.000000, 1.000000;;
      }

   }
   Frame def_surf_mat {
      FrameTransformMatrix {
       1.000000, 0.000000, 0.000000, 0.000000,
       0.000000, 1.000000, 0.000000, 0.000000,
       0.000000, 0.000000, 1.000000, 0.000000,
       0.000000, 0.000000, 0.000000, 1.000000;;
      }

   }

   Frame Body0 {
      FrameTransformMatrix {
       1.000000, 0.000000, 0.000000, 0.000000,
       0.000000, 1.000000, 0.000000, 0.000000,
       0.000000, 0.000000, 1.000000, 0.000000,
       0.000000, 0.000000, 0.000000, 1.000000;;
      }

      Mesh skinnedMesh {
       146;
       -0.000050; 3.089401; 0.000046;,
       -0.000050; 2.971901; 0.591141;,
       0.226250; 2.971901; 0.546143;,
       0.417950; 2.971901; 0.418045;,
       0.546150; 2.971901; 0.226242;,
       0.591150; 2.971901; 0.000046;,
       0.546150; 2.971901; -0.226257;,
       0.417950; 2.971901; -0.417953;,
       0.226250; 2.971901; -0.546158;,
       -0.000050; 2.971901; -0.591156;,
       -0.226250; 2.971901; -0.546158;,
       -0.418051; 2.971901; -0.417953;,
       -0.546150; 2.971901; -0.226257;,
       -0.591150; 2.971901; 0.000046;,
       -0.546150; 2.971901; 0.226242;,
       -0.418051; 2.971901; 0.418045;,
       -0.226250; 2.971901; 0.546143;,
       0.417950; 2.637001; 1.009148;,
       -0.000050; 2.637001; 1.092247;,
       0.772350; 2.637001; 0.772346;,
       1.009150; 2.637001; 0.418045;,
       1.092251; 2.637001; 0.000046;,
       1.009150; 2.637001; -0.417953;,
       0.772350; 2.637001; -0.772354;,
       0.417950; 2.637001; -1.009155;,
       -0.000050; 2.637001; -1.092255;,
       -0.418051; 2.637001; -1.009155;,
       -0.772350; 2.637001; -0.772354;,
       -1.009150; 2.637001; -0.417953;,
       -1.092350; 2.637001; 0.000046;,
       -1.009150; 2.637001; 0.418045;,
       -0.772350; 2.637001; 0.772346;,
       -0.418051; 2.637001; 1.009148;,
       0.417950; 2.637001; 1.009148;,
       -0.000050; 2.637001; 1.092247;,
       0.546150; 2.135799; 1.318542;,
       -0.000050; 2.135799; 1.427147;,
       0.772350; 2.637001; 0.772346;,
       1.009150; 2.135799; 1.009148;,
       1.009150; 2.637001; 0.418045;,
       1.318550; 2.135799; 0.546143;,
       1.092251; 2.637001; 0.000046;,
       1.427151; 2.135799; 0.000046;,
       1.009150; 2.637001; -0.417953;,
       1.318550; 2.135799; -0.546158;,
       0.772350; 2.637001; -0.772354;,
       1.009150; 2.135799; -1.009155;,
       0.417950; 2.637001; -1.009155;,
       0.546150; 2.135799; -1.318558;,
       -0.000050; 2.637001; -1.092255;,
       -0.000050; 2.135799; -1.427155;,
       -0.418051; 2.637001; -1.009155;,
       -0.546150; 2.135799; -1.318558;,
       -0.772350; 2.637001; -0.772354;,
       -1.009150; 2.135799; -1.009155;,
       -1.009150; 2.637001; -0.417953;,
       -1.318550; 2.135799; -0.546158;,
       -1.092350; 2.637001; 0.000046;,
       -1.427151; 2.135799; 0.000046;,
       -1.009150; 2.637001; 0.418045;,
       -1.318550; 2.135799; 0.546143;,
       -0.772350; 2.637001; 0.772346;,
       -1.009150; 2.135799; 1.009148;,
       -0.418051; 2.637001; 1.009148;,
       -0.546150; 2.135799; 1.318542;,
       0.591150; 1.544701; 1.427147;,
       -0.000050; 1.544701; 1.544746;,
       1.092251; 1.544701; 1.092247;,
       1.427151; 1.544701; 0.591141;,
       1.544750; 1.544701; 0.000046;,
       1.427151; 1.544701; -0.591156;,
       1.092251; 1.544701; -1.092255;,
       0.591150; 1.544701; -1.427155;,
       -0.000050; 1.544701; -1.544754;,
       -0.591150; 1.544701; -1.427155;,
       -1.092350; 1.544701; -1.092255;,
       -1.427151; 1.544701; -0.591156;,
       -1.544750; 1.544701; 0.000046;,
       -1.427151; 1.544701; 0.591141;,
       -1.092350; 1.544701; 1.092247;,
       -0.591150; 1.544701; 1.427147;,
       0.546150; 0.953602; 1.318542;,
       -0.000050; 0.953602; 1.427147;,
       1.009150; 0.953602; 1.009148;,
       1.318550; 0.953602; 0.546143;,
       1.427151; 0.953602; 0.000046;,
       1.318550; 0.953602; -0.546158;,
       1.009150; 0.953602; -1.009155;,
       0.546150; 0.953602; -1.318558;,
       -0.000050; 0.953602; -1.427155;,
       -0.546150; 0.953602; -1.318558;,
       -1.009150; 0.953602; -1.009155;,
       -1.318550; 0.953602; -0.546158;,
       -1.427151; 0.953602; 0.000046;,
       -1.318550; 0.953602; 0.546143;,
       -1.009150; 0.953602; 1.009148;,
       -0.546150; 0.953602; 1.318542;,
       0.417950; 0.452400; 1.009148;,
       -0.000050; 0.452400; 1.092247;,
       0.772350; 0.452400; 0.772346;,
       1.009150; 0.452400; 0.418045;,
       1.092251; 0.452400; 0.000046;,
       1.009150; 0.452400; -0.417953;,
       0.772350; 0.452400; -0.772354;,
       0.417950; 0.452400; -1.009155;,
       -0.000050; 0.452400; -1.092255;,
       -0.418051; 0.452400; -1.009155;,
       -0.772350; 0.452400; -0.772354;,
       -1.009150; 0.452400; -0.417953;,
       -1.092350; 0.452400; 0.000046;,
       -1.009150; 0.452400; 0.418045;,
       -0.772350; 0.452400; 0.772346;,
       -0.418051; 0.452400; 1.009148;,
       0.417950; 0.452400; 1.009148;,
       -0.000050; 0.452400; 1.092247;,
       0.226250; 0.117599; 0.546143;,
       -0.000050; 0.117599; 0.591141;,
       0.772350; 0.452400; 0.772346;,
       0.417950; 0.117599; 0.418045;,
       1.009150; 0.452400; 0.418045;,
       0.546150; 0.117599; 0.226242;,
       1.092251; 0.452400; 0.000046;,
       0.591150; 0.117599; 0.000046;,
       1.009150; 0.452400; -0.417953;,
       0.546150; 0.117599; -0.226257;,
       0.772350; 0.452400; -0.772354;,
       0.417950; 0.117599; -0.417953;,
       0.417950; 0.452400; -1.009155;,
       0.226250; 0.117599; -0.546158;,
       -0.000050; 0.452400; -1.092255;,
       -0.000050; 0.117599; -0.591156;,
       -0.418051; 0.452400; -1.009155;,
       -0.226250; 0.117599; -0.546158;,
       -0.772350; 0.452400; -0.772354;,
       -0.418051; 0.117599; -0.417953;,
       -1.009150; 0.452400; -0.417953;,
       -0.546150; 0.117599; -0.226257;,
       -1.092350; 0.452400; 0.000046;,
       -0.591150; 0.117599; 0.000046;,
       -1.009150; 0.452400; 0.418045;,
       -0.546150; 0.117599; 0.226242;,
       -0.772350; 0.452400; 0.772346;,
       -0.418051; 0.117599; 0.418045;,
       -0.418051; 0.452400; 1.009148;,
       -0.226250; 0.117599; 0.546143;,
       -0.000050; 0.000000; 0.000046;;
       224;
       3;0, 1, 2;,
       3;0, 2, 3;,
       3;0, 3, 4;,
       3;0, 4, 5;,
       3;0, 5, 6;,
       3;0, 6, 7;,
       3;0, 7, 8;,
       3;0, 8, 9;,
       3;0, 9, 10;,
       3;0, 10, 11;,
       3;0, 11, 12;,
       3;0, 12, 13;,
       3;0, 13, 14;,
       3;0, 14, 15;,
       3;0, 15, 16;,
       3;0, 16, 1;,
       3;2, 1, 17;,
       3;1, 18, 17;,
       3;3, 2, 19;,
       3;2, 17, 19;,
       3;4, 3, 20;,
       3;3, 19, 20;,
       3;5, 4, 21;,
       3;4, 20, 21;,
       3;6, 5, 22;,
       3;5, 21, 22;,
       3;7, 6, 23;,
       3;6, 22, 23;,
       3;8, 7, 24;,
       3;7, 23, 24;,
       3;9, 8, 25;,
       3;8, 24, 25;,
       3;10, 9, 26;,
       3;9, 25, 26;,
       3;11, 10, 27;,
       3;10, 26, 27;,
       3;12, 11, 28;,
       3;11, 27, 28;,
       3;13, 12, 29;,
       3;12, 28, 29;,
       3;14, 13, 30;,
       3;13, 29, 30;,
       3;15, 14, 31;,
       3;14, 30, 31;,
       3;16, 15, 32;,
       3;15, 31, 32;,
       3;1, 16, 18;,
       3;16, 32, 18;,
       3;33, 34, 35;,
       3;34, 36, 35;,
       3;37, 33, 38;,
       3;33, 35, 38;,
       3;39, 37, 40;,
       3;37, 38, 40;,
       3;41, 39, 42;,
       3;39, 40, 42;,
       3;43, 41, 44;,
       3;41, 42, 44;,
       3;45, 43, 46;,
       3;43, 44, 46;,
       3;47, 45, 48;,
       3;45, 46, 48;,
       3;49, 47, 50;,
       3;47, 48, 50;,
       3;51, 49, 52;,
       3;49, 50, 52;,
       3;53, 51, 54;,
       3;51, 52, 54;,
       3;55, 53, 56;,
       3;53, 54, 56;,
       3;57, 55, 58;,
       3;55, 56, 58;,
       3;59, 57, 60;,
       3;57, 58, 60;,
       3;61, 59, 62;,
       3;59, 60, 62;,
       3;63, 61, 64;,
       3;61, 62, 64;,
       3;34, 63, 36;,
       3;63, 64, 36;,
       3;35, 36, 65;,
       3;36, 66, 65;,
       3;38, 35, 67;,
       3;35, 65, 67;,
       3;40, 38, 68;,
       3;38, 67, 68;,
       3;42, 40, 69;,
       3;40, 68, 69;,
       3;44, 42, 70;,
       3;42, 69, 70;,
       3;46, 44, 71;,
       3;44, 70, 71;,
       3;48, 46, 72;,
       3;46, 71, 72;,
       3;50, 48, 73;,
       3;48, 72, 73;,
       3;52, 50, 74;,
       3;50, 73, 74;,
       3;54, 52, 75;,
       3;52, 74, 75;,
       3;56, 54, 76;,
       3;54, 75, 76;,
       3;58, 56, 77;,
       3;56, 76, 77;,
       3;60, 58, 78;,
       3;58, 77, 78;,
       3;62, 60, 79;,
       3;60, 78, 79;,
       3;64, 62, 80;,
       3;62, 79, 80;,
       3;36, 64, 66;,
       3;64, 80, 66;,
       3;65, 66, 81;,
       3;66, 82, 81;,
       3;67, 65, 83;,
       3;65, 81, 83;,
       3;68, 67, 84;,
       3;67, 83, 84;,
       3;69, 68, 85;,
       3;68, 84, 85;,
       3;70, 69, 86;,
       3;69, 85, 86;,
       3;71, 70, 87;,
       3;70, 86, 87;,
       3;72, 71, 88;,
       3;71, 87, 88;,
       3;73, 72, 89;,
       3;72, 88, 89;,
       3;74, 73, 90;,
       3;73, 89, 90;,
       3;75, 74, 91;,
       3;74, 90, 91;,
       3;76, 75, 92;,
       3;75, 91, 92;,
       3;77, 76, 93;,
       3;76, 92, 93;,
       3;78, 77, 94;,
       3;77, 93, 94;,
       3;79, 78, 95;,
       3;78, 94, 95;,
       3;80, 79, 96;,
       3;79, 95, 96;,
       3;66, 80, 82;,
       3;80, 96, 82;,
       3;81, 82, 97;,
       3;82, 98, 97;,
       3;83, 81, 99;,
       3;81, 97, 99;,
       3;84, 83, 100;,
       3;83, 99, 100;,
       3;85, 84, 101;,
       3;84, 100, 101;,
       3;86, 85, 102;,
       3;85, 101, 102;,
       3;87, 86, 103;,
       3;86, 102, 103;,
       3;88, 87, 104;,
       3;87, 103, 104;,
       3;89, 88, 105;,
       3;88, 104, 105;,
       3;90, 89, 106;,
       3;89, 105, 106;,
       3;91, 90, 107;,
       3;90, 106, 107;,
       3;92, 91, 108;,
       3;91, 107, 108;,
       3;93, 92, 109;,
       3;92, 108, 109;,
       3;94, 93, 110;,
       3;93, 109, 110;,
       3;95, 94, 111;,
       3;94, 110, 111;,
       3;96, 95, 112;,
       3;95, 111, 112;,
       3;82, 96, 98;,
       3;96, 112, 98;,
       3;113, 114, 115;,
       3;114, 116, 115;,
       3;117, 113, 118;,
       3;113, 115, 118;,
       3;119, 117, 120;,
       3;117, 118, 120;,
       3;121, 119, 122;,
       3;119, 120, 122;,
       3;123, 121, 124;,
       3;121, 122, 124;,
       3;125, 123, 126;,
       3;123, 124, 126;,
       3;127, 125, 128;,
       3;125, 126, 128;,
       3;129, 127, 130;,
       3;127, 128, 130;,
       3;131, 129, 132;,
       3;129, 130, 132;,
       3;133, 131, 134;,
       3;131, 132, 134;,
       3;135, 133, 136;,
       3;133, 134, 136;,
       3;137, 135, 138;,
       3;135, 136, 138;,
       3;139, 137, 140;,
       3;137, 138, 140;,
       3;141, 139, 142;,
       3;139, 140, 142;,
       3;143, 141, 144;,
       3;141, 142, 144;,
       3;114, 143, 116;,
       3;143, 144, 116;,
       3;116, 145, 115;,
       3;115, 145, 118;,
       3;118, 145, 120;,
       3;120, 145, 122;,
       3;122, 145, 124;,
       3;124, 145, 126;,
       3;126, 145, 128;,
       3;128, 145, 130;,
       3;130, 145, 132;,
       3;132, 145, 134;,
       3;134, 145, 136;,
       3;136, 145, 138;,
       3;138, 145, 140;,
       3;140, 145, 142;,
       3;142, 145, 144;,
       3;144, 145, 116;;

      MeshNormals {
       146;
       -0.000008; 1.000000; 0.000009;,
       0.022442; 0.907918; 0.418547;,
       0.180919; 0.907922; 0.378083;,
       0.311810; 0.907924; 0.280085;,
       0.395257; 0.907928; 0.139419;,
       0.418537; 0.907922; -0.022441;,
       0.378027; 0.907937; -0.180956;,
       0.280057; 0.907925; -0.311833;,
       0.139447; 0.907926; -0.395252;,
       -0.022468; 0.907924; -0.418531;,
       -0.180954; 0.907933; -0.378038;,
       -0.311855; 0.907920; -0.280049;,
       -0.395258; 0.907928; -0.139419;,
       -0.418508; 0.907935; 0.022495;,
       -0.378095; 0.907917; 0.180918;,
       -0.280081; 0.907919; 0.311829;,
       -0.139367; 0.907923; 0.395288;,
       0.178447; 0.830859; 0.527096;,
       -0.036819; 0.830856; 0.555268;,
       0.366584; 0.830858; 0.418679;,
       0.498869; 0.830877; 0.246521;,
       0.555272; 0.830854; 0.036821;,
       0.527100; 0.830856; -0.178449;,
       0.418587; 0.830884; -0.366629;,
       0.246550; 0.830868; -0.498871;,
       0.036804; 0.830849; -0.555279;,
       -0.178477; 0.830870; -0.527069;,
       -0.366638; 0.830864; -0.418619;,
       -0.498900; 0.830854; -0.246536;,
       -0.555215; 0.830892; -0.036803;,
       -0.527037; 0.830882; 0.178516;,
       -0.418714; 0.830838; 0.366589;,
       -0.246469; 0.830866; 0.498913;,
       0.368545; 0.554734; 0.745952;,
       0.055026; 0.554730; 0.830209;,
       0.357985; 0.383141; 0.851498;,
       0.004893; 0.383159; 0.923670;,
       0.625950; 0.554706; 0.548167;,
       0.656588; 0.383122; 0.649700;,
       0.788086; 0.554718; 0.266849;,
       0.855228; 0.383139; 0.348983;,
       0.830207; 0.554733; -0.055023;,
       0.923670; 0.383159; -0.004891;,
       0.745948; 0.554739; -0.368546;,
       0.851497; 0.383143; -0.357987;,
       0.548133; 0.554734; -0.625956;,
       0.649700; 0.383122; -0.656588;,
       0.266794; 0.554748; -0.788083;,
       0.348948; 0.383157; -0.855234;,
       -0.055032; 0.554725; -0.830212;,
       -0.004920; 0.383162; -0.923668;,
       -0.368587; 0.554716; -0.745945;,
       -0.357982; 0.383138; -0.851501;,
       -0.625982; 0.554733; -0.548104;,
       -0.656609; 0.383147; -0.649664;,
       -0.788094; 0.554700; -0.266863;,
       -0.855234; 0.383158; -0.348948;,
       -0.830255; 0.554660; 0.055035;,
       -0.923686; 0.383119; 0.004888;,
       -0.745921; 0.554712; 0.368642;,
       -0.851498; 0.383124; 0.358004;,
       -0.548143; 0.554703; 0.625974;,
       -0.649668; 0.383147; 0.656604;,
       -0.266852; 0.554715; 0.788087;,
       -0.348984; 0.383139; 0.855227;,
       0.382712; 0.000020; 0.923868;,
       -0.000017; 0.000000; 1.000000;,
       0.707107; 0.000001; 0.707106;,
       0.923862; -0.000019; 0.382726;,
       1.000000; 0.000000; 0.000018;,
       0.923867; 0.000020; -0.382713;,
       0.707107; 0.000001; -0.707107;,
       0.382712; -0.000019; -0.923868;,
       -0.000017; -0.000000; -1.000000;,
       -0.382699; 0.000005; -0.923873;,
       -0.707117; -0.000001; -0.707097;,
       -0.923885; 0.000002; -0.382670;,
       -1.000000; -0.000000; 0.000018;,
       -0.923880; -0.000002; 0.382683;,
       -0.707118; -0.000000; 0.707096;,
       -0.382699; -0.000005; 0.923873;,
       0.348948; -0.383157; 0.855234;,
       -0.004920; -0.383162; 0.923668;,
       0.649690; -0.383112; 0.656604;,
       0.851501; -0.383124; 0.357998;,
       0.923668; -0.383163; 0.004921;,
       0.855234; -0.383158; -0.348948;,
       0.656588; -0.383123; -0.649699;,
       0.357985; -0.383142; -0.851498;,
       0.004893; -0.383158; -0.923670;,
       -0.348984; -0.383140; -0.855228;,
       -0.649678; -0.383158; -0.656588;,
       -0.851494; -0.383143; -0.357993;,
       -0.923688; -0.383115; -0.004859;,
       -0.855228; -0.383139; 0.348983;,
       -0.656609; -0.383146; 0.649664;,
       -0.357982; -0.383137; 0.851502;,
       0.266799; -0.554743; 0.788086;,
       -0.055037; -0.554722; 0.830214;,
       0.548105; -0.554730; 0.625983;,
       0.745948; -0.554714; 0.368585;,
       0.830212; -0.554724; 0.055035;,
       0.788083; -0.554748; -0.266796;,
       0.625957; -0.554734; -0.548131;,
       0.368547; -0.554740; -0.745947;,
       0.055022; -0.554733; -0.830207;,
       -0.266847; -0.554721; -0.788085;,
       -0.548171; -0.554706; -0.625947;,
       -0.745921; -0.554737; -0.368604;,
       -0.830250; -0.554669; -0.055023;,
       -0.788097; -0.554670; 0.266917;,
       -0.625975; -0.554705; 0.548141;,
       -0.368585; -0.554710; 0.745950;,
       0.246443; -0.830934; 0.498813;,
       0.036796; -0.830929; 0.555160;,
       0.139392; -0.907929; 0.395266;,
       -0.022462; -0.907928; 0.418524;,
       0.418536; -0.830941; 0.366558;,
       0.280042; -0.907929; 0.311837;,
       0.526959; -0.830947; 0.178442;,
       0.378027; -0.907941; 0.180941;,
       0.555164; -0.830926; -0.036797;,
       0.418514; -0.907933; 0.022463;,
       0.498769; -0.830944; -0.246498;,
       0.395235; -0.907934; -0.139445;,
       0.366556; -0.830960; -0.418500;,
       0.311820; -0.907933; -0.280046;,
       0.178412; -0.830931; -0.526994;,
       0.180946; -0.907945; -0.378014;,
       -0.036811; -0.830928; -0.555160;,
       0.022437; -0.907930; -0.418522;,
       -0.246475; -0.830952; -0.498767;,
       -0.139419; -0.907936; -0.395240;,
       -0.418594; -0.830933; -0.366511;,
       -0.280080; -0.907931; -0.311795;,
       -0.526963; -0.830942; -0.178450;,
       -0.378070; -0.907929; -0.180911;,
       -0.555096; -0.830971; 0.036812;,
       -0.418499; -0.907940; -0.022462;,
       -0.498796; -0.830940; 0.246459;,
       -0.395246; -0.907938; 0.139390;,
       -0.366516; -0.830914; 0.418626;,
       -0.311815; -0.907927; 0.280072;,
       -0.178439; -0.830949; 0.526956;,
       -0.180905; -0.907925; 0.378081;,
       -0.000008; -1.000000; 0.000009;;
       224;
       3;0, 1, 2;,
       3;0, 2, 3;,
       3;0, 3, 4;,
       3;0, 4, 5;,
       3;0, 5, 6;,
       3;0, 6, 7;,
       3;0, 7, 8;,
       3;0, 8, 9;,
       3;0, 9, 10;,
       3;0, 10, 11;,
       3;0, 11, 12;,
       3;0, 12, 13;,
       3;0, 13, 14;,
       3;0, 14, 15;,
       3;0, 15, 16;,
       3;0, 16, 1;,
       3;2, 1, 17;,
       3;1, 18, 17;,
       3;3, 2, 19;,
       3;2, 17, 19;,
       3;4, 3, 20;,
       3;3, 19, 20;,
       3;5, 4, 21;,
       3;4, 20, 21;,
       3;6, 5, 22;,
       3;5, 21, 22;,
       3;7, 6, 23;,
       3;6, 22, 23;,
       3;8, 7, 24;,
       3;7, 23, 24;,
       3;9, 8, 25;,
       3;8, 24, 25;,
       3;10, 9, 26;,
       3;9, 25, 26;,
       3;11, 10, 27;,
       3;10, 26, 27;,
       3;12, 11, 28;,
       3;11, 27, 28;,
       3;13, 12, 29;,
       3;12, 28, 29;,
       3;14, 13, 30;,
       3;13, 29, 30;,
       3;15, 14, 31;,
       3;14, 30, 31;,
       3;16, 15, 32;,
       3;15, 31, 32;,
       3;1, 16, 18;,
       3;16, 32, 18;,
       3;33, 34, 35;,
       3;34, 36, 35;,
       3;37, 33, 38;,
       3;33, 35, 38;,
       3;39, 37, 40;,
       3;37, 38, 40;,
       3;41, 39, 42;,
       3;39, 40, 42;,
       3;43, 41, 44;,
       3;41, 42, 44;,
       3;45, 43, 46;,
       3;43, 44, 46;,
       3;47, 45, 48;,
       3;45, 46, 48;,
       3;49, 47, 50;,
       3;47, 48, 50;,
       3;51, 49, 52;,
       3;49, 50, 52;,
       3;53, 51, 54;,
       3;51, 52, 54;,
       3;55, 53, 56;,
       3;53, 54, 56;,
       3;57, 55, 58;,
       3;55, 56, 58;,
       3;59, 57, 60;,
       3;57, 58, 60;,
       3;61, 59, 62;,
       3;59, 60, 62;,
       3;63, 61, 64;,
       3;61, 62, 64;,
       3;34, 63, 36;,
       3;63, 64, 36;,
       3;35, 36, 65;,
       3;36, 66, 65;,
       3;38, 35, 67;,
       3;35, 65, 67;,
       3;40, 38, 68;,
       3;38, 67, 68;,
       3;42, 40, 69;,
       3;40, 68, 69;,
       3;44, 42, 70;,
       3;42, 69, 70;,
       3;46, 44, 71;,
       3;44, 70, 71;,
       3;48, 46, 72;,
       3;46, 71, 72;,
       3;50, 48, 73;,
       3;48, 72, 73;,
       3;52, 50, 74;,
       3;50, 73, 74;,
       3;54, 52, 75;,
       3;52, 74, 75;,
       3;56, 54, 76;,
       3;54, 75, 76;,
       3;58, 56, 77;,
       3;56, 76, 77;,
       3;60, 58, 78;,
       3;58, 77, 78;,
       3;62, 60, 79;,
       3;60, 78, 79;,
       3;64, 62, 80;,
       3;62, 79, 80;,
       3;36, 64, 66;,
       3;64, 80, 66;,
       3;65, 66, 81;,
       3;66, 82, 81;,
       3;67, 65, 83;,
       3;65, 81, 83;,
       3;68, 67, 84;,
       3;67, 83, 84;,
       3;69, 68, 85;,
       3;68, 84, 85;,
       3;70, 69, 86;,
       3;69, 85, 86;,
       3;71, 70, 87;,
       3;70, 86, 87;,
       3;72, 71, 88;,
       3;71, 87, 88;,
       3;73, 72, 89;,
       3;72, 88, 89;,
       3;74, 73, 90;,
       3;73, 89, 90;,
       3;75, 74, 91;,
       3;74, 90, 91;,
       3;76, 75, 92;,
       3;75, 91, 92;,
       3;77, 76, 93;,
       3;76, 92, 93;,
       3;78, 77, 94;,
       3;77, 93, 94;,
       3;79, 78, 95;,
       3;78, 94, 95;,
       3;80, 79, 96;,
       3;79, 95, 96;,
       3;66, 80, 82;,
       3;80, 96, 82;,
       3;81, 82, 97;,
       3;82, 98, 97;,
       3;83, 81, 99;,
       3;81, 97, 99;,
       3;84, 83, 100;,
       3;83, 99, 100;,
       3;85, 84, 101;,
       3;84, 100, 101;,
       3;86, 85, 102;,
       3;85, 101, 102;,
       3;87, 86, 103;,
       3;86, 102, 103;,
       3;88, 87, 104;,
       3;87, 103, 104;,
       3;89, 88, 105;,
       3;88, 104, 105;,
       3;90, 89, 106;,
       3;89, 105, 106;,
       3;91, 90, 107;,
       3;90, 106, 107;,
       3;92, 91, 108;,
       3;91, 107, 108;,
       3;93, 92, 109;,
       3;92, 108, 109;,
       3;94, 93, 110;,
       3;93, 109, 110;,
       3;95, 94, 111;,
       3;94, 110, 111;,
       3;96, 95, 112;,
       3;95, 111, 112;,
       3;82, 96, 98;,
       3;96, 112, 98;,
       3;113, 114, 115;,
       3;114, 116, 115;,
       3;117, 113, 118;,
       3;113, 115, 118;,
       3;119, 117, 120;,
       3;117, 118, 120;,
       3;121, 119, 122;,
       3;119, 120, 122;,
       3;123, 121, 124;,
       3;121, 122, 124;,
       3;125, 123, 126;,
       3;123, 124, 126;,
       3;127, 125, 128;,
       3;125, 126, 128;,
       3;129, 127, 130;,
       3;127, 128, 130;,
       3;131, 129, 132;,
       3;129, 130, 132;,
       3;133, 131, 134;,
       3;131, 132, 134;,
       3;135, 133, 136;,
       3;133, 134, 136;,
       3;137, 135, 138;,
       3;135, 136, 138;,
       3;139, 137, 140;,
       3;137, 138, 140;,
       3;141, 139, 142;,
       3;139, 140, 142;,
       3;143, 141, 144;,
       3;141, 142, 144;,
       3;114, 143, 116;,
       3;143, 144, 116;,
       3;116, 145, 115;,
       3;115, 145, 118;,
       3;118, 145, 120;,
       3;120, 145, 122;,
       3;122, 145, 124;,
       3;124, 145, 126;,
       3;126, 145, 128;,
       3;128, 145, 130;,
       3;130, 145, 132;,
       3;132, 145, 134;,
       3;134, 145, 136;,
       3;136, 145, 138;,
       3;138, 145, 140;,
       3;140, 145, 142;,
       3;142, 145, 144;,
       3;144, 145, 116;;
      }

      MeshTextureCoords {
       146;
       0.510407; 0.455984;,
       0.469946; 0.355683;,
       0.435076; 0.378723;,
       0.411834; 0.413419;,
       0.403683; 0.454312;,
       0.411757; 0.495069;,
       0.434703; 0.529563;,
       0.468957; 0.552605;,
       0.509314; 0.560862;,
       0.549737; 0.553098;,
       0.584129; 0.530527;,
       0.607345; 0.496507;,
       0.615863; 0.456158;,
       0.608332; 0.415469;,
       0.585805; 0.380634;,
       0.551602; 0.356955;,
       0.510878; 0.348160;,
       0.349100; 0.295304;,
       0.422760; 0.244384;,
       0.301181; 0.369913;,
       0.285548; 0.456460;,
       0.303950; 0.541888;,
       0.353171; 0.613555;,
       0.425644; 0.660999;,
       0.510477; 0.677368;,
       0.595064; 0.660366;,
       0.666899; 0.612576;,
       0.715295; 0.541023;,
       0.732994; 0.456229;,
       0.717137; 0.370742;,
       0.669728; 0.297328;,
       0.597475; 0.247183;,
       0.510853; 0.228304;,
       0.651721; 0.239581;,
       0.540778; 0.239581;,
       0.685747; 0.370985;,
       0.540778; 0.370985;,
       0.745784; 0.239581;,
       0.808634; 0.370985;,
       0.652888; 0.239581;,
       0.735007; 0.370985;,
       0.726860; 0.239581;,
       0.815747; 0.370985;,
       0.808634; 0.239581;,
       0.890754; 0.370985;,
       0.745784; 0.239581;,
       0.808634; 0.370985;,
       0.651721; 0.239581;,
       0.685747; 0.370985;,
       0.540778; 0.239581;,
       0.540778; 0.370985;,
       0.429834; 0.239581;,
       0.395835; 0.370985;,
       0.335798; 0.239581;,
       0.272948; 0.370985;,
       0.449092; 0.239581;,
       0.366973; 0.370985;,
       0.375093; 0.239581;,
       0.286232; 0.370985;,
       0.272948; 0.239581;,
       0.190828; 0.370985;,
       0.335798; 0.239581;,
       0.272948; 0.370985;,
       0.429834; 0.239581;,
       0.395835; 0.370985;,
       0.697691; 0.525958;,
       0.540778; 0.525958;,
       0.830691; 0.525958;,
       0.763832; 0.525958;,
       0.846960; 0.525958;,
       0.919578; 0.525958;,
       0.830691; 0.525958;,
       0.697691; 0.525958;,
       0.540778; 0.525958;,
       0.383891; 0.525958;,
       0.250865; 0.525958;,
       0.338148; 0.525958;,
       0.255019; 0.525958;,
       0.162004; 0.525958;,
       0.250865; 0.525958;,
       0.383891; 0.525958;,
       0.685747; 0.680931;,
       0.540778; 0.680931;,
       0.808634; 0.680931;,
       0.735007; 0.680931;,
       0.815747; 0.680931;,
       0.890754; 0.680931;,
       0.808634; 0.680931;,
       0.685747; 0.680931;,
       0.540778; 0.680931;,
       0.395835; 0.680931;,
       0.272948; 0.680931;,
       0.366973; 0.680931;,
       0.286232; 0.680931;,
       0.190828; 0.680931;,
       0.272948; 0.680931;,
       0.395835; 0.680931;,
       0.651721; 0.812335;,
       0.540778; 0.812335;,
       0.745784; 0.812335;,
       0.652888; 0.812335;,
       0.726860; 0.812335;,
       0.808634; 0.812335;,
       0.745784; 0.812335;,
       0.651721; 0.812335;,
       0.540778; 0.812335;,
       0.429834; 0.812335;,
       0.335798; 0.812335;,
       0.449092; 0.812335;,
       0.375093; 0.812335;,
       0.272948; 0.812335;,
       0.335798; 0.812335;,
       0.429834; 0.812335;,
       0.805079; 0.638243;,
       0.825012; 0.541601;,
       0.682272; 0.588109;,
       0.691819; 0.542628;,
       0.749977; 0.719587;,
       0.656025; 0.626481;,
       0.668302; 0.773670;,
       0.617083; 0.651955;,
       0.572321; 0.792605;,
       0.571376; 0.660644;,
       0.476341; 0.773670;,
       0.525780; 0.651242;,
       0.394647; 0.719587;,
       0.487242; 0.625139;,
       0.339545; 0.638243;,
       0.461577; 0.586298;,
       0.319612; 0.541601;,
       0.452802; 0.540575;,
       0.339545; 0.444958;,
       0.462349; 0.495115;,
       0.394645; 0.363636;,
       0.488617; 0.456721;,
       0.476340; 0.309551;,
       0.527537; 0.431267;,
       0.572321; 0.290598;,
       0.573266; 0.422578;,
       0.668303; 0.309551;,
       0.618841; 0.431980;,
       0.749978; 0.363635;,
       0.657400; 0.458063;,
       0.805079; 0.444958;,
       0.683044; 0.496924;,
       0.572321; 0.541601;;
      }

      MeshVertexColors {
       146;
       0; 1.000000; 1.000000; 1.000000; 1.000000;,
       1; 1.000000; 1.000000; 1.000000; 1.000000;,
       2; 1.000000; 1.000000; 1.000000; 1.000000;,
       3; 1.000000; 1.000000; 1.000000; 1.000000;,
       4; 1.000000; 1.000000; 1.000000; 1.000000;,
       5; 1.000000; 1.000000; 1.000000; 1.000000;,
       6; 1.000000; 1.000000; 1.000000; 1.000000;,
       7; 1.000000; 1.000000; 1.000000; 1.000000;,
       8; 1.000000; 1.000000; 1.000000; 1.000000;,
       9; 1.000000; 1.000000; 1.000000; 1.000000;,
       10; 1.000000; 1.000000; 1.000000; 1.000000;,
       11; 1.000000; 1.000000; 1.000000; 1.000000;,
       12; 1.000000; 1.000000; 1.000000; 1.000000;,
       13; 1.000000; 1.000000; 1.000000; 1.000000;,
       14; 1.000000; 1.000000; 1.000000; 1.000000;,
       15; 1.000000; 1.000000; 1.000000; 1.000000;,
       16; 1.000000; 1.000000; 1.000000; 1.000000;,
       17; 1.000000; 1.000000; 1.000000; 1.000000;,
       18; 1.000000; 1.000000; 1.000000; 1.000000;,
       19; 1.000000; 1.000000; 1.000000; 1.000000;,
       20; 1.000000; 1.000000; 1.000000; 1.000000;,
       21; 1.000000; 1.000000; 1.000000; 1.000000;,
       22; 1.000000; 1.000000; 1.000000; 1.000000;,
       23; 1.000000; 1.000000; 1.000000; 1.000000;,
       24; 1.000000; 1.000000; 1.000000; 1.000000;,
       25; 1.000000; 1.000000; 1.000000; 1.000000;,
       26; 1.000000; 1.000000; 1.000000; 1.000000;,
       27; 1.000000; 1.000000; 1.000000; 1.000000;,
       28; 1.000000; 1.000000; 1.000000; 1.000000;,
       29; 1.000000; 1.000000; 1.000000; 1.000000;,
       30; 1.000000; 1.000000; 1.000000; 1.000000;,
       31; 1.000000; 1.000000; 1.000000; 1.000000;,
       32; 1.000000; 1.000000; 1.000000; 1.000000;,
       33; 1.000000; 1.000000; 1.000000; 1.000000;,
       34; 1.000000; 1.000000; 1.000000; 1.000000;,
       35; 1.000000; 1.000000; 1.000000; 1.000000;,
       36; 1.000000; 1.000000; 1.000000; 1.000000;,
       37; 1.000000; 1.000000; 1.000000; 1.000000;,
       38; 1.000000; 1.000000; 1.000000; 1.000000;,
       39; 1.000000; 1.000000; 1.000000; 1.000000;,
       40; 1.000000; 1.000000; 1.000000; 1.000000;,
       41; 1.000000; 1.000000; 1.000000; 1.000000;,
       42; 1.000000; 1.000000; 1.000000; 1.000000;,
       43; 1.000000; 1.000000; 1.000000; 1.000000;,
       44; 1.000000; 1.000000; 1.000000; 1.000000;,
       45; 1.000000; 1.000000; 1.000000; 1.000000;,
       46; 1.000000; 1.000000; 1.000000; 1.000000;,
       47; 1.000000; 1.000000; 1.000000; 1.000000;,
       48; 1.000000; 1.000000; 1.000000; 1.000000;,
       49; 1.000000; 1.000000; 1.000000; 1.000000;,
       50; 1.000000; 1.000000; 1.000000; 1.000000;,
       51; 1.000000; 1.000000; 1.000000; 1.000000;,
       52; 1.000000; 1.000000; 1.000000; 1.000000;,
       53; 1.000000; 1.000000; 1.000000; 1.000000;,
       54; 1.000000; 1.000000; 1.000000; 1.000000;,
       55; 1.000000; 1.000000; 1.000000; 1.000000;,
       56; 1.000000; 1.000000; 1.000000; 1.000000;,
       57; 1.000000; 1.000000; 1.000000; 1.000000;,
       58; 1.000000; 1.000000; 1.000000; 1.000000;,
       59; 1.000000; 1.000000; 1.000000; 1.000000;,
       60; 1.000000; 1.000000; 1.000000; 1.000000;,
       61; 1.000000; 1.000000; 1.000000; 1.000000;,
       62; 1.000000; 1.000000; 1.000000; 1.000000;,
       63; 1.000000; 1.000000; 1.000000; 1.000000;,
       64; 1.000000; 1.000000; 1.000000; 1.000000;,
       65; 1.000000; 1.000000; 1.000000; 1.000000;,
       66; 1.000000; 1.000000; 1.000000; 1.000000;,
       67; 1.000000; 1.000000; 1.000000; 1.000000;,
       68; 1.000000; 1.000000; 1.000000; 1.000000;,
       69; 1.000000; 1.000000; 1.000000; 1.000000;,
       70; 1.000000; 1.000000; 1.000000; 1.000000;,
       71; 1.000000; 1.000000; 1.000000; 1.000000;,
       72; 1.000000; 1.000000; 1.000000; 1.000000;,
       73; 1.000000; 1.000000; 1.000000; 1.000000;,
       74; 1.000000; 1.000000; 1.000000; 1.000000;,
       75; 1.000000; 1.000000; 1.000000; 1.000000;,
       76; 1.000000; 1.000000; 1.000000; 1.000000;,
       77; 1.000000; 1.000000; 1.000000; 1.000000;,
       78; 1.000000; 1.000000; 1.000000; 1.000000;,
       79; 1.000000; 1.000000; 1.000000; 1.000000;,
       80; 1.000000; 1.000000; 1.000000; 1.000000;,
       81; 1.000000; 1.000000; 1.000000; 1.000000;,
       82; 1.000000; 1.000000; 1.000000; 1.000000;,
       83; 1.000000; 1.000000; 1.000000; 1.000000;,
       84; 1.000000; 1.000000; 1.000000; 1.000000;,
       85; 1.000000; 1.000000; 1.000000; 1.000000;,
       86; 1.000000; 1.000000; 1.000000; 1.000000;,
       87; 1.000000; 1.000000; 1.000000; 1.000000;,
       88; 1.000000; 1.000000; 1.000000; 1.000000;,
       89; 1.000000; 1.000000; 1.000000; 1.000000;,
       90; 1.000000; 1.000000; 1.000000; 1.000000;,
       91; 1.000000; 1.000000; 1.000000; 1.000000;,
       92; 1.000000; 1.000000; 1.000000; 1.000000;,
       93; 1.000000; 1.000000; 1.000000; 1.000000;,
       94; 1.000000; 1.000000; 1.000000; 1.000000;,
       95; 1.000000; 1.000000; 1.000000; 1.000000;,
       96; 1.000000; 1.000000; 1.000000; 1.000000;,
       97; 1.000000; 1.000000; 1.000000; 1.000000;,
       98; 1.000000; 1.000000; 1.000000; 1.000000;,
       99; 1.000000; 1.000000; 1.000000; 1.000000;,
       100; 1.000000; 1.000000; 1.000000; 1.000000;,
       101; 1.000000; 1.000000; 1.000000; 1.000000;,
       102; 1.000000; 1.000000; 1.000000; 1.000000;,
       103; 1.000000; 1.000000; 1.000000; 1.000000;,
       104; 1.000000; 1.000000; 1.000000; 1.000000;,
       105; 1.000000; 1.000000; 1.000000; 1.000000;,
       106; 1.000000; 1.000000; 1.000000; 1.000000;,
       107; 1.000000; 1.000000; 1.000000; 1.000000;,
       108; 1.000000; 1.000000; 1.000000; 1.000000;,
       109; 1.000000; 1.000000; 1.000000; 1.000000;,
       110; 1.000000; 1.000000; 1.000000; 1.000000;,
       111; 1.000000; 1.000000; 1.000000; 1.000000;,
       112; 1.000000; 1.000000; 1.000000; 1.000000;,
       113; 1.000000; 1.000000; 1.000000; 1.000000;,
       114; 1.000000; 1.000000; 1.000000; 1.000000;,
       115; 1.000000; 1.000000; 1.000000; 1.000000;,
       116; 1.000000; 1.000000; 1.000000; 1.000000;,
       117; 1.000000; 1.000000; 1.000000; 1.000000;,
       118; 1.000000; 1.000000; 1.000000; 1.000000;,
       119; 1.000000; 1.000000; 1.000000; 1.000000;,
       120; 1.000000; 1.000000; 1.000000; 1.000000;,
       121; 1.000000; 1.000000; 1.000000; 1.000000;,
       122; 1.000000; 1.000000; 1.000000; 1.000000;,
       123; 1.000000; 1.000000; 1.000000; 1.000000;,
       124; 1.000000; 1.000000; 1.000000; 1.000000;,
       125; 1.000000; 1.000000; 1.000000; 1.000000;,
       126; 1.000000; 1.000000; 1.000000; 1.000000;,
       127; 1.000000; 1.000000; 1.000000; 1.000000;,
       128; 1.000000; 1.000000; 1.000000; 1.000000;,
       129; 1.000000; 1.000000; 1.000000; 1.000000;,
       130; 1.000000; 1.000000; 1.000000; 1.000000;,
       131; 1.000000; 1.000000; 1.000000; 1.000000;,
       132; 1.000000; 1.000000; 1.000000; 1.000000;,
       133; 1.000000; 1.000000; 1.000000; 1.000000;,
       134; 1.000000; 1.000000; 1.000000; 1.000000;,
       135; 1.000000; 1.000000; 1.000000; 1.000000;,
       136; 1.000000; 1.000000; 1.000000; 1.000000;,
       137; 1.000000; 1.000000; 1.000000; 1.000000;,
       138; 1.000000; 1.000000; 1.000000; 1.000000;,
       139; 1.000000; 1.000000; 1.000000; 1.000000;,
       140; 1.000000; 1.000000; 1.000000; 1.000000;,
       141; 1.000000; 1.000000; 1.000000; 1.000000;,
       142; 1.000000; 1.000000; 1.000000; 1.000000;,
       143; 1.000000; 1.000000; 1.000000; 1.000000;,
       144; 1.000000; 1.000000; 1.000000; 1.000000;,
       145; 1.000000; 1.000000; 1.000000; 1.000000;;
      }

      MeshMaterialList {
       1;
       224;
       0,
       0,
       0,
       0,
       0,
       0,
       0,
       0,
       0,
       0,
       0,
       0,
       0,
       0,
       0,
       0,
       0,
       0,
       0,
       0,
       0,
       0,
       0,
       0,
       0,
       0,
       0,
       0,
       0,
       0,
       0,
       0,
       0,
       0,
       0,
       0,
       0,
       0,
       0,
       0,
       0,
       0,
       0,
       0,
       0,
       0,
       0,
       0,
       0,
       0,
       0,
       0,
       0,
       0,
       0,
       0,
       0,
       0,
       0,
       0,
       0,
       0,
       0,
       0,
       0,
       0,
       0,
       0,
       0,
       0,
       0,
       0,
       0,
       0,
       0,
       0,
       0,
       0,
       0,
       0,
       0,
       0,
       0,
       0,
       0,
       0,
       0,
       0,
       0,
       0,
       0,
       0,
       0,
       0,
       0,
       0,
       0,
       0,
       0,
       0,
       0,
       0,
       0,
       0,
       0,
       0,
       0,
       0,
       0,
       0,
       0,
       0,
       0,
       0,
       0,
       0,
       0,
       0,
       0,
       0,
       0,
       0,
       0,
       0,
       0,
       0,
       0,
       0,
       0,
       0,
       0,
       0,
       0,
       0,
       0,
       0,
       0,
       0,
       0,
       0,
       0,
       0,
       0,
       0,
       0,
       0,
       0,
       0,
       0,
       0,
       0,
       0,
       0,
       0,
       0,
       0,
       0,
       0,
       0,
       0,
       0,
       0,
       0,
       0,
       0,
       0,
       0,
       0,
       0,
       0,
       0,
       0,
       0,
       0,
       0,
       0,
       0,
       0,
       0,
       0,
       0,
       0,
       0,
       0,
       0,
       0,
       0,
       0,
       0,
       0,
       0,
       0,
       0,
       0,
       0,
       0,
       0,
       0,
       0,
       0,
       0,
       0,
       0,
       0,
       0,
       0,
       0,
       0,
       0,
       0,
       0,
       0,
       0,
       0,
       0,
       0,
       0,
       0,
       0,
       0,
       0,
       0,
       0,
       0;

       Material def_surf_mat {
        0.992157; 0.992157; 0.992157; 1.000000;;
        1.000000;
        0.150000; 0.150000; 0.150000;;
        0.000000; 0.000000; 0.000000;;

        TextureFilename {
         "herb_ball.dds";
        }
       }

      }

      XSkinMeshHeader {
       1;
       1;
       1;
      }

      SkinWeights {
       "Body";
       146;
       0,
       1,
       2,
       3,
       4,
       5,
       6,
       7,
       8,
       9,
       10,
       11,
       12,
       13,
       14,
       15,
       16,
       17,
       18,
       19,
       20,
       21,
       22,
       23,
       24,
       25,
       26,
       27,
       28,
       29,
       30,
       31,
       32,
       33,
       34,
       35,
       36,
       37,
       38,
       39,
       40,
       41,
       42,
       43,
       44,
       45,
       46,
       47,
       48,
       49,
       50,
       51,
       52,
       53,
       54,
       55,
       56,
       57,
       58,
       59,
       60,
       61,
       62,
       63,
       64,
       65,
       66,
       67,
       68,
       69,
       70,
       71,
       72,
       73,
       74,
       75,
       76,
       77,
       78,
       79,
       80,
       81,
       82,
       83,
       84,
       85,
       86,
       87,
       88,
       89,
       90,
       91,
       92,
       93,
       94,
       95,
       96,
       97,
       98,
       99,
       100,
       101,
       102,
       103,
       104,
       105,
       106,
       107,
       108,
       109,
       110,
       111,
       112,
       113,
       114,
       115,
       116,
       117,
       118,
       119,
       120,
       121,
       122,
       123,
       124,
       125,
       126,
       127,
       128,
       129,
       130,
       131,
       132,
       133,
       134,
       135,
       136,
       137,
       138,
       139,
       140,
       141,
       142,
       143,
       144,
       145;
       1.000000,
       1.000000,
       1.000000,
       1.000000,
       1.000000,
       1.000000,
       1.000000,
       1.000000,
       1.000000,
       1.000000,
       1.000000,
       1.000000,
       1.000000,
       1.000000,
       1.000000,
       1.000000,
       1.000000,
       1.000000,
       1.000000,
       1.000000,
       1.000000,
       1.000000,
       1.000000,
       1.000000,
       1.000000,
       1.000000,
       1.000000,
       1.000000,
       1.000000,
       1.000000,
       1.000000,
       1.000000,
       1.000000,
       1.000000,
       1.000000,
       1.000000,
       1.000000,
       1.000000,
       1.000000,
       1.000000,
       1.000000,
       1.000000,
       1.000000,
       1.000000,
       1.000000,
       1.000000,
       1.000000,
       1.000000,
       1.000000,
       1.000000,
       1.000000,
       1.000000,
       1.000000,
       1.000000,
       1.000000,
       1.000000,
       1.000000,
       1.000000,
       1.000000,
       1.000000,
       1.000000,
       1.000000,
       1.000000,
       1.000000,
       1.000000,
       1.000000,
       1.000000,
       1.000000,
       1.000000,
       1.000000,
       1.000000,
       1.000000,
       1.000000,
       1.000000,
       1.000000,
       1.000000,
       1.000000,
       1.000000,
       1.000000,
       1.000000,
       1.000000,
       1.000000,
       1.000000,
       1.000000,
       1.000000,
       1.000000,
       1.000000,
       1.000000,
       1.000000,
       1.000000,
       1.000000,
       1.000000,
       1.000000,
       1.000000,
       1.000000,
       1.000000,
       1.000000,
       1.000000,
       1.000000,
       1.000000,
       1.000000,
       1.000000,
       1.000000,
       1.000000,
       1.000000,
       1.000000,
       1.000000,
       1.000000,
       1.000000,
       1.000000,
       1.000000,
       1.000000,
       1.000000,
       1.000000,
       1.000000,
       1.000000,
       1.000000,
       1.000000,
       1.000000,
       1.000000,
       1.000000,
       1.000000,
       1.000000,
       1.000000,
       1.000000,
       1.000000,
       1.000000,
       1.000000,
       1.000000,
       1.000000,
       1.000000,
       1.000000,
       1.000000,
       1.000000,
       1.000000,
       1.000000,
       1.000000,
       1.000000,
       1.000000,
       1.000000,
       1.000000,
       1.000000,
       1.000000,
       1.000000,
       1.000000,
       1.000000;
          1.000000, -0.000000, 0.000000, 0.000000,
          -0.000000, 1.000000, -0.000000, 0.000000,
          0.000000, -0.000000, 1.000000, 0.000000,
          -0.000000, -0.000000, -0.000000, 1.000000;;
      }


     }
   }

// Start of Animation

AnimationSet Untitled {
}
