xof 0303txt 0032

// DirectX 9.0 file
// Creator: Ultimate Unwrap3D Pro v3.19
// Website: http://www.unwrap3d.com
// Time: Thu Dec 10 21:39:49 2009

// Start of Templates

template VertexDuplicationIndices {
 <b8d65549-d7c9-4995-89cf-53a9a8b031e3>
 DWORD nIndices;
 DWORD nOriginalVertices;
 array DWORD indices[nIndices];
}

template FVFData {
 <b6e70a0e-8ef9-4e83-94ad-ecc8b0c04897>
 DWORD dwFVF;
 DWORD nDWords;
 array DWORD data[nDWords];
}

template Header {
 <3D82AB43-62DA-11cf-AB39-0020AF71E433>
 WORD major;
 WORD minor;
 DWORD flags;
}

template Vector {
 <3D82AB5E-62DA-11cf-AB39-0020AF71E433>
 FLOAT x;
 FLOAT y;
 FLOAT z;
}

template Coords2d {
 <F6F23F44-7686-11cf-8F52-0040333594A3>
 FLOAT u;
 FLOAT v;
}

template Matrix4x4 {
 <F6F23F45-7686-11cf-8F52-0040333594A3>
 array FLOAT matrix[16];
}

template ColorRGBA {
 <35FF44E0-6C7C-11cf-8F52-0040333594A3>
 FLOAT red;
 FLOAT green;
 FLOAT blue;
 FLOAT alpha;
}

template ColorRGB {
 <D3E16E81-7835-11cf-8F52-0040333594A3>
 FLOAT red;
 FLOAT green;
 FLOAT blue;
}

template IndexedColor {
 <1630B820-7842-11cf-8F52-0040333594A3>
 DWORD index;
 ColorRGBA indexColor;
}

template Material {
 <3D82AB4D-62DA-11cf-AB39-0020AF71E433>
 ColorRGBA faceColor;
 FLOAT power;
 ColorRGB specularColor;
 ColorRGB emissiveColor;
 [...]
}

template TextureFilename {
 <A42790E1-7810-11cf-8F52-0040333594A3>
 STRING filename;
}

template MeshFace {
 <3D82AB5F-62DA-11cf-AB39-0020AF71E433>
 DWORD nFaceVertexIndices;
 array DWORD faceVertexIndices[nFaceVertexIndices];
}

template MeshTextureCoords {
 <F6F23F40-7686-11cf-8F52-0040333594A3>
 DWORD nTextureCoords;
 array Coords2d textureCoords[nTextureCoords];
}

template MeshMaterialList {
 <F6F23F42-7686-11cf-8F52-0040333594A3>
 DWORD nMaterials;
 DWORD nFaceIndexes;
 array DWORD faceIndexes[nFaceIndexes];
 [Material]
}

template MeshNormals {
 <F6F23F43-7686-11cf-8F52-0040333594A3>
 DWORD nNormals;
 array Vector normals[nNormals];
 DWORD nFaceNormals;
 array MeshFace faceNormals[nFaceNormals];
}

template MeshVertexColors {
 <1630B821-7842-11cf-8F52-0040333594A3>
 DWORD nVertexColors;
 array IndexedColor vertexColors[nVertexColors];
}

template Mesh {
 <3D82AB44-62DA-11cf-AB39-0020AF71E433>
 DWORD nVertices;
 array Vector vertices[nVertices];
 DWORD nFaces;
 array MeshFace faces[nFaces];
 [...]
}

template FrameTransformMatrix {
 <F6F23F41-7686-11cf-8F52-0040333594A3>
 Matrix4x4 frameMatrix;
}

template Frame {
 <3D82AB46-62DA-11cf-AB39-0020AF71E433>
 [...]
}

template FloatKeys {
 <10DD46A9-775B-11cf-8F52-0040333594A3>
 DWORD nValues;
 array FLOAT values[nValues];
}

template TimedFloatKeys {
 <F406B180-7B3B-11cf-8F52-0040333594A3>
 DWORD time;
 FloatKeys tfkeys;
}

template AnimationKey {
 <10DD46A8-775B-11cf-8F52-0040333594A3>
 DWORD keyType;
 DWORD nKeys;
 array TimedFloatKeys keys[nKeys];
}

template AnimationOptions {
 <E2BF56C0-840F-11cf-8F52-0040333594A3>
 DWORD openclosed;
 DWORD positionquality;
}

template Animation {
 <3D82AB4F-62DA-11cf-AB39-0020AF71E433>
 [...]
}

template AnimationSet {
 <3D82AB50-62DA-11cf-AB39-0020AF71E433>
 [Animation]
}

template XSkinMeshHeader {
 <3CF169CE-FF7C-44ab-93C0-F78F62D172E2>
 WORD nMaxSkinWeightsPerVertex;
 WORD nMaxSkinWeightsPerFace;
 WORD nBones;
}

template SkinWeights {
 <6F0D123B-BAD2-4167-A0D0-80224F25FABB>
 STRING transformNodeName;
 DWORD nWeights;
 array DWORD vertexIndices[nWeights];
 array FLOAT weights[nWeights];
 Matrix4x4 matrixOffset;
}

template AnimTicksPerSecond {
 <9E415A43-7BA6-4a73-8743-B73D47E88476>
 DWORD AnimTicksPerSecond;
}

AnimTicksPerSecond {
 30;
}

// Start of Frames

   Frame Body {
      FrameTransformMatrix {
       1.000000, 0.000000, 0.000000, 0.000000,
       0.000000, 1.000000, 0.000000, 0.000000,
       0.000000, 0.000000, 1.000000, 0.000000,
       0.000000, 0.000000, 0.000000, 1.000000;;
      }

   }
   Frame Body0 {
      FrameTransformMatrix {
       1.000000, 0.000000, 0.000000, 0.000000,
       0.000000, 1.000000, 0.000000, 0.000000,
       0.000000, 0.000000, 1.000000, 0.000000,
       0.000000, 0.000000, 0.000000, 1.000000;;
      }

   }
   Frame material37 {
      FrameTransformMatrix {
       1.000000, 0.000000, 0.000000, 0.000000,
       0.000000, 1.000000, 0.000000, 0.000000,
       0.000000, 0.000000, 1.000000, 0.000000,
       0.000000, 0.000000, 0.000000, 1.000000;;
      }

   }

   Frame Body00 {
      FrameTransformMatrix {
       1.000000, 0.000000, 0.000000, 0.000000,
       0.000000, 1.000000, 0.000000, 0.000000,
       0.000000, 0.000000, 1.000000, 0.000000,
       0.000000, 0.000000, 0.000000, 1.000000;;
      }

      Mesh skinnedMesh {
       148;
       -11.933000; 5.006100; 3.130104;,
       -13.252599; 3.892700; 5.784798;,
       -11.147208; 3.892700; 5.784798;,
       -13.252599; 5.006100; 3.026299;,
       -11.147208; 3.892700; -0.377396;,
       -13.252599; 3.892700; -0.377396;,
       -4.788620; 3.892700; 5.784798;,
       -6.050499; 5.724998; 3.258904;,
       -4.788620; 3.892700; -0.377396;,
       2.846230; 3.892700; 5.784798;,
       0.826330; 5.724998; 2.698700;,
       2.846230; 3.892700; -0.377396;,
       9.678399; 3.892700; 5.784798;,
       6.869430; 5.006100; 2.585197;,
       13.252599; 3.892700; 5.784798;,
       13.252599; 5.006100; -0.377396;,
       9.678399; 3.892700; -0.377396;,
       -10.441129; 2.100498; -3.910797;,
       -12.218699; 2.048901; -2.446899;,
       -10.880519; 2.438400; -1.812302;,
       -11.243098; 1.821899; -4.364799;,
       -8.701289; 0.389500; -5.150299;,
       -10.039418; 0.000000; -5.784798;,
       -6.839109; 3.614799; 0.104103;,
       -6.747869; 3.677299; -2.341698;,
       -4.659880; 1.565800; -3.233795;,
       -1.986527; 5.027198; 2.405205;,
       -2.178946; 4.763198; -0.572502;,
       0.192700; 2.978298; -0.932701;,
       2.355890; 6.291199; 4.464302;,
       1.702110; 5.397900; 1.460899;,
       4.627590; 6.952498; 5.541603;,
       6.806819; 5.593699; 1.779999;,
       4.535120; 4.242298; 1.126404;,
       -11.147209; 3.892700; 5.784798;,
       -13.252600; 3.892700; 5.784798;,
       -11.933001; 5.006100; 3.130104;,
       -13.252600; 3.892700; 5.784798;,
       -13.252600; 5.006100; 3.026299;,
       -11.933001; 5.006100; 3.130104;,
       -11.933001; 5.006100; 3.130104;,
       -13.252600; 5.006100; 3.026299;,
       -11.147209; 3.892700; -0.377396;,
       -13.252600; 5.006100; 3.026299;,
       -13.252600; 3.892700; -0.377396;,
       -11.147209; 3.892700; -0.377396;,
       -11.147209; 3.892700; 5.784798;,
       -11.933001; 5.006100; 3.130104;,
       -4.788620; 3.892700; 5.784798;,
       -11.933001; 5.006100; 3.130104;,
       -6.050500; 5.724998; 3.258904;,
       -4.788620; 3.892700; 5.784798;,
       -11.933001; 5.006100; 3.130104;,
       -11.147209; 3.892700; -0.377396;,
       -6.050500; 5.724998; 3.258904;,
       -11.147209; 3.892700; -0.377396;,
       -4.788620; 3.892700; -0.377396;,
       -6.050500; 5.724998; 3.258904;,
       -4.788620; 3.892700; 5.784798;,
       -6.050500; 5.724998; 3.258904;,
       2.846230; 3.892700; 5.784798;,
       -6.050500; 5.724998; 3.258904;,
       0.826330; 5.724998; 2.698700;,
       2.846230; 3.892700; 5.784798;,
       -6.050500; 5.724998; 3.258904;,
       -4.788620; 3.892700; -0.377396;,
       0.826330; 5.724998; 2.698700;,
       -4.788620; 3.892700; -0.377396;,
       2.846230; 3.892700; -0.377396;,
       0.826330; 5.724998; 2.698700;,
       2.846230; 3.892700; 5.784798;,
       0.826330; 5.724998; 2.698700;,
       9.678400; 3.892700; 5.784798;,
       0.826330; 5.724998; 2.698700;,
       6.869430; 5.006100; 2.585197;,
       9.678400; 3.892700; 5.784798;,
       9.678400; 3.892700; 5.784798;,
       6.869430; 5.006100; 2.585197;,
       13.252600; 3.892700; 5.784798;,
       6.869430; 5.006100; 2.585197;,
       13.252600; 5.006100; -0.377396;,
       13.252600; 3.892700; 5.784798;,
       0.826330; 5.724998; 2.698700;,
       2.846230; 3.892700; -0.377396;,
       6.869430; 5.006100; 2.585197;,
       2.846230; 3.892700; -0.377396;,
       9.678400; 3.892700; -0.377396;,
       6.869430; 5.006100; 2.585197;,
       9.678400; 3.892700; -0.377396;,
       13.252600; 5.006100; -0.377396;,
       6.869430; 5.006100; 2.585197;,
       -10.880520; 2.438400; -1.812302;,
       -12.218700; 2.048901; -2.446899;,
       -10.441130; 2.100498; -3.910797;,
       -12.218700; 2.048901; -2.446899;,
       -11.243099; 1.821899; -4.364799;,
       -10.441130; 2.100498; -3.910797;,
       -10.441130; 2.100498; -3.910797;,
       -11.243099; 1.821899; -4.364799;,
       -8.701290; 0.389500; -5.150299;,
       -11.243099; 1.821899; -4.364799;,
       -10.039419; 0.000000; -5.784798;,
       -8.701290; 0.389500; -5.150299;,
       -10.880520; 2.438400; -1.812302;,
       -10.441130; 2.100498; -3.910797;,
       -6.839110; 3.614799; 0.104103;,
       -10.441130; 2.100498; -3.910797;,
       -6.747870; 3.677299; -2.341698;,
       -6.839110; 3.614799; 0.104103;,
       -10.441130; 2.100498; -3.910797;,
       -8.701290; 0.389500; -5.150299;,
       -6.747870; 3.677299; -2.341698;,
       -8.701290; 0.389500; -5.150299;,
       -4.659880; 1.565800; -3.233795;,
       -6.747870; 3.677299; -2.341698;,
       -6.839110; 3.614799; 0.104103;,
       -6.747870; 3.677299; -2.341698;,
       -1.986527; 5.027199; 2.405205;,
       -6.747870; 3.677299; -2.341698;,
       -2.178946; 4.763199; -0.572502;,
       -1.986527; 5.027199; 2.405205;,
       -6.747870; 3.677299; -2.341698;,
       -4.659880; 1.565800; -3.233795;,
       -2.178946; 4.763199; -0.572502;,
       -4.659880; 1.565800; -3.233795;,
       0.192700; 2.978298; -0.932701;,
       -2.178946; 4.763199; -0.572502;,
       -1.986527; 5.027199; 2.405205;,
       -2.178946; 4.763199; -0.572502;,
       2.355890; 6.291199; 4.464302;,
       -2.178946; 4.763199; -0.572502;,
       1.702110; 5.397900; 1.460899;,
       2.355890; 6.291199; 4.464302;,
       2.355890; 6.291199; 4.464302;,
       1.702110; 5.397900; 1.460899;,
       4.627590; 6.952499; 5.541603;,
       1.702110; 5.397900; 1.460899;,
       6.806820; 5.593700; 1.779999;,
       4.627590; 6.952499; 5.541603;,
       -2.178946; 4.763199; -0.572502;,
       0.192700; 2.978298; -0.932701;,
       1.702110; 5.397900; 1.460899;,
       0.192700; 2.978298; -0.932701;,
       4.535120; 4.242298; 1.126404;,
       1.702110; 5.397900; 1.460899;,
       4.535120; 4.242298; 1.126404;,
       6.806820; 5.593700; 1.779999;,
       1.702110; 5.397900; 1.460899;;
       76;
       3;0, 1, 2;,
       3;0, 3, 1;,
       3;4, 3, 0;,
       3;4, 5, 3;,
       3;6, 0, 2;,
       3;6, 7, 0;,
       3;7, 4, 0;,
       3;7, 8, 4;,
       3;9, 7, 6;,
       3;9, 10, 7;,
       3;10, 8, 7;,
       3;10, 11, 8;,
       3;12, 10, 9;,
       3;12, 13, 10;,
       3;14, 13, 12;,
       3;14, 15, 13;,
       3;13, 11, 10;,
       3;13, 16, 11;,
       3;13, 15, 16;,
       3;17, 18, 19;,
       3;17, 20, 18;,
       3;21, 20, 17;,
       3;21, 22, 20;,
       3;23, 17, 19;,
       3;23, 24, 17;,
       3;24, 21, 17;,
       3;24, 25, 21;,
       3;26, 24, 23;,
       3;26, 27, 24;,
       3;27, 25, 24;,
       3;27, 28, 25;,
       3;29, 27, 26;,
       3;29, 30, 27;,
       3;31, 30, 29;,
       3;31, 32, 30;,
       3;30, 28, 27;,
       3;30, 33, 28;,
       3;30, 32, 33;,
       3;34, 35, 36;,
       3;37, 38, 39;,
       3;40, 41, 42;,
       3;43, 44, 45;,
       3;46, 47, 48;,
       3;49, 50, 51;,
       3;52, 53, 54;,
       3;55, 56, 57;,
       3;58, 59, 60;,
       3;61, 62, 63;,
       3;64, 65, 66;,
       3;67, 68, 69;,
       3;70, 71, 72;,
       3;73, 74, 75;,
       3;76, 77, 78;,
       3;79, 80, 81;,
       3;82, 83, 84;,
       3;85, 86, 87;,
       3;88, 89, 90;,
       3;91, 92, 93;,
       3;94, 95, 96;,
       3;97, 98, 99;,
       3;100, 101, 102;,
       3;103, 104, 105;,
       3;106, 107, 108;,
       3;109, 110, 111;,
       3;112, 113, 114;,
       3;115, 116, 117;,
       3;118, 119, 120;,
       3;121, 122, 123;,
       3;124, 125, 126;,
       3;127, 128, 129;,
       3;130, 131, 132;,
       3;133, 134, 135;,
       3;136, 137, 138;,
       3;139, 140, 141;,
       3;142, 143, 144;,
       3;145, 146, 147;;

      MeshNormals {
       148;
       -0.039962; 0.977773; 0.205824;,
       -0.014717; 0.924665; 0.380497;,
       0.000000; 0.922177; 0.386768;,
       -0.002116; 0.996587; -0.082523;,
       -0.021183; 0.937804; -0.346518;,
       0.000000; 0.950441; -0.310904;,
       -0.036524; 0.843774; 0.535454;,
       -0.041124; 0.995170; 0.089141;,
       -0.012499; 0.880319; -0.474218;,
       0.013342; 0.847773; 0.530192;,
       0.040868; 0.998451; -0.037744;,
       0.032191; 0.895683; -0.443526;,
       0.040111; 0.932009; 0.360208;,
       0.008517; 0.993775; -0.111078;,
       0.041282; 0.966346; 0.253912;,
       -0.091958; 0.975852; -0.198131;,
       -0.127053; 0.882801; -0.452238;,
       -0.134983; 0.917239; -0.374770;,
       -0.197832; 0.958249; -0.206447;,
       -0.188045; 0.962731; -0.194394;,
       0.038304; 0.811093; -0.583662;,
       0.149982; 0.635454; -0.757432;,
       0.151156; 0.667870; -0.728767;,
       -0.292262; 0.954591; -0.057778;,
       -0.079270; 0.878420; -0.471270;,
       0.219670; 0.530265; -0.818880;,
       -0.246120; 0.968280; -0.043121;,
       0.054066; 0.844065; -0.533508;,
       0.243782; 0.568756; -0.785549;,
       -0.140109; 0.969172; -0.202672;,
       0.061445; 0.798329; -0.599078;,
       -0.087390; 0.950143; -0.299320;,
       0.015989; 0.717702; -0.696166;,
       0.108866; 0.513297; -0.851278;,
       0.000000; -0.922177; -0.386768;,
       0.000000; -0.922177; -0.386768;,
       0.000000; -0.922177; -0.386768;,
       0.029430; -0.926911; -0.374125;,
       0.029430; -0.926911; -0.374125;,
       0.029430; -0.926911; -0.374125;,
       -0.023419; -0.954371; 0.297703;,
       -0.023419; -0.954371; 0.297703;,
       -0.023419; -0.954371; 0.297703;,
       0.000000; -0.950441; 0.310904;,
       0.000000; -0.950441; 0.310904;,
       0.000000; -0.950441; 0.310904;,
       0.000000; -0.922177; -0.386768;,
       0.000000; -0.922177; -0.386768;,
       0.000000; -0.922177; -0.386768;,
       0.108636; -0.778082; -0.618697;,
       0.108636; -0.778082; -0.618697;,
       0.108636; -0.778082; -0.618697;,
       0.107855; -0.940349; 0.322662;,
       0.107855; -0.940349; 0.322662;,
       0.107855; -0.940349; 0.322662;,
       0.000000; -0.893033; 0.449991;,
       0.000000; -0.893033; 0.449991;,
       0.000000; -0.893033; 0.449991;,
       0.000000; -0.809454; -0.587183;,
       0.000000; -0.809454; -0.587183;,
       0.000000; -0.809454; -0.587183;,
       -0.039969; -0.870443; -0.490644;,
       -0.039969; -0.870443; -0.490644;,
       -0.039969; -0.870443; -0.490644;,
       0.037474; -0.887120; 0.460016;,
       0.037474; -0.887120; 0.460016;,
       0.037474; -0.887120; 0.460016;,
       0.000000; -0.859135; 0.511750;,
       0.000000; -0.859135; 0.511750;,
       0.000000; -0.859135; 0.511750;,
       0.000000; -0.859864; -0.510524;,
       0.000000; -0.859864; -0.510524;,
       0.000000; -0.859864; -0.510524;,
       -0.119208; -0.965543; -0.231337;,
       -0.119208; -0.965543; -0.231337;,
       -0.119208; -0.965543; -0.231337;,
       0.000000; -0.944451; -0.328651;,
       0.000000; -0.944451; -0.328651;,
       0.000000; -0.944451; -0.328651;,
       -0.082244; -0.980732; -0.177201;,
       -0.082244; -0.980732; -0.177201;,
       -0.082244; -0.980732; -0.177201;,
       -0.096206; -0.881652; 0.461989;,
       -0.096206; -0.881652; 0.461989;,
       -0.096206; -0.881652; 0.461989;,
       0.000000; -0.936077; 0.351796;,
       0.000000; -0.936077; 0.351796;,
       0.000000; -0.936077; 0.351796;,
       0.250412; -0.803864; 0.539534;,
       0.250412; -0.803864; 0.539534;,
       0.250412; -0.803864; 0.539534;,
       0.188034; -0.962733; 0.194392;,
       0.188034; -0.962733; 0.194392;,
       0.188034; -0.962733; 0.194392;,
       0.207579; -0.953515; 0.218449;,
       0.207579; -0.953515; 0.218449;,
       0.207579; -0.953515; 0.218449;,
       -0.165260; -0.683273; 0.711215;,
       -0.165260; -0.683273; 0.711215;,
       -0.165260; -0.683273; 0.711215;,
       -0.151156; -0.667870; 0.728767;,
       -0.151156; -0.667870; 0.728767;,
       -0.151156; -0.667870; 0.728767;,
       0.188056; -0.962728; 0.194395;,
       0.188056; -0.962728; 0.194395;,
       0.188056; -0.962728; 0.194395;,
       0.395762; -0.918312; -0.008703;,
       0.395762; -0.918312; -0.008703;,
       0.395762; -0.918312; -0.008703;,
       -0.062605; -0.626484; 0.776916;,
       -0.062605; -0.626484; 0.776916;,
       -0.062605; -0.626484; 0.776916;,
       -0.218824; -0.555357; 0.802306;,
       -0.218824; -0.555357; 0.802306;,
       -0.218824; -0.555357; 0.802306;,
       0.285482; -0.958284; -0.013838;,
       0.285482; -0.958284; -0.013838;,
       0.285482; -0.958284; -0.013838;,
       0.203615; -0.976296; 0.073400;,
       0.203615; -0.976296; 0.073400;,
       0.203615; -0.976296; 0.073400;,
       -0.190942; -0.536197; 0.822213;,
       -0.190942; -0.536197; 0.822213;,
       -0.190942; -0.536197; 0.822213;,
       -0.248828; -0.498236; 0.830569;,
       -0.248828; -0.498236; 0.830569;,
       -0.248828; -0.498236; 0.830569;,
       0.248229; -0.966196; 0.069621;,
       0.248229; -0.966196; 0.069621;,
       0.248229; -0.966196; 0.069621;,
       0.008341; -0.958963; 0.283408;,
       0.008341; -0.958963; 0.283408;,
       0.008341; -0.958963; 0.283408;,
       0.159823; -0.955148; 0.249298;,
       0.159823; -0.955148; 0.249298;,
       0.159823; -0.955148; 0.249298;,
       0.014277; -0.937751; 0.347014;,
       0.014277; -0.937751; 0.347014;,
       0.014277; -0.937751; 0.347014;,
       -0.308695; -0.564638; 0.765436;,
       -0.308695; -0.564638; 0.765436;,
       -0.308695; -0.564638; 0.765436;,
       -0.171051; -0.636926; 0.751710;,
       -0.171051; -0.636926; 0.751710;,
       -0.171051; -0.636926; 0.751710;,
       -0.043517; -0.374750; 0.926104;,
       -0.043517; -0.374750; 0.926104;,
       -0.043517; -0.374750; 0.926104;;
       76;
       3;0, 1, 2;,
       3;0, 3, 1;,
       3;4, 3, 0;,
       3;4, 5, 3;,
       3;6, 0, 2;,
       3;6, 7, 0;,
       3;7, 4, 0;,
       3;7, 8, 4;,
       3;9, 7, 6;,
       3;9, 10, 7;,
       3;10, 8, 7;,
       3;10, 11, 8;,
       3;12, 10, 9;,
       3;12, 13, 10;,
       3;14, 13, 12;,
       3;14, 15, 13;,
       3;13, 11, 10;,
       3;13, 16, 11;,
       3;13, 15, 16;,
       3;17, 18, 19;,
       3;17, 20, 18;,
       3;21, 20, 17;,
       3;21, 22, 20;,
       3;23, 17, 19;,
       3;23, 24, 17;,
       3;24, 21, 17;,
       3;24, 25, 21;,
       3;26, 24, 23;,
       3;26, 27, 24;,
       3;27, 25, 24;,
       3;27, 28, 25;,
       3;29, 27, 26;,
       3;29, 30, 27;,
       3;31, 30, 29;,
       3;31, 32, 30;,
       3;30, 28, 27;,
       3;30, 33, 28;,
       3;30, 32, 33;,
       3;34, 35, 36;,
       3;37, 38, 39;,
       3;40, 41, 42;,
       3;43, 44, 45;,
       3;46, 47, 48;,
       3;49, 50, 51;,
       3;52, 53, 54;,
       3;55, 56, 57;,
       3;58, 59, 60;,
       3;61, 62, 63;,
       3;64, 65, 66;,
       3;67, 68, 69;,
       3;70, 71, 72;,
       3;73, 74, 75;,
       3;76, 77, 78;,
       3;79, 80, 81;,
       3;82, 83, 84;,
       3;85, 86, 87;,
       3;88, 89, 90;,
       3;91, 92, 93;,
       3;94, 95, 96;,
       3;97, 98, 99;,
       3;100, 101, 102;,
       3;103, 104, 105;,
       3;106, 107, 108;,
       3;109, 110, 111;,
       3;112, 113, 114;,
       3;115, 116, 117;,
       3;118, 119, 120;,
       3;121, 122, 123;,
       3;124, 125, 126;,
       3;127, 128, 129;,
       3;130, 131, 132;,
       3;133, 134, 135;,
       3;136, 137, 138;,
       3;139, 140, 141;,
       3;142, 143, 144;,
       3;145, 146, 147;;
      }

      MeshTextureCoords {
       148;
       0.049786; 0.387088;,
       -0.000000; 0.155419;,
       0.079432; 0.155419;,
       -0.000000; 0.396154;,
       0.079432; 0.693181;,
       -0.000000; 0.693181;,
       0.319332; 0.155419;,
       0.271723; 0.375849;,
       0.319332; 0.693181;,
       0.607383; 0.155419;,
       0.531176; 0.424739;,
       0.607383; 0.693181;,
       0.865151; 0.155419;,
       0.759173; 0.434648;,
       1.000000; 0.155419;,
       1.000000; 0.693181;,
       0.865151; 0.693181;,
       0.049786; 0.387088;,
       -0.000000; 0.155419;,
       0.079432; 0.155419;,
       -0.000000; 0.396154;,
       0.079432; 0.693181;,
       -0.000000; 0.693181;,
       0.319332; 0.155419;,
       0.271723; 0.375849;,
       0.319332; 0.693181;,
       0.607383; 0.155419;,
       0.531176; 0.424739;,
       0.607383; 0.693181;,
       0.865151; 0.155419;,
       0.759173; 0.434648;,
       1.000000; 0.155419;,
       1.000000; 0.693181;,
       0.865151; 0.693181;,
       0.079432; 0.155419;,
       -0.000000; 0.155419;,
       0.049786; 0.387088;,
       -0.000000; 0.155419;,
       -0.000000; 0.396154;,
       0.049786; 0.387088;,
       0.049786; 0.387088;,
       -0.000000; 0.396154;,
       0.079432; 0.693181;,
       -0.000000; 0.396154;,
       -0.000000; 0.693181;,
       0.079432; 0.693181;,
       0.079432; 0.155419;,
       0.049786; 0.387088;,
       0.319332; 0.155419;,
       0.049786; 0.387088;,
       0.271723; 0.375849;,
       0.319332; 0.155419;,
       0.049786; 0.387088;,
       0.079432; 0.693181;,
       0.271723; 0.375849;,
       0.079432; 0.693181;,
       0.319332; 0.693181;,
       0.271723; 0.375849;,
       0.319332; 0.155419;,
       0.271723; 0.375849;,
       0.607383; 0.155419;,
       0.271723; 0.375849;,
       0.531176; 0.424739;,
       0.607383; 0.155419;,
       0.271723; 0.375849;,
       0.319332; 0.693181;,
       0.531176; 0.424739;,
       0.319332; 0.693181;,
       0.607383; 0.693181;,
       0.531176; 0.424739;,
       0.607383; 0.155419;,
       0.531176; 0.424739;,
       0.865151; 0.155419;,
       0.531176; 0.424739;,
       0.759173; 0.434648;,
       0.865151; 0.155419;,
       0.865151; 0.155419;,
       0.759173; 0.434648;,
       1.000000; 0.155419;,
       0.759173; 0.434648;,
       1.000000; 0.693181;,
       1.000000; 0.155419;,
       0.531176; 0.424739;,
       0.607383; 0.693181;,
       0.759173; 0.434648;,
       0.607383; 0.693181;,
       0.865151; 0.693181;,
       0.759173; 0.434648;,
       0.865151; 0.693181;,
       1.000000; 0.693181;,
       0.759173; 0.434648;,
       0.079432; 0.155419;,
       -0.000000; 0.155419;,
       0.049786; 0.387088;,
       -0.000000; 0.155419;,
       -0.000000; 0.396154;,
       0.049786; 0.387088;,
       0.049786; 0.387088;,
       -0.000000; 0.396154;,
       0.079432; 0.693181;,
       -0.000000; 0.396154;,
       -0.000000; 0.693181;,
       0.079432; 0.693181;,
       0.079432; 0.155419;,
       0.049786; 0.387088;,
       0.319332; 0.155419;,
       0.049786; 0.387088;,
       0.271723; 0.375849;,
       0.319332; 0.155419;,
       0.049786; 0.387088;,
       0.079432; 0.693181;,
       0.271723; 0.375849;,
       0.079432; 0.693181;,
       0.319332; 0.693181;,
       0.271723; 0.375849;,
       0.319332; 0.155419;,
       0.271723; 0.375849;,
       0.607383; 0.155419;,
       0.271723; 0.375849;,
       0.531176; 0.424739;,
       0.607383; 0.155419;,
       0.271723; 0.375849;,
       0.319332; 0.693181;,
       0.531176; 0.424739;,
       0.319332; 0.693181;,
       0.607383; 0.693181;,
       0.531176; 0.424739;,
       0.607383; 0.155419;,
       0.531176; 0.424739;,
       0.865151; 0.155419;,
       0.531176; 0.424739;,
       0.759173; 0.434648;,
       0.865151; 0.155419;,
       0.865151; 0.155419;,
       0.759173; 0.434648;,
       1.000000; 0.155419;,
       0.759173; 0.434648;,
       1.000000; 0.693181;,
       1.000000; 0.155419;,
       0.531176; 0.424739;,
       0.607383; 0.693181;,
       0.759173; 0.434648;,
       0.607383; 0.693181;,
       0.865151; 0.693181;,
       0.759173; 0.434648;,
       0.865151; 0.693181;,
       1.000000; 0.693181;,
       0.759173; 0.434648;;
      }

      MeshVertexColors {
       148;
       0; 1.000000; 1.000000; 1.000000; 1.000000;,
       1; 1.000000; 1.000000; 1.000000; 1.000000;,
       2; 1.000000; 1.000000; 1.000000; 1.000000;,
       3; 1.000000; 1.000000; 1.000000; 1.000000;,
       4; 1.000000; 1.000000; 1.000000; 1.000000;,
       5; 1.000000; 1.000000; 1.000000; 1.000000;,
       6; 1.000000; 1.000000; 1.000000; 1.000000;,
       7; 1.000000; 1.000000; 1.000000; 1.000000;,
       8; 1.000000; 1.000000; 1.000000; 1.000000;,
       9; 1.000000; 1.000000; 1.000000; 1.000000;,
       10; 1.000000; 1.000000; 1.000000; 1.000000;,
       11; 1.000000; 1.000000; 1.000000; 1.000000;,
       12; 1.000000; 1.000000; 1.000000; 1.000000;,
       13; 1.000000; 1.000000; 1.000000; 1.000000;,
       14; 1.000000; 1.000000; 1.000000; 1.000000;,
       15; 1.000000; 1.000000; 1.000000; 1.000000;,
       16; 1.000000; 1.000000; 1.000000; 1.000000;,
       17; 1.000000; 1.000000; 1.000000; 1.000000;,
       18; 1.000000; 1.000000; 1.000000; 1.000000;,
       19; 1.000000; 1.000000; 1.000000; 1.000000;,
       20; 1.000000; 1.000000; 1.000000; 1.000000;,
       21; 1.000000; 1.000000; 1.000000; 1.000000;,
       22; 1.000000; 1.000000; 1.000000; 1.000000;,
       23; 1.000000; 1.000000; 1.000000; 1.000000;,
       24; 1.000000; 1.000000; 1.000000; 1.000000;,
       25; 1.000000; 1.000000; 1.000000; 1.000000;,
       26; 1.000000; 1.000000; 1.000000; 1.000000;,
       27; 1.000000; 1.000000; 1.000000; 1.000000;,
       28; 1.000000; 1.000000; 1.000000; 1.000000;,
       29; 1.000000; 1.000000; 1.000000; 1.000000;,
       30; 1.000000; 1.000000; 1.000000; 1.000000;,
       31; 1.000000; 1.000000; 1.000000; 1.000000;,
       32; 1.000000; 1.000000; 1.000000; 1.000000;,
       33; 1.000000; 1.000000; 1.000000; 1.000000;,
       34; 1.000000; 1.000000; 1.000000; 1.000000;,
       35; 1.000000; 1.000000; 1.000000; 1.000000;,
       36; 1.000000; 1.000000; 1.000000; 1.000000;,
       37; 1.000000; 1.000000; 1.000000; 1.000000;,
       38; 1.000000; 1.000000; 1.000000; 1.000000;,
       39; 1.000000; 1.000000; 1.000000; 1.000000;,
       40; 1.000000; 1.000000; 1.000000; 1.000000;,
       41; 1.000000; 1.000000; 1.000000; 1.000000;,
       42; 1.000000; 1.000000; 1.000000; 1.000000;,
       43; 1.000000; 1.000000; 1.000000; 1.000000;,
       44; 1.000000; 1.000000; 1.000000; 1.000000;,
       45; 1.000000; 1.000000; 1.000000; 1.000000;,
       46; 1.000000; 1.000000; 1.000000; 1.000000;,
       47; 1.000000; 1.000000; 1.000000; 1.000000;,
       48; 1.000000; 1.000000; 1.000000; 1.000000;,
       49; 1.000000; 1.000000; 1.000000; 1.000000;,
       50; 1.000000; 1.000000; 1.000000; 1.000000;,
       51; 1.000000; 1.000000; 1.000000; 1.000000;,
       52; 1.000000; 1.000000; 1.000000; 1.000000;,
       53; 1.000000; 1.000000; 1.000000; 1.000000;,
       54; 1.000000; 1.000000; 1.000000; 1.000000;,
       55; 1.000000; 1.000000; 1.000000; 1.000000;,
       56; 1.000000; 1.000000; 1.000000; 1.000000;,
       57; 1.000000; 1.000000; 1.000000; 1.000000;,
       58; 1.000000; 1.000000; 1.000000; 1.000000;,
       59; 1.000000; 1.000000; 1.000000; 1.000000;,
       60; 1.000000; 1.000000; 1.000000; 1.000000;,
       61; 1.000000; 1.000000; 1.000000; 1.000000;,
       62; 1.000000; 1.000000; 1.000000; 1.000000;,
       63; 1.000000; 1.000000; 1.000000; 1.000000;,
       64; 1.000000; 1.000000; 1.000000; 1.000000;,
       65; 1.000000; 1.000000; 1.000000; 1.000000;,
       66; 1.000000; 1.000000; 1.000000; 1.000000;,
       67; 1.000000; 1.000000; 1.000000; 1.000000;,
       68; 1.000000; 1.000000; 1.000000; 1.000000;,
       69; 1.000000; 1.000000; 1.000000; 1.000000;,
       70; 1.000000; 1.000000; 1.000000; 1.000000;,
       71; 1.000000; 1.000000; 1.000000; 1.000000;,
       72; 1.000000; 1.000000; 1.000000; 1.000000;,
       73; 1.000000; 1.000000; 1.000000; 1.000000;,
       74; 1.000000; 1.000000; 1.000000; 1.000000;,
       75; 1.000000; 1.000000; 1.000000; 1.000000;,
       76; 1.000000; 1.000000; 1.000000; 1.000000;,
       77; 1.000000; 1.000000; 1.000000; 1.000000;,
       78; 1.000000; 1.000000; 1.000000; 1.000000;,
       79; 1.000000; 1.000000; 1.000000; 1.000000;,
       80; 1.000000; 1.000000; 1.000000; 1.000000;,
       81; 1.000000; 1.000000; 1.000000; 1.000000;,
       82; 1.000000; 1.000000; 1.000000; 1.000000;,
       83; 1.000000; 1.000000; 1.000000; 1.000000;,
       84; 1.000000; 1.000000; 1.000000; 1.000000;,
       85; 1.000000; 1.000000; 1.000000; 1.000000;,
       86; 1.000000; 1.000000; 1.000000; 1.000000;,
       87; 1.000000; 1.000000; 1.000000; 1.000000;,
       88; 1.000000; 1.000000; 1.000000; 1.000000;,
       89; 1.000000; 1.000000; 1.000000; 1.000000;,
       90; 1.000000; 1.000000; 1.000000; 1.000000;,
       91; 1.000000; 1.000000; 1.000000; 1.000000;,
       92; 1.000000; 1.000000; 1.000000; 1.000000;,
       93; 1.000000; 1.000000; 1.000000; 1.000000;,
       94; 1.000000; 1.000000; 1.000000; 1.000000;,
       95; 1.000000; 1.000000; 1.000000; 1.000000;,
       96; 1.000000; 1.000000; 1.000000; 1.000000;,
       97; 1.000000; 1.000000; 1.000000; 1.000000;,
       98; 1.000000; 1.000000; 1.000000; 1.000000;,
       99; 1.000000; 1.000000; 1.000000; 1.000000;,
       100; 1.000000; 1.000000; 1.000000; 1.000000;,
       101; 1.000000; 1.000000; 1.000000; 1.000000;,
       102; 1.000000; 1.000000; 1.000000; 1.000000;,
       103; 1.000000; 1.000000; 1.000000; 1.000000;,
       104; 1.000000; 1.000000; 1.000000; 1.000000;,
       105; 1.000000; 1.000000; 1.000000; 1.000000;,
       106; 1.000000; 1.000000; 1.000000; 1.000000;,
       107; 1.000000; 1.000000; 1.000000; 1.000000;,
       108; 1.000000; 1.000000; 1.000000; 1.000000;,
       109; 1.000000; 1.000000; 1.000000; 1.000000;,
       110; 1.000000; 1.000000; 1.000000; 1.000000;,
       111; 1.000000; 1.000000; 1.000000; 1.000000;,
       112; 1.000000; 1.000000; 1.000000; 1.000000;,
       113; 1.000000; 1.000000; 1.000000; 1.000000;,
       114; 1.000000; 1.000000; 1.000000; 1.000000;,
       115; 1.000000; 1.000000; 1.000000; 1.000000;,
       116; 1.000000; 1.000000; 1.000000; 1.000000;,
       117; 1.000000; 1.000000; 1.000000; 1.000000;,
       118; 1.000000; 1.000000; 1.000000; 1.000000;,
       119; 1.000000; 1.000000; 1.000000; 1.000000;,
       120; 1.000000; 1.000000; 1.000000; 1.000000;,
       121; 1.000000; 1.000000; 1.000000; 1.000000;,
       122; 1.000000; 1.000000; 1.000000; 1.000000;,
       123; 1.000000; 1.000000; 1.000000; 1.000000;,
       124; 1.000000; 1.000000; 1.000000; 1.000000;,
       125; 1.000000; 1.000000; 1.000000; 1.000000;,
       126; 1.000000; 1.000000; 1.000000; 1.000000;,
       127; 1.000000; 1.000000; 1.000000; 1.000000;,
       128; 1.000000; 1.000000; 1.000000; 1.000000;,
       129; 1.000000; 1.000000; 1.000000; 1.000000;,
       130; 1.000000; 1.000000; 1.000000; 1.000000;,
       131; 1.000000; 1.000000; 1.000000; 1.000000;,
       132; 1.000000; 1.000000; 1.000000; 1.000000;,
       133; 1.000000; 1.000000; 1.000000; 1.000000;,
       134; 1.000000; 1.000000; 1.000000; 1.000000;,
       135; 1.000000; 1.000000; 1.000000; 1.000000;,
       136; 1.000000; 1.000000; 1.000000; 1.000000;,
       137; 1.000000; 1.000000; 1.000000; 1.000000;,
       138; 1.000000; 1.000000; 1.000000; 1.000000;,
       139; 1.000000; 1.000000; 1.000000; 1.000000;,
       140; 1.000000; 1.000000; 1.000000; 1.000000;,
       141; 1.000000; 1.000000; 1.000000; 1.000000;,
       142; 1.000000; 1.000000; 1.000000; 1.000000;,
       143; 1.000000; 1.000000; 1.000000; 1.000000;,
       144; 1.000000; 1.000000; 1.000000; 1.000000;,
       145; 1.000000; 1.000000; 1.000000; 1.000000;,
       146; 1.000000; 1.000000; 1.000000; 1.000000;,
       147; 1.000000; 1.000000; 1.000000; 1.000000;;
      }

      MeshMaterialList {
       1;
       76;
       0,
       0,
       0,
       0,
       0,
       0,
       0,
       0,
       0,
       0,
       0,
       0,
       0,
       0,
       0,
       0,
       0,
       0,
       0,
       0,
       0,
       0,
       0,
       0,
       0,
       0,
       0,
       0,
       0,
       0,
       0,
       0,
       0,
       0,
       0,
       0,
       0,
       0,
       0,
       0,
       0,
       0,
       0,
       0,
       0,
       0,
       0,
       0,
       0,
       0,
       0,
       0,
       0,
       0,
       0,
       0,
       0,
       0,
       0,
       0,
       0,
       0,
       0,
       0,
       0,
       0,
       0,
       0,
       0,
       0,
       0,
       0,
       0,
       0,
       0,
       0;

       Material material37 {
        0.992157; 0.992157; 0.992157; 1.000000;;
        1.000000;
        0.150000; 0.150000; 0.150000;;
        0.000000; 0.000000; 0.000000;;

        TextureFilename {
         "herb_2.dds";
        }
       }

      }

      XSkinMeshHeader {
       1;
       1;
       1;
      }

      SkinWeights {
       "Body";
       34;
       0,
       1,
       2,
       3,
       4,
       5,
       6,
       7,
       8,
       9,
       10,
       11,
       12,
       13,
       14,
       15,
       16,
       17,
       18,
       19,
       20,
       21,
       22,
       23,
       24,
       25,
       26,
       27,
       28,
       29,
       30,
       31,
       32,
       33;
       1.000000,
       1.000000,
       1.000000,
       1.000000,
       1.000000,
       1.000000,
       1.000000,
       1.000000,
       1.000000,
       1.000000,
       1.000000,
       1.000000,
       1.000000,
       1.000000,
       1.000000,
       1.000000,
       1.000000,
       1.000000,
       1.000000,
       1.000000,
       1.000000,
       1.000000,
       1.000000,
       1.000000,
       1.000000,
       1.000000,
       1.000000,
       1.000000,
       1.000000,
       1.000000,
       1.000000,
       1.000000,
       1.000000,
       1.000000;
          1.000000, -0.000000, 0.000000, 0.000000,
          -0.000000, 1.000000, -0.000000, 0.000000,
          0.000000, -0.000000, 1.000000, 0.000000,
          -0.000000, -0.000000, -0.000000, 1.000000;;
      }


     }
   }

// Start of Animation

AnimationSet Untitled {
}
