xof 0303txt 0032

// DirectX 9.0 file
// Creator: Ultimate Unwrap3D Pro v3.19
// Website: http://www.unwrap3d.com
// Time: Thu Dec 10 21:41:00 2009

// Start of Templates

template VertexDuplicationIndices {
 <b8d65549-d7c9-4995-89cf-53a9a8b031e3>
 DWORD nIndices;
 DWORD nOriginalVertices;
 array DWORD indices[nIndices];
}

template FVFData {
 <b6e70a0e-8ef9-4e83-94ad-ecc8b0c04897>
 DWORD dwFVF;
 DWORD nDWords;
 array DWORD data[nDWords];
}

template Header {
 <3D82AB43-62DA-11cf-AB39-0020AF71E433>
 WORD major;
 WORD minor;
 DWORD flags;
}

template Vector {
 <3D82AB5E-62DA-11cf-AB39-0020AF71E433>
 FLOAT x;
 FLOAT y;
 FLOAT z;
}

template Coords2d {
 <F6F23F44-7686-11cf-8F52-0040333594A3>
 FLOAT u;
 FLOAT v;
}

template Matrix4x4 {
 <F6F23F45-7686-11cf-8F52-0040333594A3>
 array FLOAT matrix[16];
}

template ColorRGBA {
 <35FF44E0-6C7C-11cf-8F52-0040333594A3>
 FLOAT red;
 FLOAT green;
 FLOAT blue;
 FLOAT alpha;
}

template ColorRGB {
 <D3E16E81-7835-11cf-8F52-0040333594A3>
 FLOAT red;
 FLOAT green;
 FLOAT blue;
}

template IndexedColor {
 <1630B820-7842-11cf-8F52-0040333594A3>
 DWORD index;
 ColorRGBA indexColor;
}

template Material {
 <3D82AB4D-62DA-11cf-AB39-0020AF71E433>
 ColorRGBA faceColor;
 FLOAT power;
 ColorRGB specularColor;
 ColorRGB emissiveColor;
 [...]
}

template TextureFilename {
 <A42790E1-7810-11cf-8F52-0040333594A3>
 STRING filename;
}

template MeshFace {
 <3D82AB5F-62DA-11cf-AB39-0020AF71E433>
 DWORD nFaceVertexIndices;
 array DWORD faceVertexIndices[nFaceVertexIndices];
}

template MeshTextureCoords {
 <F6F23F40-7686-11cf-8F52-0040333594A3>
 DWORD nTextureCoords;
 array Coords2d textureCoords[nTextureCoords];
}

template MeshMaterialList {
 <F6F23F42-7686-11cf-8F52-0040333594A3>
 DWORD nMaterials;
 DWORD nFaceIndexes;
 array DWORD faceIndexes[nFaceIndexes];
 [Material]
}

template MeshNormals {
 <F6F23F43-7686-11cf-8F52-0040333594A3>
 DWORD nNormals;
 array Vector normals[nNormals];
 DWORD nFaceNormals;
 array MeshFace faceNormals[nFaceNormals];
}

template MeshVertexColors {
 <1630B821-7842-11cf-8F52-0040333594A3>
 DWORD nVertexColors;
 array IndexedColor vertexColors[nVertexColors];
}

template Mesh {
 <3D82AB44-62DA-11cf-AB39-0020AF71E433>
 DWORD nVertices;
 array Vector vertices[nVertices];
 DWORD nFaces;
 array MeshFace faces[nFaces];
 [...]
}

template FrameTransformMatrix {
 <F6F23F41-7686-11cf-8F52-0040333594A3>
 Matrix4x4 frameMatrix;
}

template Frame {
 <3D82AB46-62DA-11cf-AB39-0020AF71E433>
 [...]
}

template FloatKeys {
 <10DD46A9-775B-11cf-8F52-0040333594A3>
 DWORD nValues;
 array FLOAT values[nValues];
}

template TimedFloatKeys {
 <F406B180-7B3B-11cf-8F52-0040333594A3>
 DWORD time;
 FloatKeys tfkeys;
}

template AnimationKey {
 <10DD46A8-775B-11cf-8F52-0040333594A3>
 DWORD keyType;
 DWORD nKeys;
 array TimedFloatKeys keys[nKeys];
}

template AnimationOptions {
 <E2BF56C0-840F-11cf-8F52-0040333594A3>
 DWORD openclosed;
 DWORD positionquality;
}

template Animation {
 <3D82AB4F-62DA-11cf-AB39-0020AF71E433>
 [...]
}

template AnimationSet {
 <3D82AB50-62DA-11cf-AB39-0020AF71E433>
 [Animation]
}

template XSkinMeshHeader {
 <3CF169CE-FF7C-44ab-93C0-F78F62D172E2>
 WORD nMaxSkinWeightsPerVertex;
 WORD nMaxSkinWeightsPerFace;
 WORD nBones;
}

template SkinWeights {
 <6F0D123B-BAD2-4167-A0D0-80224F25FABB>
 STRING transformNodeName;
 DWORD nWeights;
 array DWORD vertexIndices[nWeights];
 array FLOAT weights[nWeights];
 Matrix4x4 matrixOffset;
}

template AnimTicksPerSecond {
 <9E415A43-7BA6-4a73-8743-B73D47E88476>
 DWORD AnimTicksPerSecond;
}

AnimTicksPerSecond {
 30;
}

// Start of Frames

   Frame Body {
      FrameTransformMatrix {
       1.000000, 0.000000, 0.000000, 0.000000,
       0.000000, 1.000000, 0.000000, 0.000000,
       0.000000, 0.000000, 1.000000, 0.000000,
       0.000000, 0.000000, 0.000000, 1.000000;;
      }

   }
   Frame def_surf_mat {
      FrameTransformMatrix {
       1.000000, 0.000000, 0.000000, 0.000000,
       0.000000, 1.000000, 0.000000, 0.000000,
       0.000000, 0.000000, 1.000000, 0.000000,
       0.000000, 0.000000, 0.000000, 1.000000;;
      }

   }

   Frame Body0 {
      FrameTransformMatrix {
       1.000000, 0.000000, 0.000000, 0.000000,
       0.000000, 1.000000, 0.000000, 0.000000,
       0.000000, 0.000000, 1.000000, 0.000000,
       0.000000, 0.000000, 0.000000, 1.000000;;
      }

      Mesh skinnedMesh {
       266;
       0.872890; 0.000000; 1.094505;,
       1.261350; 0.000000; 0.607407;,
       0.872890; 0.562199; 1.094505;,
       1.261350; 0.562199; 0.607407;,
       0.311590; 0.000000; 1.364906;,
       0.311590; 0.562199; 1.364906;,
       -0.311510; 0.000000; 1.364906;,
       -0.311510; 0.562199; 1.364906;,
       -0.872810; 0.000000; 1.094505;,
       -0.872810; 0.562199; 1.094505;,
       -1.261310; 0.000000; 0.607407;,
       -1.261310; 0.562199; 0.607407;,
       -1.399910; 0.000000; 0.000008;,
       -1.399910; 0.562199; 0.000008;,
       -1.261310; 0.000000; -0.607391;,
       -1.261310; 0.562199; -0.607391;,
       -0.872810; 0.000000; -1.094498;,
       -0.872810; 0.562199; -1.094498;,
       -0.311510; 0.000000; -1.364891;,
       -0.311510; 0.562199; -1.364891;,
       0.311590; 0.000000; -1.364891;,
       0.311590; 0.562199; -1.364891;,
       0.872890; 0.000000; -1.094498;,
       0.872890; 0.562199; -1.094498;,
       1.261350; 0.000000; -0.607391;,
       1.261350; 0.562199; -0.607391;,
       1.399990; 0.000000; 0.000008;,
       1.399990; 0.562199; 0.000008;,
       0.872890; 0.876701; 1.094505;,
       1.261350; 0.876701; 0.607407;,
       0.311590; 0.876701; 1.364906;,
       -0.311510; 0.876701; 1.364906;,
       -0.872810; 0.876701; 1.094505;,
       -1.261310; 0.876701; 0.607407;,
       -1.399910; 0.876701; 0.000008;,
       -1.261310; 0.876701; -0.607391;,
       -0.872810; 0.876701; -1.094498;,
       -0.311510; 0.876701; -1.364891;,
       0.311590; 0.876701; -1.364891;,
       0.872890; 0.876701; -1.094498;,
       1.261350; 0.876701; -0.607391;,
       1.399990; 0.876701; 0.000008;,
       0.506790; 6.079399; 0.244003;,
       0.562490; 6.079399; 0.000008;,
       0.350690; 6.079399; 0.439705;,
       0.506790; 6.079399; -0.243996;,
       0.125190; 6.079399; 0.548309;,
       0.350690; 6.079399; -0.439697;,
       -0.125110; 6.079399; 0.548309;,
       0.125190; 6.079399; -0.548393;,
       -0.350710; 6.079399; 0.439705;,
       -0.125110; 6.079399; -0.548393;,
       -0.506710; 6.079399; 0.244003;,
       -0.350710; 6.079399; -0.439697;,
       -0.562410; 6.079399; 0.000008;,
       -0.506710; 6.079399; -0.243996;,
       -0.279610; 1.508598; 1.225304;,
       0.279690; 1.508598; 1.225304;,
       -0.783610; 1.508598; 0.982605;,
       -1.132310; 1.508598; 0.545303;,
       -1.256810; 1.508598; 0.000008;,
       -1.132310; 1.508598; -0.545296;,
       -0.783610; 1.508598; -0.982597;,
       -0.279610; 1.508598; -1.225296;,
       0.279690; 1.508598; -1.225296;,
       0.783590; 1.508598; -0.982597;,
       1.132390; 1.508598; -0.545296;,
       1.256820; 1.508598; 0.000008;,
       1.132390; 1.508598; 0.545303;,
       0.783590; 1.508598; 0.982605;,
       -0.262710; 2.165798; 1.151009;,
       0.262691; 2.165798; 1.151009;,
       -0.736110; 2.165798; 0.923004;,
       -1.063710; 2.165798; 0.512306;,
       -1.180610; 2.165798; 0.000008;,
       -1.063710; 2.165798; -0.512192;,
       -0.736110; 2.165798; -0.922997;,
       -0.262710; 2.165798; -1.150993;,
       0.262691; 2.165798; -1.150993;,
       0.736090; 2.165798; -0.922997;,
       1.063690; 2.165798; -0.512192;,
       1.180620; 2.165798; 0.000008;,
       1.063690; 2.165798; 0.512306;,
       0.736090; 2.165798; 0.923004;,
       -0.288110; 2.575298; 1.262405;,
       0.288190; 2.575298; 1.262405;,
       -0.807310; 2.575298; 1.012405;,
       -1.166610; 2.575298; 0.561806;,
       -1.294909; 2.575298; 0.000008;,
       -1.166610; 2.575298; -0.561790;,
       -0.807310; 2.575298; -1.012398;,
       -0.288110; 2.575298; -1.262398;,
       0.288190; 2.575298; -1.262398;,
       0.807390; 2.575298; -1.012398;,
       1.166680; 2.575298; -0.561790;,
       1.294910; 2.575298; 0.000008;,
       1.166680; 2.575298; 0.561806;,
       0.807390; 2.575298; 1.012405;,
       -0.372910; 3.194401; 1.633804;,
       0.372890; 3.194401; 1.633804;,
       -1.044810; 3.194401; 1.310204;,
       -1.509910; 3.194401; 0.727104;,
       -1.675810; 3.194401; 0.000008;,
       -1.509910; 3.194401; -0.727097;,
       -1.044810; 3.194401; -1.310196;,
       -0.372910; 3.194401; -1.633797;,
       0.372890; 3.194401; -1.633797;,
       1.044890; 3.194401; -1.310196;,
       1.509910; 3.194401; -0.727097;,
       1.675870; 3.194401; 0.000008;,
       1.509910; 3.194401; 0.727104;,
       1.044890; 3.194401; 1.310204;,
       -0.470610; 3.723999; 2.061806;,
       0.470590; 3.723999; 2.061806;,
       -1.318610; 3.723999; 1.653503;,
       -1.905410; 3.723999; 0.917603;,
       -2.114810; 3.723999; 0.000008;,
       -1.905410; 3.723999; -0.917595;,
       -1.318610; 3.723999; -1.653397;,
       -0.470610; 3.723999; -2.061790;,
       0.470590; 3.723999; -2.061790;,
       1.318610; 3.723999; -1.653397;,
       1.905440; 3.723999; -0.917595;,
       2.114870; 3.723999; 0.000008;,
       1.905440; 3.723999; 0.917603;,
       1.318610; 3.723999; 1.653503;,
       -0.593510; 4.295502; 2.600403;,
       0.593490; 4.295502; 2.600403;,
       -1.663010; 4.295502; 2.085304;,
       -2.403110; 4.295502; 1.157303;,
       -2.667210; 4.295502; 0.000008;,
       -2.403110; 4.295502; -1.157295;,
       -1.663010; 4.295502; -2.085297;,
       -0.593510; 4.295502; -2.600395;,
       0.593490; 4.295502; -2.600395;,
       1.663020; 4.295502; -2.085297;,
       2.403120; 4.295502; -1.157295;,
       2.667260; 4.295502; 0.000008;,
       2.403120; 4.295502; 1.157303;,
       1.663020; 4.295502; 2.085304;,
       -0.671910; 4.866901; 2.943909;,
       0.671990; 4.866901; 2.943909;,
       -1.882710; 4.866901; 2.360809;,
       -2.720610; 4.866901; 1.310204;,
       -3.019609; 4.866901; 0.000008;,
       -2.720610; 4.866901; -1.310196;,
       -1.882710; 4.866901; -2.360794;,
       -0.671910; 4.866901; -2.943893;,
       0.671990; 4.866901; -2.943893;,
       1.882730; 4.866901; -2.360794;,
       2.720610; 4.866901; -1.310196;,
       3.019650; 4.866901; 0.000008;,
       2.720610; 4.866901; 1.310204;,
       1.882730; 4.866901; 2.360809;,
       -0.712210; 5.238300; 3.120308;,
       0.712190; 5.238300; 3.120308;,
       -1.995510; 5.238300; 2.502304;,
       -2.883610; 5.238300; 1.388702;,
       -3.200610; 5.238300; 0.000008;,
       -2.883610; 5.238300; -1.388695;,
       -1.995510; 5.238300; -2.502296;,
       -0.712210; 5.238300; -3.120293;,
       0.712190; 5.238300; -3.120293;,
       1.995550; 5.238300; -2.502296;,
       2.883640; 5.238300; -1.388695;,
       3.200600; 5.238300; 0.000008;,
       2.883640; 5.238300; 1.388702;,
       1.995550; 5.238300; 2.502304;,
       -0.727010; 5.533600; 3.185303;,
       0.727090; 5.533600; 3.185303;,
       -2.037110; 5.533600; 2.554405;,
       -2.943710; 5.533600; 1.417603;,
       -3.267210; 5.533600; 0.000008;,
       -2.943710; 5.533600; -1.417595;,
       -2.037110; 5.533600; -2.554398;,
       -0.727010; 5.533600; -3.185295;,
       0.727090; 5.533600; -3.185295;,
       2.037120; 5.533600; -2.554398;,
       2.943710; 5.533600; -1.417595;,
       3.267270; 5.533600; 0.000008;,
       2.943710; 5.533600; 1.417603;,
       2.037120; 5.533600; 2.554405;,
       -0.731210; 5.886002; 3.203903;,
       0.731290; 5.886002; 3.203903;,
       -2.048910; 5.886002; 2.569305;,
       -2.960810; 5.886002; 1.425903;,
       -3.286310; 5.886002; 0.000008;,
       -2.960810; 5.886002; -1.425896;,
       -2.048910; 5.886002; -2.569298;,
       -0.731210; 5.886002; -3.203896;,
       0.731290; 5.886002; -3.203896;,
       2.048990; 5.886002; -2.569298;,
       2.960870; 5.886002; -1.425896;,
       3.286310; 5.886002; 0.000008;,
       2.960870; 5.886002; 1.425903;,
       2.048990; 5.886002; 2.569305;,
       -0.731210; 5.886002; 3.203903;,
       0.731290; 5.886002; 3.203903;,
       -0.635910; 5.876400; 2.786102;,
       0.635890; 5.876400; 2.786102;,
       -2.048910; 5.886002; 2.569305;,
       -1.781710; 5.876400; 2.234306;,
       -2.960810; 5.886002; 1.425903;,
       -2.574710; 5.876400; 1.239906;,
       -3.286310; 5.886002; 0.000008;,
       -2.857710; 5.876400; 0.000008;,
       -2.960810; 5.886002; -1.425896;,
       -2.574710; 5.876400; -1.239891;,
       -2.048910; 5.886002; -2.569298;,
       -1.781710; 5.876400; -2.234192;,
       -0.731210; 5.886002; -3.203896;,
       -0.635910; 5.876400; -2.786095;,
       0.731290; 5.886002; -3.203896;,
       0.635890; 5.876400; -2.786095;,
       2.048990; 5.886002; -2.569298;,
       1.781780; 5.876400; -2.234192;,
       2.960870; 5.886002; -1.425896;,
       2.574740; 5.876400; -1.239891;,
       3.286310; 5.886002; 0.000008;,
       2.857740; 5.876400; 0.000008;,
       2.960870; 5.886002; 1.425903;,
       2.574740; 5.876400; 1.239906;,
       2.048990; 5.886002; 2.569305;,
       1.781780; 5.876400; 2.234306;,
       -0.652810; 5.400200; 2.860405;,
       0.652890; 5.400200; 2.860405;,
       -1.829210; 5.400200; 2.293808;,
       -2.643310; 5.400200; 1.273003;,
       -2.933910; 5.400200; 0.000008;,
       -2.643310; 5.400200; -1.272995;,
       -1.829210; 5.400200; -2.293793;,
       -0.652810; 5.400200; -2.860291;,
       0.652890; 5.400200; -2.860291;,
       1.829280; 5.400200; -2.293793;,
       2.643380; 5.400200; -1.272995;,
       2.933930; 5.400200; 0.000008;,
       2.643380; 5.400200; 1.273003;,
       1.829280; 5.400200; 2.293808;,
       -0.574409; 5.721600; 2.516808;,
       0.574491; 5.721600; 2.516808;,
       -1.609509; 5.721600; 2.018303;,
       -2.325809; 5.721600; 1.120110;,
       -2.581510; 5.721600; 0.000008;,
       -2.325809; 5.721600; -1.120094;,
       -1.609509; 5.721600; -2.018295;,
       -0.574409; 5.721600; -2.516792;,
       0.574491; 5.721600; -2.516792;,
       1.609571; 5.721600; -2.018295;,
       2.325891; 5.721600; -1.120094;,
       2.581540; 5.721600; 0.000008;,
       2.325891; 5.721600; 1.120110;,
       1.609571; 5.721600; 2.018303;,
       -0.379410; 6.004501; 1.662605;,
       0.379490; 6.004501; 1.662605;,
       -1.063210; 6.004501; 1.333305;,
       -1.536410; 6.004501; 0.739906;,
       -1.705310; 6.004501; 0.000008;,
       -1.536410; 6.004501; -0.739891;,
       -1.063210; 6.004501; -1.333298;,
       -0.379410; 6.004501; -1.662598;,
       0.379490; 6.004501; -1.662598;,
       1.063290; 6.004501; -1.333298;,
       1.536460; 6.004501; -0.739891;,
       1.705340; 6.004501; 0.000008;,
       1.536460; 6.004501; 0.739906;,
       1.063290; 6.004501; 1.333305;;
       500;
       3;0, 1, 2;,
       3;1, 3, 2;,
       3;4, 0, 5;,
       3;0, 2, 5;,
       3;6, 4, 7;,
       3;4, 5, 7;,
       3;8, 6, 9;,
       3;6, 7, 9;,
       3;10, 8, 11;,
       3;8, 9, 11;,
       3;12, 10, 13;,
       3;10, 11, 13;,
       3;14, 12, 15;,
       3;12, 13, 15;,
       3;16, 14, 17;,
       3;14, 15, 17;,
       3;18, 16, 19;,
       3;16, 17, 19;,
       3;20, 18, 21;,
       3;18, 19, 21;,
       3;22, 20, 23;,
       3;20, 21, 23;,
       3;24, 22, 25;,
       3;22, 23, 25;,
       3;26, 24, 27;,
       3;24, 25, 27;,
       3;1, 26, 3;,
       3;26, 27, 3;,
       3;2, 3, 28;,
       3;3, 29, 28;,
       3;5, 2, 30;,
       3;2, 28, 30;,
       3;7, 5, 31;,
       3;5, 30, 31;,
       3;9, 7, 32;,
       3;7, 31, 32;,
       3;11, 9, 33;,
       3;9, 32, 33;,
       3;13, 11, 34;,
       3;11, 33, 34;,
       3;15, 13, 35;,
       3;13, 34, 35;,
       3;17, 15, 36;,
       3;15, 35, 36;,
       3;19, 17, 37;,
       3;17, 36, 37;,
       3;21, 19, 38;,
       3;19, 37, 38;,
       3;23, 21, 39;,
       3;21, 38, 39;,
       3;25, 23, 40;,
       3;23, 39, 40;,
       3;27, 25, 41;,
       3;25, 40, 41;,
       3;3, 27, 29;,
       3;27, 41, 29;,
       3;42, 43, 44;,
       3;43, 45, 44;,
       3;44, 45, 46;,
       3;45, 47, 46;,
       3;46, 47, 48;,
       3;47, 49, 48;,
       3;48, 49, 50;,
       3;49, 51, 50;,
       3;50, 51, 52;,
       3;51, 53, 52;,
       3;52, 53, 54;,
       3;53, 55, 54;,
       3;26, 1, 24;,
       3;1, 0, 24;,
       3;24, 0, 22;,
       3;0, 4, 22;,
       3;22, 4, 20;,
       3;4, 6, 20;,
       3;20, 6, 18;,
       3;6, 8, 18;,
       3;18, 8, 16;,
       3;8, 10, 16;,
       3;16, 10, 14;,
       3;10, 12, 14;,
       3;31, 30, 56;,
       3;30, 57, 56;,
       3;32, 31, 58;,
       3;31, 56, 58;,
       3;33, 32, 59;,
       3;32, 58, 59;,
       3;34, 33, 60;,
       3;33, 59, 60;,
       3;35, 34, 61;,
       3;34, 60, 61;,
       3;36, 35, 62;,
       3;35, 61, 62;,
       3;37, 36, 63;,
       3;36, 62, 63;,
       3;38, 37, 64;,
       3;37, 63, 64;,
       3;39, 38, 65;,
       3;38, 64, 65;,
       3;40, 39, 66;,
       3;39, 65, 66;,
       3;41, 40, 67;,
       3;40, 66, 67;,
       3;29, 41, 68;,
       3;41, 67, 68;,
       3;28, 29, 69;,
       3;29, 68, 69;,
       3;30, 28, 57;,
       3;28, 69, 57;,
       3;56, 57, 70;,
       3;57, 71, 70;,
       3;58, 56, 72;,
       3;56, 70, 72;,
       3;59, 58, 73;,
       3;58, 72, 73;,
       3;60, 59, 74;,
       3;59, 73, 74;,
       3;61, 60, 75;,
       3;60, 74, 75;,
       3;62, 61, 76;,
       3;61, 75, 76;,
       3;63, 62, 77;,
       3;62, 76, 77;,
       3;64, 63, 78;,
       3;63, 77, 78;,
       3;65, 64, 79;,
       3;64, 78, 79;,
       3;66, 65, 80;,
       3;65, 79, 80;,
       3;67, 66, 81;,
       3;66, 80, 81;,
       3;68, 67, 82;,
       3;67, 81, 82;,
       3;69, 68, 83;,
       3;68, 82, 83;,
       3;57, 69, 71;,
       3;69, 83, 71;,
       3;70, 71, 84;,
       3;71, 85, 84;,
       3;72, 70, 86;,
       3;70, 84, 86;,
       3;73, 72, 87;,
       3;72, 86, 87;,
       3;74, 73, 88;,
       3;73, 87, 88;,
       3;75, 74, 89;,
       3;74, 88, 89;,
       3;76, 75, 90;,
       3;75, 89, 90;,
       3;77, 76, 91;,
       3;76, 90, 91;,
       3;78, 77, 92;,
       3;77, 91, 92;,
       3;79, 78, 93;,
       3;78, 92, 93;,
       3;80, 79, 94;,
       3;79, 93, 94;,
       3;81, 80, 95;,
       3;80, 94, 95;,
       3;82, 81, 96;,
       3;81, 95, 96;,
       3;83, 82, 97;,
       3;82, 96, 97;,
       3;71, 83, 85;,
       3;83, 97, 85;,
       3;84, 85, 98;,
       3;85, 99, 98;,
       3;86, 84, 100;,
       3;84, 98, 100;,
       3;87, 86, 101;,
       3;86, 100, 101;,
       3;88, 87, 102;,
       3;87, 101, 102;,
       3;89, 88, 103;,
       3;88, 102, 103;,
       3;90, 89, 104;,
       3;89, 103, 104;,
       3;91, 90, 105;,
       3;90, 104, 105;,
       3;92, 91, 106;,
       3;91, 105, 106;,
       3;93, 92, 107;,
       3;92, 106, 107;,
       3;94, 93, 108;,
       3;93, 107, 108;,
       3;95, 94, 109;,
       3;94, 108, 109;,
       3;96, 95, 110;,
       3;95, 109, 110;,
       3;97, 96, 111;,
       3;96, 110, 111;,
       3;85, 97, 99;,
       3;97, 111, 99;,
       3;98, 99, 112;,
       3;99, 113, 112;,
       3;100, 98, 114;,
       3;98, 112, 114;,
       3;101, 100, 115;,
       3;100, 114, 115;,
       3;102, 101, 116;,
       3;101, 115, 116;,
       3;103, 102, 117;,
       3;102, 116, 117;,
       3;104, 103, 118;,
       3;103, 117, 118;,
       3;105, 104, 119;,
       3;104, 118, 119;,
       3;106, 105, 120;,
       3;105, 119, 120;,
       3;107, 106, 121;,
       3;106, 120, 121;,
       3;108, 107, 122;,
       3;107, 121, 122;,
       3;109, 108, 123;,
       3;108, 122, 123;,
       3;110, 109, 124;,
       3;109, 123, 124;,
       3;111, 110, 125;,
       3;110, 124, 125;,
       3;99, 111, 113;,
       3;111, 125, 113;,
       3;112, 113, 126;,
       3;113, 127, 126;,
       3;114, 112, 128;,
       3;112, 126, 128;,
       3;115, 114, 129;,
       3;114, 128, 129;,
       3;116, 115, 130;,
       3;115, 129, 130;,
       3;117, 116, 131;,
       3;116, 130, 131;,
       3;118, 117, 132;,
       3;117, 131, 132;,
       3;119, 118, 133;,
       3;118, 132, 133;,
       3;120, 119, 134;,
       3;119, 133, 134;,
       3;121, 120, 135;,
       3;120, 134, 135;,
       3;122, 121, 136;,
       3;121, 135, 136;,
       3;123, 122, 137;,
       3;122, 136, 137;,
       3;124, 123, 138;,
       3;123, 137, 138;,
       3;125, 124, 139;,
       3;124, 138, 139;,
       3;113, 125, 127;,
       3;125, 139, 127;,
       3;126, 127, 140;,
       3;127, 141, 140;,
       3;128, 126, 142;,
       3;126, 140, 142;,
       3;129, 128, 143;,
       3;128, 142, 143;,
       3;130, 129, 144;,
       3;129, 143, 144;,
       3;131, 130, 145;,
       3;130, 144, 145;,
       3;132, 131, 146;,
       3;131, 145, 146;,
       3;133, 132, 147;,
       3;132, 146, 147;,
       3;134, 133, 148;,
       3;133, 147, 148;,
       3;135, 134, 149;,
       3;134, 148, 149;,
       3;136, 135, 150;,
       3;135, 149, 150;,
       3;137, 136, 151;,
       3;136, 150, 151;,
       3;138, 137, 152;,
       3;137, 151, 152;,
       3;139, 138, 153;,
       3;138, 152, 153;,
       3;127, 139, 141;,
       3;139, 153, 141;,
       3;140, 141, 154;,
       3;141, 155, 154;,
       3;142, 140, 156;,
       3;140, 154, 156;,
       3;143, 142, 157;,
       3;142, 156, 157;,
       3;144, 143, 158;,
       3;143, 157, 158;,
       3;145, 144, 159;,
       3;144, 158, 159;,
       3;146, 145, 160;,
       3;145, 159, 160;,
       3;147, 146, 161;,
       3;146, 160, 161;,
       3;148, 147, 162;,
       3;147, 161, 162;,
       3;149, 148, 163;,
       3;148, 162, 163;,
       3;150, 149, 164;,
       3;149, 163, 164;,
       3;151, 150, 165;,
       3;150, 164, 165;,
       3;152, 151, 166;,
       3;151, 165, 166;,
       3;153, 152, 167;,
       3;152, 166, 167;,
       3;141, 153, 155;,
       3;153, 167, 155;,
       3;154, 155, 168;,
       3;155, 169, 168;,
       3;156, 154, 170;,
       3;154, 168, 170;,
       3;157, 156, 171;,
       3;156, 170, 171;,
       3;158, 157, 172;,
       3;157, 171, 172;,
       3;159, 158, 173;,
       3;158, 172, 173;,
       3;160, 159, 174;,
       3;159, 173, 174;,
       3;161, 160, 175;,
       3;160, 174, 175;,
       3;162, 161, 176;,
       3;161, 175, 176;,
       3;163, 162, 177;,
       3;162, 176, 177;,
       3;164, 163, 178;,
       3;163, 177, 178;,
       3;165, 164, 179;,
       3;164, 178, 179;,
       3;166, 165, 180;,
       3;165, 179, 180;,
       3;167, 166, 181;,
       3;166, 180, 181;,
       3;155, 167, 169;,
       3;167, 181, 169;,
       3;168, 169, 182;,
       3;169, 183, 182;,
       3;170, 168, 184;,
       3;168, 182, 184;,
       3;171, 170, 185;,
       3;170, 184, 185;,
       3;172, 171, 186;,
       3;171, 185, 186;,
       3;173, 172, 187;,
       3;172, 186, 187;,
       3;174, 173, 188;,
       3;173, 187, 188;,
       3;175, 174, 189;,
       3;174, 188, 189;,
       3;176, 175, 190;,
       3;175, 189, 190;,
       3;177, 176, 191;,
       3;176, 190, 191;,
       3;178, 177, 192;,
       3;177, 191, 192;,
       3;179, 178, 193;,
       3;178, 192, 193;,
       3;180, 179, 194;,
       3;179, 193, 194;,
       3;181, 180, 195;,
       3;180, 194, 195;,
       3;169, 181, 183;,
       3;181, 195, 183;,
       3;196, 197, 198;,
       3;197, 199, 198;,
       3;200, 196, 201;,
       3;196, 198, 201;,
       3;202, 200, 203;,
       3;200, 201, 203;,
       3;204, 202, 205;,
       3;202, 203, 205;,
       3;206, 204, 207;,
       3;204, 205, 207;,
       3;208, 206, 209;,
       3;206, 207, 209;,
       3;210, 208, 211;,
       3;208, 209, 211;,
       3;212, 210, 213;,
       3;210, 211, 213;,
       3;214, 212, 215;,
       3;212, 213, 215;,
       3;216, 214, 217;,
       3;214, 215, 217;,
       3;218, 216, 219;,
       3;216, 217, 219;,
       3;220, 218, 221;,
       3;218, 219, 221;,
       3;222, 220, 223;,
       3;220, 221, 223;,
       3;197, 222, 199;,
       3;222, 223, 199;,
       3;198, 199, 224;,
       3;199, 225, 224;,
       3;201, 198, 226;,
       3;198, 224, 226;,
       3;203, 201, 227;,
       3;201, 226, 227;,
       3;205, 203, 228;,
       3;203, 227, 228;,
       3;207, 205, 229;,
       3;205, 228, 229;,
       3;209, 207, 230;,
       3;207, 229, 230;,
       3;211, 209, 231;,
       3;209, 230, 231;,
       3;213, 211, 232;,
       3;211, 231, 232;,
       3;215, 213, 233;,
       3;213, 232, 233;,
       3;217, 215, 234;,
       3;215, 233, 234;,
       3;219, 217, 235;,
       3;217, 234, 235;,
       3;221, 219, 236;,
       3;219, 235, 236;,
       3;223, 221, 237;,
       3;221, 236, 237;,
       3;199, 223, 225;,
       3;223, 237, 225;,
       3;224, 225, 238;,
       3;225, 239, 238;,
       3;226, 224, 240;,
       3;224, 238, 240;,
       3;227, 226, 241;,
       3;226, 240, 241;,
       3;228, 227, 242;,
       3;227, 241, 242;,
       3;229, 228, 243;,
       3;228, 242, 243;,
       3;230, 229, 244;,
       3;229, 243, 244;,
       3;231, 230, 245;,
       3;230, 244, 245;,
       3;232, 231, 246;,
       3;231, 245, 246;,
       3;233, 232, 247;,
       3;232, 246, 247;,
       3;234, 233, 248;,
       3;233, 247, 248;,
       3;235, 234, 249;,
       3;234, 248, 249;,
       3;236, 235, 250;,
       3;235, 249, 250;,
       3;237, 236, 251;,
       3;236, 250, 251;,
       3;225, 237, 239;,
       3;237, 251, 239;,
       3;238, 239, 252;,
       3;239, 253, 252;,
       3;240, 238, 254;,
       3;238, 252, 254;,
       3;241, 240, 255;,
       3;240, 254, 255;,
       3;242, 241, 256;,
       3;241, 255, 256;,
       3;243, 242, 257;,
       3;242, 256, 257;,
       3;244, 243, 258;,
       3;243, 257, 258;,
       3;245, 244, 259;,
       3;244, 258, 259;,
       3;246, 245, 260;,
       3;245, 259, 260;,
       3;247, 246, 261;,
       3;246, 260, 261;,
       3;248, 247, 262;,
       3;247, 261, 262;,
       3;249, 248, 263;,
       3;248, 262, 263;,
       3;250, 249, 264;,
       3;249, 263, 264;,
       3;251, 250, 265;,
       3;250, 264, 265;,
       3;239, 251, 253;,
       3;251, 265, 253;,
       3;252, 253, 48;,
       3;253, 46, 48;,
       3;254, 252, 50;,
       3;252, 48, 50;,
       3;255, 254, 52;,
       3;254, 50, 52;,
       3;256, 255, 54;,
       3;255, 52, 54;,
       3;257, 256, 55;,
       3;256, 54, 55;,
       3;258, 257, 53;,
       3;257, 55, 53;,
       3;259, 258, 51;,
       3;258, 53, 51;,
       3;260, 259, 49;,
       3;259, 51, 49;,
       3;261, 260, 47;,
       3;260, 49, 47;,
       3;262, 261, 45;,
       3;261, 47, 45;,
       3;263, 262, 43;,
       3;262, 45, 43;,
       3;264, 263, 42;,
       3;263, 43, 42;,
       3;265, 264, 44;,
       3;264, 42, 44;,
       3;253, 265, 46;,
       3;265, 44, 46;;

      MeshNormals {
       266;
       0.393217; -0.715013; 0.578046;,
       0.715051; -0.563350; 0.413930;,
       0.623536; 0.000000; 0.781794;,
       0.900964; 0.000000; 0.433894;,
       0.103441; -0.715023; 0.691406;,
       0.222587; 0.000000; 0.974913;,
       -0.206882; -0.715023; 0.667789;,
       -0.222587; 0.000000; 0.974913;,
       -0.476099; -0.715011; 0.511946;,
       -0.623517; 0.000000; 0.781810;,
       -0.651069; -0.715022; 0.254662;,
       -0.900967; 0.000000; 0.433889;,
       -0.943782; -0.322680; -0.071786;,
       -1.000000; 0.000000; 0.000000;,
       -0.715046; -0.563354; -0.413934;,
       -0.900968; 0.000000; -0.433885;,
       -0.393205; -0.715012; -0.578055;,
       -0.623516; 0.000000; -0.781811;,
       -0.103439; -0.715023; -0.691407;,
       -0.222581; 0.000000; -0.974914;,
       0.206877; -0.715023; -0.667791;,
       0.222581; 0.000000; -0.974914;,
       0.476116; -0.715014; -0.511927;,
       0.623535; 0.000000; -0.781795;,
       0.651067; -0.715018; -0.254678;,
       0.900966; 0.000000; -0.433890;,
       0.943779; -0.322684; 0.071806;,
       1.000000; 0.000000; 0.000000;,
       0.620359; 0.111247; 0.776388;,
       0.895759; 0.111226; 0.430401;,
       0.222083; 0.111263; 0.968659;,
       -0.220302; 0.111244; 0.969067;,
       -0.618961; 0.111205; 0.777510;,
       -0.894976; 0.111226; 0.432025;,
       -0.993797; 0.111206; 0.000880;,
       -0.895776; 0.111223; -0.430366;,
       -0.620333; 0.111214; -0.776414;,
       -0.222077; 0.111258; -0.968661;,
       0.220310; 0.111252; -0.969065;,
       0.618952; 0.111229; -0.777513;,
       0.894989; 0.111222; -0.432000;,
       0.993794; 0.111233; -0.000910;,
       0.045825; 0.998789; 0.017927;,
       0.039256; 0.999225; -0.002987;,
       0.022341; 0.999462; 0.024024;,
       0.028392; 0.999462; -0.016436;,
       0.009705; 0.999462; 0.031337;,
       0.018453; 0.999462; -0.027127;,
       -0.004851; 0.999462; 0.032445;,
       0.004857; 0.999462; -0.032446;,
       -0.018450; 0.999462; 0.027126;,
       -0.009707; 0.999462; -0.031338;,
       -0.028395; 0.999462; 0.016435;,
       -0.022345; 0.999462; -0.024020;,
       -0.039254; 0.999225; 0.002987;,
       -0.045825; 0.998789; -0.017922;,
       -0.219983; 0.168360; 0.960865;,
       0.218745; 0.168359; 0.961148;,
       -0.615118; 0.168301; 0.770262;,
       -0.888400; 0.168282; 0.427114;,
       -0.985736; 0.168296; -0.000661;,
       -0.887835; 0.168305; -0.428279;,
       -0.614087; 0.168308; -0.771083;,
       -0.218719; 0.168339; -0.961158;,
       0.220005; 0.168370; -0.960859;,
       0.615109; 0.168365; -0.770256;,
       0.888385; 0.168352; -0.427118;,
       0.985730; 0.168336; 0.000655;,
       0.887814; 0.168332; 0.428312;,
       0.614076; 0.168338; 0.771086;,
       -0.220757; -0.078416; 0.972171;,
       0.222944; -0.078400; 0.971673;,
       -0.620689; -0.078385; 0.780129;,
       -0.897698; -0.078395; 0.433582;,
       -0.996919; -0.078430; 0.001090;,
       -0.898681; -0.078395; -0.431539;,
       -0.622451; -0.078417; -0.778721;,
       -0.222928; -0.078400; -0.971677;,
       0.220750; -0.078439; -0.972171;,
       0.620724; -0.078472; -0.780092;,
       0.897699; -0.078416; -0.433575;,
       0.996920; -0.078417; -0.001117;,
       0.898667; -0.078436; 0.431561;,
       0.622401; -0.078474; 0.778755;,
       -0.199867; -0.400624; 0.894178;,
       0.207872; -0.400671; 0.892330;,
       -0.568038; -0.400651; 0.718897;,
       -0.823712; -0.400601; 0.401270;,
       -0.916225; -0.400643; 0.004114;,
       -0.827259; -0.400643; -0.393863;,
       -0.574480; -0.400637; -0.713767;,
       -0.207872; -0.400655; -0.892337;,
       0.199857; -0.400641; -0.894172;,
       0.568038; -0.400703; -0.718867;,
       0.823694; -0.400706; -0.401202;,
       0.916210; -0.400678; -0.004113;,
       0.827278; -0.400644; 0.393821;,
       0.574446; -0.400675; 0.713772;,
       -0.177900; -0.582675; 0.792995;,
       0.183777; -0.582644; 0.791677;,
       -0.504341; -0.582670; 0.637288;,
       -0.730914; -0.582669; 0.355332;,
       -0.812724; -0.582641; 0.003037;,
       -0.733514; -0.582678; -0.349920;,
       -0.509070; -0.582658; -0.633528;,
       -0.183790; -0.582648; -0.791670;,
       0.177904; -0.582644; -0.793017;,
       0.504352; -0.582632; -0.637313;,
       0.730925; -0.582654; -0.355335;,
       0.812712; -0.582658; -0.003017;,
       0.733529; -0.582669; 0.349903;,
       0.509066; -0.582662; 0.633527;,
       -0.163927; -0.667098; 0.726711;,
       0.167579; -0.667121; 0.725856;,
       -0.462994; -0.667118; 0.583601;,
       -0.670372; -0.667112; 0.324904;,
       -0.744973; -0.667092; 0.001878;,
       -0.672016; -0.667097; -0.321523;,
       -0.465939; -0.667110; -0.581262;,
       -0.167612; -0.667117; -0.725852;,
       0.163939; -0.667109; -0.726698;,
       0.463000; -0.667094; -0.583624;,
       0.670372; -0.667098; -0.324933;,
       0.744972; -0.667093; -0.001882;,
       0.672015; -0.667092; 0.321534;,
       0.465937; -0.667107; 0.581266;,
       -0.180469; -0.613735; 0.768609;,
       0.170905; -0.613720; 0.770804;,
       -0.496072; -0.613719; 0.614216;,
       -0.713440; -0.613739; 0.338125;,
       -0.789493; -0.613740; -0.004898;,
       -0.709182; -0.613742; -0.346960;,
       -0.488420; -0.613722; -0.620315;,
       -0.170918; -0.613722; -0.770800;,
       0.180466; -0.613742; -0.768604;,
       0.496069; -0.613739; -0.614199;,
       0.713432; -0.613738; -0.338144;,
       0.789499; -0.613733; 0.004899;,
       0.709183; -0.613735; 0.346972;,
       0.488428; -0.613716; 0.620315;,
       -0.196665; -0.482066; 0.853777;,
       0.193262; -0.482061; 0.854557;,
       -0.547623; -0.482072; 0.683898;,
       -0.790110; -0.482092; 0.378567;,
       -0.876104; -0.482119; -0.001762;,
       -0.788601; -0.482081; -0.381715;,
       -0.544868; -0.482096; -0.686078;,
       -0.193257; -0.482062; -0.854557;,
       0.196668; -0.482062; -0.853779;,
       0.547619; -0.482098; -0.683883;,
       0.790112; -0.482090; -0.378567;,
       0.876119; -0.482093; 0.001753;,
       0.788590; -0.482096; 0.381719;,
       0.544875; -0.482089; 0.686077;,
       -0.212666; -0.331494; 0.919176;,
       0.207204; -0.331514; 0.920416;,
       -0.590409; -0.331528; 0.735871;,
       -0.851237; -0.331478; 0.406840;,
       -0.943456; -0.331486; -0.002797;,
       -0.848788; -0.331536; -0.411877;,
       -0.586029; -0.331510; -0.739372;,
       -0.207205; -0.331518; -0.920414;,
       0.212663; -0.331502; -0.919174;,
       0.590415; -0.331496; -0.735881;,
       0.851228; -0.331511; -0.406831;,
       0.943446; -0.331515; 0.002802;,
       0.848803; -0.331498; 0.411877;,
       0.586029; -0.331522; 0.739366;,
       -0.221222; -0.137625; 0.965464;,
       0.219585; -0.137666; 0.965831;,
       -0.618206; -0.137572; 0.773884;,
       -0.892756; -0.137644; 0.428999;,
       -0.990488; -0.137595; -0.000840;,
       -0.892040; -0.137552; -0.430517;,
       -0.616895; -0.137606; -0.774922;,
       -0.219582; -0.137659; -0.965833;,
       0.221226; -0.137676; -0.965456;,
       0.618206; -0.137644; -0.773871;,
       0.892757; -0.137625; -0.429003;,
       0.990484; -0.137626; 0.000838;,
       0.892026; -0.137636; 0.430518;,
       0.616903; -0.137613; 0.774915;,
       -0.147711; -0.053884; 0.987562;,
       0.295420; -0.053860; 0.953848;,
       -0.561562; -0.053749; 0.825687;,
       -0.864195; -0.053690; 0.500284;,
       -0.995672; -0.053865; 0.075741;,
       -0.929936; -0.053792; -0.363765;,
       -0.680013; -0.053715; -0.731230;,
       -0.295414; -0.053833; -0.953852;,
       0.147710; -0.053887; -0.987562;,
       0.561568; -0.053832; -0.825678;,
       0.864197; -0.053845; -0.500264;,
       0.995674; -0.053809; -0.075752;,
       0.929935; -0.053836; 0.363762;,
       0.680011; -0.053842; 0.731222;,
       0.006647; 0.999748; -0.021461;,
       -0.003323; 0.999748; -0.022218;,
       0.222299; 0.650147; -0.726562;,
       -0.114972; 0.650112; -0.751090;,
       0.015299; 0.999748; -0.016452;,
       0.515503; 0.650165; -0.558160;,
       0.020920; 0.999748; -0.008184;,
       0.706644; 0.650144; -0.279226;,
       0.022398; 0.999748; 0.001704;,
       0.757817; 0.650141; 0.055044;,
       0.019441; 0.999748; 0.011255;,
       0.658881; 0.650143; 0.378403;,
       0.012634; 0.999748; 0.018575;,
       0.429463; 0.650148; 0.626793;,
       0.003323; 0.999748; 0.022219;,
       0.114986; 0.650209; 0.751003;,
       -0.006646; 0.999748; 0.021458;,
       -0.222287; 0.650165; 0.726549;,
       -0.015297; 0.999748; 0.016449;,
       -0.515536; 0.650115; 0.558187;,
       -0.020920; 0.999748; 0.008183;,
       -0.706657; 0.650130; 0.279227;,
       -0.022399; 0.999748; -0.001704;,
       -0.757822; 0.650136; -0.055035;,
       -0.019442; 0.999748; -0.011254;,
       -0.658892; 0.650142; -0.378388;,
       -0.012634; 0.999748; -0.018577;,
       -0.429470; 0.650153; -0.626783;,
       -0.082883; 0.872871; -0.480861;,
       -0.283291; 0.872875; -0.397284;,
       0.133948; 0.872906; -0.469141;,
       0.324243; 0.872901; -0.364569;,
       0.450335; 0.872883; -0.187814;,
       0.487214; 0.872890; 0.026192;,
       0.427606; 0.872887; 0.234993;,
       0.283322; 0.872924; 0.397157;,
       0.082901; 0.872933; 0.480745;,
       -0.133962; 0.872890; 0.469167;,
       -0.324250; 0.872875; 0.364625;,
       -0.450335; 0.872884; 0.187807;,
       -0.487233; 0.872880; -0.026175;,
       -0.427589; 0.872898; -0.234981;,
       -0.097756; 0.865315; 0.491603;,
       0.125242; 0.865310; 0.485339;,
       -0.301391; 0.865302; 0.400519;,
       -0.445312; 0.865302; 0.230107;,
       -0.501044; 0.865307; 0.014095;,
       -0.457540; 0.865304; -0.204709;,
       -0.323423; 0.865298; -0.382959;,
       -0.125241; 0.865285; -0.485382;,
       0.097765; 0.865280; -0.491663;,
       0.301394; 0.865291; -0.400541;,
       0.445314; 0.865303; -0.230100;,
       0.501051; 0.865303; -0.014092;,
       0.457547; 0.865302; 0.204702;,
       0.323423; 0.865297; 0.382959;,
       -0.032722; 0.982201; 0.184961;,
       0.050770; 0.982201; 0.180842;,
       -0.109739; 0.982201; 0.152443;,
       -0.165010; 0.982201; 0.089738;,
       -0.187602; 0.982202; 0.009256;,
       -0.173041; 0.982201; -0.073060;,
       -0.124208; 0.982201; -0.140904;,
       -0.050770; 0.982200; -0.180845;,
       0.032728; 0.982201; -0.184962;,
       0.109739; 0.982201; -0.152445;,
       0.165011; 0.982201; -0.089735;,
       0.187602; 0.982202; -0.009253;,
       0.173038; 0.982202; 0.073057;,
       0.124205; 0.982201; 0.140903;;
       500;
       3;0, 1, 2;,
       3;1, 3, 2;,
       3;4, 0, 5;,
       3;0, 2, 5;,
       3;6, 4, 7;,
       3;4, 5, 7;,
       3;8, 6, 9;,
       3;6, 7, 9;,
       3;10, 8, 11;,
       3;8, 9, 11;,
       3;12, 10, 13;,
       3;10, 11, 13;,
       3;14, 12, 15;,
       3;12, 13, 15;,
       3;16, 14, 17;,
       3;14, 15, 17;,
       3;18, 16, 19;,
       3;16, 17, 19;,
       3;20, 18, 21;,
       3;18, 19, 21;,
       3;22, 20, 23;,
       3;20, 21, 23;,
       3;24, 22, 25;,
       3;22, 23, 25;,
       3;26, 24, 27;,
       3;24, 25, 27;,
       3;1, 26, 3;,
       3;26, 27, 3;,
       3;2, 3, 28;,
       3;3, 29, 28;,
       3;5, 2, 30;,
       3;2, 28, 30;,
       3;7, 5, 31;,
       3;5, 30, 31;,
       3;9, 7, 32;,
       3;7, 31, 32;,
       3;11, 9, 33;,
       3;9, 32, 33;,
       3;13, 11, 34;,
       3;11, 33, 34;,
       3;15, 13, 35;,
       3;13, 34, 35;,
       3;17, 15, 36;,
       3;15, 35, 36;,
       3;19, 17, 37;,
       3;17, 36, 37;,
       3;21, 19, 38;,
       3;19, 37, 38;,
       3;23, 21, 39;,
       3;21, 38, 39;,
       3;25, 23, 40;,
       3;23, 39, 40;,
       3;27, 25, 41;,
       3;25, 40, 41;,
       3;3, 27, 29;,
       3;27, 41, 29;,
       3;42, 43, 44;,
       3;43, 45, 44;,
       3;44, 45, 46;,
       3;45, 47, 46;,
       3;46, 47, 48;,
       3;47, 49, 48;,
       3;48, 49, 50;,
       3;49, 51, 50;,
       3;50, 51, 52;,
       3;51, 53, 52;,
       3;52, 53, 54;,
       3;53, 55, 54;,
       3;26, 1, 24;,
       3;1, 0, 24;,
       3;24, 0, 22;,
       3;0, 4, 22;,
       3;22, 4, 20;,
       3;4, 6, 20;,
       3;20, 6, 18;,
       3;6, 8, 18;,
       3;18, 8, 16;,
       3;8, 10, 16;,
       3;16, 10, 14;,
       3;10, 12, 14;,
       3;31, 30, 56;,
       3;30, 57, 56;,
       3;32, 31, 58;,
       3;31, 56, 58;,
       3;33, 32, 59;,
       3;32, 58, 59;,
       3;34, 33, 60;,
       3;33, 59, 60;,
       3;35, 34, 61;,
       3;34, 60, 61;,
       3;36, 35, 62;,
       3;35, 61, 62;,
       3;37, 36, 63;,
       3;36, 62, 63;,
       3;38, 37, 64;,
       3;37, 63, 64;,
       3;39, 38, 65;,
       3;38, 64, 65;,
       3;40, 39, 66;,
       3;39, 65, 66;,
       3;41, 40, 67;,
       3;40, 66, 67;,
       3;29, 41, 68;,
       3;41, 67, 68;,
       3;28, 29, 69;,
       3;29, 68, 69;,
       3;30, 28, 57;,
       3;28, 69, 57;,
       3;56, 57, 70;,
       3;57, 71, 70;,
       3;58, 56, 72;,
       3;56, 70, 72;,
       3;59, 58, 73;,
       3;58, 72, 73;,
       3;60, 59, 74;,
       3;59, 73, 74;,
       3;61, 60, 75;,
       3;60, 74, 75;,
       3;62, 61, 76;,
       3;61, 75, 76;,
       3;63, 62, 77;,
       3;62, 76, 77;,
       3;64, 63, 78;,
       3;63, 77, 78;,
       3;65, 64, 79;,
       3;64, 78, 79;,
       3;66, 65, 80;,
       3;65, 79, 80;,
       3;67, 66, 81;,
       3;66, 80, 81;,
       3;68, 67, 82;,
       3;67, 81, 82;,
       3;69, 68, 83;,
       3;68, 82, 83;,
       3;57, 69, 71;,
       3;69, 83, 71;,
       3;70, 71, 84;,
       3;71, 85, 84;,
       3;72, 70, 86;,
       3;70, 84, 86;,
       3;73, 72, 87;,
       3;72, 86, 87;,
       3;74, 73, 88;,
       3;73, 87, 88;,
       3;75, 74, 89;,
       3;74, 88, 89;,
       3;76, 75, 90;,
       3;75, 89, 90;,
       3;77, 76, 91;,
       3;76, 90, 91;,
       3;78, 77, 92;,
       3;77, 91, 92;,
       3;79, 78, 93;,
       3;78, 92, 93;,
       3;80, 79, 94;,
       3;79, 93, 94;,
       3;81, 80, 95;,
       3;80, 94, 95;,
       3;82, 81, 96;,
       3;81, 95, 96;,
       3;83, 82, 97;,
       3;82, 96, 97;,
       3;71, 83, 85;,
       3;83, 97, 85;,
       3;84, 85, 98;,
       3;85, 99, 98;,
       3;86, 84, 100;,
       3;84, 98, 100;,
       3;87, 86, 101;,
       3;86, 100, 101;,
       3;88, 87, 102;,
       3;87, 101, 102;,
       3;89, 88, 103;,
       3;88, 102, 103;,
       3;90, 89, 104;,
       3;89, 103, 104;,
       3;91, 90, 105;,
       3;90, 104, 105;,
       3;92, 91, 106;,
       3;91, 105, 106;,
       3;93, 92, 107;,
       3;92, 106, 107;,
       3;94, 93, 108;,
       3;93, 107, 108;,
       3;95, 94, 109;,
       3;94, 108, 109;,
       3;96, 95, 110;,
       3;95, 109, 110;,
       3;97, 96, 111;,
       3;96, 110, 111;,
       3;85, 97, 99;,
       3;97, 111, 99;,
       3;98, 99, 112;,
       3;99, 113, 112;,
       3;100, 98, 114;,
       3;98, 112, 114;,
       3;101, 100, 115;,
       3;100, 114, 115;,
       3;102, 101, 116;,
       3;101, 115, 116;,
       3;103, 102, 117;,
       3;102, 116, 117;,
       3;104, 103, 118;,
       3;103, 117, 118;,
       3;105, 104, 119;,
       3;104, 118, 119;,
       3;106, 105, 120;,
       3;105, 119, 120;,
       3;107, 106, 121;,
       3;106, 120, 121;,
       3;108, 107, 122;,
       3;107, 121, 122;,
       3;109, 108, 123;,
       3;108, 122, 123;,
       3;110, 109, 124;,
       3;109, 123, 124;,
       3;111, 110, 125;,
       3;110, 124, 125;,
       3;99, 111, 113;,
       3;111, 125, 113;,
       3;112, 113, 126;,
       3;113, 127, 126;,
       3;114, 112, 128;,
       3;112, 126, 128;,
       3;115, 114, 129;,
       3;114, 128, 129;,
       3;116, 115, 130;,
       3;115, 129, 130;,
       3;117, 116, 131;,
       3;116, 130, 131;,
       3;118, 117, 132;,
       3;117, 131, 132;,
       3;119, 118, 133;,
       3;118, 132, 133;,
       3;120, 119, 134;,
       3;119, 133, 134;,
       3;121, 120, 135;,
       3;120, 134, 135;,
       3;122, 121, 136;,
       3;121, 135, 136;,
       3;123, 122, 137;,
       3;122, 136, 137;,
       3;124, 123, 138;,
       3;123, 137, 138;,
       3;125, 124, 139;,
       3;124, 138, 139;,
       3;113, 125, 127;,
       3;125, 139, 127;,
       3;126, 127, 140;,
       3;127, 141, 140;,
       3;128, 126, 142;,
       3;126, 140, 142;,
       3;129, 128, 143;,
       3;128, 142, 143;,
       3;130, 129, 144;,
       3;129, 143, 144;,
       3;131, 130, 145;,
       3;130, 144, 145;,
       3;132, 131, 146;,
       3;131, 145, 146;,
       3;133, 132, 147;,
       3;132, 146, 147;,
       3;134, 133, 148;,
       3;133, 147, 148;,
       3;135, 134, 149;,
       3;134, 148, 149;,
       3;136, 135, 150;,
       3;135, 149, 150;,
       3;137, 136, 151;,
       3;136, 150, 151;,
       3;138, 137, 152;,
       3;137, 151, 152;,
       3;139, 138, 153;,
       3;138, 152, 153;,
       3;127, 139, 141;,
       3;139, 153, 141;,
       3;140, 141, 154;,
       3;141, 155, 154;,
       3;142, 140, 156;,
       3;140, 154, 156;,
       3;143, 142, 157;,
       3;142, 156, 157;,
       3;144, 143, 158;,
       3;143, 157, 158;,
       3;145, 144, 159;,
       3;144, 158, 159;,
       3;146, 145, 160;,
       3;145, 159, 160;,
       3;147, 146, 161;,
       3;146, 160, 161;,
       3;148, 147, 162;,
       3;147, 161, 162;,
       3;149, 148, 163;,
       3;148, 162, 163;,
       3;150, 149, 164;,
       3;149, 163, 164;,
       3;151, 150, 165;,
       3;150, 164, 165;,
       3;152, 151, 166;,
       3;151, 165, 166;,
       3;153, 152, 167;,
       3;152, 166, 167;,
       3;141, 153, 155;,
       3;153, 167, 155;,
       3;154, 155, 168;,
       3;155, 169, 168;,
       3;156, 154, 170;,
       3;154, 168, 170;,
       3;157, 156, 171;,
       3;156, 170, 171;,
       3;158, 157, 172;,
       3;157, 171, 172;,
       3;159, 158, 173;,
       3;158, 172, 173;,
       3;160, 159, 174;,
       3;159, 173, 174;,
       3;161, 160, 175;,
       3;160, 174, 175;,
       3;162, 161, 176;,
       3;161, 175, 176;,
       3;163, 162, 177;,
       3;162, 176, 177;,
       3;164, 163, 178;,
       3;163, 177, 178;,
       3;165, 164, 179;,
       3;164, 178, 179;,
       3;166, 165, 180;,
       3;165, 179, 180;,
       3;167, 166, 181;,
       3;166, 180, 181;,
       3;155, 167, 169;,
       3;167, 181, 169;,
       3;168, 169, 182;,
       3;169, 183, 182;,
       3;170, 168, 184;,
       3;168, 182, 184;,
       3;171, 170, 185;,
       3;170, 184, 185;,
       3;172, 171, 186;,
       3;171, 185, 186;,
       3;173, 172, 187;,
       3;172, 186, 187;,
       3;174, 173, 188;,
       3;173, 187, 188;,
       3;175, 174, 189;,
       3;174, 188, 189;,
       3;176, 175, 190;,
       3;175, 189, 190;,
       3;177, 176, 191;,
       3;176, 190, 191;,
       3;178, 177, 192;,
       3;177, 191, 192;,
       3;179, 178, 193;,
       3;178, 192, 193;,
       3;180, 179, 194;,
       3;179, 193, 194;,
       3;181, 180, 195;,
       3;180, 194, 195;,
       3;169, 181, 183;,
       3;181, 195, 183;,
       3;196, 197, 198;,
       3;197, 199, 198;,
       3;200, 196, 201;,
       3;196, 198, 201;,
       3;202, 200, 203;,
       3;200, 201, 203;,
       3;204, 202, 205;,
       3;202, 203, 205;,
       3;206, 204, 207;,
       3;204, 205, 207;,
       3;208, 206, 209;,
       3;206, 207, 209;,
       3;210, 208, 211;,
       3;208, 209, 211;,
       3;212, 210, 213;,
       3;210, 211, 213;,
       3;214, 212, 215;,
       3;212, 213, 215;,
       3;216, 214, 217;,
       3;214, 215, 217;,
       3;218, 216, 219;,
       3;216, 217, 219;,
       3;220, 218, 221;,
       3;218, 219, 221;,
       3;222, 220, 223;,
       3;220, 221, 223;,
       3;197, 222, 199;,
       3;222, 223, 199;,
       3;198, 199, 224;,
       3;199, 225, 224;,
       3;201, 198, 226;,
       3;198, 224, 226;,
       3;203, 201, 227;,
       3;201, 226, 227;,
       3;205, 203, 228;,
       3;203, 227, 228;,
       3;207, 205, 229;,
       3;205, 228, 229;,
       3;209, 207, 230;,
       3;207, 229, 230;,
       3;211, 209, 231;,
       3;209, 230, 231;,
       3;213, 211, 232;,
       3;211, 231, 232;,
       3;215, 213, 233;,
       3;213, 232, 233;,
       3;217, 215, 234;,
       3;215, 233, 234;,
       3;219, 217, 235;,
       3;217, 234, 235;,
       3;221, 219, 236;,
       3;219, 235, 236;,
       3;223, 221, 237;,
       3;221, 236, 237;,
       3;199, 223, 225;,
       3;223, 237, 225;,
       3;224, 225, 238;,
       3;225, 239, 238;,
       3;226, 224, 240;,
       3;224, 238, 240;,
       3;227, 226, 241;,
       3;226, 240, 241;,
       3;228, 227, 242;,
       3;227, 241, 242;,
       3;229, 228, 243;,
       3;228, 242, 243;,
       3;230, 229, 244;,
       3;229, 243, 244;,
       3;231, 230, 245;,
       3;230, 244, 245;,
       3;232, 231, 246;,
       3;231, 245, 246;,
       3;233, 232, 247;,
       3;232, 246, 247;,
       3;234, 233, 248;,
       3;233, 247, 248;,
       3;235, 234, 249;,
       3;234, 248, 249;,
       3;236, 235, 250;,
       3;235, 249, 250;,
       3;237, 236, 251;,
       3;236, 250, 251;,
       3;225, 237, 239;,
       3;237, 251, 239;,
       3;238, 239, 252;,
       3;239, 253, 252;,
       3;240, 238, 254;,
       3;238, 252, 254;,
       3;241, 240, 255;,
       3;240, 254, 255;,
       3;242, 241, 256;,
       3;241, 255, 256;,
       3;243, 242, 257;,
       3;242, 256, 257;,
       3;244, 243, 258;,
       3;243, 257, 258;,
       3;245, 244, 259;,
       3;244, 258, 259;,
       3;246, 245, 260;,
       3;245, 259, 260;,
       3;247, 246, 261;,
       3;246, 260, 261;,
       3;248, 247, 262;,
       3;247, 261, 262;,
       3;249, 248, 263;,
       3;248, 262, 263;,
       3;250, 249, 264;,
       3;249, 263, 264;,
       3;251, 250, 265;,
       3;250, 264, 265;,
       3;239, 251, 253;,
       3;251, 265, 253;,
       3;252, 253, 48;,
       3;253, 46, 48;,
       3;254, 252, 50;,
       3;252, 48, 50;,
       3;255, 254, 52;,
       3;254, 50, 52;,
       3;256, 255, 54;,
       3;255, 52, 54;,
       3;257, 256, 55;,
       3;256, 54, 55;,
       3;258, 257, 53;,
       3;257, 55, 53;,
       3;259, 258, 51;,
       3;258, 53, 51;,
       3;260, 259, 49;,
       3;259, 51, 49;,
       3;261, 260, 47;,
       3;260, 49, 47;,
       3;262, 261, 45;,
       3;261, 47, 45;,
       3;263, 262, 43;,
       3;262, 45, 43;,
       3;264, 263, 42;,
       3;263, 43, 42;,
       3;265, 264, 44;,
       3;264, 42, 44;,
       3;253, 265, 46;,
       3;265, 44, 46;;
      }

      MeshTextureCoords {
       266;
       0.462547; 0.495637;,
       0.490916; 0.495637;,
       0.462547; 0.454579;,
       0.490916; 0.454579;,
       0.421555; 0.495637;,
       0.421555; 0.454579;,
       0.376050; 0.495637;,
       0.376050; 0.454579;,
       0.335058; 0.495637;,
       0.335058; 0.454579;,
       0.306686; 0.495637;,
       0.306686; 0.454579;,
       0.383344; 0.495637;,
       0.383344; 0.454579;,
       0.306686; 0.495637;,
       0.306686; 0.454579;,
       0.335058; 0.495637;,
       0.335058; 0.454579;,
       0.376050; 0.495637;,
       0.376050; 0.454579;,
       0.421555; 0.495637;,
       0.421555; 0.454579;,
       0.462547; 0.495637;,
       0.462547; 0.454579;,
       0.490916; 0.495637;,
       0.490916; 0.454579;,
       0.409922; 0.495637;,
       0.409922; 0.454579;,
       0.462547; 0.431611;,
       0.490916; 0.431611;,
       0.421555; 0.431611;,
       0.376050; 0.431611;,
       0.335058; 0.431611;,
       0.306686; 0.431611;,
       0.383344; 0.431611;,
       0.306686; 0.431611;,
       0.335058; 0.431611;,
       0.376050; 0.431611;,
       0.421555; 0.431611;,
       0.462547; 0.431611;,
       0.490916; 0.431611;,
       0.409922; 0.431611;,
       0.731783; 0.760256;,
       0.728485; 0.767669;,
       0.737765; 0.744413;,
       0.732459; 0.776496;,
       0.747209; 0.734579;,
       0.741903; 0.782683;,
       0.758695; 0.731162;,
       0.754301; 0.784652;,
       0.770247; 0.733761;,
       0.766945; 0.781749;,
       0.779381; 0.741274;,
       0.777314; 0.774353;,
       0.784120; 0.751998;,
       0.783411; 0.763780;,
       0.378380; 0.385463;,
       0.419225; 0.385463;,
       0.341572; 0.385463;,
       0.316107; 0.385463;,
       0.393795; 0.385463;,
       0.316107; 0.385463;,
       0.341572; 0.385463;,
       0.378380; 0.385463;,
       0.419225; 0.385463;,
       0.456025; 0.385463;,
       0.481498; 0.385463;,
       0.399466; 0.385463;,
       0.481498; 0.385463;,
       0.456025; 0.385463;,
       0.379614; 0.337468;,
       0.417984; 0.337468;,
       0.345041; 0.337468;,
       0.321117; 0.337468;,
       0.399360; 0.337468;,
       0.321117; 0.337468;,
       0.345041; 0.337468;,
       0.379614; 0.337468;,
       0.417984; 0.337468;,
       0.452556; 0.337468;,
       0.476481; 0.337468;,
       0.393901; 0.337468;,
       0.476481; 0.337468;,
       0.452556; 0.337468;,
       0.377759; 0.307562;,
       0.419846; 0.307562;,
       0.339842; 0.307562;,
       0.313602; 0.307562;,
       0.391013; 0.307562;,
       0.313602; 0.307562;,
       0.339842; 0.307562;,
       0.377759; 0.307562;,
       0.419846; 0.307562;,
       0.457764; 0.307562;,
       0.484003; 0.307562;,
       0.402248; 0.307562;,
       0.484003; 0.307562;,
       0.457764; 0.307562;,
       0.371566; 0.262349;,
       0.426032; 0.262349;,
       0.322497; 0.262349;,
       0.288531; 0.262349;,
       0.363195; 0.262349;,
       0.288531; 0.262349;,
       0.322497; 0.262349;,
       0.371566; 0.262349;,
       0.426032; 0.262349;,
       0.475108; 0.262349;,
       0.509069; 0.262349;,
       0.430069; 0.262349;,
       0.509069; 0.262349;,
       0.475108; 0.262349;,
       0.364431; 0.223673;,
       0.433167; 0.223673;,
       0.302501; 0.223673;,
       0.259647; 0.223673;,
       0.331135; 0.223673;,
       0.259647; 0.223673;,
       0.302501; 0.223673;,
       0.364431; 0.223673;,
       0.433167; 0.223673;,
       0.495098; 0.223673;,
       0.537955; 0.223673;,
       0.462129; 0.223673;,
       0.537955; 0.223673;,
       0.495098; 0.223673;,
       0.355456; 0.181936;,
       0.442142; 0.181936;,
       0.277350; 0.181936;,
       0.223300; 0.181936;,
       0.290794; 0.181936;,
       0.223300; 0.181936;,
       0.277350; 0.181936;,
       0.355456; 0.181936;,
       0.442142; 0.181936;,
       0.520251; 0.181936;,
       0.574300; 0.181936;,
       0.502470; 0.181936;,
       0.574300; 0.181936;,
       0.520251; 0.181936;,
       0.349730; 0.147438;,
       0.447875; 0.147438;,
       0.261305; 0.147438;,
       0.200113; 0.147438;,
       0.265058; 0.147438;,
       0.200113; 0.147438;,
       0.261305; 0.147438;,
       0.349730; 0.147438;,
       0.447875; 0.147438;,
       0.536296; 0.147438;,
       0.597487; 0.147438;,
       0.528205; 0.147438;,
       0.597487; 0.147438;,
       0.536296; 0.147438;,
       0.346787; 0.120314;,
       0.450811; 0.120314;,
       0.253067; 0.120314;,
       0.188209; 0.120314;,
       0.251840; 0.120314;,
       0.188209; 0.120314;,
       0.253067; 0.120314;,
       0.346787; 0.120314;,
       0.450811; 0.120314;,
       0.544536; 0.120314;,
       0.609393; 0.120314;,
       0.541420; 0.120314;,
       0.609393; 0.120314;,
       0.544536; 0.120314;,
       0.345706; 0.098749;,
       0.451899; 0.098749;,
       0.250029; 0.098749;,
       0.183820; 0.098749;,
       0.246976; 0.098749;,
       0.183820; 0.098749;,
       0.250029; 0.098749;,
       0.345706; 0.098749;,
       0.451899; 0.098749;,
       0.547571; 0.098749;,
       0.613780; 0.098749;,
       0.546289; 0.098749;,
       0.613780; 0.098749;,
       0.547571; 0.098749;,
       0.345399; 0.073013;,
       0.452206; 0.073013;,
       0.249168; 0.073013;,
       0.182571; 0.073013;,
       0.245581; 0.073013;,
       0.182571; 0.073013;,
       0.249168; 0.073013;,
       0.345399; 0.073013;,
       0.452206; 0.073013;,
       0.548438; 0.073013;,
       0.615033; 0.073013;,
       0.547679; 0.073013;,
       0.615033; 0.073013;,
       0.548438; 0.073013;,
       0.774199; 0.547344;,
       0.664603; 0.557881;,
       0.770302; 0.575512;,
       0.677100; 0.584564;,
       0.870497; 0.582055;,
       0.853954; 0.604367;,
       0.937018; 0.647472;,
       0.912733; 0.660594;,
       0.966209; 0.728724;,
       0.939065; 0.731398;,
       0.956537; 0.811343;,
       0.931144; 0.803863;,
       0.911646; 0.882095;,
       0.892015; 0.866085;,
       0.839638; 0.930007;,
       0.828869; 0.908190;,
       0.752212; 0.947344;,
       0.752168; 0.923262;,
       0.663498; 0.930472;,
       0.674579; 0.908137;,
       0.588683; 0.880521;,
       0.609640; 0.863996;,
       0.542317; 0.803803;,
       0.570157; 0.796699;,
       0.536340; 0.712013;,
       0.566287; 0.716880;,
       0.577645; 0.622345;,
       0.603044; 0.639856;,
       0.767142; 0.602788;,
       0.688530; 0.608785;,
       0.838322; 0.626476;,
       0.889066; 0.673869;,
       0.912247; 0.734319;,
       0.905895; 0.796591;,
       0.872482; 0.850211;,
       0.818237; 0.886493;,
       0.752326; 0.899385;,
       0.685863; 0.886197;,
       0.630647; 0.848107;,
       0.597696; 0.790402;,
       0.595429; 0.722421;,
       0.627164; 0.657363;,
       0.764938; 0.627838;,
       0.700527; 0.635182;,
       0.824534; 0.646879;,
       0.867682; 0.686317;,
       0.887760; 0.737291;,
       0.882705; 0.790156;,
       0.854470; 0.835811;,
       0.808380; 0.866694;,
       0.752383; 0.877570;,
       0.696120; 0.866186;,
       0.649774; 0.833699;,
       0.622716; 0.784829;,
       0.621849; 0.727635;,
       0.648977; 0.673522;,
       0.761450; 0.674393;,
       0.721864; 0.680427;,
       0.799352; 0.685480;,
       0.827673; 0.710289;,
       0.841384; 0.743299;,
       0.838551; 0.778096;,
       0.820173; 0.808412;,
       0.789770; 0.828973;,
       0.752812; 0.836179;,
       0.715965; 0.828599;,
       0.686209; 0.807230;,
       0.669736; 0.775476;,
       0.671268; 0.738611;,
       0.689430; 0.704024;;
      }

      MeshVertexColors {
       266;
       0; 1.000000; 1.000000; 1.000000; 1.000000;,
       1; 1.000000; 1.000000; 1.000000; 1.000000;,
       2; 1.000000; 1.000000; 1.000000; 1.000000;,
       3; 1.000000; 1.000000; 1.000000; 1.000000;,
       4; 1.000000; 1.000000; 1.000000; 1.000000;,
       5; 1.000000; 1.000000; 1.000000; 1.000000;,
       6; 1.000000; 1.000000; 1.000000; 1.000000;,
       7; 1.000000; 1.000000; 1.000000; 1.000000;,
       8; 1.000000; 1.000000; 1.000000; 1.000000;,
       9; 1.000000; 1.000000; 1.000000; 1.000000;,
       10; 1.000000; 1.000000; 1.000000; 1.000000;,
       11; 1.000000; 1.000000; 1.000000; 1.000000;,
       12; 1.000000; 1.000000; 1.000000; 1.000000;,
       13; 1.000000; 1.000000; 1.000000; 1.000000;,
       14; 1.000000; 1.000000; 1.000000; 1.000000;,
       15; 1.000000; 1.000000; 1.000000; 1.000000;,
       16; 1.000000; 1.000000; 1.000000; 1.000000;,
       17; 1.000000; 1.000000; 1.000000; 1.000000;,
       18; 1.000000; 1.000000; 1.000000; 1.000000;,
       19; 1.000000; 1.000000; 1.000000; 1.000000;,
       20; 1.000000; 1.000000; 1.000000; 1.000000;,
       21; 1.000000; 1.000000; 1.000000; 1.000000;,
       22; 1.000000; 1.000000; 1.000000; 1.000000;,
       23; 1.000000; 1.000000; 1.000000; 1.000000;,
       24; 1.000000; 1.000000; 1.000000; 1.000000;,
       25; 1.000000; 1.000000; 1.000000; 1.000000;,
       26; 1.000000; 1.000000; 1.000000; 1.000000;,
       27; 1.000000; 1.000000; 1.000000; 1.000000;,
       28; 1.000000; 1.000000; 1.000000; 1.000000;,
       29; 1.000000; 1.000000; 1.000000; 1.000000;,
       30; 1.000000; 1.000000; 1.000000; 1.000000;,
       31; 1.000000; 1.000000; 1.000000; 1.000000;,
       32; 1.000000; 1.000000; 1.000000; 1.000000;,
       33; 1.000000; 1.000000; 1.000000; 1.000000;,
       34; 1.000000; 1.000000; 1.000000; 1.000000;,
       35; 1.000000; 1.000000; 1.000000; 1.000000;,
       36; 1.000000; 1.000000; 1.000000; 1.000000;,
       37; 1.000000; 1.000000; 1.000000; 1.000000;,
       38; 1.000000; 1.000000; 1.000000; 1.000000;,
       39; 1.000000; 1.000000; 1.000000; 1.000000;,
       40; 1.000000; 1.000000; 1.000000; 1.000000;,
       41; 1.000000; 1.000000; 1.000000; 1.000000;,
       42; 1.000000; 1.000000; 1.000000; 1.000000;,
       43; 1.000000; 1.000000; 1.000000; 1.000000;,
       44; 1.000000; 1.000000; 1.000000; 1.000000;,
       45; 1.000000; 1.000000; 1.000000; 1.000000;,
       46; 1.000000; 1.000000; 1.000000; 1.000000;,
       47; 1.000000; 1.000000; 1.000000; 1.000000;,
       48; 1.000000; 1.000000; 1.000000; 1.000000;,
       49; 1.000000; 1.000000; 1.000000; 1.000000;,
       50; 1.000000; 1.000000; 1.000000; 1.000000;,
       51; 1.000000; 1.000000; 1.000000; 1.000000;,
       52; 1.000000; 1.000000; 1.000000; 1.000000;,
       53; 1.000000; 1.000000; 1.000000; 1.000000;,
       54; 1.000000; 1.000000; 1.000000; 1.000000;,
       55; 1.000000; 1.000000; 1.000000; 1.000000;,
       56; 1.000000; 1.000000; 1.000000; 1.000000;,
       57; 1.000000; 1.000000; 1.000000; 1.000000;,
       58; 1.000000; 1.000000; 1.000000; 1.000000;,
       59; 1.000000; 1.000000; 1.000000; 1.000000;,
       60; 1.000000; 1.000000; 1.000000; 1.000000;,
       61; 1.000000; 1.000000; 1.000000; 1.000000;,
       62; 1.000000; 1.000000; 1.000000; 1.000000;,
       63; 1.000000; 1.000000; 1.000000; 1.000000;,
       64; 1.000000; 1.000000; 1.000000; 1.000000;,
       65; 1.000000; 1.000000; 1.000000; 1.000000;,
       66; 1.000000; 1.000000; 1.000000; 1.000000;,
       67; 1.000000; 1.000000; 1.000000; 1.000000;,
       68; 1.000000; 1.000000; 1.000000; 1.000000;,
       69; 1.000000; 1.000000; 1.000000; 1.000000;,
       70; 1.000000; 1.000000; 1.000000; 1.000000;,
       71; 1.000000; 1.000000; 1.000000; 1.000000;,
       72; 1.000000; 1.000000; 1.000000; 1.000000;,
       73; 1.000000; 1.000000; 1.000000; 1.000000;,
       74; 1.000000; 1.000000; 1.000000; 1.000000;,
       75; 1.000000; 1.000000; 1.000000; 1.000000;,
       76; 1.000000; 1.000000; 1.000000; 1.000000;,
       77; 1.000000; 1.000000; 1.000000; 1.000000;,
       78; 1.000000; 1.000000; 1.000000; 1.000000;,
       79; 1.000000; 1.000000; 1.000000; 1.000000;,
       80; 1.000000; 1.000000; 1.000000; 1.000000;,
       81; 1.000000; 1.000000; 1.000000; 1.000000;,
       82; 1.000000; 1.000000; 1.000000; 1.000000;,
       83; 1.000000; 1.000000; 1.000000; 1.000000;,
       84; 1.000000; 1.000000; 1.000000; 1.000000;,
       85; 1.000000; 1.000000; 1.000000; 1.000000;,
       86; 1.000000; 1.000000; 1.000000; 1.000000;,
       87; 1.000000; 1.000000; 1.000000; 1.000000;,
       88; 1.000000; 1.000000; 1.000000; 1.000000;,
       89; 1.000000; 1.000000; 1.000000; 1.000000;,
       90; 1.000000; 1.000000; 1.000000; 1.000000;,
       91; 1.000000; 1.000000; 1.000000; 1.000000;,
       92; 1.000000; 1.000000; 1.000000; 1.000000;,
       93; 1.000000; 1.000000; 1.000000; 1.000000;,
       94; 1.000000; 1.000000; 1.000000; 1.000000;,
       95; 1.000000; 1.000000; 1.000000; 1.000000;,
       96; 1.000000; 1.000000; 1.000000; 1.000000;,
       97; 1.000000; 1.000000; 1.000000; 1.000000;,
       98; 1.000000; 1.000000; 1.000000; 1.000000;,
       99; 1.000000; 1.000000; 1.000000; 1.000000;,
       100; 1.000000; 1.000000; 1.000000; 1.000000;,
       101; 1.000000; 1.000000; 1.000000; 1.000000;,
       102; 1.000000; 1.000000; 1.000000; 1.000000;,
       103; 1.000000; 1.000000; 1.000000; 1.000000;,
       104; 1.000000; 1.000000; 1.000000; 1.000000;,
       105; 1.000000; 1.000000; 1.000000; 1.000000;,
       106; 1.000000; 1.000000; 1.000000; 1.000000;,
       107; 1.000000; 1.000000; 1.000000; 1.000000;,
       108; 1.000000; 1.000000; 1.000000; 1.000000;,
       109; 1.000000; 1.000000; 1.000000; 1.000000;,
       110; 1.000000; 1.000000; 1.000000; 1.000000;,
       111; 1.000000; 1.000000; 1.000000; 1.000000;,
       112; 1.000000; 1.000000; 1.000000; 1.000000;,
       113; 1.000000; 1.000000; 1.000000; 1.000000;,
       114; 1.000000; 1.000000; 1.000000; 1.000000;,
       115; 1.000000; 1.000000; 1.000000; 1.000000;,
       116; 1.000000; 1.000000; 1.000000; 1.000000;,
       117; 1.000000; 1.000000; 1.000000; 1.000000;,
       118; 1.000000; 1.000000; 1.000000; 1.000000;,
       119; 1.000000; 1.000000; 1.000000; 1.000000;,
       120; 1.000000; 1.000000; 1.000000; 1.000000;,
       121; 1.000000; 1.000000; 1.000000; 1.000000;,
       122; 1.000000; 1.000000; 1.000000; 1.000000;,
       123; 1.000000; 1.000000; 1.000000; 1.000000;,
       124; 1.000000; 1.000000; 1.000000; 1.000000;,
       125; 1.000000; 1.000000; 1.000000; 1.000000;,
       126; 1.000000; 1.000000; 1.000000; 1.000000;,
       127; 1.000000; 1.000000; 1.000000; 1.000000;,
       128; 1.000000; 1.000000; 1.000000; 1.000000;,
       129; 1.000000; 1.000000; 1.000000; 1.000000;,
       130; 1.000000; 1.000000; 1.000000; 1.000000;,
       131; 1.000000; 1.000000; 1.000000; 1.000000;,
       132; 1.000000; 1.000000; 1.000000; 1.000000;,
       133; 1.000000; 1.000000; 1.000000; 1.000000;,
       134; 1.000000; 1.000000; 1.000000; 1.000000;,
       135; 1.000000; 1.000000; 1.000000; 1.000000;,
       136; 1.000000; 1.000000; 1.000000; 1.000000;,
       137; 1.000000; 1.000000; 1.000000; 1.000000;,
       138; 1.000000; 1.000000; 1.000000; 1.000000;,
       139; 1.000000; 1.000000; 1.000000; 1.000000;,
       140; 1.000000; 1.000000; 1.000000; 1.000000;,
       141; 1.000000; 1.000000; 1.000000; 1.000000;,
       142; 1.000000; 1.000000; 1.000000; 1.000000;,
       143; 1.000000; 1.000000; 1.000000; 1.000000;,
       144; 1.000000; 1.000000; 1.000000; 1.000000;,
       145; 1.000000; 1.000000; 1.000000; 1.000000;,
       146; 1.000000; 1.000000; 1.000000; 1.000000;,
       147; 1.000000; 1.000000; 1.000000; 1.000000;,
       148; 1.000000; 1.000000; 1.000000; 1.000000;,
       149; 1.000000; 1.000000; 1.000000; 1.000000;,
       150; 1.000000; 1.000000; 1.000000; 1.000000;,
       151; 1.000000; 1.000000; 1.000000; 1.000000;,
       152; 1.000000; 1.000000; 1.000000; 1.000000;,
       153; 1.000000; 1.000000; 1.000000; 1.000000;,
       154; 1.000000; 1.000000; 1.000000; 1.000000;,
       155; 1.000000; 1.000000; 1.000000; 1.000000;,
       156; 1.000000; 1.000000; 1.000000; 1.000000;,
       157; 1.000000; 1.000000; 1.000000; 1.000000;,
       158; 1.000000; 1.000000; 1.000000; 1.000000;,
       159; 1.000000; 1.000000; 1.000000; 1.000000;,
       160; 1.000000; 1.000000; 1.000000; 1.000000;,
       161; 1.000000; 1.000000; 1.000000; 1.000000;,
       162; 1.000000; 1.000000; 1.000000; 1.000000;,
       163; 1.000000; 1.000000; 1.000000; 1.000000;,
       164; 1.000000; 1.000000; 1.000000; 1.000000;,
       165; 1.000000; 1.000000; 1.000000; 1.000000;,
       166; 1.000000; 1.000000; 1.000000; 1.000000;,
       167; 1.000000; 1.000000; 1.000000; 1.000000;,
       168; 1.000000; 1.000000; 1.000000; 1.000000;,
       169; 1.000000; 1.000000; 1.000000; 1.000000;,
       170; 1.000000; 1.000000; 1.000000; 1.000000;,
       171; 1.000000; 1.000000; 1.000000; 1.000000;,
       172; 1.000000; 1.000000; 1.000000; 1.000000;,
       173; 1.000000; 1.000000; 1.000000; 1.000000;,
       174; 1.000000; 1.000000; 1.000000; 1.000000;,
       175; 1.000000; 1.000000; 1.000000; 1.000000;,
       176; 1.000000; 1.000000; 1.000000; 1.000000;,
       177; 1.000000; 1.000000; 1.000000; 1.000000;,
       178; 1.000000; 1.000000; 1.000000; 1.000000;,
       179; 1.000000; 1.000000; 1.000000; 1.000000;,
       180; 1.000000; 1.000000; 1.000000; 1.000000;,
       181; 1.000000; 1.000000; 1.000000; 1.000000;,
       182; 1.000000; 1.000000; 1.000000; 1.000000;,
       183; 1.000000; 1.000000; 1.000000; 1.000000;,
       184; 1.000000; 1.000000; 1.000000; 1.000000;,
       185; 1.000000; 1.000000; 1.000000; 1.000000;,
       186; 1.000000; 1.000000; 1.000000; 1.000000;,
       187; 1.000000; 1.000000; 1.000000; 1.000000;,
       188; 1.000000; 1.000000; 1.000000; 1.000000;,
       189; 1.000000; 1.000000; 1.000000; 1.000000;,
       190; 1.000000; 1.000000; 1.000000; 1.000000;,
       191; 1.000000; 1.000000; 1.000000; 1.000000;,
       192; 1.000000; 1.000000; 1.000000; 1.000000;,
       193; 1.000000; 1.000000; 1.000000; 1.000000;,
       194; 1.000000; 1.000000; 1.000000; 1.000000;,
       195; 1.000000; 1.000000; 1.000000; 1.000000;,
       196; 1.000000; 1.000000; 1.000000; 1.000000;,
       197; 1.000000; 1.000000; 1.000000; 1.000000;,
       198; 1.000000; 1.000000; 1.000000; 1.000000;,
       199; 1.000000; 1.000000; 1.000000; 1.000000;,
       200; 1.000000; 1.000000; 1.000000; 1.000000;,
       201; 1.000000; 1.000000; 1.000000; 1.000000;,
       202; 1.000000; 1.000000; 1.000000; 1.000000;,
       203; 1.000000; 1.000000; 1.000000; 1.000000;,
       204; 1.000000; 1.000000; 1.000000; 1.000000;,
       205; 1.000000; 1.000000; 1.000000; 1.000000;,
       206; 1.000000; 1.000000; 1.000000; 1.000000;,
       207; 1.000000; 1.000000; 1.000000; 1.000000;,
       208; 1.000000; 1.000000; 1.000000; 1.000000;,
       209; 1.000000; 1.000000; 1.000000; 1.000000;,
       210; 1.000000; 1.000000; 1.000000; 1.000000;,
       211; 1.000000; 1.000000; 1.000000; 1.000000;,
       212; 1.000000; 1.000000; 1.000000; 1.000000;,
       213; 1.000000; 1.000000; 1.000000; 1.000000;,
       214; 1.000000; 1.000000; 1.000000; 1.000000;,
       215; 1.000000; 1.000000; 1.000000; 1.000000;,
       216; 1.000000; 1.000000; 1.000000; 1.000000;,
       217; 1.000000; 1.000000; 1.000000; 1.000000;,
       218; 1.000000; 1.000000; 1.000000; 1.000000;,
       219; 1.000000; 1.000000; 1.000000; 1.000000;,
       220; 1.000000; 1.000000; 1.000000; 1.000000;,
       221; 1.000000; 1.000000; 1.000000; 1.000000;,
       222; 1.000000; 1.000000; 1.000000; 1.000000;,
       223; 1.000000; 1.000000; 1.000000; 1.000000;,
       224; 1.000000; 1.000000; 1.000000; 1.000000;,
       225; 1.000000; 1.000000; 1.000000; 1.000000;,
       226; 1.000000; 1.000000; 1.000000; 1.000000;,
       227; 1.000000; 1.000000; 1.000000; 1.000000;,
       228; 1.000000; 1.000000; 1.000000; 1.000000;,
       229; 1.000000; 1.000000; 1.000000; 1.000000;,
       230; 1.000000; 1.000000; 1.000000; 1.000000;,
       231; 1.000000; 1.000000; 1.000000; 1.000000;,
       232; 1.000000; 1.000000; 1.000000; 1.000000;,
       233; 1.000000; 1.000000; 1.000000; 1.000000;,
       234; 1.000000; 1.000000; 1.000000; 1.000000;,
       235; 1.000000; 1.000000; 1.000000; 1.000000;,
       236; 1.000000; 1.000000; 1.000000; 1.000000;,
       237; 1.000000; 1.000000; 1.000000; 1.000000;,
       238; 1.000000; 1.000000; 1.000000; 1.000000;,
       239; 1.000000; 1.000000; 1.000000; 1.000000;,
       240; 1.000000; 1.000000; 1.000000; 1.000000;,
       241; 1.000000; 1.000000; 1.000000; 1.000000;,
       242; 1.000000; 1.000000; 1.000000; 1.000000;,
       243; 1.000000; 1.000000; 1.000000; 1.000000;,
       244; 1.000000; 1.000000; 1.000000; 1.000000;,
       245; 1.000000; 1.000000; 1.000000; 1.000000;,
       246; 1.000000; 1.000000; 1.000000; 1.000000;,
       247; 1.000000; 1.000000; 1.000000; 1.000000;,
       248; 1.000000; 1.000000; 1.000000; 1.000000;,
       249; 1.000000; 1.000000; 1.000000; 1.000000;,
       250; 1.000000; 1.000000; 1.000000; 1.000000;,
       251; 1.000000; 1.000000; 1.000000; 1.000000;,
       252; 1.000000; 1.000000; 1.000000; 1.000000;,
       253; 1.000000; 1.000000; 1.000000; 1.000000;,
       254; 1.000000; 1.000000; 1.000000; 1.000000;,
       255; 1.000000; 1.000000; 1.000000; 1.000000;,
       256; 1.000000; 1.000000; 1.000000; 1.000000;,
       257; 1.000000; 1.000000; 1.000000; 1.000000;,
       258; 1.000000; 1.000000; 1.000000; 1.000000;,
       259; 1.000000; 1.000000; 1.000000; 1.000000;,
       260; 1.000000; 1.000000; 1.000000; 1.000000;,
       261; 1.000000; 1.000000; 1.000000; 1.000000;,
       262; 1.000000; 1.000000; 1.000000; 1.000000;,
       263; 1.000000; 1.000000; 1.000000; 1.000000;,
       264; 1.000000; 1.000000; 1.000000; 1.000000;,
       265; 1.000000; 1.000000; 1.000000; 1.000000;;
      }

      MeshMaterialList {
       1;
       500;
       0,
       0,
       0,
       0,
       0,
       0,
       0,
       0,
       0,
       0,
       0,
       0,
       0,
       0,
       0,
       0,
       0,
       0,
       0,
       0,
       0,
       0,
       0,
       0,
       0,
       0,
       0,
       0,
       0,
       0,
       0,
       0,
       0,
       0,
       0,
       0,
       0,
       0,
       0,
       0,
       0,
       0,
       0,
       0,
       0,
       0,
       0,
       0,
       0,
       0,
       0,
       0,
       0,
       0,
       0,
       0,
       0,
       0,
       0,
       0,
       0,
       0,
       0,
       0,
       0,
       0,
       0,
       0,
       0,
       0,
       0,
       0,
       0,
       0,
       0,
       0,
       0,
       0,
       0,
       0,
       0,
       0,
       0,
       0,
       0,
       0,
       0,
       0,
       0,
       0,
       0,
       0,
       0,
       0,
       0,
       0,
       0,
       0,
       0,
       0,
       0,
       0,
       0,
       0,
       0,
       0,
       0,
       0,
       0,
       0,
       0,
       0,
       0,
       0,
       0,
       0,
       0,
       0,
       0,
       0,
       0,
       0,
       0,
       0,
       0,
       0,
       0,
       0,
       0,
       0,
       0,
       0,
       0,
       0,
       0,
       0,
       0,
       0,
       0,
       0,
       0,
       0,
       0,
       0,
       0,
       0,
       0,
       0,
       0,
       0,
       0,
       0,
       0,
       0,
       0,
       0,
       0,
       0,
       0,
       0,
       0,
       0,
       0,
       0,
       0,
       0,
       0,
       0,
       0,
       0,
       0,
       0,
       0,
       0,
       0,
       0,
       0,
       0,
       0,
       0,
       0,
       0,
       0,
       0,
       0,
       0,
       0,
       0,
       0,
       0,
       0,
       0,
       0,
       0,
       0,
       0,
       0,
       0,
       0,
       0,
       0,
       0,
       0,
       0,
       0,
       0,
       0,
       0,
       0,
       0,
       0,
       0,
       0,
       0,
       0,
       0,
       0,
       0,
       0,
       0,
       0,
       0,
       0,
       0,
       0,
       0,
       0,
       0,
       0,
       0,
       0,
       0,
       0,
       0,
       0,
       0,
       0,
       0,
       0,
       0,
       0,
       0,
       0,
       0,
       0,
       0,
       0,
       0,
       0,
       0,
       0,
       0,
       0,
       0,
       0,
       0,
       0,
       0,
       0,
       0,
       0,
       0,
       0,
       0,
       0,
       0,
       0,
       0,
       0,
       0,
       0,
       0,
       0,
       0,
       0,
       0,
       0,
       0,
       0,
       0,
       0,
       0,
       0,
       0,
       0,
       0,
       0,
       0,
       0,
       0,
       0,
       0,
       0,
       0,
       0,
       0,
       0,
       0,
       0,
       0,
       0,
       0,
       0,
       0,
       0,
       0,
       0,
       0,
       0,
       0,
       0,
       0,
       0,
       0,
       0,
       0,
       0,
       0,
       0,
       0,
       0,
       0,
       0,
       0,
       0,
       0,
       0,
       0,
       0,
       0,
       0,
       0,
       0,
       0,
       0,
       0,
       0,
       0,
       0,
       0,
       0,
       0,
       0,
       0,
       0,
       0,
       0,
       0,
       0,
       0,
       0,
       0,
       0,
       0,
       0,
       0,
       0,
       0,
       0,
       0,
       0,
       0,
       0,
       0,
       0,
       0,
       0,
       0,
       0,
       0,
       0,
       0,
       0,
       0,
       0,
       0,
       0,
       0,
       0,
       0,
       0,
       0,
       0,
       0,
       0,
       0,
       0,
       0,
       0,
       0,
       0,
       0,
       0,
       0,
       0,
       0,
       0,
       0,
       0,
       0,
       0,
       0,
       0,
       0,
       0,
       0,
       0,
       0,
       0,
       0,
       0,
       0,
       0,
       0,
       0,
       0,
       0,
       0,
       0,
       0,
       0,
       0,
       0,
       0,
       0,
       0,
       0,
       0,
       0,
       0,
       0,
       0,
       0,
       0,
       0,
       0,
       0,
       0,
       0,
       0,
       0,
       0,
       0,
       0,
       0,
       0,
       0,
       0,
       0,
       0,
       0,
       0,
       0,
       0,
       0,
       0,
       0,
       0,
       0,
       0,
       0,
       0,
       0,
       0,
       0,
       0,
       0,
       0,
       0,
       0,
       0,
       0,
       0,
       0,
       0,
       0,
       0,
       0,
       0,
       0,
       0,
       0,
       0,
       0,
       0,
       0,
       0,
       0,
       0,
       0,
       0,
       0,
       0,
       0,
       0,
       0,
       0,
       0,
       0,
       0;

       Material def_surf_mat {
        0.992157; 0.992157; 0.992157; 1.000000;;
        1.000000;
        0.150000; 0.150000; 0.150000;;
        0.000000; 0.000000; 0.000000;;

        TextureFilename {
         "herb_pot.dds";
        }
       }

      }

      XSkinMeshHeader {
       1;
       1;
       1;
      }

      SkinWeights {
       "Body";
       266;
       0,
       1,
       2,
       3,
       4,
       5,
       6,
       7,
       8,
       9,
       10,
       11,
       12,
       13,
       14,
       15,
       16,
       17,
       18,
       19,
       20,
       21,
       22,
       23,
       24,
       25,
       26,
       27,
       28,
       29,
       30,
       31,
       32,
       33,
       34,
       35,
       36,
       37,
       38,
       39,
       40,
       41,
       42,
       43,
       44,
       45,
       46,
       47,
       48,
       49,
       50,
       51,
       52,
       53,
       54,
       55,
       56,
       57,
       58,
       59,
       60,
       61,
       62,
       63,
       64,
       65,
       66,
       67,
       68,
       69,
       70,
       71,
       72,
       73,
       74,
       75,
       76,
       77,
       78,
       79,
       80,
       81,
       82,
       83,
       84,
       85,
       86,
       87,
       88,
       89,
       90,
       91,
       92,
       93,
       94,
       95,
       96,
       97,
       98,
       99,
       100,
       101,
       102,
       103,
       104,
       105,
       106,
       107,
       108,
       109,
       110,
       111,
       112,
       113,
       114,
       115,
       116,
       117,
       118,
       119,
       120,
       121,
       122,
       123,
       124,
       125,
       126,
       127,
       128,
       129,
       130,
       131,
       132,
       133,
       134,
       135,
       136,
       137,
       138,
       139,
       140,
       141,
       142,
       143,
       144,
       145,
       146,
       147,
       148,
       149,
       150,
       151,
       152,
       153,
       154,
       155,
       156,
       157,
       158,
       159,
       160,
       161,
       162,
       163,
       164,
       165,
       166,
       167,
       168,
       169,
       170,
       171,
       172,
       173,
       174,
       175,
       176,
       177,
       178,
       179,
       180,
       181,
       182,
       183,
       184,
       185,
       186,
       187,
       188,
       189,
       190,
       191,
       192,
       193,
       194,
       195,
       196,
       197,
       198,
       199,
       200,
       201,
       202,
       203,
       204,
       205,
       206,
       207,
       208,
       209,
       210,
       211,
       212,
       213,
       214,
       215,
       216,
       217,
       218,
       219,
       220,
       221,
       222,
       223,
       224,
       225,
       226,
       227,
       228,
       229,
       230,
       231,
       232,
       233,
       234,
       235,
       236,
       237,
       238,
       239,
       240,
       241,
       242,
       243,
       244,
       245,
       246,
       247,
       248,
       249,
       250,
       251,
       252,
       253,
       254,
       255,
       256,
       257,
       258,
       259,
       260,
       261,
       262,
       263,
       264,
       265;
       1.000000,
       1.000000,
       1.000000,
       1.000000,
       1.000000,
       1.000000,
       1.000000,
       1.000000,
       1.000000,
       1.000000,
       1.000000,
       1.000000,
       1.000000,
       1.000000,
       1.000000,
       1.000000,
       1.000000,
       1.000000,
       1.000000,
       1.000000,
       1.000000,
       1.000000,
       1.000000,
       1.000000,
       1.000000,
       1.000000,
       1.000000,
       1.000000,
       1.000000,
       1.000000,
       1.000000,
       1.000000,
       1.000000,
       1.000000,
       1.000000,
       1.000000,
       1.000000,
       1.000000,
       1.000000,
       1.000000,
       1.000000,
       1.000000,
       1.000000,
       1.000000,
       1.000000,
       1.000000,
       1.000000,
       1.000000,
       1.000000,
       1.000000,
       1.000000,
       1.000000,
       1.000000,
       1.000000,
       1.000000,
       1.000000,
       1.000000,
       1.000000,
       1.000000,
       1.000000,
       1.000000,
       1.000000,
       1.000000,
       1.000000,
       1.000000,
       1.000000,
       1.000000,
       1.000000,
       1.000000,
       1.000000,
       1.000000,
       1.000000,
       1.000000,
       1.000000,
       1.000000,
       1.000000,
       1.000000,
       1.000000,
       1.000000,
       1.000000,
       1.000000,
       1.000000,
       1.000000,
       1.000000,
       1.000000,
       1.000000,
       1.000000,
       1.000000,
       1.000000,
       1.000000,
       1.000000,
       1.000000,
       1.000000,
       1.000000,
       1.000000,
       1.000000,
       1.000000,
       1.000000,
       1.000000,
       1.000000,
       1.000000,
       1.000000,
       1.000000,
       1.000000,
       1.000000,
       1.000000,
       1.000000,
       1.000000,
       1.000000,
       1.000000,
       1.000000,
       1.000000,
       1.000000,
       1.000000,
       1.000000,
       1.000000,
       1.000000,
       1.000000,
       1.000000,
       1.000000,
       1.000000,
       1.000000,
       1.000000,
       1.000000,
       1.000000,
       1.000000,
       1.000000,
       1.000000,
       1.000000,
       1.000000,
       1.000000,
       1.000000,
       1.000000,
       1.000000,
       1.000000,
       1.000000,
       1.000000,
       1.000000,
       1.000000,
       1.000000,
       1.000000,
       1.000000,
       1.000000,
       1.000000,
       1.000000,
       1.000000,
       1.000000,
       1.000000,
       1.000000,
       1.000000,
       1.000000,
       1.000000,
       1.000000,
       1.000000,
       1.000000,
       1.000000,
       1.000000,
       1.000000,
       1.000000,
       1.000000,
       1.000000,
       1.000000,
       1.000000,
       1.000000,
       1.000000,
       1.000000,
       1.000000,
       1.000000,
       1.000000,
       1.000000,
       1.000000,
       1.000000,
       1.000000,
       1.000000,
       1.000000,
       1.000000,
       1.000000,
       1.000000,
       1.000000,
       1.000000,
       1.000000,
       1.000000,
       1.000000,
       1.000000,
       1.000000,
       1.000000,
       1.000000,
       1.000000,
       1.000000,
       1.000000,
       1.000000,
       1.000000,
       1.000000,
       1.000000,
       1.000000,
       1.000000,
       1.000000,
       1.000000,
       1.000000,
       1.000000,
       1.000000,
       1.000000,
       1.000000,
       1.000000,
       1.000000,
       1.000000,
       1.000000,
       1.000000,
       1.000000,
       1.000000,
       1.000000,
       1.000000,
       1.000000,
       1.000000,
       1.000000,
       1.000000,
       1.000000,
       1.000000,
       1.000000,
       1.000000,
       1.000000,
       1.000000,
       1.000000,
       1.000000,
       1.000000,
       1.000000,
       1.000000,
       1.000000,
       1.000000,
       1.000000,
       1.000000,
       1.000000,
       1.000000,
       1.000000,
       1.000000,
       1.000000,
       1.000000,
       1.000000,
       1.000000,
       1.000000,
       1.000000,
       1.000000,
       1.000000,
       1.000000,
       1.000000,
       1.000000,
       1.000000,
       1.000000,
       1.000000,
       1.000000,
       1.000000,
       1.000000,
       1.000000,
       1.000000,
       1.000000,
       1.000000,
       1.000000,
       1.000000,
       1.000000,
       1.000000,
       1.000000,
       1.000000,
       1.000000,
       1.000000,
       1.000000,
       1.000000;
          1.000000, -0.000000, 0.000000, 0.000000,
          -0.000000, 1.000000, -0.000000, 0.000000,
          0.000000, -0.000000, 1.000000, 0.000000,
          -0.000000, -0.000000, -0.000000, 1.000000;;
      }


     }
   }

// Start of Animation

AnimationSet Untitled {
}
