xof 0303txt 0032

// DirectX 9.0 file
// Creator: Ultimate Unwrap3D Pro v3.19
// Website: http://www.unwrap3d.com
// Time: Thu Dec 10 21:42:33 2009

// Start of Templates

template VertexDuplicationIndices {
 <b8d65549-d7c9-4995-89cf-53a9a8b031e3>
 DWORD nIndices;
 DWORD nOriginalVertices;
 array DWORD indices[nIndices];
}

template FVFData {
 <b6e70a0e-8ef9-4e83-94ad-ecc8b0c04897>
 DWORD dwFVF;
 DWORD nDWords;
 array DWORD data[nDWords];
}

template Header {
 <3D82AB43-62DA-11cf-AB39-0020AF71E433>
 WORD major;
 WORD minor;
 DWORD flags;
}

template Vector {
 <3D82AB5E-62DA-11cf-AB39-0020AF71E433>
 FLOAT x;
 FLOAT y;
 FLOAT z;
}

template Coords2d {
 <F6F23F44-7686-11cf-8F52-0040333594A3>
 FLOAT u;
 FLOAT v;
}

template Matrix4x4 {
 <F6F23F45-7686-11cf-8F52-0040333594A3>
 array FLOAT matrix[16];
}

template ColorRGBA {
 <35FF44E0-6C7C-11cf-8F52-0040333594A3>
 FLOAT red;
 FLOAT green;
 FLOAT blue;
 FLOAT alpha;
}

template ColorRGB {
 <D3E16E81-7835-11cf-8F52-0040333594A3>
 FLOAT red;
 FLOAT green;
 FLOAT blue;
}

template IndexedColor {
 <1630B820-7842-11cf-8F52-0040333594A3>
 DWORD index;
 ColorRGBA indexColor;
}

template Material {
 <3D82AB4D-62DA-11cf-AB39-0020AF71E433>
 ColorRGBA faceColor;
 FLOAT power;
 ColorRGB specularColor;
 ColorRGB emissiveColor;
 [...]
}

template TextureFilename {
 <A42790E1-7810-11cf-8F52-0040333594A3>
 STRING filename;
}

template MeshFace {
 <3D82AB5F-62DA-11cf-AB39-0020AF71E433>
 DWORD nFaceVertexIndices;
 array DWORD faceVertexIndices[nFaceVertexIndices];
}

template MeshTextureCoords {
 <F6F23F40-7686-11cf-8F52-0040333594A3>
 DWORD nTextureCoords;
 array Coords2d textureCoords[nTextureCoords];
}

template MeshMaterialList {
 <F6F23F42-7686-11cf-8F52-0040333594A3>
 DWORD nMaterials;
 DWORD nFaceIndexes;
 array DWORD faceIndexes[nFaceIndexes];
 [Material]
}

template MeshNormals {
 <F6F23F43-7686-11cf-8F52-0040333594A3>
 DWORD nNormals;
 array Vector normals[nNormals];
 DWORD nFaceNormals;
 array MeshFace faceNormals[nFaceNormals];
}

template MeshVertexColors {
 <1630B821-7842-11cf-8F52-0040333594A3>
 DWORD nVertexColors;
 array IndexedColor vertexColors[nVertexColors];
}

template Mesh {
 <3D82AB44-62DA-11cf-AB39-0020AF71E433>
 DWORD nVertices;
 array Vector vertices[nVertices];
 DWORD nFaces;
 array MeshFace faces[nFaces];
 [...]
}

template FrameTransformMatrix {
 <F6F23F41-7686-11cf-8F52-0040333594A3>
 Matrix4x4 frameMatrix;
}

template Frame {
 <3D82AB46-62DA-11cf-AB39-0020AF71E433>
 [...]
}

template FloatKeys {
 <10DD46A9-775B-11cf-8F52-0040333594A3>
 DWORD nValues;
 array FLOAT values[nValues];
}

template TimedFloatKeys {
 <F406B180-7B3B-11cf-8F52-0040333594A3>
 DWORD time;
 FloatKeys tfkeys;
}

template AnimationKey {
 <10DD46A8-775B-11cf-8F52-0040333594A3>
 DWORD keyType;
 DWORD nKeys;
 array TimedFloatKeys keys[nKeys];
}

template AnimationOptions {
 <E2BF56C0-840F-11cf-8F52-0040333594A3>
 DWORD openclosed;
 DWORD positionquality;
}

template Animation {
 <3D82AB4F-62DA-11cf-AB39-0020AF71E433>
 [...]
}

template AnimationSet {
 <3D82AB50-62DA-11cf-AB39-0020AF71E433>
 [Animation]
}

template XSkinMeshHeader {
 <3CF169CE-FF7C-44ab-93C0-F78F62D172E2>
 WORD nMaxSkinWeightsPerVertex;
 WORD nMaxSkinWeightsPerFace;
 WORD nBones;
}

template SkinWeights {
 <6F0D123B-BAD2-4167-A0D0-80224F25FABB>
 STRING transformNodeName;
 DWORD nWeights;
 array DWORD vertexIndices[nWeights];
 array FLOAT weights[nWeights];
 Matrix4x4 matrixOffset;
}

template AnimTicksPerSecond {
 <9E415A43-7BA6-4a73-8743-B73D47E88476>
 DWORD AnimTicksPerSecond;
}

AnimTicksPerSecond {
 30;
}

// Start of Frames

   Frame Body {
      FrameTransformMatrix {
       1.000000, 0.000000, 0.000000, 0.000000,
       0.000000, 1.000000, 0.000000, 0.000000,
       0.000000, 0.000000, 1.000000, 0.000000,
       0.000000, 0.000000, 0.000000, 1.000000;;
      }

   }
   Frame Body0 {
      FrameTransformMatrix {
       1.000000, 0.000000, 0.000000, 0.000000,
       0.000000, 1.000000, 0.000000, 0.000000,
       0.000000, 0.000000, 1.000000, 0.000000,
       0.000000, 0.000000, 0.000000, 1.000000;;
      }

   }
   Frame def_surf_mat {
      FrameTransformMatrix {
       1.000000, 0.000000, 0.000000, 0.000000,
       0.000000, 1.000000, 0.000000, 0.000000,
       0.000000, 0.000000, 1.000000, 0.000000,
       0.000000, 0.000000, 0.000000, 1.000000;;
      }

   }

   Frame Body00 {
      FrameTransformMatrix {
       1.000000, 0.000000, 0.000000, 0.000000,
       0.000000, 1.000000, 0.000000, 0.000000,
       0.000000, 0.000000, 1.000000, 0.000000,
       0.000000, 0.000000, 0.000000, 1.000000;;
      }

      Mesh skinnedMesh {
       264;
       -9.985703; 37.463646; 4.243904;,
       -12.469500; 61.614246; 9.504401;,
       -13.277099; 37.463646; 4.243904;,
       -9.985703; 63.479748; 9.910701;,
       -16.393599; 38.545845; -0.724495;,
       -14.649199; 63.125942; 4.629505;,
       -15.565299; 68.025444; 5.696704;,
       -15.456702; 38.545845; -0.724495;,
       -0.000002; 64.592644; 10.153102;,
       -6.258300; 37.463646; 4.243904;,
       -0.000002; 37.595146; 3.640102;,
       -6.258300; 63.985645; 10.020904;,
       -9.985703; 69.138344; 5.939102;,
       -6.258300; 66.300644; 5.321002;,
       -6.258300; 69.644142; 6.049304;,
       -9.985703; 65.794846; 5.210903;,
       -0.000002; 4.226910; -2.995697;,
       -6.258300; 4.226910; -2.995697;,
       -6.258300; 1.619610; -8.767699;,
       -0.000002; 4.052570; -8.237792;,
       -6.258300; 4.052570; -8.237792;,
       -0.000002; 1.751129; -9.371596;,
       -9.985703; 4.935051; -2.841400;,
       -11.541800; 6.124350; -2.582397;,
       -13.721400; 6.054050; -7.801795;,
       -14.633399; 5.565151; -7.908295;,
       -9.985703; 2.327778; -8.613494;,
       -9.985703; 4.760750; -8.083495;,
       -6.258300; 66.300644; 5.321002;,
       -0.000002; 64.592644; 10.153102;,
       -0.000002; 66.907639; 5.453303;,
       -6.258300; 63.985645; 10.020904;,
       -9.985703; 65.794846; 5.210903;,
       -9.985703; 63.479748; 9.910701;,
       -14.649199; 63.125942; 4.629505;,
       -12.469500; 61.614246; 9.504401;,
       -15.456702; 38.545845; -0.724495;,
       -12.469500; 61.614246; 9.504401;,
       -14.649199; 63.125942; 4.629505;,
       -13.277099; 37.463646; 4.243904;,
       -13.721400; 6.054050; -7.801795;,
       -11.541800; 6.124350; -2.582397;,
       -9.985703; 4.760750; -8.083495;,
       -11.541800; 6.124350; -2.582397;,
       -13.721400; 6.054050; -7.801795;,
       -9.985703; 4.935051; -2.841400;,
       -6.258300; 4.052570; -8.237792;,
       -6.258300; 4.226910; -2.995697;,
       -0.000002; 4.052570; -8.237792;,
       -0.000002; 4.226910; -2.995697;,
       -9.646399; 62.752445; 8.970801;,
       -12.393302; 37.656445; 3.401703;,
       -11.707702; 61.365047; 8.563601;,
       -9.985703; 37.726646; 3.036304;,
       -14.572902; 38.738647; -1.566696;,
       -15.565299; 68.288544; 4.489105;,
       -13.887301; 62.876743; 3.688702;,
       -16.393599; 38.808945; -1.932098;,
       -6.115402; 63.312145; 8.609303;,
       -0.000002; 37.595146; 3.640102;,
       -6.258300; 37.726646; 3.036304;,
       -0.000002; 63.914646; 8.740504;,
       -6.258300; 69.907143; 4.841702;,
       -0.000002; 66.229744; 4.040604;,
       -6.115402; 65.627243; 3.909405;,
       -0.000002; 70.382645; 5.577702;,
       -9.646399; 65.067543; 4.270905;,
       -9.985703; 69.401344; 4.731503;,
       -6.142803; 5.430250; -3.998497;,
       -0.000002; 5.430250; -3.998497;,
       -0.000002; 1.751129; -9.371596;,
       -6.142803; 5.255850; -9.240592;,
       -0.000002; 5.255850; -9.240592;,
       -6.258300; 1.882648; -9.975394;,
       -10.839202; 6.784649; -3.355698;,
       -9.684001; 5.993149; -3.404495;,
       -14.633399; 5.828251; -9.115996;,
       -13.018802; 6.714451; -8.575095;,
       -9.684001; 5.818850; -8.646598;,
       -9.985703; 2.590832; -9.821097;,
       -6.258300; 69.907143; 4.841702;,
       -6.258300; 69.644142; 6.049304;,
       -0.000002; 70.382645; 5.577702;,
       -16.393599; 38.808945; -1.932098;,
       -15.565299; 68.025444; 5.696704;,
       -15.565299; 68.288544; 4.489105;,
       -16.393599; 38.545845; -0.724495;,
       -14.633399; 5.828251; -9.115996;,
       -14.633399; 5.565151; -7.908295;,
       -9.985703; 69.401344; 4.731503;,
       -9.985703; 69.138344; 5.939102;,
       -6.258300; 1.882648; -9.975394;,
       -0.000002; 1.751129; -9.371596;,
       -6.258300; 1.619610; -8.767699;,
       -9.985703; 2.327778; -8.613494;,
       -9.985703; 2.590832; -9.821097;,
       -13.166800; 68.503845; 5.800902;,
       -14.649199; 63.125942; 4.629505;,
       -15.565299; 68.025444; 5.696704;,
       -13.166800; 68.766846; 4.593304;,
       -13.166800; 68.766846; 4.593304;,
       -13.166800; 68.503845; 5.800902;,
       -15.529202; 72.471939; 5.506905;,
       -13.535102; 72.243439; 6.508803;,
       -13.535102; 72.462044; 5.504803;,
       -15.529202; 72.253242; 6.511002;,
       -15.529202; 72.471939; 5.506905;,
       -15.529202; 72.253242; 6.511002;,
       -15.529202; 72.253242; 6.511002;,
       -13.166800; 68.503845; 5.800902;,
       -13.535102; 72.243439; 6.508803;,
       -13.535102; 72.462044; 5.504803;,
       -15.565299; 68.288544; 4.489105;,
       -15.529202; 72.471939; 5.506905;,
       -13.166800; 68.766846; 4.593304;,
       -13.535102; 72.243439; 6.508803;,
       -13.166800; 68.766846; 4.593304;,
       -13.535102; 72.462044; 5.504803;,
       -13.166800; 68.503845; 5.800902;,
       -12.613200; 4.157940; -8.214797;,
       -13.721400; 6.054050; -7.801795;,
       -14.633399; 5.565151; -7.908295;,
       -12.613200; 4.420950; -9.422492;,
       -12.951800; 0.182991; -10.153098;,
       -14.357200; 0.055500; -9.300895;,
       -14.357200; 0.238491; -10.140998;,
       -12.951800; 0.000000; -9.312995;,
       -12.613200; 4.157940; -8.214797;,
       -12.613200; 4.420950; -9.422492;,
       -14.357200; 0.055500; -9.300895;,
       -14.357200; 0.238491; -10.140998;,
       -12.951800; 0.000000; -9.312995;,
       -14.357200; 0.055500; -9.300895;,
       -12.613200; 4.157940; -8.214797;,
       -14.357200; 0.238491; -10.140998;,
       -12.613200; 4.420950; -9.422492;,
       -12.951800; 0.182991; -10.153098;,
       -14.633399; 5.828251; -9.115996;,
       -12.951800; 0.182991; -10.153098;,
       -12.613200; 4.157940; -8.214797;,
       -12.951800; 0.000000; -9.312995;,
       -12.613200; 4.420950; -9.422492;,
       9.985600; 63.479748; 9.910701;,
       13.277098; 37.463646; 4.243904;,
       12.469498; 61.614246; 9.504401;,
       9.985600; 37.463646; 4.243904;,
       15.456697; 38.545845; -0.724495;,
       15.565198; 68.025444; 5.696704;,
       14.649097; 63.125942; 4.629505;,
       16.393599; 38.545845; -0.724495;,
       6.258197; 63.985645; 10.020904;,
       6.258197; 37.463646; 4.243904;,
       9.985600; 65.794846; 5.210903;,
       6.258197; 69.644142; 6.049304;,
       6.258197; 66.300644; 5.321002;,
       9.985600; 69.138344; 5.939102;,
       6.258197; 4.226910; -2.995697;,
       6.258197; 4.052570; -8.237792;,
       6.258197; 1.619610; -8.767699;,
       11.541698; 6.124350; -2.582397;,
       9.985600; 4.935051; -2.841400;,
       14.633398; 5.565151; -7.908295;,
       13.721297; 6.054050; -7.801795;,
       9.985600; 4.760750; -8.083495;,
       9.985600; 2.327778; -8.613494;,
       6.258197; 63.985645; 10.020904;,
       6.258197; 66.300644; 5.321002;,
       9.985600; 63.479748; 9.910701;,
       6.258197; 66.300644; 5.321002;,
       6.258197; 63.985645; 10.020904;,
       9.985600; 65.794846; 5.210903;,
       12.469498; 61.614246; 9.504401;,
       14.649097; 63.125942; 4.629505;,
       13.277098; 37.463646; 4.243904;,
       14.649097; 63.125942; 4.629505;,
       12.469498; 61.614246; 9.504401;,
       15.456697; 38.545845; -0.724495;,
       11.541698; 6.124350; -2.582397;,
       13.721297; 6.054050; -7.801795;,
       9.985600; 4.935051; -2.841400;,
       13.721297; 6.054050; -7.801795;,
       11.541698; 6.124350; -2.582397;,
       9.985600; 4.760750; -8.083495;,
       6.258197; 4.226910; -2.995697;,
       6.258197; 4.052570; -8.237792;,
       9.985600; 37.726646; 3.036304;,
       11.707698; 61.365047; 8.563601;,
       12.393298; 37.656445; 3.401703;,
       9.646298; 62.752445; 8.970801;,
       16.393599; 38.808945; -1.932098;,
       13.887298; 62.876743; 3.688702;,
       15.565198; 68.288544; 4.489105;,
       14.572898; 38.738647; -1.566696;,
       6.258197; 37.726646; 3.036304;,
       6.115397; 63.312145; 8.609303;,
       6.115397; 65.627243; 3.909405;,
       6.258197; 69.907143; 4.841702;,
       9.985600; 69.401344; 4.731503;,
       9.646298; 65.067543; 4.270905;,
       6.142697; 5.430250; -3.998497;,
       6.258197; 1.882648; -9.975394;,
       6.142697; 5.255850; -9.240592;,
       9.683997; 5.993149; -3.404495;,
       10.839198; 6.784649; -3.355698;,
       13.018798; 6.714451; -8.575095;,
       14.633398; 5.828251; -9.115996;,
       9.985600; 2.590832; -9.821097;,
       9.683997; 5.818850; -8.646598;,
       6.258197; 69.644142; 6.049304;,
       6.258197; 69.907143; 4.841702;,
       -0.000002; 70.382645; 5.577702;,
       16.393599; 38.545845; -0.724495;,
       15.565198; 68.288544; 4.489105;,
       15.565198; 68.025444; 5.696704;,
       16.393599; 38.808945; -1.932098;,
       14.633398; 5.565151; -7.908295;,
       14.633398; 5.828251; -9.115996;,
       9.985600; 69.138344; 5.939102;,
       9.985600; 69.401344; 4.731503;,
       6.258197; 1.619610; -8.767699;,
       -0.000002; 1.751129; -9.371596;,
       6.258197; 1.882648; -9.975394;,
       9.985600; 2.590832; -9.821097;,
       9.985600; 2.327778; -8.613494;,
       13.166798; 68.503845; 5.800902;,
       13.166798; 68.766846; 4.593304;,
       13.166798; 68.503845; 5.800902;,
       13.166798; 68.766846; 4.593304;,
       15.529099; 72.253242; 6.511002;,
       13.534998; 72.462044; 5.504803;,
       13.534998; 72.243439; 6.508803;,
       15.529099; 72.471939; 5.506905;,
       15.529099; 72.253242; 6.511002;,
       15.529099; 72.471939; 5.506905;,
       13.534998; 72.243439; 6.508803;,
       15.529099; 72.253242; 6.511002;,
       13.166798; 68.766846; 4.593304;,
       15.529099; 72.471939; 5.506905;,
       15.565198; 68.288544; 4.489105;,
       13.534998; 72.462044; 5.504803;,
       13.166798; 68.503845; 5.800902;,
       13.534998; 72.462044; 5.504803;,
       13.166798; 68.766846; 4.593304;,
       13.534998; 72.243439; 6.508803;,
       12.613098; 4.157940; -8.214797;,
       12.613098; 4.420950; -9.422492;,
       12.951697; 0.000000; -9.312995;,
       14.357098; 0.238491; -10.140998;,
       14.357098; 0.055500; -9.300895;,
       12.951697; 0.182991; -10.153098;,
       12.613098; 4.420950; -9.422492;,
       12.613098; 4.157940; -8.214797;,
       14.357098; 0.238491; -10.140998;,
       14.357098; 0.055500; -9.300895;,
       14.357098; 0.055500; -9.300895;,
       12.951697; 0.000000; -9.312995;,
       14.633398; 5.828251; -9.115996;,
       12.951697; 0.182991; -10.153098;,
       12.613098; 4.420950; -9.422492;,
       14.357098; 0.238491; -10.140998;,
       12.613098; 4.420950; -9.422492;,
       12.951697; 0.000000; -9.312995;,
       12.613098; 4.157940; -8.214797;,
       12.951697; 0.182991; -10.153098;;
       248;
       3;0, 1, 2;,
       3;0, 3, 1;,
       3;4, 5, 6;,
       3;4, 7, 5;,
       3;8, 9, 10;,
       3;8, 11, 9;,
       3;12, 13, 14;,
       3;12, 15, 13;,
       3;0, 11, 3;,
       3;0, 9, 11;,
       3;9, 16, 10;,
       3;9, 17, 16;,
       3;18, 19, 20;,
       3;18, 21, 19;,
       3;2, 22, 0;,
       3;2, 23, 22;,
       3;4, 24, 7;,
       3;4, 25, 24;,
       3;0, 17, 9;,
       3;0, 22, 17;,
       3;26, 20, 27;,
       3;26, 18, 20;,
       3;28, 29, 30;,
       3;28, 31, 29;,
       3;32, 31, 28;,
       3;32, 33, 31;,
       3;34, 33, 32;,
       3;34, 35, 33;,
       3;36, 37, 38;,
       3;36, 39, 37;,
       3;40, 39, 36;,
       3;40, 41, 39;,
       3;42, 43, 44;,
       3;42, 45, 43;,
       3;46, 45, 42;,
       3;46, 47, 45;,
       3;48, 47, 46;,
       3;48, 49, 47;,
       3;50, 51, 52;,
       3;50, 53, 51;,
       3;54, 55, 56;,
       3;54, 57, 55;,
       3;58, 59, 60;,
       3;58, 61, 59;,
       3;62, 63, 64;,
       3;62, 65, 63;,
       3;66, 62, 64;,
       3;66, 67, 62;,
       3;60, 50, 58;,
       3;60, 53, 50;,
       3;68, 59, 69;,
       3;68, 60, 59;,
       3;70, 71, 72;,
       3;70, 73, 71;,
       3;74, 53, 75;,
       3;74, 51, 53;,
       3;76, 54, 77;,
       3;76, 57, 54;,
       3;75, 60, 68;,
       3;75, 53, 60;,
       3;73, 78, 71;,
       3;73, 79, 78;,
       3;58, 63, 61;,
       3;58, 64, 63;,
       3;50, 64, 58;,
       3;50, 66, 64;,
       3;52, 66, 50;,
       3;52, 56, 66;,
       3;51, 56, 52;,
       3;51, 54, 56;,
       3;74, 54, 51;,
       3;74, 77, 54;,
       3;75, 77, 74;,
       3;75, 78, 77;,
       3;68, 78, 75;,
       3;68, 71, 78;,
       3;69, 71, 68;,
       3;69, 72, 71;,
       3;80, 81, 82;,
       3;83, 84, 85;,
       3;83, 86, 84;,
       3;87, 86, 83;,
       3;87, 88, 86;,
       3;89, 81, 80;,
       3;89, 90, 81;,
       3;91, 92, 93;,
       3;91, 94, 95;,
       3;91, 93, 94;,
       3;96, 15, 12;,
       3;96, 97, 15;,
       3;98, 97, 96;,
       3;56, 67, 66;,
       3;56, 99, 67;,
       3;55, 99, 56;,
       3;100, 90, 89;,
       3;100, 101, 90;,
       3;102, 103, 104;,
       3;102, 105, 103;,
       3;106, 84, 107;,
       3;106, 85, 84;,
       3;108, 109, 110;,
       3;108, 6, 109;,
       3;111, 112, 113;,
       3;111, 114, 112;,
       3;115, 116, 117;,
       3;115, 118, 116;,
       3;119, 120, 121;,
       3;119, 27, 120;,
       3;26, 27, 119;,
       3;78, 76, 77;,
       3;78, 122, 76;,
       3;79, 122, 78;,
       3;123, 124, 125;,
       3;123, 126, 124;,
       3;95, 127, 128;,
       3;95, 94, 127;,
       3;129, 87, 130;,
       3;129, 88, 87;,
       3;131, 25, 132;,
       3;131, 133, 25;,
       3;134, 135, 136;,
       3;134, 137, 135;,
       3;138, 139, 140;,
       3;138, 141, 139;,
       3;142, 143, 144;,
       3;142, 145, 143;,
       3;146, 147, 148;,
       3;146, 149, 147;,
       3;150, 10, 151;,
       3;150, 8, 10;,
       3;152, 153, 154;,
       3;152, 155, 153;,
       3;151, 142, 150;,
       3;151, 145, 142;,
       3;156, 10, 16;,
       3;156, 151, 10;,
       3;21, 157, 19;,
       3;21, 158, 157;,
       3;159, 145, 160;,
       3;159, 143, 145;,
       3;161, 146, 162;,
       3;161, 149, 146;,
       3;160, 151, 156;,
       3;160, 145, 151;,
       3;158, 163, 157;,
       3;158, 164, 163;,
       3;165, 30, 29;,
       3;165, 166, 30;,
       3;167, 168, 169;,
       3;167, 170, 168;,
       3;171, 170, 167;,
       3;171, 172, 170;,
       3;173, 174, 175;,
       3;173, 176, 174;,
       3;177, 176, 173;,
       3;177, 178, 176;,
       3;179, 180, 181;,
       3;179, 182, 180;,
       3;183, 182, 179;,
       3;183, 184, 182;,
       3;49, 184, 183;,
       3;49, 48, 184;,
       3;185, 186, 187;,
       3;185, 188, 186;,
       3;189, 190, 191;,
       3;189, 192, 190;,
       3;61, 193, 59;,
       3;61, 194, 193;,
       3;65, 195, 63;,
       3;65, 196, 195;,
       3;197, 195, 196;,
       3;197, 198, 195;,
       3;185, 194, 188;,
       3;185, 193, 194;,
       3;193, 69, 59;,
       3;193, 199, 69;,
       3;200, 72, 201;,
       3;200, 70, 72;,
       3;187, 202, 185;,
       3;187, 203, 202;,
       3;189, 204, 192;,
       3;189, 205, 204;,
       3;185, 199, 193;,
       3;185, 202, 199;,
       3;206, 201, 207;,
       3;206, 200, 201;,
       3;195, 61, 63;,
       3;195, 194, 61;,
       3;198, 194, 195;,
       3;198, 188, 194;,
       3;190, 188, 198;,
       3;190, 186, 188;,
       3;192, 186, 190;,
       3;192, 187, 186;,
       3;204, 187, 192;,
       3;204, 203, 187;,
       3;207, 203, 204;,
       3;207, 202, 203;,
       3;201, 202, 207;,
       3;201, 199, 202;,
       3;72, 199, 201;,
       3;72, 69, 199;,
       3;208, 209, 210;,
       3;211, 212, 213;,
       3;211, 214, 212;,
       3;215, 214, 211;,
       3;215, 216, 214;,
       3;217, 209, 208;,
       3;217, 218, 209;,
       3;219, 220, 221;,
       3;219, 222, 223;,
       3;219, 221, 222;,
       3;148, 155, 152;,
       3;148, 224, 155;,
       3;147, 224, 148;,
       3;225, 198, 197;,
       3;225, 190, 198;,
       3;191, 190, 225;,
       3;226, 218, 217;,
       3;226, 227, 218;,
       3;228, 229, 230;,
       3;228, 231, 229;,
       3;212, 232, 213;,
       3;212, 233, 232;,
       3;147, 234, 224;,
       3;147, 235, 234;,
       3;236, 237, 238;,
       3;236, 239, 237;,
       3;240, 241, 242;,
       3;240, 243, 241;,
       3;163, 161, 162;,
       3;163, 244, 161;,
       3;164, 244, 163;,
       3;245, 204, 205;,
       3;245, 207, 204;,
       3;206, 207, 245;,
       3;246, 247, 248;,
       3;246, 249, 247;,
       3;223, 250, 251;,
       3;223, 222, 250;,
       3;215, 252, 216;,
       3;215, 253, 252;,
       3;244, 254, 161;,
       3;244, 255, 254;,
       3;256, 257, 258;,
       3;256, 259, 257;,
       3;260, 261, 262;,
       3;260, 263, 261;;

      MeshNormals {
       264;
       0.000004; -0.212829; 0.977090;,
       0.000008; -0.212829; 0.977089;,
       -0.000011; -0.212829; 0.977089;,
       0.000007; -0.212829; 0.977090;,
       -0.000003; -0.212828; 0.977090;,
       -0.000001; -0.212828; 0.977090;,
       -0.002473; -0.200973; 0.979594;,
       0.000000; -0.212828; 0.977090;,
       0.032047; -0.227172; 0.973327;,
       0.032786; -0.213377; 0.976420;,
       -0.000377; -0.214161; 0.976798;,
       0.000000; -0.212829; 0.977090;,
       0.000002; -0.212816; 0.977092;,
       0.000004; -0.212821; 0.977091;,
       -0.000007; -0.212836; 0.977088;,
       -0.000001; -0.212812; 0.977093;,
       0.032786; -0.200883; 0.979066;,
       0.000004; -0.212828; 0.977090;,
       0.032043; -0.290711; 0.956274;,
       0.032046; -0.367671; 0.929404;,
       -0.000001; -0.212826; 0.977090;,
       -0.000966; -0.368104; 0.929784;,
       -0.000006; -0.212828; 0.977090;,
       -0.000032; -0.212831; 0.977089;,
       -0.000004; -0.212828; 0.977090;,
       -0.010290; -0.237042; 0.971445;,
       0.000001; -0.212837; 0.977088;,
       0.000004; -0.212841; 0.977087;,
       -0.108477; 0.891785; 0.439263;,
       -0.032099; 0.896615; 0.441646;,
       0.032099; 0.896615; 0.441646;,
       -0.121047; 0.890480; 0.438627;,
       -0.257983; 0.866706; 0.426926;,
       -0.411883; 0.798083; 0.439791;,
       -0.538253; 0.726838; 0.426604;,
       -0.578772; 0.669050; 0.466256;,
       -0.918805; -0.080231; 0.386472;,
       -0.918251; -0.054985; 0.392164;,
       -0.917793; -0.055487; 0.393164;,
       -0.917498; -0.106460; 0.383228;,
       -0.915942; -0.132339; 0.378862;,
       -0.913793; -0.134110; 0.383402;,
       -0.375413; -0.924284; 0.069032;,
       -0.466081; -0.880512; 0.086419;,
       -0.314051; -0.938455; 0.143786;,
       -0.332771; -0.942487; 0.031340;,
       -0.123974; -0.991737; 0.032980;,
       -0.061985; -0.997526; 0.033175;,
       0.000000; -0.999447; 0.033239;,
       0.000000; -0.999447; 0.033239;,
       0.097533; -0.303548; -0.947811;,
       0.515338; 0.183634; -0.837081;,
       0.623431; -0.386676; -0.679570;,
       -0.042249; 0.213527; -0.976023;,
       0.570535; 0.186326; -0.799858;,
       0.137591; 0.186310; -0.972809;,
       0.450138; -0.006427; -0.892936;,
       0.200165; 0.210935; -0.956787;,
       0.054855; -0.437098; -0.897739;,
       0.000394; 0.211376; -0.977405;,
       -0.010919; 0.213507; -0.976881;,
       -0.040758; -0.439818; -0.897162;,
       -0.008436; 0.219601; -0.975553;,
       0.043027; -0.390948; -0.919407;,
       0.039849; -0.568405; -0.821783;,
       -0.000082; 0.304119; -0.952634;,
       0.227560; -0.414383; -0.881194;,
       0.035462; 0.122911; -0.991784;,
       0.057626; 0.768089; -0.637744;,
       -0.020665; 0.772397; -0.634804;,
       0.000510; 0.094996; -0.995477;,
       0.026456; 0.749850; -0.661078;,
       -0.021506; 0.730433; -0.682646;,
       -0.001436; 0.256161; -0.966633;,
       0.576621; 0.364664; -0.731115;,
       0.193191; 0.708471; -0.678783;,
       0.144937; 0.293555; -0.944891;,
       0.490037; 0.615833; -0.616938;,
       0.109004; 0.684962; -0.720379;,
       0.057660; 0.336584; -0.939886;,
       -0.118193; 0.970247; 0.211307;,
       -0.124655; 0.969475; 0.211139;,
       -0.098780; 0.972317; 0.211758;,
       -1.000000; 0.000916; 0.000200;,
       -0.999840; 0.017505; 0.003814;,
       -0.999840; 0.017505; 0.003814;,
       -0.999673; -0.025002; -0.005447;,
       -0.998733; -0.049171; -0.010712;,
       -0.998733; -0.049171; -0.010712;,
       -0.158448; 0.964753; 0.210111;,
       -0.179274; 0.961266; 0.209352;,
       -0.127771; -0.969082; -0.211078;,
       -0.000002; -0.977093; -0.212813;,
       -0.095876; -0.972592; -0.211833;,
       -0.327347; -0.923256; -0.201105;,
       -0.459888; -0.867634; -0.188984;,
       -0.000005; -0.212819; 0.977092;,
       -0.000007; -0.212825; 0.977090;,
       0.000003; -0.212827; 0.977090;,
       0.012984; 0.150236; -0.988565;,
       -0.200011; 0.957352; 0.208500;,
       -0.200011; 0.957352; 0.208500;,
       0.005056; 0.977087; 0.212779;,
       0.005056; 0.977087; 0.212779;,
       0.005073; 0.977094; 0.212747;,
       0.005038; 0.977080; 0.212812;,
       -0.999965; 0.008194; 0.001785;,
       -0.999965; 0.008194; 0.001785;,
       -0.002388; -0.187534; 0.982255;,
       -0.002388; -0.187534; 0.982255;,
       0.000169; -0.185980; 0.982554;,
       -0.002661; 0.237688; -0.971338;,
       -0.002661; 0.237688; -0.971338;,
       0.000149; 0.236398; -0.971656;,
       -0.005472; 0.238975; -0.971010;,
       0.995347; 0.094149; 0.020502;,
       0.995347; 0.094149; 0.020502;,
       0.995347; 0.094150; 0.020500;,
       0.995347; 0.094147; 0.020504;,
       -0.000001; -0.212834; 0.977088;,
       -0.000004; -0.212827; 0.977090;,
       -0.000008; -0.212829; 0.977089;,
       0.089646; 0.333123; -0.938612;,
       -0.040385; -0.976292; -0.212656;,
       -0.040385; -0.976292; -0.212656;,
       -0.040385; -0.976292; -0.212656;,
       -0.040385; -0.976292; -0.212656;,
       -0.580473; -0.795627; -0.173291;,
       -0.580466; -0.795635; -0.173272;,
       -0.998820; -0.047458; -0.010338;,
       -0.998820; -0.047458; -0.010337;,
       -0.015428; -0.249085; 0.968359;,
       -0.001332; -0.245113; 0.969494;,
       -0.029521; -0.253005; 0.967015;,
       -0.013097; 0.174598; -0.984553;,
       -0.013097; 0.174598; -0.984553;,
       -0.001770; 0.170027; -0.985438;,
       -0.024422; 0.179143; -0.983520;,
       0.996909; -0.076767; -0.016720;,
       0.996909; -0.076767; -0.016720;,
       0.996909; -0.076766; -0.016721;,
       0.996909; -0.076768; -0.016718;,
       -0.000004; -0.212829; 0.977089;,
       -0.000006; -0.212829; 0.977089;,
       -0.000018; -0.212831; 0.977089;,
       0.000006; -0.212828; 0.977090;,
       0.000003; -0.212828; 0.977090;,
       0.001065; -0.202842; 0.979211;,
       0.000006; -0.212822; 0.977091;,
       0.000000; -0.212828; 0.977090;,
       -0.033529; -0.219958; 0.974933;,
       -0.032792; -0.212714; 0.976564;,
       0.000006; -0.212816; 0.977092;,
       -0.000004; -0.212821; 0.977091;,
       -0.000020; -0.212836; 0.977088;,
       0.000012; -0.212814; 0.977093;,
       -0.032796; -0.206788; 0.977836;,
       -0.033017; -0.291065; 0.956133;,
       -0.032795; -0.212711; 0.976565;,
       0.000015; -0.212828; 0.977090;,
       0.000006; -0.212828; 0.977090;,
       0.004891; -0.219519; 0.975596;,
       0.000006; -0.212832; 0.977089;,
       0.000001; -0.212833; 0.977088;,
       0.000005; -0.212848; 0.977085;,
       0.095903; 0.892943; 0.439835;,
       0.095907; 0.892945; 0.439832;,
       0.296794; 0.856652; 0.421973;,
       0.133592; 0.889033; 0.437919;,
       0.133610; 0.889037; 0.437907;,
       0.415339; 0.804899; 0.423828;,
       0.543148; 0.736599; 0.403004;,
       0.485250; 0.749974; 0.449524;,
       0.918804; -0.080806; 0.386355;,
       0.918246; -0.054986; 0.392175;,
       0.917768; -0.054977; 0.393292;,
       0.917544; -0.106612; 0.383076;,
       0.916016; -0.132313; 0.378693;,
       0.914020; -0.132346; 0.383474;,
       0.365175; -0.924952; 0.105411;,
       0.450887; -0.881417; 0.140729;,
       0.562519; -0.789483; 0.245539;,
       0.232326; -0.972101; 0.032325;,
       0.123974; -0.991737; 0.032980;,
       0.061989; -0.997525; 0.033175;,
       0.076695; 0.213778; -0.973867;,
       -0.581669; -0.032730; -0.812767;,
       -0.523164; 0.193043; -0.830081;,
       -0.261772; -0.492654; -0.829920;,
       -0.199631; 0.210934; -0.956898;,
       -0.421240; -0.126673; -0.898059;,
       -0.106130; 0.177604; -0.978362;,
       -0.708541; 0.149574; -0.689635;,
       -0.032785; 0.212007; -0.976718;,
       -0.033042; -0.430534; -0.901969;,
       -0.046994; -0.328308; -0.943401;,
       -0.049035; 0.214146; -0.975570;,
       0.031651; 0.139165; -0.989763;,
       -0.129025; -0.461952; -0.877470;,
       -0.004179; 0.766307; -0.642461;,
       -0.032391; 0.154988; -0.987385;,
       -0.042144; 0.781651; -0.622290;,
       -0.150326; 0.741866; -0.653480;,
       -0.576972; 0.667979; -0.470008;,
       -0.456389; 0.404769; -0.792383;,
       -0.156302; 0.291275; -0.943784;,
       0.003775; 0.299676; -0.954034;,
       -0.209287; 0.770252; -0.602421;,
       0.118193; 0.970247; 0.211307;,
       0.124655; 0.969475; 0.211139;,
       0.098781; 0.972317; 0.211758;,
       1.000000; 0.000918; 0.000200;,
       0.999840; 0.017507; 0.003814;,
       0.999840; 0.017507; 0.003814;,
       0.999673; -0.025001; -0.005447;,
       0.998733; -0.049179; -0.010714;,
       0.998733; -0.049179; -0.010714;,
       0.158446; 0.964753; 0.210111;,
       0.179270; 0.961267; 0.209352;,
       0.127771; -0.969082; -0.211078;,
       0.000002; -0.977093; -0.212813;,
       0.095881; -0.972591; -0.211833;,
       0.327342; -0.923257; -0.201105;,
       0.459885; -0.867635; -0.188984;,
       0.001825; -0.204073; 0.978954;,
       -0.031962; 0.133985; -0.990468;,
       0.200005; 0.957354; 0.208500;,
       0.200005; 0.957354; 0.208500;,
       -0.005056; 0.977087; 0.212779;,
       -0.005056; 0.977087; 0.212779;,
       -0.005038; 0.977094; 0.212747;,
       -0.005073; 0.977080; 0.212812;,
       0.999965; 0.008195; 0.001785;,
       0.999965; 0.008195; 0.001785;,
       0.002663; -0.187823; 0.982199;,
       -0.000153; -0.189131; 0.981952;,
       0.002387; 0.237973; -0.971269;,
       0.002387; 0.237973; -0.971269;,
       0.004939; 0.236437; -0.971634;,
       -0.000165; 0.239508; -0.970894;,
       -0.995350; 0.094123; 0.020496;,
       -0.995350; 0.094123; 0.020496;,
       -0.995350; 0.094123; 0.020499;,
       -0.995350; 0.094123; 0.020494;,
       0.006549; -0.231814; 0.972738;,
       -0.092421; 0.350813; -0.931874;,
       0.040385; -0.976292; -0.212656;,
       0.040385; -0.976292; -0.212656;,
       0.040385; -0.976292; -0.212656;,
       0.040385; -0.976292; -0.212656;,
       0.580473; -0.795627; -0.173291;,
       0.580479; -0.795627; -0.173270;,
       0.998819; -0.047475; -0.010342;,
       0.998819; -0.047475; -0.010341;,
       0.013098; -0.250698; 0.967977;,
       0.001755; -0.255230; 0.966879;,
       0.015423; 0.176220; -0.984230;,
       0.015423; 0.176220; -0.984230;,
       0.029493; 0.172104; -0.984637;,
       0.001349; 0.180299; -0.983611;,
       -0.996909; -0.076767; -0.016720;,
       -0.996909; -0.076767; -0.016720;,
       -0.996909; -0.076767; -0.016718;,
       -0.996909; -0.076767; -0.016721;;
       248;
       3;0, 1, 2;,
       3;0, 3, 1;,
       3;4, 5, 6;,
       3;4, 7, 5;,
       3;8, 9, 10;,
       3;8, 11, 9;,
       3;12, 13, 14;,
       3;12, 15, 13;,
       3;0, 11, 3;,
       3;0, 9, 11;,
       3;9, 16, 10;,
       3;9, 17, 16;,
       3;18, 19, 20;,
       3;18, 21, 19;,
       3;2, 22, 0;,
       3;2, 23, 22;,
       3;4, 24, 7;,
       3;4, 25, 24;,
       3;0, 17, 9;,
       3;0, 22, 17;,
       3;26, 20, 27;,
       3;26, 18, 20;,
       3;28, 29, 30;,
       3;28, 31, 29;,
       3;32, 31, 28;,
       3;32, 33, 31;,
       3;34, 33, 32;,
       3;34, 35, 33;,
       3;36, 37, 38;,
       3;36, 39, 37;,
       3;40, 39, 36;,
       3;40, 41, 39;,
       3;42, 43, 44;,
       3;42, 45, 43;,
       3;46, 45, 42;,
       3;46, 47, 45;,
       3;48, 47, 46;,
       3;48, 49, 47;,
       3;50, 51, 52;,
       3;50, 53, 51;,
       3;54, 55, 56;,
       3;54, 57, 55;,
       3;58, 59, 60;,
       3;58, 61, 59;,
       3;62, 63, 64;,
       3;62, 65, 63;,
       3;66, 62, 64;,
       3;66, 67, 62;,
       3;60, 50, 58;,
       3;60, 53, 50;,
       3;68, 59, 69;,
       3;68, 60, 59;,
       3;70, 71, 72;,
       3;70, 73, 71;,
       3;74, 53, 75;,
       3;74, 51, 53;,
       3;76, 54, 77;,
       3;76, 57, 54;,
       3;75, 60, 68;,
       3;75, 53, 60;,
       3;73, 78, 71;,
       3;73, 79, 78;,
       3;58, 63, 61;,
       3;58, 64, 63;,
       3;50, 64, 58;,
       3;50, 66, 64;,
       3;52, 66, 50;,
       3;52, 56, 66;,
       3;51, 56, 52;,
       3;51, 54, 56;,
       3;74, 54, 51;,
       3;74, 77, 54;,
       3;75, 77, 74;,
       3;75, 78, 77;,
       3;68, 78, 75;,
       3;68, 71, 78;,
       3;69, 71, 68;,
       3;69, 72, 71;,
       3;80, 81, 82;,
       3;83, 84, 85;,
       3;83, 86, 84;,
       3;87, 86, 83;,
       3;87, 88, 86;,
       3;89, 81, 80;,
       3;89, 90, 81;,
       3;91, 92, 93;,
       3;91, 94, 95;,
       3;91, 93, 94;,
       3;96, 15, 12;,
       3;96, 97, 15;,
       3;98, 97, 96;,
       3;56, 67, 66;,
       3;56, 99, 67;,
       3;55, 99, 56;,
       3;100, 90, 89;,
       3;100, 101, 90;,
       3;102, 103, 104;,
       3;102, 105, 103;,
       3;106, 84, 107;,
       3;106, 85, 84;,
       3;108, 109, 110;,
       3;108, 6, 109;,
       3;111, 112, 113;,
       3;111, 114, 112;,
       3;115, 116, 117;,
       3;115, 118, 116;,
       3;119, 120, 121;,
       3;119, 27, 120;,
       3;26, 27, 119;,
       3;78, 76, 77;,
       3;78, 122, 76;,
       3;79, 122, 78;,
       3;123, 124, 125;,
       3;123, 126, 124;,
       3;95, 127, 128;,
       3;95, 94, 127;,
       3;129, 87, 130;,
       3;129, 88, 87;,
       3;131, 25, 132;,
       3;131, 133, 25;,
       3;134, 135, 136;,
       3;134, 137, 135;,
       3;138, 139, 140;,
       3;138, 141, 139;,
       3;142, 143, 144;,
       3;142, 145, 143;,
       3;146, 147, 148;,
       3;146, 149, 147;,
       3;150, 10, 151;,
       3;150, 8, 10;,
       3;152, 153, 154;,
       3;152, 155, 153;,
       3;151, 142, 150;,
       3;151, 145, 142;,
       3;156, 10, 16;,
       3;156, 151, 10;,
       3;21, 157, 19;,
       3;21, 158, 157;,
       3;159, 145, 160;,
       3;159, 143, 145;,
       3;161, 146, 162;,
       3;161, 149, 146;,
       3;160, 151, 156;,
       3;160, 145, 151;,
       3;158, 163, 157;,
       3;158, 164, 163;,
       3;165, 30, 29;,
       3;165, 166, 30;,
       3;167, 168, 169;,
       3;167, 170, 168;,
       3;171, 170, 167;,
       3;171, 172, 170;,
       3;173, 174, 175;,
       3;173, 176, 174;,
       3;177, 176, 173;,
       3;177, 178, 176;,
       3;179, 180, 181;,
       3;179, 182, 180;,
       3;183, 182, 179;,
       3;183, 184, 182;,
       3;49, 184, 183;,
       3;49, 48, 184;,
       3;185, 186, 187;,
       3;185, 188, 186;,
       3;189, 190, 191;,
       3;189, 192, 190;,
       3;61, 193, 59;,
       3;61, 194, 193;,
       3;65, 195, 63;,
       3;65, 196, 195;,
       3;197, 195, 196;,
       3;197, 198, 195;,
       3;185, 194, 188;,
       3;185, 193, 194;,
       3;193, 69, 59;,
       3;193, 199, 69;,
       3;200, 72, 201;,
       3;200, 70, 72;,
       3;187, 202, 185;,
       3;187, 203, 202;,
       3;189, 204, 192;,
       3;189, 205, 204;,
       3;185, 199, 193;,
       3;185, 202, 199;,
       3;206, 201, 207;,
       3;206, 200, 201;,
       3;195, 61, 63;,
       3;195, 194, 61;,
       3;198, 194, 195;,
       3;198, 188, 194;,
       3;190, 188, 198;,
       3;190, 186, 188;,
       3;192, 186, 190;,
       3;192, 187, 186;,
       3;204, 187, 192;,
       3;204, 203, 187;,
       3;207, 203, 204;,
       3;207, 202, 203;,
       3;201, 202, 207;,
       3;201, 199, 202;,
       3;72, 199, 201;,
       3;72, 69, 199;,
       3;208, 209, 210;,
       3;211, 212, 213;,
       3;211, 214, 212;,
       3;215, 214, 211;,
       3;215, 216, 214;,
       3;217, 209, 208;,
       3;217, 218, 209;,
       3;219, 220, 221;,
       3;219, 222, 223;,
       3;219, 221, 222;,
       3;148, 155, 152;,
       3;148, 224, 155;,
       3;147, 224, 148;,
       3;225, 198, 197;,
       3;225, 190, 198;,
       3;191, 190, 225;,
       3;226, 218, 217;,
       3;226, 227, 218;,
       3;228, 229, 230;,
       3;228, 231, 229;,
       3;212, 232, 213;,
       3;212, 233, 232;,
       3;147, 234, 224;,
       3;147, 235, 234;,
       3;236, 237, 238;,
       3;236, 239, 237;,
       3;240, 241, 242;,
       3;240, 243, 241;,
       3;163, 161, 162;,
       3;163, 244, 161;,
       3;164, 244, 163;,
       3;245, 204, 205;,
       3;245, 207, 204;,
       3;206, 207, 245;,
       3;246, 247, 248;,
       3;246, 249, 247;,
       3;223, 250, 251;,
       3;223, 222, 250;,
       3;215, 252, 216;,
       3;215, 253, 252;,
       3;244, 254, 161;,
       3;244, 255, 254;,
       3;256, 257, 258;,
       3;256, 259, 257;,
       3;260, 261, 262;,
       3;260, 263, 261;;
      }

      MeshTextureCoords {
       264;
       0.583585; 0.435580;,
       0.602453; 0.252127;,
       0.608587; 0.435580;,
       0.583585; 0.237956;,
       0.404217; 0.485552;,
       0.390966; 0.298835;,
       0.397925; 0.261618;,
       0.397100; 0.485552;,
       0.507731; 0.229502;,
       0.555271; 0.435580;,
       0.507731; 0.434581;,
       0.555271; 0.234113;,
       0.705303; 0.235676;,
       0.676988; 0.257232;,
       0.676988; 0.231834;,
       0.705303; 0.261074;,
       0.507731; 0.688054;,
       0.555271; 0.688054;,
       0.676988; 0.748564;,
       0.629449; 0.730082;,
       0.676988; 0.730082;,
       0.629449; 0.747565;,
       0.583585; 0.682675;,
       0.595406; 0.673641;,
       0.383918; 0.732367;,
       0.390846; 0.736080;,
       0.705303; 0.743184;,
       0.705303; 0.724703;,
       0.630614; 0.309306;,
       0.678153; 0.272600;,
       0.678153; 0.308301;,
       0.630614; 0.273604;,
       0.602300; 0.310142;,
       0.602300; 0.274442;,
       0.566875; 0.314559;,
       0.583432; 0.277528;,
       0.688947; 0.416218;,
       0.611246; 0.240986;,
       0.648277; 0.229502;,
       0.651206; 0.424439;,
       0.742708; 0.663034;,
       0.703060; 0.662499;,
       0.384133; 0.273772;,
       0.372312; 0.315560;,
       0.355755; 0.275912;,
       0.384133; 0.313593;,
       0.412446; 0.272600;,
       0.412446; 0.312421;,
       0.459986; 0.272600;,
       0.459986; 0.312421;,
       0.629265; 0.778241;,
       0.679141; 0.515393;,
       0.664917; 0.764446;,
       0.634239; 0.516016;,
       0.782123; 0.513045;,
       0.800590; 0.827234;,
       0.766555; 0.771096;,
       0.817039; 0.512379;,
       0.565506; 0.784129;,
       0.449342; 0.519220;,
       0.565495; 0.517170;,
       0.452808; 0.792551;,
       0.616914; 0.889374;,
       0.455555; 0.852409;,
       0.593590; 0.836094;,
       0.458137; 0.913499;,
       0.675474; 0.814860;,
       0.701950; 0.860507;,
       0.559603; 0.184407;,
       0.444888; 0.186069;,
       0.444699; 0.073445;,
       0.584387; 0.126953;,
       0.444405; 0.122549;,
       0.603087; 0.081137;,
       0.646033; 0.197403;,
       0.625095; 0.190309;,
       0.778754; 0.170702;,
       0.747686; 0.181267;,
       0.670399; 0.147950;,
       0.702376; 0.104232;,
       0.274114; 0.717963;,
       0.274114; 0.708790;,
       0.321653; 0.712372;,
       0.310753; 0.467726;,
       0.252803; 0.245791;,
       0.261976; 0.243792;,
       0.301580; 0.469725;,
       0.365324; 0.718255;,
       0.356150; 0.720254;,
       0.245799; 0.718800;,
       0.245799; 0.709627;,
       0.559785; 0.290088;,
       0.607324; 0.294675;,
       0.559785; 0.299262;,
       0.531471; 0.300434;,
       0.531471; 0.291260;,
       0.729467; 0.240496;,
       0.740728; 0.281347;,
       0.747687; 0.244130;,
       0.758188; 0.841537;,
       0.221635; 0.719850;,
       0.221635; 0.710677;,
       0.426988; 0.716417;,
       0.442135; 0.708807;,
       0.442135; 0.716433;,
       0.426988; 0.708790;,
       0.254245; 0.212014;,
       0.246617; 0.213676;,
       0.397651; 0.229502;,
       0.379705; 0.257984;,
       0.382503; 0.229577;,
       0.594070; 0.373619;,
       0.528364; 0.508692;,
       0.529532; 0.373299;,
       0.605990; 0.493212;,
       0.508853; 0.291749;,
       0.494302; 0.318158;,
       0.501226; 0.290088;,
       0.503475; 0.320156;,
       0.725262; 0.729282;,
       0.733680; 0.714879;,
       0.740608; 0.718592;,
       0.745556; 0.141808;,
       0.473276; 0.708790;,
       0.462600; 0.715263;,
       0.462600; 0.708882;,
       0.473276; 0.715171;,
       0.511511; 0.303462;,
       0.511511; 0.294288;,
       0.366728; 0.762106;,
       0.373110; 0.760716;,
       0.378072; 0.778355;,
       0.388748; 0.777933;,
       0.375500; 0.746770;,
       0.294929; 0.554208;,
       0.351373; 0.418846;,
       0.340414; 0.556005;,
       0.285990; 0.373299;,
       0.442328; 0.322281;,
       0.457052; 0.292086;,
       0.448710; 0.323671;,
       0.447878; 0.290088;,
       0.431878; 0.237956;,
       0.406875; 0.435580;,
       0.413010; 0.252127;,
       0.431878; 0.435580;,
       0.512037; 0.468063;,
       0.511212; 0.244130;,
       0.518171; 0.281347;,
       0.504920; 0.468063;,
       0.460193; 0.234113;,
       0.460193; 0.435580;,
       0.553596; 0.261074;,
       0.581910; 0.231834;,
       0.581910; 0.257232;,
       0.553596; 0.235676;,
       0.460193; 0.688054;,
       0.581910; 0.730082;,
       0.581910; 0.748564;,
       0.420058; 0.673641;,
       0.431878; 0.682675;,
       0.518291; 0.718592;,
       0.525219; 0.714879;,
       0.553596; 0.724703;,
       0.553596; 0.743184;,
       0.725692; 0.273604;,
       0.725692; 0.309306;,
       0.404244; 0.291930;,
       0.375930; 0.326794;,
       0.375930; 0.291093;,
       0.404244; 0.327630;,
       0.423112; 0.295016;,
       0.439669; 0.332047;,
       0.313137; 0.467537;,
       0.316066; 0.272600;,
       0.353097; 0.284083;,
       0.275396; 0.459316;,
       0.261283; 0.705597;,
       0.221635; 0.706131;,
       0.535839; 0.313593;,
       0.564216; 0.275912;,
       0.547659; 0.315560;,
       0.535839; 0.273772;,
       0.507525; 0.312421;,
       0.507525; 0.272600;,
       0.264418; 0.522685;,
       0.239332; 0.772219;,
       0.219465; 0.523621;,
       0.275893; 0.784675;,
       0.081775; 0.525353;,
       0.137652; 0.782112;,
       0.105226; 0.839232;,
       0.116491; 0.524850;,
       0.333174; 0.521357;,
       0.339788; 0.788254;,
       0.314025; 0.843144;,
       0.296143; 0.900408;,
       0.199254; 0.878021;,
       0.227615; 0.822872;,
       0.330158; 0.188484;,
       0.286778; 0.085366;,
       0.303787; 0.131820;,
       0.264727; 0.196803;,
       0.244326; 0.204732;,
       0.142405; 0.192274;,
       0.111379; 0.182856;,
       0.184551; 0.108619;,
       0.218998; 0.155054;,
       0.371850; 0.708790;,
       0.371850; 0.717963;,
       0.324312; 0.712372;,
       0.447298; 0.469725;,
       0.486902; 0.243792;,
       0.496075; 0.245791;,
       0.438125; 0.467726;,
       0.392729; 0.720254;,
       0.383555; 0.718255;,
       0.400164; 0.709627;,
       0.400164; 0.718800;,
       0.657522; 0.299262;,
       0.609983; 0.294675;,
       0.657522; 0.290088;,
       0.685836; 0.291260;,
       0.685836; 0.300434;,
       0.529431; 0.240496;,
       0.140174; 0.853842;,
       0.424329; 0.710677;,
       0.424329; 0.719850;,
       0.459942; 0.708790;,
       0.444794; 0.716433;,
       0.444794; 0.708807;,
       0.459942; 0.716417;,
       0.502261; 0.213676;,
       0.494634; 0.212014;,
       0.526634; 0.212089;,
       0.511487; 0.212014;,
       0.439414; 0.493212;,
       0.515868; 0.373299;,
       0.517036; 0.508692;,
       0.451330; 0.373619;,
       0.482470; 0.320156;,
       0.484720; 0.290088;,
       0.491644; 0.318158;,
       0.477093; 0.291749;,
       0.533637; 0.729282;,
       0.131068; 0.154338;,
       0.475935; 0.715171;,
       0.486611; 0.708882;,
       0.486611; 0.715263;,
       0.475935; 0.708790;,
       0.705795; 0.294288;,
       0.705795; 0.303462;,
       0.375768; 0.760716;,
       0.382150; 0.762106;,
       0.520389; 0.760445;,
       0.531065; 0.760867;,
       0.428086; 0.373299;,
       0.373659; 0.556005;,
       0.362700; 0.418846;,
       0.419144; 0.554208;,
       0.468884; 0.290088;,
       0.468053; 0.323671;,
       0.459710; 0.292086;,
       0.474434; 0.322281;;
      }

      MeshVertexColors {
       264;
       0; 1.000000; 1.000000; 1.000000; 1.000000;,
       1; 1.000000; 1.000000; 1.000000; 1.000000;,
       2; 1.000000; 1.000000; 1.000000; 1.000000;,
       3; 1.000000; 1.000000; 1.000000; 1.000000;,
       4; 1.000000; 1.000000; 1.000000; 1.000000;,
       5; 1.000000; 1.000000; 1.000000; 1.000000;,
       6; 1.000000; 1.000000; 1.000000; 1.000000;,
       7; 1.000000; 1.000000; 1.000000; 1.000000;,
       8; 1.000000; 1.000000; 1.000000; 1.000000;,
       9; 1.000000; 1.000000; 1.000000; 1.000000;,
       10; 1.000000; 1.000000; 1.000000; 1.000000;,
       11; 1.000000; 1.000000; 1.000000; 1.000000;,
       12; 1.000000; 1.000000; 1.000000; 1.000000;,
       13; 1.000000; 1.000000; 1.000000; 1.000000;,
       14; 1.000000; 1.000000; 1.000000; 1.000000;,
       15; 1.000000; 1.000000; 1.000000; 1.000000;,
       16; 1.000000; 1.000000; 1.000000; 1.000000;,
       17; 1.000000; 1.000000; 1.000000; 1.000000;,
       18; 1.000000; 1.000000; 1.000000; 1.000000;,
       19; 1.000000; 1.000000; 1.000000; 1.000000;,
       20; 1.000000; 1.000000; 1.000000; 1.000000;,
       21; 1.000000; 1.000000; 1.000000; 1.000000;,
       22; 1.000000; 1.000000; 1.000000; 1.000000;,
       23; 1.000000; 1.000000; 1.000000; 1.000000;,
       24; 1.000000; 1.000000; 1.000000; 1.000000;,
       25; 1.000000; 1.000000; 1.000000; 1.000000;,
       26; 1.000000; 1.000000; 1.000000; 1.000000;,
       27; 1.000000; 1.000000; 1.000000; 1.000000;,
       28; 1.000000; 1.000000; 1.000000; 1.000000;,
       29; 1.000000; 1.000000; 1.000000; 1.000000;,
       30; 1.000000; 1.000000; 1.000000; 1.000000;,
       31; 1.000000; 1.000000; 1.000000; 1.000000;,
       32; 1.000000; 1.000000; 1.000000; 1.000000;,
       33; 1.000000; 1.000000; 1.000000; 1.000000;,
       34; 1.000000; 1.000000; 1.000000; 1.000000;,
       35; 1.000000; 1.000000; 1.000000; 1.000000;,
       36; 1.000000; 1.000000; 1.000000; 1.000000;,
       37; 1.000000; 1.000000; 1.000000; 1.000000;,
       38; 1.000000; 1.000000; 1.000000; 1.000000;,
       39; 1.000000; 1.000000; 1.000000; 1.000000;,
       40; 1.000000; 1.000000; 1.000000; 1.000000;,
       41; 1.000000; 1.000000; 1.000000; 1.000000;,
       42; 1.000000; 1.000000; 1.000000; 1.000000;,
       43; 1.000000; 1.000000; 1.000000; 1.000000;,
       44; 1.000000; 1.000000; 1.000000; 1.000000;,
       45; 1.000000; 1.000000; 1.000000; 1.000000;,
       46; 1.000000; 1.000000; 1.000000; 1.000000;,
       47; 1.000000; 1.000000; 1.000000; 1.000000;,
       48; 1.000000; 1.000000; 1.000000; 1.000000;,
       49; 1.000000; 1.000000; 1.000000; 1.000000;,
       50; 1.000000; 1.000000; 1.000000; 1.000000;,
       51; 1.000000; 1.000000; 1.000000; 1.000000;,
       52; 1.000000; 1.000000; 1.000000; 1.000000;,
       53; 1.000000; 1.000000; 1.000000; 1.000000;,
       54; 1.000000; 1.000000; 1.000000; 1.000000;,
       55; 1.000000; 1.000000; 1.000000; 1.000000;,
       56; 1.000000; 1.000000; 1.000000; 1.000000;,
       57; 1.000000; 1.000000; 1.000000; 1.000000;,
       58; 1.000000; 1.000000; 1.000000; 1.000000;,
       59; 1.000000; 1.000000; 1.000000; 1.000000;,
       60; 1.000000; 1.000000; 1.000000; 1.000000;,
       61; 1.000000; 1.000000; 1.000000; 1.000000;,
       62; 1.000000; 1.000000; 1.000000; 1.000000;,
       63; 1.000000; 1.000000; 1.000000; 1.000000;,
       64; 1.000000; 1.000000; 1.000000; 1.000000;,
       65; 1.000000; 1.000000; 1.000000; 1.000000;,
       66; 1.000000; 1.000000; 1.000000; 1.000000;,
       67; 1.000000; 1.000000; 1.000000; 1.000000;,
       68; 1.000000; 1.000000; 1.000000; 1.000000;,
       69; 1.000000; 1.000000; 1.000000; 1.000000;,
       70; 1.000000; 1.000000; 1.000000; 1.000000;,
       71; 1.000000; 1.000000; 1.000000; 1.000000;,
       72; 1.000000; 1.000000; 1.000000; 1.000000;,
       73; 1.000000; 1.000000; 1.000000; 1.000000;,
       74; 1.000000; 1.000000; 1.000000; 1.000000;,
       75; 1.000000; 1.000000; 1.000000; 1.000000;,
       76; 1.000000; 1.000000; 1.000000; 1.000000;,
       77; 1.000000; 1.000000; 1.000000; 1.000000;,
       78; 1.000000; 1.000000; 1.000000; 1.000000;,
       79; 1.000000; 1.000000; 1.000000; 1.000000;,
       80; 1.000000; 1.000000; 1.000000; 1.000000;,
       81; 1.000000; 1.000000; 1.000000; 1.000000;,
       82; 1.000000; 1.000000; 1.000000; 1.000000;,
       83; 1.000000; 1.000000; 1.000000; 1.000000;,
       84; 1.000000; 1.000000; 1.000000; 1.000000;,
       85; 1.000000; 1.000000; 1.000000; 1.000000;,
       86; 1.000000; 1.000000; 1.000000; 1.000000;,
       87; 1.000000; 1.000000; 1.000000; 1.000000;,
       88; 1.000000; 1.000000; 1.000000; 1.000000;,
       89; 1.000000; 1.000000; 1.000000; 1.000000;,
       90; 1.000000; 1.000000; 1.000000; 1.000000;,
       91; 1.000000; 1.000000; 1.000000; 1.000000;,
       92; 1.000000; 1.000000; 1.000000; 1.000000;,
       93; 1.000000; 1.000000; 1.000000; 1.000000;,
       94; 1.000000; 1.000000; 1.000000; 1.000000;,
       95; 1.000000; 1.000000; 1.000000; 1.000000;,
       96; 1.000000; 1.000000; 1.000000; 1.000000;,
       97; 1.000000; 1.000000; 1.000000; 1.000000;,
       98; 1.000000; 1.000000; 1.000000; 1.000000;,
       99; 1.000000; 1.000000; 1.000000; 1.000000;,
       100; 1.000000; 1.000000; 1.000000; 1.000000;,
       101; 1.000000; 1.000000; 1.000000; 1.000000;,
       102; 1.000000; 1.000000; 1.000000; 1.000000;,
       103; 1.000000; 1.000000; 1.000000; 1.000000;,
       104; 1.000000; 1.000000; 1.000000; 1.000000;,
       105; 1.000000; 1.000000; 1.000000; 1.000000;,
       106; 1.000000; 1.000000; 1.000000; 1.000000;,
       107; 1.000000; 1.000000; 1.000000; 1.000000;,
       108; 1.000000; 1.000000; 1.000000; 1.000000;,
       109; 1.000000; 1.000000; 1.000000; 1.000000;,
       110; 1.000000; 1.000000; 1.000000; 1.000000;,
       111; 1.000000; 1.000000; 1.000000; 1.000000;,
       112; 1.000000; 1.000000; 1.000000; 1.000000;,
       113; 1.000000; 1.000000; 1.000000; 1.000000;,
       114; 1.000000; 1.000000; 1.000000; 1.000000;,
       115; 1.000000; 1.000000; 1.000000; 1.000000;,
       116; 1.000000; 1.000000; 1.000000; 1.000000;,
       117; 1.000000; 1.000000; 1.000000; 1.000000;,
       118; 1.000000; 1.000000; 1.000000; 1.000000;,
       119; 1.000000; 1.000000; 1.000000; 1.000000;,
       120; 1.000000; 1.000000; 1.000000; 1.000000;,
       121; 1.000000; 1.000000; 1.000000; 1.000000;,
       122; 1.000000; 1.000000; 1.000000; 1.000000;,
       123; 1.000000; 1.000000; 1.000000; 1.000000;,
       124; 1.000000; 1.000000; 1.000000; 1.000000;,
       125; 1.000000; 1.000000; 1.000000; 1.000000;,
       126; 1.000000; 1.000000; 1.000000; 1.000000;,
       127; 1.000000; 1.000000; 1.000000; 1.000000;,
       128; 1.000000; 1.000000; 1.000000; 1.000000;,
       129; 1.000000; 1.000000; 1.000000; 1.000000;,
       130; 1.000000; 1.000000; 1.000000; 1.000000;,
       131; 1.000000; 1.000000; 1.000000; 1.000000;,
       132; 1.000000; 1.000000; 1.000000; 1.000000;,
       133; 1.000000; 1.000000; 1.000000; 1.000000;,
       134; 1.000000; 1.000000; 1.000000; 1.000000;,
       135; 1.000000; 1.000000; 1.000000; 1.000000;,
       136; 1.000000; 1.000000; 1.000000; 1.000000;,
       137; 1.000000; 1.000000; 1.000000; 1.000000;,
       138; 1.000000; 1.000000; 1.000000; 1.000000;,
       139; 1.000000; 1.000000; 1.000000; 1.000000;,
       140; 1.000000; 1.000000; 1.000000; 1.000000;,
       141; 1.000000; 1.000000; 1.000000; 1.000000;,
       142; 1.000000; 1.000000; 1.000000; 1.000000;,
       143; 1.000000; 1.000000; 1.000000; 1.000000;,
       144; 1.000000; 1.000000; 1.000000; 1.000000;,
       145; 1.000000; 1.000000; 1.000000; 1.000000;,
       146; 1.000000; 1.000000; 1.000000; 1.000000;,
       147; 1.000000; 1.000000; 1.000000; 1.000000;,
       148; 1.000000; 1.000000; 1.000000; 1.000000;,
       149; 1.000000; 1.000000; 1.000000; 1.000000;,
       150; 1.000000; 1.000000; 1.000000; 1.000000;,
       151; 1.000000; 1.000000; 1.000000; 1.000000;,
       152; 1.000000; 1.000000; 1.000000; 1.000000;,
       153; 1.000000; 1.000000; 1.000000; 1.000000;,
       154; 1.000000; 1.000000; 1.000000; 1.000000;,
       155; 1.000000; 1.000000; 1.000000; 1.000000;,
       156; 1.000000; 1.000000; 1.000000; 1.000000;,
       157; 1.000000; 1.000000; 1.000000; 1.000000;,
       158; 1.000000; 1.000000; 1.000000; 1.000000;,
       159; 1.000000; 1.000000; 1.000000; 1.000000;,
       160; 1.000000; 1.000000; 1.000000; 1.000000;,
       161; 1.000000; 1.000000; 1.000000; 1.000000;,
       162; 1.000000; 1.000000; 1.000000; 1.000000;,
       163; 1.000000; 1.000000; 1.000000; 1.000000;,
       164; 1.000000; 1.000000; 1.000000; 1.000000;,
       165; 1.000000; 1.000000; 1.000000; 1.000000;,
       166; 1.000000; 1.000000; 1.000000; 1.000000;,
       167; 1.000000; 1.000000; 1.000000; 1.000000;,
       168; 1.000000; 1.000000; 1.000000; 1.000000;,
       169; 1.000000; 1.000000; 1.000000; 1.000000;,
       170; 1.000000; 1.000000; 1.000000; 1.000000;,
       171; 1.000000; 1.000000; 1.000000; 1.000000;,
       172; 1.000000; 1.000000; 1.000000; 1.000000;,
       173; 1.000000; 1.000000; 1.000000; 1.000000;,
       174; 1.000000; 1.000000; 1.000000; 1.000000;,
       175; 1.000000; 1.000000; 1.000000; 1.000000;,
       176; 1.000000; 1.000000; 1.000000; 1.000000;,
       177; 1.000000; 1.000000; 1.000000; 1.000000;,
       178; 1.000000; 1.000000; 1.000000; 1.000000;,
       179; 1.000000; 1.000000; 1.000000; 1.000000;,
       180; 1.000000; 1.000000; 1.000000; 1.000000;,
       181; 1.000000; 1.000000; 1.000000; 1.000000;,
       182; 1.000000; 1.000000; 1.000000; 1.000000;,
       183; 1.000000; 1.000000; 1.000000; 1.000000;,
       184; 1.000000; 1.000000; 1.000000; 1.000000;,
       185; 1.000000; 1.000000; 1.000000; 1.000000;,
       186; 1.000000; 1.000000; 1.000000; 1.000000;,
       187; 1.000000; 1.000000; 1.000000; 1.000000;,
       188; 1.000000; 1.000000; 1.000000; 1.000000;,
       189; 1.000000; 1.000000; 1.000000; 1.000000;,
       190; 1.000000; 1.000000; 1.000000; 1.000000;,
       191; 1.000000; 1.000000; 1.000000; 1.000000;,
       192; 1.000000; 1.000000; 1.000000; 1.000000;,
       193; 1.000000; 1.000000; 1.000000; 1.000000;,
       194; 1.000000; 1.000000; 1.000000; 1.000000;,
       195; 1.000000; 1.000000; 1.000000; 1.000000;,
       196; 1.000000; 1.000000; 1.000000; 1.000000;,
       197; 1.000000; 1.000000; 1.000000; 1.000000;,
       198; 1.000000; 1.000000; 1.000000; 1.000000;,
       199; 1.000000; 1.000000; 1.000000; 1.000000;,
       200; 1.000000; 1.000000; 1.000000; 1.000000;,
       201; 1.000000; 1.000000; 1.000000; 1.000000;,
       202; 1.000000; 1.000000; 1.000000; 1.000000;,
       203; 1.000000; 1.000000; 1.000000; 1.000000;,
       204; 1.000000; 1.000000; 1.000000; 1.000000;,
       205; 1.000000; 1.000000; 1.000000; 1.000000;,
       206; 1.000000; 1.000000; 1.000000; 1.000000;,
       207; 1.000000; 1.000000; 1.000000; 1.000000;,
       208; 1.000000; 1.000000; 1.000000; 1.000000;,
       209; 1.000000; 1.000000; 1.000000; 1.000000;,
       210; 1.000000; 1.000000; 1.000000; 1.000000;,
       211; 1.000000; 1.000000; 1.000000; 1.000000;,
       212; 1.000000; 1.000000; 1.000000; 1.000000;,
       213; 1.000000; 1.000000; 1.000000; 1.000000;,
       214; 1.000000; 1.000000; 1.000000; 1.000000;,
       215; 1.000000; 1.000000; 1.000000; 1.000000;,
       216; 1.000000; 1.000000; 1.000000; 1.000000;,
       217; 1.000000; 1.000000; 1.000000; 1.000000;,
       218; 1.000000; 1.000000; 1.000000; 1.000000;,
       219; 1.000000; 1.000000; 1.000000; 1.000000;,
       220; 1.000000; 1.000000; 1.000000; 1.000000;,
       221; 1.000000; 1.000000; 1.000000; 1.000000;,
       222; 1.000000; 1.000000; 1.000000; 1.000000;,
       223; 1.000000; 1.000000; 1.000000; 1.000000;,
       224; 1.000000; 1.000000; 1.000000; 1.000000;,
       225; 1.000000; 1.000000; 1.000000; 1.000000;,
       226; 1.000000; 1.000000; 1.000000; 1.000000;,
       227; 1.000000; 1.000000; 1.000000; 1.000000;,
       228; 1.000000; 1.000000; 1.000000; 1.000000;,
       229; 1.000000; 1.000000; 1.000000; 1.000000;,
       230; 1.000000; 1.000000; 1.000000; 1.000000;,
       231; 1.000000; 1.000000; 1.000000; 1.000000;,
       232; 1.000000; 1.000000; 1.000000; 1.000000;,
       233; 1.000000; 1.000000; 1.000000; 1.000000;,
       234; 1.000000; 1.000000; 1.000000; 1.000000;,
       235; 1.000000; 1.000000; 1.000000; 1.000000;,
       236; 1.000000; 1.000000; 1.000000; 1.000000;,
       237; 1.000000; 1.000000; 1.000000; 1.000000;,
       238; 1.000000; 1.000000; 1.000000; 1.000000;,
       239; 1.000000; 1.000000; 1.000000; 1.000000;,
       240; 1.000000; 1.000000; 1.000000; 1.000000;,
       241; 1.000000; 1.000000; 1.000000; 1.000000;,
       242; 1.000000; 1.000000; 1.000000; 1.000000;,
       243; 1.000000; 1.000000; 1.000000; 1.000000;,
       244; 1.000000; 1.000000; 1.000000; 1.000000;,
       245; 1.000000; 1.000000; 1.000000; 1.000000;,
       246; 1.000000; 1.000000; 1.000000; 1.000000;,
       247; 1.000000; 1.000000; 1.000000; 1.000000;,
       248; 1.000000; 1.000000; 1.000000; 1.000000;,
       249; 1.000000; 1.000000; 1.000000; 1.000000;,
       250; 1.000000; 1.000000; 1.000000; 1.000000;,
       251; 1.000000; 1.000000; 1.000000; 1.000000;,
       252; 1.000000; 1.000000; 1.000000; 1.000000;,
       253; 1.000000; 1.000000; 1.000000; 1.000000;,
       254; 1.000000; 1.000000; 1.000000; 1.000000;,
       255; 1.000000; 1.000000; 1.000000; 1.000000;,
       256; 1.000000; 1.000000; 1.000000; 1.000000;,
       257; 1.000000; 1.000000; 1.000000; 1.000000;,
       258; 1.000000; 1.000000; 1.000000; 1.000000;,
       259; 1.000000; 1.000000; 1.000000; 1.000000;,
       260; 1.000000; 1.000000; 1.000000; 1.000000;,
       261; 1.000000; 1.000000; 1.000000; 1.000000;,
       262; 1.000000; 1.000000; 1.000000; 1.000000;,
       263; 1.000000; 1.000000; 1.000000; 1.000000;;
      }

      MeshMaterialList {
       1;
       248;
       0,
       0,
       0,
       0,
       0,
       0,
       0,
       0,
       0,
       0,
       0,
       0,
       0,
       0,
       0,
       0,
       0,
       0,
       0,
       0,
       0,
       0,
       0,
       0,
       0,
       0,
       0,
       0,
       0,
       0,
       0,
       0,
       0,
       0,
       0,
       0,
       0,
       0,
       0,
       0,
       0,
       0,
       0,
       0,
       0,
       0,
       0,
       0,
       0,
       0,
       0,
       0,
       0,
       0,
       0,
       0,
       0,
       0,
       0,
       0,
       0,
       0,
       0,
       0,
       0,
       0,
       0,
       0,
       0,
       0,
       0,
       0,
       0,
       0,
       0,
       0,
       0,
       0,
       0,
       0,
       0,
       0,
       0,
       0,
       0,
       0,
       0,
       0,
       0,
       0,
       0,
       0,
       0,
       0,
       0,
       0,
       0,
       0,
       0,
       0,
       0,
       0,
       0,
       0,
       0,
       0,
       0,
       0,
       0,
       0,
       0,
       0,
       0,
       0,
       0,
       0,
       0,
       0,
       0,
       0,
       0,
       0,
       0,
       0,
       0,
       0,
       0,
       0,
       0,
       0,
       0,
       0,
       0,
       0,
       0,
       0,
       0,
       0,
       0,
       0,
       0,
       0,
       0,
       0,
       0,
       0,
       0,
       0,
       0,
       0,
       0,
       0,
       0,
       0,
       0,
       0,
       0,
       0,
       0,
       0,
       0,
       0,
       0,
       0,
       0,
       0,
       0,
       0,
       0,
       0,
       0,
       0,
       0,
       0,
       0,
       0,
       0,
       0,
       0,
       0,
       0,
       0,
       0,
       0,
       0,
       0,
       0,
       0,
       0,
       0,
       0,
       0,
       0,
       0,
       0,
       0,
       0,
       0,
       0,
       0,
       0,
       0,
       0,
       0,
       0,
       0,
       0,
       0,
       0,
       0,
       0,
       0,
       0,
       0,
       0,
       0,
       0,
       0,
       0,
       0,
       0,
       0,
       0,
       0,
       0,
       0,
       0,
       0,
       0,
       0,
       0,
       0,
       0,
       0,
       0,
       0,
       0,
       0,
       0,
       0,
       0,
       0,
       0,
       0,
       0,
       0,
       0,
       0;

       Material def_surf_mat {
        0.992157; 0.992157; 0.992157; 1.000000;;
        1.000000;
        0.150000; 0.150000; 0.150000;;
        0.000000; 0.000000; 0.000000;;

        TextureFilename {
         "kitchen_bath.dds";
        }
       }

      }

      XSkinMeshHeader {
       1;
       1;
       1;
      }

      SkinWeights {
       "Body";
       264;
       0,
       1,
       2,
       3,
       4,
       5,
       6,
       7,
       8,
       9,
       10,
       11,
       12,
       13,
       14,
       15,
       16,
       17,
       18,
       19,
       20,
       21,
       22,
       23,
       24,
       25,
       26,
       27,
       28,
       29,
       30,
       31,
       32,
       33,
       34,
       35,
       36,
       37,
       38,
       39,
       40,
       41,
       42,
       43,
       44,
       45,
       46,
       47,
       48,
       49,
       50,
       51,
       52,
       53,
       54,
       55,
       56,
       57,
       58,
       59,
       60,
       61,
       62,
       63,
       64,
       65,
       66,
       67,
       68,
       69,
       70,
       71,
       72,
       73,
       74,
       75,
       76,
       77,
       78,
       79,
       80,
       81,
       82,
       83,
       84,
       85,
       86,
       87,
       88,
       89,
       90,
       91,
       92,
       93,
       94,
       95,
       96,
       97,
       98,
       99,
       100,
       101,
       102,
       103,
       104,
       105,
       106,
       107,
       108,
       109,
       110,
       111,
       112,
       113,
       114,
       115,
       116,
       117,
       118,
       119,
       120,
       121,
       122,
       123,
       124,
       125,
       126,
       127,
       128,
       129,
       130,
       131,
       132,
       133,
       134,
       135,
       136,
       137,
       138,
       139,
       140,
       141,
       142,
       143,
       144,
       145,
       146,
       147,
       148,
       149,
       150,
       151,
       152,
       153,
       154,
       155,
       156,
       157,
       158,
       159,
       160,
       161,
       162,
       163,
       164,
       165,
       166,
       167,
       168,
       169,
       170,
       171,
       172,
       173,
       174,
       175,
       176,
       177,
       178,
       179,
       180,
       181,
       182,
       183,
       184,
       185,
       186,
       187,
       188,
       189,
       190,
       191,
       192,
       193,
       194,
       195,
       196,
       197,
       198,
       199,
       200,
       201,
       202,
       203,
       204,
       205,
       206,
       207,
       208,
       209,
       210,
       211,
       212,
       213,
       214,
       215,
       216,
       217,
       218,
       219,
       220,
       221,
       222,
       223,
       224,
       225,
       226,
       227,
       228,
       229,
       230,
       231,
       232,
       233,
       234,
       235,
       236,
       237,
       238,
       239,
       240,
       241,
       242,
       243,
       244,
       245,
       246,
       247,
       248,
       249,
       250,
       251,
       252,
       253,
       254,
       255,
       256,
       257,
       258,
       259,
       260,
       261,
       262,
       263;
       1.000000,
       1.000000,
       1.000000,
       1.000000,
       1.000000,
       1.000000,
       1.000000,
       1.000000,
       1.000000,
       1.000000,
       1.000000,
       1.000000,
       1.000000,
       1.000000,
       1.000000,
       1.000000,
       1.000000,
       1.000000,
       1.000000,
       1.000000,
       1.000000,
       1.000000,
       1.000000,
       1.000000,
       1.000000,
       1.000000,
       1.000000,
       1.000000,
       1.000000,
       1.000000,
       1.000000,
       1.000000,
       1.000000,
       1.000000,
       1.000000,
       1.000000,
       1.000000,
       1.000000,
       1.000000,
       1.000000,
       1.000000,
       1.000000,
       1.000000,
       1.000000,
       1.000000,
       1.000000,
       1.000000,
       1.000000,
       1.000000,
       1.000000,
       1.000000,
       1.000000,
       1.000000,
       1.000000,
       1.000000,
       1.000000,
       1.000000,
       1.000000,
       1.000000,
       1.000000,
       1.000000,
       1.000000,
       1.000000,
       1.000000,
       1.000000,
       1.000000,
       1.000000,
       1.000000,
       1.000000,
       1.000000,
       1.000000,
       1.000000,
       1.000000,
       1.000000,
       1.000000,
       1.000000,
       1.000000,
       1.000000,
       1.000000,
       1.000000,
       1.000000,
       1.000000,
       1.000000,
       1.000000,
       1.000000,
       1.000000,
       1.000000,
       1.000000,
       1.000000,
       1.000000,
       1.000000,
       1.000000,
       1.000000,
       1.000000,
       1.000000,
       1.000000,
       1.000000,
       1.000000,
       1.000000,
       1.000000,
       1.000000,
       1.000000,
       1.000000,
       1.000000,
       1.000000,
       1.000000,
       1.000000,
       1.000000,
       1.000000,
       1.000000,
       1.000000,
       1.000000,
       1.000000,
       1.000000,
       1.000000,
       1.000000,
       1.000000,
       1.000000,
       1.000000,
       1.000000,
       1.000000,
       1.000000,
       1.000000,
       1.000000,
       1.000000,
       1.000000,
       1.000000,
       1.000000,
       1.000000,
       1.000000,
       1.000000,
       1.000000,
       1.000000,
       1.000000,
       1.000000,
       1.000000,
       1.000000,
       1.000000,
       1.000000,
       1.000000,
       1.000000,
       1.000000,
       1.000000,
       1.000000,
       1.000000,
       1.000000,
       1.000000,
       1.000000,
       1.000000,
       1.000000,
       1.000000,
       1.000000,
       1.000000,
       1.000000,
       1.000000,
       1.000000,
       1.000000,
       1.000000,
       1.000000,
       1.000000,
       1.000000,
       1.000000,
       1.000000,
       1.000000,
       1.000000,
       1.000000,
       1.000000,
       1.000000,
       1.000000,
       1.000000,
       1.000000,
       1.000000,
       1.000000,
       1.000000,
       1.000000,
       1.000000,
       1.000000,
       1.000000,
       1.000000,
       1.000000,
       1.000000,
       1.000000,
       1.000000,
       1.000000,
       1.000000,
       1.000000,
       1.000000,
       1.000000,
       1.000000,
       1.000000,
       1.000000,
       1.000000,
       1.000000,
       1.000000,
       1.000000,
       1.000000,
       1.000000,
       1.000000,
       1.000000,
       1.000000,
       1.000000,
       1.000000,
       1.000000,
       1.000000,
       1.000000,
       1.000000,
       1.000000,
       1.000000,
       1.000000,
       1.000000,
       1.000000,
       1.000000,
       1.000000,
       1.000000,
       1.000000,
       1.000000,
       1.000000,
       1.000000,
       1.000000,
       1.000000,
       1.000000,
       1.000000,
       1.000000,
       1.000000,
       1.000000,
       1.000000,
       1.000000,
       1.000000,
       1.000000,
       1.000000,
       1.000000,
       1.000000,
       1.000000,
       1.000000,
       1.000000,
       1.000000,
       1.000000,
       1.000000,
       1.000000,
       1.000000,
       1.000000,
       1.000000,
       1.000000,
       1.000000,
       1.000000,
       1.000000,
       1.000000,
       1.000000,
       1.000000,
       1.000000,
       1.000000,
       1.000000,
       1.000000,
       1.000000,
       1.000000,
       1.000000,
       1.000000,
       1.000000,
       1.000000,
       1.000000,
       1.000000,
       1.000000,
       1.000000,
       1.000000;
          1.000000, -0.000000, 0.000000, 0.000000,
          -0.000000, 1.000000, -0.000000, 0.000000,
          0.000000, -0.000000, 1.000000, 0.000000,
          -0.000000, -0.000000, -0.000000, 1.000000;;
      }


     }
   }

// Start of Animation

AnimationSet Untitled {
}
