xof 0303txt 0032

// DirectX 9.0 file
// Creator: Ultimate Unwrap3D Pro v3.19
// Website: http://www.unwrap3d.com
// Time: Thu Dec 10 21:44:48 2009

// Start of Templates

template VertexDuplicationIndices {
 <b8d65549-d7c9-4995-89cf-53a9a8b031e3>
 DWORD nIndices;
 DWORD nOriginalVertices;
 array DWORD indices[nIndices];
}

template FVFData {
 <b6e70a0e-8ef9-4e83-94ad-ecc8b0c04897>
 DWORD dwFVF;
 DWORD nDWords;
 array DWORD data[nDWords];
}

template Header {
 <3D82AB43-62DA-11cf-AB39-0020AF71E433>
 WORD major;
 WORD minor;
 DWORD flags;
}

template Vector {
 <3D82AB5E-62DA-11cf-AB39-0020AF71E433>
 FLOAT x;
 FLOAT y;
 FLOAT z;
}

template Coords2d {
 <F6F23F44-7686-11cf-8F52-0040333594A3>
 FLOAT u;
 FLOAT v;
}

template Matrix4x4 {
 <F6F23F45-7686-11cf-8F52-0040333594A3>
 array FLOAT matrix[16];
}

template ColorRGBA {
 <35FF44E0-6C7C-11cf-8F52-0040333594A3>
 FLOAT red;
 FLOAT green;
 FLOAT blue;
 FLOAT alpha;
}

template ColorRGB {
 <D3E16E81-7835-11cf-8F52-0040333594A3>
 FLOAT red;
 FLOAT green;
 FLOAT blue;
}

template IndexedColor {
 <1630B820-7842-11cf-8F52-0040333594A3>
 DWORD index;
 ColorRGBA indexColor;
}

template Material {
 <3D82AB4D-62DA-11cf-AB39-0020AF71E433>
 ColorRGBA faceColor;
 FLOAT power;
 ColorRGB specularColor;
 ColorRGB emissiveColor;
 [...]
}

template TextureFilename {
 <A42790E1-7810-11cf-8F52-0040333594A3>
 STRING filename;
}

template MeshFace {
 <3D82AB5F-62DA-11cf-AB39-0020AF71E433>
 DWORD nFaceVertexIndices;
 array DWORD faceVertexIndices[nFaceVertexIndices];
}

template MeshTextureCoords {
 <F6F23F40-7686-11cf-8F52-0040333594A3>
 DWORD nTextureCoords;
 array Coords2d textureCoords[nTextureCoords];
}

template MeshMaterialList {
 <F6F23F42-7686-11cf-8F52-0040333594A3>
 DWORD nMaterials;
 DWORD nFaceIndexes;
 array DWORD faceIndexes[nFaceIndexes];
 [Material]
}

template MeshNormals {
 <F6F23F43-7686-11cf-8F52-0040333594A3>
 DWORD nNormals;
 array Vector normals[nNormals];
 DWORD nFaceNormals;
 array MeshFace faceNormals[nFaceNormals];
}

template MeshVertexColors {
 <1630B821-7842-11cf-8F52-0040333594A3>
 DWORD nVertexColors;
 array IndexedColor vertexColors[nVertexColors];
}

template Mesh {
 <3D82AB44-62DA-11cf-AB39-0020AF71E433>
 DWORD nVertices;
 array Vector vertices[nVertices];
 DWORD nFaces;
 array MeshFace faces[nFaces];
 [...]
}

template FrameTransformMatrix {
 <F6F23F41-7686-11cf-8F52-0040333594A3>
 Matrix4x4 frameMatrix;
}

template Frame {
 <3D82AB46-62DA-11cf-AB39-0020AF71E433>
 [...]
}

template FloatKeys {
 <10DD46A9-775B-11cf-8F52-0040333594A3>
 DWORD nValues;
 array FLOAT values[nValues];
}

template TimedFloatKeys {
 <F406B180-7B3B-11cf-8F52-0040333594A3>
 DWORD time;
 FloatKeys tfkeys;
}

template AnimationKey {
 <10DD46A8-775B-11cf-8F52-0040333594A3>
 DWORD keyType;
 DWORD nKeys;
 array TimedFloatKeys keys[nKeys];
}

template AnimationOptions {
 <E2BF56C0-840F-11cf-8F52-0040333594A3>
 DWORD openclosed;
 DWORD positionquality;
}

template Animation {
 <3D82AB4F-62DA-11cf-AB39-0020AF71E433>
 [...]
}

template AnimationSet {
 <3D82AB50-62DA-11cf-AB39-0020AF71E433>
 [Animation]
}

template XSkinMeshHeader {
 <3CF169CE-FF7C-44ab-93C0-F78F62D172E2>
 WORD nMaxSkinWeightsPerVertex;
 WORD nMaxSkinWeightsPerFace;
 WORD nBones;
}

template SkinWeights {
 <6F0D123B-BAD2-4167-A0D0-80224F25FABB>
 STRING transformNodeName;
 DWORD nWeights;
 array DWORD vertexIndices[nWeights];
 array FLOAT weights[nWeights];
 Matrix4x4 matrixOffset;
}

template AnimTicksPerSecond {
 <9E415A43-7BA6-4a73-8743-B73D47E88476>
 DWORD AnimTicksPerSecond;
}

AnimTicksPerSecond {
 30;
}

// Start of Frames

   Frame Body {
      FrameTransformMatrix {
       1.000000, 0.000000, 0.000000, 0.000000,
       0.000000, 1.000000, 0.000000, 0.000000,
       0.000000, 0.000000, 1.000000, 0.000000,
       0.000000, 0.000000, 0.000000, 1.000000;;
      }

   }
   Frame def_surf_mat {
      FrameTransformMatrix {
       1.000000, 0.000000, 0.000000, 0.000000,
       0.000000, 1.000000, 0.000000, 0.000000,
       0.000000, 0.000000, 1.000000, 0.000000,
       0.000000, 0.000000, 0.000000, 1.000000;;
      }

   }

   Frame Body0 {
      FrameTransformMatrix {
       1.000000, 0.000000, 0.000000, 0.000000,
       0.000000, 1.000000, 0.000000, 0.000000,
       0.000000, 0.000000, 1.000000, 0.000000,
       0.000000, 0.000000, 0.000000, 1.000000;;
      }

      Mesh skinnedMesh {
       238;
       -3.936951; 1.482201; 0.713750;,
       -3.936951; 1.735500; 0.396150;,
       -4.363451; 1.482201; 0.713750;,
       -4.363451; 1.735500; 0.396150;,
       -3.936951; 1.116100; 0.890050;,
       -4.363451; 1.116100; 0.890050;,
       -3.936951; 0.709801; 0.890050;,
       -4.363451; 0.709801; 0.890050;,
       -3.936951; 0.343800; 0.713750;,
       -4.363451; 0.343800; 0.713750;,
       -3.936951; 0.090500; 0.396150;,
       -4.363451; 0.090500; 0.396150;,
       -3.936951; 0.000000; 0.000050;,
       -4.363451; 0.000000; 0.000050;,
       -3.936951; 0.090500; -0.396050;,
       -4.363451; 0.090500; -0.396050;,
       -3.936951; 0.343800; -0.713751;,
       -4.363451; 0.343800; -0.713751;,
       -3.936951; 0.709801; -0.890050;,
       -4.363451; 0.709801; -0.890050;,
       -3.936951; 1.116100; -0.890050;,
       -4.363451; 1.116100; -0.890050;,
       -3.936951; 1.482201; -0.713751;,
       -4.363451; 1.482201; -0.713751;,
       -3.936951; 1.735500; -0.396050;,
       -4.363451; 1.735500; -0.396050;,
       -3.936951; 1.825901; 0.000050;,
       -4.363451; 1.825901; 0.000050;,
       -3.936951; 1.825901; 0.000050;,
       -4.363451; 1.825901; 0.000050;,
       -4.363451; 1.735500; 0.396150;,
       -4.363451; 1.825901; 0.000050;,
       -4.363451; 1.482201; 0.713750;,
       -4.363451; 1.735500; -0.396050;,
       -4.363451; 1.116100; 0.890050;,
       -4.363451; 1.482201; -0.713751;,
       -4.363451; 0.709801; 0.890050;,
       -4.363451; 1.116100; -0.890050;,
       -4.363451; 0.343800; 0.713750;,
       -4.363451; 0.709801; -0.890050;,
       -4.363451; 0.090500; 0.396150;,
       -4.363451; 0.343800; -0.713751;,
       -4.363451; 0.000000; 0.000050;,
       -4.363451; 0.090500; -0.396050;,
       4.363449; 1.364902; 0.000050;,
       4.363449; 1.320202; 0.196150;,
       4.363449; 1.320202; -0.196051;,
       4.363449; 1.194801; 0.353350;,
       4.363449; 1.194801; -0.353351;,
       4.363449; 1.013599; 0.440650;,
       4.363449; 1.013599; -0.440551;,
       4.363449; 0.812401; 0.440650;,
       4.363449; 0.812401; -0.440551;,
       4.363449; 0.631203; 0.353350;,
       4.363449; 0.631203; -0.353351;,
       4.363449; 0.505802; 0.196150;,
       4.363449; 0.505802; -0.196051;,
       4.363449; 0.461102; 0.000050;,
       -3.086451; 1.512001; -0.288450;,
       -3.086451; 1.577801; 0.000050;,
       -3.086451; 1.327499; -0.519751;,
       -3.086451; 1.060902; -0.648150;,
       -3.086451; 0.764999; -0.648150;,
       -3.086451; 0.498501; -0.519751;,
       -3.086451; 0.313999; -0.288450;,
       -3.086451; 0.248100; 0.000050;,
       -3.086451; 0.313999; 0.288449;,
       -3.086451; 0.498501; 0.519850;,
       -3.086451; 0.764999; 0.648250;,
       -3.086451; 1.060902; 0.648250;,
       -3.086451; 1.327499; 0.519850;,
       -3.086451; 1.512001; 0.288449;,
       -3.086451; 1.577801; 0.000050;,
       -2.151951; 1.412701; -0.240650;,
       -2.151951; 1.467602; 0.000050;,
       -2.151951; 1.258801; -0.433650;,
       -2.151951; 1.036400; -0.540751;,
       -2.151951; 0.789600; -0.540751;,
       -2.151951; 0.567200; -0.433650;,
       -2.151951; 0.413300; -0.240650;,
       -2.151951; 0.358299; 0.000050;,
       -2.151951; 0.413300; 0.240649;,
       -2.151951; 0.567200; 0.433650;,
       -2.151951; 0.789600; 0.540750;,
       -2.151951; 1.036400; 0.540750;,
       -2.151951; 1.258801; 0.433650;,
       -2.151951; 1.412701; 0.240649;,
       -2.151951; 1.467602; 0.000050;,
       -1.019152; 1.496101; -0.280850;,
       -1.019152; 1.560200; 0.000050;,
       -1.019152; 1.316502; -0.506050;,
       -1.019152; 1.056999; -0.631050;,
       -1.019152; 0.769001; -0.631050;,
       -1.019152; 0.509399; -0.506050;,
       -1.019152; 0.329800; -0.280850;,
       -1.019152; 0.265701; 0.000050;,
       -1.019152; 0.329800; 0.280849;,
       -1.019152; 0.509399; 0.506050;,
       -1.019152; 0.769001; 0.631050;,
       -1.019152; 1.056999; 0.631050;,
       -1.019152; 1.316502; 0.506050;,
       -1.019152; 1.496101; 0.280849;,
       -1.019152; 1.560200; 0.000050;,
       -0.809351; 1.580902; -0.321651;,
       -0.809351; 1.654301; 0.000050;,
       -0.809351; 1.375202; -0.579551;,
       -0.809351; 1.077900; -0.722651;,
       -0.809351; 0.748001; -0.722651;,
       -0.809351; 0.450802; -0.579551;,
       -0.809351; 0.245102; -0.321651;,
       -0.809351; 0.171700; 0.000050;,
       -0.809351; 0.245102; 0.321650;,
       -0.809351; 0.450802; 0.579550;,
       -0.809351; 0.748001; 0.722750;,
       -0.809351; 1.077900; 0.722750;,
       -0.809351; 1.375202; 0.579550;,
       -0.809351; 1.580902; 0.321650;,
       -0.809351; 1.654301; 0.000050;,
       -0.619152; 1.508701; -0.286850;,
       -0.619152; 1.574200; 0.000050;,
       -0.619152; 1.325199; -0.516951;,
       -0.619152; 1.060101; -0.644550;,
       -0.619152; 0.765900; -0.644550;,
       -0.619152; 0.500801; -0.516951;,
       -0.619152; 0.317303; -0.286850;,
       -0.619152; 0.251801; 0.000050;,
       -0.619152; 0.317303; 0.286850;,
       -0.619152; 0.500801; 0.516950;,
       -0.619152; 0.765900; 0.644650;,
       -0.619152; 1.060101; 0.644650;,
       -0.619152; 1.325199; 0.516950;,
       -0.619152; 1.508701; 0.286850;,
       -0.619152; 1.574200; 0.000050;,
       0.207350; 1.369900; -0.220051;,
       0.207350; 1.420101; 0.000050;,
       0.207350; 1.229202; -0.396450;,
       0.207350; 1.025803; -0.494350;,
       0.207350; 0.800201; -0.494350;,
       0.207350; 0.596802; -0.396450;,
       0.207350; 0.456100; -0.220051;,
       0.207350; 0.405899; 0.000050;,
       0.207350; 0.456100; 0.220050;,
       0.207350; 0.596802; 0.396450;,
       0.207350; 0.800201; 0.494349;,
       0.207350; 1.025803; 0.494349;,
       0.207350; 1.229202; 0.396450;,
       0.207350; 1.369900; 0.220050;,
       0.207350; 1.420101; 0.000050;,
       1.874149; 1.324100; -0.197950;,
       1.874149; 1.369301; 0.000050;,
       1.874149; 1.197502; -0.356750;,
       1.874149; 1.014500; -0.444850;,
       1.874149; 0.811501; -0.444850;,
       1.874149; 0.628502; -0.356750;,
       1.874149; 0.501900; -0.197950;,
       1.874149; 0.456699; 0.000050;,
       1.874149; 0.501900; 0.197949;,
       1.874149; 0.628502; 0.356750;,
       1.874149; 0.811501; 0.444850;,
       1.874149; 1.014500; 0.444850;,
       1.874149; 1.197502; 0.356750;,
       1.874149; 1.324100; 0.197949;,
       1.874149; 1.369301; 0.000050;,
       2.899050; 1.513000; -0.288950;,
       2.899050; 1.579002; 0.000050;,
       2.899050; 1.328201; -0.520650;,
       2.899050; 1.061199; -0.649250;,
       2.899050; 0.764801; -0.649250;,
       2.899050; 0.497803; -0.520650;,
       2.899050; 0.313000; -0.288950;,
       2.899050; 0.247002; 0.000050;,
       2.899050; 0.313000; 0.288950;,
       2.899050; 0.497803; 0.520650;,
       2.899050; 0.764801; 0.649250;,
       2.899050; 1.061199; 0.649250;,
       2.899050; 1.328201; 0.520650;,
       2.899050; 1.513000; 0.288950;,
       2.899050; 1.579002; 0.000050;,
       3.663349; 1.659801; -0.359651;,
       3.663349; 1.741901; 0.000050;,
       3.663349; 1.429802; -0.648050;,
       3.663349; 1.097401; -0.808050;,
       3.663349; 0.728500; -0.808050;,
       3.663349; 0.396202; -0.648050;,
       3.663349; 0.166203; -0.359651;,
       3.663349; 0.084103; 0.000050;,
       3.663349; 0.166203; 0.359650;,
       3.663349; 0.396202; 0.648049;,
       3.663349; 0.728500; 0.808149;,
       3.663349; 1.097401; 0.808149;,
       3.663349; 1.429802; 0.648049;,
       3.663349; 1.659801; 0.359650;,
       3.663349; 1.741901; 0.000050;,
       3.980249; 1.664200; -0.361751;,
       3.980249; 1.746700; 0.000050;,
       3.980249; 1.432800; -0.651851;,
       3.980249; 1.098499; -0.812850;,
       3.980249; 0.727501; -0.812850;,
       3.980249; 0.393200; -0.651851;,
       3.980249; 0.161800; -0.361751;,
       3.980249; 0.079201; 0.000050;,
       3.980249; 0.161800; 0.361750;,
       3.980249; 0.393200; 0.651850;,
       3.980249; 0.727501; 0.812850;,
       3.980249; 1.098499; 0.812850;,
       3.980249; 1.432800; 0.651850;,
       3.980249; 1.664200; 0.361750;,
       3.980249; 1.746700; 0.000050;,
       4.216749; 1.513203; -0.289050;,
       4.216749; 1.579201; 0.000050;,
       4.216749; 1.328400; -0.520850;,
       4.216749; 1.061199; -0.649550;,
       4.216749; 0.764702; -0.649550;,
       4.216749; 0.497601; -0.520850;,
       4.216749; 0.312702; -0.289050;,
       4.216749; 0.246799; 0.000050;,
       4.216749; 0.312702; 0.289050;,
       4.216749; 0.497601; 0.520849;,
       4.216749; 0.764702; 0.649549;,
       4.216749; 1.061199; 0.649549;,
       4.216749; 1.328400; 0.520849;,
       4.216749; 1.513203; 0.289050;,
       4.216749; 1.579201; 0.000050;,
       4.363449; 1.320202; -0.196051;,
       4.363449; 1.364902; 0.000050;,
       4.363449; 1.194801; -0.353351;,
       4.363449; 1.013599; -0.440551;,
       4.363449; 0.812401; -0.440551;,
       4.363449; 0.631203; -0.353351;,
       4.363449; 0.505802; -0.196051;,
       4.363449; 0.461102; 0.000050;,
       4.363449; 0.505802; 0.196150;,
       4.363449; 0.631203; 0.353350;,
       4.363449; 0.812401; 0.440650;,
       4.363449; 1.013599; 0.440650;,
       4.363449; 1.194801; 0.353350;,
       4.363449; 1.320202; 0.196150;,
       4.363449; 1.364902; 0.000050;;
       388;
       3;0, 1, 2;,
       3;1, 3, 2;,
       3;4, 0, 5;,
       3;0, 2, 5;,
       3;6, 4, 7;,
       3;4, 5, 7;,
       3;8, 6, 9;,
       3;6, 7, 9;,
       3;10, 8, 11;,
       3;8, 9, 11;,
       3;12, 10, 13;,
       3;10, 11, 13;,
       3;14, 12, 15;,
       3;12, 13, 15;,
       3;16, 14, 17;,
       3;14, 15, 17;,
       3;18, 16, 19;,
       3;16, 17, 19;,
       3;20, 18, 21;,
       3;18, 19, 21;,
       3;22, 20, 23;,
       3;20, 21, 23;,
       3;24, 22, 25;,
       3;22, 23, 25;,
       3;26, 24, 27;,
       3;24, 25, 27;,
       3;1, 28, 3;,
       3;28, 29, 3;,
       3;30, 31, 32;,
       3;31, 33, 32;,
       3;32, 33, 34;,
       3;33, 35, 34;,
       3;34, 35, 36;,
       3;35, 37, 36;,
       3;36, 37, 38;,
       3;37, 39, 38;,
       3;38, 39, 40;,
       3;39, 41, 40;,
       3;40, 41, 42;,
       3;41, 43, 42;,
       3;44, 45, 46;,
       3;45, 47, 46;,
       3;46, 47, 48;,
       3;47, 49, 48;,
       3;48, 49, 50;,
       3;49, 51, 50;,
       3;50, 51, 52;,
       3;51, 53, 52;,
       3;52, 53, 54;,
       3;53, 55, 54;,
       3;54, 55, 56;,
       3;55, 57, 56;,
       3;24, 26, 58;,
       3;26, 59, 58;,
       3;22, 24, 60;,
       3;24, 58, 60;,
       3;20, 22, 61;,
       3;22, 60, 61;,
       3;18, 20, 62;,
       3;20, 61, 62;,
       3;16, 18, 63;,
       3;18, 62, 63;,
       3;14, 16, 64;,
       3;16, 63, 64;,
       3;12, 14, 65;,
       3;14, 64, 65;,
       3;10, 12, 66;,
       3;12, 65, 66;,
       3;8, 10, 67;,
       3;10, 66, 67;,
       3;6, 8, 68;,
       3;8, 67, 68;,
       3;4, 6, 69;,
       3;6, 68, 69;,
       3;0, 4, 70;,
       3;4, 69, 70;,
       3;1, 0, 71;,
       3;0, 70, 71;,
       3;28, 1, 72;,
       3;1, 71, 72;,
       3;58, 59, 73;,
       3;59, 74, 73;,
       3;60, 58, 75;,
       3;58, 73, 75;,
       3;61, 60, 76;,
       3;60, 75, 76;,
       3;62, 61, 77;,
       3;61, 76, 77;,
       3;63, 62, 78;,
       3;62, 77, 78;,
       3;64, 63, 79;,
       3;63, 78, 79;,
       3;65, 64, 80;,
       3;64, 79, 80;,
       3;66, 65, 81;,
       3;65, 80, 81;,
       3;67, 66, 82;,
       3;66, 81, 82;,
       3;68, 67, 83;,
       3;67, 82, 83;,
       3;69, 68, 84;,
       3;68, 83, 84;,
       3;70, 69, 85;,
       3;69, 84, 85;,
       3;71, 70, 86;,
       3;70, 85, 86;,
       3;72, 71, 87;,
       3;71, 86, 87;,
       3;73, 74, 88;,
       3;74, 89, 88;,
       3;75, 73, 90;,
       3;73, 88, 90;,
       3;76, 75, 91;,
       3;75, 90, 91;,
       3;77, 76, 92;,
       3;76, 91, 92;,
       3;78, 77, 93;,
       3;77, 92, 93;,
       3;79, 78, 94;,
       3;78, 93, 94;,
       3;80, 79, 95;,
       3;79, 94, 95;,
       3;81, 80, 96;,
       3;80, 95, 96;,
       3;82, 81, 97;,
       3;81, 96, 97;,
       3;83, 82, 98;,
       3;82, 97, 98;,
       3;84, 83, 99;,
       3;83, 98, 99;,
       3;85, 84, 100;,
       3;84, 99, 100;,
       3;86, 85, 101;,
       3;85, 100, 101;,
       3;87, 86, 102;,
       3;86, 101, 102;,
       3;88, 89, 103;,
       3;89, 104, 103;,
       3;90, 88, 105;,
       3;88, 103, 105;,
       3;91, 90, 106;,
       3;90, 105, 106;,
       3;92, 91, 107;,
       3;91, 106, 107;,
       3;93, 92, 108;,
       3;92, 107, 108;,
       3;94, 93, 109;,
       3;93, 108, 109;,
       3;95, 94, 110;,
       3;94, 109, 110;,
       3;96, 95, 111;,
       3;95, 110, 111;,
       3;97, 96, 112;,
       3;96, 111, 112;,
       3;98, 97, 113;,
       3;97, 112, 113;,
       3;99, 98, 114;,
       3;98, 113, 114;,
       3;100, 99, 115;,
       3;99, 114, 115;,
       3;101, 100, 116;,
       3;100, 115, 116;,
       3;102, 101, 117;,
       3;101, 116, 117;,
       3;103, 104, 118;,
       3;104, 119, 118;,
       3;105, 103, 120;,
       3;103, 118, 120;,
       3;106, 105, 121;,
       3;105, 120, 121;,
       3;107, 106, 122;,
       3;106, 121, 122;,
       3;108, 107, 123;,
       3;107, 122, 123;,
       3;109, 108, 124;,
       3;108, 123, 124;,
       3;110, 109, 125;,
       3;109, 124, 125;,
       3;111, 110, 126;,
       3;110, 125, 126;,
       3;112, 111, 127;,
       3;111, 126, 127;,
       3;113, 112, 128;,
       3;112, 127, 128;,
       3;114, 113, 129;,
       3;113, 128, 129;,
       3;115, 114, 130;,
       3;114, 129, 130;,
       3;116, 115, 131;,
       3;115, 130, 131;,
       3;117, 116, 132;,
       3;116, 131, 132;,
       3;118, 119, 133;,
       3;119, 134, 133;,
       3;120, 118, 135;,
       3;118, 133, 135;,
       3;121, 120, 136;,
       3;120, 135, 136;,
       3;122, 121, 137;,
       3;121, 136, 137;,
       3;123, 122, 138;,
       3;122, 137, 138;,
       3;124, 123, 139;,
       3;123, 138, 139;,
       3;125, 124, 140;,
       3;124, 139, 140;,
       3;126, 125, 141;,
       3;125, 140, 141;,
       3;127, 126, 142;,
       3;126, 141, 142;,
       3;128, 127, 143;,
       3;127, 142, 143;,
       3;129, 128, 144;,
       3;128, 143, 144;,
       3;130, 129, 145;,
       3;129, 144, 145;,
       3;131, 130, 146;,
       3;130, 145, 146;,
       3;132, 131, 147;,
       3;131, 146, 147;,
       3;133, 134, 148;,
       3;134, 149, 148;,
       3;135, 133, 150;,
       3;133, 148, 150;,
       3;136, 135, 151;,
       3;135, 150, 151;,
       3;137, 136, 152;,
       3;136, 151, 152;,
       3;138, 137, 153;,
       3;137, 152, 153;,
       3;139, 138, 154;,
       3;138, 153, 154;,
       3;140, 139, 155;,
       3;139, 154, 155;,
       3;141, 140, 156;,
       3;140, 155, 156;,
       3;142, 141, 157;,
       3;141, 156, 157;,
       3;143, 142, 158;,
       3;142, 157, 158;,
       3;144, 143, 159;,
       3;143, 158, 159;,
       3;145, 144, 160;,
       3;144, 159, 160;,
       3;146, 145, 161;,
       3;145, 160, 161;,
       3;147, 146, 162;,
       3;146, 161, 162;,
       3;148, 149, 163;,
       3;149, 164, 163;,
       3;150, 148, 165;,
       3;148, 163, 165;,
       3;151, 150, 166;,
       3;150, 165, 166;,
       3;152, 151, 167;,
       3;151, 166, 167;,
       3;153, 152, 168;,
       3;152, 167, 168;,
       3;154, 153, 169;,
       3;153, 168, 169;,
       3;155, 154, 170;,
       3;154, 169, 170;,
       3;156, 155, 171;,
       3;155, 170, 171;,
       3;157, 156, 172;,
       3;156, 171, 172;,
       3;158, 157, 173;,
       3;157, 172, 173;,
       3;159, 158, 174;,
       3;158, 173, 174;,
       3;160, 159, 175;,
       3;159, 174, 175;,
       3;161, 160, 176;,
       3;160, 175, 176;,
       3;162, 161, 177;,
       3;161, 176, 177;,
       3;163, 164, 178;,
       3;164, 179, 178;,
       3;165, 163, 180;,
       3;163, 178, 180;,
       3;166, 165, 181;,
       3;165, 180, 181;,
       3;167, 166, 182;,
       3;166, 181, 182;,
       3;168, 167, 183;,
       3;167, 182, 183;,
       3;169, 168, 184;,
       3;168, 183, 184;,
       3;170, 169, 185;,
       3;169, 184, 185;,
       3;171, 170, 186;,
       3;170, 185, 186;,
       3;172, 171, 187;,
       3;171, 186, 187;,
       3;173, 172, 188;,
       3;172, 187, 188;,
       3;174, 173, 189;,
       3;173, 188, 189;,
       3;175, 174, 190;,
       3;174, 189, 190;,
       3;176, 175, 191;,
       3;175, 190, 191;,
       3;177, 176, 192;,
       3;176, 191, 192;,
       3;178, 179, 193;,
       3;179, 194, 193;,
       3;180, 178, 195;,
       3;178, 193, 195;,
       3;181, 180, 196;,
       3;180, 195, 196;,
       3;182, 181, 197;,
       3;181, 196, 197;,
       3;183, 182, 198;,
       3;182, 197, 198;,
       3;184, 183, 199;,
       3;183, 198, 199;,
       3;185, 184, 200;,
       3;184, 199, 200;,
       3;186, 185, 201;,
       3;185, 200, 201;,
       3;187, 186, 202;,
       3;186, 201, 202;,
       3;188, 187, 203;,
       3;187, 202, 203;,
       3;189, 188, 204;,
       3;188, 203, 204;,
       3;190, 189, 205;,
       3;189, 204, 205;,
       3;191, 190, 206;,
       3;190, 205, 206;,
       3;192, 191, 207;,
       3;191, 206, 207;,
       3;193, 194, 208;,
       3;194, 209, 208;,
       3;195, 193, 210;,
       3;193, 208, 210;,
       3;196, 195, 211;,
       3;195, 210, 211;,
       3;197, 196, 212;,
       3;196, 211, 212;,
       3;198, 197, 213;,
       3;197, 212, 213;,
       3;199, 198, 214;,
       3;198, 213, 214;,
       3;200, 199, 215;,
       3;199, 214, 215;,
       3;201, 200, 216;,
       3;200, 215, 216;,
       3;202, 201, 217;,
       3;201, 216, 217;,
       3;203, 202, 218;,
       3;202, 217, 218;,
       3;204, 203, 219;,
       3;203, 218, 219;,
       3;205, 204, 220;,
       3;204, 219, 220;,
       3;206, 205, 221;,
       3;205, 220, 221;,
       3;207, 206, 222;,
       3;206, 221, 222;,
       3;208, 209, 223;,
       3;209, 224, 223;,
       3;210, 208, 225;,
       3;208, 223, 225;,
       3;211, 210, 226;,
       3;210, 225, 226;,
       3;212, 211, 227;,
       3;211, 226, 227;,
       3;213, 212, 228;,
       3;212, 227, 228;,
       3;214, 213, 229;,
       3;213, 228, 229;,
       3;215, 214, 230;,
       3;214, 229, 230;,
       3;216, 215, 231;,
       3;215, 230, 231;,
       3;217, 216, 232;,
       3;216, 231, 232;,
       3;218, 217, 233;,
       3;217, 232, 233;,
       3;219, 218, 234;,
       3;218, 233, 234;,
       3;220, 219, 235;,
       3;219, 234, 235;,
       3;221, 220, 236;,
       3;220, 235, 236;,
       3;222, 221, 237;,
       3;221, 236, 237;;

      MeshNormals {
       238;
       0.141562; 0.616062; 0.774873;,
       0.141577; 0.891256; 0.430834;,
       0.000000; 0.680981; 0.732301;,
       0.000000; 0.931287; 0.364287;,
       0.141539; 0.218857; 0.965437;,
       0.000000; 0.295832; 0.955240;,
       0.141536; -0.221754; 0.964776;,
       0.000000; -0.147951; 0.988995;,
       0.141546; -0.618387; 0.773021;,
       0.000000; -0.562424; 0.826849;,
       0.141571; -0.892481; 0.428294;,
       0.000000; -0.865406; 0.501071;,
       0.141580; -0.989926; -0.001462;,
       0.000000; -0.997112; 0.075939;,
       0.141557; -0.891240; -0.430874;,
       0.000000; -0.931246; -0.364390;,
       0.141582; -0.616114; -0.774828;,
       0.000000; -0.681082; -0.732207;,
       0.141592; -0.218910; -0.965417;,
       0.000000; -0.295900; -0.955219;,
       0.141589; 0.221700; -0.964781;,
       0.000000; 0.147916; -0.989000;,
       0.141594; 0.618398; -0.773004;,
       0.000000; 0.562405; -0.826862;,
       0.141564; 0.892541; -0.428171;,
       0.000000; 0.865498; -0.500912;,
       0.183920; 0.958310; -0.218665;,
       0.000000; 0.974931; -0.222506;,
       0.091966; 0.970800; 0.221564;,
       0.000000; 0.974931; 0.222506;,
       -1.000000; 0.000000; 0.000000;,
       -1.000000; 0.000000; 0.000000;,
       -1.000000; 0.000000; 0.000000;,
       -1.000000; 0.000000; 0.000000;,
       -1.000000; 0.000000; 0.000000;,
       -1.000000; 0.000000; 0.000000;,
       -1.000000; 0.000000; 0.000000;,
       -1.000000; 0.000000; 0.000000;,
       -1.000000; 0.000000; 0.000000;,
       -1.000000; 0.000000; 0.000000;,
       -1.000000; 0.000000; 0.000000;,
       -1.000000; 0.000000; 0.000000;,
       -1.000000; 0.000000; 0.000000;,
       -1.000000; 0.000000; 0.000000;,
       1.000000; 0.000000; 0.000000;,
       1.000000; 0.000000; 0.000000;,
       1.000000; 0.000000; 0.000000;,
       1.000000; 0.000000; 0.000000;,
       1.000000; 0.000000; 0.000000;,
       1.000000; 0.000000; 0.000000;,
       1.000000; 0.000000; 0.000000;,
       1.000000; 0.000000; 0.000000;,
       1.000000; 0.000000; 0.000000;,
       1.000000; 0.000000; 0.000000;,
       1.000000; 0.000000; 0.000000;,
       1.000000; 0.000000; 0.000000;,
       1.000000; 0.000000; 0.000000;,
       1.000000; 0.000000; 0.000000;,
       0.199312; 0.882378; -0.426245;,
       0.167825; 0.961134; -0.219216;,
       0.199304; 0.610032; -0.766902;,
       0.199323; 0.216891; -0.955630;,
       0.199326; -0.219288; -0.955082;,
       0.199323; -0.611953; -0.765365;,
       0.199322; -0.883362; -0.424197;,
       0.199331; -0.979931; 0.001250;,
       0.199330; -0.882331; 0.426333;,
       0.199341; -0.610098; 0.766840;,
       0.199334; -0.216956; 0.955613;,
       0.199314; 0.219241; 0.955095;,
       0.199310; 0.611959; 0.765364;,
       0.199324; 0.883437; 0.424038;,
       0.221080; 0.950817; 0.216957;,
       0.017929; 0.900805; -0.433854;,
       -0.014944; 0.974844; -0.222385;,
       0.017903; 0.623294; -0.781783;,
       0.017884; 0.222364; -0.974800;,
       0.017893; -0.222600; -0.974745;,
       0.017877; -0.623521; -0.781602;,
       0.017892; -0.900845; -0.433771;,
       0.017908; -0.999840; 0.000137;,
       0.017888; -0.900707; 0.434059;,
       0.017912; -0.623302; 0.781776;,
       0.017941; -0.222387; 0.974793;,
       0.017945; 0.222624; 0.974739;,
       0.017942; 0.623502; 0.781616;,
       0.017927; 0.900899; 0.433659;,
       0.049874; 0.973729; 0.222181;,
       -0.249269; 0.873880; -0.417371;,
       -0.297241; 0.930876; -0.212408;,
       -0.249128; 0.606246; -0.755249;,
       -0.249004; 0.218558; -0.943520;,
       -0.249065; -0.212457; -0.944896;,
       -0.249110; -0.601379; -0.759136;,
       -0.249132; -0.871224; -0.422968;,
       -0.249105; -0.968471; -0.003116;,
       -0.249118; -0.873868; 0.417487;,
       -0.249167; -0.606261; 0.755224;,
       -0.249227; -0.218502; 0.943474;,
       -0.249194; 0.212518; 0.944848;,
       -0.249226; 0.601393; 0.759087;,
       -0.249277; 0.871172; 0.422989;,
       -0.188819; 0.957391; 0.218518;,
       -0.011513; 0.900755; -0.434174;,
       0.128747; 0.966822; -0.220635;,
       -0.011525; 0.623059; -0.782090;,
       -0.011359; 0.222106; -0.974956;,
       -0.011304; -0.222794; -0.974800;,
       -0.011339; -0.623683; -0.781596;,
       -0.011343; -0.901060; -0.433546;,
       -0.011380; -0.999935; 0.000410;,
       -0.011324; -0.900745; 0.434201;,
       -0.011361; -0.623216; 0.781967;,
       -0.011468; -0.222212; 0.974931;,
       -0.011505; 0.222902; 0.974773;,
       -0.011450; 0.623736; 0.781551;,
       -0.011523; 0.901047; 0.433569;,
       -0.151109; 0.963733; 0.219967;,
       0.287542; 0.861934; -0.417600;,
       0.247022; 0.944718; -0.215609;,
       0.287556; 0.595307; -0.750281;,
       0.287487; 0.210845; -0.934289;,
       0.287528; -0.215215; -0.933279;,
       0.287536; -0.598845; -0.747468;,
       0.287572; -0.863882; -0.413535;,
       0.287529; -0.957769; 0.002275;,
       0.287539; -0.861918; 0.417635;,
       0.287566; -0.595385; 0.750215;,
       0.287580; -0.210995; 0.934226;,
       0.287534; 0.215314; 0.933254;,
       0.287499; 0.598943; 0.747404;,
       0.287574; 0.863863; 0.413572;,
       0.314422; 0.925465; 0.211312;,
       0.107214; 0.895533; -0.431885;,
       0.079624; 0.971852; -0.221729;,
       0.107195; 0.619337; -0.777773;,
       0.107198; 0.220557; -0.969465;,
       0.107198; -0.221734; -0.969197;,
       0.107216; -0.620277; -0.777021;,
       0.107202; -0.896041; -0.430834;,
       0.107215; -0.994236; 0.000646;,
       0.107212; -0.895511; 0.431933;,
       0.107195; -0.619335; 0.777775;,
       0.107235; -0.220604; 0.969451;,
       0.107256; 0.221732; 0.969191;,
       0.107233; 0.620322; 0.776983;,
       0.107202; 0.896020; 0.430878;,
       0.129430; 0.966726; 0.220656;,
       -0.085597; 0.897998; -0.431592;,
       -0.121195; 0.967726; -0.220950;,
       -0.085597; 0.621770; -0.778509;,
       -0.085615; 0.222332; -0.971205;,
       -0.085613; -0.220970; -0.971516;,
       -0.085609; -0.620604; -0.779437;,
       -0.085609; -0.897346; -0.432944;,
       -0.085618; -0.996328; -0.000628;,
       -0.085597; -0.897973; 0.431646;,
       -0.085597; -0.621767; 0.778510;,
       -0.085616; -0.222334; 0.971204;,
       -0.085613; 0.220967; 0.971516;,
       -0.085609; 0.620608; 0.779434;,
       -0.085608; 0.897328; 0.432982;,
       -0.045656; 0.973893; 0.222370;,
       -0.204474; 0.881928; -0.424728;,
       -0.200855; 0.955041; -0.218070;,
       -0.204444; 0.610362; -0.765285;,
       -0.204422; 0.217879; -0.954327;,
       -0.204449; -0.217770; -0.954346;,
       -0.204458; -0.610250; -0.765371;,
       -0.204451; -0.881894; -0.424809;,
       -0.204461; -0.978875; -0.000033;,
       -0.204471; -0.881910; 0.424765;,
       -0.204471; -0.610403; 0.765244;,
       -0.204491; -0.217879; 0.954312;,
       -0.204479; 0.217787; 0.954336;,
       -0.204458; 0.610250; 0.765370;,
       -0.204451; 0.881880; 0.424839;,
       -0.198220; 0.955542; 0.218285;,
       -0.112497; 0.894884; -0.431887;,
       -0.078051; 0.971969; -0.221776;,
       -0.112522; 0.618850; -0.777408;,
       -0.112575; 0.220281; -0.968919;,
       -0.112511; -0.221865; -0.968565;,
       -0.112493; -0.620126; -0.776395;,
       -0.112545; -0.895577; -0.430436;,
       -0.112541; -0.993647; 0.000815;,
       -0.112500; -0.894871; 0.431914;,
       -0.112453; -0.618949; 0.777340;,
       -0.112453; -0.220402; 0.968905;,
       -0.112485; 0.221907; 0.968558;,
       -0.112496; 0.620157; 0.776370;,
       -0.112489; 0.895590; 0.430425;,
       -0.141131; 0.965146; 0.220400;,
       0.297345; 0.863277; -0.407847;,
       0.390391; 0.897593; -0.204748;,
       0.297274; 0.600786; -0.742081;,
       0.297190; 0.219312; -0.929290;,
       0.297167; -0.205623; -0.932422;,
       0.297264; -0.589730; -0.750901;,
       0.297279; -0.857143; -0.420631;,
       0.297284; -0.954763; -0.007063;,
       0.297209; -0.863251; 0.408001;,
       0.297252; -0.600805; 0.742074;,
       0.297293; -0.219370; 0.929244;,
       0.297314; 0.205590; 0.932383;,
       0.297320; 0.589762; 0.750854;,
       0.297328; 0.857135; 0.420615;,
       0.187377; 0.957676; 0.218511;,
       0.713256; 0.635572; -0.295491;,
       0.745330; 0.649988; -0.148319;,
       0.713266; 0.444367; -0.542024;,
       0.713304; 0.165199; -0.681107;,
       0.713266; -0.146743; -0.685360;,
       0.713220; -0.429615; -0.553849;,
       0.713273; -0.627331; -0.312566;,
       0.713299; -0.700796; -0.009489;,
       0.713268; -0.635523; 0.295565;,
       0.713220; -0.444412; 0.542048;,
       0.713230; -0.165242; 0.681175;,
       0.713215; 0.146764; 0.685408;,
       0.713208; 0.429628; 0.553855;,
       0.713242; 0.627345; 0.312609;,
       0.660849; 0.731698; 0.167020;,
       0.824372; 0.527181; -0.206134;,
       0.818417; 0.560254; -0.127706;,
       0.824362; 0.385493; -0.414515;,
       0.824425; 0.167414; -0.540644;,
       0.824503; -0.083650; -0.559641;,
       0.824419; -0.318323; -0.467978;,
       0.824416; -0.489863; -0.283499;,
       0.824418; -0.564355; -0.042883;,
       0.824412; -0.527119; 0.206129;,
       0.824358; -0.385481; 0.414533;,
       0.824378; -0.167530; 0.540679;,
       0.824365; 0.083770; 0.559825;,
       0.824343; 0.318370; 0.468080;,
       0.824319; 0.489986; 0.283570;,
       0.818328; 0.560352; 0.127848;;
       388;
       3;0, 1, 2;,
       3;1, 3, 2;,
       3;4, 0, 5;,
       3;0, 2, 5;,
       3;6, 4, 7;,
       3;4, 5, 7;,
       3;8, 6, 9;,
       3;6, 7, 9;,
       3;10, 8, 11;,
       3;8, 9, 11;,
       3;12, 10, 13;,
       3;10, 11, 13;,
       3;14, 12, 15;,
       3;12, 13, 15;,
       3;16, 14, 17;,
       3;14, 15, 17;,
       3;18, 16, 19;,
       3;16, 17, 19;,
       3;20, 18, 21;,
       3;18, 19, 21;,
       3;22, 20, 23;,
       3;20, 21, 23;,
       3;24, 22, 25;,
       3;22, 23, 25;,
       3;26, 24, 27;,
       3;24, 25, 27;,
       3;1, 28, 3;,
       3;28, 29, 3;,
       3;30, 31, 32;,
       3;31, 33, 32;,
       3;32, 33, 34;,
       3;33, 35, 34;,
       3;34, 35, 36;,
       3;35, 37, 36;,
       3;36, 37, 38;,
       3;37, 39, 38;,
       3;38, 39, 40;,
       3;39, 41, 40;,
       3;40, 41, 42;,
       3;41, 43, 42;,
       3;44, 45, 46;,
       3;45, 47, 46;,
       3;46, 47, 48;,
       3;47, 49, 48;,
       3;48, 49, 50;,
       3;49, 51, 50;,
       3;50, 51, 52;,
       3;51, 53, 52;,
       3;52, 53, 54;,
       3;53, 55, 54;,
       3;54, 55, 56;,
       3;55, 57, 56;,
       3;24, 26, 58;,
       3;26, 59, 58;,
       3;22, 24, 60;,
       3;24, 58, 60;,
       3;20, 22, 61;,
       3;22, 60, 61;,
       3;18, 20, 62;,
       3;20, 61, 62;,
       3;16, 18, 63;,
       3;18, 62, 63;,
       3;14, 16, 64;,
       3;16, 63, 64;,
       3;12, 14, 65;,
       3;14, 64, 65;,
       3;10, 12, 66;,
       3;12, 65, 66;,
       3;8, 10, 67;,
       3;10, 66, 67;,
       3;6, 8, 68;,
       3;8, 67, 68;,
       3;4, 6, 69;,
       3;6, 68, 69;,
       3;0, 4, 70;,
       3;4, 69, 70;,
       3;1, 0, 71;,
       3;0, 70, 71;,
       3;28, 1, 72;,
       3;1, 71, 72;,
       3;58, 59, 73;,
       3;59, 74, 73;,
       3;60, 58, 75;,
       3;58, 73, 75;,
       3;61, 60, 76;,
       3;60, 75, 76;,
       3;62, 61, 77;,
       3;61, 76, 77;,
       3;63, 62, 78;,
       3;62, 77, 78;,
       3;64, 63, 79;,
       3;63, 78, 79;,
       3;65, 64, 80;,
       3;64, 79, 80;,
       3;66, 65, 81;,
       3;65, 80, 81;,
       3;67, 66, 82;,
       3;66, 81, 82;,
       3;68, 67, 83;,
       3;67, 82, 83;,
       3;69, 68, 84;,
       3;68, 83, 84;,
       3;70, 69, 85;,
       3;69, 84, 85;,
       3;71, 70, 86;,
       3;70, 85, 86;,
       3;72, 71, 87;,
       3;71, 86, 87;,
       3;73, 74, 88;,
       3;74, 89, 88;,
       3;75, 73, 90;,
       3;73, 88, 90;,
       3;76, 75, 91;,
       3;75, 90, 91;,
       3;77, 76, 92;,
       3;76, 91, 92;,
       3;78, 77, 93;,
       3;77, 92, 93;,
       3;79, 78, 94;,
       3;78, 93, 94;,
       3;80, 79, 95;,
       3;79, 94, 95;,
       3;81, 80, 96;,
       3;80, 95, 96;,
       3;82, 81, 97;,
       3;81, 96, 97;,
       3;83, 82, 98;,
       3;82, 97, 98;,
       3;84, 83, 99;,
       3;83, 98, 99;,
       3;85, 84, 100;,
       3;84, 99, 100;,
       3;86, 85, 101;,
       3;85, 100, 101;,
       3;87, 86, 102;,
       3;86, 101, 102;,
       3;88, 89, 103;,
       3;89, 104, 103;,
       3;90, 88, 105;,
       3;88, 103, 105;,
       3;91, 90, 106;,
       3;90, 105, 106;,
       3;92, 91, 107;,
       3;91, 106, 107;,
       3;93, 92, 108;,
       3;92, 107, 108;,
       3;94, 93, 109;,
       3;93, 108, 109;,
       3;95, 94, 110;,
       3;94, 109, 110;,
       3;96, 95, 111;,
       3;95, 110, 111;,
       3;97, 96, 112;,
       3;96, 111, 112;,
       3;98, 97, 113;,
       3;97, 112, 113;,
       3;99, 98, 114;,
       3;98, 113, 114;,
       3;100, 99, 115;,
       3;99, 114, 115;,
       3;101, 100, 116;,
       3;100, 115, 116;,
       3;102, 101, 117;,
       3;101, 116, 117;,
       3;103, 104, 118;,
       3;104, 119, 118;,
       3;105, 103, 120;,
       3;103, 118, 120;,
       3;106, 105, 121;,
       3;105, 120, 121;,
       3;107, 106, 122;,
       3;106, 121, 122;,
       3;108, 107, 123;,
       3;107, 122, 123;,
       3;109, 108, 124;,
       3;108, 123, 124;,
       3;110, 109, 125;,
       3;109, 124, 125;,
       3;111, 110, 126;,
       3;110, 125, 126;,
       3;112, 111, 127;,
       3;111, 126, 127;,
       3;113, 112, 128;,
       3;112, 127, 128;,
       3;114, 113, 129;,
       3;113, 128, 129;,
       3;115, 114, 130;,
       3;114, 129, 130;,
       3;116, 115, 131;,
       3;115, 130, 131;,
       3;117, 116, 132;,
       3;116, 131, 132;,
       3;118, 119, 133;,
       3;119, 134, 133;,
       3;120, 118, 135;,
       3;118, 133, 135;,
       3;121, 120, 136;,
       3;120, 135, 136;,
       3;122, 121, 137;,
       3;121, 136, 137;,
       3;123, 122, 138;,
       3;122, 137, 138;,
       3;124, 123, 139;,
       3;123, 138, 139;,
       3;125, 124, 140;,
       3;124, 139, 140;,
       3;126, 125, 141;,
       3;125, 140, 141;,
       3;127, 126, 142;,
       3;126, 141, 142;,
       3;128, 127, 143;,
       3;127, 142, 143;,
       3;129, 128, 144;,
       3;128, 143, 144;,
       3;130, 129, 145;,
       3;129, 144, 145;,
       3;131, 130, 146;,
       3;130, 145, 146;,
       3;132, 131, 147;,
       3;131, 146, 147;,
       3;133, 134, 148;,
       3;134, 149, 148;,
       3;135, 133, 150;,
       3;133, 148, 150;,
       3;136, 135, 151;,
       3;135, 150, 151;,
       3;137, 136, 152;,
       3;136, 151, 152;,
       3;138, 137, 153;,
       3;137, 152, 153;,
       3;139, 138, 154;,
       3;138, 153, 154;,
       3;140, 139, 155;,
       3;139, 154, 155;,
       3;141, 140, 156;,
       3;140, 155, 156;,
       3;142, 141, 157;,
       3;141, 156, 157;,
       3;143, 142, 158;,
       3;142, 157, 158;,
       3;144, 143, 159;,
       3;143, 158, 159;,
       3;145, 144, 160;,
       3;144, 159, 160;,
       3;146, 145, 161;,
       3;145, 160, 161;,
       3;147, 146, 162;,
       3;146, 161, 162;,
       3;148, 149, 163;,
       3;149, 164, 163;,
       3;150, 148, 165;,
       3;148, 163, 165;,
       3;151, 150, 166;,
       3;150, 165, 166;,
       3;152, 151, 167;,
       3;151, 166, 167;,
       3;153, 152, 168;,
       3;152, 167, 168;,
       3;154, 153, 169;,
       3;153, 168, 169;,
       3;155, 154, 170;,
       3;154, 169, 170;,
       3;156, 155, 171;,
       3;155, 170, 171;,
       3;157, 156, 172;,
       3;156, 171, 172;,
       3;158, 157, 173;,
       3;157, 172, 173;,
       3;159, 158, 174;,
       3;158, 173, 174;,
       3;160, 159, 175;,
       3;159, 174, 175;,
       3;161, 160, 176;,
       3;160, 175, 176;,
       3;162, 161, 177;,
       3;161, 176, 177;,
       3;163, 164, 178;,
       3;164, 179, 178;,
       3;165, 163, 180;,
       3;163, 178, 180;,
       3;166, 165, 181;,
       3;165, 180, 181;,
       3;167, 166, 182;,
       3;166, 181, 182;,
       3;168, 167, 183;,
       3;167, 182, 183;,
       3;169, 168, 184;,
       3;168, 183, 184;,
       3;170, 169, 185;,
       3;169, 184, 185;,
       3;171, 170, 186;,
       3;170, 185, 186;,
       3;172, 171, 187;,
       3;171, 186, 187;,
       3;173, 172, 188;,
       3;172, 187, 188;,
       3;174, 173, 189;,
       3;173, 188, 189;,
       3;175, 174, 190;,
       3;174, 189, 190;,
       3;176, 175, 191;,
       3;175, 190, 191;,
       3;177, 176, 192;,
       3;176, 191, 192;,
       3;178, 179, 193;,
       3;179, 194, 193;,
       3;180, 178, 195;,
       3;178, 193, 195;,
       3;181, 180, 196;,
       3;180, 195, 196;,
       3;182, 181, 197;,
       3;181, 196, 197;,
       3;183, 182, 198;,
       3;182, 197, 198;,
       3;184, 183, 199;,
       3;183, 198, 199;,
       3;185, 184, 200;,
       3;184, 199, 200;,
       3;186, 185, 201;,
       3;185, 200, 201;,
       3;187, 186, 202;,
       3;186, 201, 202;,
       3;188, 187, 203;,
       3;187, 202, 203;,
       3;189, 188, 204;,
       3;188, 203, 204;,
       3;190, 189, 205;,
       3;189, 204, 205;,
       3;191, 190, 206;,
       3;190, 205, 206;,
       3;192, 191, 207;,
       3;191, 206, 207;,
       3;193, 194, 208;,
       3;194, 209, 208;,
       3;195, 193, 210;,
       3;193, 208, 210;,
       3;196, 195, 211;,
       3;195, 210, 211;,
       3;197, 196, 212;,
       3;196, 211, 212;,
       3;198, 197, 213;,
       3;197, 212, 213;,
       3;199, 198, 214;,
       3;198, 213, 214;,
       3;200, 199, 215;,
       3;199, 214, 215;,
       3;201, 200, 216;,
       3;200, 215, 216;,
       3;202, 201, 217;,
       3;201, 216, 217;,
       3;203, 202, 218;,
       3;202, 217, 218;,
       3;204, 203, 219;,
       3;203, 218, 219;,
       3;205, 204, 220;,
       3;204, 219, 220;,
       3;206, 205, 221;,
       3;205, 220, 221;,
       3;207, 206, 222;,
       3;206, 221, 222;,
       3;208, 209, 223;,
       3;209, 224, 223;,
       3;210, 208, 225;,
       3;208, 223, 225;,
       3;211, 210, 226;,
       3;210, 225, 226;,
       3;212, 211, 227;,
       3;211, 226, 227;,
       3;213, 212, 228;,
       3;212, 227, 228;,
       3;214, 213, 229;,
       3;213, 228, 229;,
       3;215, 214, 230;,
       3;214, 229, 230;,
       3;216, 215, 231;,
       3;215, 230, 231;,
       3;217, 216, 232;,
       3;216, 231, 232;,
       3;218, 217, 233;,
       3;217, 232, 233;,
       3;219, 218, 234;,
       3;218, 233, 234;,
       3;220, 219, 235;,
       3;219, 234, 235;,
       3;221, 220, 236;,
       3;220, 235, 236;,
       3;222, 221, 237;,
       3;221, 236, 237;;
      }

      MeshTextureCoords {
       238;
       0.057322; 0.145360;,
       0.057322; 0.129013;,
       0.014696; 0.145360;,
       0.014696; 0.129013;,
       0.057322; 0.161710;,
       0.014696; 0.161710;,
       0.057322; 0.178059;,
       0.014696; 0.178059;,
       0.057322; 0.194407;,
       0.014696; 0.194407;,
       0.057322; 0.210755;,
       0.014696; 0.210755;,
       0.057322; 0.227104;,
       0.014696; 0.227104;,
       0.057322; 0.243455;,
       0.014696; 0.243455;,
       0.057322; 0.259806;,
       0.014696; 0.259806;,
       0.057322; 0.276153;,
       0.014696; 0.276153;,
       0.057322; 0.292502;,
       0.014696; 0.292502;,
       0.057322; 0.308853;,
       0.014696; 0.308853;,
       0.057322; 0.325203;,
       0.014696; 0.325203;,
       0.057322; 0.341551;,
       0.014696; 0.341551;,
       0.057322; 0.112665;,
       0.014696; 0.112665;,
       0.131422; 0.129137;,
       0.174201; 0.120820;,
       0.097121; 0.152443;,
       0.216981; 0.129137;,
       0.078080; 0.186128;,
       0.251293; 0.152443;,
       0.078080; 0.223511;,
       0.270333; 0.186128;,
       0.097121; 0.257187;,
       0.270333; 0.223511;,
       0.131422; 0.280493;,
       0.251293; 0.257187;,
       0.174201; 0.288820;,
       0.216981; 0.280493;,
       0.887971; 0.157854;,
       0.856826; 0.165199;,
       0.919117; 0.165199;,
       0.831858; 0.185802;,
       0.944100; 0.185802;,
       0.817993; 0.215574;,
       0.957950; 0.215574;,
       0.817993; 0.248632;,
       0.957950; 0.248632;,
       0.831858; 0.278403;,
       0.944100; 0.278403;,
       0.856826; 0.299007;,
       0.919117; 0.299007;,
       0.887971; 0.306351;,
       0.142324; 0.325202;,
       0.142324; 0.341552;,
       0.142324; 0.308854;,
       0.142324; 0.292503;,
       0.142324; 0.276153;,
       0.142324; 0.259806;,
       0.142324; 0.243456;,
       0.142324; 0.227104;,
       0.142324; 0.210757;,
       0.142324; 0.194403;,
       0.142324; 0.178059;,
       0.142324; 0.161711;,
       0.142324; 0.145362;,
       0.142324; 0.129010;,
       0.142324; 0.112666;,
       0.235722; 0.325201;,
       0.235722; 0.341553;,
       0.235722; 0.308853;,
       0.235722; 0.292504;,
       0.235722; 0.276158;,
       0.235722; 0.259808;,
       0.235722; 0.243457;,
       0.235722; 0.227103;,
       0.235722; 0.210756;,
       0.235722; 0.194404;,
       0.235722; 0.178055;,
       0.235722; 0.161709;,
       0.235722; 0.145360;,
       0.235722; 0.129011;,
       0.235722; 0.112666;,
       0.348938; 0.325199;,
       0.348938; 0.341552;,
       0.348938; 0.308851;,
       0.348938; 0.292503;,
       0.348938; 0.276158;,
       0.348938; 0.259805;,
       0.348938; 0.243456;,
       0.348938; 0.227104;,
       0.348938; 0.210756;,
       0.348938; 0.194408;,
       0.348938; 0.178055;,
       0.348938; 0.161709;,
       0.348938; 0.145362;,
       0.348938; 0.129013;,
       0.348938; 0.112666;,
       0.369906; 0.325201;,
       0.369906; 0.341552;,
       0.369906; 0.308854;,
       0.369906; 0.292503;,
       0.369906; 0.276153;,
       0.369906; 0.259805;,
       0.369906; 0.243457;,
       0.369906; 0.227104;,
       0.369906; 0.210756;,
       0.369906; 0.194407;,
       0.369906; 0.178059;,
       0.369906; 0.161711;,
       0.369906; 0.145358;,
       0.369906; 0.129011;,
       0.369906; 0.112666;,
       0.388915; 0.325203;,
       0.388915; 0.341552;,
       0.388915; 0.308851;,
       0.388915; 0.292504;,
       0.388915; 0.276157;,
       0.388915; 0.259809;,
       0.388915; 0.243455;,
       0.388915; 0.227104;,
       0.388915; 0.210757;,
       0.388915; 0.194404;,
       0.388915; 0.178055;,
       0.388915; 0.161710;,
       0.388915; 0.145361;,
       0.388915; 0.129010;,
       0.388915; 0.112666;,
       0.471520; 0.325201;,
       0.471520; 0.341553;,
       0.471520; 0.308857;,
       0.471520; 0.292504;,
       0.471520; 0.276159;,
       0.471520; 0.259805;,
       0.471520; 0.243458;,
       0.471520; 0.227103;,
       0.471520; 0.210755;,
       0.471520; 0.194408;,
       0.471520; 0.178053;,
       0.471520; 0.161709;,
       0.471520; 0.145356;,
       0.471520; 0.129012;,
       0.471520; 0.112667;,
       0.638106; 0.325204;,
       0.638106; 0.341553;,
       0.638106; 0.308855;,
       0.638106; 0.292504;,
       0.638106; 0.276160;,
       0.638106; 0.259807;,
       0.638106; 0.243455;,
       0.638106; 0.227102;,
       0.638106; 0.210757;,
       0.638106; 0.194405;,
       0.638106; 0.178053;,
       0.638106; 0.161709;,
       0.638106; 0.145358;,
       0.638106; 0.129009;,
       0.638106; 0.112667;,
       0.740539; 0.325201;,
       0.740539; 0.341552;,
       0.740539; 0.308853;,
       0.740539; 0.292506;,
       0.740539; 0.276155;,
       0.740539; 0.259807;,
       0.740539; 0.243457;,
       0.740539; 0.227104;,
       0.740539; 0.210756;,
       0.740539; 0.194406;,
       0.740539; 0.178057;,
       0.740539; 0.161707;,
       0.740539; 0.145359;,
       0.740539; 0.129011;,
       0.740539; 0.112666;,
       0.816926; 0.325201;,
       0.816926; 0.341552;,
       0.816926; 0.308853;,
       0.816926; 0.292503;,
       0.816926; 0.276153;,
       0.816926; 0.259806;,
       0.816926; 0.243457;,
       0.816926; 0.227104;,
       0.816926; 0.210756;,
       0.816926; 0.194406;,
       0.816926; 0.178059;,
       0.816926; 0.161710;,
       0.816926; 0.145360;,
       0.816926; 0.129012;,
       0.816926; 0.112665;,
       0.848598; 0.325202;,
       0.848598; 0.341552;,
       0.848598; 0.308852;,
       0.848598; 0.292503;,
       0.848598; 0.276157;,
       0.848598; 0.259807;,
       0.848598; 0.243456;,
       0.848598; 0.227104;,
       0.848598; 0.210757;,
       0.848598; 0.194405;,
       0.848598; 0.178056;,
       0.848598; 0.161709;,
       0.848598; 0.145361;,
       0.848598; 0.129011;,
       0.848598; 0.112665;,
       0.872235; 0.325201;,
       0.872235; 0.341552;,
       0.872235; 0.308855;,
       0.872235; 0.292502;,
       0.872235; 0.276154;,
       0.872235; 0.259805;,
       0.872235; 0.243455;,
       0.872235; 0.227104;,
       0.872235; 0.210758;,
       0.872235; 0.194408;,
       0.872235; 0.178059;,
       0.872235; 0.161711;,
       0.872235; 0.145358;,
       0.872235; 0.129011;,
       0.872235; 0.112666;,
       0.886897; 0.325206;,
       0.886897; 0.341553;,
       0.886897; 0.308855;,
       0.886897; 0.292510;,
       0.886897; 0.276154;,
       0.886897; 0.259807;,
       0.886897; 0.243454;,
       0.886897; 0.227102;,
       0.886897; 0.210752;,
       0.886897; 0.194406;,
       0.886897; 0.178057;,
       0.886897; 0.161705;,
       0.886897; 0.145357;,
       0.886897; 0.129014;,
       0.886897; 0.112667;;
      }

      MeshVertexColors {
       238;
       0; 1.000000; 1.000000; 1.000000; 1.000000;,
       1; 1.000000; 1.000000; 1.000000; 1.000000;,
       2; 1.000000; 1.000000; 1.000000; 1.000000;,
       3; 1.000000; 1.000000; 1.000000; 1.000000;,
       4; 1.000000; 1.000000; 1.000000; 1.000000;,
       5; 1.000000; 1.000000; 1.000000; 1.000000;,
       6; 1.000000; 1.000000; 1.000000; 1.000000;,
       7; 1.000000; 1.000000; 1.000000; 1.000000;,
       8; 1.000000; 1.000000; 1.000000; 1.000000;,
       9; 1.000000; 1.000000; 1.000000; 1.000000;,
       10; 1.000000; 1.000000; 1.000000; 1.000000;,
       11; 1.000000; 1.000000; 1.000000; 1.000000;,
       12; 1.000000; 1.000000; 1.000000; 1.000000;,
       13; 1.000000; 1.000000; 1.000000; 1.000000;,
       14; 1.000000; 1.000000; 1.000000; 1.000000;,
       15; 1.000000; 1.000000; 1.000000; 1.000000;,
       16; 1.000000; 1.000000; 1.000000; 1.000000;,
       17; 1.000000; 1.000000; 1.000000; 1.000000;,
       18; 1.000000; 1.000000; 1.000000; 1.000000;,
       19; 1.000000; 1.000000; 1.000000; 1.000000;,
       20; 1.000000; 1.000000; 1.000000; 1.000000;,
       21; 1.000000; 1.000000; 1.000000; 1.000000;,
       22; 1.000000; 1.000000; 1.000000; 1.000000;,
       23; 1.000000; 1.000000; 1.000000; 1.000000;,
       24; 1.000000; 1.000000; 1.000000; 1.000000;,
       25; 1.000000; 1.000000; 1.000000; 1.000000;,
       26; 1.000000; 1.000000; 1.000000; 1.000000;,
       27; 1.000000; 1.000000; 1.000000; 1.000000;,
       28; 1.000000; 1.000000; 1.000000; 1.000000;,
       29; 1.000000; 1.000000; 1.000000; 1.000000;,
       30; 1.000000; 1.000000; 1.000000; 1.000000;,
       31; 1.000000; 1.000000; 1.000000; 1.000000;,
       32; 1.000000; 1.000000; 1.000000; 1.000000;,
       33; 1.000000; 1.000000; 1.000000; 1.000000;,
       34; 1.000000; 1.000000; 1.000000; 1.000000;,
       35; 1.000000; 1.000000; 1.000000; 1.000000;,
       36; 1.000000; 1.000000; 1.000000; 1.000000;,
       37; 1.000000; 1.000000; 1.000000; 1.000000;,
       38; 1.000000; 1.000000; 1.000000; 1.000000;,
       39; 1.000000; 1.000000; 1.000000; 1.000000;,
       40; 1.000000; 1.000000; 1.000000; 1.000000;,
       41; 1.000000; 1.000000; 1.000000; 1.000000;,
       42; 1.000000; 1.000000; 1.000000; 1.000000;,
       43; 1.000000; 1.000000; 1.000000; 1.000000;,
       44; 1.000000; 1.000000; 1.000000; 1.000000;,
       45; 1.000000; 1.000000; 1.000000; 1.000000;,
       46; 1.000000; 1.000000; 1.000000; 1.000000;,
       47; 1.000000; 1.000000; 1.000000; 1.000000;,
       48; 1.000000; 1.000000; 1.000000; 1.000000;,
       49; 1.000000; 1.000000; 1.000000; 1.000000;,
       50; 1.000000; 1.000000; 1.000000; 1.000000;,
       51; 1.000000; 1.000000; 1.000000; 1.000000;,
       52; 1.000000; 1.000000; 1.000000; 1.000000;,
       53; 1.000000; 1.000000; 1.000000; 1.000000;,
       54; 1.000000; 1.000000; 1.000000; 1.000000;,
       55; 1.000000; 1.000000; 1.000000; 1.000000;,
       56; 1.000000; 1.000000; 1.000000; 1.000000;,
       57; 1.000000; 1.000000; 1.000000; 1.000000;,
       58; 1.000000; 1.000000; 1.000000; 1.000000;,
       59; 1.000000; 1.000000; 1.000000; 1.000000;,
       60; 1.000000; 1.000000; 1.000000; 1.000000;,
       61; 1.000000; 1.000000; 1.000000; 1.000000;,
       62; 1.000000; 1.000000; 1.000000; 1.000000;,
       63; 1.000000; 1.000000; 1.000000; 1.000000;,
       64; 1.000000; 1.000000; 1.000000; 1.000000;,
       65; 1.000000; 1.000000; 1.000000; 1.000000;,
       66; 1.000000; 1.000000; 1.000000; 1.000000;,
       67; 1.000000; 1.000000; 1.000000; 1.000000;,
       68; 1.000000; 1.000000; 1.000000; 1.000000;,
       69; 1.000000; 1.000000; 1.000000; 1.000000;,
       70; 1.000000; 1.000000; 1.000000; 1.000000;,
       71; 1.000000; 1.000000; 1.000000; 1.000000;,
       72; 1.000000; 1.000000; 1.000000; 1.000000;,
       73; 1.000000; 1.000000; 1.000000; 1.000000;,
       74; 1.000000; 1.000000; 1.000000; 1.000000;,
       75; 1.000000; 1.000000; 1.000000; 1.000000;,
       76; 1.000000; 1.000000; 1.000000; 1.000000;,
       77; 1.000000; 1.000000; 1.000000; 1.000000;,
       78; 1.000000; 1.000000; 1.000000; 1.000000;,
       79; 1.000000; 1.000000; 1.000000; 1.000000;,
       80; 1.000000; 1.000000; 1.000000; 1.000000;,
       81; 1.000000; 1.000000; 1.000000; 1.000000;,
       82; 1.000000; 1.000000; 1.000000; 1.000000;,
       83; 1.000000; 1.000000; 1.000000; 1.000000;,
       84; 1.000000; 1.000000; 1.000000; 1.000000;,
       85; 1.000000; 1.000000; 1.000000; 1.000000;,
       86; 1.000000; 1.000000; 1.000000; 1.000000;,
       87; 1.000000; 1.000000; 1.000000; 1.000000;,
       88; 1.000000; 1.000000; 1.000000; 1.000000;,
       89; 1.000000; 1.000000; 1.000000; 1.000000;,
       90; 1.000000; 1.000000; 1.000000; 1.000000;,
       91; 1.000000; 1.000000; 1.000000; 1.000000;,
       92; 1.000000; 1.000000; 1.000000; 1.000000;,
       93; 1.000000; 1.000000; 1.000000; 1.000000;,
       94; 1.000000; 1.000000; 1.000000; 1.000000;,
       95; 1.000000; 1.000000; 1.000000; 1.000000;,
       96; 1.000000; 1.000000; 1.000000; 1.000000;,
       97; 1.000000; 1.000000; 1.000000; 1.000000;,
       98; 1.000000; 1.000000; 1.000000; 1.000000;,
       99; 1.000000; 1.000000; 1.000000; 1.000000;,
       100; 1.000000; 1.000000; 1.000000; 1.000000;,
       101; 1.000000; 1.000000; 1.000000; 1.000000;,
       102; 1.000000; 1.000000; 1.000000; 1.000000;,
       103; 1.000000; 1.000000; 1.000000; 1.000000;,
       104; 1.000000; 1.000000; 1.000000; 1.000000;,
       105; 1.000000; 1.000000; 1.000000; 1.000000;,
       106; 1.000000; 1.000000; 1.000000; 1.000000;,
       107; 1.000000; 1.000000; 1.000000; 1.000000;,
       108; 1.000000; 1.000000; 1.000000; 1.000000;,
       109; 1.000000; 1.000000; 1.000000; 1.000000;,
       110; 1.000000; 1.000000; 1.000000; 1.000000;,
       111; 1.000000; 1.000000; 1.000000; 1.000000;,
       112; 1.000000; 1.000000; 1.000000; 1.000000;,
       113; 1.000000; 1.000000; 1.000000; 1.000000;,
       114; 1.000000; 1.000000; 1.000000; 1.000000;,
       115; 1.000000; 1.000000; 1.000000; 1.000000;,
       116; 1.000000; 1.000000; 1.000000; 1.000000;,
       117; 1.000000; 1.000000; 1.000000; 1.000000;,
       118; 1.000000; 1.000000; 1.000000; 1.000000;,
       119; 1.000000; 1.000000; 1.000000; 1.000000;,
       120; 1.000000; 1.000000; 1.000000; 1.000000;,
       121; 1.000000; 1.000000; 1.000000; 1.000000;,
       122; 1.000000; 1.000000; 1.000000; 1.000000;,
       123; 1.000000; 1.000000; 1.000000; 1.000000;,
       124; 1.000000; 1.000000; 1.000000; 1.000000;,
       125; 1.000000; 1.000000; 1.000000; 1.000000;,
       126; 1.000000; 1.000000; 1.000000; 1.000000;,
       127; 1.000000; 1.000000; 1.000000; 1.000000;,
       128; 1.000000; 1.000000; 1.000000; 1.000000;,
       129; 1.000000; 1.000000; 1.000000; 1.000000;,
       130; 1.000000; 1.000000; 1.000000; 1.000000;,
       131; 1.000000; 1.000000; 1.000000; 1.000000;,
       132; 1.000000; 1.000000; 1.000000; 1.000000;,
       133; 1.000000; 1.000000; 1.000000; 1.000000;,
       134; 1.000000; 1.000000; 1.000000; 1.000000;,
       135; 1.000000; 1.000000; 1.000000; 1.000000;,
       136; 1.000000; 1.000000; 1.000000; 1.000000;,
       137; 1.000000; 1.000000; 1.000000; 1.000000;,
       138; 1.000000; 1.000000; 1.000000; 1.000000;,
       139; 1.000000; 1.000000; 1.000000; 1.000000;,
       140; 1.000000; 1.000000; 1.000000; 1.000000;,
       141; 1.000000; 1.000000; 1.000000; 1.000000;,
       142; 1.000000; 1.000000; 1.000000; 1.000000;,
       143; 1.000000; 1.000000; 1.000000; 1.000000;,
       144; 1.000000; 1.000000; 1.000000; 1.000000;,
       145; 1.000000; 1.000000; 1.000000; 1.000000;,
       146; 1.000000; 1.000000; 1.000000; 1.000000;,
       147; 1.000000; 1.000000; 1.000000; 1.000000;,
       148; 1.000000; 1.000000; 1.000000; 1.000000;,
       149; 1.000000; 1.000000; 1.000000; 1.000000;,
       150; 1.000000; 1.000000; 1.000000; 1.000000;,
       151; 1.000000; 1.000000; 1.000000; 1.000000;,
       152; 1.000000; 1.000000; 1.000000; 1.000000;,
       153; 1.000000; 1.000000; 1.000000; 1.000000;,
       154; 1.000000; 1.000000; 1.000000; 1.000000;,
       155; 1.000000; 1.000000; 1.000000; 1.000000;,
       156; 1.000000; 1.000000; 1.000000; 1.000000;,
       157; 1.000000; 1.000000; 1.000000; 1.000000;,
       158; 1.000000; 1.000000; 1.000000; 1.000000;,
       159; 1.000000; 1.000000; 1.000000; 1.000000;,
       160; 1.000000; 1.000000; 1.000000; 1.000000;,
       161; 1.000000; 1.000000; 1.000000; 1.000000;,
       162; 1.000000; 1.000000; 1.000000; 1.000000;,
       163; 1.000000; 1.000000; 1.000000; 1.000000;,
       164; 1.000000; 1.000000; 1.000000; 1.000000;,
       165; 1.000000; 1.000000; 1.000000; 1.000000;,
       166; 1.000000; 1.000000; 1.000000; 1.000000;,
       167; 1.000000; 1.000000; 1.000000; 1.000000;,
       168; 1.000000; 1.000000; 1.000000; 1.000000;,
       169; 1.000000; 1.000000; 1.000000; 1.000000;,
       170; 1.000000; 1.000000; 1.000000; 1.000000;,
       171; 1.000000; 1.000000; 1.000000; 1.000000;,
       172; 1.000000; 1.000000; 1.000000; 1.000000;,
       173; 1.000000; 1.000000; 1.000000; 1.000000;,
       174; 1.000000; 1.000000; 1.000000; 1.000000;,
       175; 1.000000; 1.000000; 1.000000; 1.000000;,
       176; 1.000000; 1.000000; 1.000000; 1.000000;,
       177; 1.000000; 1.000000; 1.000000; 1.000000;,
       178; 1.000000; 1.000000; 1.000000; 1.000000;,
       179; 1.000000; 1.000000; 1.000000; 1.000000;,
       180; 1.000000; 1.000000; 1.000000; 1.000000;,
       181; 1.000000; 1.000000; 1.000000; 1.000000;,
       182; 1.000000; 1.000000; 1.000000; 1.000000;,
       183; 1.000000; 1.000000; 1.000000; 1.000000;,
       184; 1.000000; 1.000000; 1.000000; 1.000000;,
       185; 1.000000; 1.000000; 1.000000; 1.000000;,
       186; 1.000000; 1.000000; 1.000000; 1.000000;,
       187; 1.000000; 1.000000; 1.000000; 1.000000;,
       188; 1.000000; 1.000000; 1.000000; 1.000000;,
       189; 1.000000; 1.000000; 1.000000; 1.000000;,
       190; 1.000000; 1.000000; 1.000000; 1.000000;,
       191; 1.000000; 1.000000; 1.000000; 1.000000;,
       192; 1.000000; 1.000000; 1.000000; 1.000000;,
       193; 1.000000; 1.000000; 1.000000; 1.000000;,
       194; 1.000000; 1.000000; 1.000000; 1.000000;,
       195; 1.000000; 1.000000; 1.000000; 1.000000;,
       196; 1.000000; 1.000000; 1.000000; 1.000000;,
       197; 1.000000; 1.000000; 1.000000; 1.000000;,
       198; 1.000000; 1.000000; 1.000000; 1.000000;,
       199; 1.000000; 1.000000; 1.000000; 1.000000;,
       200; 1.000000; 1.000000; 1.000000; 1.000000;,
       201; 1.000000; 1.000000; 1.000000; 1.000000;,
       202; 1.000000; 1.000000; 1.000000; 1.000000;,
       203; 1.000000; 1.000000; 1.000000; 1.000000;,
       204; 1.000000; 1.000000; 1.000000; 1.000000;,
       205; 1.000000; 1.000000; 1.000000; 1.000000;,
       206; 1.000000; 1.000000; 1.000000; 1.000000;,
       207; 1.000000; 1.000000; 1.000000; 1.000000;,
       208; 1.000000; 1.000000; 1.000000; 1.000000;,
       209; 1.000000; 1.000000; 1.000000; 1.000000;,
       210; 1.000000; 1.000000; 1.000000; 1.000000;,
       211; 1.000000; 1.000000; 1.000000; 1.000000;,
       212; 1.000000; 1.000000; 1.000000; 1.000000;,
       213; 1.000000; 1.000000; 1.000000; 1.000000;,
       214; 1.000000; 1.000000; 1.000000; 1.000000;,
       215; 1.000000; 1.000000; 1.000000; 1.000000;,
       216; 1.000000; 1.000000; 1.000000; 1.000000;,
       217; 1.000000; 1.000000; 1.000000; 1.000000;,
       218; 1.000000; 1.000000; 1.000000; 1.000000;,
       219; 1.000000; 1.000000; 1.000000; 1.000000;,
       220; 1.000000; 1.000000; 1.000000; 1.000000;,
       221; 1.000000; 1.000000; 1.000000; 1.000000;,
       222; 1.000000; 1.000000; 1.000000; 1.000000;,
       223; 1.000000; 1.000000; 1.000000; 1.000000;,
       224; 1.000000; 1.000000; 1.000000; 1.000000;,
       225; 1.000000; 1.000000; 1.000000; 1.000000;,
       226; 1.000000; 1.000000; 1.000000; 1.000000;,
       227; 1.000000; 1.000000; 1.000000; 1.000000;,
       228; 1.000000; 1.000000; 1.000000; 1.000000;,
       229; 1.000000; 1.000000; 1.000000; 1.000000;,
       230; 1.000000; 1.000000; 1.000000; 1.000000;,
       231; 1.000000; 1.000000; 1.000000; 1.000000;,
       232; 1.000000; 1.000000; 1.000000; 1.000000;,
       233; 1.000000; 1.000000; 1.000000; 1.000000;,
       234; 1.000000; 1.000000; 1.000000; 1.000000;,
       235; 1.000000; 1.000000; 1.000000; 1.000000;,
       236; 1.000000; 1.000000; 1.000000; 1.000000;,
       237; 1.000000; 1.000000; 1.000000; 1.000000;;
      }

      MeshMaterialList {
       1;
       388;
       0,
       0,
       0,
       0,
       0,
       0,
       0,
       0,
       0,
       0,
       0,
       0,
       0,
       0,
       0,
       0,
       0,
       0,
       0,
       0,
       0,
       0,
       0,
       0,
       0,
       0,
       0,
       0,
       0,
       0,
       0,
       0,
       0,
       0,
       0,
       0,
       0,
       0,
       0,
       0,
       0,
       0,
       0,
       0,
       0,
       0,
       0,
       0,
       0,
       0,
       0,
       0,
       0,
       0,
       0,
       0,
       0,
       0,
       0,
       0,
       0,
       0,
       0,
       0,
       0,
       0,
       0,
       0,
       0,
       0,
       0,
       0,
       0,
       0,
       0,
       0,
       0,
       0,
       0,
       0,
       0,
       0,
       0,
       0,
       0,
       0,
       0,
       0,
       0,
       0,
       0,
       0,
       0,
       0,
       0,
       0,
       0,
       0,
       0,
       0,
       0,
       0,
       0,
       0,
       0,
       0,
       0,
       0,
       0,
       0,
       0,
       0,
       0,
       0,
       0,
       0,
       0,
       0,
       0,
       0,
       0,
       0,
       0,
       0,
       0,
       0,
       0,
       0,
       0,
       0,
       0,
       0,
       0,
       0,
       0,
       0,
       0,
       0,
       0,
       0,
       0,
       0,
       0,
       0,
       0,
       0,
       0,
       0,
       0,
       0,
       0,
       0,
       0,
       0,
       0,
       0,
       0,
       0,
       0,
       0,
       0,
       0,
       0,
       0,
       0,
       0,
       0,
       0,
       0,
       0,
       0,
       0,
       0,
       0,
       0,
       0,
       0,
       0,
       0,
       0,
       0,
       0,
       0,
       0,
       0,
       0,
       0,
       0,
       0,
       0,
       0,
       0,
       0,
       0,
       0,
       0,
       0,
       0,
       0,
       0,
       0,
       0,
       0,
       0,
       0,
       0,
       0,
       0,
       0,
       0,
       0,
       0,
       0,
       0,
       0,
       0,
       0,
       0,
       0,
       0,
       0,
       0,
       0,
       0,
       0,
       0,
       0,
       0,
       0,
       0,
       0,
       0,
       0,
       0,
       0,
       0,
       0,
       0,
       0,
       0,
       0,
       0,
       0,
       0,
       0,
       0,
       0,
       0,
       0,
       0,
       0,
       0,
       0,
       0,
       0,
       0,
       0,
       0,
       0,
       0,
       0,
       0,
       0,
       0,
       0,
       0,
       0,
       0,
       0,
       0,
       0,
       0,
       0,
       0,
       0,
       0,
       0,
       0,
       0,
       0,
       0,
       0,
       0,
       0,
       0,
       0,
       0,
       0,
       0,
       0,
       0,
       0,
       0,
       0,
       0,
       0,
       0,
       0,
       0,
       0,
       0,
       0,
       0,
       0,
       0,
       0,
       0,
       0,
       0,
       0,
       0,
       0,
       0,
       0,
       0,
       0,
       0,
       0,
       0,
       0,
       0,
       0,
       0,
       0,
       0,
       0,
       0,
       0,
       0,
       0,
       0,
       0,
       0,
       0,
       0,
       0,
       0,
       0,
       0,
       0,
       0,
       0,
       0,
       0,
       0,
       0,
       0,
       0,
       0,
       0,
       0,
       0,
       0,
       0,
       0,
       0,
       0,
       0,
       0,
       0,
       0,
       0,
       0,
       0,
       0,
       0,
       0,
       0,
       0,
       0,
       0,
       0,
       0,
       0,
       0,
       0,
       0,
       0,
       0,
       0,
       0,
       0,
       0,
       0,
       0,
       0,
       0,
       0;

       Material def_surf_mat {
        0.992157; 0.992157; 0.992157; 1.000000;;
        1.000000;
        0.150000; 0.150000; 0.150000;;
        0.000000; 0.000000; 0.000000;;

        TextureFilename {
         "kitchen_tool.dds";
        }
       }

      }

      XSkinMeshHeader {
       1;
       1;
       1;
      }

      SkinWeights {
       "Body";
       238;
       0,
       1,
       2,
       3,
       4,
       5,
       6,
       7,
       8,
       9,
       10,
       11,
       12,
       13,
       14,
       15,
       16,
       17,
       18,
       19,
       20,
       21,
       22,
       23,
       24,
       25,
       26,
       27,
       28,
       29,
       30,
       31,
       32,
       33,
       34,
       35,
       36,
       37,
       38,
       39,
       40,
       41,
       42,
       43,
       44,
       45,
       46,
       47,
       48,
       49,
       50,
       51,
       52,
       53,
       54,
       55,
       56,
       57,
       58,
       59,
       60,
       61,
       62,
       63,
       64,
       65,
       66,
       67,
       68,
       69,
       70,
       71,
       72,
       73,
       74,
       75,
       76,
       77,
       78,
       79,
       80,
       81,
       82,
       83,
       84,
       85,
       86,
       87,
       88,
       89,
       90,
       91,
       92,
       93,
       94,
       95,
       96,
       97,
       98,
       99,
       100,
       101,
       102,
       103,
       104,
       105,
       106,
       107,
       108,
       109,
       110,
       111,
       112,
       113,
       114,
       115,
       116,
       117,
       118,
       119,
       120,
       121,
       122,
       123,
       124,
       125,
       126,
       127,
       128,
       129,
       130,
       131,
       132,
       133,
       134,
       135,
       136,
       137,
       138,
       139,
       140,
       141,
       142,
       143,
       144,
       145,
       146,
       147,
       148,
       149,
       150,
       151,
       152,
       153,
       154,
       155,
       156,
       157,
       158,
       159,
       160,
       161,
       162,
       163,
       164,
       165,
       166,
       167,
       168,
       169,
       170,
       171,
       172,
       173,
       174,
       175,
       176,
       177,
       178,
       179,
       180,
       181,
       182,
       183,
       184,
       185,
       186,
       187,
       188,
       189,
       190,
       191,
       192,
       193,
       194,
       195,
       196,
       197,
       198,
       199,
       200,
       201,
       202,
       203,
       204,
       205,
       206,
       207,
       208,
       209,
       210,
       211,
       212,
       213,
       214,
       215,
       216,
       217,
       218,
       219,
       220,
       221,
       222,
       223,
       224,
       225,
       226,
       227,
       228,
       229,
       230,
       231,
       232,
       233,
       234,
       235,
       236,
       237;
       1.000000,
       1.000000,
       1.000000,
       1.000000,
       1.000000,
       1.000000,
       1.000000,
       1.000000,
       1.000000,
       1.000000,
       1.000000,
       1.000000,
       1.000000,
       1.000000,
       1.000000,
       1.000000,
       1.000000,
       1.000000,
       1.000000,
       1.000000,
       1.000000,
       1.000000,
       1.000000,
       1.000000,
       1.000000,
       1.000000,
       1.000000,
       1.000000,
       1.000000,
       1.000000,
       1.000000,
       1.000000,
       1.000000,
       1.000000,
       1.000000,
       1.000000,
       1.000000,
       1.000000,
       1.000000,
       1.000000,
       1.000000,
       1.000000,
       1.000000,
       1.000000,
       1.000000,
       1.000000,
       1.000000,
       1.000000,
       1.000000,
       1.000000,
       1.000000,
       1.000000,
       1.000000,
       1.000000,
       1.000000,
       1.000000,
       1.000000,
       1.000000,
       1.000000,
       1.000000,
       1.000000,
       1.000000,
       1.000000,
       1.000000,
       1.000000,
       1.000000,
       1.000000,
       1.000000,
       1.000000,
       1.000000,
       1.000000,
       1.000000,
       1.000000,
       1.000000,
       1.000000,
       1.000000,
       1.000000,
       1.000000,
       1.000000,
       1.000000,
       1.000000,
       1.000000,
       1.000000,
       1.000000,
       1.000000,
       1.000000,
       1.000000,
       1.000000,
       1.000000,
       1.000000,
       1.000000,
       1.000000,
       1.000000,
       1.000000,
       1.000000,
       1.000000,
       1.000000,
       1.000000,
       1.000000,
       1.000000,
       1.000000,
       1.000000,
       1.000000,
       1.000000,
       1.000000,
       1.000000,
       1.000000,
       1.000000,
       1.000000,
       1.000000,
       1.000000,
       1.000000,
       1.000000,
       1.000000,
       1.000000,
       1.000000,
       1.000000,
       1.000000,
       1.000000,
       1.000000,
       1.000000,
       1.000000,
       1.000000,
       1.000000,
       1.000000,
       1.000000,
       1.000000,
       1.000000,
       1.000000,
       1.000000,
       1.000000,
       1.000000,
       1.000000,
       1.000000,
       1.000000,
       1.000000,
       1.000000,
       1.000000,
       1.000000,
       1.000000,
       1.000000,
       1.000000,
       1.000000,
       1.000000,
       1.000000,
       1.000000,
       1.000000,
       1.000000,
       1.000000,
       1.000000,
       1.000000,
       1.000000,
       1.000000,
       1.000000,
       1.000000,
       1.000000,
       1.000000,
       1.000000,
       1.000000,
       1.000000,
       1.000000,
       1.000000,
       1.000000,
       1.000000,
       1.000000,
       1.000000,
       1.000000,
       1.000000,
       1.000000,
       1.000000,
       1.000000,
       1.000000,
       1.000000,
       1.000000,
       1.000000,
       1.000000,
       1.000000,
       1.000000,
       1.000000,
       1.000000,
       1.000000,
       1.000000,
       1.000000,
       1.000000,
       1.000000,
       1.000000,
       1.000000,
       1.000000,
       1.000000,
       1.000000,
       1.000000,
       1.000000,
       1.000000,
       1.000000,
       1.000000,
       1.000000,
       1.000000,
       1.000000,
       1.000000,
       1.000000,
       1.000000,
       1.000000,
       1.000000,
       1.000000,
       1.000000,
       1.000000,
       1.000000,
       1.000000,
       1.000000,
       1.000000,
       1.000000,
       1.000000,
       1.000000,
       1.000000,
       1.000000,
       1.000000,
       1.000000,
       1.000000,
       1.000000,
       1.000000,
       1.000000,
       1.000000,
       1.000000,
       1.000000,
       1.000000,
       1.000000,
       1.000000,
       1.000000,
       1.000000,
       1.000000,
       1.000000,
       1.000000,
       1.000000,
       1.000000,
       1.000000,
       1.000000,
       1.000000,
       1.000000;
          1.000000, -0.000000, 0.000000, 0.000000,
          -0.000000, 1.000000, -0.000000, 0.000000,
          0.000000, -0.000000, 1.000000, 0.000000,
          -0.000000, -0.000000, -0.000000, 1.000000;;
      }


     }
   }

// Start of Animation

AnimationSet Untitled {
}
