<?xml version="1.0" encoding="utf-8"?>
<COLLADA xmlns="http://www.collada.org/2005/11/COLLADASchema" version="1.4.1">
  <asset>
    <contributor>
      <author>Ultimate Unwrap3D Pro</author>
      <authoring_tool>Ultimate Unwrap3D Pro v3.19</authoring_tool>
      <comments>Exported from Ultimate Unwrap3D Pro on Thu Dec 10 21:45:28 2009</comments>
      <source_data>file:///C:/Users/Public/Documents/Unity%20Projects/Island%20Demo/Assets/new/castle_props/knife.dae</source_data>
    </contributor>
    <created>2009-12-10T21:45:28Z</created>
    <modified>2009-12-10T21:45:28Z</modified>
    <unit meter="1" name="meter"/>
    <up_axis>Y_UP</up_axis>
  </asset>
  <library_images>
    <image id="Image" name="knife">
      <init_from>./knife.dds</init_from>
    </image>
  </library_images>
  <library_materials>
    <material id="VisualMaterial1" name="Unassigned">
      <instance_effect url="#Effect"/>
    </material>
    <material id="VisualMaterial" name="def_surf_mat">
      <instance_effect url="#Effect1"/>
    </material>
  </library_materials>
  <library_effects>
    <effect id="Effect" name="Unassigned_eff">
      <profile_COMMON>
        <technique sid="common">
          <phong>
            <ambient>
              <color>0 0 0 1</color>
            </ambient>
            <diffuse>
              <color>1 1 1 1</color>
            </diffuse>
            <specular>
              <color>0 0 0 1</color>
            </specular>
            <shininess>
              <float>100</float>
            </shininess>
            <reflective>
              <color>0 0 0 1</color>
            </reflective>
            <reflectivity>
              <float>1</float>
            </reflectivity>
            <transparent opaque="A_ONE">
              <color>1 1 1 1</color>
            </transparent>
            <transparency>
              <float>0</float>
            </transparency>
            <index_of_refraction>
              <float>0</float>
            </index_of_refraction>
          </phong>
          <extra>
            <technique profile="FCOLLADA">
              <spec_level>
                <float>0</float>
              </spec_level>
              <emission_level>
                <float>0</float>
              </emission_level>
            </technique>
          </extra>
        </technique>
      </profile_COMMON>
      <extra>
        <technique profile="MAX3D">
          <faceted>0</faceted>
          <double_sided>0</double_sided>
          <wireframe>0</wireframe>
          <face_map>0</face_map>
        </technique>
      </extra>
    </effect>
    <effect id="Effect1" name="def_surf_mat_eff">
      <profile_COMMON>
        <newparam sid="Image-surface">
          <surface type="2D">
            <init_from>Image</init_from>
            <format>A8R8G8B8</format>
          </surface>
        </newparam>
        <newparam sid="Image-sampler">
          <sampler2D>
            <source>Image-surface</source>
            <minfilter>LINEAR_MIPMAP_LINEAR</minfilter>
            <magfilter>LINEAR</magfilter>
          </sampler2D>
        </newparam>
        <technique sid="common">
          <phong>
            <ambient>
              <color>0 0 0 1</color>
            </ambient>
            <diffuse>
              <texture texture="Image-sampler" texcoord="UVSET0">
                <extra>
                  <technique profile="MAX3D">
                    <amount>1</amount>
                  </technique>
                </extra>
              </texture>
            </diffuse>
            <specular>
              <color>0.15 0.15 0.15 1</color>
            </specular>
            <shininess>
              <float>0.78125</float>
            </shininess>
            <reflective>
              <color>0 0 0 1</color>
            </reflective>
            <reflectivity>
              <float>1</float>
            </reflectivity>
            <transparent opaque="A_ONE">
              <color>1 1 1 1</color>
            </transparent>
            <transparency>
              <float>0</float>
            </transparency>
            <index_of_refraction>
              <float>0</float>
            </index_of_refraction>
          </phong>
          <extra>
            <technique profile="FCOLLADA">
              <spec_level>
                <float>0</float>
              </spec_level>
              <emission_level>
                <float>0</float>
              </emission_level>
            </technique>
          </extra>
        </technique>
      </profile_COMMON>
      <extra>
        <technique profile="MAX3D">
          <faceted>0</faceted>
          <double_sided>0</double_sided>
          <wireframe>0</wireframe>
          <face_map>0</face_map>
        </technique>
      </extra>
    </effect>
  </library_effects>
  <library_geometries>
    <geometry id="geomU3D_id" name="geomU3D">
      <mesh>
        <source id="PositionSrc_id" name="PositionSrc">
          <float_array id="PositionSrc_id-array" count="429">4.33368 0 2.1916 -11.1192 0 2.1916 4.33368 0 -2.19161 -11.1192 0 -2.19161 -11.1192 0 -2.19161 -11.1192 0 2.1916 -11.1192 1.2712 -2.19161 -11.1192 1.2712 2.1916 -11.1192 1.2712 -0.794006 -9.48627 1.2712 -0.703804 -9.48627 1.2712 -2.19161 -11.1192 1.2712 -0.794006 -11.1192 1.2712 -2.19161 -9.48627 1.2712 -0.162605 -9.48627 1.2712 2.1916 -11.1192 1.2712 2.1916 4.33368 0 -2.19161 -11.1192 0 -2.19161 4.33368 1.2712 -2.19161 -11.1192 1.2712 -2.19161 3.70111 1.2712 -2.19161 -9.48627 1.2712 -2.19161 3.73698 1.2712 -0.7901 4.33368 1.2712 -0.794006 3.70111 1.2712 -2.19161 4.33368 1.2712 -2.19161 1.82493 1.2712 2.1916 1.86101 1.2712 1.028 -0.484215 1.2712 2.1916 -0.466175 1.2712 1.49709 -2.70316 1.2712 2.1916 -2.61296 1.2712 1.6234 -4.84995 1.2712 2.1916 -4.75975 1.2712 1.5151 -7.14106 1.2712 2.1916 -6.76221 1.2712 1.0822 -11.1192 0 2.1916 4.33368 0 2.1916 -11.1192 1.2712 2.1916 4.33368 1.2712 2.1916 -9.48627 1.2712 2.1916 3.7372 1.2712 2.1916 -8.27757 1.2712 2.1916 1.82493 1.2712 2.1916 -7.14106 1.2712 2.1916 -0.484215 1.2712 2.1916 -4.84995 1.2712 2.1916 -2.70316 1.2712 2.1916 -8.27757 1.2712 2.1916 -8.18738 1.2712 0.522896 3.7372 1.2712 2.1916 4.33368 1.2712 2.1916 3.7372 1.2712 0.432693 4.33368 1.2712 0.288399 4.33368 1.5834 -0.794006 4.33368 1.2712 -0.794006 3.73698 1.5834 -0.7901 3.73698 1.2712 -0.7901 -9.48627 1.5834 -0.703804 -9.48627 1.2712 -0.703804 -9.48627 1.5834 -0.162605 -9.48627 1.2712 -0.162605 -9.48627 1.5834 -0.162605 -9.48627 1.2712 -0.162605 -8.18738 1.5834 0.522896 -8.18738 1.2712 0.522896 -6.76221 1.5834 1.0822 -6.76221 1.2712 1.0822 -4.75975 1.5834 1.5151 -4.75975 1.2712 1.5151 -2.61296 1.5834 1.6234 -2.61296 1.2712 1.6234 -0.466175 1.5834 1.49709 -0.466175 1.2712 1.49709 1.86101 1.5834 1.028 1.86101 1.2712 1.028 3.7372 1.5834 0.432693 3.7372 1.2712 0.432693 4.33368 1.5834 0.288399 4.33368 1.2712 0.288399 11.026 1.2712 -0.794006 11.026 1.5834 -0.794006 11.026 1.5834 1.0459 11.026 1.2712 1.0459 4.33368 0 2.1916 4.33368 0 -2.19161 4.33368 1.2712 2.1916 4.33368 1.2712 -2.19161 4.33368 1.2712 0.288399 4.33368 1.2712 -0.794006 4.33368 1.2712 0.029594 3.7372 1.5834 0.432693 4.33368 1.5834 0.288399 3.73698 1.5834 -0.7901 4.33368 1.5834 0.029594 4.33368 1.5834 -0.794006 11.026 1.5834 1.0459 11.026 1.2712 1.0459 11.1192 1.5834 0.029594 11.1192 1.2712 0.029594 11.026 1.5834 -0.794006 11.026 1.2712 -0.794006 11.026 1.2712 1.0459 11.1192 1.2712 0.029594 4.33368 1.2712 0.029594 11.026 1.2712 -0.794006 11.026 1.5834 -0.794006 11.1192 1.5834 0.029594 11.026 1.5834 1.0459 3.32815 1.5834 0.576599 3.19692 1.5834 -0.783905 3.19692 1.5834 -0.783905 3.19692 1.2712 -0.783905 3.32815 1.5834 0.576599 3.32815 1.2712 0.576599 3.07855 1.5834 0.653397 2.93578 1.5834 -0.782204 1.86101 1.5834 1.028 -9.48627 1.5834 -0.703804 -0.466175 1.5834 1.49709 -9.48627 1.5834 -0.162605 -2.61296 1.5834 1.6234 -8.18738 1.5834 0.522896 -4.75975 1.5834 1.5151 -6.76221 1.5834 1.0822 3.19692 1.2712 -0.783905 2.93578 1.2712 -0.782204 3.32815 1.2712 0.576599 3.07855 1.2712 0.653397 3.1325 1.5834 -1.1684 3.1325 1.2712 -1.1684 2.87137 1.5834 -1.1668 2.87137 1.2712 -1.1668 2.93578 1.5834 -0.782204 2.93578 1.2712 -0.782204 -9.48627 1.5834 -0.703804 -9.48627 1.2712 -0.703804 3.07855 1.5834 0.653397 3.07855 1.2712 0.653397 3.0955 1.5834 0.997894 3.0955 1.2712 0.997894 3.3451 1.5834 0.921097 3.3451 1.2712 0.921097</float_array>
          <technique_common>
            <accessor source="#PositionSrc_id-array" count="143" stride="3">
              <param name="X" type="float"/>
              <param name="Y" type="float"/>
              <param name="Z" type="float"/>
            </accessor>
          </technique_common>
        </source>
        <source id="NormalSrc_id" name="NormalSrc">
          <float_array id="NormalSrc_id-array" count="429">0 -1 0 0 -1 0 0 -1 0 0 -1 0 -1 0 0 -1 0 0 -1 0 0 -1 0 0 0 0 0 0 1 0 0 1 0 0 1 0 0 1 0 0 1 0 0 1 0 0 1 0 0 0 -1 0 0 -1 0 0 -1 0 0 -1 0 0 0 0 0 0 0 1 0 0 1 0 0 1 0 0 1 0 0 1 0 0 1 0 0 1 0 0 1 0 0 1 0 0 1 0 0 1 0 0 1 0 0 1 0 0 1 0 0 0 1 0 0 1 0 0 1 0 0 1 0 0 0 0 0 0 0 0 0 0 0 0 0 0 0 0 0 0 0 0 0 0 0 0 0 1 0 0 1 0 0 1 0 0 1 0 0 1 0 0 -1 0 -0.003272 0 -0.999995 -0.003272 0 -0.999995 -0.008187 0 -0.999966 -0.009828 0 -0.999952 -1 0 0 -1 0 0 -1 0 0 -1 0 0 -0.466743 0 0.884393 -0.466743 0 0.884393 -0.433536 0 0.901136 -0.399682 0 0.916654 -0.314889 0 0.949129 -0.263401 0 0.964686 -0.158126 0 0.987419 -0.104329 0 0.994543 -0.014029 0 0.999902 0.02239 0 0.999749 0.10525 0 0.994446 0.151639 0 0.988436 0.230008 0 0.973189 0.262201 0 0.965013 0.299959 0 0.953952 0.267674 0 0.963509 0.062277 0 0.998059 0.062277 0 0.998059 0 0 -1 0 0 -1 -0.112471 0 0.993655 -0.112471 0 0.993655 1 0 0 1 0 0 1 0 0 1 0 0 0 0 0 0 0 0 0 0 0 0 1 0 0 1 0 0 1 0 0 1 0 0 1 0 0.995824 0 0.091292 0.995824 0 0.091292 0.999724 0 0.0235 0.999 0 -0.044714 0.993662 0 -0.112409 0.993662 0 -0.112409 0 -1 0 0 -1 0 0 -1 0 0 -1 0 0 1 0 0 1 0 0 1 0 0.195879 0.980581 -0.009643 0.441066 0.894427 -0.073897 -0.01147 0 -0.999934 -0.01147 0 -0.999934 0.331867 0 0.943326 0.331867 0 0.943326 -0.446673 0.894427 0.02199 -0.193422 0.980581 0.032392 0 1 0 0 1 0 0 1 0 0 1 0 0 1 0 0 1 0 0 1 0 0 1 0 0.697387 0.707107 -0.116842 -0.882142 0.447214 0.147734 0.99879 0 -0.049171 -0.315845 -0.948683 0.015549 0.389919 0.79566 -0.46356 0.611574 -0.311991 -0.727076 -0.71402 0.359743 -0.600634 -0.416338 -0.839051 -0.350224 -0.006311 0 -0.99998 -0.006311 0 -0.99998 -0.006311 0 -0.99998 -0.006311 0 -0.99998 0.29407 0 0.955784 0.29407 0 0.955784 -0.300313 0.852295 0.428259 -0.53172 -0.377259 0.758255 0.780558 0.301871 0.54736 0.50736 -0.78486 0.355781</float_array>
          <technique_common>
            <accessor source="#NormalSrc_id-array" count="143" stride="3">
              <param name="X" type="float"/>
              <param name="Y" type="float"/>
              <param name="Z" type="float"/>
            </accessor>
          </technique_common>
        </source>
        <source id="ColorSrc_id" name="ColorSrc">
          <float_array id="ColorSrc_id-array" count="572">1 1 1 1 1 1 1 1 1 1 1 1 1 1 1 1 1 1 1 1 1 1 1 1 1 1 1 1 1 1 1 1 1 1 1 1 1 1 1 1 1 1 1 1 1 1 1 1 1 1 1 1 1 1 1 1 1 1 1 1 1 1 1 1 1 1 1 1 1 1 1 1 1 1 1 1 1 1 1 1 1 1 1 1 1 1 1 1 1 1 1 1 1 1 1 1 1 1 1 1 1 1 1 1 1 1 1 1 1 1 1 1 1 1 1 1 1 1 1 1 1 1 1 1 1 1 1 1 1 1 1 1 1 1 1 1 1 1 1 1 1 1 1 1 1 1 1 1 1 1 1 1 1 1 1 1 1 1 1 1 1 1 1 1 1 1 1 1 1 1 1 1 1 1 1 1 1 1 1 1 1 1 1 1 1 1 1 1 1 1 1 1 1 1 1 1 1 1 1 1 1 1 1 1 1 1 1 1 1 1 1 1 1 1 1 1 1 1 1 1 1 1 1 1 1 1 1 1 1 1 1 1 1 1 1 1 1 1 1 1 1 1 1 1 1 1 1 1 1 1 1 1 1 1 1 1 1 1 1 1 1 1 1 1 1 1 1 1 1 1 1 1 1 1 1 1 1 1 1 1 1 1 1 1 1 1 1 1 1 1 1 1 1 1 1 1 1 1 1 1 1 1 1 1 1 1 1 1 1 1 1 1 1 1 1 1 1 1 1 1 1 1 1 1 1 1 1 1 1 1 1 1 1 1 1 1 1 1 1 1 1 1 1 1 1 1 1 1 1 1 1 1 1 1 1 1 1 1 1 1 1 1 1 1 1 1 1 1 1 1 1 1 1 1 1 1 1 1 1 1 1 1 1 1 1 1 1 1 1 1 1 1 1 1 1 1 1 1 1 1 1 1 1 1 1 1 1 1 1 1 1 1 1 1 1 1 1 1 1 1 1 1 1 1 1 1 1 1 1 1 1 1 1 1 1 1 1 1 1 1 1 1 1 1 1 1 1 1 1 1 1 1 1 1 1 1 1 1 1 1 1 1 1 1 1 1 1 1 1 1 1 1 1 1 1 1 1 1 1 1 1 1 1 1 1 1 1 1 1 1 1 1 1 1 1 1 1 1 1 1 1 1 1 1 1 1 1 1 1 1 1 1 1 1 1 1 1 1 1 1 1 1 1 1 1 1 1 1 1 1 1 1 1 1 1 1 1 1 1 1 1 1 1 1 1 1 1 1 1 1 1 1 1 1 1 1 1 1 1 1 1 1 1 1 1 1 1 1 1 1 1 1</float_array>
          <technique_common>
            <accessor source="#ColorSrc_id-array" count="143" stride="4">
              <param name="R" type="float"/>
              <param name="G" type="float"/>
              <param name="B" type="float"/>
              <param name="A" type="float"/>
            </accessor>
          </technique_common>
        </source>
        <source id="Tex1Src_id" name="Tex1Src">
          <float_array id="Tex1Src_id-array" count="780">0.670721 0.481081 0.013281 0.481081 0.670721 0.811718 0.013281 0.481081 0.013281 0.811718 0.670721 0.811718 0.43236 0.74286 0.588701 0.74286 0.43236 0.801426 0.588701 0.74286 0.588701 0.801426 0.43236 0.801426 0.43236 0.801426 0.588701 0.801426 0.48221 0.801426 0.083037 0.711364 0.083037 0.811718 0.013281 0.717449 0.083037 0.811718 0.013281 0.811718 0.013281 0.717449 0.083037 0.711364 0.013281 0.717449 0.083037 0.610207 0.083037 0.610207 0.013281 0.717449 0.083037 0.481081 0.013281 0.717449 0.013281 0.481081 0.083037 0.481081 0.03873 0.739014 0.589905 0.739014 0.03873 0.79758 0.589905 0.739014 0.589905 0.79758 0.03873 0.79758 0.03873 0.79758 0.589905 0.79758 0.061292 0.79758 0.589905 0.79758 0.531662 0.79758 0.061292 0.79758 0.64523 0.717185 0.670721 0.717449 0.643698 0.811718 0.670721 0.717449 0.670721 0.811718 0.643698 0.811718 0.566241 0.481081 0.567782 0.5299 0.467596 0.481081 0.567782 0.5299 0.468367 0.498259 0.467596 0.481081 0.467596 0.481081 0.468367 0.498259 0.372805 0.481081 0.468367 0.498259 0.376658 0.48974 0.372805 0.481081 0.372805 0.481081 0.376658 0.48974 0.281096 0.481081 0.376658 0.48974 0.28495 0.497045 0.281096 0.481081 0.281096 0.481081 0.28495 0.497045 0.183223 0.481081 0.28495 0.497045 0.199407 0.526244 0.183223 0.481081 0.037633 0.737192 0.588808 0.737192 0.037633 0.795758 0.588808 0.737192 0.588808 0.795758 0.037633 0.795758 0.037633 0.795758 0.588808 0.795758 0.095875 0.795758 0.588808 0.795758 0.567532 0.795758 0.095875 0.795758 0.095875 0.795758 0.567532 0.795758 0.138987 0.795758 0.567532 0.795758 0.499326 0.795758 0.138987 0.795758 0.138987 0.795758 0.499326 0.795758 0.179525 0.795758 0.499326 0.795758 0.416962 0.795758 0.179525 0.795758 0.179525 0.795758 0.416962 0.795758 0.261245 0.795758 0.416962 0.795758 0.337817 0.795758 0.261245 0.795758 0.183223 0.481081 0.199407 0.526244 0.134672 0.481081 0.199407 0.526244 0.138525 0.56397 0.134672 0.481081 0.134672 0.481081 0.138525 0.56397 0.083037 0.481081 0.138525 0.56397 0.083037 0.610207 0.083037 0.481081 0.645239 0.481081 0.670721 0.481081 0.645239 0.570054 0.670721 0.481081 0.670721 0.579787 0.645239 0.570054 0.901579 0.693242 0.901579 0.663502 0.921401 0.693242 0.901579 0.663502 0.921401 0.663502 0.921401 0.693242 0.110356 0.678976 0.110356 0.651066 0.128335 0.678976 0.110356 0.651066 0.128335 0.651066 0.128335 0.678976 0.139962 0.678976 0.139962 0.651066 0.18311 0.678976 0.139962 0.651066 0.18311 0.651066 0.18311 0.678976 0.18311 0.678976 0.18311 0.651066 0.230454 0.678976 0.18311 0.651066 0.230454 0.651066 0.230454 0.678976 0.230454 0.678976 0.230454 0.651066 0.296975 0.678976 0.230454 0.651066 0.296975 0.651066 0.296975 0.678976 0.296975 0.678976 0.296975 0.651066 0.36829 0.678976 0.296975 0.651066 0.36829 0.651066 0.36829 0.678976 0.36829 0.678976 0.36829 0.651066 0.439605 0.678976 0.36829 0.651066 0.439605 0.651066 0.439605 0.678976 0.439605 0.678976 0.439605 0.651066 0.516913 0.678976 0.439605 0.651066 0.516913 0.651066 0.516913 0.678976 0.689817 0.693349 0.689817 0.663609 0.709632 0.693349 0.689817 0.663609 0.709632 0.663609 0.709632 0.693349 0.679263 0.663502 0.901579 0.663502 0.679263 0.693242 0.901579 0.663502 0.901579 0.693242 0.679263 0.693242 0.931948 0.693349 0.709632 0.693349 0.931948 0.663609 0.709632 0.693349 0.709632 0.663609 0.931948 0.663609 0.433457 0.744681 0.589798 0.744681 0.433457 0.803247 0.589798 0.744681 0.589798 0.803247 0.433457 0.803247 0.433457 0.803247 0.589798 0.803247 0.501341 0.803247 0.589798 0.803247 0.539948 0.803247 0.501341 0.803247 0.501341 0.803247 0.539948 0.803247 0.510572 0.803247 0.645239 0.59972 0.670721 0.609453 0.64523 0.717185 0.670721 0.609453 0.670721 0.62691 0.64523 0.717185 0.64523 0.717185 0.670721 0.62691 0.670721 0.717449 0.771617 0.678692 0.771617 0.648048 0.839558 0.678692 0.771617 0.648048 0.839558 0.648048 0.839558 0.678692 0.839558 0.678692 0.839558 0.648048 0.894617 0.678692 0.839558 0.648048 0.894617 0.648048 0.894617 0.678692 0.959301 0.558359 0.670721 0.579787 0.963281 0.62691 0.670721 0.579787 0.670721 0.62691 0.963281 0.62691 0.963281 0.62691 0.670721 0.62691 0.959301 0.717449 0.670721 0.62691 0.670721 0.717449 0.959301 0.717449 0.959301 0.717449 0.670721 0.717449 0.963281 0.62691 0.670721 0.717449 0.670721 0.62691 0.963281 0.62691 0.963281 0.62691 0.670721 0.62691 0.959301 0.558359 0.670721 0.62691 0.670721 0.609453 0.959301 0.558359 0.645239 0.59972 0.64523 0.717185 0.625595 0.590014 0.64523 0.717185 0.622681 0.716767 0.625595 0.590014 0.921401 0.693242 0.921401 0.663502 0.939341 0.693242 0.921401 0.663502 0.939341 0.663502 0.939341 0.693242 0.676229 0.693349 0.676229 0.663609 0.689817 0.693349 0.676229 0.663609 0.689817 0.663609 0.689817 0.693349 0.625595 0.590014 0.622681 0.716767 0.617624 0.584834 0.622681 0.716767 0.611525 0.716653 0.617624 0.584834 0.617624 0.584834 0.611525 0.716653 0.567782 0.559566 0.611525 0.716653 0.083037 0.711364 0.567782 0.559566 0.567782 0.559566 0.083037 0.711364 0.468367 0.527925 0.083037 0.711364 0.083037 0.639874 0.468367 0.527925 0.468367 0.527925 0.083037 0.639874 0.376658 0.519406 0.083037 0.639874 0.138525 0.593636 0.376658 0.519406 0.376658 0.519406 0.138525 0.593636 0.28495 0.526711 0.138525 0.593636 0.199407 0.555911 0.28495 0.526711 0.64523 0.717185 0.643698 0.811718 0.622681 0.716767 0.643698 0.811718 0.083037 0.811718 0.622681 0.716767 0.622681 0.716767 0.083037 0.811718 0.611525 0.716653 0.083037 0.811718 0.083037 0.711364 0.611525 0.716653 0.645239 0.481081 0.645239 0.570054 0.566241 0.481081 0.645239 0.570054 0.625595 0.560347 0.566241 0.481081 0.566241 0.481081 0.625595 0.560347 0.567782 0.5299 0.625595 0.560347 0.617624 0.555167 0.567782 0.5299 0.619929 0.742702 0.619929 0.742702 0.608774 0.742594 0.619929 0.742702 0.608774 0.742594 0.608774 0.742594 0.110356 0.619776 0.110356 0.591865 0.523011 0.619776 0.110356 0.591865 0.523011 0.591865 0.523011 0.619776 0.516913 0.678976 0.516913 0.651066 0.557359 0.678976 0.516913 0.651066 0.557359 0.651066 0.557359 0.678976 0.618349 0.561597 0.618349 0.561597 0.62632 0.566777 0.618349 0.561597 0.62632 0.566777 0.62632 0.566777 0.619929 0.742702 0.622681 0.716767 0.619929 0.742702 0.622681 0.716767 0.622681 0.716767 0.619929 0.742702 0.608774 0.742594 0.611525 0.716653 0.619929 0.742702 0.611525 0.716653 0.622681 0.716767 0.619929 0.742702 0.619929 0.742702 0.622681 0.716767 0.608774 0.742594 0.622681 0.716767 0.611525 0.716653 0.608774 0.742594 0.608774 0.742594 0.611525 0.716653 0.608774 0.742594 0.611525 0.716653 0.611525 0.716653 0.608774 0.742594 0.62632 0.566777 0.625595 0.560347 0.62632 0.566777 0.625595 0.560347 0.625595 0.590014 0.62632 0.566777 0.618349 0.561597 0.617624 0.555167 0.62632 0.566777 0.617624 0.555167 0.625595 0.560347 0.62632 0.566777 0.62632 0.566777 0.625595 0.590014 0.618349 0.561597 0.625595 0.590014 0.617624 0.584834 0.618349 0.561597 0.618349 0.561597 0.617624 0.584834 0.618349 0.561597 0.617624 0.584834 0.617624 0.555167 0.618349 0.561597</float_array>
          <technique_common>
            <accessor source="#Tex1Src_id-array" count="390" stride="2">
              <param name="S" type="float"/>
              <param name="T" type="float"/>
            </accessor>
          </technique_common>
        </source>
        <source id="Tex2Src_id" name="Tex2Src">
          <float_array id="Tex2Src_id-array" count="780">0 1 0 1 0 1 0 1 0 1 0 1 0 1 0 1 0 1 0 1 0 1 0 1 0 1 0 1 0 1 0 1 0 1 0 1 0 1 0 1 0 1 0 1 0 1 0 1 0 1 0 1 0 1 0 1 0 1 0 1 0 1 0 1 0 1 0 1 0 1 0 1 0 1 0 1 0 1 0 1 0 1 0 1 0 1 0 1 0 1 0 1 0 1 0 1 0 1 0 1 0 1 0 1 0 1 0 1 0 1 0 1 0 1 0 1 0 1 0 1 0 1 0 1 0 1 0 1 0 1 0 1 0 1 0 1 0 1 0 1 0 1 0 1 0 1 0 1 0 1 0 1 0 1 0 1 0 1 0 1 0 1 0 1 0 1 0 1 0 1 0 1 0 1 0 1 0 1 0 1 0 1 0 1 0 1 0 1 0 1 0 1 0 1 0 1 0 1 0 1 0 1 0 1 0 1 0 1 0 1 0 1 0 1 0 1 0 1 0 1 0 1 0 1 0 1 0 1 0 1 0 1 0 1 0 1 0 1 0 1 0 1 0 1 0 1 0 1 0 1 0 1 0 1 0 1 0 1 0 1 0 1 0 1 0 1 0 1 0 1 0 1 0 1 0 1 0 1 0 1 0 1 0 1 0 1 0 1 0 1 0 1 0 1 0 1 0 1 0 1 0 1 0 1 0 1 0 1 0 1 0 1 0 1 0 1 0 1 0 1 0 1 0 1 0 1 0 1 0 1 0 1 0 1 0 1 0 1 0 1 0 1 0 1 0 1 0 1 0 1 0 1 0 1 0 1 0 1 0 1 0 1 0 1 0 1 0 1 0 1 0 1 0 1 0 1 0 1 0 1 0 1 0 1 0 1 0 1 0 1 0 1 0 1 0 1 0 1 0 1 0 1 0 1 0 1 0 1 0 1 0 1 0 1 0 1 0 1 0 1 0 1 0 1 0 1 0 1 0 1 0 1 0 1 0 1 0 1 0 1 0 1 0 1 0 1 0 1 0 1 0 1 0 1 0 1 0 1 0 1 0 1 0 1 0 1 0 1 0 1 0 1 0 1 0 1 0 1 0 1 0 1 0 1 0 1 0 1 0 1 0 1 0 1 0 1 0 1 0 1 0 1 0 1 0 1 0 1 0 1 0 1 0 1 0 1 0 1 0 1 0 1 0 1 0 1 0 1 0 1 0 1 0 1 0 1 0 1 0 1 0 1 0 1 0 1 0 1 0 1 0 1 0 1 0 1 0 1 0 1 0 1 0 1 0 1 0 1 0 1 0 1 0 1 0 1 0 1 0 1 0 1 0 1 0 1 0 1 0 1 0 1 0 1 0 1 0 1 0 1 0 1 0 1 0 1 0 1 0 1 0 1 0 1 0 1 0 1 0 1 0 1 0 1 0 1 0 1 0 1 0 1 0 1 0 1 0 1 0 1 0 1 0 1 0 1 0 1 0 1 0 1 0 1 0 1 0 1 0 1 0 1 0 1 0 1 0 1 0 1 0 1 0 1 0 1 0 1 0 1 0 1 0 1 0 1 0 1 0 1 0 1 0 1 0 1 0 1 0 1 0 1 0 1 0 1 0 1 0 1 0 1 0 1 0 1 0 1 0 1 0 1 0 1 0 1 0 1 0 1 0 1 0 1 0 1 0 1 0 1 0 1 0 1 0 1 0 1 0 1 0 1 0 1 0 1 0 1 0 1 0 1 0 1 0 1 0 1 0 1 0 1 0 1 0 1 0 1 0 1</float_array>
          <technique_common>
            <accessor source="#Tex2Src_id-array" count="390" stride="2">
              <param name="S" type="float"/>
              <param name="T" type="float"/>
            </accessor>
          </technique_common>
        </source>
        <vertices id="geomU3D_id-vertices">
          <input semantic="POSITION" source="#PositionSrc_id"/>
        </vertices>
        <triangles count="0">
          <input semantic="VERTEX" source="#geomU3D_id-vertices" offset="0"/>
          <input semantic="NORMAL" source="#NormalSrc_id" offset="1"/>
          <input semantic="COLOR" source="#ColorSrc_id" offset="2" set="0"/>
          <input semantic="TEXCOORD" source="#Tex1Src_id" offset="3" set="0"/>
          <input semantic="TEXCOORD" source="#Tex2Src_id" offset="4" set="1"/>
          <p/>
        </triangles>
        <triangles material="VisualMaterialVisualMaterial" count="130">
          <input semantic="VERTEX" source="#geomU3D_id-vertices" offset="0"/>
          <input semantic="NORMAL" source="#NormalSrc_id" offset="1"/>
          <input semantic="COLOR" source="#ColorSrc_id" offset="2" set="0"/>
          <input semantic="TEXCOORD" source="#Tex1Src_id" offset="3" set="0"/>
          <input semantic="TEXCOORD" source="#Tex2Src_id" offset="4" set="1"/>
          <p>0 0 0 0 0 1 1 1 1 1 2 2 2 2 2 1 1 1 3 3 3 3 3 4 4 2 2 2 5 5 4 4 4 6 6 5 5 5 7 7 6 6 6 8 8 5 5 5 9 9 7 7 7 10 10 6 6 6 11 11 6 6 6 12 12 7 7 7 13 13 8 8 8 14 14 9 9 9 15 15 10 10 10 16 16 11 11 11 17 17 10 10 10 18 18 12 12 12 19 19 11 11 11 20 20 9 9 9 21 21 11 11 11 22 22 13 13 13 23 23 13 13 13 24 24 11 11 11 25 25 14 14 14 26 26 11 11 11 27 27 15 15 15 28 28 14 14 14 29 29 16 16 16 30 30 17 17 17 31 31 18 18 18 32 32 17 17 17 33 33 19 19 19 34 34 18 18 18 35 35 18 18 18 36 36 19 19 19 37 37 20 20 20 38 38 19 19 19 39 39 21 21 21 40 40 20 20 20 41 41 22 22 22 42 42 23 23 23 43 43 24 24 24 44 44 23 23 23 45 45 25 25 25 46 46 24 24 24 47 47 26 26 26 48 48 27 27 27 49 49 28 28 28 50 50 27 27 27 51 51 29 29 29 52 52 28 28 28 53 53 28 28 28 54 54 29 29 29 55 55 30 30 30 56 56 29 29 29 57 57 31 31 31 58 58 30 30 30 59 59 30 30 30 60 60 31 31 31 61 61 32 32 32 62 62 31 31 31 63 63 33 33 33 64 64 32 32 32 65 65 32 32 32 66 66 33 33 33 67 67 34 34 34 68 68 33 33 33 69 69 35 35 35 70 70 34 34 34 71 71 36 36 36 72 72 37 37 37 73 73 38 38 38 74 74 37 37 37 75 75 39 39 39 76 76 38 38 38 77 77 38 38 38 78 78 39 39 39 79 79 40 40 40 80 80 39 39 39 81 81 41 41 41 82 82 40 40 40 83 83 40 40 40 84 84 41 41 41 85 85 42 42 42 86 86 41 41 41 87 87 43 43 43 88 88 42 42 42 89 89 42 42 42 90 90 43 43 43 91 91 44 44 44 92 92 43 43 43 93 93 45 45 45 94 94 44 44 44 95 95 44 44 44 96 96 45 45 45 97 97 46 46 46 98 98 45 45 45 99 99 47 47 47 100 100 46 46 46 101 101 34 34 34 102 102 35 35 35 103 103 48 48 48 104 104 35 35 35 105 105 49 49 49 106 106 48 48 48 107 107 48 48 48 108 108 49 49 49 109 109 14 14 14 110 110 49 49 49 111 111 13 13 13 112 112 14 14 14 113 113 50 50 50 114 114 51 51 51 115 115 52 52 52 116 116 51 51 51 117 117 53 53 53 118 118 52 52 52 119 119 54 54 54 120 120 55 55 55 121 121 56 56 56 122 122 55 55 55 123 123 57 57 57 124 124 56 56 56 125 125 58 58 58 126 126 59 59 59 127 127 60 60 60 128 128 59 59 59 129 129 61 61 61 130 130 60 60 60 131 131 62 62 62 132 132 63 63 63 133 133 64 64 64 134 134 63 63 63 135 135 65 65 65 136 136 64 64 64 137 137 64 64 64 138 138 65 65 65 139 139 66 66 66 140 140 65 65 65 141 141 67 67 67 142 142 66 66 66 143 143 66 66 66 144 144 67 67 67 145 145 68 68 68 146 146 67 67 67 147 147 69 69 69 148 148 68 68 68 149 149 68 68 68 150 150 69 69 69 151 151 70 70 70 152 152 69 69 69 153 153 71 71 71 154 154 70 70 70 155 155 70 70 70 156 156 71 71 71 157 157 72 72 72 158 158 71 71 71 159 159 73 73 73 160 160 72 72 72 161 161 72 72 72 162 162 73 73 73 163 163 74 74 74 164 164 73 73 73 165 165 75 75 75 166 166 74 74 74 167 167 76 76 76 168 168 77 77 77 169 169 78 78 78 170 170 77 77 77 171 171 79 79 79 172 172 78 78 78 173 173 80 80 80 174 174 55 55 55 175 175 81 81 81 176 176 55 55 55 177 177 54 54 54 178 178 81 81 81 179 179 82 82 82 180 180 78 78 78 181 181 83 83 83 182 182 78 78 78 183 183 79 79 79 184 184 83 83 83 185 185 84 84 84 186 186 85 85 85 187 187 86 86 86 188 188 85 85 85 189 189 87 87 87 190 190 86 86 86 191 191 86 86 86 192 192 87 87 87 193 193 88 88 88 194 194 87 87 87 195 195 89 89 89 196 196 88 88 88 197 197 88 88 88 198 198 89 89 89 199 199 90 90 90 200 200 91 91 91 201 201 92 92 92 202 202 93 93 93 203 203 92 92 92 204 204 94 94 94 205 205 93 93 93 206 206 93 93 93 207 207 94 94 94 208 208 95 95 95 209 209 96 96 96 210 210 97 97 97 211 211 98 98 98 212 212 97 97 97 213 213 99 99 99 214 214 98 98 98 215 215 98 98 98 216 216 99 99 99 217 217 100 100 100 218 218 99 99 99 219 219 101 101 101 220 220 100 100 100 221 221 102 102 102 222 222 53 53 53 223 223 103 103 103 224 224 53 53 53 225 225 104 104 104 226 226 103 103 103 227 227 103 103 103 228 228 104 104 104 229 229 105 105 105 230 230 104 104 104 231 231 23 23 23 232 232 105 105 105 233 233 106 106 106 234 234 95 95 95 235 235 107 107 107 236 236 95 95 95 237 237 94 94 94 238 238 107 107 107 239 239 107 107 107 240 240 94 94 94 241 241 108 108 108 242 242 94 94 94 243 243 92 92 92 244 244 108 108 108 245 245 91 91 91 246 246 93 93 93 247 247 109 109 109 248 248 93 93 93 249 249 110 110 110 250 250 109 109 109 251 251 56 56 56 252 252 57 57 57 253 253 111 111 111 254 254 57 57 57 255 255 112 112 112 256 256 111 111 111 257 257 113 113 113 258 258 114 114 114 259 259 76 76 76 260 260 114 114 114 261 261 77 77 77 262 262 76 76 76 263 263 109 109 109 264 264 110 110 110 265 265 115 115 115 266 266 110 110 110 267 267 116 116 116 268 268 115 115 115 269 269 115 115 115 270 270 116 116 116 271 271 117 117 117 272 272 116 116 116 273 273 118 118 118 274 274 117 117 117 275 275 117 117 117 276 276 118 118 118 277 277 119 119 119 278 278 118 118 118 279 279 120 120 120 280 280 119 119 119 281 281 119 119 119 282 282 120 120 120 283 283 121 121 121 284 284 120 120 120 285 285 122 122 122 286 286 121 121 121 287 287 121 121 121 288 288 122 122 122 289 289 123 123 123 290 290 122 122 122 291 291 124 124 124 292 292 123 123 123 293 293 22 22 22 294 294 24 24 24 295 295 125 125 125 296 296 24 24 24 297 297 10 10 10 298 298 125 125 125 299 299 125 125 125 300 300 10 10 10 301 301 126 126 126 302 302 10 10 10 303 303 9 9 9 304 304 126 126 126 305 305 50 50 50 306 306 52 52 52 307 307 26 26 26 308 308 52 52 52 309 309 127 127 127 310 310 26 26 26 311 311 26 26 26 312 312 127 127 127 313 313 27 27 27 314 314 127 127 127 315 315 128 128 128 316 316 27 27 27 317 317 129 129 129 318 318 130 130 130 319 319 131 131 131 320 320 130 130 130 321 321 132 132 132 322 322 131 131 131 323 323 133 133 133 324 324 134 134 134 325 325 135 135 135 326 326 134 134 134 327 327 136 136 136 328 328 135 135 135 329 329 74 74 74 330 330 75 75 75 331 331 137 137 137 332 332 75 75 75 333 333 138 138 138 334 334 137 137 137 335 335 139 139 139 336 336 140 140 140 337 337 141 141 141 338 338 140 140 140 339 339 142 142 142 340 340 141 141 141 341 341 129 129 129 342 342 110 110 110 343 343 130 130 130 344 344 110 110 110 345 345 125 125 125 346 346 130 130 130 347 347 131 131 131 348 348 116 116 116 349 349 129 129 129 350 350 116 116 116 351 351 110 110 110 352 352 129 129 129 353 353 130 130 130 354 354 125 125 125 355 355 132 132 132 356 356 125 125 125 357 357 126 126 126 358 358 132 132 132 359 359 132 132 132 360 360 126 126 126 361 361 131 131 131 362 362 126 126 126 363 363 116 116 116 364 364 131 131 131 365 365 142 142 142 366 366 127 127 127 367 367 141 141 141 368 368 127 127 127 369 369 109 109 109 370 370 141 141 141 371 371 140 140 140 372 372 128 128 128 373 373 142 142 142 374 374 128 128 128 375 375 127 127 127 376 376 142 142 142 377 377 141 141 141 378 378 109 109 109 379 379 139 139 139 380 380 109 109 109 381 381 115 115 115 382 382 139 139 139 383 383 139 139 139 384 384 115 115 115 385 385 140 140 140 386 386 115 115 115 387 387 128 128 128 388 388 140 140 140 389 389</p>
        </triangles>
      </mesh>
    </geometry>
  </library_geometries>
  <library_controllers>
    <controller id="skinU3D_id" name="skinU3D">
      <skin source="#geomU3D_id">
        <bind_shape_matrix>1 0 0 0 0 1 0 0 0 0 1 0 0 0 0 1</bind_shape_matrix>
        <source id="skinU3D_id-joints">
          <Name_array id="skinU3D_id-joints-array" count="1">Body_id</Name_array>
          <technique_common>
            <accessor source="#skinU3D_id-joints-array" count="1" stride="1">
              <param name="JOINT" type="Name"/>
            </accessor>
          </technique_common>
        </source>
        <source id="skinU3D_id-bind_poses">
          <float_array id="skinU3D_id-bind_poses-array" count="16">1 0 0 0 0 1 0 0 0 0 1 0 0 0 0 1</float_array>
          <technique_common>
            <accessor source="#skinU3D_id-bind_poses-array" count="1" stride="16">
              <param name="TRANSFORM" type="float4x4"/>
            </accessor>
          </technique_common>
        </source>
        <source id="skinU3D_id-weights">
          <float_array id="skinU3D_id-weights-array" count="1">1</float_array>
          <technique_common>
            <accessor source="#skinU3D_id-weights-array" count="1" stride="1">
              <param name="WEIGHT" type="float"/>
            </accessor>
          </technique_common>
        </source>
        <joints>
          <input semantic="JOINT" source="#skinU3D_id-joints"/>
          <input semantic="INV_BIND_MATRIX" source="#skinU3D_id-bind_poses"/>
        </joints>
        <vertex_weights count="143">
          <input semantic="JOINT" source="#skinU3D_id-joints" offset="0"/>
          <input semantic="WEIGHT" source="#skinU3D_id-weights" offset="1"/>
          <vcount>1 1 1 1 1 1 1 1 1 1 1 1 1 1 1 1 1 1 1 1 1 1 1 1 1 1 1 1 1 1 1 1 1 1 1 1 1 1 1 1 1 1 1 1 1 1 1 1 1 1 1 1 1 1 1 1 1 1 1 1 1 1 1 1 1 1 1 1 1 1 1 1 1 1 1 1 1 1 1 1 1 1 1 1 1 1 1 1 1 1 1 1 1 1 1 1 1 1 1 1 1 1 1 1 1 1 1 1 1 1 1 1 1 1 1 1 1 1 1 1 1 1 1 1 1 1 1 1 1 1 1 1 1 1 1 1 1 1 1 1 1 1 1 </vcount>
          <v>0 0 0 0 0 0 0 0 0 0 0 0 0 0 0 0 0 0 0 0 0 0 0 0 0 0 0 0 0 0 0 0 0 0 0 0 0 0 0 0 0 0 0 0 0 0 0 0 0 0 0 0 0 0 0 0 0 0 0 0 0 0 0 0 0 0 0 0 0 0 0 0 0 0 0 0 0 0 0 0 0 0 0 0 0 0 0 0 0 0 0 0 0 0 0 0 0 0 0 0 0 0 0 0 0 0 0 0 0 0 0 0 0 0 0 0 0 0 0 0 0 0 0 0 0 0 0 0 0 0 0 0 0 0 0 0 0 0 0 0 0 0 0 0 0 0 0 0 0 0 0 0 0 0 0 0 0 0 0 0 0 0 0 0 0 0 0 0 0 0 0 0 0 0 0 0 0 0 0 0 0 0 0 0 0 0 0 0 0 0 0 0 0 0 0 0 0 0 0 0 0 0 0 0 0 0 0 0 0 0 0 0 0 0 0 0 0 0 0 0 0 0 0 0 0 0 0 0 0 0 0 0 0 0 0 0 0 0 0 0 0 0 0 0 0 0 0 0 0 0 0 0 0 0 0 0 0 0 0 0 0 0 0 0 0 0 0 0 0 0 0 0 0 0 0 0 0 0 0 0 0 0 0 0 0 0</v>
        </vertex_weights>
      </skin>
    </controller>
  </library_controllers>
  <library_visual_scenes>
    <visual_scene id="VisualSceneNode" name="rootU3D">
      <node id="Body_id" name="Body" sid="Body_id" type="JOINT">
        <translate>0 0 0</translate>
        <rotate sid="rotateZ">0 0 1 0</rotate>
        <rotate sid="rotateY">0 1 0 0</rotate>
        <rotate sid="rotateX">1 0 0 0</rotate>
        <scale>1 1 1</scale>
      </node>
      <node id="def_surf_mat_id" name="def_surf_mat" type="JOINT">
        <translate>0 0 0</translate>
        <rotate sid="rotateZ">0 0 1 0</rotate>
        <rotate sid="rotateY">0 1 0 0</rotate>
        <rotate sid="rotateX">1 0 0 0</rotate>
        <scale>1 1 1</scale>
      </node>
      <node id="meshU3D_id" name="meshU3D" type="NODE">
        <translate>0 0 0</translate>
        <rotate>1 0 0 0</rotate>
        <scale>1 1 1</scale>
        <instance_controller url="#skinU3D_id">
          <skeleton>#Body_id</skeleton>
          <bind_material>
            <technique_common>
              <instance_material symbol="VisualMaterialVisualMaterial" target="#VisualMaterial">
                <bind_vertex_input semantic="UVSET0" input_semantic="TEXCOORD" input_set="0"/>
              </instance_material>
            </technique_common>
          </bind_material>
        </instance_controller>
      </node>
      <extra>
        <technique profile="MAX3D">
          <frame_rate>30</frame_rate>
        </technique>
        <technique profile="MAYA">
          <start_time>0</start_time>
          <end_time>1</end_time>
        </technique>
      </extra>
    </visual_scene>
  </library_visual_scenes>
  <scene>
    <instance_visual_scene url="#VisualSceneNode"/>
  </scene>
</COLLADA>
