xof 0303txt 0032

// DirectX 9.0 file
// Creator: Ultimate Unwrap3D Pro v3.19
// Website: http://www.unwrap3d.com
// Time: Thu Dec 10 21:46:10 2009

// Start of Templates

template VertexDuplicationIndices {
 <b8d65549-d7c9-4995-89cf-53a9a8b031e3>
 DWORD nIndices;
 DWORD nOriginalVertices;
 array DWORD indices[nIndices];
}

template FVFData {
 <b6e70a0e-8ef9-4e83-94ad-ecc8b0c04897>
 DWORD dwFVF;
 DWORD nDWords;
 array DWORD data[nDWords];
}

template Header {
 <3D82AB43-62DA-11cf-AB39-0020AF71E433>
 WORD major;
 WORD minor;
 DWORD flags;
}

template Vector {
 <3D82AB5E-62DA-11cf-AB39-0020AF71E433>
 FLOAT x;
 FLOAT y;
 FLOAT z;
}

template Coords2d {
 <F6F23F44-7686-11cf-8F52-0040333594A3>
 FLOAT u;
 FLOAT v;
}

template Matrix4x4 {
 <F6F23F45-7686-11cf-8F52-0040333594A3>
 array FLOAT matrix[16];
}

template ColorRGBA {
 <35FF44E0-6C7C-11cf-8F52-0040333594A3>
 FLOAT red;
 FLOAT green;
 FLOAT blue;
 FLOAT alpha;
}

template ColorRGB {
 <D3E16E81-7835-11cf-8F52-0040333594A3>
 FLOAT red;
 FLOAT green;
 FLOAT blue;
}

template IndexedColor {
 <1630B820-7842-11cf-8F52-0040333594A3>
 DWORD index;
 ColorRGBA indexColor;
}

template Material {
 <3D82AB4D-62DA-11cf-AB39-0020AF71E433>
 ColorRGBA faceColor;
 FLOAT power;
 ColorRGB specularColor;
 ColorRGB emissiveColor;
 [...]
}

template TextureFilename {
 <A42790E1-7810-11cf-8F52-0040333594A3>
 STRING filename;
}

template MeshFace {
 <3D82AB5F-62DA-11cf-AB39-0020AF71E433>
 DWORD nFaceVertexIndices;
 array DWORD faceVertexIndices[nFaceVertexIndices];
}

template MeshTextureCoords {
 <F6F23F40-7686-11cf-8F52-0040333594A3>
 DWORD nTextureCoords;
 array Coords2d textureCoords[nTextureCoords];
}

template MeshMaterialList {
 <F6F23F42-7686-11cf-8F52-0040333594A3>
 DWORD nMaterials;
 DWORD nFaceIndexes;
 array DWORD faceIndexes[nFaceIndexes];
 [Material]
}

template MeshNormals {
 <F6F23F43-7686-11cf-8F52-0040333594A3>
 DWORD nNormals;
 array Vector normals[nNormals];
 DWORD nFaceNormals;
 array MeshFace faceNormals[nFaceNormals];
}

template MeshVertexColors {
 <1630B821-7842-11cf-8F52-0040333594A3>
 DWORD nVertexColors;
 array IndexedColor vertexColors[nVertexColors];
}

template Mesh {
 <3D82AB44-62DA-11cf-AB39-0020AF71E433>
 DWORD nVertices;
 array Vector vertices[nVertices];
 DWORD nFaces;
 array MeshFace faces[nFaces];
 [...]
}

template FrameTransformMatrix {
 <F6F23F41-7686-11cf-8F52-0040333594A3>
 Matrix4x4 frameMatrix;
}

template Frame {
 <3D82AB46-62DA-11cf-AB39-0020AF71E433>
 [...]
}

template FloatKeys {
 <10DD46A9-775B-11cf-8F52-0040333594A3>
 DWORD nValues;
 array FLOAT values[nValues];
}

template TimedFloatKeys {
 <F406B180-7B3B-11cf-8F52-0040333594A3>
 DWORD time;
 FloatKeys tfkeys;
}

template AnimationKey {
 <10DD46A8-775B-11cf-8F52-0040333594A3>
 DWORD keyType;
 DWORD nKeys;
 array TimedFloatKeys keys[nKeys];
}

template AnimationOptions {
 <E2BF56C0-840F-11cf-8F52-0040333594A3>
 DWORD openclosed;
 DWORD positionquality;
}

template Animation {
 <3D82AB4F-62DA-11cf-AB39-0020AF71E433>
 [...]
}

template AnimationSet {
 <3D82AB50-62DA-11cf-AB39-0020AF71E433>
 [Animation]
}

template XSkinMeshHeader {
 <3CF169CE-FF7C-44ab-93C0-F78F62D172E2>
 WORD nMaxSkinWeightsPerVertex;
 WORD nMaxSkinWeightsPerFace;
 WORD nBones;
}

template SkinWeights {
 <6F0D123B-BAD2-4167-A0D0-80224F25FABB>
 STRING transformNodeName;
 DWORD nWeights;
 array DWORD vertexIndices[nWeights];
 array FLOAT weights[nWeights];
 Matrix4x4 matrixOffset;
}

template AnimTicksPerSecond {
 <9E415A43-7BA6-4a73-8743-B73D47E88476>
 DWORD AnimTicksPerSecond;
}

AnimTicksPerSecond {
 30;
}

// Start of Frames

   Frame Body {
      FrameTransformMatrix {
       1.000000, 0.000000, 0.000000, 0.000000,
       0.000000, 1.000000, 0.000000, 0.000000,
       0.000000, 0.000000, 1.000000, 0.000000,
       0.000000, 0.000000, 0.000000, 1.000000;;
      }

   }
   Frame def_surf_mat {
      FrameTransformMatrix {
       1.000000, 0.000000, 0.000000, 0.000000,
       0.000000, 1.000000, 0.000000, 0.000000,
       0.000000, 0.000000, 1.000000, 0.000000,
       0.000000, 0.000000, 0.000000, 1.000000;;
      }

   }

   Frame Body0 {
      FrameTransformMatrix {
       1.000000, 0.000000, 0.000000, 0.000000,
       0.000000, 1.000000, 0.000000, 0.000000,
       0.000000, 0.000000, 1.000000, 0.000000,
       0.000000, 0.000000, 0.000000, 1.000000;;
      }

      Mesh skinnedMesh {
       200;
       2.329100; 0.000000; -2.433449;,
       3.061699; 0.959499; -1.212753;,
       2.329100; 0.000000; -1.212753;,
       3.061699; 0.959499; -2.433449;,
       3.471899; 1.851299; -1.212753;,
       3.471899; 1.851299; -2.433449;,
       3.601199; 2.973701; -1.212753;,
       3.091000; 2.973701; -2.433449;,
       -2.866201; 1.596401; -2.433449;,
       -2.632000; 0.926502; -1.212753;,
       -2.866201; 1.596401; -1.212753;,
       -2.632000; 0.926502; -2.433350;,
       -3.195900; 2.830902; -2.433449;,
       -3.601200; 2.830902; -1.212753;,
       -2.196501; 0.100101; -1.212753;,
       -2.196501; 0.100101; -2.433350;,
       2.813600; 4.148800; -1.212753;,
       2.303499; 4.148800; -2.433449;,
       -2.719700; 4.248901; -2.433350;,
       -3.125000; 4.248901; -1.212753;,
       1.021500; 5.733601; -1.212753;,
       1.021500; 5.733601; -2.433449;,
       -2.152000; 5.833702; -2.433449;,
       -2.152000; 5.833702; -1.212753;,
       0.453699; 7.652000; -1.212753;,
       0.453699; 7.652000; -2.433449;,
       -1.932201; 7.752102; -2.433449;,
       -1.932201; 7.752102; -1.212753;,
       -0.004101; 8.719601; -1.212753;,
       -0.004101; 8.719601; -2.433350;,
       -2.005501; 8.819702; -2.433449;,
       -2.005501; 8.819702; -1.212753;,
       -0.645101; 10.106602; -1.212753;,
       -0.645101; 9.800602; -2.433350;,
       -2.005501; 9.620502; -2.433449;,
       -2.005501; 9.926403; -1.212753;,
       3.061699; 0.959499; 0.630547;,
       2.329100; 0.000000; 2.433449;,
       2.329100; 0.000000; 0.630547;,
       3.061699; 0.959499; 2.433449;,
       3.471899; 1.851299; 0.630547;,
       3.471899; 1.851299; 2.433449;,
       3.601199; 2.973701; 0.630547;,
       3.091000; 2.973701; 2.433449;,
       -2.632000; 0.926502; 0.630547;,
       -2.866201; 1.596401; 2.433449;,
       -2.866201; 1.596401; 0.630547;,
       -2.632000; 0.926502; 2.433449;,
       -3.195900; 2.830902; 2.433449;,
       -3.601200; 2.830902; 0.630547;,
       -2.196501; 0.100101; 0.630547;,
       -2.196501; 0.100101; 2.433449;,
       2.813600; 4.148800; 0.630547;,
       2.303499; 4.148800; 2.433449;,
       -2.719700; 4.248901; 2.433449;,
       -3.125000; 4.248901; 0.630547;,
       1.021500; 5.733601; 0.630547;,
       1.021500; 5.733601; 2.433449;,
       -2.152000; 5.833702; 2.433449;,
       -2.557301; 5.833702; 0.630547;,
       1.047600; 7.652000; 0.630547;,
       0.453699; 7.652000; 2.433449;,
       -1.932201; 7.752102; 2.433449;,
       -1.932201; 7.752102; 0.630547;,
       0.589700; 8.719601; 0.630547;,
       -0.004101; 8.719601; 2.433449;,
       -2.005501; 8.819702; 2.433449;,
       -2.005501; 8.819702; 0.630547;,
       -0.645101; 10.106602; 0.630547;,
       -0.645101; 9.800602; 2.433449;,
       -2.005501; 9.620502; 2.433449;,
       -2.005501; 9.926403; 0.630547;,
       -1.216600; 0.931801; 2.793747;,
       -2.196501; 0.100101; 2.433449;,
       -1.231400; 0.079903; 2.793747;,
       -2.632000; 0.926502; 2.433449;,
       2.329100; 0.000000; 2.433449;,
       3.061699; 0.959499; 2.433449;,
       -1.208501; 1.632999; 2.793747;,
       -2.866201; 1.596401; 2.433449;,
       3.471899; 1.851299; 2.433449;,
       -3.195900; 2.830902; 2.433449;,
       -1.197401; 2.851601; 2.793747;,
       3.091000; 2.973701; 2.433449;,
       -2.719700; 4.248901; 2.433449;,
       -1.213601; 4.230701; 2.793747;,
       2.303499; 4.148800; 2.433449;,
       -2.152000; 5.833702; 2.433449;,
       -1.232800; 5.804901; 2.793747;,
       1.021500; 5.733601; 2.433449;,
       -1.932201; 7.752102; 2.433449;,
       -1.240300; 7.713902; 2.793747;,
       0.453699; 7.652000; 2.433449;,
       -2.005501; 8.819702; 2.433449;,
       -1.237801; 8.774300; 2.793747;,
       -0.004101; 8.719601; 2.433449;,
       -2.005501; 9.620502; 2.433449;,
       -1.237201; 9.738701; 2.793747;,
       -0.645101; 9.800602; 2.433449;,
       -1.216600; 0.931801; -2.793747;,
       2.329100; 0.000000; -2.433449;,
       -1.231400; 0.079903; -2.793747;,
       3.061699; 0.959499; -2.433449;,
       -2.196501; 0.100101; -2.433350;,
       -2.632000; 0.926502; -2.433350;,
       -1.208501; 1.632999; -2.793747;,
       3.471899; 1.851299; -2.433449;,
       -2.866201; 1.596401; -2.433449;,
       -1.197401; 2.851601; -2.793747;,
       -3.195900; 2.830902; -2.433449;,
       3.091000; 2.973701; -2.433449;,
       -1.213601; 4.230701; -2.793747;,
       -2.719700; 4.248901; -2.433350;,
       2.303499; 4.148800; -2.433449;,
       -1.232800; 5.804901; -2.793747;,
       -2.152000; 5.833702; -2.433449;,
       1.021500; 5.733601; -2.433449;,
       -1.240300; 7.713902; -2.793747;,
       -1.932201; 7.752102; -2.433449;,
       0.453699; 7.652000; -2.433449;,
       -1.237801; 8.774300; -2.793747;,
       -2.005501; 8.819702; -2.433449;,
       -0.004101; 8.719601; -2.433350;,
       -1.237201; 9.738701; -2.793747;,
       -2.005501; 9.620502; -2.433449;,
       -0.645101; 9.800602; -2.433350;,
       -1.231400; 0.079903; -2.793747;,
       2.329100; 0.000000; -1.212753;,
       -1.231400; 0.079903; -1.392250;,
       2.329100; 0.000000; -2.433449;,
       -2.196501; 0.100101; -1.212753;,
       -2.196501; 0.100101; -2.433350;,
       -1.237201; 9.738701; -2.793747;,
       -2.005501; 9.926403; -1.212753;,
       -1.237201; 10.044601; -1.392250;,
       -2.005501; 9.620502; -2.433449;,
       -0.645101; 10.106602; -1.212753;,
       -0.645101; 9.800602; -2.433350;,
       -1.231400; 0.079903; 0.723953;,
       -2.196501; 0.100101; 2.433449;,
       -2.196501; 0.100101; 0.630547;,
       -1.231400; 0.079903; 2.793747;,
       2.329100; 0.000000; 0.630547;,
       2.329100; 0.000000; 2.433449;,
       -1.237201; 10.044601; 0.723953;,
       -0.645101; 9.800602; 2.433449;,
       -0.645101; 10.106602; 0.630547;,
       -1.237201; 9.738701; 2.793747;,
       -2.005501; 9.926403; 0.630547;,
       -2.005501; 9.620502; 2.433449;,
       -1.953501; 12.596500; -2.097450;,
       -0.754101; 9.199303; -1.900948;,
       -1.042701; 9.080299; -2.097450;,
       -1.664801; 12.715500; -1.900948;,
       -2.310301; 12.449402; -2.097450;,
       -1.399500; 8.933201; -2.097450;,
       -2.598900; 12.330402; -1.900948;,
       -1.688200; 8.814201; -1.900948;,
       -2.709200; 12.285000; -1.583046;,
       -1.798401; 8.768803; -1.583046;,
       -2.598900; 12.330402; -1.265152;,
       -1.688200; 8.814201; -1.265152;,
       -2.310301; 12.449402; -1.068649;,
       -1.399500; 8.933201; -1.068649;,
       -1.953501; 12.596500; -1.068649;,
       -1.042701; 9.080299; -1.068649;,
       -1.664801; 12.715500; -1.265152;,
       -0.754101; 9.199303; -1.265152;,
       -1.554600; 12.760902; -1.583046;,
       -0.643801; 9.244701; -1.583046;,
       -0.232901; 14.631401; 0.312653;,
       -0.404601; 9.098701; 0.509148;,
       -0.716801; 9.097401; 0.312653;,
       0.079299; 14.632603; 0.509148;,
       -0.618801; 14.629902; 0.312653;,
       -1.102700; 9.095901; 0.312653;,
       -0.931001; 14.628601; 0.509148;,
       -1.415001; 9.094700; 0.509148;,
       -1.050301; 14.628201; 0.827049;,
       -1.534201; 9.094299; 0.827049;,
       -0.931001; 14.628601; 1.144951;,
       -1.415001; 9.094700; 1.144951;,
       -0.618801; 14.629902; 1.341454;,
       -1.102700; 9.095901; 1.341454;,
       -0.232901; 14.631401; 1.341454;,
       -0.716801; 9.097401; 1.341454;,
       0.079299; 14.632603; 1.144951;,
       -0.404601; 9.098701; 1.144951;,
       0.198600; 14.632999; 0.827049;,
       -0.285400; 9.099102; 0.827049;,
       -0.404601; 9.098701; 1.144951;,
       -0.404601; 9.098701; 0.509148;,
       -0.285400; 9.099102; 0.827049;,
       -0.716801; 9.097401; 0.312653;,
       -0.716801; 9.097401; 1.341454;,
       -1.102700; 9.095901; 0.312653;,
       -1.102700; 9.095901; 1.341454;,
       -1.415001; 9.094700; 0.509148;,
       -1.415001; 9.094700; 1.144951;,
       -1.534201; 9.094299; 0.827049;;
       256;
       3;0, 1, 2;,
       3;0, 3, 1;,
       3;3, 4, 1;,
       3;3, 5, 4;,
       3;5, 6, 4;,
       3;5, 7, 6;,
       3;8, 9, 10;,
       3;8, 11, 9;,
       3;12, 10, 13;,
       3;12, 8, 10;,
       3;11, 14, 9;,
       3;11, 15, 14;,
       3;7, 16, 6;,
       3;7, 17, 16;,
       3;18, 13, 19;,
       3;18, 12, 13;,
       3;17, 20, 16;,
       3;17, 21, 20;,
       3;22, 19, 23;,
       3;22, 18, 19;,
       3;21, 24, 20;,
       3;21, 25, 24;,
       3;26, 23, 27;,
       3;26, 22, 23;,
       3;25, 28, 24;,
       3;25, 29, 28;,
       3;30, 27, 31;,
       3;30, 26, 27;,
       3;29, 32, 28;,
       3;29, 33, 32;,
       3;34, 31, 35;,
       3;34, 30, 31;,
       3;36, 37, 38;,
       3;36, 39, 37;,
       3;2, 36, 38;,
       3;2, 1, 36;,
       3;40, 39, 36;,
       3;40, 41, 39;,
       3;1, 40, 36;,
       3;1, 4, 40;,
       3;42, 41, 40;,
       3;42, 43, 41;,
       3;4, 42, 40;,
       3;4, 6, 42;,
       3;44, 45, 46;,
       3;44, 47, 45;,
       3;10, 44, 46;,
       3;10, 9, 44;,
       3;46, 48, 49;,
       3;46, 45, 48;,
       3;13, 46, 49;,
       3;13, 10, 46;,
       3;50, 47, 44;,
       3;50, 51, 47;,
       3;9, 50, 44;,
       3;9, 14, 50;,
       3;52, 43, 42;,
       3;52, 53, 43;,
       3;6, 52, 42;,
       3;6, 16, 52;,
       3;49, 54, 55;,
       3;49, 48, 54;,
       3;19, 49, 55;,
       3;19, 13, 49;,
       3;56, 53, 52;,
       3;56, 57, 53;,
       3;16, 56, 52;,
       3;16, 20, 56;,
       3;55, 58, 59;,
       3;55, 54, 58;,
       3;23, 55, 59;,
       3;23, 19, 55;,
       3;60, 57, 56;,
       3;60, 61, 57;,
       3;20, 60, 56;,
       3;20, 24, 60;,
       3;59, 62, 63;,
       3;59, 58, 62;,
       3;27, 59, 63;,
       3;27, 23, 59;,
       3;64, 61, 60;,
       3;64, 65, 61;,
       3;24, 64, 60;,
       3;24, 28, 64;,
       3;63, 66, 67;,
       3;63, 62, 66;,
       3;31, 63, 67;,
       3;31, 27, 63;,
       3;68, 65, 64;,
       3;68, 69, 65;,
       3;28, 68, 64;,
       3;28, 32, 68;,
       3;67, 70, 71;,
       3;67, 66, 70;,
       3;35, 67, 71;,
       3;35, 31, 67;,
       3;72, 73, 74;,
       3;72, 75, 73;,
       3;76, 72, 74;,
       3;76, 77, 72;,
       3;78, 75, 72;,
       3;78, 79, 75;,
       3;77, 78, 72;,
       3;77, 80, 78;,
       3;78, 81, 79;,
       3;78, 82, 81;,
       3;80, 82, 78;,
       3;80, 83, 82;,
       3;82, 84, 81;,
       3;82, 85, 84;,
       3;83, 85, 82;,
       3;83, 86, 85;,
       3;85, 87, 84;,
       3;85, 88, 87;,
       3;86, 88, 85;,
       3;86, 89, 88;,
       3;88, 90, 87;,
       3;88, 91, 90;,
       3;89, 91, 88;,
       3;89, 92, 91;,
       3;91, 93, 90;,
       3;91, 94, 93;,
       3;92, 94, 91;,
       3;92, 95, 94;,
       3;94, 96, 93;,
       3;94, 97, 96;,
       3;95, 97, 94;,
       3;95, 98, 97;,
       3;99, 100, 101;,
       3;99, 102, 100;,
       3;103, 99, 101;,
       3;103, 104, 99;,
       3;105, 102, 99;,
       3;105, 106, 102;,
       3;104, 105, 99;,
       3;104, 107, 105;,
       3;108, 107, 109;,
       3;108, 105, 107;,
       3;110, 105, 108;,
       3;110, 106, 105;,
       3;111, 109, 112;,
       3;111, 108, 109;,
       3;113, 108, 111;,
       3;113, 110, 108;,
       3;114, 112, 115;,
       3;114, 111, 112;,
       3;116, 111, 114;,
       3;116, 113, 111;,
       3;117, 115, 118;,
       3;117, 114, 115;,
       3;119, 114, 117;,
       3;119, 116, 114;,
       3;120, 118, 121;,
       3;120, 117, 118;,
       3;122, 117, 120;,
       3;122, 119, 117;,
       3;123, 121, 124;,
       3;123, 120, 121;,
       3;125, 120, 123;,
       3;125, 122, 120;,
       3;126, 127, 128;,
       3;126, 129, 127;,
       3;130, 126, 128;,
       3;130, 131, 126;,
       3;132, 133, 134;,
       3;132, 135, 133;,
       3;136, 132, 134;,
       3;136, 137, 132;,
       3;138, 139, 140;,
       3;138, 141, 139;,
       3;142, 141, 138;,
       3;142, 143, 141;,
       3;128, 142, 138;,
       3;128, 127, 142;,
       3;140, 128, 138;,
       3;140, 130, 128;,
       3;144, 145, 146;,
       3;144, 147, 145;,
       3;148, 147, 144;,
       3;148, 149, 147;,
       3;134, 148, 144;,
       3;134, 133, 148;,
       3;146, 134, 144;,
       3;146, 136, 134;,
       3;150, 151, 152;,
       3;150, 153, 151;,
       3;154, 152, 155;,
       3;154, 150, 152;,
       3;156, 155, 157;,
       3;156, 154, 155;,
       3;158, 157, 159;,
       3;158, 156, 157;,
       3;160, 159, 161;,
       3;160, 158, 159;,
       3;162, 161, 163;,
       3;162, 160, 161;,
       3;164, 163, 165;,
       3;164, 162, 163;,
       3;166, 165, 167;,
       3;166, 164, 165;,
       3;168, 167, 169;,
       3;168, 166, 167;,
       3;153, 169, 151;,
       3;153, 168, 169;,
       3;150, 168, 153;,
       3;150, 166, 168;,
       3;154, 166, 150;,
       3;154, 164, 166;,
       3;156, 164, 154;,
       3;156, 162, 164;,
       3;158, 162, 156;,
       3;158, 160, 162;,
       3;167, 151, 169;,
       3;167, 152, 151;,
       3;165, 152, 167;,
       3;165, 155, 152;,
       3;163, 155, 165;,
       3;163, 157, 155;,
       3;161, 157, 163;,
       3;161, 159, 157;,
       3;170, 171, 172;,
       3;170, 173, 171;,
       3;174, 172, 175;,
       3;174, 170, 172;,
       3;176, 175, 177;,
       3;176, 174, 175;,
       3;178, 177, 179;,
       3;178, 176, 177;,
       3;180, 179, 181;,
       3;180, 178, 179;,
       3;182, 181, 183;,
       3;182, 180, 181;,
       3;184, 183, 185;,
       3;184, 182, 183;,
       3;186, 185, 187;,
       3;186, 184, 185;,
       3;188, 187, 189;,
       3;188, 186, 187;,
       3;173, 189, 171;,
       3;173, 188, 189;,
       3;170, 188, 173;,
       3;170, 186, 188;,
       3;174, 186, 170;,
       3;174, 184, 186;,
       3;176, 184, 174;,
       3;176, 182, 184;,
       3;178, 182, 176;,
       3;178, 180, 182;,
       3;190, 191, 192;,
       3;190, 193, 191;,
       3;194, 193, 190;,
       3;194, 195, 193;,
       3;196, 195, 194;,
       3;196, 197, 195;,
       3;198, 197, 196;,
       3;198, 199, 197;;

      MeshNormals {
       200;
       0.794812; -0.606856; 0.000000;,
       0.856882; -0.515513; 0.000000;,
       0.794812; -0.606856; 0.000000;,
       0.875348; -0.483493; 0.000000;,
       0.962992; -0.269528; 0.000000;,
       0.987953; -0.082915; -0.130669;,
       0.944635; 0.303898; -0.123735;,
       0.822385; 0.453380; -0.343701;,
       -0.951962; -0.306215; 0.000000;,
       -0.916857; -0.399216; 0.000000;,
       -0.924065; -0.379430; -0.046231;,
       -0.906667; -0.421847; 0.000000;,
       -0.965480; -0.159785; -0.205713;,
       -0.980772; -0.109044; -0.161850;,
       -0.884675; -0.466208; 0.000000;,
       -0.884675; -0.466208; 0.000000;,
       0.742343; 0.651372; -0.156976;,
       0.745285; 0.635597; -0.201411;,
       -0.902375; 0.309748; -0.299626;,
       -0.914838; 0.390893; -0.101355;,
       0.877996; 0.468189; -0.099612;,
       0.913981; 0.405757; 0.000000;,
       -0.939095; 0.328140; -0.102101;,
       -0.953488; 0.292938; -0.071055;,
       0.930687; 0.335582; -0.145622;,
       0.933765; 0.357887; 0.000000;,
       -0.998581; 0.053251; 0.000000;,
       -0.997801; 0.055626; -0.036045;,
       0.889561; 0.448347; -0.087555;,
       0.896343; 0.441327; -0.042420;,
       -0.998956; -0.045689; 0.000000;,
       -0.999413; -0.034269; 0.000000;,
       0.892201; 0.449645; -0.042403;,
       0.853203; 0.505923; -0.126833;,
       -1.000000; 0.000000; 0.000000;,
       -1.000000; 0.000000; 0.000000;,
       0.837245; -0.546828; 0.000000;,
       0.794812; -0.606856; 0.000000;,
       0.794812; -0.606856; 0.000000;,
       0.875348; -0.483493; 0.000000;,
       0.947320; -0.320289; 0.000000;,
       0.992753; -0.078218; 0.091233;,
       0.978301; 0.188405; 0.086207;,
       0.850233; 0.468209; 0.240591;,
       -0.926482; -0.376339; 0.000000;,
       -0.951962; -0.306215; 0.000000;,
       -0.911066; -0.411025; 0.031902;,
       -0.906667; -0.421848; 0.000000;,
       -0.976801; -0.160231; 0.142074;,
       -0.992878; 0.044711; 0.110430;,
       -0.884675; -0.466208; 0.000000;,
       -0.884675; -0.466208; 0.000000;,
       0.775523; 0.621944; 0.108395;,
       0.753619; 0.642420; 0.139126;,
       -0.925148; 0.317562; 0.207977;,
       -0.929219; 0.362636; 0.071042;,
       0.858273; 0.512115; 0.033264;,
       0.944552; 0.310886; 0.105694;,
       -0.942508; 0.258430; 0.211880;,
       -0.966818; 0.255463; 0.001515;,
       0.975165; 0.221470; 0.002067;,
       0.892463; 0.342183; 0.293974;,
       -0.990068; 0.119568; 0.073956;,
       -0.998284; 0.058559; 0.000000;,
       0.871191; 0.490936; 0.002910;,
       0.830704; 0.516614; 0.207464;,
       -0.998956; -0.045689; 0.000000;,
       -0.999739; -0.022844; 0.000000;,
       0.822773; 0.567891; 0.023329;,
       0.856945; 0.508141; 0.086245;,
       -1.000000; 0.000000; 0.000000;,
       -1.000000; 0.000000; 0.000000;,
       -0.097182; -0.031737; 0.994760;,
       -0.298023; -0.061534; 0.952573;,
       -0.127834; 0.002221; 0.991793;,
       -0.234092; -0.066554; 0.969934;,
       0.092447; -0.033020; 0.995170;,
       0.082180; -0.033770; 0.996045;,
       -0.087570; -0.023558; 0.995880;,
       -0.210573; -0.064915; 0.975421;,
       0.079379; -0.002874; 0.996840;,
       -0.188907; 0.001662; 0.981994;,
       -0.057998; 0.014644; 0.998209;,
       0.089988; 0.032786; 0.995403;,
       -0.213984; 0.046601; 0.975725;,
       -0.091749; 0.024980; 0.995469;,
       0.122113; 0.066875; 0.990261;,
       -0.320711; 0.040082; 0.946329;,
       -0.133639; 0.028988; 0.990606;,
       0.176345; 0.064290; 0.982227;,
       -0.430241; 0.002685; 0.902710;,
       -0.136466; 0.005222; 0.990631;,
       0.234133; 0.061136; 0.970280;,
       -0.437700; -0.010266; 0.899062;,
       -0.089307; 0.021682; 0.995768;,
       0.351275; 0.136416; 0.926281;,
       -0.424739; 0.000132; 0.905316;,
       0.121706; 0.103511; 0.987154;,
       0.476869; 0.282768; 0.832249;,
       -0.097219; -0.031743; -0.994757;,
       0.092447; -0.033020; -0.995170;,
       -0.127878; 0.002222; -0.991787;,
       0.082180; -0.033770; -0.996045;,
       -0.298097; -0.061550; -0.952549;,
       -0.234133; -0.066613; -0.969920;,
       -0.050296; -0.011713; -0.998666;,
       0.076994; -0.005210; -0.997018;,
       -0.199940; -0.039666; -0.979005;,
       -0.050328; 0.001357; -0.998732;,
       -0.195424; 0.009482; -0.980673;,
       0.080462; 0.026625; -0.996402;,
       -0.047048; 0.027011; -0.998527;,
       -0.275063; 0.067965; -0.959021;,
       0.095880; 0.046658; -0.994299;,
       -0.074347; 0.029990; -0.996781;,
       -0.395168; 0.059989; -0.916648;,
       0.140281; 0.044281; -0.989121;,
       -0.103908; 0.025259; -0.994266;,
       -0.449282; 0.008145; -0.893353;,
       0.192688; 0.046109; -0.980176;,
       -0.041957; 0.025468; -0.998795;,
       -0.425216; -0.009664; -0.905040;,
       0.258781; 0.086127; -0.962088;,
       -0.122702; -0.000022; -0.992444;,
       -0.424586; 0.000000; -0.905388;,
       0.406341; 0.084811; -0.909777;,
       -0.021680; -0.999765; 0.000000;,
       -0.022436; -0.999748; 0.000000;,
       -0.021680; -0.999765; 0.000000;,
       -0.022436; -0.999748; 0.000000;,
       -0.020924; -0.999781; 0.000000;,
       -0.020924; -0.999781; 0.000000;,
       -0.111300; 0.967574; -0.226743;,
       -0.202293; 0.967916; -0.149049;,
       -0.125167; 0.989605; -0.070813;,
       -0.254552; 0.938054; -0.235072;,
       -0.031990; 0.987677; -0.153202;,
       0.046555; 0.968932; -0.242908;,
       -0.021529; -0.999768; 0.000000;,
       -0.020924; -0.999781; 0.000000;,
       -0.020924; -0.999781; 0.000000;,
       -0.021932; -0.999759; 0.000000;,
       -0.022436; -0.999748; 0.000000;,
       -0.022436; -0.999748; 0.000000;,
       -0.103416; 0.990390; 0.091834;,
       -0.045558; 0.986611; 0.156600;,
       -0.095271; 0.993887; 0.055792;,
       -0.135975; 0.979025; 0.151728;,
       -0.174592; 0.981621; 0.077058;,
       -0.224262; 0.960797; 0.163020;,
       -0.025852; 0.749171; -0.661872;,
       0.742761; -0.369049; -0.558668;,
       0.393923; -0.625196; -0.673762;,
       0.668844; 0.523693; -0.527629;,
       -0.393895; 0.625213; -0.673762;,
       0.025875; -0.749157; -0.661886;,
       -0.711646; 0.522891; -0.469196;,
       -0.305420; -0.866377; -0.395108;,
       -0.945868; 0.310505; -0.094451;,
       -0.814701; -0.567067; 0.121229;,
       -0.865206; 0.101914; 0.490950;,
       -0.355563; -0.706775; 0.611591;,
       -0.510575; 0.586128; 0.629101;,
       0.151688; -0.706654; 0.691108;,
       -0.151717; 0.706649; 0.691108;,
       0.510600; -0.586133; 0.629076;,
       0.203629; 0.831630; 0.516650;,
       0.794185; -0.495438; 0.351868;,
       0.605284; 0.788704; 0.107599;,
       0.991316; -0.070160; -0.111225;,
       0.256916; 0.709265; -0.656458;,
       0.698271; -0.061058; -0.713225;,
       0.183841; -0.016075; -0.982825;,
       0.809729; 0.267214; -0.522433;,
       -0.129424; 0.724691; -0.676811;,
       -0.367633; 0.032150; -0.929415;,
       -0.469926; 0.742500; -0.477351;,
       -0.838369; 0.073319; -0.540149;,
       -0.777391; 0.621527; -0.096791;,
       -0.988558; 0.086448; 0.123614;,
       -0.774490; 0.389897; 0.498142;,
       -0.698245; 0.061065; 0.713250;,
       -0.253952; 0.729723; 0.634833;,
       -0.183797; 0.016071; 0.982833;,
       0.125881; 0.714441; 0.688279;,
       0.367690; -0.032152; 0.929392;,
       0.495157; 0.704306; 0.508697;,
       0.838399; -0.073318; 0.540103;,
       0.841881; 0.529243; 0.105535;,
       0.988557; -0.086454; -0.123617;,
       0.003898; -0.999992; 0.000000;,
       0.003766; -0.999993; 0.000000;,
       0.003368; -0.999994; 0.000000;,
       0.004071; -0.999992; 0.000000;,
       0.003979; -0.999992; 0.000000;,
       0.003873; -0.999992; 0.000000;,
       0.003859; -0.999993; 0.000000;,
       0.003683; -0.999993; 0.000000;,
       0.003602; -0.999994; 0.000000;,
       0.003360; -0.999994; 0.000000;;
       256;
       3;0, 1, 2;,
       3;0, 3, 1;,
       3;3, 4, 1;,
       3;3, 5, 4;,
       3;5, 6, 4;,
       3;5, 7, 6;,
       3;8, 9, 10;,
       3;8, 11, 9;,
       3;12, 10, 13;,
       3;12, 8, 10;,
       3;11, 14, 9;,
       3;11, 15, 14;,
       3;7, 16, 6;,
       3;7, 17, 16;,
       3;18, 13, 19;,
       3;18, 12, 13;,
       3;17, 20, 16;,
       3;17, 21, 20;,
       3;22, 19, 23;,
       3;22, 18, 19;,
       3;21, 24, 20;,
       3;21, 25, 24;,
       3;26, 23, 27;,
       3;26, 22, 23;,
       3;25, 28, 24;,
       3;25, 29, 28;,
       3;30, 27, 31;,
       3;30, 26, 27;,
       3;29, 32, 28;,
       3;29, 33, 32;,
       3;34, 31, 35;,
       3;34, 30, 31;,
       3;36, 37, 38;,
       3;36, 39, 37;,
       3;2, 36, 38;,
       3;2, 1, 36;,
       3;40, 39, 36;,
       3;40, 41, 39;,
       3;1, 40, 36;,
       3;1, 4, 40;,
       3;42, 41, 40;,
       3;42, 43, 41;,
       3;4, 42, 40;,
       3;4, 6, 42;,
       3;44, 45, 46;,
       3;44, 47, 45;,
       3;10, 44, 46;,
       3;10, 9, 44;,
       3;46, 48, 49;,
       3;46, 45, 48;,
       3;13, 46, 49;,
       3;13, 10, 46;,
       3;50, 47, 44;,
       3;50, 51, 47;,
       3;9, 50, 44;,
       3;9, 14, 50;,
       3;52, 43, 42;,
       3;52, 53, 43;,
       3;6, 52, 42;,
       3;6, 16, 52;,
       3;49, 54, 55;,
       3;49, 48, 54;,
       3;19, 49, 55;,
       3;19, 13, 49;,
       3;56, 53, 52;,
       3;56, 57, 53;,
       3;16, 56, 52;,
       3;16, 20, 56;,
       3;55, 58, 59;,
       3;55, 54, 58;,
       3;23, 55, 59;,
       3;23, 19, 55;,
       3;60, 57, 56;,
       3;60, 61, 57;,
       3;20, 60, 56;,
       3;20, 24, 60;,
       3;59, 62, 63;,
       3;59, 58, 62;,
       3;27, 59, 63;,
       3;27, 23, 59;,
       3;64, 61, 60;,
       3;64, 65, 61;,
       3;24, 64, 60;,
       3;24, 28, 64;,
       3;63, 66, 67;,
       3;63, 62, 66;,
       3;31, 63, 67;,
       3;31, 27, 63;,
       3;68, 65, 64;,
       3;68, 69, 65;,
       3;28, 68, 64;,
       3;28, 32, 68;,
       3;67, 70, 71;,
       3;67, 66, 70;,
       3;35, 67, 71;,
       3;35, 31, 67;,
       3;72, 73, 74;,
       3;72, 75, 73;,
       3;76, 72, 74;,
       3;76, 77, 72;,
       3;78, 75, 72;,
       3;78, 79, 75;,
       3;77, 78, 72;,
       3;77, 80, 78;,
       3;78, 81, 79;,
       3;78, 82, 81;,
       3;80, 82, 78;,
       3;80, 83, 82;,
       3;82, 84, 81;,
       3;82, 85, 84;,
       3;83, 85, 82;,
       3;83, 86, 85;,
       3;85, 87, 84;,
       3;85, 88, 87;,
       3;86, 88, 85;,
       3;86, 89, 88;,
       3;88, 90, 87;,
       3;88, 91, 90;,
       3;89, 91, 88;,
       3;89, 92, 91;,
       3;91, 93, 90;,
       3;91, 94, 93;,
       3;92, 94, 91;,
       3;92, 95, 94;,
       3;94, 96, 93;,
       3;94, 97, 96;,
       3;95, 97, 94;,
       3;95, 98, 97;,
       3;99, 100, 101;,
       3;99, 102, 100;,
       3;103, 99, 101;,
       3;103, 104, 99;,
       3;105, 102, 99;,
       3;105, 106, 102;,
       3;104, 105, 99;,
       3;104, 107, 105;,
       3;108, 107, 109;,
       3;108, 105, 107;,
       3;110, 105, 108;,
       3;110, 106, 105;,
       3;111, 109, 112;,
       3;111, 108, 109;,
       3;113, 108, 111;,
       3;113, 110, 108;,
       3;114, 112, 115;,
       3;114, 111, 112;,
       3;116, 111, 114;,
       3;116, 113, 111;,
       3;117, 115, 118;,
       3;117, 114, 115;,
       3;119, 114, 117;,
       3;119, 116, 114;,
       3;120, 118, 121;,
       3;120, 117, 118;,
       3;122, 117, 120;,
       3;122, 119, 117;,
       3;123, 121, 124;,
       3;123, 120, 121;,
       3;125, 120, 123;,
       3;125, 122, 120;,
       3;126, 127, 128;,
       3;126, 129, 127;,
       3;130, 126, 128;,
       3;130, 131, 126;,
       3;132, 133, 134;,
       3;132, 135, 133;,
       3;136, 132, 134;,
       3;136, 137, 132;,
       3;138, 139, 140;,
       3;138, 141, 139;,
       3;142, 141, 138;,
       3;142, 143, 141;,
       3;128, 142, 138;,
       3;128, 127, 142;,
       3;140, 128, 138;,
       3;140, 130, 128;,
       3;144, 145, 146;,
       3;144, 147, 145;,
       3;148, 147, 144;,
       3;148, 149, 147;,
       3;134, 148, 144;,
       3;134, 133, 148;,
       3;146, 134, 144;,
       3;146, 136, 134;,
       3;150, 151, 152;,
       3;150, 153, 151;,
       3;154, 152, 155;,
       3;154, 150, 152;,
       3;156, 155, 157;,
       3;156, 154, 155;,
       3;158, 157, 159;,
       3;158, 156, 157;,
       3;160, 159, 161;,
       3;160, 158, 159;,
       3;162, 161, 163;,
       3;162, 160, 161;,
       3;164, 163, 165;,
       3;164, 162, 163;,
       3;166, 165, 167;,
       3;166, 164, 165;,
       3;168, 167, 169;,
       3;168, 166, 167;,
       3;153, 169, 151;,
       3;153, 168, 169;,
       3;150, 168, 153;,
       3;150, 166, 168;,
       3;154, 166, 150;,
       3;154, 164, 166;,
       3;156, 164, 154;,
       3;156, 162, 164;,
       3;158, 162, 156;,
       3;158, 160, 162;,
       3;167, 151, 169;,
       3;167, 152, 151;,
       3;165, 152, 167;,
       3;165, 155, 152;,
       3;163, 155, 165;,
       3;163, 157, 155;,
       3;161, 157, 163;,
       3;161, 159, 157;,
       3;170, 171, 172;,
       3;170, 173, 171;,
       3;174, 172, 175;,
       3;174, 170, 172;,
       3;176, 175, 177;,
       3;176, 174, 175;,
       3;178, 177, 179;,
       3;178, 176, 177;,
       3;180, 179, 181;,
       3;180, 178, 179;,
       3;182, 181, 183;,
       3;182, 180, 181;,
       3;184, 183, 185;,
       3;184, 182, 183;,
       3;186, 185, 187;,
       3;186, 184, 185;,
       3;188, 187, 189;,
       3;188, 186, 187;,
       3;173, 189, 171;,
       3;173, 188, 189;,
       3;170, 188, 173;,
       3;170, 186, 188;,
       3;174, 186, 170;,
       3;174, 184, 186;,
       3;176, 184, 174;,
       3;176, 182, 184;,
       3;178, 182, 176;,
       3;178, 180, 182;,
       3;190, 191, 192;,
       3;190, 193, 191;,
       3;194, 193, 190;,
       3;194, 195, 193;,
       3;196, 195, 194;,
       3;196, 197, 195;,
       3;198, 197, 196;,
       3;198, 199, 197;;
      }

      MeshTextureCoords {
       200;
       0.437794; 0.934270;,
       0.553441; 0.833934;,
       0.556365; 0.905482;,
       0.462482; 0.879906;,
       0.544536; 0.774523;,
       0.473833; 0.821485;,
       0.531393; 0.725714;,
       0.462459; 0.763268;,
       0.476976; 0.832886;,
       0.553848; 0.835410;,
       0.547679; 0.785924;,
       0.462893; 0.881381;,
       0.464220; 0.769655;,
       0.533154; 0.732101;,
       0.555130; 0.901004;,
       0.436564; 0.929791;,
       0.496685; 0.664090;,
       0.440572; 0.705160;,
       0.439341; 0.700682;,
       0.495451; 0.659613;,
       0.477143; 0.593204;,
       0.403153; 0.624411;,
       0.401918; 0.619933;,
       0.475909; 0.588727;,
       0.453488; 0.507396;,
       0.383812; 0.520110;,
       0.382578; 0.515632;,
       0.452254; 0.502919;,
       0.440324; 0.459644;,
       0.371269; 0.464958;,
       0.370030; 0.460482;,
       0.439089; 0.455166;,
       0.421129; 0.386450;,
       0.349309; 0.401812;,
       0.351525; 0.409868;,
       0.423351; 0.394510;,
       0.630728; 0.813806;,
       0.710522; 0.852457;,
       0.634503; 0.883223;,
       0.718870; 0.761350;,
       0.614154; 0.755789;,
       0.712754; 0.720067;,
       0.588461; 0.696522;,
       0.664054; 0.676835;,
       0.631135; 0.815281;,
       0.715897; 0.731468;,
       0.617297; 0.767191;,
       0.719276; 0.762826;,
       0.665814; 0.683223;,
       0.590222; 0.702910;,
       0.633269; 0.878745;,
       0.709288; 0.847979;,
       0.573971; 0.643962;,
       0.637712; 0.628458;,
       0.636477; 0.623981;,
       0.572737; 0.639485;,
       0.554430; 0.573076;,
       0.604923; 0.561755;,
       0.603689; 0.557278;,
       0.553195; 0.568599;,
       0.530774; 0.487268;,
       0.586845; 0.474553;,
       0.585611; 0.470075;,
       0.529540; 0.482790;,
       0.517610; 0.439515;,
       0.589019; 0.419828;,
       0.587785; 0.415351;,
       0.516376; 0.435038;,
       0.499810; 0.369808;,
       0.579873; 0.371477;,
       0.582094; 0.379532;,
       0.502032; 0.377868;,
       0.331912; 0.881159;,
       0.301917; 0.926136;,
       0.331459; 0.927229;,
       0.288587; 0.881446;,
       0.440447; 0.931550;,
       0.462872; 0.879662;,
       0.332160; 0.843240;,
       0.281418; 0.845219;,
       0.475429; 0.831435;,
       0.271325; 0.778459;,
       0.332500; 0.777340;,
       0.463769; 0.770737;,
       0.285902; 0.701776;,
       0.332004; 0.702761;,
       0.439664; 0.707190;,
       0.303280; 0.616073;,
       0.331417; 0.617630;,
       0.400422; 0.621486;,
       0.310008; 0.512329;,
       0.331187; 0.514395;,
       0.383041; 0.517742;,
       0.307764; 0.454594;,
       0.331264; 0.457050;,
       0.369028; 0.460008;,
       0.307764; 0.411289;,
       0.331282; 0.404897;,
       0.349406; 0.401549;,
       0.331912; 0.881159;,
       0.440447; 0.931550;,
       0.331459; 0.927229;,
       0.462872; 0.879662;,
       0.301917; 0.926136;,
       0.288587; 0.881446;,
       0.332160; 0.843240;,
       0.475429; 0.831435;,
       0.281418; 0.845219;,
       0.332500; 0.777340;,
       0.271325; 0.778459;,
       0.463769; 0.770737;,
       0.332004; 0.702761;,
       0.285902; 0.701776;,
       0.439664; 0.707190;,
       0.331417; 0.617630;,
       0.303280; 0.616073;,
       0.400422; 0.621486;,
       0.331187; 0.514395;,
       0.310008; 0.512329;,
       0.383041; 0.517742;,
       0.331264; 0.457050;,
       0.307764; 0.454594;,
       0.369028; 0.460008;,
       0.331282; 0.404897;,
       0.307764; 0.411289;,
       0.349406; 0.401549;,
       0.458248; 0.595321;,
       0.561734; 0.549369;,
       0.458248; 0.554586;,
       0.561734; 0.584849;,
       0.430197; 0.549369;,
       0.430197; 0.584846;,
       0.458079; 0.595321;,
       0.435749; 0.549369;,
       0.458079; 0.554586;,
       0.435749; 0.584849;,
       0.475289; 0.549369;,
       0.475289; 0.584846;,
       0.458248; 0.493079;,
       0.430197; 0.443393;,
       0.430197; 0.495794;,
       0.458248; 0.432921;,
       0.561734; 0.495794;,
       0.561734; 0.443393;,
       0.458079; 0.493079;,
       0.475289; 0.443393;,
       0.475289; 0.495794;,
       0.458079; 0.432921;,
       0.435749; 0.495794;,
       0.435749; 0.443393;,
       0.296732; 0.189466;,
       0.378013; 0.374103;,
       0.346113; 0.395797;,
       0.313226; 0.191197;,
       0.277870; 0.197995;,
       0.330333; 0.398778;,
       0.257066; 0.208593;,
       0.315072; 0.405677;,
       0.251235; 0.211225;,
       0.309246; 0.408310;,
       0.257066; 0.208593;,
       0.315072; 0.405677;,
       0.277870; 0.197995;,
       0.330333; 0.398778;,
       0.296732; 0.189466;,
       0.346113; 0.395797;,
       0.313226; 0.191197;,
       0.378013; 0.374103;,
       0.319052; 0.188565;,
       0.383844; 0.371471;,
       0.486981; 0.139058;,
       0.511554; 0.347927;,
       0.496449; 0.349418;,
       0.502087; 0.137571;,
       0.468310; 0.140896;,
       0.477778; 0.351256;,
       0.453205; 0.142387;,
       0.462667; 0.352744;,
       0.447432; 0.142953;,
       0.456899; 0.353309;,
       0.453205; 0.142387;,
       0.462667; 0.352744;,
       0.468310; 0.140896;,
       0.477778; 0.351256;,
       0.486981; 0.139058;,
       0.496449; 0.349418;,
       0.502087; 0.137571;,
       0.511554; 0.347927;,
       0.507859; 0.137005;,
       0.517322; 0.347362;,
       0.474516; 0.622551;,
       0.474516; 0.622551;,
       0.494843; 0.622483;,
       0.421278; 0.622773;,
       0.421278; 0.622773;,
       0.355472; 0.623029;,
       0.355472; 0.623029;,
       0.302216; 0.623234;,
       0.302216; 0.623234;,
       0.281890; 0.623302;;
      }

      MeshVertexColors {
       200;
       0; 1.000000; 1.000000; 1.000000; 1.000000;,
       1; 1.000000; 1.000000; 1.000000; 1.000000;,
       2; 1.000000; 1.000000; 1.000000; 1.000000;,
       3; 1.000000; 1.000000; 1.000000; 1.000000;,
       4; 1.000000; 1.000000; 1.000000; 1.000000;,
       5; 1.000000; 1.000000; 1.000000; 1.000000;,
       6; 1.000000; 1.000000; 1.000000; 1.000000;,
       7; 1.000000; 1.000000; 1.000000; 1.000000;,
       8; 1.000000; 1.000000; 1.000000; 1.000000;,
       9; 1.000000; 1.000000; 1.000000; 1.000000;,
       10; 1.000000; 1.000000; 1.000000; 1.000000;,
       11; 1.000000; 1.000000; 1.000000; 1.000000;,
       12; 1.000000; 1.000000; 1.000000; 1.000000;,
       13; 1.000000; 1.000000; 1.000000; 1.000000;,
       14; 1.000000; 1.000000; 1.000000; 1.000000;,
       15; 1.000000; 1.000000; 1.000000; 1.000000;,
       16; 1.000000; 1.000000; 1.000000; 1.000000;,
       17; 1.000000; 1.000000; 1.000000; 1.000000;,
       18; 1.000000; 1.000000; 1.000000; 1.000000;,
       19; 1.000000; 1.000000; 1.000000; 1.000000;,
       20; 1.000000; 1.000000; 1.000000; 1.000000;,
       21; 1.000000; 1.000000; 1.000000; 1.000000;,
       22; 1.000000; 1.000000; 1.000000; 1.000000;,
       23; 1.000000; 1.000000; 1.000000; 1.000000;,
       24; 1.000000; 1.000000; 1.000000; 1.000000;,
       25; 1.000000; 1.000000; 1.000000; 1.000000;,
       26; 1.000000; 1.000000; 1.000000; 1.000000;,
       27; 1.000000; 1.000000; 1.000000; 1.000000;,
       28; 1.000000; 1.000000; 1.000000; 1.000000;,
       29; 1.000000; 1.000000; 1.000000; 1.000000;,
       30; 1.000000; 1.000000; 1.000000; 1.000000;,
       31; 1.000000; 1.000000; 1.000000; 1.000000;,
       32; 1.000000; 1.000000; 1.000000; 1.000000;,
       33; 1.000000; 1.000000; 1.000000; 1.000000;,
       34; 1.000000; 1.000000; 1.000000; 1.000000;,
       35; 1.000000; 1.000000; 1.000000; 1.000000;,
       36; 1.000000; 1.000000; 1.000000; 1.000000;,
       37; 1.000000; 1.000000; 1.000000; 1.000000;,
       38; 1.000000; 1.000000; 1.000000; 1.000000;,
       39; 1.000000; 1.000000; 1.000000; 1.000000;,
       40; 1.000000; 1.000000; 1.000000; 1.000000;,
       41; 1.000000; 1.000000; 1.000000; 1.000000;,
       42; 1.000000; 1.000000; 1.000000; 1.000000;,
       43; 1.000000; 1.000000; 1.000000; 1.000000;,
       44; 1.000000; 1.000000; 1.000000; 1.000000;,
       45; 1.000000; 1.000000; 1.000000; 1.000000;,
       46; 1.000000; 1.000000; 1.000000; 1.000000;,
       47; 1.000000; 1.000000; 1.000000; 1.000000;,
       48; 1.000000; 1.000000; 1.000000; 1.000000;,
       49; 1.000000; 1.000000; 1.000000; 1.000000;,
       50; 1.000000; 1.000000; 1.000000; 1.000000;,
       51; 1.000000; 1.000000; 1.000000; 1.000000;,
       52; 1.000000; 1.000000; 1.000000; 1.000000;,
       53; 1.000000; 1.000000; 1.000000; 1.000000;,
       54; 1.000000; 1.000000; 1.000000; 1.000000;,
       55; 1.000000; 1.000000; 1.000000; 1.000000;,
       56; 1.000000; 1.000000; 1.000000; 1.000000;,
       57; 1.000000; 1.000000; 1.000000; 1.000000;,
       58; 1.000000; 1.000000; 1.000000; 1.000000;,
       59; 1.000000; 1.000000; 1.000000; 1.000000;,
       60; 1.000000; 1.000000; 1.000000; 1.000000;,
       61; 1.000000; 1.000000; 1.000000; 1.000000;,
       62; 1.000000; 1.000000; 1.000000; 1.000000;,
       63; 1.000000; 1.000000; 1.000000; 1.000000;,
       64; 1.000000; 1.000000; 1.000000; 1.000000;,
       65; 1.000000; 1.000000; 1.000000; 1.000000;,
       66; 1.000000; 1.000000; 1.000000; 1.000000;,
       67; 1.000000; 1.000000; 1.000000; 1.000000;,
       68; 1.000000; 1.000000; 1.000000; 1.000000;,
       69; 1.000000; 1.000000; 1.000000; 1.000000;,
       70; 1.000000; 1.000000; 1.000000; 1.000000;,
       71; 1.000000; 1.000000; 1.000000; 1.000000;,
       72; 1.000000; 1.000000; 1.000000; 1.000000;,
       73; 1.000000; 1.000000; 1.000000; 1.000000;,
       74; 1.000000; 1.000000; 1.000000; 1.000000;,
       75; 1.000000; 1.000000; 1.000000; 1.000000;,
       76; 1.000000; 1.000000; 1.000000; 1.000000;,
       77; 1.000000; 1.000000; 1.000000; 1.000000;,
       78; 1.000000; 1.000000; 1.000000; 1.000000;,
       79; 1.000000; 1.000000; 1.000000; 1.000000;,
       80; 1.000000; 1.000000; 1.000000; 1.000000;,
       81; 1.000000; 1.000000; 1.000000; 1.000000;,
       82; 1.000000; 1.000000; 1.000000; 1.000000;,
       83; 1.000000; 1.000000; 1.000000; 1.000000;,
       84; 1.000000; 1.000000; 1.000000; 1.000000;,
       85; 1.000000; 1.000000; 1.000000; 1.000000;,
       86; 1.000000; 1.000000; 1.000000; 1.000000;,
       87; 1.000000; 1.000000; 1.000000; 1.000000;,
       88; 1.000000; 1.000000; 1.000000; 1.000000;,
       89; 1.000000; 1.000000; 1.000000; 1.000000;,
       90; 1.000000; 1.000000; 1.000000; 1.000000;,
       91; 1.000000; 1.000000; 1.000000; 1.000000;,
       92; 1.000000; 1.000000; 1.000000; 1.000000;,
       93; 1.000000; 1.000000; 1.000000; 1.000000;,
       94; 1.000000; 1.000000; 1.000000; 1.000000;,
       95; 1.000000; 1.000000; 1.000000; 1.000000;,
       96; 1.000000; 1.000000; 1.000000; 1.000000;,
       97; 1.000000; 1.000000; 1.000000; 1.000000;,
       98; 1.000000; 1.000000; 1.000000; 1.000000;,
       99; 1.000000; 1.000000; 1.000000; 1.000000;,
       100; 1.000000; 1.000000; 1.000000; 1.000000;,
       101; 1.000000; 1.000000; 1.000000; 1.000000;,
       102; 1.000000; 1.000000; 1.000000; 1.000000;,
       103; 1.000000; 1.000000; 1.000000; 1.000000;,
       104; 1.000000; 1.000000; 1.000000; 1.000000;,
       105; 1.000000; 1.000000; 1.000000; 1.000000;,
       106; 1.000000; 1.000000; 1.000000; 1.000000;,
       107; 1.000000; 1.000000; 1.000000; 1.000000;,
       108; 1.000000; 1.000000; 1.000000; 1.000000;,
       109; 1.000000; 1.000000; 1.000000; 1.000000;,
       110; 1.000000; 1.000000; 1.000000; 1.000000;,
       111; 1.000000; 1.000000; 1.000000; 1.000000;,
       112; 1.000000; 1.000000; 1.000000; 1.000000;,
       113; 1.000000; 1.000000; 1.000000; 1.000000;,
       114; 1.000000; 1.000000; 1.000000; 1.000000;,
       115; 1.000000; 1.000000; 1.000000; 1.000000;,
       116; 1.000000; 1.000000; 1.000000; 1.000000;,
       117; 1.000000; 1.000000; 1.000000; 1.000000;,
       118; 1.000000; 1.000000; 1.000000; 1.000000;,
       119; 1.000000; 1.000000; 1.000000; 1.000000;,
       120; 1.000000; 1.000000; 1.000000; 1.000000;,
       121; 1.000000; 1.000000; 1.000000; 1.000000;,
       122; 1.000000; 1.000000; 1.000000; 1.000000;,
       123; 1.000000; 1.000000; 1.000000; 1.000000;,
       124; 1.000000; 1.000000; 1.000000; 1.000000;,
       125; 1.000000; 1.000000; 1.000000; 1.000000;,
       126; 1.000000; 1.000000; 1.000000; 1.000000;,
       127; 1.000000; 1.000000; 1.000000; 1.000000;,
       128; 1.000000; 1.000000; 1.000000; 1.000000;,
       129; 1.000000; 1.000000; 1.000000; 1.000000;,
       130; 1.000000; 1.000000; 1.000000; 1.000000;,
       131; 1.000000; 1.000000; 1.000000; 1.000000;,
       132; 1.000000; 1.000000; 1.000000; 1.000000;,
       133; 1.000000; 1.000000; 1.000000; 1.000000;,
       134; 1.000000; 1.000000; 1.000000; 1.000000;,
       135; 1.000000; 1.000000; 1.000000; 1.000000;,
       136; 1.000000; 1.000000; 1.000000; 1.000000;,
       137; 1.000000; 1.000000; 1.000000; 1.000000;,
       138; 1.000000; 1.000000; 1.000000; 1.000000;,
       139; 1.000000; 1.000000; 1.000000; 1.000000;,
       140; 1.000000; 1.000000; 1.000000; 1.000000;,
       141; 1.000000; 1.000000; 1.000000; 1.000000;,
       142; 1.000000; 1.000000; 1.000000; 1.000000;,
       143; 1.000000; 1.000000; 1.000000; 1.000000;,
       144; 1.000000; 1.000000; 1.000000; 1.000000;,
       145; 1.000000; 1.000000; 1.000000; 1.000000;,
       146; 1.000000; 1.000000; 1.000000; 1.000000;,
       147; 1.000000; 1.000000; 1.000000; 1.000000;,
       148; 1.000000; 1.000000; 1.000000; 1.000000;,
       149; 1.000000; 1.000000; 1.000000; 1.000000;,
       150; 1.000000; 1.000000; 1.000000; 1.000000;,
       151; 1.000000; 1.000000; 1.000000; 1.000000;,
       152; 1.000000; 1.000000; 1.000000; 1.000000;,
       153; 1.000000; 1.000000; 1.000000; 1.000000;,
       154; 1.000000; 1.000000; 1.000000; 1.000000;,
       155; 1.000000; 1.000000; 1.000000; 1.000000;,
       156; 1.000000; 1.000000; 1.000000; 1.000000;,
       157; 1.000000; 1.000000; 1.000000; 1.000000;,
       158; 1.000000; 1.000000; 1.000000; 1.000000;,
       159; 1.000000; 1.000000; 1.000000; 1.000000;,
       160; 1.000000; 1.000000; 1.000000; 1.000000;,
       161; 1.000000; 1.000000; 1.000000; 1.000000;,
       162; 1.000000; 1.000000; 1.000000; 1.000000;,
       163; 1.000000; 1.000000; 1.000000; 1.000000;,
       164; 1.000000; 1.000000; 1.000000; 1.000000;,
       165; 1.000000; 1.000000; 1.000000; 1.000000;,
       166; 1.000000; 1.000000; 1.000000; 1.000000;,
       167; 1.000000; 1.000000; 1.000000; 1.000000;,
       168; 1.000000; 1.000000; 1.000000; 1.000000;,
       169; 1.000000; 1.000000; 1.000000; 1.000000;,
       170; 1.000000; 1.000000; 1.000000; 1.000000;,
       171; 1.000000; 1.000000; 1.000000; 1.000000;,
       172; 1.000000; 1.000000; 1.000000; 1.000000;,
       173; 1.000000; 1.000000; 1.000000; 1.000000;,
       174; 1.000000; 1.000000; 1.000000; 1.000000;,
       175; 1.000000; 1.000000; 1.000000; 1.000000;,
       176; 1.000000; 1.000000; 1.000000; 1.000000;,
       177; 1.000000; 1.000000; 1.000000; 1.000000;,
       178; 1.000000; 1.000000; 1.000000; 1.000000;,
       179; 1.000000; 1.000000; 1.000000; 1.000000;,
       180; 1.000000; 1.000000; 1.000000; 1.000000;,
       181; 1.000000; 1.000000; 1.000000; 1.000000;,
       182; 1.000000; 1.000000; 1.000000; 1.000000;,
       183; 1.000000; 1.000000; 1.000000; 1.000000;,
       184; 1.000000; 1.000000; 1.000000; 1.000000;,
       185; 1.000000; 1.000000; 1.000000; 1.000000;,
       186; 1.000000; 1.000000; 1.000000; 1.000000;,
       187; 1.000000; 1.000000; 1.000000; 1.000000;,
       188; 1.000000; 1.000000; 1.000000; 1.000000;,
       189; 1.000000; 1.000000; 1.000000; 1.000000;,
       190; 1.000000; 1.000000; 1.000000; 1.000000;,
       191; 1.000000; 1.000000; 1.000000; 1.000000;,
       192; 1.000000; 1.000000; 1.000000; 1.000000;,
       193; 1.000000; 1.000000; 1.000000; 1.000000;,
       194; 1.000000; 1.000000; 1.000000; 1.000000;,
       195; 1.000000; 1.000000; 1.000000; 1.000000;,
       196; 1.000000; 1.000000; 1.000000; 1.000000;,
       197; 1.000000; 1.000000; 1.000000; 1.000000;,
       198; 1.000000; 1.000000; 1.000000; 1.000000;,
       199; 1.000000; 1.000000; 1.000000; 1.000000;;
      }

      MeshMaterialList {
       1;
       256;
       0,
       0,
       0,
       0,
       0,
       0,
       0,
       0,
       0,
       0,
       0,
       0,
       0,
       0,
       0,
       0,
       0,
       0,
       0,
       0,
       0,
       0,
       0,
       0,
       0,
       0,
       0,
       0,
       0,
       0,
       0,
       0,
       0,
       0,
       0,
       0,
       0,
       0,
       0,
       0,
       0,
       0,
       0,
       0,
       0,
       0,
       0,
       0,
       0,
       0,
       0,
       0,
       0,
       0,
       0,
       0,
       0,
       0,
       0,
       0,
       0,
       0,
       0,
       0,
       0,
       0,
       0,
       0,
       0,
       0,
       0,
       0,
       0,
       0,
       0,
       0,
       0,
       0,
       0,
       0,
       0,
       0,
       0,
       0,
       0,
       0,
       0,
       0,
       0,
       0,
       0,
       0,
       0,
       0,
       0,
       0,
       0,
       0,
       0,
       0,
       0,
       0,
       0,
       0,
       0,
       0,
       0,
       0,
       0,
       0,
       0,
       0,
       0,
       0,
       0,
       0,
       0,
       0,
       0,
       0,
       0,
       0,
       0,
       0,
       0,
       0,
       0,
       0,
       0,
       0,
       0,
       0,
       0,
       0,
       0,
       0,
       0,
       0,
       0,
       0,
       0,
       0,
       0,
       0,
       0,
       0,
       0,
       0,
       0,
       0,
       0,
       0,
       0,
       0,
       0,
       0,
       0,
       0,
       0,
       0,
       0,
       0,
       0,
       0,
       0,
       0,
       0,
       0,
       0,
       0,
       0,
       0,
       0,
       0,
       0,
       0,
       0,
       0,
       0,
       0,
       0,
       0,
       0,
       0,
       0,
       0,
       0,
       0,
       0,
       0,
       0,
       0,
       0,
       0,
       0,
       0,
       0,
       0,
       0,
       0,
       0,
       0,
       0,
       0,
       0,
       0,
       0,
       0,
       0,
       0,
       0,
       0,
       0,
       0,
       0,
       0,
       0,
       0,
       0,
       0,
       0,
       0,
       0,
       0,
       0,
       0,
       0,
       0,
       0,
       0,
       0,
       0,
       0,
       0,
       0,
       0,
       0,
       0,
       0,
       0,
       0,
       0,
       0,
       0,
       0,
       0,
       0,
       0,
       0,
       0,
       0,
       0,
       0,
       0,
       0,
       0;

       Material def_surf_mat {
        0.992157; 0.992157; 0.992157; 1.000000;;
        1.000000;
        0.150000; 0.150000; 0.150000;;
        0.000000; 0.000000; 0.000000;;

        TextureFilename {
         "lamb.dds";
        }
       }

      }

      XSkinMeshHeader {
       1;
       1;
       1;
      }

      SkinWeights {
       "Body";
       200;
       0,
       1,
       2,
       3,
       4,
       5,
       6,
       7,
       8,
       9,
       10,
       11,
       12,
       13,
       14,
       15,
       16,
       17,
       18,
       19,
       20,
       21,
       22,
       23,
       24,
       25,
       26,
       27,
       28,
       29,
       30,
       31,
       32,
       33,
       34,
       35,
       36,
       37,
       38,
       39,
       40,
       41,
       42,
       43,
       44,
       45,
       46,
       47,
       48,
       49,
       50,
       51,
       52,
       53,
       54,
       55,
       56,
       57,
       58,
       59,
       60,
       61,
       62,
       63,
       64,
       65,
       66,
       67,
       68,
       69,
       70,
       71,
       72,
       73,
       74,
       75,
       76,
       77,
       78,
       79,
       80,
       81,
       82,
       83,
       84,
       85,
       86,
       87,
       88,
       89,
       90,
       91,
       92,
       93,
       94,
       95,
       96,
       97,
       98,
       99,
       100,
       101,
       102,
       103,
       104,
       105,
       106,
       107,
       108,
       109,
       110,
       111,
       112,
       113,
       114,
       115,
       116,
       117,
       118,
       119,
       120,
       121,
       122,
       123,
       124,
       125,
       126,
       127,
       128,
       129,
       130,
       131,
       132,
       133,
       134,
       135,
       136,
       137,
       138,
       139,
       140,
       141,
       142,
       143,
       144,
       145,
       146,
       147,
       148,
       149,
       150,
       151,
       152,
       153,
       154,
       155,
       156,
       157,
       158,
       159,
       160,
       161,
       162,
       163,
       164,
       165,
       166,
       167,
       168,
       169,
       170,
       171,
       172,
       173,
       174,
       175,
       176,
       177,
       178,
       179,
       180,
       181,
       182,
       183,
       184,
       185,
       186,
       187,
       188,
       189,
       190,
       191,
       192,
       193,
       194,
       195,
       196,
       197,
       198,
       199;
       1.000000,
       1.000000,
       1.000000,
       1.000000,
       1.000000,
       1.000000,
       1.000000,
       1.000000,
       1.000000,
       1.000000,
       1.000000,
       1.000000,
       1.000000,
       1.000000,
       1.000000,
       1.000000,
       1.000000,
       1.000000,
       1.000000,
       1.000000,
       1.000000,
       1.000000,
       1.000000,
       1.000000,
       1.000000,
       1.000000,
       1.000000,
       1.000000,
       1.000000,
       1.000000,
       1.000000,
       1.000000,
       1.000000,
       1.000000,
       1.000000,
       1.000000,
       1.000000,
       1.000000,
       1.000000,
       1.000000,
       1.000000,
       1.000000,
       1.000000,
       1.000000,
       1.000000,
       1.000000,
       1.000000,
       1.000000,
       1.000000,
       1.000000,
       1.000000,
       1.000000,
       1.000000,
       1.000000,
       1.000000,
       1.000000,
       1.000000,
       1.000000,
       1.000000,
       1.000000,
       1.000000,
       1.000000,
       1.000000,
       1.000000,
       1.000000,
       1.000000,
       1.000000,
       1.000000,
       1.000000,
       1.000000,
       1.000000,
       1.000000,
       1.000000,
       1.000000,
       1.000000,
       1.000000,
       1.000000,
       1.000000,
       1.000000,
       1.000000,
       1.000000,
       1.000000,
       1.000000,
       1.000000,
       1.000000,
       1.000000,
       1.000000,
       1.000000,
       1.000000,
       1.000000,
       1.000000,
       1.000000,
       1.000000,
       1.000000,
       1.000000,
       1.000000,
       1.000000,
       1.000000,
       1.000000,
       1.000000,
       1.000000,
       1.000000,
       1.000000,
       1.000000,
       1.000000,
       1.000000,
       1.000000,
       1.000000,
       1.000000,
       1.000000,
       1.000000,
       1.000000,
       1.000000,
       1.000000,
       1.000000,
       1.000000,
       1.000000,
       1.000000,
       1.000000,
       1.000000,
       1.000000,
       1.000000,
       1.000000,
       1.000000,
       1.000000,
       1.000000,
       1.000000,
       1.000000,
       1.000000,
       1.000000,
       1.000000,
       1.000000,
       1.000000,
       1.000000,
       1.000000,
       1.000000,
       1.000000,
       1.000000,
       1.000000,
       1.000000,
       1.000000,
       1.000000,
       1.000000,
       1.000000,
       1.000000,
       1.000000,
       1.000000,
       1.000000,
       1.000000,
       1.000000,
       1.000000,
       1.000000,
       1.000000,
       1.000000,
       1.000000,
       1.000000,
       1.000000,
       1.000000,
       1.000000,
       1.000000,
       1.000000,
       1.000000,
       1.000000,
       1.000000,
       1.000000,
       1.000000,
       1.000000,
       1.000000,
       1.000000,
       1.000000,
       1.000000,
       1.000000,
       1.000000,
       1.000000,
       1.000000,
       1.000000,
       1.000000,
       1.000000,
       1.000000,
       1.000000,
       1.000000,
       1.000000,
       1.000000,
       1.000000,
       1.000000,
       1.000000,
       1.000000,
       1.000000,
       1.000000,
       1.000000,
       1.000000,
       1.000000,
       1.000000,
       1.000000,
       1.000000,
       1.000000,
       1.000000,
       1.000000,
       1.000000,
       1.000000;
          1.000000, -0.000000, 0.000000, 0.000000,
          -0.000000, 1.000000, -0.000000, 0.000000,
          0.000000, -0.000000, 1.000000, 0.000000,
          -0.000000, -0.000000, -0.000000, 1.000000;;
      }


     }
   }

// Start of Animation

AnimationSet Untitled {
}
