xof 0303txt 0032

// DirectX 9.0 file
// Creator: Ultimate Unwrap3D Pro v3.19
// Website: http://www.unwrap3d.com
// Time: Thu Dec 10 21:46:52 2009

// Start of Templates

template VertexDuplicationIndices {
 <b8d65549-d7c9-4995-89cf-53a9a8b031e3>
 DWORD nIndices;
 DWORD nOriginalVertices;
 array DWORD indices[nIndices];
}

template FVFData {
 <b6e70a0e-8ef9-4e83-94ad-ecc8b0c04897>
 DWORD dwFVF;
 DWORD nDWords;
 array DWORD data[nDWords];
}

template Header {
 <3D82AB43-62DA-11cf-AB39-0020AF71E433>
 WORD major;
 WORD minor;
 DWORD flags;
}

template Vector {
 <3D82AB5E-62DA-11cf-AB39-0020AF71E433>
 FLOAT x;
 FLOAT y;
 FLOAT z;
}

template Coords2d {
 <F6F23F44-7686-11cf-8F52-0040333594A3>
 FLOAT u;
 FLOAT v;
}

template Matrix4x4 {
 <F6F23F45-7686-11cf-8F52-0040333594A3>
 array FLOAT matrix[16];
}

template ColorRGBA {
 <35FF44E0-6C7C-11cf-8F52-0040333594A3>
 FLOAT red;
 FLOAT green;
 FLOAT blue;
 FLOAT alpha;
}

template ColorRGB {
 <D3E16E81-7835-11cf-8F52-0040333594A3>
 FLOAT red;
 FLOAT green;
 FLOAT blue;
}

template IndexedColor {
 <1630B820-7842-11cf-8F52-0040333594A3>
 DWORD index;
 ColorRGBA indexColor;
}

template Material {
 <3D82AB4D-62DA-11cf-AB39-0020AF71E433>
 ColorRGBA faceColor;
 FLOAT power;
 ColorRGB specularColor;
 ColorRGB emissiveColor;
 [...]
}

template TextureFilename {
 <A42790E1-7810-11cf-8F52-0040333594A3>
 STRING filename;
}

template MeshFace {
 <3D82AB5F-62DA-11cf-AB39-0020AF71E433>
 DWORD nFaceVertexIndices;
 array DWORD faceVertexIndices[nFaceVertexIndices];
}

template MeshTextureCoords {
 <F6F23F40-7686-11cf-8F52-0040333594A3>
 DWORD nTextureCoords;
 array Coords2d textureCoords[nTextureCoords];
}

template MeshMaterialList {
 <F6F23F42-7686-11cf-8F52-0040333594A3>
 DWORD nMaterials;
 DWORD nFaceIndexes;
 array DWORD faceIndexes[nFaceIndexes];
 [Material]
}

template MeshNormals {
 <F6F23F43-7686-11cf-8F52-0040333594A3>
 DWORD nNormals;
 array Vector normals[nNormals];
 DWORD nFaceNormals;
 array MeshFace faceNormals[nFaceNormals];
}

template MeshVertexColors {
 <1630B821-7842-11cf-8F52-0040333594A3>
 DWORD nVertexColors;
 array IndexedColor vertexColors[nVertexColors];
}

template Mesh {
 <3D82AB44-62DA-11cf-AB39-0020AF71E433>
 DWORD nVertices;
 array Vector vertices[nVertices];
 DWORD nFaces;
 array MeshFace faces[nFaces];
 [...]
}

template FrameTransformMatrix {
 <F6F23F41-7686-11cf-8F52-0040333594A3>
 Matrix4x4 frameMatrix;
}

template Frame {
 <3D82AB46-62DA-11cf-AB39-0020AF71E433>
 [...]
}

template FloatKeys {
 <10DD46A9-775B-11cf-8F52-0040333594A3>
 DWORD nValues;
 array FLOAT values[nValues];
}

template TimedFloatKeys {
 <F406B180-7B3B-11cf-8F52-0040333594A3>
 DWORD time;
 FloatKeys tfkeys;
}

template AnimationKey {
 <10DD46A8-775B-11cf-8F52-0040333594A3>
 DWORD keyType;
 DWORD nKeys;
 array TimedFloatKeys keys[nKeys];
}

template AnimationOptions {
 <E2BF56C0-840F-11cf-8F52-0040333594A3>
 DWORD openclosed;
 DWORD positionquality;
}

template Animation {
 <3D82AB4F-62DA-11cf-AB39-0020AF71E433>
 [...]
}

template AnimationSet {
 <3D82AB50-62DA-11cf-AB39-0020AF71E433>
 [Animation]
}

template XSkinMeshHeader {
 <3CF169CE-FF7C-44ab-93C0-F78F62D172E2>
 WORD nMaxSkinWeightsPerVertex;
 WORD nMaxSkinWeightsPerFace;
 WORD nBones;
}

template SkinWeights {
 <6F0D123B-BAD2-4167-A0D0-80224F25FABB>
 STRING transformNodeName;
 DWORD nWeights;
 array DWORD vertexIndices[nWeights];
 array FLOAT weights[nWeights];
 Matrix4x4 matrixOffset;
}

template AnimTicksPerSecond {
 <9E415A43-7BA6-4a73-8743-B73D47E88476>
 DWORD AnimTicksPerSecond;
}

AnimTicksPerSecond {
 30;
}

// Start of Frames

   Frame Body {
      FrameTransformMatrix {
       1.000000, 0.000000, 0.000000, 0.000000,
       0.000000, 1.000000, 0.000000, 0.000000,
       0.000000, 0.000000, 1.000000, 0.000000,
       0.000000, 0.000000, 0.000000, 1.000000;;
      }

   }
   Frame def_surf_mat {
      FrameTransformMatrix {
       1.000000, 0.000000, 0.000000, 0.000000,
       0.000000, 1.000000, 0.000000, 0.000000,
       0.000000, 0.000000, 1.000000, 0.000000,
       0.000000, 0.000000, 0.000000, 1.000000;;
      }

   }

   Frame Body0 {
      FrameTransformMatrix {
       1.000000, 0.000000, 0.000000, 0.000000,
       0.000000, 1.000000, 0.000000, 0.000000,
       0.000000, 0.000000, 1.000000, 0.000000,
       0.000000, 0.000000, 0.000000, 1.000000;;
      }

      Mesh skinnedMesh {
       154;
       -5.181995; 0.077900; 0.406197;,
       -5.230975; 0.015697; 0.138199;,
       -3.318845; 0.120598; 0.041702;,
       -3.364685; 0.062199; -0.209900;,
       -5.146305; 0.252197; 0.621803;,
       -3.285245; 0.284100; 0.243896;,
       -5.130795; 0.503899; 0.742203;,
       -3.270685; 0.520298; 0.356903;,
       -5.138425; 0.783298; 0.743698;,
       -3.277965; 0.782497; 0.358299;,
       -5.167955; 1.035099; 0.625801;,
       -3.305555; 1.018700; 0.247704;,
       -5.213405; 1.209297; 0.412102;,
       -3.348205; 1.182198; 0.047096;,
       -5.265635; 1.271500; 0.144600;,
       -3.397335; 1.240498; -0.203796;,
       -5.314605; 1.209297; -0.123299;,
       -3.443165; 1.182198; -0.455200;,
       -5.350305; 1.035099; -0.338997;,
       -3.476655; 1.018700; -0.657600;,
       -5.365815; 0.783298; -0.459396;,
       -3.491335; 0.782497; -0.770599;,
       -5.358185; 0.503899; -0.460800;,
       -3.484055; 0.520298; -0.771896;,
       -5.328655; 0.252197; -0.343002;,
       -3.456345; 0.284100; -0.661301;,
       -5.283195; 0.077900; -0.129204;,
       -3.413805; 0.120598; -0.460701;,
       5.862265; 0.465099; 0.069496;,
       5.890075; 0.490200; -0.036003;,
       5.833325; 0.490200; 0.174698;,
       5.910555; 0.559898; -0.121002;,
       5.808265; 0.559898; 0.258698;,
       5.920905; 0.660797; -0.168404;,
       5.793395; 0.660797; 0.304901;,
       5.917525; 0.772697; -0.169304;,
       5.790025; 0.772697; 0.304001;,
       5.902095; 0.873299; -0.123299;,
       5.799805; 0.873299; 0.256401;,
       5.877666; 0.943199; -0.039398;,
       5.820915; 0.943199; 0.171303;,
       5.848735; 0.967999; 0.065804;,
       -5.814825; 0.362900; 0.111298;,
       -5.789325; 0.332397; 0.242302;,
       -5.837194; 0.448200; 0.006599;,
       -5.765255; 0.362900; 0.373596;,
       -5.851575; 0.571499; -0.051102;,
       -5.747865; 0.448200; 0.479202;,
       -5.855365; 0.708397; -0.050400;,
       -5.740175; 0.571499; 0.538200;,
       -5.847835; 0.831699; 0.008598;,
       -5.743965; 0.708397; 0.538902;,
       -5.830285; 0.917000; 0.114197;,
       -5.758505; 0.831699; 0.481201;,
       -5.806375; 0.947498; 0.245499;,
       -5.780715; 0.917000; 0.376503;,
       -5.651515; 0.241497; -0.293602;,
       -5.605095; 0.063499; -0.075203;,
       -5.681525; 0.498699; -0.414101;,
       -5.689545; 0.784199; -0.412598;,
       -5.673685; 1.041397; -0.289497;,
       -5.637035; 1.219498; -0.069199;,
       -5.587085; 1.282997; 0.204597;,
       -5.533635; 1.219498; 0.477798;,
       -5.487355; 1.041397; 0.696297;,
       -5.457215; 0.784199; 0.816597;,
       -5.449195; 0.498699; 0.815102;,
       -5.465195; 0.241497; 0.692200;,
       -5.501705; 0.063499; 0.471901;,
       -5.551655; 0.000000; 0.197998;,
       -5.870185; 0.351498; -0.110497;,
       -5.836795; 0.223099; 0.046997;,
       -5.891875; 0.536999; -0.197304;,
       -5.897565; 0.742798; -0.196198;,
       -5.886225; 0.928200; -0.107498;,
       -5.859825; 1.056499; 0.051300;,
       -5.823874; 1.102398; 0.248703;,
       -5.785285; 1.056499; 0.445702;,
       -5.751895; 0.928200; 0.603203;,
       -5.730065; 0.742798; 0.690002;,
       -5.724375; 0.536999; 0.688896;,
       -5.735855; 0.351498; 0.600197;,
       -5.762245; 0.223099; 0.441399;,
       -5.798215; 0.177399; 0.244003;,
       -5.901065; 0.431499; -0.002296;,
       -5.877015; 0.338799; 0.111397;,
       -5.916825; 0.565300; -0.064903;,
       -5.920905; 0.713799; -0.064201;,
       -5.912724; 0.847599; -0.000099;,
       -5.893635; 0.940300; 0.114502;,
       -5.867615; 0.973297; 0.256897;,
       -5.839845; 0.940300; 0.399101;,
       -5.815784; 0.847599; 0.512802;,
       -5.800025; 0.713799; 0.575401;,
       -5.795945; 0.565300; 0.574600;,
       -5.804125; 0.431499; 0.510597;,
       -5.823215; 0.338799; 0.395996;,
       -5.849245; 0.305798; 0.253502;,
       -0.905311; 0.560600; 0.172302;,
       -0.900575; 0.357300; 0.074402;,
       -0.911624; 0.786400; 0.172302;,
       -0.918407; 0.989700; 0.074501;,
       -0.924055; 1.130398; -0.101997;,
       -0.927600; 1.180698; -0.321999;,
       -0.928304; 1.130398; -0.542099;,
       -0.926062; 0.989700; -0.718597;,
       -0.921168; 0.786400; -0.816597;,
       -0.914856; 0.560600; -0.816597;,
       -0.908230; 0.357300; -0.718697;,
       -0.902582; 0.216499; -0.542297;,
       -0.899038; 0.166298; -0.322304;,
       -0.898334; 0.216499; -0.102097;,
       1.667785; 0.594597; 0.078796;,
       1.671865; 0.422199; -0.004303;,
       1.662505; 0.786098; 0.078796;,
       1.656825; 0.958599; -0.004204;,
       1.652055; 1.077999; -0.153900;,
       1.648895; 1.120598; -0.340599;,
       1.648455; 1.077999; -0.527298;,
       1.650335; 0.958599; -0.677002;,
       1.654415; 0.786098; -0.760101;,
       1.659685; 0.594597; -0.760201;,
       1.665365; 0.422199; -0.677101;,
       1.670135; 0.302700; -0.527496;,
       1.673105; 0.260098; -0.340797;,
       1.673735; 0.302700; -0.154099;,
       3.394375; 0.623798; 0.026802;,
       3.398055; 0.467499; -0.048599;,
       3.389645; 0.797199; 0.026802;,
       3.384505; 0.953400; -0.048500;,
       3.380055; 1.061600; -0.183998;,
       3.377155; 1.100197; -0.353104;,
       3.376785; 1.061600; -0.522102;,
       3.378625; 0.953400; -0.657799;,
       3.382315; 0.797199; -0.733101;,
       3.387045; 0.623798; -0.733101;,
       3.392175; 0.467499; -0.657898;,
       3.396635; 0.359398; -0.522202;,
       3.399215; 0.320797; -0.353302;,
       3.399905; 0.359398; -0.184196;,
       4.950385; 0.638199; 0.172897;,
       4.971845; 0.498699; 0.109299;,
       4.946335; 0.792999; 0.171799;,
       4.959715; 0.932297; 0.106003;,
       4.988955; 1.028900; -0.011497;,
       5.027325; 1.063198; -0.157501;,
       5.067435; 1.028900; -0.302902;,
       5.101185; 0.932297; -0.419197;,
       5.122695; 0.792999; -0.482903;,
       5.126745; 0.638199; -0.481804;,
       5.113315; 0.498699; -0.415901;,
       5.084065; 0.402298; -0.298302;,
       5.046206; 0.367699; -0.152397;,
       5.005585; 0.402298; -0.007004;;
       304;
       3;0, 1, 2;,
       3;1, 3, 2;,
       3;4, 0, 5;,
       3;0, 2, 5;,
       3;6, 4, 7;,
       3;4, 5, 7;,
       3;8, 6, 9;,
       3;6, 7, 9;,
       3;10, 8, 11;,
       3;8, 9, 11;,
       3;12, 10, 13;,
       3;10, 11, 13;,
       3;14, 12, 15;,
       3;12, 13, 15;,
       3;16, 14, 17;,
       3;14, 15, 17;,
       3;18, 16, 19;,
       3;16, 17, 19;,
       3;20, 18, 21;,
       3;18, 19, 21;,
       3;22, 20, 23;,
       3;20, 21, 23;,
       3;24, 22, 25;,
       3;22, 23, 25;,
       3;26, 24, 27;,
       3;24, 25, 27;,
       3;1, 26, 3;,
       3;26, 27, 3;,
       3;28, 29, 30;,
       3;29, 31, 30;,
       3;30, 31, 32;,
       3;31, 33, 32;,
       3;32, 33, 34;,
       3;33, 35, 34;,
       3;34, 35, 36;,
       3;35, 37, 36;,
       3;36, 37, 38;,
       3;37, 39, 38;,
       3;38, 39, 40;,
       3;39, 41, 40;,
       3;42, 43, 44;,
       3;43, 45, 44;,
       3;44, 45, 46;,
       3;45, 47, 46;,
       3;46, 47, 48;,
       3;47, 49, 48;,
       3;48, 49, 50;,
       3;49, 51, 50;,
       3;50, 51, 52;,
       3;51, 53, 52;,
       3;52, 53, 54;,
       3;53, 55, 54;,
       3;24, 26, 56;,
       3;26, 57, 56;,
       3;22, 24, 58;,
       3;24, 56, 58;,
       3;20, 22, 59;,
       3;22, 58, 59;,
       3;18, 20, 60;,
       3;20, 59, 60;,
       3;16, 18, 61;,
       3;18, 60, 61;,
       3;14, 16, 62;,
       3;16, 61, 62;,
       3;12, 14, 63;,
       3;14, 62, 63;,
       3;10, 12, 64;,
       3;12, 63, 64;,
       3;8, 10, 65;,
       3;10, 64, 65;,
       3;6, 8, 66;,
       3;8, 65, 66;,
       3;4, 6, 67;,
       3;6, 66, 67;,
       3;0, 4, 68;,
       3;4, 67, 68;,
       3;1, 0, 69;,
       3;0, 68, 69;,
       3;26, 1, 57;,
       3;1, 69, 57;,
       3;56, 57, 70;,
       3;57, 71, 70;,
       3;58, 56, 72;,
       3;56, 70, 72;,
       3;59, 58, 73;,
       3;58, 72, 73;,
       3;60, 59, 74;,
       3;59, 73, 74;,
       3;61, 60, 75;,
       3;60, 74, 75;,
       3;62, 61, 76;,
       3;61, 75, 76;,
       3;63, 62, 77;,
       3;62, 76, 77;,
       3;64, 63, 78;,
       3;63, 77, 78;,
       3;65, 64, 79;,
       3;64, 78, 79;,
       3;66, 65, 80;,
       3;65, 79, 80;,
       3;67, 66, 81;,
       3;66, 80, 81;,
       3;68, 67, 82;,
       3;67, 81, 82;,
       3;69, 68, 83;,
       3;68, 82, 83;,
       3;57, 69, 71;,
       3;69, 83, 71;,
       3;70, 71, 84;,
       3;71, 85, 84;,
       3;72, 70, 86;,
       3;70, 84, 86;,
       3;73, 72, 87;,
       3;72, 86, 87;,
       3;74, 73, 88;,
       3;73, 87, 88;,
       3;75, 74, 89;,
       3;74, 88, 89;,
       3;76, 75, 90;,
       3;75, 89, 90;,
       3;77, 76, 91;,
       3;76, 90, 91;,
       3;78, 77, 92;,
       3;77, 91, 92;,
       3;79, 78, 93;,
       3;78, 92, 93;,
       3;80, 79, 94;,
       3;79, 93, 94;,
       3;81, 80, 95;,
       3;80, 94, 95;,
       3;82, 81, 96;,
       3;81, 95, 96;,
       3;83, 82, 97;,
       3;82, 96, 97;,
       3;71, 83, 85;,
       3;83, 97, 85;,
       3;84, 85, 44;,
       3;85, 42, 44;,
       3;86, 84, 46;,
       3;84, 44, 46;,
       3;87, 86, 48;,
       3;86, 46, 48;,
       3;88, 87, 50;,
       3;87, 48, 50;,
       3;89, 88, 52;,
       3;88, 50, 52;,
       3;90, 89, 54;,
       3;89, 52, 54;,
       3;91, 90, 55;,
       3;90, 54, 55;,
       3;92, 91, 53;,
       3;91, 55, 53;,
       3;93, 92, 51;,
       3;92, 53, 51;,
       3;94, 93, 49;,
       3;93, 51, 49;,
       3;95, 94, 47;,
       3;94, 49, 47;,
       3;96, 95, 45;,
       3;95, 47, 45;,
       3;97, 96, 43;,
       3;96, 45, 43;,
       3;85, 97, 42;,
       3;97, 43, 42;,
       3;7, 5, 98;,
       3;5, 99, 98;,
       3;9, 7, 100;,
       3;7, 98, 100;,
       3;11, 9, 101;,
       3;9, 100, 101;,
       3;13, 11, 102;,
       3;11, 101, 102;,
       3;15, 13, 103;,
       3;13, 102, 103;,
       3;17, 15, 104;,
       3;15, 103, 104;,
       3;19, 17, 105;,
       3;17, 104, 105;,
       3;21, 19, 106;,
       3;19, 105, 106;,
       3;23, 21, 107;,
       3;21, 106, 107;,
       3;25, 23, 108;,
       3;23, 107, 108;,
       3;27, 25, 109;,
       3;25, 108, 109;,
       3;3, 27, 110;,
       3;27, 109, 110;,
       3;2, 3, 111;,
       3;3, 110, 111;,
       3;5, 2, 99;,
       3;2, 111, 99;,
       3;98, 99, 112;,
       3;99, 113, 112;,
       3;100, 98, 114;,
       3;98, 112, 114;,
       3;101, 100, 115;,
       3;100, 114, 115;,
       3;102, 101, 116;,
       3;101, 115, 116;,
       3;103, 102, 117;,
       3;102, 116, 117;,
       3;104, 103, 118;,
       3;103, 117, 118;,
       3;105, 104, 119;,
       3;104, 118, 119;,
       3;106, 105, 120;,
       3;105, 119, 120;,
       3;107, 106, 121;,
       3;106, 120, 121;,
       3;108, 107, 122;,
       3;107, 121, 122;,
       3;109, 108, 123;,
       3;108, 122, 123;,
       3;110, 109, 124;,
       3;109, 123, 124;,
       3;111, 110, 125;,
       3;110, 124, 125;,
       3;99, 111, 113;,
       3;111, 125, 113;,
       3;112, 113, 126;,
       3;113, 127, 126;,
       3;114, 112, 128;,
       3;112, 126, 128;,
       3;115, 114, 129;,
       3;114, 128, 129;,
       3;116, 115, 130;,
       3;115, 129, 130;,
       3;117, 116, 131;,
       3;116, 130, 131;,
       3;118, 117, 132;,
       3;117, 131, 132;,
       3;119, 118, 133;,
       3;118, 132, 133;,
       3;120, 119, 134;,
       3;119, 133, 134;,
       3;121, 120, 135;,
       3;120, 134, 135;,
       3;122, 121, 136;,
       3;121, 135, 136;,
       3;123, 122, 137;,
       3;122, 136, 137;,
       3;124, 123, 138;,
       3;123, 137, 138;,
       3;125, 124, 139;,
       3;124, 138, 139;,
       3;113, 125, 127;,
       3;125, 139, 127;,
       3;126, 127, 140;,
       3;127, 141, 140;,
       3;128, 126, 142;,
       3;126, 140, 142;,
       3;129, 128, 143;,
       3;128, 142, 143;,
       3;130, 129, 144;,
       3;129, 143, 144;,
       3;131, 130, 145;,
       3;130, 144, 145;,
       3;132, 131, 146;,
       3;131, 145, 146;,
       3;133, 132, 147;,
       3;132, 146, 147;,
       3;134, 133, 148;,
       3;133, 147, 148;,
       3;135, 134, 149;,
       3;134, 148, 149;,
       3;136, 135, 150;,
       3;135, 149, 150;,
       3;137, 136, 151;,
       3;136, 150, 151;,
       3;138, 137, 152;,
       3;137, 151, 152;,
       3;139, 138, 153;,
       3;138, 152, 153;,
       3;127, 139, 141;,
       3;139, 153, 141;,
       3;140, 141, 34;,
       3;141, 32, 34;,
       3;142, 140, 36;,
       3;140, 34, 36;,
       3;143, 142, 38;,
       3;142, 36, 38;,
       3;144, 143, 40;,
       3;143, 38, 40;,
       3;145, 144, 41;,
       3;144, 40, 41;,
       3;146, 145, 39;,
       3;145, 41, 39;,
       3;147, 146, 37;,
       3;146, 39, 37;,
       3;148, 147, 35;,
       3;147, 37, 35;,
       3;149, 148, 33;,
       3;148, 35, 33;,
       3;150, 149, 31;,
       3;149, 33, 31;,
       3;151, 150, 29;,
       3;150, 31, 29;,
       3;152, 151, 28;,
       3;151, 29, 28;,
       3;153, 152, 30;,
       3;152, 28, 30;,
       3;141, 153, 32;,
       3;153, 30, 32;;

      MeshNormals {
       154;
       0.114827; -0.900201; 0.420064;,
       0.035685; -0.999341; -0.006691;,
       0.077503; -0.900786; 0.427291;,
       0.027832; -0.999603; -0.004440;,
       0.177310; -0.622549; 0.762230;,
       0.116939; -0.623453; 0.773066;,
       0.210514; -0.221615; 0.952140;,
       0.138615; -0.222878; 0.964941;,
       0.207995; 0.223218; 0.952319;,
       0.138273; 0.221964; 0.965201;,
       0.170513; 0.623769; 0.762783;,
       0.115788; 0.623275; 0.773383;,
       0.105327; 0.900827; 0.421208;,
       0.075457; 0.900817; 0.427592;,
       0.025279; 0.999669; -0.004873;,
       0.025103; 0.999678; -0.003633;,
       -0.053657; 0.900801; -0.430904;,
       -0.025243; 0.900540; -0.434039;,
       -0.116083; 0.623689; -0.773005;,
       -0.065488; 0.623685; -0.778928;,
       -0.149362; 0.223056; -0.963295;,
       -0.087494; 0.223610; -0.970744;,
       -0.146961; -0.221631; -0.963993;,
       -0.086710; -0.220584; -0.971506;,
       -0.109549; -0.622532; -0.774889;,
       -0.063407; -0.621486; -0.780855;,
       -0.044375; -0.900136; -0.433342;,
       -0.022460; -0.899778; -0.435769;,
       0.423092; -0.905144; 0.041321;,
       0.713181; -0.666180; -0.218121;,
       0.672160; -0.600008; 0.433810;,
       0.875480; -0.350443; -0.332752;,
       0.605387; -0.433309; 0.667645;,
       0.897902; -0.077735; -0.433277;,
       0.563744; -0.174160; 0.807379;,
       0.886516; 0.216500; -0.408922;,
       0.554638; 0.119674; 0.823441;,
       0.844521; 0.464160; -0.267094;,
       0.579806; 0.387832; 0.716527;,
       0.780488; 0.624179; -0.035211;,
       0.495439; 0.684532; 0.534749;,
       0.378911; 0.909194; 0.172607;,
       -0.567281; 0.719635; 0.400398;,
       -0.764824; 0.637451; 0.093279;,
       -0.754946; 0.351644; 0.553537;,
       -0.882727; 0.455536; -0.115238;,
       -0.728479; 0.138723; 0.670875;,
       -0.912576; 0.286493; -0.291766;,
       -0.721264; -0.103900; 0.684824;,
       -0.924146; 0.057846; -0.377634;,
       -0.733566; -0.328509; 0.594948;,
       -0.915625; -0.184899; -0.356992;,
       -0.763548; -0.490737; 0.419729;,
       -0.888863; -0.392606; -0.236186;,
       -0.725407; -0.662498; 0.186764;,
       -0.653667; -0.738853; -0.163757;,
       -0.416221; -0.608558; -0.675586;,
       -0.352032; -0.869268; -0.347054;,
       -0.454815; -0.227968; -0.860915;,
       -0.460145; 0.198038; -0.865475;,
       -0.430862; 0.585031; -0.687093;,
       -0.372568; 0.855059; -0.360648;,
       -0.296902; 0.953651; 0.048978;,
       -0.219289; 0.860826; 0.459228;,
       -0.154936; 0.595607; 0.788193;,
       -0.116907; 0.212006; 0.970251;,
       -0.112444; -0.213034; 0.970553;,
       -0.142159; -0.596065; 0.790251;,
       -0.200135; -0.862312; 0.465150;,
       -0.275059; -0.959559; 0.059909;,
       -0.860351; -0.409637; -0.303306;,
       -0.817685; -0.568059; -0.093276;,
       -0.888023; -0.173386; -0.425854;,
       -0.895289; 0.094695; -0.435305;,
       -0.880266; 0.342385; -0.328489;,
       -0.845691; 0.518637; -0.125788;,
       -0.798577; 0.587155; 0.132376;,
       -0.748076; 0.534230; 0.393675;,
       -0.705046; 0.370169; 0.604884;,
       -0.677697; 0.129547; 0.723839;,
       -0.671530; -0.138715; 0.727877;,
       -0.687601; -0.381242; 0.617948;,
       -0.722001; -0.552571; 0.416389;,
       -0.768222; -0.619062; 0.163084;,
       -0.842940; 0.165282; 0.511990;,
       -0.866910; 0.299153; 0.398716;,
       -0.831708; -0.004505; 0.555195;,
       -0.835106; -0.175185; 0.521448;,
       -0.851530; -0.313360; 0.420359;,
       -0.878428; -0.392770; 0.272205;,
       -0.909736; -0.401718; 0.104896;,
       -0.940185; -0.337033; -0.049604;,
       -0.963792; -0.211176; -0.162817;,
       -0.976155; -0.046514; -0.212031;,
       -0.974401; 0.125897; -0.186261;,
       -0.958552; 0.270967; -0.088069;,
       -0.931277; 0.358664; 0.063894;,
       -0.898541; 0.368645; 0.238169;,
       0.058719; -0.221255; 0.973447;,
       0.056219; -0.622179; 0.780854;,
       0.056055; 0.222772; 0.973258;,
       0.048678; 0.623097; 0.780629;,
       0.037813; 0.900474; 0.433263;,
       0.025321; 0.999679; -0.000604;,
       0.013631; 0.900477; -0.434690;,
       0.005277; 0.623022; -0.782186;,
       0.002108; 0.222597; -0.974908;,
       0.004892; -0.221622; -0.975120;,
       0.013058; -0.621609; -0.783219;,
       0.024796; -0.899561; -0.436090;,
       0.037597; -0.999291; -0.002054;,
       0.048789; -0.900217; 0.432700;,
       0.035533; -0.221661; 0.974476;,
       0.037857; -0.622710; 0.781537;,
       0.031478; 0.223246; 0.974254;,
       0.026495; 0.623603; 0.781292;,
       0.021495; 0.900977; 0.433335;,
       0.017557; 0.999846; -0.000156;,
       0.015419; 0.900862; -0.433832;,
       0.015494; 0.623687; -0.781521;,
       0.017794; 0.223174; -0.974616;,
       0.021848; -0.221757; -0.974857;,
       0.026852; -0.622652; -0.782038;,
       0.031855; -0.900080; -0.434559;,
       0.035794; -0.999359; -0.000324;,
       0.037944; -0.900279; 0.433656;,
       -0.028685; -0.222451; 0.974522;,
       -0.017422; -0.622590; 0.782354;,
       -0.029647; 0.222010; 0.974594;,
       -0.020096; 0.622392; 0.782447;,
       -0.001791; 0.900502; 0.434848;,
       0.021687; 0.999764; 0.000865;,
       0.045770; 0.900323; -0.432809;,
       0.065680; 0.622966; -0.779487;,
       0.077547; 0.223146; -0.971696;,
       0.079043; -0.220501; -0.972179;,
       0.069631; -0.621692; -0.780161;,
       0.051051; -0.899795; -0.433316;,
       0.026876; -0.999638; 0.001181;,
       0.002420; -0.900464; 0.434923;,
       -0.118662; -0.218064; 0.968694;,
       -0.083814; -0.618088; 0.781628;,
       -0.116589; 0.223140; 0.967789;,
       -0.078553; 0.620444; 0.780307;,
       -0.011939; 0.897068; 0.441732;,
       0.070153; 0.997373; 0.018061;,
       0.152158; 0.900184; -0.408064;,
       0.217711; 0.623862; -0.750599;,
       0.253741; 0.223513; -0.941094;,
       0.252778; -0.221337; -0.941867;,
       0.214767; -0.622511; -0.752566;,
       0.147337; -0.899608; -0.411092;,
       0.063821; -0.997834; 0.015963;,
       -0.018658; -0.896997; 0.441643;;
       304;
       3;0, 1, 2;,
       3;1, 3, 2;,
       3;4, 0, 5;,
       3;0, 2, 5;,
       3;6, 4, 7;,
       3;4, 5, 7;,
       3;8, 6, 9;,
       3;6, 7, 9;,
       3;10, 8, 11;,
       3;8, 9, 11;,
       3;12, 10, 13;,
       3;10, 11, 13;,
       3;14, 12, 15;,
       3;12, 13, 15;,
       3;16, 14, 17;,
       3;14, 15, 17;,
       3;18, 16, 19;,
       3;16, 17, 19;,
       3;20, 18, 21;,
       3;18, 19, 21;,
       3;22, 20, 23;,
       3;20, 21, 23;,
       3;24, 22, 25;,
       3;22, 23, 25;,
       3;26, 24, 27;,
       3;24, 25, 27;,
       3;1, 26, 3;,
       3;26, 27, 3;,
       3;28, 29, 30;,
       3;29, 31, 30;,
       3;30, 31, 32;,
       3;31, 33, 32;,
       3;32, 33, 34;,
       3;33, 35, 34;,
       3;34, 35, 36;,
       3;35, 37, 36;,
       3;36, 37, 38;,
       3;37, 39, 38;,
       3;38, 39, 40;,
       3;39, 41, 40;,
       3;42, 43, 44;,
       3;43, 45, 44;,
       3;44, 45, 46;,
       3;45, 47, 46;,
       3;46, 47, 48;,
       3;47, 49, 48;,
       3;48, 49, 50;,
       3;49, 51, 50;,
       3;50, 51, 52;,
       3;51, 53, 52;,
       3;52, 53, 54;,
       3;53, 55, 54;,
       3;24, 26, 56;,
       3;26, 57, 56;,
       3;22, 24, 58;,
       3;24, 56, 58;,
       3;20, 22, 59;,
       3;22, 58, 59;,
       3;18, 20, 60;,
       3;20, 59, 60;,
       3;16, 18, 61;,
       3;18, 60, 61;,
       3;14, 16, 62;,
       3;16, 61, 62;,
       3;12, 14, 63;,
       3;14, 62, 63;,
       3;10, 12, 64;,
       3;12, 63, 64;,
       3;8, 10, 65;,
       3;10, 64, 65;,
       3;6, 8, 66;,
       3;8, 65, 66;,
       3;4, 6, 67;,
       3;6, 66, 67;,
       3;0, 4, 68;,
       3;4, 67, 68;,
       3;1, 0, 69;,
       3;0, 68, 69;,
       3;26, 1, 57;,
       3;1, 69, 57;,
       3;56, 57, 70;,
       3;57, 71, 70;,
       3;58, 56, 72;,
       3;56, 70, 72;,
       3;59, 58, 73;,
       3;58, 72, 73;,
       3;60, 59, 74;,
       3;59, 73, 74;,
       3;61, 60, 75;,
       3;60, 74, 75;,
       3;62, 61, 76;,
       3;61, 75, 76;,
       3;63, 62, 77;,
       3;62, 76, 77;,
       3;64, 63, 78;,
       3;63, 77, 78;,
       3;65, 64, 79;,
       3;64, 78, 79;,
       3;66, 65, 80;,
       3;65, 79, 80;,
       3;67, 66, 81;,
       3;66, 80, 81;,
       3;68, 67, 82;,
       3;67, 81, 82;,
       3;69, 68, 83;,
       3;68, 82, 83;,
       3;57, 69, 71;,
       3;69, 83, 71;,
       3;70, 71, 84;,
       3;71, 85, 84;,
       3;72, 70, 86;,
       3;70, 84, 86;,
       3;73, 72, 87;,
       3;72, 86, 87;,
       3;74, 73, 88;,
       3;73, 87, 88;,
       3;75, 74, 89;,
       3;74, 88, 89;,
       3;76, 75, 90;,
       3;75, 89, 90;,
       3;77, 76, 91;,
       3;76, 90, 91;,
       3;78, 77, 92;,
       3;77, 91, 92;,
       3;79, 78, 93;,
       3;78, 92, 93;,
       3;80, 79, 94;,
       3;79, 93, 94;,
       3;81, 80, 95;,
       3;80, 94, 95;,
       3;82, 81, 96;,
       3;81, 95, 96;,
       3;83, 82, 97;,
       3;82, 96, 97;,
       3;71, 83, 85;,
       3;83, 97, 85;,
       3;84, 85, 44;,
       3;85, 42, 44;,
       3;86, 84, 46;,
       3;84, 44, 46;,
       3;87, 86, 48;,
       3;86, 46, 48;,
       3;88, 87, 50;,
       3;87, 48, 50;,
       3;89, 88, 52;,
       3;88, 50, 52;,
       3;90, 89, 54;,
       3;89, 52, 54;,
       3;91, 90, 55;,
       3;90, 54, 55;,
       3;92, 91, 53;,
       3;91, 55, 53;,
       3;93, 92, 51;,
       3;92, 53, 51;,
       3;94, 93, 49;,
       3;93, 51, 49;,
       3;95, 94, 47;,
       3;94, 49, 47;,
       3;96, 95, 45;,
       3;95, 47, 45;,
       3;97, 96, 43;,
       3;96, 45, 43;,
       3;85, 97, 42;,
       3;97, 43, 42;,
       3;7, 5, 98;,
       3;5, 99, 98;,
       3;9, 7, 100;,
       3;7, 98, 100;,
       3;11, 9, 101;,
       3;9, 100, 101;,
       3;13, 11, 102;,
       3;11, 101, 102;,
       3;15, 13, 103;,
       3;13, 102, 103;,
       3;17, 15, 104;,
       3;15, 103, 104;,
       3;19, 17, 105;,
       3;17, 104, 105;,
       3;21, 19, 106;,
       3;19, 105, 106;,
       3;23, 21, 107;,
       3;21, 106, 107;,
       3;25, 23, 108;,
       3;23, 107, 108;,
       3;27, 25, 109;,
       3;25, 108, 109;,
       3;3, 27, 110;,
       3;27, 109, 110;,
       3;2, 3, 111;,
       3;3, 110, 111;,
       3;5, 2, 99;,
       3;2, 111, 99;,
       3;98, 99, 112;,
       3;99, 113, 112;,
       3;100, 98, 114;,
       3;98, 112, 114;,
       3;101, 100, 115;,
       3;100, 114, 115;,
       3;102, 101, 116;,
       3;101, 115, 116;,
       3;103, 102, 117;,
       3;102, 116, 117;,
       3;104, 103, 118;,
       3;103, 117, 118;,
       3;105, 104, 119;,
       3;104, 118, 119;,
       3;106, 105, 120;,
       3;105, 119, 120;,
       3;107, 106, 121;,
       3;106, 120, 121;,
       3;108, 107, 122;,
       3;107, 121, 122;,
       3;109, 108, 123;,
       3;108, 122, 123;,
       3;110, 109, 124;,
       3;109, 123, 124;,
       3;111, 110, 125;,
       3;110, 124, 125;,
       3;99, 111, 113;,
       3;111, 125, 113;,
       3;112, 113, 126;,
       3;113, 127, 126;,
       3;114, 112, 128;,
       3;112, 126, 128;,
       3;115, 114, 129;,
       3;114, 128, 129;,
       3;116, 115, 130;,
       3;115, 129, 130;,
       3;117, 116, 131;,
       3;116, 130, 131;,
       3;118, 117, 132;,
       3;117, 131, 132;,
       3;119, 118, 133;,
       3;118, 132, 133;,
       3;120, 119, 134;,
       3;119, 133, 134;,
       3;121, 120, 135;,
       3;120, 134, 135;,
       3;122, 121, 136;,
       3;121, 135, 136;,
       3;123, 122, 137;,
       3;122, 136, 137;,
       3;124, 123, 138;,
       3;123, 137, 138;,
       3;125, 124, 139;,
       3;124, 138, 139;,
       3;113, 125, 127;,
       3;125, 139, 127;,
       3;126, 127, 140;,
       3;127, 141, 140;,
       3;128, 126, 142;,
       3;126, 140, 142;,
       3;129, 128, 143;,
       3;128, 142, 143;,
       3;130, 129, 144;,
       3;129, 143, 144;,
       3;131, 130, 145;,
       3;130, 144, 145;,
       3;132, 131, 146;,
       3;131, 145, 146;,
       3;133, 132, 147;,
       3;132, 146, 147;,
       3;134, 133, 148;,
       3;133, 147, 148;,
       3;135, 134, 149;,
       3;134, 148, 149;,
       3;136, 135, 150;,
       3;135, 149, 150;,
       3;137, 136, 151;,
       3;136, 150, 151;,
       3;138, 137, 152;,
       3;137, 151, 152;,
       3;139, 138, 153;,
       3;138, 152, 153;,
       3;127, 139, 141;,
       3;139, 153, 141;,
       3;140, 141, 34;,
       3;141, 32, 34;,
       3;142, 140, 36;,
       3;140, 34, 36;,
       3;143, 142, 38;,
       3;142, 36, 38;,
       3;144, 143, 40;,
       3;143, 38, 40;,
       3;145, 144, 41;,
       3;144, 40, 41;,
       3;146, 145, 39;,
       3;145, 41, 39;,
       3;147, 146, 37;,
       3;146, 39, 37;,
       3;148, 147, 35;,
       3;147, 37, 35;,
       3;149, 148, 33;,
       3;148, 35, 33;,
       3;150, 149, 31;,
       3;149, 33, 31;,
       3;151, 150, 29;,
       3;150, 31, 29;,
       3;152, 151, 28;,
       3;151, 29, 28;,
       3;153, 152, 30;,
       3;152, 28, 30;,
       3;141, 153, 32;,
       3;153, 30, 32;;
      }

      MeshTextureCoords {
       154;
       0.127744; 0.588852;,
       0.125846; 0.596942;,
       0.235055; 0.500904;,
       0.233281; 0.508497;,
       0.127699; 0.568265;,
       0.235019; 0.481590;,
       0.125731; 0.539277;,
       0.233173; 0.454387;,
       0.122235; 0.507608;,
       0.229886; 0.424670;,
       0.117888; 0.479532;,
       0.225814; 0.398331;,
       0.113560; 0.460622;,
       0.221752; 0.380583;,
       0.110113; 0.454609;,
       0.218512; 0.374951;,
       0.108216; 0.462700;,
       0.216738; 0.382533;,
       0.108260; 0.483275;,
       0.216779; 0.401844;,
       0.110228; 0.512276;,
       0.218619; 0.429050;,
       0.113724; 0.543945;,
       0.221906; 0.458767;,
       0.118070; 0.572009;,
       0.225984; 0.485103;,
       0.122400; 0.590929;,
       0.230040; 0.502853;,
       0.711703; 0.380220;,
       0.712893; 0.376790;,
       0.709897; 0.377955;,
       0.713203; 0.368431;,
       0.707802; 0.370531;,
       0.712633; 0.356725;,
       0.705900; 0.359343;,
       0.711215; 0.344049;,
       0.704483; 0.346666;,
       0.709287; 0.332906;,
       0.703886; 0.335006;,
       0.707223; 0.325446;,
       0.704227; 0.326610;,
       0.705421; 0.323215;,
       0.091173; 0.569379;,
       0.092857; 0.572330;,
       0.089047; 0.560122;,
       0.093790; 0.568362;,
       0.086923; 0.546373;,
       0.093764; 0.558288;,
       0.085207; 0.530857;,
       0.092805; 0.544086;,
       0.084240; 0.516658;,
       0.091090; 0.528570;,
       0.084222; 0.506581;,
       0.088957; 0.514824;,
       0.085147; 0.502616;,
       0.086840; 0.505563;,
       0.101140; 0.579855;,
       0.105562; 0.599177;,
       0.096708; 0.551175;,
       0.093124; 0.518819;,
       0.091114; 0.489196;,
       0.091078; 0.468157;,
       0.093012; 0.459898;,
       0.096538; 0.466034;,
       0.100953; 0.485371;,
       0.105392; 0.514050;,
       0.108976; 0.546405;,
       0.110978; 0.576030;,
       0.111021; 0.597055;,
       0.109087; 0.605313;,
       0.088376; 0.571814;,
       0.091560; 0.585754;,
       0.085177; 0.551130;,
       0.082598; 0.527805;,
       0.081144; 0.506454;,
       0.081118; 0.491297;,
       0.082508; 0.485331;,
       0.085054; 0.489767;,
       0.088238; 0.503696;,
       0.091443; 0.524367;,
       0.094021; 0.547691;,
       0.095469; 0.569057;,
       0.095497; 0.584224;,
       0.094103; 0.590168;,
       0.085860; 0.563336;,
       0.088156; 0.573401;,
       0.083546; 0.548418;,
       0.081687; 0.531587;,
       0.080637; 0.516179;,
       0.080619; 0.505227;,
       0.081628; 0.500934;,
       0.083459; 0.504123;,
       0.085756; 0.514189;,
       0.088070; 0.529106;,
       0.089929; 0.545937;,
       0.090978; 0.561346;,
       0.090997; 0.572297;,
       0.089987; 0.576590;,
       0.351120; 0.383883;,
       0.353621; 0.406943;,
       0.348287; 0.358292;,
       0.345678; 0.335274;,
       0.343822; 0.319364;,
       0.343078; 0.313707;,
       0.343598; 0.319451;,
       0.345274; 0.335431;,
       0.347783; 0.358488;,
       0.350616; 0.384079;,
       0.353216; 0.407100;,
       0.355073; 0.423022;,
       0.355816; 0.428668;,
       0.355298; 0.422935;,
       0.486614; 0.343099;,
       0.488738; 0.362652;,
       0.484215; 0.321394;,
       0.482005; 0.301862;,
       0.480432; 0.288359;,
       0.479793; 0.283572;,
       0.480242; 0.288433;,
       0.481663; 0.301995;,
       0.483788; 0.321560;,
       0.486186; 0.343265;,
       0.488394; 0.362786;,
       0.489969; 0.376300;,
       0.490598; 0.381091;,
       0.490159; 0.376226;,
       0.557212; 0.320239;,
       0.559137; 0.337967;,
       0.555043; 0.300585;,
       0.553042; 0.282898;,
       0.551610; 0.270664;,
       0.551029; 0.266327;,
       0.551437; 0.270731;,
       0.552732; 0.283019;,
       0.554656; 0.300735;,
       0.556825; 0.320389;,
       0.558827; 0.338088;,
       0.560259; 0.350309;,
       0.560822; 0.354653;,
       0.560432; 0.350242;,
       0.647895; 0.334386;,
       0.650572; 0.349835;,
       0.645967; 0.316836;,
       0.645132; 0.300695;,
       0.645606; 0.289091;,
       0.647253; 0.284396;,
       0.649750; 0.287480;,
       0.652602; 0.297791;,
       0.655280; 0.313216;,
       0.657208; 0.330765;,
       0.658043; 0.346931;,
       0.657565; 0.358512;,
       0.655949; 0.363230;,
       0.653421; 0.360123;;
      }

      MeshVertexColors {
       154;
       0; 1.000000; 1.000000; 1.000000; 1.000000;,
       1; 1.000000; 1.000000; 1.000000; 1.000000;,
       2; 1.000000; 1.000000; 1.000000; 1.000000;,
       3; 1.000000; 1.000000; 1.000000; 1.000000;,
       4; 1.000000; 1.000000; 1.000000; 1.000000;,
       5; 1.000000; 1.000000; 1.000000; 1.000000;,
       6; 1.000000; 1.000000; 1.000000; 1.000000;,
       7; 1.000000; 1.000000; 1.000000; 1.000000;,
       8; 1.000000; 1.000000; 1.000000; 1.000000;,
       9; 1.000000; 1.000000; 1.000000; 1.000000;,
       10; 1.000000; 1.000000; 1.000000; 1.000000;,
       11; 1.000000; 1.000000; 1.000000; 1.000000;,
       12; 1.000000; 1.000000; 1.000000; 1.000000;,
       13; 1.000000; 1.000000; 1.000000; 1.000000;,
       14; 1.000000; 1.000000; 1.000000; 1.000000;,
       15; 1.000000; 1.000000; 1.000000; 1.000000;,
       16; 1.000000; 1.000000; 1.000000; 1.000000;,
       17; 1.000000; 1.000000; 1.000000; 1.000000;,
       18; 1.000000; 1.000000; 1.000000; 1.000000;,
       19; 1.000000; 1.000000; 1.000000; 1.000000;,
       20; 1.000000; 1.000000; 1.000000; 1.000000;,
       21; 1.000000; 1.000000; 1.000000; 1.000000;,
       22; 1.000000; 1.000000; 1.000000; 1.000000;,
       23; 1.000000; 1.000000; 1.000000; 1.000000;,
       24; 1.000000; 1.000000; 1.000000; 1.000000;,
       25; 1.000000; 1.000000; 1.000000; 1.000000;,
       26; 1.000000; 1.000000; 1.000000; 1.000000;,
       27; 1.000000; 1.000000; 1.000000; 1.000000;,
       28; 1.000000; 1.000000; 1.000000; 1.000000;,
       29; 1.000000; 1.000000; 1.000000; 1.000000;,
       30; 1.000000; 1.000000; 1.000000; 1.000000;,
       31; 1.000000; 1.000000; 1.000000; 1.000000;,
       32; 1.000000; 1.000000; 1.000000; 1.000000;,
       33; 1.000000; 1.000000; 1.000000; 1.000000;,
       34; 1.000000; 1.000000; 1.000000; 1.000000;,
       35; 1.000000; 1.000000; 1.000000; 1.000000;,
       36; 1.000000; 1.000000; 1.000000; 1.000000;,
       37; 1.000000; 1.000000; 1.000000; 1.000000;,
       38; 1.000000; 1.000000; 1.000000; 1.000000;,
       39; 1.000000; 1.000000; 1.000000; 1.000000;,
       40; 1.000000; 1.000000; 1.000000; 1.000000;,
       41; 1.000000; 1.000000; 1.000000; 1.000000;,
       42; 1.000000; 1.000000; 1.000000; 1.000000;,
       43; 1.000000; 1.000000; 1.000000; 1.000000;,
       44; 1.000000; 1.000000; 1.000000; 1.000000;,
       45; 1.000000; 1.000000; 1.000000; 1.000000;,
       46; 1.000000; 1.000000; 1.000000; 1.000000;,
       47; 1.000000; 1.000000; 1.000000; 1.000000;,
       48; 1.000000; 1.000000; 1.000000; 1.000000;,
       49; 1.000000; 1.000000; 1.000000; 1.000000;,
       50; 1.000000; 1.000000; 1.000000; 1.000000;,
       51; 1.000000; 1.000000; 1.000000; 1.000000;,
       52; 1.000000; 1.000000; 1.000000; 1.000000;,
       53; 1.000000; 1.000000; 1.000000; 1.000000;,
       54; 1.000000; 1.000000; 1.000000; 1.000000;,
       55; 1.000000; 1.000000; 1.000000; 1.000000;,
       56; 1.000000; 1.000000; 1.000000; 1.000000;,
       57; 1.000000; 1.000000; 1.000000; 1.000000;,
       58; 1.000000; 1.000000; 1.000000; 1.000000;,
       59; 1.000000; 1.000000; 1.000000; 1.000000;,
       60; 1.000000; 1.000000; 1.000000; 1.000000;,
       61; 1.000000; 1.000000; 1.000000; 1.000000;,
       62; 1.000000; 1.000000; 1.000000; 1.000000;,
       63; 1.000000; 1.000000; 1.000000; 1.000000;,
       64; 1.000000; 1.000000; 1.000000; 1.000000;,
       65; 1.000000; 1.000000; 1.000000; 1.000000;,
       66; 1.000000; 1.000000; 1.000000; 1.000000;,
       67; 1.000000; 1.000000; 1.000000; 1.000000;,
       68; 1.000000; 1.000000; 1.000000; 1.000000;,
       69; 1.000000; 1.000000; 1.000000; 1.000000;,
       70; 1.000000; 1.000000; 1.000000; 1.000000;,
       71; 1.000000; 1.000000; 1.000000; 1.000000;,
       72; 1.000000; 1.000000; 1.000000; 1.000000;,
       73; 1.000000; 1.000000; 1.000000; 1.000000;,
       74; 1.000000; 1.000000; 1.000000; 1.000000;,
       75; 1.000000; 1.000000; 1.000000; 1.000000;,
       76; 1.000000; 1.000000; 1.000000; 1.000000;,
       77; 1.000000; 1.000000; 1.000000; 1.000000;,
       78; 1.000000; 1.000000; 1.000000; 1.000000;,
       79; 1.000000; 1.000000; 1.000000; 1.000000;,
       80; 1.000000; 1.000000; 1.000000; 1.000000;,
       81; 1.000000; 1.000000; 1.000000; 1.000000;,
       82; 1.000000; 1.000000; 1.000000; 1.000000;,
       83; 1.000000; 1.000000; 1.000000; 1.000000;,
       84; 1.000000; 1.000000; 1.000000; 1.000000;,
       85; 1.000000; 1.000000; 1.000000; 1.000000;,
       86; 1.000000; 1.000000; 1.000000; 1.000000;,
       87; 1.000000; 1.000000; 1.000000; 1.000000;,
       88; 1.000000; 1.000000; 1.000000; 1.000000;,
       89; 1.000000; 1.000000; 1.000000; 1.000000;,
       90; 1.000000; 1.000000; 1.000000; 1.000000;,
       91; 1.000000; 1.000000; 1.000000; 1.000000;,
       92; 1.000000; 1.000000; 1.000000; 1.000000;,
       93; 1.000000; 1.000000; 1.000000; 1.000000;,
       94; 1.000000; 1.000000; 1.000000; 1.000000;,
       95; 1.000000; 1.000000; 1.000000; 1.000000;,
       96; 1.000000; 1.000000; 1.000000; 1.000000;,
       97; 1.000000; 1.000000; 1.000000; 1.000000;,
       98; 1.000000; 1.000000; 1.000000; 1.000000;,
       99; 1.000000; 1.000000; 1.000000; 1.000000;,
       100; 1.000000; 1.000000; 1.000000; 1.000000;,
       101; 1.000000; 1.000000; 1.000000; 1.000000;,
       102; 1.000000; 1.000000; 1.000000; 1.000000;,
       103; 1.000000; 1.000000; 1.000000; 1.000000;,
       104; 1.000000; 1.000000; 1.000000; 1.000000;,
       105; 1.000000; 1.000000; 1.000000; 1.000000;,
       106; 1.000000; 1.000000; 1.000000; 1.000000;,
       107; 1.000000; 1.000000; 1.000000; 1.000000;,
       108; 1.000000; 1.000000; 1.000000; 1.000000;,
       109; 1.000000; 1.000000; 1.000000; 1.000000;,
       110; 1.000000; 1.000000; 1.000000; 1.000000;,
       111; 1.000000; 1.000000; 1.000000; 1.000000;,
       112; 1.000000; 1.000000; 1.000000; 1.000000;,
       113; 1.000000; 1.000000; 1.000000; 1.000000;,
       114; 1.000000; 1.000000; 1.000000; 1.000000;,
       115; 1.000000; 1.000000; 1.000000; 1.000000;,
       116; 1.000000; 1.000000; 1.000000; 1.000000;,
       117; 1.000000; 1.000000; 1.000000; 1.000000;,
       118; 1.000000; 1.000000; 1.000000; 1.000000;,
       119; 1.000000; 1.000000; 1.000000; 1.000000;,
       120; 1.000000; 1.000000; 1.000000; 1.000000;,
       121; 1.000000; 1.000000; 1.000000; 1.000000;,
       122; 1.000000; 1.000000; 1.000000; 1.000000;,
       123; 1.000000; 1.000000; 1.000000; 1.000000;,
       124; 1.000000; 1.000000; 1.000000; 1.000000;,
       125; 1.000000; 1.000000; 1.000000; 1.000000;,
       126; 1.000000; 1.000000; 1.000000; 1.000000;,
       127; 1.000000; 1.000000; 1.000000; 1.000000;,
       128; 1.000000; 1.000000; 1.000000; 1.000000;,
       129; 1.000000; 1.000000; 1.000000; 1.000000;,
       130; 1.000000; 1.000000; 1.000000; 1.000000;,
       131; 1.000000; 1.000000; 1.000000; 1.000000;,
       132; 1.000000; 1.000000; 1.000000; 1.000000;,
       133; 1.000000; 1.000000; 1.000000; 1.000000;,
       134; 1.000000; 1.000000; 1.000000; 1.000000;,
       135; 1.000000; 1.000000; 1.000000; 1.000000;,
       136; 1.000000; 1.000000; 1.000000; 1.000000;,
       137; 1.000000; 1.000000; 1.000000; 1.000000;,
       138; 1.000000; 1.000000; 1.000000; 1.000000;,
       139; 1.000000; 1.000000; 1.000000; 1.000000;,
       140; 1.000000; 1.000000; 1.000000; 1.000000;,
       141; 1.000000; 1.000000; 1.000000; 1.000000;,
       142; 1.000000; 1.000000; 1.000000; 1.000000;,
       143; 1.000000; 1.000000; 1.000000; 1.000000;,
       144; 1.000000; 1.000000; 1.000000; 1.000000;,
       145; 1.000000; 1.000000; 1.000000; 1.000000;,
       146; 1.000000; 1.000000; 1.000000; 1.000000;,
       147; 1.000000; 1.000000; 1.000000; 1.000000;,
       148; 1.000000; 1.000000; 1.000000; 1.000000;,
       149; 1.000000; 1.000000; 1.000000; 1.000000;,
       150; 1.000000; 1.000000; 1.000000; 1.000000;,
       151; 1.000000; 1.000000; 1.000000; 1.000000;,
       152; 1.000000; 1.000000; 1.000000; 1.000000;,
       153; 1.000000; 1.000000; 1.000000; 1.000000;;
      }

      MeshMaterialList {
       1;
       304;
       0,
       0,
       0,
       0,
       0,
       0,
       0,
       0,
       0,
       0,
       0,
       0,
       0,
       0,
       0,
       0,
       0,
       0,
       0,
       0,
       0,
       0,
       0,
       0,
       0,
       0,
       0,
       0,
       0,
       0,
       0,
       0,
       0,
       0,
       0,
       0,
       0,
       0,
       0,
       0,
       0,
       0,
       0,
       0,
       0,
       0,
       0,
       0,
       0,
       0,
       0,
       0,
       0,
       0,
       0,
       0,
       0,
       0,
       0,
       0,
       0,
       0,
       0,
       0,
       0,
       0,
       0,
       0,
       0,
       0,
       0,
       0,
       0,
       0,
       0,
       0,
       0,
       0,
       0,
       0,
       0,
       0,
       0,
       0,
       0,
       0,
       0,
       0,
       0,
       0,
       0,
       0,
       0,
       0,
       0,
       0,
       0,
       0,
       0,
       0,
       0,
       0,
       0,
       0,
       0,
       0,
       0,
       0,
       0,
       0,
       0,
       0,
       0,
       0,
       0,
       0,
       0,
       0,
       0,
       0,
       0,
       0,
       0,
       0,
       0,
       0,
       0,
       0,
       0,
       0,
       0,
       0,
       0,
       0,
       0,
       0,
       0,
       0,
       0,
       0,
       0,
       0,
       0,
       0,
       0,
       0,
       0,
       0,
       0,
       0,
       0,
       0,
       0,
       0,
       0,
       0,
       0,
       0,
       0,
       0,
       0,
       0,
       0,
       0,
       0,
       0,
       0,
       0,
       0,
       0,
       0,
       0,
       0,
       0,
       0,
       0,
       0,
       0,
       0,
       0,
       0,
       0,
       0,
       0,
       0,
       0,
       0,
       0,
       0,
       0,
       0,
       0,
       0,
       0,
       0,
       0,
       0,
       0,
       0,
       0,
       0,
       0,
       0,
       0,
       0,
       0,
       0,
       0,
       0,
       0,
       0,
       0,
       0,
       0,
       0,
       0,
       0,
       0,
       0,
       0,
       0,
       0,
       0,
       0,
       0,
       0,
       0,
       0,
       0,
       0,
       0,
       0,
       0,
       0,
       0,
       0,
       0,
       0,
       0,
       0,
       0,
       0,
       0,
       0,
       0,
       0,
       0,
       0,
       0,
       0,
       0,
       0,
       0,
       0,
       0,
       0,
       0,
       0,
       0,
       0,
       0,
       0,
       0,
       0,
       0,
       0,
       0,
       0,
       0,
       0,
       0,
       0,
       0,
       0,
       0,
       0,
       0,
       0,
       0,
       0,
       0,
       0,
       0,
       0,
       0,
       0,
       0,
       0,
       0,
       0,
       0,
       0,
       0,
       0,
       0,
       0,
       0,
       0,
       0,
       0,
       0,
       0,
       0,
       0;

       Material def_surf_mat {
        0.992157; 0.992157; 0.992157; 1.000000;;
        1.000000;
        0.150000; 0.150000; 0.150000;;
        0.000000; 0.000000; 0.000000;;

        TextureFilename {
         "veg.dds";
        }
       }

      }

      XSkinMeshHeader {
       1;
       1;
       1;
      }

      SkinWeights {
       "Body";
       154;
       0,
       1,
       2,
       3,
       4,
       5,
       6,
       7,
       8,
       9,
       10,
       11,
       12,
       13,
       14,
       15,
       16,
       17,
       18,
       19,
       20,
       21,
       22,
       23,
       24,
       25,
       26,
       27,
       28,
       29,
       30,
       31,
       32,
       33,
       34,
       35,
       36,
       37,
       38,
       39,
       40,
       41,
       42,
       43,
       44,
       45,
       46,
       47,
       48,
       49,
       50,
       51,
       52,
       53,
       54,
       55,
       56,
       57,
       58,
       59,
       60,
       61,
       62,
       63,
       64,
       65,
       66,
       67,
       68,
       69,
       70,
       71,
       72,
       73,
       74,
       75,
       76,
       77,
       78,
       79,
       80,
       81,
       82,
       83,
       84,
       85,
       86,
       87,
       88,
       89,
       90,
       91,
       92,
       93,
       94,
       95,
       96,
       97,
       98,
       99,
       100,
       101,
       102,
       103,
       104,
       105,
       106,
       107,
       108,
       109,
       110,
       111,
       112,
       113,
       114,
       115,
       116,
       117,
       118,
       119,
       120,
       121,
       122,
       123,
       124,
       125,
       126,
       127,
       128,
       129,
       130,
       131,
       132,
       133,
       134,
       135,
       136,
       137,
       138,
       139,
       140,
       141,
       142,
       143,
       144,
       145,
       146,
       147,
       148,
       149,
       150,
       151,
       152,
       153;
       1.000000,
       1.000000,
       1.000000,
       1.000000,
       1.000000,
       1.000000,
       1.000000,
       1.000000,
       1.000000,
       1.000000,
       1.000000,
       1.000000,
       1.000000,
       1.000000,
       1.000000,
       1.000000,
       1.000000,
       1.000000,
       1.000000,
       1.000000,
       1.000000,
       1.000000,
       1.000000,
       1.000000,
       1.000000,
       1.000000,
       1.000000,
       1.000000,
       1.000000,
       1.000000,
       1.000000,
       1.000000,
       1.000000,
       1.000000,
       1.000000,
       1.000000,
       1.000000,
       1.000000,
       1.000000,
       1.000000,
       1.000000,
       1.000000,
       1.000000,
       1.000000,
       1.000000,
       1.000000,
       1.000000,
       1.000000,
       1.000000,
       1.000000,
       1.000000,
       1.000000,
       1.000000,
       1.000000,
       1.000000,
       1.000000,
       1.000000,
       1.000000,
       1.000000,
       1.000000,
       1.000000,
       1.000000,
       1.000000,
       1.000000,
       1.000000,
       1.000000,
       1.000000,
       1.000000,
       1.000000,
       1.000000,
       1.000000,
       1.000000,
       1.000000,
       1.000000,
       1.000000,
       1.000000,
       1.000000,
       1.000000,
       1.000000,
       1.000000,
       1.000000,
       1.000000,
       1.000000,
       1.000000,
       1.000000,
       1.000000,
       1.000000,
       1.000000,
       1.000000,
       1.000000,
       1.000000,
       1.000000,
       1.000000,
       1.000000,
       1.000000,
       1.000000,
       1.000000,
       1.000000,
       1.000000,
       1.000000,
       1.000000,
       1.000000,
       1.000000,
       1.000000,
       1.000000,
       1.000000,
       1.000000,
       1.000000,
       1.000000,
       1.000000,
       1.000000,
       1.000000,
       1.000000,
       1.000000,
       1.000000,
       1.000000,
       1.000000,
       1.000000,
       1.000000,
       1.000000,
       1.000000,
       1.000000,
       1.000000,
       1.000000,
       1.000000,
       1.000000,
       1.000000,
       1.000000,
       1.000000,
       1.000000,
       1.000000,
       1.000000,
       1.000000,
       1.000000,
       1.000000,
       1.000000,
       1.000000,
       1.000000,
       1.000000,
       1.000000,
       1.000000,
       1.000000,
       1.000000,
       1.000000,
       1.000000,
       1.000000,
       1.000000,
       1.000000,
       1.000000,
       1.000000,
       1.000000,
       1.000000,
       1.000000,
       1.000000;
          1.000000, -0.000000, 0.000000, 0.000000,
          -0.000000, 1.000000, -0.000000, 0.000000,
          0.000000, -0.000000, 1.000000, 0.000000,
          -0.000000, -0.000000, -0.000000, 1.000000;;
      }


     }
   }

// Start of Animation

AnimationSet Untitled {
}
