<?xml version="1.0" encoding="utf-8"?>
<COLLADA xmlns="http://www.collada.org/2005/11/COLLADASchema" version="1.4.1">
  <asset>
    <contributor>
      <author>Ultimate Unwrap3D Pro</author>
      <authoring_tool>Ultimate Unwrap3D Pro v3.19</authoring_tool>
      <comments>Exported from Ultimate Unwrap3D Pro on Thu Dec 10 21:47:36 2009</comments>
      <source_data>file:///C:/Users/Public/Documents/Unity%20Projects/Island%20Demo/Assets/new/castle_props/log_holder.dae</source_data>
    </contributor>
    <created>2009-12-10T21:47:36Z</created>
    <modified>2009-12-10T21:47:36Z</modified>
    <unit meter="1" name="meter"/>
    <up_axis>Y_UP</up_axis>
  </asset>
  <library_images>
    <image id="Image" name="log_holder">
      <init_from>./log_holder.dds</init_from>
    </image>
  </library_images>
  <library_materials>
    <material id="VisualMaterial1" name="Unassigned">
      <instance_effect url="#Effect"/>
    </material>
    <material id="VisualMaterial" name="def_surf_mat">
      <instance_effect url="#Effect1"/>
    </material>
  </library_materials>
  <library_effects>
    <effect id="Effect" name="Unassigned_eff">
      <profile_COMMON>
        <technique sid="common">
          <phong>
            <ambient>
              <color>0 0 0 1</color>
            </ambient>
            <diffuse>
              <color>1 1 1 1</color>
            </diffuse>
            <specular>
              <color>0 0 0 1</color>
            </specular>
            <shininess>
              <float>100</float>
            </shininess>
            <reflective>
              <color>0 0 0 1</color>
            </reflective>
            <reflectivity>
              <float>1</float>
            </reflectivity>
            <transparent opaque="A_ONE">
              <color>1 1 1 1</color>
            </transparent>
            <transparency>
              <float>0</float>
            </transparency>
            <index_of_refraction>
              <float>0</float>
            </index_of_refraction>
          </phong>
          <extra>
            <technique profile="FCOLLADA">
              <spec_level>
                <float>0</float>
              </spec_level>
              <emission_level>
                <float>0</float>
              </emission_level>
            </technique>
          </extra>
        </technique>
      </profile_COMMON>
      <extra>
        <technique profile="MAX3D">
          <faceted>0</faceted>
          <double_sided>0</double_sided>
          <wireframe>0</wireframe>
          <face_map>0</face_map>
        </technique>
      </extra>
    </effect>
    <effect id="Effect1" name="def_surf_mat_eff">
      <profile_COMMON>
        <newparam sid="Image-surface">
          <surface type="2D">
            <init_from>Image</init_from>
            <format>A8R8G8B8</format>
          </surface>
        </newparam>
        <newparam sid="Image-sampler">
          <sampler2D>
            <source>Image-surface</source>
            <minfilter>LINEAR_MIPMAP_LINEAR</minfilter>
            <magfilter>LINEAR</magfilter>
          </sampler2D>
        </newparam>
        <technique sid="common">
          <phong>
            <ambient>
              <color>0 0 0 1</color>
            </ambient>
            <diffuse>
              <texture texture="Image-sampler" texcoord="UVSET0">
                <extra>
                  <technique profile="MAX3D">
                    <amount>1</amount>
                  </technique>
                </extra>
              </texture>
            </diffuse>
            <specular>
              <color>0.15 0.15 0.15 1</color>
            </specular>
            <shininess>
              <float>0.78125</float>
            </shininess>
            <reflective>
              <color>0 0 0 1</color>
            </reflective>
            <reflectivity>
              <float>1</float>
            </reflectivity>
            <transparent opaque="A_ONE">
              <color>1 1 1 1</color>
            </transparent>
            <transparency>
              <float>0</float>
            </transparency>
            <index_of_refraction>
              <float>0</float>
            </index_of_refraction>
          </phong>
          <extra>
            <technique profile="FCOLLADA">
              <spec_level>
                <float>0</float>
              </spec_level>
              <emission_level>
                <float>0</float>
              </emission_level>
            </technique>
          </extra>
        </technique>
      </profile_COMMON>
      <extra>
        <technique profile="MAX3D">
          <faceted>0</faceted>
          <double_sided>0</double_sided>
          <wireframe>0</wireframe>
          <face_map>0</face_map>
        </technique>
      </extra>
    </effect>
  </library_effects>
  <library_geometries>
    <geometry id="geomU3D_id" name="geomU3D">
      <mesh>
        <source id="PositionSrc_id" name="PositionSrc">
          <float_array id="PositionSrc_id-array" count="1032">4.29731 0.000000 3.24094 5.27561 0.000000 1.54639 5.2153 14.9166 4.01127 6.4018 14.9166 1.95627 2.79841 0.000000 4.49868 3.3976 14.9166 5.53654 0.959705 0.000000 5.16791 1.1678 14.9166 6.3481 -0.996994 0.000000 5.16791 -1.2051 14.9166 6.3481 -2.8357 0.000000 4.49868 -3.4349 14.9166 5.53654 -4.3346 0.000000 3.24094 -5.2527 14.9166 4.01127 -5.31299 0.000000 1.54639 -6.4391 14.9166 1.95627 -5.65279 0.000000 -0.380585 -6.85119 14.9166 -0.380585 -5.31299 0.000000 -2.30756 -6.4391 14.9166 -2.71744 -4.3346 0.000000 -4.00211 -5.2527 14.9166 -4.77245 -2.8357 0.000000 -5.25985 -3.4349 14.9166 -6.29773 -0.996994 0.000000 -5.92908 -1.2051 14.9166 -7.1093 0.959705 0.000000 -5.92908 1.1678 14.9166 -7.1093 2.79841 0.000000 -5.25985 3.3976 14.9166 -6.29773 4.29731 0.000000 -4.00211 5.2153 14.9166 -4.77245 5.27561 0.000000 -2.30756 6.4018 14.9166 -2.71744 5.61541 0.000000 -0.380585 6.81381 14.9166 -0.380585 5.61541 0.000000 -0.380585 5.27561 0.000000 1.54639 5.27561 0.000000 -2.30756 4.29731 0.000000 3.24094 4.29731 0.000000 -4.00211 2.79841 0.000000 4.49868 2.79841 0.000000 -5.25985 0.959705 0.000000 5.16791 0.959705 0.000000 -5.92908 -0.996994 0.000000 5.16791 -0.996994 0.000000 -5.92908 -2.8357 0.000000 4.49868 -2.8357 0.000000 -5.25985 -4.3346 0.000000 3.24094 -4.3346 0.000000 -4.00211 -5.31299 0.000000 1.54639 -5.31299 0.000000 -2.30756 -5.65279 0.000000 -0.380585 6.209 14.9166 -0.380585 5.83351 14.9166 1.74942 6.81381 14.9166 -0.380585 6.4018 14.9166 1.95627 5.83351 14.9166 -2.5106 6.4018 14.9166 -2.71744 4.75201 14.9166 -4.38369 5.2153 14.9166 -4.77245 3.09521 14.9166 -5.77394 3.3976 14.9166 -6.29773 1.06281 14.9166 -6.51369 1.1678 14.9166 -7.1093 -1.10009 14.9166 -6.51369 -1.2051 14.9166 -7.1093 -3.13249 14.9166 -5.77394 -3.4349 14.9166 -6.29773 -4.78939 14.9166 -4.38369 -5.2527 14.9166 -4.77245 -5.87079 14.9166 -2.5106 -6.4391 14.9166 -2.71744 -6.2464 14.9166 -0.380585 -6.85119 14.9166 -0.380585 -5.87079 14.9166 1.74942 -6.4391 14.9166 1.95627 -4.78939 14.9166 3.62251 -5.2527 14.9166 4.01127 -3.13249 14.9166 5.01277 -3.4349 14.9166 5.53654 -1.10009 14.9166 5.75251 -1.2051 14.9166 6.3481 1.06281 14.9166 5.75251 1.1678 14.9166 6.3481 3.09521 14.9166 5.01277 3.3976 14.9166 5.53654 4.75201 14.9166 3.62251 5.2153 14.9166 4.01127 4.45771 8.39881 3.37558 5.47251 8.39881 1.61802 2.90311 8.39881 4.68008 5.8249 8.39881 -0.380585 0.996006 8.39881 5.37419 5.47251 8.39881 -2.3792 -1.03339 8.39881 5.37419 4.45771 8.39881 -4.13675 -2.9405 8.39881 4.68008 2.90311 8.39881 -5.44126 -4.49509 8.39881 3.37558 0.996006 8.39881 -6.13537 -5.50979 8.39881 1.61802 -1.03339 8.39881 -6.13537 -5.86219 8.39881 -0.380585 -2.9405 8.39881 -5.44126 -5.50979 8.39881 -2.3792 -4.49509 8.39881 -4.13675 5.47251 8.39881 1.61802 5.83351 14.9166 1.74942 5.8249 8.39881 -0.380585 6.209 14.9166 -0.380585 4.45771 8.39881 3.37558 4.75201 14.9166 3.62251 5.47251 8.39881 -2.3792 5.83351 14.9166 -2.5106 4.45771 8.39881 -4.13675 4.75201 14.9166 -4.38369 2.90311 8.39881 -5.44126 3.09521 14.9166 -5.77394 0.996006 8.39881 -6.13537 1.06281 14.9166 -6.51369 -1.03339 8.39881 -6.13537 -1.10009 14.9166 -6.51369 -2.9405 8.39881 -5.44126 -3.13249 14.9166 -5.77394 -4.49509 8.39881 -4.13675 -4.78939 14.9166 -4.38369 -5.50979 8.39881 -2.3792 -5.87079 14.9166 -2.5106 -5.86219 8.39881 -0.380585 -6.2464 14.9166 -0.380585 -5.50979 8.39881 1.61802 -5.87079 14.9166 1.74942 -4.49509 8.39881 3.37558 -4.78939 14.9166 3.62251 -2.9405 8.39881 4.68008 -3.13249 14.9166 5.01277 -1.03339 8.39881 5.37419 -1.10009 14.9166 5.75251 0.996006 8.39881 5.37419 1.06281 14.9166 5.75251 2.90311 8.39881 4.68008 3.09521 14.9166 5.01277 -0.961094 6.11741 3.11362 -0.472895 6.27225 2.5438 -0.961094 13.9603 5.24485 -0.472895 14.1151 4.67506 -1.66649 6.03148 3.42984 -1.66649 13.8743 5.56108 -2.44939 6.03148 3.42984 -2.44939 13.8743 5.56108 -3.15479 6.11741 3.11362 -3.15479 13.9603 5.24485 -3.64289 6.27225 2.5438 -3.64289 14.1151 4.67506 -3.81719 6.46533 1.83326 -3.81719 14.3082 3.96451 -3.64289 6.65841 1.12274 -3.64289 14.5013 3.25397 -3.15479 6.81325 0.552925 -3.15479 14.6561 2.68417 -2.44939 6.89919 0.236705 -2.44939 14.742 2.36795 -1.66649 6.89919 0.236705 -1.66649 14.742 2.36795 -0.961094 6.81325 0.552925 -0.961094 14.6561 2.68417 -0.472895 6.65841 1.12274 -0.472895 14.5013 3.25397 -0.298695 6.46533 1.83326 -0.472895 6.65841 1.12274 -0.298695 14.3082 3.96451 -0.472895 14.5013 3.25397 -0.472895 6.27225 2.5438 -0.472895 14.1151 4.67506 -0.472895 19.8123 6.22321 -0.298695 20.0054 5.51269 -0.961094 19.6575 6.793 -0.472895 20.1985 4.80216 -1.66649 19.5716 7.1093 -0.961094 20.3533 4.23236 -2.44939 19.5716 7.1093 -1.66649 20.4393 3.91614 -3.15479 19.6575 6.793 -2.44939 20.4393 3.91614 -3.64289 19.8123 6.22321 -3.15479 20.3533 4.23236 -3.81719 20.0054 5.51269 -3.64289 20.1985 4.80217 -0.298695 6.46533 1.83326 -0.961094 19.6575 6.793 -0.472895 19.8123 6.22321 -0.472895 19.8123 6.22321 -0.298695 20.0054 5.51269 -1.66649 19.5716 7.1093 -2.44939 19.5716 7.1093 -3.15479 19.6575 6.793 -3.64289 19.8123 6.22321 -3.81719 20.0054 5.51269 -3.64289 20.1985 4.80217 -3.15479 20.3533 4.23236 -2.44939 20.4393 3.91614 -1.66649 20.4393 3.91614 -0.961094 20.3533 4.23236 -0.472895 20.1985 4.80216 -0.472895 20.1985 4.80216 -0.654795 7.49972 1.21238 -0.191996 7.65621 0.622255 -3.5717 15.0804 0.934305 -3.10889 15.2368 0.344185 -1.31719 7.25686 1.53988 -4.2341 14.8376 1.26181 -2.04789 6.9757 1.53988 -4.96479 14.5564 1.26181 -2.70219 6.71192 1.21238 -5.61909 14.2926 0.934315 -3.1505 6.51777 0.622255 -6.06739 14.0985 0.344185 -3.30409 6.43169 -0.113625 -6.22099 14.0124 -0.391685 -3.1324 6.47074 -0.849495 -6.04929 14.0514 -1.12757 -2.66959 6.62719 -1.43963 -5.58649 14.2079 -1.71768 -2.00719 6.87004 -1.76711 -4.9241 14.4507 -2.04519 -1.27649 7.1512 -1.76711 -4.1934 14.7319 -2.04519 -0.622194 7.41498 -1.43963 -3.53909 14.9957 -1.71768 -0.173895 7.60911 -0.849495 -3.0908 15.1898 -1.12757 -0.020294 7.69521 -0.113625 -0.173895 7.60911 -0.849495 -2.9372 15.2759 -0.391685 -3.0908 15.1898 -1.12757 -0.191996 7.65621 0.622255 -3.10889 15.2368 0.344185 -5.2278 20.7436 0.142195 -5.05619 20.7827 -0.593685 -5.6906 20.5872 0.732315 -5.20969 20.6966 -1.32956 -6.35299 20.3443 1.05982 -5.658 20.5025 -1.91969 -7.08369 20.0632 1.05982 -6.31229 20.2387 -2.24717 -7.738 19.7994 0.732315 -7.04299 19.9575 -2.24717 -8.18629 19.6052 0.142195 -7.7054 19.7147 -1.91969 -8.3399 19.5192 -0.593685 -8.16829 19.5582 -1.32956 -0.020294 7.69521 -0.113625 -0.191996 7.65621 0.622255 -0.173895 7.60911 -0.849495 -0.654795 7.49972 1.21238 -0.622194 7.41498 -1.43963 -1.31719 7.25686 1.53988 -1.27649 7.1512 -1.76711 -2.04789 6.9757 1.53988 -2.00719 6.87004 -1.76711 -2.70219 6.71192 1.21238 -2.66959 6.62719 -1.43963 -3.1505 6.51777 0.622255 -3.1324 6.47074 -0.849495 -3.30409 6.43169 -0.113625 -5.6906 20.5872 0.732315 -5.2278 20.7436 0.142195 -5.2278 20.7436 0.142195 -5.05619 20.7827 -0.593685 -6.35299 20.3443 1.05982 -7.08369 20.0632 1.05982 -7.738 19.7994 0.732315 -8.18629 19.6052 0.142195 -8.3399 19.5192 -0.593685 -8.16829 19.5582 -1.32956 -7.7054 19.7147 -1.91969 -7.04299 19.9575 -2.24717 -6.31229 20.2387 -2.24717 -5.658 20.5025 -1.91969 -5.20969 20.6966 -1.32956 -5.20969 20.6966 -1.32956 0.192005 7.65621 0.622255 0.654806 7.49972 1.21238 3.10891 15.2368 0.344185 3.57171 15.0804 0.934305 1.3172 7.25686 1.53988 4.23411 14.8376 1.26181 2.0479 6.9757 1.53988 4.96481 14.5564 1.26181 2.70221 6.71192 1.21238 5.6191 14.2926 0.934315 3.15051 6.51777 0.622255 6.06741 14.0985 0.344185 3.30411 6.43169 -0.113625 6.221 14.0124 -0.391685 3.13241 6.47074 -0.849495 6.0493 14.0514 -1.12757 2.66961 6.62719 -1.43963 5.5865 14.2079 -1.71768 2.00721 6.87004 -1.76711 4.92411 14.4507 -2.04519 1.2765 7.1512 -1.76711 4.19341 14.7319 -2.04519 0.622206 7.41498 -1.43963 3.5391 14.9957 -1.71768 0.173904 7.60911 -0.849495 3.09081 15.1898 -1.12757 0.020306 7.69521 -0.113625 2.93721 15.2759 -0.391685 5.05611 20.7827 -0.593685 5.22781 20.7436 0.142195 5.2097 20.6966 -1.32956 5.69061 20.5872 0.732315 5.65801 20.5025 -1.91969 6.353 20.3443 1.05982 6.3123 20.2387 -2.24717 7.0837 20.0632 1.05982 7.043 19.9575 -2.24717 7.73801 19.7994 0.732315 7.70541 19.7147 -1.91969 8.18635 19.6052 0.142195 8.16825 19.5582 -1.32956 8.3399 19.5192 -0.593685 5.69061 20.5872 0.732315 5.22781 20.7436 0.142195 5.05611 20.7827 -0.593685 6.353 20.3443 1.05982 7.0837 20.0632 1.05982 7.73801 19.7994 0.732315 8.18635 19.6052 0.142195 6.221 14.0124 -0.391685 8.3399 19.5192 -0.593685 6.06741 14.0985 0.344185 8.18635 19.6052 0.142195 6.0493 14.0514 -1.12757 8.16825 19.5582 -1.32956 7.70541 19.7147 -1.91969 8.16825 19.5582 -1.32956 7.043 19.9575 -2.24717 6.3123 20.2387 -2.24717 5.65801 20.5025 -1.91969 5.2097 20.6966 -1.32956</float_array>
          <technique_common>
            <accessor source="#PositionSrc_id-array" count="344" stride="3">
              <param name="X" type="float"/>
              <param name="Y" type="float"/>
              <param name="Z" type="float"/>
            </accessor>
          </technique_common>
        </source>
        <source id="NormalSrc_id" name="NormalSrc">
          <float_array id="NormalSrc_id-array" count="1032">0.724692 -0.079944 0.684419 0.915067 -0.079947 0.395299 0.799875 -0.079945 0.594818 0.955074 -0.079948 0.285381 0.44689 -0.079945 0.89101 0.548196 -0.079945 0.83252 0.115196 -0.079944 0.990121 0.230389 -0.079945 0.969809 -0.230389 -0.079945 0.969809 -0.115193 -0.079944 0.990121 -0.54819 -0.079947 0.832524 -0.446883 -0.079945 0.891013 -0.799873 -0.079947 0.594821 -0.724685 -0.079948 0.684426 -0.95507 -0.079943 0.285396 -0.915065 -0.079945 0.395304 -0.995082 -0.079944 -0.058493 -0.995082 -0.079944 0.05849 -0.915066 -0.079945 -0.395301 -0.955074 -0.079943 -0.285382 -0.724676 -0.079948 -0.684436 -0.799869 -0.079947 -0.594827 -0.446891 -0.079946 -0.891009 -0.54819 -0.079947 -0.832524 -0.115196 -0.079946 -0.99012 -0.230392 -0.079946 -0.969808 0.230392 -0.079946 -0.969808 0.115196 -0.079946 -0.99012 0.548198 -0.079945 -0.832519 0.446894 -0.079946 -0.891007 0.799873 -0.079945 -0.59482 0.724684 -0.079944 -0.684429 0.955078 -0.079947 -0.285369 0.915071 -0.079947 -0.39529 0.995082 -0.079946 0.05848 0.995082 -0.079946 -0.05849 0 -1 0 0 -1 0 0 -1 0 0 -1 0 0 -1 0 0 -1 0 0 -1 0 0 -1 0 0 -1 0 0 -1 0 0 -1 0 0 -1 0 0 -1 0 0 -1 0 0 -1 0 0 -1 0 0 -1 0 0 -1 0 0 1 0 0 1 0 0 1 0 0 1 0 0 1 0 0 1 0 0 1 0 0 1 0 0 1 0 0 1 0 0 1 0 0 1 0 0 1 0 0 1 0 0 1 0 0 1 0 0 1 0 0 1 0 0 1 0 0 1 0 0 1 0 0 1 0 0 1 0 0 1 0 0 1 0 0 1 0 0 1 0 0 1 0 0 1 0 0 1 0 0 1 0 0 1 0 0 1 0 0 1 0 0 1 0 0 1 0 0 1 0 0 1 0 0 1 0 0 1 0 0 1 0 0 1 0 0 1 0 0 1 0 0 1 0 0 1 0 0 1 0 0 1 0 0 1 0 0 1 0 0 1 0 0 1 0 0 1 0 0 1 0 -0.916414 0.058738 -0.395899 -0.956489 0.058734 -0.285796 -0.996555 0.058731 -0.058561 -0.996554 0.058731 0.05857 -0.725753 0.058739 -0.685443 -0.801045 0.058739 -0.595715 -0.956488 0.058734 0.285798 -0.916417 0.058738 0.395891 -0.801045 0.058738 0.595715 -0.725754 0.058739 0.685441 -0.549008 0.058738 0.83375 -0.447555 0.058739 0.892325 -0.230733 0.058739 0.971243 -0.115369 0.058739 0.991584 0.115364 0.058737 0.991585 0.230733 0.058735 0.971243 0.447555 0.058732 0.892325 0.549004 0.058733 0.833753 0.725756 0.058735 0.68544 0.801055 0.058738 0.595702 0.916424 0.058738 0.395874 0.956488 0.058739 0.285799 0.996553 0.058741 0.058576 0.996553 0.058741 -0.058572 0.956487 0.058739 -0.2858 0.916422 0.058738 -0.395878 0.801062 0.058739 -0.595693 0.725757 0.058736 -0.685439 0.549 0.058734 -0.833756 0.447545 0.058733 -0.892331 0.230731 0.058736 -0.971243 0.115367 0.058737 -0.991585 -0.115364 0.058739 -0.991585 -0.230731 0.058739 -0.971243 -0.447553 0.05874 -0.892326 -0.549011 0.058739 -0.833748 0.384446 -0.84303 0.376166 0.544957 -0.800518 0.249384 0.668868 -0.194937 0.717366 0.770684 -0.167099 0.614918 0.100342 -0.871091 0.480762 0.286884 -0.251211 0.924441 -0.200695 -0.865277 0.459366 -0.143439 -0.259524 0.955025 -0.467727 -0.826174 0.314115 -0.549839 -0.219035 0.80604 -0.647867 -0.758972 0.065032 -0.858115 -0.134645 0.495489 -0.943411 -0.292332 -0.15658 -0.996901 -0.020628 0.07591 -0.708773 -0.432786 -0.557079 -0.92717 0.098243 -0.361531 -0.384453 -0.536715 -0.751088 -0.668911 0.19493 -0.717328 -0.100342 -0.507968 -0.855511 -0.286861 0.251212 -0.924448 0.200683 -0.513781 -0.834119 0.143425 0.259521 -0.955028 0.467698 -0.553561 -0.689078 0.549795 0.219044 -0.806068 0.243713 -0.862645 -0.443223 0.770689 0.167098 -0.614912 0.996905 -0.020615 0.075865 0.973136 0.060374 -0.222174 0.996905 0.020616 -0.075867 0.973137 0.060373 -0.222172 0.973136 -0.060374 0.222174 0.973136 -0.060374 0.222175 0.00016 0.964987 0.2623 0.000101 0.964994 0.262272 0.000094 0.964996 0.262265 0.00003 0.965005 0.262231 0.000016 0.965009 0.262218 0.000018 0.965009 0.262216 0.000008 0.965008 0.262221 0.000008 0.965004 0.262234 -0.000043 0.965006 0.262227 -0.000057 0.965006 0.262226 -0.000035 0.965006 0.262228 0.000039 0.965 0.26225 0.000111 0.964994 0.262271 0.000157 0.964988 0.262293 -0.000007 -0.965006 -0.26223 0.549824 -0.219038 0.80605 0.770684 -0.167097 0.614918 0.973135 -0.060375 0.222181 0.996905 -0.020616 0.075869 0.143458 -0.259525 0.955022 -0.286897 -0.251211 0.924437 -0.66893 -0.194922 0.717313 -0.927168 -0.098243 0.361535 -0.996901 0.020627 -0.075907 -0.858116 0.134647 -0.495487 -0.549824 0.219039 -0.806049 -0.143439 0.259518 -0.955027 0.286864 0.25121 -0.924447 0.668868 0.194941 -0.717366 0.770684 0.1671 -0.614918 0.973137 0.060373 -0.222172 0.502877 0.224118 0.834797 0.711505 0.297132 0.636768 0.615162 0.263953 0.742903 0.711515 0.297135 0.636755 0.121701 0.083108 0.989081 0.255955 0.133605 0.957411 -0.279504 -0.072428 0.957409 -0.146024 -0.019906 0.989081 -0.63343 -0.216481 0.742901 -0.523417 -0.170779 0.834787 -0.869933 -0.320997 0.374403 -0.807186 -0.291767 0.513151 -0.929437 -0.360512 -0.078597 -0.931369 -0.355489 0.078605 -0.794567 -0.324557 -0.513154 -0.860735 -0.344931 -0.374377 -0.50288 -0.224119 -0.834795 -0.615141 -0.263947 -0.742922 -0.121698 -0.083108 -0.989082 -0.255955 -0.133605 -0.957411 0.279504 0.072428 -0.957409 0.146028 0.019908 -0.98908 0.633429 0.21648 -0.742902 0.523415 0.170778 -0.834788 0.727168 0.256442 -0.636761 0.727169 0.256443 -0.636759 0.929437 0.360513 0.078601 0.911032 0.342103 -0.230189 0.931369 0.355495 -0.078579 0.911032 0.342103 -0.230188 0.905377 0.356818 0.230161 0.905376 0.356818 0.230166 -0.358696 0.932832 -0.034079 -0.358849 0.93277 -0.034161 -0.358884 0.932756 -0.034185 -0.35894 0.932733 -0.034219 -0.358885 0.932755 -0.034196 -0.358877 0.932758 -0.034194 -0.358899 0.932749 -0.034209 -0.358936 0.932734 -0.034229 -0.35895 0.932729 -0.034234 -0.358904 0.932748 -0.034207 -0.358837 0.932775 -0.034173 -0.358865 0.932763 -0.034192 -0.358901 0.932748 -0.034216 -0.359054 0.932686 -0.034298 0.358723 -0.932815 0.034264 0.358895 -0.932749 0.034264 0.358889 -0.932752 0.034248 0.358947 -0.93273 0.034232 0.358894 -0.932751 0.034217 0.358904 -0.932747 0.034218 0.358905 -0.932747 0.034219 0.358905 -0.932747 0.034218 0.358897 -0.93275 0.034216 0.358902 -0.932748 0.034214 0.358916 -0.932743 0.034215 0.358889 -0.932753 0.034218 0.358875 -0.932758 0.03422 0.358803 -0.932786 0.03422 0.502883 0.22412 0.834793 0.711516 0.297133 0.636755 0.905395 0.356817 0.23009 0.929432 0.360521 0.078615 0.121699 0.083108 0.989082 -0.279502 -0.072428 0.957409 -0.633426 -0.21648 0.742905 -0.869933 -0.321003 0.374397 -0.929439 -0.360516 -0.07856 -0.794568 -0.324566 -0.513146 -0.502855 -0.22411 -0.834812 -0.121702 -0.083107 -0.989081 0.279504 0.072428 -0.957409 0.633431 0.21648 -0.742901 0.727172 0.256444 -0.636755 0.911042 0.342116 -0.23013 -0.930506 0.025231 0.365407 -0.686744 -0.482192 0.543943 -0.794568 0.324558 0.513151 -0.502884 0.224121 0.834792 -0.43551 -0.573012 0.694253 -0.121706 0.08311 0.989081 -0.154289 -0.680407 0.716409 0.279504 -0.072428 0.957409 0.109411 -0.786223 0.608179 0.63342 -0.216478 0.742911 0.307294 -0.871124 0.383033 0.841094 -0.307311 0.445107 0.566688 -0.819617 0.08422 0.929438 -0.360511 -0.078593 0.698684 -0.627698 -0.343272 0.76298 -0.3143 -0.564869 0.173549 -0.851378 -0.495011 0.502875 -0.224117 -0.834798 -0.077379 -0.759951 -0.645357 0.121705 -0.08311 -0.989081 -0.358611 -0.652555 -0.667511 -0.279504 0.072428 -0.957409 -0.622565 -0.547399 -0.559256 -0.633432 0.216481 -0.7429 -0.82077 -0.463381 -0.334087 -0.869933 0.320999 -0.3744 -0.971542 -0.232445 -0.045569 -0.929436 0.360512 0.078609 0.358984 0.932717 -0.0342 0.358908 0.932746 -0.0342 0.358885 0.932755 -0.034201 0.358871 0.93276 -0.034201 0.358907 0.932746 -0.034202 0.358906 0.932747 -0.034202 0.358909 0.932746 -0.034211 0.358905 0.932747 -0.034221 0.358898 0.932749 -0.034221 0.358911 0.932745 -0.034211 0.35893 0.932738 -0.034201 0.35885 0.932768 -0.034201 0.358781 0.932795 -0.034201 0.358576 0.932874 -0.034201 -0.615162 0.263951 0.742904 -0.860724 0.344922 0.37441 -0.93137 0.355489 -0.078599 -0.255954 0.133605 0.957412 0.146027 -0.019908 0.98908 0.523397 -0.170771 0.834801 0.727148 -0.256438 0.636785 0.92944 -0.360512 -0.078565 0.931369 -0.355491 0.078597 0.911041 -0.342113 0.230136 0.911049 -0.342126 0.230085 0.905377 -0.356819 -0.230158 0.905385 -0.356817 -0.230131 0.615138 -0.263946 -0.742925 0.711474 -0.297124 -0.636806 0.255957 -0.133605 -0.957411 -0.146025 0.019907 -0.989081 -0.523416 0.170779 -0.834787 -0.80719 0.291767 -0.513143</float_array>
          <technique_common>
            <accessor source="#NormalSrc_id-array" count="344" stride="3">
              <param name="X" type="float"/>
              <param name="Y" type="float"/>
              <param name="Z" type="float"/>
            </accessor>
          </technique_common>
        </source>
        <source id="ColorSrc_id" name="ColorSrc">
          <float_array id="ColorSrc_id-array" count="1376">1 1 1 1 1 1 1 1 1 1 1 1 1 1 1 1 1 1 1 1 1 1 1 1 1 1 1 1 1 1 1 1 1 1 1 1 1 1 1 1 1 1 1 1 1 1 1 1 1 1 1 1 1 1 1 1 1 1 1 1 1 1 1 1 1 1 1 1 1 1 1 1 1 1 1 1 1 1 1 1 1 1 1 1 1 1 1 1 1 1 1 1 1 1 1 1 1 1 1 1 1 1 1 1 1 1 1 1 1 1 1 1 1 1 1 1 1 1 1 1 1 1 1 1 1 1 1 1 1 1 1 1 1 1 1 1 1 1 1 1 1 1 1 1 1 1 1 1 1 1 1 1 1 1 1 1 1 1 1 1 1 1 1 1 1 1 1 1 1 1 1 1 1 1 1 1 1 1 1 1 1 1 1 1 1 1 1 1 1 1 1 1 1 1 1 1 1 1 1 1 1 1 1 1 1 1 1 1 1 1 1 1 1 1 1 1 1 1 1 1 1 1 1 1 1 1 1 1 1 1 1 1 1 1 1 1 1 1 1 1 1 1 1 1 1 1 1 1 1 1 1 1 1 1 1 1 1 1 1 1 1 1 1 1 1 1 1 1 1 1 1 1 1 1 1 1 1 1 1 1 1 1 1 1 1 1 1 1 1 1 1 1 1 1 1 1 1 1 1 1 1 1 1 1 1 1 1 1 1 1 1 1 1 1 1 1 1 1 1 1 1 1 1 1 1 1 1 1 1 1 1 1 1 1 1 1 1 1 1 1 1 1 1 1 1 1 1 1 1 1 1 1 1 1 1 1 1 1 1 1 1 1 1 1 1 1 1 1 1 1 1 1 1 1 1 1 1 1 1 1 1 1 1 1 1 1 1 1 1 1 1 1 1 1 1 1 1 1 1 1 1 1 1 1 1 1 1 1 1 1 1 1 1 1 1 1 1 1 1 1 1 1 1 1 1 1 1 1 1 1 1 1 1 1 1 1 1 1 1 1 1 1 1 1 1 1 1 1 1 1 1 1 1 1 1 1 1 1 1 1 1 1 1 1 1 1 1 1 1 1 1 1 1 1 1 1 1 1 1 1 1 1 1 1 1 1 1 1 1 1 1 1 1 1 1 1 1 1 1 1 1 1 1 1 1 1 1 1 1 1 1 1 1 1 1 1 1 1 1 1 1 1 1 1 1 1 1 1 1 1 1 1 1 1 1 1 1 1 1 1 1 1 1 1 1 1 1 1 1 1 1 1 1 1 1 1 1 1 1 1 1 1 1 1 1 1 1 1 1 1 1 1 1 1 1 1 1 1 1 1 1 1 1 1 1 1 1 1 1 1 1 1 1 1 1 1 1 1 1 1 1 1 1 1 1 1 1 1 1 1 1 1 1 1 1 1 1 1 1 1 1 1 1 1 1 1 1 1 1 1 1 1 1 1 1 1 1 1 1 1 1 1 1 1 1 1 1 1 1 1 1 1 1 1 1 1 1 1 1 1 1 1 1 1 1 1 1 1 1 1 1 1 1 1 1 1 1 1 1 1 1 1 1 1 1 1 1 1 1 1 1 1 1 1 1 1 1 1 1 1 1 1 1 1 1 1 1 1 1 1 1 1 1 1 1 1 1 1 1 1 1 1 1 1 1 1 1 1 1 1 1 1 1 1 1 1 1 1 1 1 1 1 1 1 1 1 1 1 1 1 1 1 1 1 1 1 1 1 1 1 1 1 1 1 1 1 1 1 1 1 1 1 1 1 1 1 1 1 1 1 1 1 1 1 1 1 1 1 1 1 1 1 1 1 1 1 1 1 1 1 1 1 1 1 1 1 1 1 1 1 1 1 1 1 1 1 1 1 1 1 1 1 1 1 1 1 1 1 1 1 1 1 1 1 1 1 1 1 1 1 1 1 1 1 1 1 1 1 1 1 1 1 1 1 1 1 1 1 1 1 1 1 1 1 1 1 1 1 1 1 1 1 1 1 1 1 1 1 1 1 1 1 1 1 1 1 1 1 1 1 1 1 1 1 1 1 1 1 1 1 1 1 1 1 1 1 1 1 1 1 1 1 1 1 1 1 1 1 1 1 1 1 1 1 1 1 1 1 1 1 1 1 1 1 1 1 1 1 1 1 1 1 1 1 1 1 1 1 1 1 1 1 1 1 1 1 1 1 1 1 1 1 1 1 1 1 1 1 1 1 1 1 1 1 1 1 1 1 1 1 1 1 1 1 1 1 1 1 1 1 1 1 1 1 1 1 1 1 1 1 1 1 1 1 1 1 1 1 1 1 1 1 1 1 1 1 1 1 1 1 1 1 1 1 1 1 1 1 1 1 1 1 1 1 1 1 1 1 1 1 1 1 1 1 1 1 1 1 1 1 1 1 1 1 1 1 1 1 1 1 1 1 1 1 1 1 1 1 1 1 1 1 1 1 1 1 1 1 1 1 1 1 1 1 1 1 1 1 1 1 1 1 1 1 1 1 1 1 1 1 1 1 1 1 1 1 1 1 1 1 1 1 1 1 1 1 1 1 1 1 1 1 1 1 1 1 1 1 1 1 1 1 1 1 1 1 1 1 1 1 1 1 1 1 1 1 1 1 1 1 1 1 1 1 1 1 1 1 1 1 1 1 1 1 1 1 1 1 1 1 1 1 1 1 1 1 1 1 1 1 1 1 1 1 1 1 1 1 1 1 1 1 1 1 1 1 1 1 1 1 1 1 1 1 1 1 1 1 1 1 1 1 1 1 1 1 1 1 1 1 1 1 1 1 1 1 1 1 1 1 1 1 1 1 1 1 1 1 1 1 1 1 1 1 1 1 1 1 1 1 1 1 1 1 1 1 1 1 1 1 1 1 1 1 1 1 1 1 1 1 1 1 1 1 1 1 1 1 1 1 1 1 1 1 1 1 1 1 1 1 1 1 1 1 1 1 1 1 1 1 1 1 1 1 1 1 1 1 1 1 1 1 1 1 1 1 1 1 1 1 1 1 1 1 1 1 1 1 1 1 1 1 1 1 1 1 1 1 1 1 1 1 1 1 1 1 1 1 1 1 1 1 1 1 1 1 1 1 1 1 1 1 1 1 1 1 1 1 1 1 1 1 1 1 1 1</float_array>
          <technique_common>
            <accessor source="#ColorSrc_id-array" count="344" stride="4">
              <param name="R" type="float"/>
              <param name="G" type="float"/>
              <param name="B" type="float"/>
              <param name="A" type="float"/>
            </accessor>
          </technique_common>
        </source>
        <source id="Tex1Src_id" name="Tex1Src">
          <float_array id="Tex1Src_id-array" count="2280">0.423419 0.497615 0.443357 0.497615 0.442128 0.801614 0.443357 0.497615 0.466308 0.801614 0.442128 0.801614 0.392871 0.497615 0.423419 0.497615 0.405083 0.801614 0.423419 0.497615 0.442128 0.801614 0.405083 0.801614 0.355399 0.497615 0.392871 0.497615 0.35964 0.801614 0.392871 0.497615 0.405083 0.801614 0.35964 0.801614 0.315521 0.497615 0.355399 0.497615 0.31128 0.801614 0.355399 0.497615 0.35964 0.801614 0.31128 0.801614 0.278049 0.497615 0.315521 0.497615 0.265837 0.801614 0.315521 0.497615 0.31128 0.801614 0.265837 0.801614 0.247501 0.497615 0.278049 0.497615 0.22879 0.801614 0.278049 0.497615 0.265837 0.801614 0.22879 0.801614 0.227561 0.497615 0.247501 0.497615 0.204611 0.801614 0.247501 0.497615 0.22879 0.801614 0.204611 0.801614 0.327665 0.497615 0.227561 0.497615 0.303242 0.801614 0.227561 0.497615 0.204611 0.801614 0.303242 0.801614 0.288308 0.497615 0.327665 0.497615 0.265358 0.801614 0.327665 0.497615 0.303242 0.801614 0.265358 0.801614 0.247501 0.497615 0.288308 0.497615 0.22879 0.801614 0.288308 0.497615 0.265358 0.801614 0.22879 0.801614 0.278049 0.497615 0.247501 0.497615 0.265837 0.801614 0.247501 0.497615 0.22879 0.801614 0.265837 0.801614 0.315521 0.497615 0.278049 0.497615 0.31128 0.801614 0.278049 0.497615 0.265837 0.801614 0.31128 0.801614 0.355399 0.497615 0.315521 0.497615 0.35964 0.801614 0.315521 0.497615 0.31128 0.801614 0.35964 0.801614 0.392871 0.497615 0.355399 0.497615 0.405083 0.801614 0.355399 0.497615 0.35964 0.801614 0.405083 0.801614 0.423419 0.497615 0.392871 0.497615 0.442128 0.801614 0.392871 0.497615 0.405083 0.801614 0.442128 0.801614 0.443357 0.497615 0.423419 0.497615 0.466308 0.801614 0.423419 0.497615 0.442128 0.801614 0.466308 0.801614 0.364947 0.514971 0.443357 0.497615 0.389371 0.81897 0.443357 0.497615 0.466308 0.801614 0.389371 0.81897 0.443357 0.497615 0.364947 0.514971 0.466308 0.801614 0.364947 0.514971 0.389371 0.81897 0.466308 0.801614 0.446781 0.658292 0.440067 0.620218 0.440067 0.696366 0.440067 0.620218 0.420738 0.586736 0.440067 0.696366 0.440067 0.696366 0.420738 0.586736 0.420738 0.729848 0.420738 0.586736 0.391122 0.561885 0.420738 0.729848 0.420738 0.729848 0.391122 0.561885 0.391122 0.754699 0.391122 0.561885 0.354792 0.548662 0.391122 0.754699 0.391122 0.754699 0.354792 0.548662 0.354792 0.767922 0.354792 0.548662 0.31613 0.548662 0.354792 0.767922 0.354792 0.767922 0.31613 0.548662 0.31613 0.767922 0.31613 0.548662 0.2798 0.561885 0.31613 0.767922 0.31613 0.767922 0.2798 0.561885 0.2798 0.754699 0.2798 0.561885 0.250184 0.586736 0.2798 0.754699 0.2798 0.754699 0.250184 0.586736 0.250184 0.729848 0.250184 0.586736 0.230852 0.620218 0.250184 0.729848 0.250184 0.729848 0.230852 0.620218 0.230852 0.696366 0.230852 0.620218 0.224138 0.658292 0.230852 0.696366 0.45851 0.658292 0.451091 0.616206 0.47046 0.658292 0.451091 0.616206 0.462319 0.612119 0.47046 0.658292 0.451091 0.700378 0.45851 0.658292 0.462319 0.704465 0.45851 0.658292 0.47046 0.658292 0.462319 0.704465 0.429722 0.737387 0.451091 0.700378 0.438876 0.745069 0.451091 0.700378 0.462319 0.704465 0.438876 0.745069 0.396986 0.764857 0.429722 0.737387 0.402961 0.775206 0.429722 0.737387 0.438876 0.745069 0.402961 0.775206 0.356829 0.779473 0.396986 0.764857 0.358903 0.791242 0.396986 0.764857 0.402961 0.775206 0.358903 0.791242 0.314093 0.779473 0.356829 0.779473 0.312018 0.791242 0.356829 0.779473 0.358903 0.791242 0.312018 0.791242 0.273936 0.764857 0.314093 0.779473 0.267961 0.775206 0.314093 0.779473 0.312018 0.791242 0.267961 0.775206 0.241198 0.737387 0.273936 0.764857 0.232044 0.745069 0.273936 0.764857 0.267961 0.775206 0.232044 0.745069 0.219831 0.700378 0.241198 0.737387 0.208602 0.704465 0.241198 0.737387 0.232044 0.745069 0.208602 0.704465 0.21241 0.658292 0.219831 0.700378 0.20046 0.658292 0.219831 0.700378 0.208602 0.704465 0.20046 0.658292 0.219831 0.616206 0.21241 0.658292 0.208602 0.612119 0.21241 0.658292 0.20046 0.658292 0.208602 0.612119 0.241198 0.579197 0.219831 0.616206 0.232044 0.571516 0.219831 0.616206 0.208602 0.612119 0.232044 0.571516 0.273936 0.551727 0.241198 0.579197 0.267961 0.541378 0.241198 0.579197 0.232044 0.571516 0.267961 0.541378 0.314093 0.537111 0.273936 0.551727 0.312018 0.525343 0.273936 0.551727 0.267961 0.541378 0.312018 0.525343 0.356829 0.537111 0.314093 0.537111 0.358903 0.525343 0.314093 0.537111 0.312018 0.525343 0.358903 0.525343 0.396986 0.551727 0.356829 0.537111 0.402961 0.541378 0.356829 0.537111 0.358903 0.525343 0.402961 0.541378 0.429722 0.579197 0.396986 0.551727 0.438876 0.571516 0.396986 0.551727 0.402961 0.541378 0.438876 0.571516 0.451091 0.616206 0.429722 0.579197 0.462319 0.612119 0.429722 0.579197 0.438876 0.571516 0.462319 0.612119 0.423907 0.584076 0.443958 0.618803 0.39319 0.558301 0.443958 0.618803 0.450921 0.658292 0.39319 0.558301 0.39319 0.558301 0.450921 0.658292 0.355509 0.544586 0.450921 0.658292 0.443958 0.697782 0.355509 0.544586 0.355509 0.544586 0.443958 0.697782 0.315411 0.544586 0.443958 0.697782 0.423907 0.732508 0.315411 0.544586 0.315411 0.544586 0.423907 0.732508 0.277729 0.558301 0.423907 0.732508 0.39319 0.758283 0.277729 0.558301 0.277729 0.558301 0.39319 0.758283 0.247013 0.584076 0.39319 0.758283 0.355509 0.771998 0.247013 0.584076 0.247013 0.584076 0.355509 0.771998 0.226964 0.618803 0.355509 0.771998 0.315411 0.771998 0.226964 0.618803 0.226964 0.618803 0.315411 0.771998 0.220001 0.658292 0.315411 0.771998 0.277729 0.758283 0.220001 0.658292 0.220001 0.658292 0.277729 0.758283 0.226964 0.697782 0.277729 0.758283 0.247013 0.732508 0.226964 0.697782 0.447369 0.668781 0.454726 0.801614 0.454551 0.668781 0.454726 0.801614 0.462379 0.801614 0.454551 0.668781 0.426688 0.668781 0.432686 0.801614 0.447369 0.668781 0.432686 0.801614 0.454726 0.801614 0.447369 0.668781 0.454551 0.668781 0.462379 0.801614 0.447369 0.668781 0.462379 0.801614 0.454726 0.801614 0.447369 0.668781 0.447369 0.668781 0.454726 0.801614 0.426688 0.668781 0.454726 0.801614 0.432686 0.801614 0.426688 0.668781 0.426688 0.668781 0.432686 0.801614 0.395005 0.668781 0.432686 0.801614 0.39892 0.801614 0.395005 0.668781 0.395005 0.668781 0.39892 0.801614 0.356138 0.668781 0.39892 0.801614 0.3575 0.801614 0.356138 0.668781 0.356138 0.668781 0.3575 0.801614 0.314779 0.668781 0.3575 0.801614 0.31342 0.801614 0.314779 0.668781 0.314779 0.668781 0.31342 0.801614 0.275913 0.668781 0.31342 0.801614 0.272 0.801614 0.275913 0.668781 0.275913 0.668781 0.272 0.801614 0.24423 0.668781 0.272 0.801614 0.238232 0.801614 0.24423 0.668781 0.24423 0.668781 0.238232 0.801614 0.22355 0.668781 0.238232 0.801614 0.216193 0.801614 0.22355 0.668781 0.22355 0.668781 0.216193 0.801614 0.216369 0.668781 0.216193 0.801614 0.208539 0.801614 0.216369 0.668781 0.216369 0.668781 0.208539 0.801614 0.22355 0.668781 0.208539 0.801614 0.216193 0.801614 0.22355 0.668781 0.22355 0.668781 0.216193 0.801614 0.24423 0.668781 0.216193 0.801614 0.238232 0.801614 0.24423 0.668781 0.24423 0.668781 0.238232 0.801614 0.275913 0.668781 0.238232 0.801614 0.272 0.801614 0.275913 0.668781 0.275913 0.668781 0.272 0.801614 0.314779 0.668781 0.272 0.801614 0.31342 0.801614 0.314779 0.668781 0.314779 0.668781 0.31342 0.801614 0.356138 0.668781 0.31342 0.801614 0.3575 0.801614 0.356138 0.668781 0.356138 0.668781 0.3575 0.801614 0.395005 0.668781 0.3575 0.801614 0.39892 0.801614 0.395005 0.668781 0.395005 0.668781 0.39892 0.801614 0.426688 0.668781 0.39892 0.801614 0.432686 0.801614 0.426688 0.668781 0.845184 0.075427 0.867721 0.082575 0.845184 0.437483 0.867721 0.082575 0.886523 0.44463 0.845184 0.437483 0.81262 0.07146 0.845184 0.075427 0.81262 0.433513 0.845184 0.075427 0.845184 0.437483 0.81262 0.433513 0.776479 0.07146 0.81262 0.07146 0.776479 0.433513 0.81262 0.07146 0.81262 0.433513 0.776479 0.433513 0.743915 0.075427 0.776479 0.07146 0.743915 0.437483 0.776479 0.07146 0.776479 0.433513 0.743915 0.437483 0.721382 0.082575 0.743915 0.075427 0.721382 0.44463 0.743915 0.075427 0.743915 0.437483 0.721382 0.44463 0.713336 0.091488 0.721382 0.082575 0.713336 0.453544 0.721382 0.082575 0.721382 0.44463 0.713336 0.453544 0.721382 0.100401 0.713336 0.091488 0.721382 0.462458 0.713336 0.091488 0.713336 0.453544 0.721382 0.462458 0.743915 0.107549 0.721382 0.100401 0.743915 0.469604 0.721382 0.100401 0.721382 0.462458 0.743915 0.469604 0.776479 0.111517 0.743915 0.107549 0.776479 0.473569 0.743915 0.107549 0.743915 0.469604 0.776479 0.473569 0.81262 0.111517 0.776479 0.111517 0.81262 0.473569 0.776479 0.111517 0.776479 0.473569 0.81262 0.473569 0.845184 0.107549 0.81262 0.111517 0.845184 0.469604 0.81262 0.111517 0.81262 0.473569 0.845184 0.469604 0.867721 0.100401 0.845184 0.107549 0.867721 0.462458 0.845184 0.107549 0.845184 0.469604 0.867721 0.462458 0.888438 0.116935 0.924911 0.117568 0.879986 0.449511 0.924911 0.117568 0.91646 0.450145 0.879986 0.449511 0.851964 0.116303 0.888438 0.116935 0.843512 0.448878 0.888438 0.116935 0.879986 0.449511 0.843512 0.448878 0.394753 0.265682 0.383455 0.294207 0.351348 0.242814 0.383455 0.294207 0.375011 0.322733 0.351348 0.242814 0.351348 0.242814 0.375011 0.322733 0.317155 0.230125 0.375011 0.322733 0.351348 0.3456 0.317155 0.230125 0.317155 0.230125 0.351348 0.3456 0.279207 0.230125 0.351348 0.3456 0.317155 0.358305 0.279207 0.230125 0.279207 0.230125 0.317155 0.358305 0.245015 0.242814 0.317155 0.358305 0.279207 0.358305 0.245015 0.242814 0.245015 0.242814 0.279207 0.358305 0.221356 0.265682 0.279207 0.358305 0.245015 0.3456 0.221356 0.265682 0.221356 0.265682 0.245015 0.3456 0.212908 0.294207 0.245015 0.3456 0.221356 0.322733 0.212908 0.294207 0.875763 0.091488 0.867721 0.082575 0.867721 0.100401 0.867721 0.082575 0.845184 0.075427 0.867721 0.100401 0.867721 0.100401 0.845184 0.075427 0.845184 0.107549 0.845184 0.075427 0.81262 0.07146 0.845184 0.107549 0.845184 0.107549 0.81262 0.07146 0.81262 0.111517 0.81262 0.07146 0.776479 0.07146 0.81262 0.111517 0.81262 0.111517 0.776479 0.07146 0.776479 0.111517 0.776479 0.07146 0.743915 0.075427 0.776479 0.111517 0.776479 0.111517 0.743915 0.075427 0.743915 0.107549 0.743915 0.075427 0.721382 0.082575 0.743915 0.107549 0.743915 0.107549 0.721382 0.082575 0.721382 0.100401 0.721382 0.082575 0.713336 0.091488 0.721382 0.100401 0.845184 0.700487 0.845184 0.437483 0.886523 0.707633 0.845184 0.437483 0.886523 0.44463 0.886523 0.707633 0.837374 0.690467 0.843512 0.448878 0.873846 0.6911 0.843512 0.448878 0.879986 0.449511 0.873846 0.6911 0.81262 0.696522 0.81262 0.433513 0.845184 0.700487 0.81262 0.433513 0.845184 0.437483 0.845184 0.700487 0.776479 0.696522 0.776479 0.433513 0.81262 0.696522 0.776479 0.433513 0.81262 0.433513 0.81262 0.696522 0.743915 0.700487 0.743915 0.437483 0.776479 0.696522 0.743915 0.437483 0.776479 0.433513 0.776479 0.696522 0.721382 0.707633 0.721382 0.44463 0.743915 0.700487 0.721382 0.44463 0.743915 0.437483 0.743915 0.700487 0.713336 0.716547 0.713336 0.453544 0.721382 0.707633 0.713336 0.453544 0.721382 0.44463 0.721382 0.707633 0.721382 0.725462 0.721382 0.462458 0.713336 0.716547 0.721382 0.462458 0.713336 0.453544 0.713336 0.716547 0.743915 0.732608 0.743915 0.469604 0.721382 0.725462 0.743915 0.469604 0.721382 0.462458 0.721382 0.725462 0.776479 0.736578 0.776479 0.473569 0.743915 0.732608 0.776479 0.473569 0.743915 0.469604 0.743915 0.732608 0.81262 0.736578 0.81262 0.473569 0.776479 0.736578 0.81262 0.473569 0.776479 0.473569 0.776479 0.736578 0.845184 0.732608 0.845184 0.469604 0.81262 0.736578 0.845184 0.469604 0.81262 0.473569 0.81262 0.736578 0.867721 0.725462 0.867721 0.462458 0.845184 0.732608 0.867721 0.462458 0.845184 0.469604 0.845184 0.732608 0.873846 0.6911 0.879986 0.449511 0.91032 0.691733 0.879986 0.449511 0.91646 0.450145 0.91032 0.691733 0.862733 0.062132 0.894339 0.060669 0.871499 0.482377 0.894339 0.060669 0.903103 0.48091 0.871499 0.482377 0.817037 0.063321 0.862733 0.062132 0.825804 0.483568 0.862733 0.062132 0.871499 0.482377 0.825804 0.483568 0.766307 0.063995 0.817037 0.063321 0.775074 0.484241 0.817037 0.063321 0.825804 0.483568 0.775074 0.484241 0.72059 0.064023 0.766307 0.063995 0.729356 0.484268 0.766307 0.063995 0.775074 0.484241 0.729356 0.484268 0.68894 0.063398 0.72059 0.064023 0.697708 0.483645 0.72059 0.064023 0.729356 0.484268 0.697708 0.483645 0.677622 0.062246 0.68894 0.063398 0.738289 0.482492 0.68894 0.063398 0.697708 0.483645 0.738289 0.482492 0.688886 0.060791 0.677622 0.062246 0.697652 0.481035 0.677622 0.062246 0.738289 0.482492 0.697652 0.481035 0.720492 0.059326 0.688886 0.060791 0.729259 0.479572 0.688886 0.060791 0.697652 0.481035 0.729259 0.479572 0.766187 0.058137 0.720492 0.059326 0.774953 0.478381 0.720492 0.059326 0.729259 0.479572 0.774953 0.478381 0.816917 0.057462 0.766187 0.058137 0.825684 0.477708 0.766187 0.058137 0.774953 0.478381 0.825684 0.477708 0.862634 0.057435 0.816917 0.057462 0.871401 0.477682 0.816917 0.057462 0.825684 0.477708 0.871401 0.477682 0.894283 0.058059 0.862634 0.057435 0.903049 0.478304 0.862634 0.057435 0.871401 0.477682 0.903049 0.478304 0.841557 0.070912 0.897417 0.066337 0.862665 0.473724 0.897417 0.066337 0.918525 0.469149 0.862665 0.473724 0.785697 0.068839 0.841557 0.070912 0.806805 0.471647 0.841557 0.070912 0.862665 0.473724 0.806805 0.471647 0.373625 0.259895 0.381966 0.289688 0.351129 0.236003 0.381966 0.289688 0.374505 0.319481 0.351129 0.236003 0.351129 0.236003 0.374505 0.319481 0.318932 0.222744 0.374505 0.319481 0.352714 0.343373 0.318932 0.222744 0.318932 0.222744 0.352714 0.343373 0.283415 0.222744 0.352714 0.343373 0.320911 0.356632 0.283415 0.222744 0.283415 0.222744 0.320911 0.356632 0.251612 0.236003 0.320911 0.356632 0.285393 0.356632 0.251612 0.236003 0.251612 0.236003 0.285393 0.356632 0.229821 0.259895 0.285393 0.356632 0.253196 0.343373 0.229821 0.259895 0.229821 0.259895 0.253196 0.343373 0.222355 0.289688 0.253196 0.343373 0.230696 0.319481 0.222355 0.289688 0.840205 -0.51002 0.82985 -0.507969 0.829693 -0.51099 0.82985 -0.507969 0.800687 -0.505255 0.829693 -0.51099 0.829693 -0.51099 0.800687 -0.505255 0.800406 -0.510691 0.800687 -0.505255 0.758486 -0.502404 0.800406 -0.510691 0.800406 -0.510691 0.758486 -0.502404 0.758138 -0.509183 0.758486 -0.502404 0.711609 -0.499984 0.758138 -0.509183 0.758138 -0.509183 0.711609 -0.499984 0.711262 -0.506764 0.711609 -0.499984 0.669342 -0.498477 0.711262 -0.506764 0.711262 -0.506764 0.669342 -0.498477 0.669061 -0.503912 0.669342 -0.498477 0.640054 -0.498178 0.669061 -0.503912 0.669061 -0.503912 0.640054 -0.498178 0.639899 -0.501196 0.640054 -0.498178 0.629542 -0.499148 0.639899 -0.501196 0.877867 0.787653 0.871499 0.482377 0.909471 0.786186 0.871499 0.482377 0.903103 0.48091 0.909471 0.786186 0.822138 0.764259 0.806805 0.471647 0.877998 0.766337 0.806805 0.471647 0.862665 0.473724 0.877998 0.766337 0.83217 0.788839 0.825804 0.483568 0.877867 0.787653 0.825804 0.483568 0.871499 0.482377 0.877867 0.787653 0.781442 0.789517 0.775074 0.484241 0.83217 0.788839 0.775074 0.484241 0.825804 0.483568 0.83217 0.788839 0.735725 0.789543 0.729356 0.484268 0.781442 0.789517 0.729356 0.484268 0.775074 0.484241 0.781442 0.789517 0.704074 0.788916 0.697708 0.483645 0.735725 0.789543 0.697708 0.483645 0.729356 0.484268 0.735725 0.789543 0.744657 0.787767 0.738289 0.482492 0.704074 0.788916 0.738289 0.482492 0.697708 0.483645 0.704074 0.788916 0.704015 0.786312 0.697652 0.481035 0.744657 0.787767 0.697652 0.481035 0.738289 0.482492 0.744657 0.787767 0.735627 0.784848 0.729259 0.479572 0.704015 0.786312 0.729259 0.479572 0.697652 0.481035 0.704015 0.786312 0.781322 0.783657 0.774953 0.478381 0.735627 0.784848 0.774953 0.478381 0.729259 0.479572 0.735627 0.784848 0.832052 0.782984 0.825684 0.477708 0.781322 0.783657 0.825684 0.477708 0.774953 0.478381 0.781322 0.783657 0.87777 0.782957 0.871401 0.477682 0.832052 0.782984 0.871401 0.477682 0.825684 0.477708 0.832052 0.782984 0.909418 0.78358 0.903049 0.478304 0.87777 0.782957 0.903049 0.478304 0.871401 0.477682 0.87777 0.782957 0.877998 0.766337 0.862665 0.473724 0.933858 0.761762 0.862665 0.473724 0.918525 0.469149 0.933858 0.761762 0.71341 0.07997 0.742616 0.081712 0.696806 0.464446 0.742616 0.081712 0.72601 0.466192 0.696806 0.464446 0.742616 0.081712 0.784861 0.083383 0.72601 0.466192 0.784861 0.083383 0.768253 0.467865 0.72601 0.466192 0.784861 0.083383 0.831772 0.084647 0.768253 0.467865 0.831772 0.084647 0.815166 0.469128 0.768253 0.467865 0.831772 0.084647 0.87406 0.085256 0.815166 0.469128 0.87406 0.085256 0.857454 0.469736 0.815166 0.469128 0.87406 0.085256 0.903349 0.085088 0.857454 0.469736 0.903349 0.085088 0.886741 0.46957 0.857454 0.469736 0.903349 0.085088 0.913842 0.084177 0.886741 0.46957 0.913842 0.084177 0.897235 0.468659 0.886741 0.46957 0.913842 0.084177 0.903451 0.082702 0.897235 0.468659 0.903451 0.082702 0.886845 0.467181 0.897235 0.468659 0.903451 0.082702 0.874246 0.080958 0.886845 0.467181 0.874246 0.080958 0.857639 0.46544 0.886845 0.467181 0.874246 0.080958 0.832001 0.079287 0.857639 0.46544 0.832001 0.079287 0.815395 0.463767 0.857639 0.46544 0.832001 0.079287 0.78509 0.078023 0.815395 0.463767 0.78509 0.078023 0.768483 0.462504 0.815395 0.463767 0.78509 0.078023 0.742802 0.077415 0.768483 0.462504 0.742802 0.077415 0.726195 0.461896 0.768483 0.462504 0.742802 0.077415 0.713514 0.077582 0.726195 0.461896 0.713514 0.077582 0.696908 0.462062 0.726195 0.461896 0.713514 0.077582 0.70302 0.078493 0.696908 0.462062 0.70302 0.078493 0.686414 0.462974 0.696908 0.462062 0.70302 0.078493 0.71341 0.07997 0.686414 0.462974 0.71341 0.07997 0.696806 0.464446 0.686414 0.462974 0.218488 0.287574 0.227451 0.255971 0.226506 0.319178 0.227451 0.255971 0.251607 0.230627 0.226506 0.319178 0.226506 0.319178 0.251607 0.230627 0.249906 0.344522 0.251607 0.230627 0.286183 0.216562 0.249906 0.344522 0.249906 0.344522 0.286183 0.216562 0.284058 0.358587 0.286183 0.216562 0.324323 0.216562 0.284058 0.358587 0.284058 0.358587 0.324323 0.216562 0.322199 0.358587 0.324323 0.216562 0.358475 0.230627 0.322199 0.358587 0.322199 0.358587 0.358475 0.230627 0.356774 0.344522 0.358475 0.230627 0.381877 0.255971 0.356774 0.344522 0.356774 0.344522 0.381877 0.255971 0.380933 0.319178 0.381877 0.255971 0.389892 0.287574 0.380933 0.319178 0.71341 0.07997 0.70302 0.078493 0.742616 0.081712 0.70302 0.078493 0.713514 0.077582 0.742616 0.081712 0.742616 0.081712 0.713514 0.077582 0.784861 0.083383 0.713514 0.077582 0.742802 0.077415 0.784861 0.083383 0.784861 0.083383 0.742802 0.077415 0.831772 0.084647 0.742802 0.077415 0.78509 0.078023 0.831772 0.084647 0.831772 0.084647 0.78509 0.078023 0.87406 0.085256 0.78509 0.078023 0.832001 0.079287 0.87406 0.085256 0.87406 0.085256 0.832001 0.079287 0.903349 0.085088 0.832001 0.079287 0.874246 0.080958 0.903349 0.085088 0.903349 0.085088 0.874246 0.080958 0.913842 0.084177 0.874246 0.080958 0.903451 0.082702 0.913842 0.084177 0.72601 0.466192 0.713946 0.745488 0.696806 0.464446 0.713946 0.745488 0.684742 0.743742 0.696806 0.464446 0.696806 0.464446 0.684742 0.743742 0.686414 0.462974 0.684742 0.743742 0.67435 0.742269 0.686414 0.462974 0.768253 0.467865 0.756192 0.747157 0.72601 0.466192 0.756192 0.747157 0.713946 0.745488 0.72601 0.466192 0.815166 0.469128 0.803102 0.748424 0.768253 0.467865 0.803102 0.748424 0.756192 0.747157 0.768253 0.467865 0.857454 0.469736 0.84539 0.749031 0.815166 0.469128 0.84539 0.749031 0.803102 0.748424 0.815166 0.469128 0.886741 0.46957 0.874682 0.748862 0.857454 0.469736 0.874682 0.748862 0.84539 0.749031 0.857454 0.469736 0.864192 0.333112 0.875905 0.569717 0.821523 0.336812 0.875905 0.569717 0.833235 0.573412 0.821523 0.336812 0.906862 0.334788 0.918575 0.571393 0.864192 0.333112 0.918575 0.571393 0.875905 0.569717 0.864192 0.333112 0.857639 0.46544 0.845575 0.744735 0.886845 0.467181 0.845575 0.744735 0.874784 0.746478 0.886845 0.467181 0.815395 0.463767 0.803332 0.743062 0.857639 0.46544 0.803332 0.743062 0.845575 0.744735 0.857639 0.46544 0.768483 0.462504 0.75642 0.741799 0.815395 0.463767 0.75642 0.741799 0.803332 0.743062 0.815395 0.463767 0.726195 0.461896 0.714131 0.741192 0.768483 0.462504 0.714131 0.741192 0.75642 0.741799 0.768483 0.462504 0.696908 0.462062 0.684844 0.741358 0.726195 0.461896 0.684844 0.741358 0.714131 0.741192 0.726195 0.461896 0.686414 0.462974 0.67435 0.742269 0.696908 0.462062 0.67435 0.742269 0.684844 0.741358 0.696908 0.462062</float_array>
          <technique_common>
            <accessor source="#Tex1Src_id-array" count="1140" stride="2">
              <param name="S" type="float"/>
              <param name="T" type="float"/>
            </accessor>
          </technique_common>
        </source>
        <source id="Tex2Src_id" name="Tex2Src">
          <float_array id="Tex2Src_id-array" count="2280">0 1 0 1 0 1 0 1 0 1 0 1 0 1 0 1 0 1 0 1 0 1 0 1 0 1 0 1 0 1 0 1 0 1 0 1 0 1 0 1 0 1 0 1 0 1 0 1 0 1 0 1 0 1 0 1 0 1 0 1 0 1 0 1 0 1 0 1 0 1 0 1 0 1 0 1 0 1 0 1 0 1 0 1 0 1 0 1 0 1 0 1 0 1 0 1 0 1 0 1 0 1 0 1 0 1 0 1 0 1 0 1 0 1 0 1 0 1 0 1 0 1 0 1 0 1 0 1 0 1 0 1 0 1 0 1 0 1 0 1 0 1 0 1 0 1 0 1 0 1 0 1 0 1 0 1 0 1 0 1 0 1 0 1 0 1 0 1 0 1 0 1 0 1 0 1 0 1 0 1 0 1 0 1 0 1 0 1 0 1 0 1 0 1 0 1 0 1 0 1 0 1 0 1 0 1 0 1 0 1 0 1 0 1 0 1 0 1 0 1 0 1 0 1 0 1 0 1 0 1 0 1 0 1 0 1 0 1 0 1 0 1 0 1 0 1 0 1 0 1 0 1 0 1 0 1 0 1 0 1 0 1 0 1 0 1 0 1 0 1 0 1 0 1 0 1 0 1 0 1 0 1 0 1 0 1 0 1 0 1 0 1 0 1 0 1 0 1 0 1 0 1 0 1 0 1 0 1 0 1 0 1 0 1 0 1 0 1 0 1 0 1 0 1 0 1 0 1 0 1 0 1 0 1 0 1 0 1 0 1 0 1 0 1 0 1 0 1 0 1 0 1 0 1 0 1 0 1 0 1 0 1 0 1 0 1 0 1 0 1 0 1 0 1 0 1 0 1 0 1 0 1 0 1 0 1 0 1 0 1 0 1 0 1 0 1 0 1 0 1 0 1 0 1 0 1 0 1 0 1 0 1 0 1 0 1 0 1 0 1 0 1 0 1 0 1 0 1 0 1 0 1 0 1 0 1 0 1 0 1 0 1 0 1 0 1 0 1 0 1 0 1 0 1 0 1 0 1 0 1 0 1 0 1 0 1 0 1 0 1 0 1 0 1 0 1 0 1 0 1 0 1 0 1 0 1 0 1 0 1 0 1 0 1 0 1 0 1 0 1 0 1 0 1 0 1 0 1 0 1 0 1 0 1 0 1 0 1 0 1 0 1 0 1 0 1 0 1 0 1 0 1 0 1 0 1 0 1 0 1 0 1 0 1 0 1 0 1 0 1 0 1 0 1 0 1 0 1 0 1 0 1 0 1 0 1 0 1 0 1 0 1 0 1 0 1 0 1 0 1 0 1 0 1 0 1 0 1 0 1 0 1 0 1 0 1 0 1 0 1 0 1 0 1 0 1 0 1 0 1 0 1 0 1 0 1 0 1 0 1 0 1 0 1 0 1 0 1 0 1 0 1 0 1 0 1 0 1 0 1 0 1 0 1 0 1 0 1 0 1 0 1 0 1 0 1 0 1 0 1 0 1 0 1 0 1 0 1 0 1 0 1 0 1 0 1 0 1 0 1 0 1 0 1 0 1 0 1 0 1 0 1 0 1 0 1 0 1 0 1 0 1 0 1 0 1 0 1 0 1 0 1 0 1 0 1 0 1 0 1 0 1 0 1 0 1 0 1 0 1 0 1 0 1 0 1 0 1 0 1 0 1 0 1 0 1 0 1 0 1 0 1 0 1 0 1 0 1 0 1 0 1 0 1 0 1 0 1 0 1 0 1 0 1 0 1 0 1 0 1 0 1 0 1 0 1 0 1 0 1 0 1 0 1 0 1 0 1 0 1 0 1 0 1 0 1 0 1 0 1 0 1 0 1 0 1 0 1 0 1 0 1 0 1 0 1 0 1 0 1 0 1 0 1 0 1 0 1 0 1 0 1 0 1 0 1 0 1 0 1 0 1 0 1 0 1 0 1 0 1 0 1 0 1 0 1 0 1 0 1 0 1 0 1 0 1 0 1 0 1 0 1 0 1 0 1 0 1 0 1 0 1 0 1 0 1 0 1 0 1 0 1 0 1 0 1 0 1 0 1 0 1 0 1 0 1 0 1 0 1 0 1 0 1 0 1 0 1 0 1 0 1 0 1 0 1 0 1 0 1 0 1 0 1 0 1 0 1 0 1 0 1 0 1 0 1 0 1 0 1 0 1 0 1 0 1 0 1 0 1 0 1 0 1 0 1 0 1 0 1 0 1 0 1 0 1 0 1 0 1 0 1 0 1 0 1 0 1 0 1 0 1 0 1 0 1 0 1 0 1 0 1 0 1 0 1 0 1 0 1 0 1 0 1 0 1 0 1 0 1 0 1 0 1 0 1 0 1 0 1 0 1 0 1 0 1 0 1 0 1 0 1 0 1 0 1 0 1 0 1 0 1 0 1 0 1 0 1 0 1 0 1 0 1 0 1 0 1 0 1 0 1 0 1 0 1 0 1 0 1 0 1 0 1 0 1 0 1 0 1 0 1 0 1 0 1 0 1 0 1 0 1 0 1 0 1 0 1 0 1 0 1 0 1 0 1 0 1 0 1 0 1 0 1 0 1 0 1 0 1 0 1 0 1 0 1 0 1 0 1 0 1 0 1 0 1 0 1 0 1 0 1 0 1 0 1 0 1 0 1 0 1 0 1 0 1 0 1 0 1 0 1 0 1 0 1 0 1 0 1 0 1 0 1 0 1 0 1 0 1 0 1 0 1 0 1 0 1 0 1 0 1 0 1 0 1 0 1 0 1 0 1 0 1 0 1 0 1 0 1 0 1 0 1 0 1 0 1 0 1 0 1 0 1 0 1 0 1 0 1 0 1 0 1 0 1 0 1 0 1 0 1 0 1 0 1 0 1 0 1 0 1 0 1 0 1 0 1 0 1 0 1 0 1 0 1 0 1 0 1 0 1 0 1 0 1 0 1 0 1 0 1 0 1 0 1 0 1 0 1 0 1 0 1 0 1 0 1 0 1 0 1 0 1 0 1 0 1 0 1 0 1 0 1 0 1 0 1 0 1 0 1 0 1 0 1 0 1 0 1 0 1 0 1 0 1 0 1 0 1 0 1 0 1 0 1 0 1 0 1 0 1 0 1 0 1 0 1 0 1 0 1 0 1 0 1 0 1 0 1 0 1 0 1 0 1 0 1 0 1 0 1 0 1 0 1 0 1 0 1 0 1 0 1 0 1 0 1 0 1 0 1 0 1 0 1 0 1 0 1 0 1 0 1 0 1 0 1 0 1 0 1 0 1 0 1 0 1 0 1 0 1 0 1 0 1 0 1 0 1 0 1 0 1 0 1 0 1 0 1 0 1 0 1 0 1 0 1 0 1 0 1 0 1 0 1 0 1 0 1 0 1 0 1 0 1 0 1 0 1 0 1 0 1 0 1 0 1 0 1 0 1 0 1 0 1 0 1 0 1 0 1 0 1 0 1 0 1 0 1 0 1 0 1 0 1 0 1 0 1 0 1 0 1 0 1 0 1 0 1 0 1 0 1 0 1 0 1 0 1 0 1 0 1 0 1 0 1 0 1 0 1 0 1 0 1 0 1 0 1 0 1 0 1 0 1 0 1 0 1 0 1 0 1 0 1 0 1 0 1 0 1 0 1 0 1 0 1 0 1 0 1 0 1 0 1 0 1 0 1 0 1 0 1 0 1 0 1 0 1 0 1 0 1 0 1 0 1 0 1 0 1 0 1 0 1 0 1 0 1 0 1 0 1 0 1 0 1 0 1 0 1 0 1 0 1 0 1 0 1 0 1 0 1 0 1 0 1 0 1 0 1 0 1 0 1 0 1 0 1 0 1 0 1 0 1 0 1 0 1 0 1 0 1 0 1 0 1 0 1 0 1 0 1 0 1 0 1 0 1 0 1 0 1 0 1 0 1 0 1 0 1 0 1 0 1 0 1 0 1 0 1 0 1 0 1 0 1 0 1 0 1 0 1 0 1 0 1 0 1 0 1 0 1 0 1 0 1 0 1 0 1 0 1 0 1 0 1 0 1 0 1 0 1 0 1 0 1 0 1 0 1 0 1 0 1 0 1 0 1 0 1 0 1 0 1 0 1 0 1 0 1 0 1 0 1 0 1 0 1 0 1 0 1 0 1 0 1 0 1 0 1 0 1 0 1 0 1 0 1 0 1 0 1 0 1 0 1 0 1 0 1 0 1 0 1 0 1 0 1 0 1 0 1 0 1 0 1 0 1 0 1 0 1 0 1 0 1 0 1 0 1 0 1 0 1 0 1 0 1 0 1 0 1 0 1 0 1 0 1 0 1 0 1 0 1 0 1 0 1 0 1 0 1 0 1 0 1 0 1 0 1 0 1 0 1 0 1 0 1 0 1 0 1 0 1 0 1 0 1 0 1 0 1 0 1 0 1 0 1 0 1 0 1 0 1 0 1 0 1 0 1 0 1 0 1 0 1 0 1 0 1 0 1 0 1 0 1 0 1 0 1 0 1 0 1 0 1 0 1 0 1 0 1 0 1 0 1 0 1 0 1 0 1 0 1 0 1 0 1 0 1 0 1 0 1 0 1 0 1 0 1 0 1 0 1 0 1 0 1 0 1 0 1 0 1 0 1 0 1 0 1 0 1 0 1 0 1 0 1 0 1 0 1 0 1 0 1 0 1 0 1 0 1 0 1 0 1 0 1 0 1 0 1 0 1 0 1 0 1 0 1 0 1 0 1 0 1 0 1 0 1 0 1 0 1 0 1 0 1 0 1 0 1 0 1 0 1 0 1 0 1 0 1 0 1 0 1 0 1 0 1 0 1 0 1 0 1 0 1 0 1 0 1 0 1 0 1 0 1 0 1 0 1 0 1 0 1 0 1 0 1 0 1 0 1 0 1 0 1 0 1 0 1 0 1 0 1 0 1 0 1 0 1 0 1 0 1 0 1 0 1 0 1 0 1 0 1 0 1 0 1 0 1 0 1 0 1 0 1 0 1 0 1 0 1 0 1 0 1 0 1 0 1 0 1 0 1 0 1 0 1 0 1 0 1 0 1 0 1 0 1 0 1 0 1 0 1 0 1 0 1 0 1 0 1 0 1 0 1 0 1 0 1 0 1 0 1 0 1 0 1 0 1 0 1 0 1 0 1 0 1 0 1 0 1 0 1 0 1</float_array>
          <technique_common>
            <accessor source="#Tex2Src_id-array" count="1140" stride="2">
              <param name="S" type="float"/>
              <param name="T" type="float"/>
            </accessor>
          </technique_common>
        </source>
        <vertices id="geomU3D_id-vertices">
          <input semantic="POSITION" source="#PositionSrc_id"/>
        </vertices>
        <triangles count="0">
          <input semantic="VERTEX" source="#geomU3D_id-vertices" offset="0"/>
          <input semantic="NORMAL" source="#NormalSrc_id" offset="1"/>
          <input semantic="COLOR" source="#ColorSrc_id" offset="2" set="0"/>
          <input semantic="TEXCOORD" source="#Tex1Src_id" offset="3" set="0"/>
          <input semantic="TEXCOORD" source="#Tex2Src_id" offset="4" set="1"/>
          <p/>
        </triangles>
        <triangles material="VisualMaterialVisualMaterial" count="380">
          <input semantic="VERTEX" source="#geomU3D_id-vertices" offset="0"/>
          <input semantic="NORMAL" source="#NormalSrc_id" offset="1"/>
          <input semantic="COLOR" source="#ColorSrc_id" offset="2" set="0"/>
          <input semantic="TEXCOORD" source="#Tex1Src_id" offset="3" set="0"/>
          <input semantic="TEXCOORD" source="#Tex2Src_id" offset="4" set="1"/>
          <p>0 0 0 0 0 1 1 1 1 1 2 2 2 2 2 1 1 1 3 3 3 3 3 4 4 2 2 2 5 5 4 4 4 6 6 0 0 0 7 7 5 5 5 8 8 0 0 0 9 9 2 2 2 10 10 5 5 5 11 11 6 6 6 12 12 4 4 4 13 13 7 7 7 14 14 4 4 4 15 15 5 5 5 16 16 7 7 7 17 17 8 8 8 18 18 6 6 6 19 19 9 9 9 20 20 6 6 6 21 21 7 7 7 22 22 9 9 9 23 23 10 10 10 24 24 8 8 8 25 25 11 11 11 26 26 8 8 8 27 27 9 9 9 28 28 11 11 11 29 29 12 12 12 30 30 10 10 10 31 31 13 13 13 32 32 10 10 10 33 33 11 11 11 34 34 13 13 13 35 35 14 14 14 36 36 12 12 12 37 37 15 15 15 38 38 12 12 12 39 39 13 13 13 40 40 15 15 15 41 41 16 16 16 42 42 14 14 14 43 43 17 17 17 44 44 14 14 14 45 45 15 15 15 46 46 17 17 17 47 47 18 18 18 48 48 16 16 16 49 49 19 19 19 50 50 16 16 16 51 51 17 17 17 52 52 19 19 19 53 53 20 20 20 54 54 18 18 18 55 55 21 21 21 56 56 18 18 18 57 57 19 19 19 58 58 21 21 21 59 59 22 22 22 60 60 20 20 20 61 61 23 23 23 62 62 20 20 20 63 63 21 21 21 64 64 23 23 23 65 65 24 24 24 66 66 22 22 22 67 67 25 25 25 68 68 22 22 22 69 69 23 23 23 70 70 25 25 25 71 71 26 26 26 72 72 24 24 24 73 73 27 27 27 74 74 24 24 24 75 75 25 25 25 76 76 27 27 27 77 77 28 28 28 78 78 26 26 26 79 79 29 29 29 80 80 26 26 26 81 81 27 27 27 82 82 29 29 29 83 83 30 30 30 84 84 28 28 28 85 85 31 31 31 86 86 28 28 28 87 87 29 29 29 88 88 31 31 31 89 89 32 32 32 90 90 30 30 30 91 91 33 33 33 92 92 30 30 30 93 93 31 31 31 94 94 33 33 33 95 95 34 34 34 96 96 32 32 32 97 97 35 35 35 98 98 32 32 32 99 99 33 33 33 100 100 35 35 35 101 101 1 1 1 102 102 34 34 34 103 103 3 3 3 104 104 34 34 34 105 105 35 35 35 106 106 3 3 3 107 107 36 36 36 108 108 37 37 37 109 109 38 38 38 110 110 37 37 37 111 111 39 39 39 112 112 38 38 38 113 113 38 38 38 114 114 39 39 39 115 115 40 40 40 116 116 39 39 39 117 117 41 41 41 118 118 40 40 40 119 119 40 40 40 120 120 41 41 41 121 121 42 42 42 122 122 41 41 41 123 123 43 43 43 124 124 42 42 42 125 125 42 42 42 126 126 43 43 43 127 127 44 44 44 128 128 43 43 43 129 129 45 45 45 130 130 44 44 44 131 131 44 44 44 132 132 45 45 45 133 133 46 46 46 134 134 45 45 45 135 135 47 47 47 136 136 46 46 46 137 137 46 46 46 138 138 47 47 47 139 139 48 48 48 140 140 47 47 47 141 141 49 49 49 142 142 48 48 48 143 143 48 48 48 144 144 49 49 49 145 145 50 50 50 146 146 49 49 49 147 147 51 51 51 148 148 50 50 50 149 149 50 50 50 150 150 51 51 51 151 151 52 52 52 152 152 51 51 51 153 153 53 53 53 154 154 52 52 52 155 155 54 54 54 156 156 55 55 55 157 157 56 56 56 158 158 55 55 55 159 159 57 57 57 160 160 56 56 56 161 161 58 58 58 162 162 54 54 54 163 163 59 59 59 164 164 54 54 54 165 165 56 56 56 166 166 59 59 59 167 167 60 60 60 168 168 58 58 58 169 169 61 61 61 170 170 58 58 58 171 171 59 59 59 172 172 61 61 61 173 173 62 62 62 174 174 60 60 60 175 175 63 63 63 176 176 60 60 60 177 177 61 61 61 178 178 63 63 63 179 179 64 64 64 180 180 62 62 62 181 181 65 65 65 182 182 62 62 62 183 183 63 63 63 184 184 65 65 65 185 185 66 66 66 186 186 64 64 64 187 187 67 67 67 188 188 64 64 64 189 189 65 65 65 190 190 67 67 67 191 191 68 68 68 192 192 66 66 66 193 193 69 69 69 194 194 66 66 66 195 195 67 67 67 196 196 69 69 69 197 197 70 70 70 198 198 68 68 68 199 199 71 71 71 200 200 68 68 68 201 201 69 69 69 202 202 71 71 71 203 203 72 72 72 204 204 70 70 70 205 205 73 73 73 206 206 70 70 70 207 207 71 71 71 208 208 73 73 73 209 209 74 74 74 210 210 72 72 72 211 211 75 75 75 212 212 72 72 72 213 213 73 73 73 214 214 75 75 75 215 215 76 76 76 216 216 74 74 74 217 217 77 77 77 218 218 74 74 74 219 219 75 75 75 220 220 77 77 77 221 221 78 78 78 222 222 76 76 76 223 223 79 79 79 224 224 76 76 76 225 225 77 77 77 226 226 79 79 79 227 227 80 80 80 228 228 78 78 78 229 229 81 81 81 230 230 78 78 78 231 231 79 79 79 232 232 81 81 81 233 233 82 82 82 234 234 80 80 80 235 235 83 83 83 236 236 80 80 80 237 237 81 81 81 238 238 83 83 83 239 239 84 84 84 240 240 82 82 82 241 241 85 85 85 242 242 82 82 82 243 243 83 83 83 244 244 85 85 85 245 245 86 86 86 246 246 84 84 84 247 247 87 87 87 248 248 84 84 84 249 249 85 85 85 250 250 87 87 87 251 251 88 88 88 252 252 86 86 86 253 253 89 89 89 254 254 86 86 86 255 255 87 87 87 256 256 89 89 89 257 257 55 55 55 258 258 88 88 88 259 259 57 57 57 260 260 88 88 88 261 261 89 89 89 262 262 57 57 57 263 263 90 90 90 264 264 91 91 91 265 265 92 92 92 266 266 91 91 91 267 267 93 93 93 268 268 92 92 92 269 269 92 92 92 270 270 93 93 93 271 271 94 94 94 272 272 93 93 93 273 273 95 95 95 274 274 94 94 94 275 275 94 94 94 276 276 95 95 95 277 277 96 96 96 278 278 95 95 95 279 279 97 97 97 280 280 96 96 96 281 281 96 96 96 282 282 97 97 97 283 283 98 98 98 284 284 97 97 97 285 285 99 99 99 286 286 98 98 98 287 287 98 98 98 288 288 99 99 99 289 289 100 100 100 290 290 99 99 99 291 291 101 101 101 292 292 100 100 100 293 293 100 100 100 294 294 101 101 101 295 295 102 102 102 296 296 101 101 101 297 297 103 103 103 298 298 102 102 102 299 299 102 102 102 300 300 103 103 103 301 301 104 104 104 302 302 103 103 103 303 303 105 105 105 304 304 104 104 104 305 305 104 104 104 306 306 105 105 105 307 307 106 106 106 308 308 105 105 105 309 309 107 107 107 310 310 106 106 106 311 311 108 108 108 312 312 109 109 109 313 313 110 110 110 314 314 109 109 109 315 315 111 111 111 316 316 110 110 110 317 317 112 112 112 318 318 113 113 113 319 319 108 108 108 320 320 113 113 113 321 321 109 109 109 322 322 108 108 108 323 323 110 110 110 324 324 111 111 111 325 325 114 114 114 326 326 111 111 111 327 327 115 115 115 328 328 114 114 114 329 329 114 114 114 330 330 115 115 115 331 331 116 116 116 332 332 115 115 115 333 333 117 117 117 334 334 116 116 116 335 335 116 116 116 336 336 117 117 117 337 337 118 118 118 338 338 117 117 117 339 339 119 119 119 340 340 118 118 118 341 341 118 118 118 342 342 119 119 119 343 343 120 120 120 344 344 119 119 119 345 345 121 121 121 346 346 120 120 120 347 347 120 120 120 348 348 121 121 121 349 349 122 122 122 350 350 121 121 121 351 351 123 123 123 352 352 122 122 122 353 353 122 122 122 354 354 123 123 123 355 355 124 124 124 356 356 123 123 123 357 357 125 125 125 358 358 124 124 124 359 359 124 124 124 360 360 125 125 125 361 361 126 126 126 362 362 125 125 125 363 363 127 127 127 364 364 126 126 126 365 365 126 126 126 366 366 127 127 127 367 367 128 128 128 368 368 127 127 127 369 369 129 129 129 370 370 128 128 128 371 371 128 128 128 372 372 129 129 129 373 373 130 130 130 374 374 129 129 129 375 375 131 131 131 376 376 130 130 130 377 377 130 130 130 378 378 131 131 131 379 379 132 132 132 380 380 131 131 131 381 381 133 133 133 382 382 132 132 132 383 383 132 132 132 384 384 133 133 133 385 385 134 134 134 386 386 133 133 133 387 387 135 135 135 388 388 134 134 134 389 389 134 134 134 390 390 135 135 135 391 391 136 136 136 392 392 135 135 135 393 393 137 137 137 394 394 136 136 136 395 395 136 136 136 396 396 137 137 137 397 397 138 138 138 398 398 137 137 137 399 399 139 139 139 400 400 138 138 138 401 401 138 138 138 402 402 139 139 139 403 403 140 140 140 404 404 139 139 139 405 405 141 141 141 406 406 140 140 140 407 407 140 140 140 408 408 141 141 141 409 409 142 142 142 410 410 141 141 141 411 411 143 143 143 412 412 142 142 142 413 413 142 142 142 414 414 143 143 143 415 415 112 112 112 416 416 143 143 143 417 417 113 113 113 418 418 112 112 112 419 419 144 144 144 420 420 145 145 145 421 421 146 146 146 422 422 145 145 145 423 423 147 147 147 424 424 146 146 146 425 425 148 148 148 426 426 144 144 144 427 427 149 149 149 428 428 144 144 144 429 429 146 146 146 430 430 149 149 149 431 431 150 150 150 432 432 148 148 148 433 433 151 151 151 434 434 148 148 148 435 435 149 149 149 436 436 151 151 151 437 437 152 152 152 438 438 150 150 150 439 439 153 153 153 440 440 150 150 150 441 441 151 151 151 442 442 153 153 153 443 443 154 154 154 444 444 152 152 152 445 445 155 155 155 446 446 152 152 152 447 447 153 153 153 448 448 155 155 155 449 449 156 156 156 450 450 154 154 154 451 451 157 157 157 452 452 154 154 154 453 453 155 155 155 454 454 157 157 157 455 455 158 158 158 456 456 156 156 156 457 457 159 159 159 458 458 156 156 156 459 459 157 157 157 460 460 159 159 159 461 461 160 160 160 462 462 158 158 158 463 463 161 161 161 464 464 158 158 158 465 465 159 159 159 466 466 161 161 161 467 467 162 162 162 468 468 160 160 160 469 469 163 163 163 470 470 160 160 160 471 471 161 161 161 472 472 163 163 163 473 473 164 164 164 474 474 162 162 162 475 475 165 165 165 476 476 162 162 162 477 477 163 163 163 478 478 165 165 165 479 479 166 166 166 480 480 164 164 164 481 481 167 167 167 482 482 164 164 164 483 483 165 165 165 484 484 167 167 167 485 485 168 168 168 486 486 166 166 166 487 487 169 169 169 488 488 166 166 166 489 489 167 167 167 490 490 169 169 169 491 491 170 170 170 492 492 171 171 171 493 493 172 172 172 494 494 171 171 171 495 495 173 173 173 496 496 172 172 172 497 497 174 174 174 498 498 170 170 170 499 499 175 175 175 500 500 170 170 170 501 501 172 172 172 502 502 175 175 175 503 503 176 176 176 504 504 177 177 177 505 505 178 178 178 506 506 177 177 177 507 507 179 179 179 508 508 178 178 178 509 509 178 178 178 510 510 179 179 179 511 511 180 180 180 512 512 179 179 179 513 513 181 181 181 514 514 180 180 180 515 515 180 180 180 516 516 181 181 181 517 517 182 182 182 518 518 181 181 181 519 519 183 183 183 520 520 182 182 182 521 521 182 182 182 522 522 183 183 183 523 523 184 184 184 524 524 183 183 183 525 525 185 185 185 526 526 184 184 184 527 527 184 184 184 528 528 185 185 185 529 529 186 186 186 530 530 185 185 185 531 531 187 187 187 532 532 186 186 186 533 533 186 186 186 534 534 187 187 187 535 535 188 188 188 536 536 187 187 187 537 537 189 189 189 538 538 188 188 188 539 539 190 190 190 540 540 145 145 145 541 541 168 168 168 542 542 145 145 145 543 543 144 144 144 544 544 168 168 168 545 545 168 168 168 546 546 144 144 144 547 547 166 166 166 548 548 144 144 144 549 549 148 148 148 550 550 166 166 166 551 551 166 166 166 552 552 148 148 148 553 553 164 164 164 554 554 148 148 148 555 555 150 150 150 556 556 164 164 164 557 557 164 164 164 558 558 150 150 150 559 559 162 162 162 560 560 150 150 150 561 561 152 152 152 562 562 162 162 162 563 563 162 162 162 564 564 152 152 152 565 565 160 160 160 566 566 152 152 152 567 567 154 154 154 568 568 160 160 160 569 569 160 160 160 570 570 154 154 154 571 571 158 158 158 572 572 154 154 154 573 573 156 156 156 574 574 158 158 158 575 575 191 191 191 576 576 146 146 146 577 577 192 192 192 578 578 146 146 146 579 579 147 147 147 580 580 192 192 192 581 581 193 193 193 582 582 175 175 175 583 583 194 194 194 584 584 175 175 175 585 585 172 172 172 586 586 194 194 194 587 587 195 195 195 588 588 149 149 149 589 589 191 191 191 590 590 149 149 149 591 591 146 146 146 592 592 191 191 191 593 593 196 196 196 594 594 151 151 151 595 595 195 195 195 596 596 151 151 151 597 597 149 149 149 598 598 195 195 195 599 599 197 197 197 600 600 153 153 153 601 601 196 196 196 602 602 153 153 153 603 603 151 151 151 604 604 196 196 196 605 605 198 198 198 606 606 155 155 155 607 607 197 197 197 608 608 155 155 155 609 609 153 153 153 610 610 197 197 197 611 611 199 199 199 612 612 157 157 157 613 613 198 198 198 614 614 157 157 157 615 615 155 155 155 616 616 198 198 198 617 617 200 200 200 618 618 159 159 159 619 619 199 199 199 620 620 159 159 159 621 621 157 157 157 622 622 199 199 199 623 623 201 201 201 624 624 161 161 161 625 625 200 200 200 626 626 161 161 161 627 627 159 159 159 628 628 200 200 200 629 629 202 202 202 630 630 163 163 163 631 631 201 201 201 632 632 163 163 163 633 633 161 161 161 634 634 201 201 201 635 635 203 203 203 636 636 165 165 165 637 637 202 202 202 638 638 165 165 165 639 639 163 163 163 640 640 202 202 202 641 641 204 204 204 642 642 167 167 167 643 643 203 203 203 644 644 167 167 167 645 645 165 165 165 646 646 203 203 203 647 647 205 205 205 648 648 169 169 169 649 649 204 204 204 650 650 169 169 169 651 651 167 167 167 652 652 204 204 204 653 653 194 194 194 654 654 172 172 172 655 655 206 206 206 656 656 172 172 172 657 657 173 173 173 658 658 206 206 206 659 659 207 207 207 660 660 208 208 208 661 661 209 209 209 662 662 208 208 208 663 663 210 210 210 664 664 209 209 209 665 665 211 211 211 666 666 207 207 207 667 667 212 212 212 668 668 207 207 207 669 669 209 209 209 670 670 212 212 212 671 671 213 213 213 672 672 211 211 211 673 673 214 214 214 674 674 211 211 211 675 675 212 212 212 676 676 214 214 214 677 677 215 215 215 678 678 213 213 213 679 679 216 216 216 680 680 213 213 213 681 681 214 214 214 682 682 216 216 216 683 683 217 217 217 684 684 215 215 215 685 685 218 218 218 686 686 215 215 215 687 687 216 216 216 688 688 218 218 218 689 689 219 219 219 690 690 217 217 217 691 691 220 220 220 692 692 217 217 217 693 693 218 218 218 694 694 220 220 220 695 695 221 221 221 696 696 219 219 219 697 697 222 222 222 698 698 219 219 219 699 699 220 220 220 700 700 222 222 222 701 701 223 223 223 702 702 221 221 221 703 703 224 224 224 704 704 221 221 221 705 705 222 222 222 706 706 224 224 224 707 707 225 225 225 708 708 223 223 223 709 709 226 226 226 710 710 223 223 223 711 711 224 224 224 712 712 226 226 226 713 713 227 227 227 714 714 225 225 225 715 715 228 228 228 716 716 225 225 225 717 717 226 226 226 718 718 228 228 228 719 719 229 229 229 720 720 227 227 227 721 721 230 230 230 722 722 227 227 227 723 723 228 228 228 724 724 230 230 230 725 725 231 231 231 726 726 229 229 229 727 727 232 232 232 728 728 229 229 229 729 729 230 230 230 730 730 232 232 232 731 731 233 233 233 732 732 234 234 234 733 733 235 235 235 734 734 234 234 234 735 735 236 236 236 736 736 235 235 235 737 737 237 237 237 738 738 233 233 233 739 739 238 238 238 740 740 233 233 233 741 741 235 235 235 742 742 238 238 238 743 743 239 239 239 744 744 240 240 240 745 745 241 241 241 746 746 240 240 240 747 747 242 242 242 748 748 241 241 241 749 749 241 241 241 750 750 242 242 242 751 751 243 243 243 752 752 242 242 242 753 753 244 244 244 754 754 243 243 243 755 755 243 243 243 756 756 244 244 244 757 757 245 245 245 758 758 244 244 244 759 759 246 246 246 760 760 245 245 245 761 761 245 245 245 762 762 246 246 246 763 763 247 247 247 764 764 246 246 246 765 765 248 248 248 766 766 247 247 247 767 767 247 247 247 768 768 248 248 248 769 769 249 249 249 770 770 248 248 248 771 771 250 250 250 772 772 249 249 249 773 773 249 249 249 774 774 250 250 250 775 775 251 251 251 776 776 250 250 250 777 777 252 252 252 778 778 251 251 251 779 779 253 253 253 780 780 254 254 254 781 781 255 255 255 782 782 254 254 254 783 783 256 256 256 784 784 255 255 255 785 785 255 255 255 786 786 256 256 256 787 787 257 257 257 788 788 256 256 256 789 789 258 258 258 790 790 257 257 257 791 791 257 257 257 792 792 258 258 258 793 793 259 259 259 794 794 258 258 258 795 795 260 260 260 796 796 259 259 259 797 797 259 259 259 798 798 260 260 260 799 799 261 261 261 800 800 260 260 260 801 801 262 262 262 802 802 261 261 261 803 803 261 261 261 804 804 262 262 262 805 805 263 263 263 806 806 262 262 262 807 807 264 264 264 808 808 263 263 263 809 809 263 263 263 810 810 264 264 264 811 811 265 265 265 812 812 264 264 264 813 813 266 266 266 814 814 265 265 265 815 815 267 267 267 816 816 209 209 209 817 817 268 268 268 818 818 209 209 209 819 819 210 210 210 820 820 268 268 268 821 821 269 269 269 822 822 238 238 238 823 823 270 270 270 824 824 238 238 238 825 825 235 235 235 826 826 270 270 270 827 827 271 271 271 828 828 212 212 212 829 829 267 267 267 830 830 212 212 212 831 831 209 209 209 832 832 267 267 267 833 833 272 272 272 834 834 214 214 214 835 835 271 271 271 836 836 214 214 214 837 837 212 212 212 838 838 271 271 271 839 839 273 273 273 840 840 216 216 216 841 841 272 272 272 842 842 216 216 216 843 843 214 214 214 844 844 272 272 272 845 845 274 274 274 846 846 218 218 218 847 847 273 273 273 848 848 218 218 218 849 849 216 216 216 850 850 273 273 273 851 851 275 275 275 852 852 220 220 220 853 853 274 274 274 854 854 220 220 220 855 855 218 218 218 856 856 274 274 274 857 857 276 276 276 858 858 222 222 222 859 859 275 275 275 860 860 222 222 222 861 861 220 220 220 862 862 275 275 275 863 863 277 277 277 864 864 224 224 224 865 865 276 276 276 866 866 224 224 224 867 867 222 222 222 868 868 276 276 276 869 869 278 278 278 870 870 226 226 226 871 871 277 277 277 872 872 226 226 226 873 873 224 224 224 874 874 277 277 277 875 875 279 279 279 876 876 228 228 228 877 877 278 278 278 878 878 228 228 228 879 879 226 226 226 880 880 278 278 278 881 881 280 280 280 882 882 230 230 230 883 883 279 279 279 884 884 230 230 230 885 885 228 228 228 886 886 279 279 279 887 887 281 281 281 888 888 232 232 232 889 889 280 280 280 890 890 232 232 232 891 891 230 230 230 892 892 280 280 280 893 893 270 270 270 894 894 235 235 235 895 895 282 282 282 896 896 235 235 235 897 897 236 236 236 898 898 282 282 282 899 899 283 283 283 900 900 284 284 284 901 901 285 285 285 902 902 284 284 284 903 903 286 286 286 904 904 285 285 285 905 905 284 284 284 906 906 287 287 287 907 907 286 286 286 908 908 287 287 287 909 909 288 288 288 910 910 286 286 286 911 911 287 287 287 912 912 289 289 289 913 913 288 288 288 914 914 289 289 289 915 915 290 290 290 916 916 288 288 288 917 917 289 289 289 918 918 291 291 291 919 919 290 290 290 920 920 291 291 291 921 921 292 292 292 922 922 290 290 290 923 923 291 291 291 924 924 293 293 293 925 925 292 292 292 926 926 293 293 293 927 927 294 294 294 928 928 292 292 292 929 929 293 293 293 930 930 295 295 295 931 931 294 294 294 932 932 295 295 295 933 933 296 296 296 934 934 294 294 294 935 935 295 295 295 936 936 297 297 297 937 937 296 296 296 938 938 297 297 297 939 939 298 298 298 940 940 296 296 296 941 941 297 297 297 942 942 299 299 299 943 943 298 298 298 944 944 299 299 299 945 945 300 300 300 946 946 298 298 298 947 947 299 299 299 948 948 301 301 301 949 949 300 300 300 950 950 301 301 301 951 951 302 302 302 952 952 300 300 300 953 953 301 301 301 954 954 303 303 303 955 955 302 302 302 956 956 303 303 303 957 957 304 304 304 958 958 302 302 302 959 959 303 303 303 960 960 305 305 305 961 961 304 304 304 962 962 305 305 305 963 963 306 306 306 964 964 304 304 304 965 965 305 305 305 966 966 307 307 307 967 967 306 306 306 968 968 307 307 307 969 969 308 308 308 970 970 306 306 306 971 971 307 307 307 972 972 309 309 309 973 973 308 308 308 974 974 309 309 309 975 975 310 310 310 976 976 308 308 308 977 977 309 309 309 978 978 283 283 283 979 979 310 310 310 980 980 283 283 283 981 981 285 285 285 982 982 310 310 310 983 983 311 311 311 984 984 312 312 312 985 985 313 313 313 986 986 312 312 312 987 987 314 314 314 988 988 313 313 313 989 989 313 313 313 990 990 314 314 314 991 991 315 315 315 992 992 314 314 314 993 993 316 316 316 994 994 315 315 315 995 995 315 315 315 996 996 316 316 316 997 997 317 317 317 998 998 316 316 316 999 999 318 318 318 1000 1000 317 317 317 1001 1001 317 317 317 1002 1002 318 318 318 1003 1003 319 319 319 1004 1004 318 318 318 1005 1005 320 320 320 1006 1006 319 319 319 1007 1007 319 319 319 1008 1008 320 320 320 1009 1009 321 321 321 1010 1010 320 320 320 1011 1011 322 322 322 1012 1012 321 321 321 1013 1013 321 321 321 1014 1014 322 322 322 1015 1015 323 323 323 1016 1016 322 322 322 1017 1017 324 324 324 1018 1018 323 323 323 1019 1019 283 283 283 1020 1020 309 309 309 1021 1021 284 284 284 1022 1022 309 309 309 1023 1023 307 307 307 1024 1024 284 284 284 1025 1025 284 284 284 1026 1026 307 307 307 1027 1027 287 287 287 1028 1028 307 307 307 1029 1029 305 305 305 1030 1030 287 287 287 1031 1031 287 287 287 1032 1032 305 305 305 1033 1033 289 289 289 1034 1034 305 305 305 1035 1035 303 303 303 1036 1036 289 289 289 1037 1037 289 289 289 1038 1038 303 303 303 1039 1039 291 291 291 1040 1040 303 303 303 1041 1041 301 301 301 1042 1042 291 291 291 1043 1043 291 291 291 1044 1044 301 301 301 1045 1045 293 293 293 1046 1046 301 301 301 1047 1047 299 299 299 1048 1048 293 293 293 1049 1049 293 293 293 1050 1050 299 299 299 1051 1051 295 295 295 1052 1052 299 299 299 1053 1053 297 297 297 1054 1054 295 295 295 1055 1055 286 286 286 1056 1056 325 325 325 1057 1057 285 285 285 1058 1058 325 325 325 1059 1059 326 326 326 1060 1060 285 285 285 1061 1061 285 285 285 1062 1062 326 326 326 1063 1063 310 310 310 1064 1064 326 326 326 1065 1065 327 327 327 1066 1066 310 310 310 1067 1067 288 288 288 1068 1068 328 328 328 1069 1069 286 286 286 1070 1070 328 328 328 1071 1071 325 325 325 1072 1072 286 286 286 1073 1073 290 290 290 1074 1074 329 329 329 1075 1075 288 288 288 1076 1076 329 329 329 1077 1077 328 328 328 1078 1078 288 288 288 1079 1079 292 292 292 1080 1080 330 330 330 1081 1081 290 290 290 1082 1082 330 330 330 1083 1083 329 329 329 1084 1084 290 290 290 1085 1085 294 294 294 1086 1086 331 331 331 1087 1087 292 292 292 1088 1088 331 331 331 1089 1089 330 330 330 1090 1090 292 292 292 1091 1091 332 332 332 1092 1092 333 333 333 1093 1093 334 334 334 1094 1094 333 333 333 1095 1095 335 335 335 1096 1096 334 334 334 1097 1097 336 336 336 1098 1098 337 337 337 1099 1099 332 332 332 1100 1100 337 337 337 1101 1101 333 333 333 1102 1102 332 332 332 1103 1103 300 300 300 1104 1104 338 338 338 1105 1105 298 298 298 1106 1106 338 338 338 1107 1107 339 339 339 1108 1108 298 298 298 1109 1109 302 302 302 1110 1110 340 340 340 1111 1111 300 300 300 1112 1112 340 340 340 1113 1113 338 338 338 1114 1114 300 300 300 1115 1115 304 304 304 1116 1116 341 341 341 1117 1117 302 302 302 1118 1118 341 341 341 1119 1119 340 340 340 1120 1120 302 302 302 1121 1121 306 306 306 1122 1122 342 342 342 1123 1123 304 304 304 1124 1124 342 342 342 1125 1125 341 341 341 1126 1126 304 304 304 1127 1127 308 308 308 1128 1128 343 343 343 1129 1129 306 306 306 1130 1130 343 343 343 1131 1131 342 342 342 1132 1132 306 306 306 1133 1133 310 310 310 1134 1134 327 327 327 1135 1135 308 308 308 1136 1136 327 327 327 1137 1137 343 343 343 1138 1138 308 308 308 1139 1139</p>
        </triangles>
      </mesh>
    </geometry>
  </library_geometries>
  <library_controllers>
    <controller id="skinU3D_id" name="skinU3D">
      <skin source="#geomU3D_id">
        <bind_shape_matrix>1 0 0 0 0 1 0 0 0 0 1 0 0 0 0 1</bind_shape_matrix>
        <source id="skinU3D_id-joints">
          <Name_array id="skinU3D_id-joints-array" count="1">Body_id</Name_array>
          <technique_common>
            <accessor source="#skinU3D_id-joints-array" count="1" stride="1">
              <param name="JOINT" type="Name"/>
            </accessor>
          </technique_common>
        </source>
        <source id="skinU3D_id-bind_poses">
          <float_array id="skinU3D_id-bind_poses-array" count="16">1 0 0 0 0 1 0 0 0 0 1 0 0 0 0 1</float_array>
          <technique_common>
            <accessor source="#skinU3D_id-bind_poses-array" count="1" stride="16">
              <param name="TRANSFORM" type="float4x4"/>
            </accessor>
          </technique_common>
        </source>
        <source id="skinU3D_id-weights">
          <float_array id="skinU3D_id-weights-array" count="1">1</float_array>
          <technique_common>
            <accessor source="#skinU3D_id-weights-array" count="1" stride="1">
              <param name="WEIGHT" type="float"/>
            </accessor>
          </technique_common>
        </source>
        <joints>
          <input semantic="JOINT" source="#skinU3D_id-joints"/>
          <input semantic="INV_BIND_MATRIX" source="#skinU3D_id-bind_poses"/>
        </joints>
        <vertex_weights count="344">
          <input semantic="JOINT" source="#skinU3D_id-joints" offset="0"/>
          <input semantic="WEIGHT" source="#skinU3D_id-weights" offset="1"/>
          <vcount>1 1 1 1 1 1 1 1 1 1 1 1 1 1 1 1 1 1 1 1 1 1 1 1 1 1 1 1 1 1 1 1 1 1 1 1 1 1 1 1 1 1 1 1 1 1 1 1 1 1 1 1 1 1 1 1 1 1 1 1 1 1 1 1 1 1 1 1 1 1 1 1 1 1 1 1 1 1 1 1 1 1 1 1 1 1 1 1 1 1 1 1 1 1 1 1 1 1 1 1 1 1 1 1 1 1 1 1 1 1 1 1 1 1 1 1 1 1 1 1 1 1 1 1 1 1 1 1 1 1 1 1 1 1 1 1 1 1 1 1 1 1 1 1 1 1 1 1 1 1 1 1 1 1 1 1 1 1 1 1 1 1 1 1 1 1 1 1 1 1 1 1 1 1 1 1 1 1 1 1 1 1 1 1 1 1 1 1 1 1 1 1 1 1 1 1 1 1 1 1 1 1 1 1 1 1 1 1 1 1 1 1 1 1 1 1 1 1 1 1 1 1 1 1 1 1 1 1 1 1 1 1 1 1 1 1 1 1 1 1 1 1 1 1 1 1 1 1 1 1 1 1 1 1 1 1 1 1 1 1 1 1 1 1 1 1 1 1 1 1 1 1 1 1 1 1 1 1 1 1 1 1 1 1 1 1 1 1 1 1 1 1 1 1 1 1 1 1 1 1 1 1 1 1 1 1 1 1 1 1 1 1 1 1 1 1 1 1 1 1 1 1 1 1 1 1 1 1 1 1 1 1 1 1 1 1 1 1 1 1 1 1 1 1 </vcount>
          <v>0 0 0 0 0 0 0 0 0 0 0 0 0 0 0 0 0 0 0 0 0 0 0 0 0 0 0 0 0 0 0 0 0 0 0 0 0 0 0 0 0 0 0 0 0 0 0 0 0 0 0 0 0 0 0 0 0 0 0 0 0 0 0 0 0 0 0 0 0 0 0 0 0 0 0 0 0 0 0 0 0 0 0 0 0 0 0 0 0 0 0 0 0 0 0 0 0 0 0 0 0 0 0 0 0 0 0 0 0 0 0 0 0 0 0 0 0 0 0 0 0 0 0 0 0 0 0 0 0 0 0 0 0 0 0 0 0 0 0 0 0 0 0 0 0 0 0 0 0 0 0 0 0 0 0 0 0 0 0 0 0 0 0 0 0 0 0 0 0 0 0 0 0 0 0 0 0 0 0 0 0 0 0 0 0 0 0 0 0 0 0 0 0 0 0 0 0 0 0 0 0 0 0 0 0 0 0 0 0 0 0 0 0 0 0 0 0 0 0 0 0 0 0 0 0 0 0 0 0 0 0 0 0 0 0 0 0 0 0 0 0 0 0 0 0 0 0 0 0 0 0 0 0 0 0 0 0 0 0 0 0 0 0 0 0 0 0 0 0 0 0 0 0 0 0 0 0 0 0 0 0 0 0 0 0 0 0 0 0 0 0 0 0 0 0 0 0 0 0 0 0 0 0 0 0 0 0 0 0 0 0 0 0 0 0 0 0 0 0 0 0 0 0 0 0 0 0 0 0 0 0 0 0 0 0 0 0 0 0 0 0 0 0 0 0 0 0 0 0 0 0 0 0 0 0 0 0 0 0 0 0 0 0 0 0 0 0 0 0 0 0 0 0 0 0 0 0 0 0 0 0 0 0 0 0 0 0 0 0 0 0 0 0 0 0 0 0 0 0 0 0 0 0 0 0 0 0 0 0 0 0 0 0 0 0 0 0 0 0 0 0 0 0 0 0 0 0 0 0 0 0 0 0 0 0 0 0 0 0 0 0 0 0 0 0 0 0 0 0 0 0 0 0 0 0 0 0 0 0 0 0 0 0 0 0 0 0 0 0 0 0 0 0 0 0 0 0 0 0 0 0 0 0 0 0 0 0 0 0 0 0 0 0 0 0 0 0 0 0 0 0 0 0 0 0 0 0 0 0 0 0 0 0 0 0 0 0 0 0 0 0 0 0 0 0 0 0 0 0 0 0 0 0 0 0 0 0 0 0 0 0 0 0 0 0 0 0 0 0 0 0 0 0 0 0 0 0 0 0 0 0 0 0 0 0 0 0 0 0 0 0 0 0 0 0 0 0 0 0 0 0 0 0 0 0 0 0 0 0 0 0 0 0 0 0 0 0 0 0 0 0 0 0 0 0 0 0 0 0 0 0 0 0 0 0 0 0 0 0 0 0 0 0 0 0 0 0 0 0 0 0 0 0 0 0 0 0 0 0 0 0 0 0 0 0 0 0 0 0 0 0 0 0 0 0 0 0 0 0 0 0 0 0 0 0 0 0 0 0 0 0 0 0 0 0 0 0 0 0 0 0 0 0 0 0 0 0 0</v>
        </vertex_weights>
      </skin>
    </controller>
  </library_controllers>
  <library_visual_scenes>
    <visual_scene id="VisualSceneNode" name="rootU3D">
      <node id="Body_id" name="Body" sid="Body_id" type="JOINT">
        <translate>0 0 0</translate>
        <rotate sid="rotateZ">0 0 1 0</rotate>
        <rotate sid="rotateY">0 1 0 0</rotate>
        <rotate sid="rotateX">1 0 0 0</rotate>
        <scale>1 1 1</scale>
      </node>
      <node id="def_surf_mat_id" name="def_surf_mat" type="JOINT">
        <translate>0 0 0</translate>
        <rotate sid="rotateZ">0 0 1 0</rotate>
        <rotate sid="rotateY">0 1 0 0</rotate>
        <rotate sid="rotateX">1 0 0 0</rotate>
        <scale>1 1 1</scale>
      </node>
      <node id="meshU3D_id" name="meshU3D" type="NODE">
        <translate>0 0 0</translate>
        <rotate>1 0 0 0</rotate>
        <scale>1 1 1</scale>
        <instance_controller url="#skinU3D_id">
          <skeleton>#Body_id</skeleton>
          <bind_material>
            <technique_common>
              <instance_material symbol="VisualMaterialVisualMaterial" target="#VisualMaterial">
                <bind_vertex_input semantic="UVSET0" input_semantic="TEXCOORD" input_set="0"/>
              </instance_material>
            </technique_common>
          </bind_material>
        </instance_controller>
      </node>
      <extra>
        <technique profile="MAX3D">
          <frame_rate>30</frame_rate>
        </technique>
        <technique profile="MAYA">
          <start_time>0</start_time>
          <end_time>1</end_time>
        </technique>
      </extra>
    </visual_scene>
  </library_visual_scenes>
  <scene>
    <instance_visual_scene url="#VisualSceneNode"/>
  </scene>
</COLLADA>
