# Wavefront OBJ file
# Creator: Ultimate Unwrap3D Pro v3.19
# Website: http://www.unwrap3d.com
# Time: Thu Dec 10 21:47:16 2009
# num_vertices: 344
# num_vertex_normals: 344
# num_uvs: 1140
# num_faces: 380
# num_groups: 1

mtllib log_holder.mtl

v 4.297305 0.000001 3.240935
v 5.275605 0.000001 1.546385
v 5.215305 14.916611 4.011275
v 6.401805 14.916611 1.956275
v 2.798406 0.000001 4.498685
v 3.397605 14.916611 5.536545
v 0.959705 0.000001 5.167915
v 1.167805 14.916611 6.348105
v -0.996994 0.000001 5.167915
v -1.205095 14.916611 6.348105
v -2.835695 0.000001 4.498685
v -3.434895 14.916611 5.536545
v -4.334595 0.000001 3.240935
v -5.252695 14.916611 4.011275
v -5.312994 0.000001 1.546385
v -6.439095 14.916611 1.956275
v -5.652794 0.000001 -0.380585
v -6.851194 14.916611 -0.380585
v -5.312994 0.000001 -2.307565
v -6.439095 14.916611 -2.717445
v -4.334595 0.000001 -4.002115
v -5.252695 14.916611 -4.772445
v -2.835695 0.000001 -5.259855
v -3.434895 14.916611 -6.297725
v -0.996994 0.000001 -5.929085
v -1.205095 14.916611 -7.109305
v 0.959705 0.000001 -5.929085
v 1.167805 14.916611 -7.109305
v 2.798406 0.000001 -5.259855
v 3.397605 14.916611 -6.297725
v 4.297305 0.000001 -4.002115
v 5.215305 14.916611 -4.772445
v 5.275605 0.000001 -2.307565
v 6.401805 14.916611 -2.717445
v 5.615405 0.000001 -0.380585
v 6.813806 14.916611 -0.380585
v 5.615405 0.000001 -0.380585
v 5.275605 0.000001 1.546385
v 5.275605 0.000001 -2.307565
v 4.297305 0.000001 3.240935
v 4.297305 0.000001 -4.002115
v 2.798406 0.000001 4.498685
v 2.798406 0.000001 -5.259855
v 0.959705 0.000001 5.167915
v 0.959705 0.000001 -5.929085
v -0.996994 0.000001 5.167915
v -0.996994 0.000001 -5.929085
v -2.835695 0.000001 4.498685
v -2.835695 0.000001 -5.259855
v -4.334595 0.000001 3.240935
v -4.334595 0.000001 -4.002115
v -5.312994 0.000001 1.546385
v -5.312994 0.000001 -2.307565
v -5.652794 0.000001 -0.380585
v 6.209005 14.916611 -0.380585
v 5.833506 14.916611 1.749415
v 6.813806 14.916611 -0.380585
v 6.401805 14.916611 1.956275
v 5.833506 14.916611 -2.510595
v 6.401805 14.916611 -2.717445
v 4.752006 14.916611 -4.383686
v 5.215305 14.916611 -4.772445
v 3.095205 14.916611 -5.773945
v 3.397605 14.916611 -6.297725
v 1.062805 14.916611 -6.513695
v 1.167805 14.916611 -7.109305
v -1.100094 14.916611 -6.513695
v -1.205095 14.916611 -7.109305
v -3.132494 14.916611 -5.773945
v -3.434895 14.916611 -6.297725
v -4.789394 14.916611 -4.383686
v -5.252695 14.916611 -4.772445
v -5.870794 14.916611 -2.510595
v -6.439095 14.916611 -2.717445
v -6.246395 14.916611 -0.380585
v -6.851194 14.916611 -0.380585
v -5.870794 14.916611 1.749415
v -6.439095 14.916611 1.956275
v -4.789394 14.916611 3.622515
v -5.252695 14.916611 4.011275
v -3.132494 14.916611 5.012775
v -3.434895 14.916611 5.536545
v -1.100094 14.916611 5.752515
v -1.205095 14.916611 6.348105
v 1.062805 14.916611 5.752515
v 1.167805 14.916611 6.348105
v 3.095205 14.916611 5.012775
v 3.397605 14.916611 5.536545
v 4.752006 14.916611 3.622515
v 5.215305 14.916611 4.011275
v 4.457705 8.398810 3.375575
v 5.472506 8.398810 1.618025
v 2.903106 8.398810 4.680075
v 5.824905 8.398810 -0.380585
v 0.996006 8.398810 5.374185
v 5.472506 8.398810 -2.379205
v -1.033394 8.398810 5.374185
v 4.457705 8.398810 -4.136750
v -2.940495 8.398810 4.680075
v 2.903106 8.398810 -5.441255
v -4.495094 8.398810 3.375575
v 0.996006 8.398810 -6.135365
v -5.509794 8.398810 1.618025
v -1.033394 8.398810 -6.135365
v -5.862194 8.398810 -0.380585
v -2.940495 8.398810 -5.441255
v -5.509794 8.398810 -2.379205
v -4.495094 8.398810 -4.136751
v 5.472506 8.398810 1.618025
v 5.833506 14.916611 1.749415
v 5.824905 8.398810 -0.380585
v 6.209005 14.916611 -0.380585
v 4.457705 8.398810 3.375575
v 4.752006 14.916611 3.622515
v 5.472506 8.398810 -2.379205
v 5.833506 14.916611 -2.510595
v 4.457705 8.398810 -4.136750
v 4.752006 14.916611 -4.383686
v 2.903106 8.398810 -5.441255
v 3.095205 14.916611 -5.773945
v 0.996006 8.398810 -6.135365
v 1.062805 14.916611 -6.513695
v -1.033394 8.398810 -6.135365
v -1.100094 14.916611 -6.513695
v -2.940495 8.398810 -5.441255
v -3.132494 14.916611 -5.773945
v -4.495094 8.398810 -4.136751
v -4.789394 14.916611 -4.383686
v -5.509794 8.398810 -2.379205
v -5.870794 14.916611 -2.510595
v -5.862194 8.398810 -0.380585
v -6.246395 14.916611 -0.380585
v -5.509794 8.398810 1.618025
v -5.870794 14.916611 1.749415
v -4.495094 8.398810 3.375575
v -4.789394 14.916611 3.622515
v -2.940495 8.398810 4.680075
v -3.132494 14.916611 5.012775
v -1.033394 8.398810 5.374185
v -1.100094 14.916611 5.752515
v 0.996006 8.398810 5.374185
v 1.062805 14.916611 5.752515
v 2.903106 8.398810 4.680075
v 3.095205 14.916611 5.012775
v -0.961094 6.117411 3.113615
v -0.472895 6.272251 2.543805
v -0.961094 13.960310 5.244855
v -0.472895 14.115110 4.675055
v -1.666494 6.031481 3.429835
v -1.666494 13.874311 5.561075
v -2.449394 6.031481 3.429835
v -2.449394 13.874311 5.561075
v -3.154795 6.117411 3.113615
v -3.154795 13.960310 5.244855
v -3.642895 6.272251 2.543805
v -3.642895 14.115110 4.675055
v -3.817194 6.465331 1.833265
v -3.817194 14.308210 3.964515
v -3.642895 6.658411 1.122735
v -3.642895 14.501310 3.253975
v -3.154795 6.813251 0.552925
v -3.154795 14.656111 2.684165
v -2.449394 6.899191 0.236705
v -2.449394 14.742010 2.367955
v -1.666494 6.899191 0.236705
v -1.666494 14.742010 2.367955
v -0.961094 6.813251 0.552925
v -0.961094 14.656111 2.684165
v -0.472895 6.658411 1.122735
v -0.472895 14.501310 3.253975
v -0.298695 6.465331 1.833265
v -0.472895 6.658411 1.122735
v -0.298695 14.308210 3.964515
v -0.472895 14.501310 3.253975
v -0.472895 6.272251 2.543805
v -0.472895 14.115110 4.675055
v -0.472895 19.812311 6.223205
v -0.298695 20.005411 5.512695
v -0.961094 19.657511 6.793005
v -0.472895 20.198511 4.802155
v -1.666494 19.571611 7.109305
v -0.961094 20.353312 4.232355
v -2.449394 19.571611 7.109305
v -1.666494 20.439310 3.916135
v -3.154795 19.657511 6.793005
v -2.449394 20.439310 3.916135
v -3.642895 19.812311 6.223205
v -3.154795 20.353312 4.232355
v -3.817194 20.005411 5.512695
v -3.642895 20.198511 4.802166
v -0.298695 6.465331 1.833265
v -0.961094 19.657511 6.793005
v -0.472895 19.812311 6.223205
v -0.472895 19.812311 6.223205
v -0.298695 20.005411 5.512695
v -1.666494 19.571611 7.109305
v -2.449394 19.571611 7.109305
v -3.154795 19.657511 6.793005
v -3.642895 19.812311 6.223205
v -3.817194 20.005411 5.512695
v -3.642895 20.198511 4.802166
v -3.154795 20.353312 4.232355
v -2.449394 20.439310 3.916135
v -1.666494 20.439310 3.916135
v -0.961094 20.353312 4.232355
v -0.472895 20.198511 4.802155
v -0.472895 20.198511 4.802155
v -0.654795 7.499721 1.212375
v -0.191996 7.656211 0.622255
v -3.571695 15.080410 0.934305
v -3.108894 15.236811 0.344185
v -1.317194 7.256861 1.539875
v -4.234095 14.837610 1.261805
v -2.047895 6.975700 1.539875
v -4.964794 14.556410 1.261805
v -2.702194 6.711921 1.212375
v -5.619095 14.292610 0.934315
v -3.150496 6.517771 0.622255
v -6.067394 14.098511 0.344185
v -3.304094 6.431691 -0.113625
v -6.220995 14.012411 -0.391685
v -3.132395 6.470740 -0.849495
v -6.049295 14.051411 -1.127565
v -2.669594 6.627191 -1.439625
v -5.586494 14.207911 -1.717685
v -2.007195 6.870041 -1.767115
v -4.924095 14.450710 -2.045185
v -1.276495 7.151200 -1.767115
v -4.193396 14.731911 -2.045185
v -0.622194 7.414981 -1.439625
v -3.539095 14.995710 -1.717685
v -0.173895 7.609111 -0.849495
v -3.090796 15.189812 -1.127565
v -0.020294 7.695210 -0.113625
v -0.173895 7.609111 -0.849495
v -2.937195 15.275911 -0.391685
v -3.090796 15.189812 -1.127565
v -0.191996 7.656211 0.622255
v -3.108894 15.236811 0.344185
v -5.227795 20.743610 0.142195
v -5.056194 20.782711 -0.593685
v -5.690596 20.587212 0.732315
v -5.209694 20.696611 -1.329555
v -6.352995 20.344311 1.059815
v -5.657995 20.502510 -1.919685
v -7.083694 20.063211 1.059815
v -6.312294 20.238710 -2.247175
v -7.737995 19.799410 0.732315
v -7.042995 19.957510 -2.247175
v -8.186295 19.605211 0.142195
v -7.705395 19.714710 -1.919685
v -8.339895 19.519211 -0.593685
v -8.168295 19.558210 -1.329555
v -0.020294 7.695210 -0.113625
v -0.191996 7.656211 0.622255
v -0.173895 7.609111 -0.849495
v -0.654795 7.499721 1.212375
v -0.622194 7.414981 -1.439625
v -1.317194 7.256861 1.539875
v -1.276495 7.151200 -1.767115
v -2.047895 6.975700 1.539875
v -2.007195 6.870041 -1.767115
v -2.702194 6.711921 1.212375
v -2.669594 6.627191 -1.439625
v -3.150496 6.517771 0.622255
v -3.132395 6.470740 -0.849495
v -3.304094 6.431691 -0.113625
v -5.690596 20.587212 0.732315
v -5.227795 20.743610 0.142195
v -5.227795 20.743610 0.142195
v -5.056194 20.782711 -0.593685
v -6.352995 20.344311 1.059815
v -7.083694 20.063211 1.059815
v -7.737995 19.799410 0.732315
v -8.186295 19.605211 0.142195
v -8.339895 19.519211 -0.593685
v -8.168295 19.558210 -1.329555
v -7.705395 19.714710 -1.919685
v -7.042995 19.957510 -2.247175
v -6.312294 20.238710 -2.247175
v -5.657995 20.502510 -1.919685
v -5.209694 20.696611 -1.329555
v -5.209694 20.696611 -1.329555
v 0.192005 7.656211 0.622255
v 0.654806 7.499721 1.212375
v 3.108905 15.236811 0.344185
v 3.571705 15.080410 0.934305
v 1.317205 7.256861 1.539875
v 4.234105 14.837610 1.261805
v 2.047905 6.975700 1.539875
v 4.964806 14.556410 1.261805
v 2.702206 6.711921 1.212375
v 5.619105 14.292610 0.934315
v 3.150505 6.517771 0.622255
v 6.067406 14.098511 0.344185
v 3.304106 6.431691 -0.113625
v 6.221005 14.012411 -0.391685
v 3.132405 6.470740 -0.849495
v 6.049305 14.051411 -1.127565
v 2.669605 6.627191 -1.439625
v 5.586505 14.207911 -1.717685
v 2.007205 6.870041 -1.767115
v 4.924106 14.450710 -2.045185
v 1.276505 7.151200 -1.767115
v 4.193405 14.731911 -2.045185
v 0.622206 7.414981 -1.439625
v 3.539105 14.995710 -1.717685
v 0.173904 7.609111 -0.849495
v 3.090805 15.189812 -1.127565
v 0.020306 7.695210 -0.113625
v 2.937205 15.275911 -0.391685
v 5.056106 20.782711 -0.593685
v 5.227805 20.743610 0.142195
v 5.209705 20.696611 -1.329555
v 5.690605 20.587212 0.732315
v 5.658006 20.502510 -1.919685
v 6.353005 20.344311 1.059815
v 6.312305 20.238710 -2.247175
v 7.083705 20.063211 1.059815
v 7.043005 19.957510 -2.247175
v 7.738006 19.799410 0.732315
v 7.705405 19.714710 -1.919685
v 8.186345 19.605211 0.142195
v 8.168245 19.558210 -1.329555
v 8.339895 19.519211 -0.593685
v 5.690605 20.587212 0.732315
v 5.227805 20.743610 0.142195
v 5.056106 20.782711 -0.593685
v 6.353005 20.344311 1.059815
v 7.083705 20.063211 1.059815
v 7.738006 19.799410 0.732315
v 8.186345 19.605211 0.142195
v 6.221005 14.012411 -0.391685
v 8.339895 19.519211 -0.593685
v 6.067406 14.098511 0.344185
v 8.186345 19.605211 0.142195
v 6.049305 14.051411 -1.127565
v 8.168245 19.558210 -1.329555
v 7.705405 19.714710 -1.919685
v 8.168245 19.558210 -1.329555
v 7.043005 19.957510 -2.247175
v 6.312305 20.238710 -2.247175
v 5.658006 20.502510 -1.919685
v 5.209705 20.696611 -1.329555
# num_vertices: 344

vn 0.724692 -0.079945 0.684419
vn 0.915067 -0.079948 0.395299
vn 0.799875 -0.079946 0.594818
vn 0.955074 -0.079948 0.285381
vn 0.446890 -0.079945 0.891010
vn 0.548196 -0.079946 0.832520
vn 0.115196 -0.079945 0.990121
vn 0.230389 -0.079945 0.969809
vn -0.230389 -0.079945 0.969809
vn -0.115193 -0.079945 0.990121
vn -0.548190 -0.079947 0.832524
vn -0.446883 -0.079945 0.891013
vn -0.799873 -0.079947 0.594821
vn -0.724685 -0.079948 0.684426
vn -0.955070 -0.079944 0.285396
vn -0.915065 -0.079945 0.395304
vn -0.995082 -0.079944 -0.058493
vn -0.995082 -0.079944 0.058491
vn -0.915066 -0.079946 -0.395301
vn -0.955074 -0.079944 -0.285382
vn -0.724676 -0.079948 -0.684436
vn -0.799869 -0.079947 -0.594827
vn -0.446891 -0.079946 -0.891009
vn -0.548190 -0.079947 -0.832524
vn -0.115196 -0.079947 -0.990120
vn -0.230392 -0.079947 -0.969808
vn 0.230392 -0.079947 -0.969808
vn 0.115196 -0.079947 -0.990120
vn 0.548198 -0.079946 -0.832519
vn 0.446894 -0.079946 -0.891007
vn 0.799873 -0.079946 -0.594820
vn 0.724684 -0.079945 -0.684429
vn 0.955078 -0.079948 -0.285369
vn 0.915071 -0.079948 -0.395290
vn 0.995082 -0.079947 0.058480
vn 0.995082 -0.079946 -0.058490
vn 0.000000 -1.000000 0.000000
vn 0.000000 -1.000000 0.000000
vn 0.000000 -1.000000 0.000000
vn 0.000000 -1.000000 0.000000
vn 0.000000 -1.000000 0.000000
vn 0.000000 -1.000000 0.000000
vn 0.000000 -1.000000 0.000000
vn 0.000000 -1.000000 0.000000
vn 0.000000 -1.000000 0.000000
vn 0.000000 -1.000000 0.000000
vn 0.000000 -1.000000 0.000000
vn 0.000000 -1.000000 0.000000
vn 0.000000 -1.000000 0.000000
vn 0.000000 -1.000000 0.000000
vn 0.000000 -1.000000 0.000000
vn 0.000000 -1.000000 0.000000
vn 0.000000 -1.000000 0.000000
vn 0.000000 -1.000000 0.000000
vn 0.000000 1.000000 0.000000
vn 0.000000 1.000000 0.000000
vn 0.000000 1.000000 0.000000
vn 0.000000 1.000000 0.000000
vn 0.000000 1.000000 0.000000
vn 0.000000 1.000000 0.000000
vn 0.000000 1.000000 0.000000
vn 0.000000 1.000000 0.000000
vn 0.000000 1.000000 0.000000
vn 0.000000 1.000000 0.000000
vn 0.000000 1.000000 0.000000
vn 0.000000 1.000000 0.000000
vn 0.000000 1.000000 0.000000
vn 0.000000 1.000000 0.000000
vn 0.000000 1.000000 0.000000
vn 0.000000 1.000000 0.000000
vn 0.000000 1.000000 0.000000
vn 0.000000 1.000000 0.000000
vn 0.000000 1.000000 0.000000
vn 0.000000 1.000000 0.000000
vn 0.000000 1.000000 0.000000
vn 0.000000 1.000000 0.000000
vn 0.000000 1.000000 0.000000
vn 0.000000 1.000000 0.000000
vn 0.000000 1.000000 0.000000
vn 0.000000 1.000000 0.000000
vn 0.000000 1.000000 0.000000
vn 0.000000 1.000000 0.000000
vn 0.000000 1.000000 0.000000
vn 0.000000 1.000000 0.000000
vn 0.000000 1.000000 0.000000
vn 0.000000 1.000000 0.000000
vn 0.000000 1.000000 0.000000
vn 0.000000 1.000000 0.000000
vn 0.000000 1.000000 0.000000
vn 0.000000 1.000000 0.000000
vn 0.000000 1.000000 0.000000
vn 0.000000 1.000000 0.000000
vn 0.000000 1.000000 0.000000
vn 0.000000 1.000000 0.000000
vn 0.000000 1.000000 0.000000
vn 0.000000 1.000000 0.000000
vn 0.000000 1.000000 0.000000
vn 0.000000 1.000000 0.000000
vn 0.000000 1.000000 0.000000
vn 0.000000 1.000000 0.000000
vn 0.000000 1.000000 0.000000
vn 0.000000 1.000000 0.000000
vn 0.000000 1.000000 0.000000
vn 0.000000 1.000000 0.000000
vn 0.000000 1.000000 0.000000
vn 0.000000 1.000000 0.000000
vn 0.000000 1.000000 0.000000
vn 0.000000 1.000000 0.000000
vn -0.916414 0.058739 -0.395899
vn -0.956489 0.058735 -0.285796
vn -0.996555 0.058731 -0.058562
vn -0.996554 0.058731 0.058571
vn -0.725753 0.058740 -0.685443
vn -0.801045 0.058739 -0.595715
vn -0.956488 0.058735 0.285798
vn -0.916417 0.058739 0.395891
vn -0.801045 0.058739 0.595715
vn -0.725754 0.058739 0.685441
vn -0.549008 0.058739 0.833750
vn -0.447555 0.058740 0.892325
vn -0.230733 0.058739 0.971243
vn -0.115369 0.058740 0.991584
vn 0.115364 0.058738 0.991585
vn 0.230733 0.058736 0.971243
vn 0.447555 0.058733 0.892325
vn 0.549004 0.058733 0.833753
vn 0.725756 0.058736 0.685440
vn 0.801055 0.058739 0.595702
vn 0.916424 0.058738 0.395874
vn 0.956488 0.058740 0.285799
vn 0.996553 0.058741 0.058576
vn 0.996553 0.058742 -0.058572
vn 0.956487 0.058740 -0.285800
vn 0.916422 0.058739 -0.395878
vn 0.801062 0.058739 -0.595693
vn 0.725757 0.058736 -0.685439
vn 0.549000 0.058734 -0.833756
vn 0.447545 0.058734 -0.892331
vn 0.230731 0.058736 -0.971243
vn 0.115367 0.058738 -0.991585
vn -0.115364 0.058739 -0.991585
vn -0.230731 0.058740 -0.971243
vn -0.447553 0.058741 -0.892326
vn -0.549011 0.058740 -0.833748
vn 0.384446 -0.843030 0.376166
vn 0.544957 -0.800518 0.249384
vn 0.668868 -0.194937 0.717366
vn 0.770684 -0.167099 0.614918
vn 0.100342 -0.871091 0.480762
vn 0.286884 -0.251211 0.924441
vn -0.200695 -0.865277 0.459366
vn -0.143439 -0.259524 0.955025
vn -0.467727 -0.826174 0.314115
vn -0.549839 -0.219035 0.806040
vn -0.647867 -0.758972 0.065032
vn -0.858115 -0.134645 0.495489
vn -0.943411 -0.292332 -0.156580
vn -0.996901 -0.020628 0.075911
vn -0.708773 -0.432786 -0.557079
vn -0.927170 0.098244 -0.361531
vn -0.384453 -0.536715 -0.751088
vn -0.668911 0.194930 -0.717328
vn -0.100342 -0.507968 -0.855511
vn -0.286861 0.251212 -0.924448
vn 0.200683 -0.513781 -0.834119
vn 0.143425 0.259521 -0.955028
vn 0.467698 -0.553561 -0.689078
vn 0.549795 0.219044 -0.806068
vn 0.243713 -0.862645 -0.443223
vn 0.770689 0.167098 -0.614912
vn 0.996905 -0.020616 0.075865
vn 0.973136 0.060374 -0.222174
vn 0.996905 0.020616 -0.075867
vn 0.973137 0.060374 -0.222172
vn 0.973136 -0.060374 0.222174
vn 0.973136 -0.060374 0.222175
vn 0.000160 0.964987 0.262300
vn 0.000101 0.964994 0.262272
vn 0.000095 0.964996 0.262265
vn 0.000031 0.965005 0.262231
vn 0.000017 0.965009 0.262218
vn 0.000018 0.965009 0.262216
vn 0.000008 0.965008 0.262221
vn 0.000008 0.965004 0.262234
vn -0.000044 0.965006 0.262227
vn -0.000058 0.965006 0.262226
vn -0.000036 0.965006 0.262228
vn 0.000039 0.965000 0.262250
vn 0.000111 0.964994 0.262271
vn 0.000157 0.964988 0.262293
vn -0.000008 -0.965006 -0.262230
vn 0.549824 -0.219038 0.806050
vn 0.770684 -0.167097 0.614918
vn 0.973135 -0.060375 0.222181
vn 0.996905 -0.020617 0.075869
vn 0.143458 -0.259525 0.955022
vn -0.286897 -0.251211 0.924437
vn -0.668930 -0.194922 0.717313
vn -0.927168 -0.098243 0.361535
vn -0.996901 0.020628 -0.075907
vn -0.858116 0.134647 -0.495487
vn -0.549824 0.219039 -0.806049
vn -0.143439 0.259518 -0.955027
vn 0.286864 0.251210 -0.924447
vn 0.668868 0.194941 -0.717366
vn 0.770684 0.167100 -0.614918
vn 0.973137 0.060374 -0.222172
vn 0.502877 0.224118 0.834797
vn 0.711505 0.297132 0.636768
vn 0.615162 0.263953 0.742903
vn 0.711515 0.297135 0.636755
vn 0.121701 0.083109 0.989081
vn 0.255955 0.133605 0.957411
vn -0.279504 -0.072429 0.957409
vn -0.146024 -0.019907 0.989081
vn -0.633430 -0.216481 0.742901
vn -0.523417 -0.170779 0.834787
vn -0.869933 -0.320997 0.374403
vn -0.807186 -0.291767 0.513151
vn -0.929437 -0.360512 -0.078597
vn -0.931369 -0.355489 0.078606
vn -0.794567 -0.324557 -0.513154
vn -0.860735 -0.344931 -0.374377
vn -0.502880 -0.224119 -0.834795
vn -0.615141 -0.263947 -0.742922
vn -0.121698 -0.083108 -0.989082
vn -0.255955 -0.133605 -0.957411
vn 0.279504 0.072429 -0.957409
vn 0.146028 0.019908 -0.989080
vn 0.633429 0.216480 -0.742902
vn 0.523415 0.170778 -0.834788
vn 0.727168 0.256442 -0.636761
vn 0.727169 0.256443 -0.636759
vn 0.929437 0.360513 0.078601
vn 0.911032 0.342103 -0.230189
vn 0.931369 0.355495 -0.078579
vn 0.911032 0.342103 -0.230188
vn 0.905377 0.356818 0.230161
vn 0.905376 0.356818 0.230166
vn -0.358696 0.932832 -0.034079
vn -0.358849 0.932770 -0.034162
vn -0.358884 0.932756 -0.034185
vn -0.358940 0.932733 -0.034219
vn -0.358885 0.932755 -0.034197
vn -0.358877 0.932758 -0.034195
vn -0.358899 0.932749 -0.034209
vn -0.358936 0.932734 -0.034229
vn -0.358950 0.932729 -0.034234
vn -0.358904 0.932748 -0.034207
vn -0.358837 0.932775 -0.034173
vn -0.358865 0.932763 -0.034193
vn -0.358901 0.932748 -0.034216
vn -0.359054 0.932686 -0.034299
vn 0.358723 -0.932815 0.034265
vn 0.358895 -0.932749 0.034265
vn 0.358889 -0.932752 0.034249
vn 0.358947 -0.932730 0.034232
vn 0.358894 -0.932751 0.034217
vn 0.358904 -0.932747 0.034218
vn 0.358905 -0.932747 0.034219
vn 0.358905 -0.932747 0.034219
vn 0.358897 -0.932750 0.034217
vn 0.358902 -0.932748 0.034215
vn 0.358916 -0.932743 0.034215
vn 0.358889 -0.932753 0.034218
vn 0.358875 -0.932758 0.034221
vn 0.358803 -0.932786 0.034221
vn 0.502883 0.224120 0.834793
vn 0.711516 0.297133 0.636755
vn 0.905395 0.356817 0.230090
vn 0.929432 0.360521 0.078616
vn 0.121699 0.083108 0.989082
vn -0.279502 -0.072428 0.957409
vn -0.633426 -0.216480 0.742905
vn -0.869933 -0.321003 0.374397
vn -0.929439 -0.360516 -0.078560
vn -0.794568 -0.324566 -0.513146
vn -0.502855 -0.224110 -0.834812
vn -0.121702 -0.083108 -0.989081
vn 0.279504 0.072429 -0.957409
vn 0.633431 0.216480 -0.742901
vn 0.727172 0.256444 -0.636755
vn 0.911042 0.342116 -0.230130
vn -0.930506 0.025231 0.365407
vn -0.686744 -0.482192 0.543943
vn -0.794568 0.324558 0.513151
vn -0.502884 0.224121 0.834792
vn -0.435510 -0.573012 0.694253
vn -0.121706 0.083110 0.989081
vn -0.154289 -0.680407 0.716409
vn 0.279504 -0.072429 0.957409
vn 0.109411 -0.786223 0.608179
vn 0.633420 -0.216478 0.742911
vn 0.307294 -0.871124 0.383033
vn 0.841094 -0.307311 0.445107
vn 0.566688 -0.819617 0.084220
vn 0.929438 -0.360511 -0.078594
vn 0.698684 -0.627698 -0.343272
vn 0.762980 -0.314300 -0.564869
vn 0.173549 -0.851378 -0.495011
vn 0.502875 -0.224117 -0.834798
vn -0.077379 -0.759951 -0.645357
vn 0.121705 -0.083110 -0.989081
vn -0.358611 -0.652555 -0.667511
vn -0.279504 0.072429 -0.957409
vn -0.622565 -0.547399 -0.559256
vn -0.633432 0.216481 -0.742900
vn -0.820770 -0.463381 -0.334087
vn -0.869933 0.320999 -0.374400
vn -0.971542 -0.232445 -0.045569
vn -0.929436 0.360512 0.078610
vn 0.358984 0.932717 -0.034200
vn 0.358908 0.932746 -0.034200
vn 0.358885 0.932755 -0.034201
vn 0.358871 0.932760 -0.034202
vn 0.358907 0.932746 -0.034202
vn 0.358906 0.932747 -0.034202
vn 0.358909 0.932746 -0.034212
vn 0.358905 0.932747 -0.034221
vn 0.358898 0.932749 -0.034221
vn 0.358911 0.932745 -0.034212
vn 0.358930 0.932738 -0.034202
vn 0.358850 0.932768 -0.034202
vn 0.358781 0.932795 -0.034201
vn 0.358576 0.932874 -0.034201
vn -0.615162 0.263951 0.742904
vn -0.860724 0.344922 0.374410
vn -0.931370 0.355489 -0.078599
vn -0.255954 0.133605 0.957412
vn 0.146027 -0.019908 0.989080
vn 0.523397 -0.170771 0.834801
vn 0.727148 -0.256438 0.636785
vn 0.929440 -0.360512 -0.078566
vn 0.931369 -0.355491 0.078597
vn 0.911041 -0.342113 0.230136
vn 0.911049 -0.342126 0.230085
vn 0.905377 -0.356819 -0.230158
vn 0.905385 -0.356817 -0.230131
vn 0.615138 -0.263946 -0.742925
vn 0.711474 -0.297124 -0.636806
vn 0.255957 -0.133605 -0.957411
vn -0.146025 0.019908 -0.989081
vn -0.523416 0.170779 -0.834787
vn -0.807190 0.291767 -0.513143
# num_vertex_normals: 344

vt 0.423419 0.497615
vt 0.443357 0.497615
vt 0.442128 0.801614
vt 0.443357 0.497615
vt 0.466308 0.801614
vt 0.442128 0.801614
vt 0.392871 0.497615
vt 0.423419 0.497615
vt 0.405083 0.801614
vt 0.423419 0.497615
vt 0.442128 0.801614
vt 0.405083 0.801614
vt 0.355399 0.497615
vt 0.392871 0.497615
vt 0.359640 0.801614
vt 0.392871 0.497615
vt 0.405083 0.801614
vt 0.359640 0.801614
vt 0.315521 0.497615
vt 0.355399 0.497615
vt 0.311280 0.801614
vt 0.355399 0.497615
vt 0.359640 0.801614
vt 0.311280 0.801614
vt 0.278049 0.497615
vt 0.315521 0.497615
vt 0.265837 0.801614
vt 0.315521 0.497615
vt 0.311280 0.801614
vt 0.265837 0.801614
vt 0.247501 0.497615
vt 0.278049 0.497615
vt 0.228790 0.801614
vt 0.278049 0.497615
vt 0.265837 0.801614
vt 0.228790 0.801614
vt 0.227561 0.497615
vt 0.247501 0.497615
vt 0.204611 0.801614
vt 0.247501 0.497615
vt 0.228790 0.801614
vt 0.204611 0.801614
vt 0.327665 0.497615
vt 0.227561 0.497615
vt 0.303242 0.801614
vt 0.227561 0.497615
vt 0.204611 0.801614
vt 0.303242 0.801614
vt 0.288308 0.497615
vt 0.327665 0.497615
vt 0.265358 0.801614
vt 0.327665 0.497615
vt 0.303242 0.801614
vt 0.265358 0.801614
vt 0.247501 0.497615
vt 0.288308 0.497615
vt 0.228790 0.801614
vt 0.288308 0.497615
vt 0.265358 0.801614
vt 0.228790 0.801614
vt 0.278049 0.497615
vt 0.247501 0.497615
vt 0.265837 0.801614
vt 0.247501 0.497615
vt 0.228790 0.801614
vt 0.265837 0.801614
vt 0.315521 0.497615
vt 0.278049 0.497615
vt 0.311280 0.801614
vt 0.278049 0.497615
vt 0.265837 0.801614
vt 0.311280 0.801614
vt 0.355399 0.497615
vt 0.315521 0.497615
vt 0.359640 0.801614
vt 0.315521 0.497615
vt 0.311280 0.801614
vt 0.359640 0.801614
vt 0.392871 0.497615
vt 0.355399 0.497615
vt 0.405083 0.801614
vt 0.355399 0.497615
vt 0.359640 0.801614
vt 0.405083 0.801614
vt 0.423419 0.497615
vt 0.392871 0.497615
vt 0.442128 0.801614
vt 0.392871 0.497615
vt 0.405083 0.801614
vt 0.442128 0.801614
vt 0.443357 0.497615
vt 0.423419 0.497615
vt 0.466308 0.801614
vt 0.423419 0.497615
vt 0.442128 0.801614
vt 0.466308 0.801614
vt 0.364947 0.514971
vt 0.443357 0.497615
vt 0.389371 0.818970
vt 0.443357 0.497615
vt 0.466308 0.801614
vt 0.389371 0.818970
vt 0.443357 0.497615
vt 0.364947 0.514971
vt 0.466308 0.801614
vt 0.364947 0.514971
vt 0.389371 0.818970
vt 0.466308 0.801614
vt 0.446781 0.658292
vt 0.440067 0.620218
vt 0.440067 0.696366
vt 0.440067 0.620218
vt 0.420738 0.586736
vt 0.440067 0.696366
vt 0.440067 0.696366
vt 0.420738 0.586736
vt 0.420738 0.729848
vt 0.420738 0.586736
vt 0.391122 0.561885
vt 0.420738 0.729848
vt 0.420738 0.729848
vt 0.391122 0.561885
vt 0.391122 0.754699
vt 0.391122 0.561885
vt 0.354792 0.548662
vt 0.391122 0.754699
vt 0.391122 0.754699
vt 0.354792 0.548662
vt 0.354792 0.767922
vt 0.354792 0.548662
vt 0.316130 0.548662
vt 0.354792 0.767922
vt 0.354792 0.767922
vt 0.316130 0.548662
vt 0.316130 0.767922
vt 0.316130 0.548662
vt 0.279800 0.561885
vt 0.316130 0.767922
vt 0.316130 0.767922
vt 0.279800 0.561885
vt 0.279800 0.754699
vt 0.279800 0.561885
vt 0.250184 0.586736
vt 0.279800 0.754699
vt 0.279800 0.754699
vt 0.250184 0.586736
vt 0.250184 0.729848
vt 0.250184 0.586736
vt 0.230852 0.620218
vt 0.250184 0.729848
vt 0.250184 0.729848
vt 0.230852 0.620218
vt 0.230852 0.696366
vt 0.230852 0.620218
vt 0.224138 0.658292
vt 0.230852 0.696366
vt 0.458510 0.658292
vt 0.451091 0.616206
vt 0.470460 0.658292
vt 0.451091 0.616206
vt 0.462319 0.612119
vt 0.470460 0.658292
vt 0.451091 0.700378
vt 0.458510 0.658292
vt 0.462319 0.704465
vt 0.458510 0.658292
vt 0.470460 0.658292
vt 0.462319 0.704465
vt 0.429722 0.737387
vt 0.451091 0.700378
vt 0.438876 0.745069
vt 0.451091 0.700378
vt 0.462319 0.704465
vt 0.438876 0.745069
vt 0.396986 0.764857
vt 0.429722 0.737387
vt 0.402961 0.775206
vt 0.429722 0.737387
vt 0.438876 0.745069
vt 0.402961 0.775206
vt 0.356829 0.779473
vt 0.396986 0.764857
vt 0.358903 0.791242
vt 0.396986 0.764857
vt 0.402961 0.775206
vt 0.358903 0.791242
vt 0.314093 0.779473
vt 0.356829 0.779473
vt 0.312018 0.791242
vt 0.356829 0.779473
vt 0.358903 0.791242
vt 0.312018 0.791242
vt 0.273936 0.764857
vt 0.314093 0.779473
vt 0.267961 0.775206
vt 0.314093 0.779473
vt 0.312018 0.791242
vt 0.267961 0.775206
vt 0.241198 0.737387
vt 0.273936 0.764857
vt 0.232044 0.745069
vt 0.273936 0.764857
vt 0.267961 0.775206
vt 0.232044 0.745069
vt 0.219831 0.700378
vt 0.241198 0.737387
vt 0.208602 0.704465
vt 0.241198 0.737387
vt 0.232044 0.745069
vt 0.208602 0.704465
vt 0.212410 0.658292
vt 0.219831 0.700378
vt 0.200460 0.658292
vt 0.219831 0.700378
vt 0.208602 0.704465
vt 0.200460 0.658292
vt 0.219831 0.616206
vt 0.212410 0.658292
vt 0.208602 0.612119
vt 0.212410 0.658292
vt 0.200460 0.658292
vt 0.208602 0.612119
vt 0.241198 0.579197
vt 0.219831 0.616206
vt 0.232044 0.571516
vt 0.219831 0.616206
vt 0.208602 0.612119
vt 0.232044 0.571516
vt 0.273936 0.551727
vt 0.241198 0.579197
vt 0.267961 0.541378
vt 0.241198 0.579197
vt 0.232044 0.571516
vt 0.267961 0.541378
vt 0.314093 0.537111
vt 0.273936 0.551727
vt 0.312018 0.525343
vt 0.273936 0.551727
vt 0.267961 0.541378
vt 0.312018 0.525343
vt 0.356829 0.537111
vt 0.314093 0.537111
vt 0.358903 0.525343
vt 0.314093 0.537111
vt 0.312018 0.525343
vt 0.358903 0.525343
vt 0.396986 0.551727
vt 0.356829 0.537111
vt 0.402961 0.541378
vt 0.356829 0.537111
vt 0.358903 0.525343
vt 0.402961 0.541378
vt 0.429722 0.579197
vt 0.396986 0.551727
vt 0.438876 0.571516
vt 0.396986 0.551727
vt 0.402961 0.541378
vt 0.438876 0.571516
vt 0.451091 0.616206
vt 0.429722 0.579197
vt 0.462319 0.612119
vt 0.429722 0.579197
vt 0.438876 0.571516
vt 0.462319 0.612119
vt 0.423907 0.584076
vt 0.443958 0.618803
vt 0.393190 0.558301
vt 0.443958 0.618803
vt 0.450921 0.658292
vt 0.393190 0.558301
vt 0.393190 0.558301
vt 0.450921 0.658292
vt 0.355509 0.544586
vt 0.450921 0.658292
vt 0.443958 0.697782
vt 0.355509 0.544586
vt 0.355509 0.544586
vt 0.443958 0.697782
vt 0.315411 0.544586
vt 0.443958 0.697782
vt 0.423907 0.732508
vt 0.315411 0.544586
vt 0.315411 0.544586
vt 0.423907 0.732508
vt 0.277729 0.558301
vt 0.423907 0.732508
vt 0.393190 0.758283
vt 0.277729 0.558301
vt 0.277729 0.558301
vt 0.393190 0.758283
vt 0.247013 0.584076
vt 0.393190 0.758283
vt 0.355509 0.771998
vt 0.247013 0.584076
vt 0.247013 0.584076
vt 0.355509 0.771998
vt 0.226964 0.618803
vt 0.355509 0.771998
vt 0.315411 0.771998
vt 0.226964 0.618803
vt 0.226964 0.618803
vt 0.315411 0.771998
vt 0.220001 0.658292
vt 0.315411 0.771998
vt 0.277729 0.758283
vt 0.220001 0.658292
vt 0.220001 0.658292
vt 0.277729 0.758283
vt 0.226964 0.697782
vt 0.277729 0.758283
vt 0.247013 0.732508
vt 0.226964 0.697782
vt 0.447369 0.668781
vt 0.454726 0.801614
vt 0.454551 0.668781
vt 0.454726 0.801614
vt 0.462379 0.801614
vt 0.454551 0.668781
vt 0.426688 0.668781
vt 0.432686 0.801614
vt 0.447369 0.668781
vt 0.432686 0.801614
vt 0.454726 0.801614
vt 0.447369 0.668781
vt 0.454551 0.668781
vt 0.462379 0.801614
vt 0.447369 0.668781
vt 0.462379 0.801614
vt 0.454726 0.801614
vt 0.447369 0.668781
vt 0.447369 0.668781
vt 0.454726 0.801614
vt 0.426688 0.668781
vt 0.454726 0.801614
vt 0.432686 0.801614
vt 0.426688 0.668781
vt 0.426688 0.668781
vt 0.432686 0.801614
vt 0.395005 0.668781
vt 0.432686 0.801614
vt 0.398920 0.801614
vt 0.395005 0.668781
vt 0.395005 0.668781
vt 0.398920 0.801614
vt 0.356138 0.668781
vt 0.398920 0.801614
vt 0.357500 0.801614
vt 0.356138 0.668781
vt 0.356138 0.668781
vt 0.357500 0.801614
vt 0.314779 0.668781
vt 0.357500 0.801614
vt 0.313420 0.801614
vt 0.314779 0.668781
vt 0.314779 0.668781
vt 0.313420 0.801614
vt 0.275913 0.668781
vt 0.313420 0.801614
vt 0.272000 0.801614
vt 0.275913 0.668781
vt 0.275913 0.668781
vt 0.272000 0.801614
vt 0.244230 0.668781
vt 0.272000 0.801614
vt 0.238232 0.801614
vt 0.244230 0.668781
vt 0.244230 0.668781
vt 0.238232 0.801614
vt 0.223550 0.668781
vt 0.238232 0.801614
vt 0.216193 0.801614
vt 0.223550 0.668781
vt 0.223550 0.668781
vt 0.216193 0.801614
vt 0.216369 0.668781
vt 0.216193 0.801614
vt 0.208539 0.801614
vt 0.216369 0.668781
vt 0.216369 0.668781
vt 0.208539 0.801614
vt 0.223550 0.668781
vt 0.208539 0.801614
vt 0.216193 0.801614
vt 0.223550 0.668781
vt 0.223550 0.668781
vt 0.216193 0.801614
vt 0.244230 0.668781
vt 0.216193 0.801614
vt 0.238232 0.801614
vt 0.244230 0.668781
vt 0.244230 0.668781
vt 0.238232 0.801614
vt 0.275913 0.668781
vt 0.238232 0.801614
vt 0.272000 0.801614
vt 0.275913 0.668781
vt 0.275913 0.668781
vt 0.272000 0.801614
vt 0.314779 0.668781
vt 0.272000 0.801614
vt 0.313420 0.801614
vt 0.314779 0.668781
vt 0.314779 0.668781
vt 0.313420 0.801614
vt 0.356138 0.668781
vt 0.313420 0.801614
vt 0.357500 0.801614
vt 0.356138 0.668781
vt 0.356138 0.668781
vt 0.357500 0.801614
vt 0.395005 0.668781
vt 0.357500 0.801614
vt 0.398920 0.801614
vt 0.395005 0.668781
vt 0.395005 0.668781
vt 0.398920 0.801614
vt 0.426688 0.668781
vt 0.398920 0.801614
vt 0.432686 0.801614
vt 0.426688 0.668781
vt 0.845184 0.075427
vt 0.867721 0.082575
vt 0.845184 0.437483
vt 0.867721 0.082575
vt 0.886523 0.444630
vt 0.845184 0.437483
vt 0.812620 0.071460
vt 0.845184 0.075427
vt 0.812620 0.433513
vt 0.845184 0.075427
vt 0.845184 0.437483
vt 0.812620 0.433513
vt 0.776479 0.071460
vt 0.812620 0.071460
vt 0.776479 0.433513
vt 0.812620 0.071460
vt 0.812620 0.433513
vt 0.776479 0.433513
vt 0.743915 0.075427
vt 0.776479 0.071460
vt 0.743915 0.437483
vt 0.776479 0.071460
vt 0.776479 0.433513
vt 0.743915 0.437483
vt 0.721382 0.082575
vt 0.743915 0.075427
vt 0.721382 0.444630
vt 0.743915 0.075427
vt 0.743915 0.437483
vt 0.721382 0.444630
vt 0.713336 0.091488
vt 0.721382 0.082575
vt 0.713336 0.453544
vt 0.721382 0.082575
vt 0.721382 0.444630
vt 0.713336 0.453544
vt 0.721382 0.100401
vt 0.713336 0.091488
vt 0.721382 0.462458
vt 0.713336 0.091488
vt 0.713336 0.453544
vt 0.721382 0.462458
vt 0.743915 0.107549
vt 0.721382 0.100401
vt 0.743915 0.469604
vt 0.721382 0.100401
vt 0.721382 0.462458
vt 0.743915 0.469604
vt 0.776479 0.111517
vt 0.743915 0.107549
vt 0.776479 0.473569
vt 0.743915 0.107549
vt 0.743915 0.469604
vt 0.776479 0.473569
vt 0.812620 0.111517
vt 0.776479 0.111517
vt 0.812620 0.473569
vt 0.776479 0.111517
vt 0.776479 0.473569
vt 0.812620 0.473569
vt 0.845184 0.107549
vt 0.812620 0.111517
vt 0.845184 0.469604
vt 0.812620 0.111517
vt 0.812620 0.473569
vt 0.845184 0.469604
vt 0.867721 0.100401
vt 0.845184 0.107549
vt 0.867721 0.462458
vt 0.845184 0.107549
vt 0.845184 0.469604
vt 0.867721 0.462458
vt 0.888438 0.116935
vt 0.924911 0.117568
vt 0.879986 0.449511
vt 0.924911 0.117568
vt 0.916460 0.450145
vt 0.879986 0.449511
vt 0.851964 0.116303
vt 0.888438 0.116935
vt 0.843512 0.448878
vt 0.888438 0.116935
vt 0.879986 0.449511
vt 0.843512 0.448878
vt 0.394753 0.265682
vt 0.383455 0.294207
vt 0.351348 0.242814
vt 0.383455 0.294207
vt 0.375011 0.322733
vt 0.351348 0.242814
vt 0.351348 0.242814
vt 0.375011 0.322733
vt 0.317155 0.230125
vt 0.375011 0.322733
vt 0.351348 0.345600
vt 0.317155 0.230125
vt 0.317155 0.230125
vt 0.351348 0.345600
vt 0.279207 0.230125
vt 0.351348 0.345600
vt 0.317155 0.358305
vt 0.279207 0.230125
vt 0.279207 0.230125
vt 0.317155 0.358305
vt 0.245015 0.242814
vt 0.317155 0.358305
vt 0.279207 0.358305
vt 0.245015 0.242814
vt 0.245015 0.242814
vt 0.279207 0.358305
vt 0.221356 0.265682
vt 0.279207 0.358305
vt 0.245015 0.345600
vt 0.221356 0.265682
vt 0.221356 0.265682
vt 0.245015 0.345600
vt 0.212908 0.294207
vt 0.245015 0.345600
vt 0.221356 0.322733
vt 0.212908 0.294207
vt 0.875763 0.091488
vt 0.867721 0.082575
vt 0.867721 0.100401
vt 0.867721 0.082575
vt 0.845184 0.075427
vt 0.867721 0.100401
vt 0.867721 0.100401
vt 0.845184 0.075427
vt 0.845184 0.107549
vt 0.845184 0.075427
vt 0.812620 0.071460
vt 0.845184 0.107549
vt 0.845184 0.107549
vt 0.812620 0.071460
vt 0.812620 0.111517
vt 0.812620 0.071460
vt 0.776479 0.071460
vt 0.812620 0.111517
vt 0.812620 0.111517
vt 0.776479 0.071460
vt 0.776479 0.111517
vt 0.776479 0.071460
vt 0.743915 0.075427
vt 0.776479 0.111517
vt 0.776479 0.111517
vt 0.743915 0.075427
vt 0.743915 0.107549
vt 0.743915 0.075427
vt 0.721382 0.082575
vt 0.743915 0.107549
vt 0.743915 0.107549
vt 0.721382 0.082575
vt 0.721382 0.100401
vt 0.721382 0.082575
vt 0.713336 0.091488
vt 0.721382 0.100401
vt 0.845184 0.700487
vt 0.845184 0.437483
vt 0.886523 0.707633
vt 0.845184 0.437483
vt 0.886523 0.444630
vt 0.886523 0.707633
vt 0.837374 0.690467
vt 0.843512 0.448878
vt 0.873846 0.691100
vt 0.843512 0.448878
vt 0.879986 0.449511
vt 0.873846 0.691100
vt 0.812620 0.696522
vt 0.812620 0.433513
vt 0.845184 0.700487
vt 0.812620 0.433513
vt 0.845184 0.437483
vt 0.845184 0.700487
vt 0.776479 0.696522
vt 0.776479 0.433513
vt 0.812620 0.696522
vt 0.776479 0.433513
vt 0.812620 0.433513
vt 0.812620 0.696522
vt 0.743915 0.700487
vt 0.743915 0.437483
vt 0.776479 0.696522
vt 0.743915 0.437483
vt 0.776479 0.433513
vt 0.776479 0.696522
vt 0.721382 0.707633
vt 0.721382 0.444630
vt 0.743915 0.700487
vt 0.721382 0.444630
vt 0.743915 0.437483
vt 0.743915 0.700487
vt 0.713336 0.716547
vt 0.713336 0.453544
vt 0.721382 0.707633
vt 0.713336 0.453544
vt 0.721382 0.444630
vt 0.721382 0.707633
vt 0.721382 0.725462
vt 0.721382 0.462458
vt 0.713336 0.716547
vt 0.721382 0.462458
vt 0.713336 0.453544
vt 0.713336 0.716547
vt 0.743915 0.732608
vt 0.743915 0.469604
vt 0.721382 0.725462
vt 0.743915 0.469604
vt 0.721382 0.462458
vt 0.721382 0.725462
vt 0.776479 0.736578
vt 0.776479 0.473569
vt 0.743915 0.732608
vt 0.776479 0.473569
vt 0.743915 0.469604
vt 0.743915 0.732608
vt 0.812620 0.736578
vt 0.812620 0.473569
vt 0.776479 0.736578
vt 0.812620 0.473569
vt 0.776479 0.473569
vt 0.776479 0.736578
vt 0.845184 0.732608
vt 0.845184 0.469604
vt 0.812620 0.736578
vt 0.845184 0.469604
vt 0.812620 0.473569
vt 0.812620 0.736578
vt 0.867721 0.725462
vt 0.867721 0.462458
vt 0.845184 0.732608
vt 0.867721 0.462458
vt 0.845184 0.469604
vt 0.845184 0.732608
vt 0.873846 0.691100
vt 0.879986 0.449511
vt 0.910320 0.691733
vt 0.879986 0.449511
vt 0.916460 0.450145
vt 0.910320 0.691733
vt 0.862733 0.062132
vt 0.894339 0.060669
vt 0.871499 0.482377
vt 0.894339 0.060669
vt 0.903103 0.480910
vt 0.871499 0.482377
vt 0.817037 0.063321
vt 0.862733 0.062132
vt 0.825804 0.483568
vt 0.862733 0.062132
vt 0.871499 0.482377
vt 0.825804 0.483568
vt 0.766307 0.063995
vt 0.817037 0.063321
vt 0.775074 0.484241
vt 0.817037 0.063321
vt 0.825804 0.483568
vt 0.775074 0.484241
vt 0.720590 0.064023
vt 0.766307 0.063995
vt 0.729356 0.484268
vt 0.766307 0.063995
vt 0.775074 0.484241
vt 0.729356 0.484268
vt 0.688940 0.063398
vt 0.720590 0.064023
vt 0.697708 0.483645
vt 0.720590 0.064023
vt 0.729356 0.484268
vt 0.697708 0.483645
vt 0.677622 0.062246
vt 0.688940 0.063398
vt 0.738289 0.482492
vt 0.688940 0.063398
vt 0.697708 0.483645
vt 0.738289 0.482492
vt 0.688886 0.060791
vt 0.677622 0.062246
vt 0.697652 0.481035
vt 0.677622 0.062246
vt 0.738289 0.482492
vt 0.697652 0.481035
vt 0.720492 0.059326
vt 0.688886 0.060791
vt 0.729259 0.479572
vt 0.688886 0.060791
vt 0.697652 0.481035
vt 0.729259 0.479572
vt 0.766187 0.058137
vt 0.720492 0.059326
vt 0.774953 0.478381
vt 0.720492 0.059326
vt 0.729259 0.479572
vt 0.774953 0.478381
vt 0.816917 0.057462
vt 0.766187 0.058137
vt 0.825684 0.477708
vt 0.766187 0.058137
vt 0.774953 0.478381
vt 0.825684 0.477708
vt 0.862634 0.057435
vt 0.816917 0.057462
vt 0.871401 0.477682
vt 0.816917 0.057462
vt 0.825684 0.477708
vt 0.871401 0.477682
vt 0.894283 0.058059
vt 0.862634 0.057435
vt 0.903049 0.478304
vt 0.862634 0.057435
vt 0.871401 0.477682
vt 0.903049 0.478304
vt 0.841557 0.070912
vt 0.897417 0.066337
vt 0.862665 0.473724
vt 0.897417 0.066337
vt 0.918525 0.469149
vt 0.862665 0.473724
vt 0.785697 0.068839
vt 0.841557 0.070912
vt 0.806805 0.471647
vt 0.841557 0.070912
vt 0.862665 0.473724
vt 0.806805 0.471647
vt 0.373625 0.259895
vt 0.381966 0.289688
vt 0.351129 0.236003
vt 0.381966 0.289688
vt 0.374505 0.319481
vt 0.351129 0.236003
vt 0.351129 0.236003
vt 0.374505 0.319481
vt 0.318932 0.222744
vt 0.374505 0.319481
vt 0.352714 0.343373
vt 0.318932 0.222744
vt 0.318932 0.222744
vt 0.352714 0.343373
vt 0.283415 0.222744
vt 0.352714 0.343373
vt 0.320911 0.356632
vt 0.283415 0.222744
vt 0.283415 0.222744
vt 0.320911 0.356632
vt 0.251612 0.236003
vt 0.320911 0.356632
vt 0.285393 0.356632
vt 0.251612 0.236003
vt 0.251612 0.236003
vt 0.285393 0.356632
vt 0.229821 0.259895
vt 0.285393 0.356632
vt 0.253196 0.343373
vt 0.229821 0.259895
vt 0.229821 0.259895
vt 0.253196 0.343373
vt 0.222355 0.289688
vt 0.253196 0.343373
vt 0.230696 0.319481
vt 0.222355 0.289688
vt 0.840205 -0.510020
vt 0.829850 -0.507969
vt 0.829693 -0.510990
vt 0.829850 -0.507969
vt 0.800687 -0.505255
vt 0.829693 -0.510990
vt 0.829693 -0.510990
vt 0.800687 -0.505255
vt 0.800406 -0.510691
vt 0.800687 -0.505255
vt 0.758486 -0.502404
vt 0.800406 -0.510691
vt 0.800406 -0.510691
vt 0.758486 -0.502404
vt 0.758138 -0.509183
vt 0.758486 -0.502404
vt 0.711609 -0.499984
vt 0.758138 -0.509183
vt 0.758138 -0.509183
vt 0.711609 -0.499984
vt 0.711262 -0.506764
vt 0.711609 -0.499984
vt 0.669342 -0.498477
vt 0.711262 -0.506764
vt 0.711262 -0.506764
vt 0.669342 -0.498477
vt 0.669061 -0.503912
vt 0.669342 -0.498477
vt 0.640054 -0.498178
vt 0.669061 -0.503912
vt 0.669061 -0.503912
vt 0.640054 -0.498178
vt 0.639899 -0.501196
vt 0.640054 -0.498178
vt 0.629542 -0.499148
vt 0.639899 -0.501196
vt 0.877867 0.787653
vt 0.871499 0.482377
vt 0.909471 0.786186
vt 0.871499 0.482377
vt 0.903103 0.480910
vt 0.909471 0.786186
vt 0.822138 0.764259
vt 0.806805 0.471647
vt 0.877998 0.766337
vt 0.806805 0.471647
vt 0.862665 0.473724
vt 0.877998 0.766337
vt 0.832170 0.788839
vt 0.825804 0.483568
vt 0.877867 0.787653
vt 0.825804 0.483568
vt 0.871499 0.482377
vt 0.877867 0.787653
vt 0.781442 0.789517
vt 0.775074 0.484241
vt 0.832170 0.788839
vt 0.775074 0.484241
vt 0.825804 0.483568
vt 0.832170 0.788839
vt 0.735725 0.789543
vt 0.729356 0.484268
vt 0.781442 0.789517
vt 0.729356 0.484268
vt 0.775074 0.484241
vt 0.781442 0.789517
vt 0.704074 0.788916
vt 0.697708 0.483645
vt 0.735725 0.789543
vt 0.697708 0.483645
vt 0.729356 0.484268
vt 0.735725 0.789543
vt 0.744657 0.787767
vt 0.738289 0.482492
vt 0.704074 0.788916
vt 0.738289 0.482492
vt 0.697708 0.483645
vt 0.704074 0.788916
vt 0.704015 0.786312
vt 0.697652 0.481035
vt 0.744657 0.787767
vt 0.697652 0.481035
vt 0.738289 0.482492
vt 0.744657 0.787767
vt 0.735627 0.784848
vt 0.729259 0.479572
vt 0.704015 0.786312
vt 0.729259 0.479572
vt 0.697652 0.481035
vt 0.704015 0.786312
vt 0.781322 0.783657
vt 0.774953 0.478381
vt 0.735627 0.784848
vt 0.774953 0.478381
vt 0.729259 0.479572
vt 0.735627 0.784848
vt 0.832052 0.782984
vt 0.825684 0.477708
vt 0.781322 0.783657
vt 0.825684 0.477708
vt 0.774953 0.478381
vt 0.781322 0.783657
vt 0.877770 0.782957
vt 0.871401 0.477682
vt 0.832052 0.782984
vt 0.871401 0.477682
vt 0.825684 0.477708
vt 0.832052 0.782984
vt 0.909418 0.783580
vt 0.903049 0.478304
vt 0.877770 0.782957
vt 0.903049 0.478304
vt 0.871401 0.477682
vt 0.877770 0.782957
vt 0.877998 0.766337
vt 0.862665 0.473724
vt 0.933858 0.761762
vt 0.862665 0.473724
vt 0.918525 0.469149
vt 0.933858 0.761762
vt 0.713410 0.079970
vt 0.742616 0.081712
vt 0.696806 0.464446
vt 0.742616 0.081712
vt 0.726010 0.466192
vt 0.696806 0.464446
vt 0.742616 0.081712
vt 0.784861 0.083383
vt 0.726010 0.466192
vt 0.784861 0.083383
vt 0.768253 0.467865
vt 0.726010 0.466192
vt 0.784861 0.083383
vt 0.831772 0.084647
vt 0.768253 0.467865
vt 0.831772 0.084647
vt 0.815166 0.469128
vt 0.768253 0.467865
vt 0.831772 0.084647
vt 0.874060 0.085256
vt 0.815166 0.469128
vt 0.874060 0.085256
vt 0.857454 0.469736
vt 0.815166 0.469128
vt 0.874060 0.085256
vt 0.903349 0.085088
vt 0.857454 0.469736
vt 0.903349 0.085088
vt 0.886741 0.469570
vt 0.857454 0.469736
vt 0.903349 0.085088
vt 0.913842 0.084177
vt 0.886741 0.469570
vt 0.913842 0.084177
vt 0.897235 0.468659
vt 0.886741 0.469570
vt 0.913842 0.084177
vt 0.903451 0.082702
vt 0.897235 0.468659
vt 0.903451 0.082702
vt 0.886845 0.467181
vt 0.897235 0.468659
vt 0.903451 0.082702
vt 0.874246 0.080958
vt 0.886845 0.467181
vt 0.874246 0.080958
vt 0.857639 0.465440
vt 0.886845 0.467181
vt 0.874246 0.080958
vt 0.832001 0.079287
vt 0.857639 0.465440
vt 0.832001 0.079287
vt 0.815395 0.463767
vt 0.857639 0.465440
vt 0.832001 0.079287
vt 0.785090 0.078023
vt 0.815395 0.463767
vt 0.785090 0.078023
vt 0.768483 0.462504
vt 0.815395 0.463767
vt 0.785090 0.078023
vt 0.742802 0.077415
vt 0.768483 0.462504
vt 0.742802 0.077415
vt 0.726195 0.461896
vt 0.768483 0.462504
vt 0.742802 0.077415
vt 0.713514 0.077582
vt 0.726195 0.461896
vt 0.713514 0.077582
vt 0.696908 0.462062
vt 0.726195 0.461896
vt 0.713514 0.077582
vt 0.703020 0.078493
vt 0.696908 0.462062
vt 0.703020 0.078493
vt 0.686414 0.462974
vt 0.696908 0.462062
vt 0.703020 0.078493
vt 0.713410 0.079970
vt 0.686414 0.462974
vt 0.713410 0.079970
vt 0.696806 0.464446
vt 0.686414 0.462974
vt 0.218488 0.287574
vt 0.227451 0.255971
vt 0.226506 0.319178
vt 0.227451 0.255971
vt 0.251607 0.230627
vt 0.226506 0.319178
vt 0.226506 0.319178
vt 0.251607 0.230627
vt 0.249906 0.344522
vt 0.251607 0.230627
vt 0.286183 0.216562
vt 0.249906 0.344522
vt 0.249906 0.344522
vt 0.286183 0.216562
vt 0.284058 0.358587
vt 0.286183 0.216562
vt 0.324323 0.216562
vt 0.284058 0.358587
vt 0.284058 0.358587
vt 0.324323 0.216562
vt 0.322199 0.358587
vt 0.324323 0.216562
vt 0.358475 0.230627
vt 0.322199 0.358587
vt 0.322199 0.358587
vt 0.358475 0.230627
vt 0.356774 0.344522
vt 0.358475 0.230627
vt 0.381877 0.255971
vt 0.356774 0.344522
vt 0.356774 0.344522
vt 0.381877 0.255971
vt 0.380933 0.319178
vt 0.381877 0.255971
vt 0.389892 0.287574
vt 0.380933 0.319178
vt 0.713410 0.079970
vt 0.703020 0.078493
vt 0.742616 0.081712
vt 0.703020 0.078493
vt 0.713514 0.077582
vt 0.742616 0.081712
vt 0.742616 0.081712
vt 0.713514 0.077582
vt 0.784861 0.083383
vt 0.713514 0.077582
vt 0.742802 0.077415
vt 0.784861 0.083383
vt 0.784861 0.083383
vt 0.742802 0.077415
vt 0.831772 0.084647
vt 0.742802 0.077415
vt 0.785090 0.078023
vt 0.831772 0.084647
vt 0.831772 0.084647
vt 0.785090 0.078023
vt 0.874060 0.085256
vt 0.785090 0.078023
vt 0.832001 0.079287
vt 0.874060 0.085256
vt 0.874060 0.085256
vt 0.832001 0.079287
vt 0.903349 0.085088
vt 0.832001 0.079287
vt 0.874246 0.080958
vt 0.903349 0.085088
vt 0.903349 0.085088
vt 0.874246 0.080958
vt 0.913842 0.084177
vt 0.874246 0.080958
vt 0.903451 0.082702
vt 0.913842 0.084177
vt 0.726010 0.466192
vt 0.713946 0.745488
vt 0.696806 0.464446
vt 0.713946 0.745488
vt 0.684742 0.743742
vt 0.696806 0.464446
vt 0.696806 0.464446
vt 0.684742 0.743742
vt 0.686414 0.462974
vt 0.684742 0.743742
vt 0.674350 0.742269
vt 0.686414 0.462974
vt 0.768253 0.467865
vt 0.756192 0.747157
vt 0.726010 0.466192
vt 0.756192 0.747157
vt 0.713946 0.745488
vt 0.726010 0.466192
vt 0.815166 0.469128
vt 0.803102 0.748424
vt 0.768253 0.467865
vt 0.803102 0.748424
vt 0.756192 0.747157
vt 0.768253 0.467865
vt 0.857454 0.469736
vt 0.845390 0.749031
vt 0.815166 0.469128
vt 0.845390 0.749031
vt 0.803102 0.748424
vt 0.815166 0.469128
vt 0.886741 0.469570
vt 0.874682 0.748862
vt 0.857454 0.469736
vt 0.874682 0.748862
vt 0.845390 0.749031
vt 0.857454 0.469736
vt 0.864192 0.333112
vt 0.875905 0.569717
vt 0.821523 0.336812
vt 0.875905 0.569717
vt 0.833235 0.573412
vt 0.821523 0.336812
vt 0.906862 0.334788
vt 0.918575 0.571393
vt 0.864192 0.333112
vt 0.918575 0.571393
vt 0.875905 0.569717
vt 0.864192 0.333112
vt 0.857639 0.465440
vt 0.845575 0.744735
vt 0.886845 0.467181
vt 0.845575 0.744735
vt 0.874784 0.746478
vt 0.886845 0.467181
vt 0.815395 0.463767
vt 0.803332 0.743062
vt 0.857639 0.465440
vt 0.803332 0.743062
vt 0.845575 0.744735
vt 0.857639 0.465440
vt 0.768483 0.462504
vt 0.756420 0.741799
vt 0.815395 0.463767
vt 0.756420 0.741799
vt 0.803332 0.743062
vt 0.815395 0.463767
vt 0.726195 0.461896
vt 0.714131 0.741192
vt 0.768483 0.462504
vt 0.714131 0.741192
vt 0.756420 0.741799
vt 0.768483 0.462504
vt 0.696908 0.462062
vt 0.684844 0.741358
vt 0.726195 0.461896
vt 0.684844 0.741358
vt 0.714131 0.741192
vt 0.726195 0.461896
vt 0.686414 0.462974
vt 0.674350 0.742269
vt 0.696908 0.462062
vt 0.674350 0.742269
vt 0.684844 0.741358
vt 0.696908 0.462062
# num_uvs: 1140

g def_surf_mat
s 1

usemtl def_surf_mat
f 1/1/1 2/2/2 3/3/3 
f 2/4/2 4/5/4 3/6/3 
f 5/7/5 1/8/1 6/9/6 
f 1/10/1 3/11/3 6/12/6 
f 7/13/7 5/14/5 8/15/8 
f 5/16/5 6/17/6 8/18/8 
f 9/19/9 7/20/7 10/21/10 
f 7/22/7 8/23/8 10/24/10 
f 11/25/11 9/26/9 12/27/12 
f 9/28/9 10/29/10 12/30/12 
f 13/31/13 11/32/11 14/33/14 
f 11/34/11 12/35/12 14/36/14 
f 15/37/15 13/38/13 16/39/16 
f 13/40/13 14/41/14 16/42/16 
f 17/43/17 15/44/15 18/45/18 
f 15/46/15 16/47/16 18/48/18 
f 19/49/19 17/50/17 20/51/20 
f 17/52/17 18/53/18 20/54/20 
f 21/55/21 19/56/19 22/57/22 
f 19/58/19 20/59/20 22/60/22 
f 23/61/23 21/62/21 24/63/24 
f 21/64/21 22/65/22 24/66/24 
f 25/67/25 23/68/23 26/69/26 
f 23/70/23 24/71/24 26/72/26 
f 27/73/27 25/74/25 28/75/28 
f 25/76/25 26/77/26 28/78/28 
f 29/79/29 27/80/27 30/81/30 
f 27/82/27 28/83/28 30/84/30 
f 31/85/31 29/86/29 32/87/32 
f 29/88/29 30/89/30 32/90/32 
f 33/91/33 31/92/31 34/93/34 
f 31/94/31 32/95/32 34/96/34 
f 35/97/35 33/98/33 36/99/36 
f 33/100/33 34/101/34 36/102/36 
f 2/103/2 35/104/35 4/105/4 
f 35/106/35 36/107/36 4/108/4 
f 37/109/37 38/110/38 39/111/39 
f 38/112/38 40/113/40 39/114/39 
f 39/115/39 40/116/40 41/117/41 
f 40/118/40 42/119/42 41/120/41 
f 41/121/41 42/122/42 43/123/43 
f 42/124/42 44/125/44 43/126/43 
f 43/127/43 44/128/44 45/129/45 
f 44/130/44 46/131/46 45/132/45 
f 45/133/45 46/134/46 47/135/47 
f 46/136/46 48/137/48 47/138/47 
f 47/139/47 48/140/48 49/141/49 
f 48/142/48 50/143/50 49/144/49 
f 49/145/49 50/146/50 51/147/51 
f 50/148/50 52/149/52 51/150/51 
f 51/151/51 52/152/52 53/153/53 
f 52/154/52 54/155/54 53/156/53 
f 55/157/55 56/158/56 57/159/57 
f 56/160/56 58/161/58 57/162/57 
f 59/163/59 55/164/55 60/165/60 
f 55/166/55 57/167/57 60/168/60 
f 61/169/61 59/170/59 62/171/62 
f 59/172/59 60/173/60 62/174/62 
f 63/175/63 61/176/61 64/177/64 
f 61/178/61 62/179/62 64/180/64 
f 65/181/65 63/182/63 66/183/66 
f 63/184/63 64/185/64 66/186/66 
f 67/187/67 65/188/65 68/189/68 
f 65/190/65 66/191/66 68/192/68 
f 69/193/69 67/194/67 70/195/70 
f 67/196/67 68/197/68 70/198/70 
f 71/199/71 69/200/69 72/201/72 
f 69/202/69 70/203/70 72/204/72 
f 73/205/73 71/206/71 74/207/74 
f 71/208/71 72/209/72 74/210/74 
f 75/211/75 73/212/73 76/213/76 
f 73/214/73 74/215/74 76/216/76 
f 77/217/77 75/218/75 78/219/78 
f 75/220/75 76/221/76 78/222/78 
f 79/223/79 77/224/77 80/225/80 
f 77/226/77 78/227/78 80/228/80 
f 81/229/81 79/230/79 82/231/82 
f 79/232/79 80/233/80 82/234/82 
f 83/235/83 81/236/81 84/237/84 
f 81/238/81 82/239/82 84/240/84 
f 85/241/85 83/242/83 86/243/86 
f 83/244/83 84/245/84 86/246/86 
f 87/247/87 85/248/85 88/249/88 
f 85/250/85 86/251/86 88/252/88 
f 89/253/89 87/254/87 90/255/90 
f 87/256/87 88/257/88 90/258/90 
f 56/259/56 89/260/89 58/261/58 
f 89/262/89 90/263/90 58/264/58 
f 91/265/91 92/266/92 93/267/93 
f 92/268/92 94/269/94 93/270/93 
f 93/271/93 94/272/94 95/273/95 
f 94/274/94 96/275/96 95/276/95 
f 95/277/95 96/278/96 97/279/97 
f 96/280/96 98/281/98 97/282/97 
f 97/283/97 98/284/98 99/285/99 
f 98/286/98 100/287/100 99/288/99 
f 99/289/99 100/290/100 101/291/101 
f 100/292/100 102/293/102 101/294/101 
f 101/295/101 102/296/102 103/297/103 
f 102/298/102 104/299/104 103/300/103 
f 103/301/103 104/302/104 105/303/105 
f 104/304/104 106/305/106 105/306/105 
f 105/307/105 106/308/106 107/309/107 
f 106/310/106 108/311/108 107/312/107 
f 109/313/109 110/314/110 111/315/111 
f 110/316/110 112/317/112 111/318/111 
f 113/319/113 114/320/114 109/321/109 
f 114/322/114 110/323/110 109/324/109 
f 111/325/111 112/326/112 115/327/115 
f 112/328/112 116/329/116 115/330/115 
f 115/331/115 116/332/116 117/333/117 
f 116/334/116 118/335/118 117/336/117 
f 117/337/117 118/338/118 119/339/119 
f 118/340/118 120/341/120 119/342/119 
f 119/343/119 120/344/120 121/345/121 
f 120/346/120 122/347/122 121/348/121 
f 121/349/121 122/350/122 123/351/123 
f 122/352/122 124/353/124 123/354/123 
f 123/355/123 124/356/124 125/357/125 
f 124/358/124 126/359/126 125/360/125 
f 125/361/125 126/362/126 127/363/127 
f 126/364/126 128/365/128 127/366/127 
f 127/367/127 128/368/128 129/369/129 
f 128/370/128 130/371/130 129/372/129 
f 129/373/129 130/374/130 131/375/131 
f 130/376/130 132/377/132 131/378/131 
f 131/379/131 132/380/132 133/381/133 
f 132/382/132 134/383/134 133/384/133 
f 133/385/133 134/386/134 135/387/135 
f 134/388/134 136/389/136 135/390/135 
f 135/391/135 136/392/136 137/393/137 
f 136/394/136 138/395/138 137/396/137 
f 137/397/137 138/398/138 139/399/139 
f 138/400/138 140/401/140 139/402/139 
f 139/403/139 140/404/140 141/405/141 
f 140/406/140 142/407/142 141/408/141 
f 141/409/141 142/410/142 143/411/143 
f 142/412/142 144/413/144 143/414/143 
f 143/415/143 144/416/144 113/417/113 
f 144/418/144 114/419/114 113/420/113 
f 145/421/145 146/422/146 147/423/147 
f 146/424/146 148/425/148 147/426/147 
f 149/427/149 145/428/145 150/429/150 
f 145/430/145 147/431/147 150/432/150 
f 151/433/151 149/434/149 152/435/152 
f 149/436/149 150/437/150 152/438/152 
f 153/439/153 151/440/151 154/441/154 
f 151/442/151 152/443/152 154/444/154 
f 155/445/155 153/446/153 156/447/156 
f 153/448/153 154/449/154 156/450/156 
f 157/451/157 155/452/155 158/453/158 
f 155/454/155 156/455/156 158/456/158 
f 159/457/159 157/458/157 160/459/160 
f 157/460/157 158/461/158 160/462/160 
f 161/463/161 159/464/159 162/465/162 
f 159/466/159 160/467/160 162/468/162 
f 163/469/163 161/470/161 164/471/164 
f 161/472/161 162/473/162 164/474/164 
f 165/475/165 163/476/163 166/477/166 
f 163/478/163 164/479/164 166/480/166 
f 167/481/167 165/482/165 168/483/168 
f 165/484/165 166/485/166 168/486/168 
f 169/487/169 167/488/167 170/489/170 
f 167/490/167 168/491/168 170/492/170 
f 171/493/171 172/494/172 173/495/173 
f 172/496/172 174/497/174 173/498/173 
f 175/499/175 171/500/171 176/501/176 
f 171/502/171 173/503/173 176/504/176 
f 177/505/177 178/506/178 179/507/179 
f 178/508/178 180/509/180 179/510/179 
f 179/511/179 180/512/180 181/513/181 
f 180/514/180 182/515/182 181/516/181 
f 181/517/181 182/518/182 183/519/183 
f 182/520/182 184/521/184 183/522/183 
f 183/523/183 184/524/184 185/525/185 
f 184/526/184 186/527/186 185/528/185 
f 185/529/185 186/530/186 187/531/187 
f 186/532/186 188/533/188 187/534/187 
f 187/535/187 188/536/188 189/537/189 
f 188/538/188 190/539/190 189/540/189 
f 191/541/191 146/542/146 169/543/169 
f 146/544/146 145/545/145 169/546/169 
f 169/547/169 145/548/145 167/549/167 
f 145/550/145 149/551/149 167/552/167 
f 167/553/167 149/554/149 165/555/165 
f 149/556/149 151/557/151 165/558/165 
f 165/559/165 151/560/151 163/561/163 
f 151/562/151 153/563/153 163/564/163 
f 163/565/163 153/566/153 161/567/161 
f 153/568/153 155/569/155 161/570/161 
f 161/571/161 155/572/155 159/573/159 
f 155/574/155 157/575/157 159/576/159 
f 192/577/192 147/578/147 193/579/193 
f 147/580/147 148/581/148 193/582/193 
f 194/583/194 176/584/176 195/585/195 
f 176/586/176 173/587/173 195/588/195 
f 196/589/196 150/590/150 192/591/192 
f 150/592/150 147/593/147 192/594/192 
f 197/595/197 152/596/152 196/597/196 
f 152/598/152 150/599/150 196/600/196 
f 198/601/198 154/602/154 197/603/197 
f 154/604/154 152/605/152 197/606/197 
f 199/607/199 156/608/156 198/609/198 
f 156/610/156 154/611/154 198/612/198 
f 200/613/200 158/614/158 199/615/199 
f 158/616/158 156/617/156 199/618/199 
f 201/619/201 160/620/160 200/621/200 
f 160/622/160 158/623/158 200/624/200 
f 202/625/202 162/626/162 201/627/201 
f 162/628/162 160/629/160 201/630/201 
f 203/631/203 164/632/164 202/633/202 
f 164/634/164 162/635/162 202/636/202 
f 204/637/204 166/638/166 203/639/203 
f 166/640/166 164/641/164 203/642/203 
f 205/643/205 168/644/168 204/645/204 
f 168/646/168 166/647/166 204/648/204 
f 206/649/206 170/650/170 205/651/205 
f 170/652/170 168/653/168 205/654/205 
f 195/655/195 173/656/173 207/657/207 
f 173/658/173 174/659/174 207/660/207 
f 208/661/208 209/662/209 210/663/210 
f 209/664/209 211/665/211 210/666/210 
f 212/667/212 208/668/208 213/669/213 
f 208/670/208 210/671/210 213/672/213 
f 214/673/214 212/674/212 215/675/215 
f 212/676/212 213/677/213 215/678/215 
f 216/679/216 214/680/214 217/681/217 
f 214/682/214 215/683/215 217/684/217 
f 218/685/218 216/686/216 219/687/219 
f 216/688/216 217/689/217 219/690/219 
f 220/691/220 218/692/218 221/693/221 
f 218/694/218 219/695/219 221/696/221 
f 222/697/222 220/698/220 223/699/223 
f 220/700/220 221/701/221 223/702/223 
f 224/703/224 222/704/222 225/705/225 
f 222/706/222 223/707/223 225/708/225 
f 226/709/226 224/710/224 227/711/227 
f 224/712/224 225/713/225 227/714/227 
f 228/715/228 226/716/226 229/717/229 
f 226/718/226 227/719/227 229/720/229 
f 230/721/230 228/722/228 231/723/231 
f 228/724/228 229/725/229 231/726/231 
f 232/727/232 230/728/230 233/729/233 
f 230/730/230 231/731/231 233/732/233 
f 234/733/234 235/734/235 236/735/236 
f 235/736/235 237/737/237 236/738/236 
f 238/739/238 234/740/234 239/741/239 
f 234/742/234 236/743/236 239/744/239 
f 240/745/240 241/746/241 242/747/242 
f 241/748/241 243/749/243 242/750/242 
f 242/751/242 243/752/243 244/753/244 
f 243/754/243 245/755/245 244/756/244 
f 244/757/244 245/758/245 246/759/246 
f 245/760/245 247/761/247 246/762/246 
f 246/763/246 247/764/247 248/765/248 
f 247/766/247 249/767/249 248/768/248 
f 248/769/248 249/770/249 250/771/250 
f 249/772/249 251/773/251 250/774/250 
f 250/775/250 251/776/251 252/777/252 
f 251/778/251 253/779/253 252/780/252 
f 254/781/254 255/782/255 256/783/256 
f 255/784/255 257/785/257 256/786/256 
f 256/787/256 257/788/257 258/789/258 
f 257/790/257 259/791/259 258/792/258 
f 258/793/258 259/794/259 260/795/260 
f 259/796/259 261/797/261 260/798/260 
f 260/799/260 261/800/261 262/801/262 
f 261/802/261 263/803/263 262/804/262 
f 262/805/262 263/806/263 264/807/264 
f 263/808/263 265/809/265 264/810/264 
f 264/811/264 265/812/265 266/813/266 
f 265/814/265 267/815/267 266/816/266 
f 268/817/268 210/818/210 269/819/269 
f 210/820/210 211/821/211 269/822/269 
f 270/823/270 239/824/239 271/825/271 
f 239/826/239 236/827/236 271/828/271 
f 272/829/272 213/830/213 268/831/268 
f 213/832/213 210/833/210 268/834/268 
f 273/835/273 215/836/215 272/837/272 
f 215/838/215 213/839/213 272/840/272 
f 274/841/274 217/842/217 273/843/273 
f 217/844/217 215/845/215 273/846/273 
f 275/847/275 219/848/219 274/849/274 
f 219/850/219 217/851/217 274/852/274 
f 276/853/276 221/854/221 275/855/275 
f 221/856/221 219/857/219 275/858/275 
f 277/859/277 223/860/223 276/861/276 
f 223/862/223 221/863/221 276/864/276 
f 278/865/278 225/866/225 277/867/277 
f 225/868/225 223/869/223 277/870/277 
f 279/871/279 227/872/227 278/873/278 
f 227/874/227 225/875/225 278/876/278 
f 280/877/280 229/878/229 279/879/279 
f 229/880/229 227/881/227 279/882/279 
f 281/883/281 231/884/231 280/885/280 
f 231/886/231 229/887/229 280/888/280 
f 282/889/282 233/890/233 281/891/281 
f 233/892/233 231/893/231 281/894/281 
f 271/895/271 236/896/236 283/897/283 
f 236/898/236 237/899/237 283/900/283 
f 284/901/284 285/902/285 286/903/286 
f 285/904/285 287/905/287 286/906/286 
f 285/907/285 288/908/288 287/909/287 
f 288/910/288 289/911/289 287/912/287 
f 288/913/288 290/914/290 289/915/289 
f 290/916/290 291/917/291 289/918/289 
f 290/919/290 292/920/292 291/921/291 
f 292/922/292 293/923/293 291/924/291 
f 292/925/292 294/926/294 293/927/293 
f 294/928/294 295/929/295 293/930/293 
f 294/931/294 296/932/296 295/933/295 
f 296/934/296 297/935/297 295/936/295 
f 296/937/296 298/938/298 297/939/297 
f 298/940/298 299/941/299 297/942/297 
f 298/943/298 300/944/300 299/945/299 
f 300/946/300 301/947/301 299/948/299 
f 300/949/300 302/950/302 301/951/301 
f 302/952/302 303/953/303 301/954/301 
f 302/955/302 304/956/304 303/957/303 
f 304/958/304 305/959/305 303/960/303 
f 304/961/304 306/962/306 305/963/305 
f 306/964/306 307/965/307 305/966/305 
f 306/967/306 308/968/308 307/969/307 
f 308/970/308 309/971/309 307/972/307 
f 308/973/308 310/974/310 309/975/309 
f 310/976/310 311/977/311 309/978/309 
f 310/979/310 284/980/284 311/981/311 
f 284/982/284 286/983/286 311/984/311 
f 312/985/312 313/986/313 314/987/314 
f 313/988/313 315/989/315 314/990/314 
f 314/991/314 315/992/315 316/993/316 
f 315/994/315 317/995/317 316/996/316 
f 316/997/316 317/998/317 318/999/318 
f 317/1000/317 319/1001/319 318/1002/318 
f 318/1003/318 319/1004/319 320/1005/320 
f 319/1006/319 321/1007/321 320/1008/320 
f 320/1009/320 321/1010/321 322/1011/322 
f 321/1012/321 323/1013/323 322/1014/322 
f 322/1015/322 323/1016/323 324/1017/324 
f 323/1018/323 325/1019/325 324/1020/324 
f 284/1021/284 310/1022/310 285/1023/285 
f 310/1024/310 308/1025/308 285/1026/285 
f 285/1027/285 308/1028/308 288/1029/288 
f 308/1030/308 306/1031/306 288/1032/288 
f 288/1033/288 306/1034/306 290/1035/290 
f 306/1036/306 304/1037/304 290/1038/290 
f 290/1039/290 304/1040/304 292/1041/292 
f 304/1042/304 302/1043/302 292/1044/292 
f 292/1045/292 302/1046/302 294/1047/294 
f 302/1048/302 300/1049/300 294/1050/294 
f 294/1051/294 300/1052/300 296/1053/296 
f 300/1054/300 298/1055/298 296/1056/296 
f 287/1057/287 326/1058/326 286/1059/286 
f 326/1060/326 327/1061/327 286/1062/286 
f 286/1063/286 327/1064/327 311/1065/311 
f 327/1066/327 328/1067/328 311/1068/311 
f 289/1069/289 329/1070/329 287/1071/287 
f 329/1072/329 326/1073/326 287/1074/287 
f 291/1075/291 330/1076/330 289/1077/289 
f 330/1078/330 329/1079/329 289/1080/289 
f 293/1081/293 331/1082/331 291/1083/291 
f 331/1084/331 330/1085/330 291/1086/291 
f 295/1087/295 332/1088/332 293/1089/293 
f 332/1090/332 331/1091/331 293/1092/293 
f 333/1093/333 334/1094/334 335/1095/335 
f 334/1096/334 336/1097/336 335/1098/335 
f 337/1099/337 338/1100/338 333/1101/333 
f 338/1102/338 334/1103/334 333/1104/333 
f 301/1105/301 339/1106/339 299/1107/299 
f 339/1108/339 340/1109/340 299/1110/299 
f 303/1111/303 341/1112/341 301/1113/301 
f 341/1114/341 339/1115/339 301/1116/301 
f 305/1117/305 342/1118/342 303/1119/303 
f 342/1120/342 341/1121/341 303/1122/303 
f 307/1123/307 343/1124/343 305/1125/305 
f 343/1126/343 342/1127/342 305/1128/305 
f 309/1129/309 344/1130/344 307/1131/307 
f 344/1132/344 343/1133/343 307/1134/307 
f 311/1135/311 328/1136/328 309/1137/309 
f 328/1138/328 344/1139/344 309/1140/309 
# num_faces: 380

