xof 0303txt 0032

// DirectX 9.0 file
// Creator: Ultimate Unwrap3D Pro v3.19
// Website: http://www.unwrap3d.com
// Time: Thu Dec 10 21:47:22 2009

// Start of Templates

template VertexDuplicationIndices {
 <b8d65549-d7c9-4995-89cf-53a9a8b031e3>
 DWORD nIndices;
 DWORD nOriginalVertices;
 array DWORD indices[nIndices];
}

template FVFData {
 <b6e70a0e-8ef9-4e83-94ad-ecc8b0c04897>
 DWORD dwFVF;
 DWORD nDWords;
 array DWORD data[nDWords];
}

template Header {
 <3D82AB43-62DA-11cf-AB39-0020AF71E433>
 WORD major;
 WORD minor;
 DWORD flags;
}

template Vector {
 <3D82AB5E-62DA-11cf-AB39-0020AF71E433>
 FLOAT x;
 FLOAT y;
 FLOAT z;
}

template Coords2d {
 <F6F23F44-7686-11cf-8F52-0040333594A3>
 FLOAT u;
 FLOAT v;
}

template Matrix4x4 {
 <F6F23F45-7686-11cf-8F52-0040333594A3>
 array FLOAT matrix[16];
}

template ColorRGBA {
 <35FF44E0-6C7C-11cf-8F52-0040333594A3>
 FLOAT red;
 FLOAT green;
 FLOAT blue;
 FLOAT alpha;
}

template ColorRGB {
 <D3E16E81-7835-11cf-8F52-0040333594A3>
 FLOAT red;
 FLOAT green;
 FLOAT blue;
}

template IndexedColor {
 <1630B820-7842-11cf-8F52-0040333594A3>
 DWORD index;
 ColorRGBA indexColor;
}

template Material {
 <3D82AB4D-62DA-11cf-AB39-0020AF71E433>
 ColorRGBA faceColor;
 FLOAT power;
 ColorRGB specularColor;
 ColorRGB emissiveColor;
 [...]
}

template TextureFilename {
 <A42790E1-7810-11cf-8F52-0040333594A3>
 STRING filename;
}

template MeshFace {
 <3D82AB5F-62DA-11cf-AB39-0020AF71E433>
 DWORD nFaceVertexIndices;
 array DWORD faceVertexIndices[nFaceVertexIndices];
}

template MeshTextureCoords {
 <F6F23F40-7686-11cf-8F52-0040333594A3>
 DWORD nTextureCoords;
 array Coords2d textureCoords[nTextureCoords];
}

template MeshMaterialList {
 <F6F23F42-7686-11cf-8F52-0040333594A3>
 DWORD nMaterials;
 DWORD nFaceIndexes;
 array DWORD faceIndexes[nFaceIndexes];
 [Material]
}

template MeshNormals {
 <F6F23F43-7686-11cf-8F52-0040333594A3>
 DWORD nNormals;
 array Vector normals[nNormals];
 DWORD nFaceNormals;
 array MeshFace faceNormals[nFaceNormals];
}

template MeshVertexColors {
 <1630B821-7842-11cf-8F52-0040333594A3>
 DWORD nVertexColors;
 array IndexedColor vertexColors[nVertexColors];
}

template Mesh {
 <3D82AB44-62DA-11cf-AB39-0020AF71E433>
 DWORD nVertices;
 array Vector vertices[nVertices];
 DWORD nFaces;
 array MeshFace faces[nFaces];
 [...]
}

template FrameTransformMatrix {
 <F6F23F41-7686-11cf-8F52-0040333594A3>
 Matrix4x4 frameMatrix;
}

template Frame {
 <3D82AB46-62DA-11cf-AB39-0020AF71E433>
 [...]
}

template FloatKeys {
 <10DD46A9-775B-11cf-8F52-0040333594A3>
 DWORD nValues;
 array FLOAT values[nValues];
}

template TimedFloatKeys {
 <F406B180-7B3B-11cf-8F52-0040333594A3>
 DWORD time;
 FloatKeys tfkeys;
}

template AnimationKey {
 <10DD46A8-775B-11cf-8F52-0040333594A3>
 DWORD keyType;
 DWORD nKeys;
 array TimedFloatKeys keys[nKeys];
}

template AnimationOptions {
 <E2BF56C0-840F-11cf-8F52-0040333594A3>
 DWORD openclosed;
 DWORD positionquality;
}

template Animation {
 <3D82AB4F-62DA-11cf-AB39-0020AF71E433>
 [...]
}

template AnimationSet {
 <3D82AB50-62DA-11cf-AB39-0020AF71E433>
 [Animation]
}

template XSkinMeshHeader {
 <3CF169CE-FF7C-44ab-93C0-F78F62D172E2>
 WORD nMaxSkinWeightsPerVertex;
 WORD nMaxSkinWeightsPerFace;
 WORD nBones;
}

template SkinWeights {
 <6F0D123B-BAD2-4167-A0D0-80224F25FABB>
 STRING transformNodeName;
 DWORD nWeights;
 array DWORD vertexIndices[nWeights];
 array FLOAT weights[nWeights];
 Matrix4x4 matrixOffset;
}

template AnimTicksPerSecond {
 <9E415A43-7BA6-4a73-8743-B73D47E88476>
 DWORD AnimTicksPerSecond;
}

AnimTicksPerSecond {
 30;
}

// Start of Frames

   Frame Body {
      FrameTransformMatrix {
       1.000000, 0.000000, 0.000000, 0.000000,
       0.000000, 1.000000, 0.000000, 0.000000,
       0.000000, 0.000000, 1.000000, 0.000000,
       0.000000, 0.000000, 0.000000, 1.000000;;
      }

   }
   Frame def_surf_mat {
      FrameTransformMatrix {
       1.000000, 0.000000, 0.000000, 0.000000,
       0.000000, 1.000000, 0.000000, 0.000000,
       0.000000, 0.000000, 1.000000, 0.000000,
       0.000000, 0.000000, 0.000000, 1.000000;;
      }

   }

   Frame Body0 {
      FrameTransformMatrix {
       1.000000, 0.000000, 0.000000, 0.000000,
       0.000000, 1.000000, 0.000000, 0.000000,
       0.000000, 0.000000, 1.000000, 0.000000,
       0.000000, 0.000000, 0.000000, 1.000000;;
      }

      Mesh skinnedMesh {
       344;
       4.297305; 0.000001; 3.240935;,
       5.275605; 0.000001; 1.546385;,
       5.215305; 14.916611; 4.011275;,
       6.401805; 14.916611; 1.956275;,
       2.798406; 0.000001; 4.498685;,
       3.397605; 14.916611; 5.536545;,
       0.959705; 0.000001; 5.167915;,
       1.167805; 14.916611; 6.348105;,
       -0.996994; 0.000001; 5.167915;,
       -1.205095; 14.916611; 6.348105;,
       -2.835695; 0.000001; 4.498685;,
       -3.434895; 14.916611; 5.536545;,
       -4.334595; 0.000001; 3.240935;,
       -5.252695; 14.916611; 4.011275;,
       -5.312994; 0.000001; 1.546385;,
       -6.439095; 14.916611; 1.956275;,
       -5.652794; 0.000001; -0.380585;,
       -6.851194; 14.916611; -0.380585;,
       -5.312994; 0.000001; -2.307565;,
       -6.439095; 14.916611; -2.717445;,
       -4.334595; 0.000001; -4.002115;,
       -5.252695; 14.916611; -4.772445;,
       -2.835695; 0.000001; -5.259855;,
       -3.434895; 14.916611; -6.297725;,
       -0.996994; 0.000001; -5.929085;,
       -1.205095; 14.916611; -7.109305;,
       0.959705; 0.000001; -5.929085;,
       1.167805; 14.916611; -7.109305;,
       2.798406; 0.000001; -5.259855;,
       3.397605; 14.916611; -6.297725;,
       4.297305; 0.000001; -4.002115;,
       5.215305; 14.916611; -4.772445;,
       5.275605; 0.000001; -2.307565;,
       6.401805; 14.916611; -2.717445;,
       5.615405; 0.000001; -0.380585;,
       6.813806; 14.916611; -0.380585;,
       5.615405; 0.000001; -0.380585;,
       5.275605; 0.000001; 1.546385;,
       5.275605; 0.000001; -2.307565;,
       4.297305; 0.000001; 3.240935;,
       4.297305; 0.000001; -4.002115;,
       2.798406; 0.000001; 4.498685;,
       2.798406; 0.000001; -5.259855;,
       0.959705; 0.000001; 5.167915;,
       0.959705; 0.000001; -5.929085;,
       -0.996994; 0.000001; 5.167915;,
       -0.996994; 0.000001; -5.929085;,
       -2.835695; 0.000001; 4.498685;,
       -2.835695; 0.000001; -5.259855;,
       -4.334595; 0.000001; 3.240935;,
       -4.334595; 0.000001; -4.002115;,
       -5.312994; 0.000001; 1.546385;,
       -5.312994; 0.000001; -2.307565;,
       -5.652794; 0.000001; -0.380585;,
       6.209005; 14.916611; -0.380585;,
       5.833506; 14.916611; 1.749415;,
       6.813806; 14.916611; -0.380585;,
       6.401805; 14.916611; 1.956275;,
       5.833506; 14.916611; -2.510595;,
       6.401805; 14.916611; -2.717445;,
       4.752006; 14.916611; -4.383686;,
       5.215305; 14.916611; -4.772445;,
       3.095205; 14.916611; -5.773945;,
       3.397605; 14.916611; -6.297725;,
       1.062805; 14.916611; -6.513695;,
       1.167805; 14.916611; -7.109305;,
       -1.100094; 14.916611; -6.513695;,
       -1.205095; 14.916611; -7.109305;,
       -3.132494; 14.916611; -5.773945;,
       -3.434895; 14.916611; -6.297725;,
       -4.789394; 14.916611; -4.383686;,
       -5.252695; 14.916611; -4.772445;,
       -5.870794; 14.916611; -2.510595;,
       -6.439095; 14.916611; -2.717445;,
       -6.246395; 14.916611; -0.380585;,
       -6.851194; 14.916611; -0.380585;,
       -5.870794; 14.916611; 1.749415;,
       -6.439095; 14.916611; 1.956275;,
       -4.789394; 14.916611; 3.622515;,
       -5.252695; 14.916611; 4.011275;,
       -3.132494; 14.916611; 5.012775;,
       -3.434895; 14.916611; 5.536545;,
       -1.100094; 14.916611; 5.752515;,
       -1.205095; 14.916611; 6.348105;,
       1.062805; 14.916611; 5.752515;,
       1.167805; 14.916611; 6.348105;,
       3.095205; 14.916611; 5.012775;,
       3.397605; 14.916611; 5.536545;,
       4.752006; 14.916611; 3.622515;,
       5.215305; 14.916611; 4.011275;,
       4.457705; 8.398810; 3.375575;,
       5.472506; 8.398810; 1.618025;,
       2.903106; 8.398810; 4.680075;,
       5.824905; 8.398810; -0.380585;,
       0.996006; 8.398810; 5.374185;,
       5.472506; 8.398810; -2.379205;,
       -1.033394; 8.398810; 5.374185;,
       4.457705; 8.398810; -4.136750;,
       -2.940495; 8.398810; 4.680075;,
       2.903106; 8.398810; -5.441255;,
       -4.495094; 8.398810; 3.375575;,
       0.996006; 8.398810; -6.135365;,
       -5.509794; 8.398810; 1.618025;,
       -1.033394; 8.398810; -6.135365;,
       -5.862194; 8.398810; -0.380585;,
       -2.940495; 8.398810; -5.441255;,
       -5.509794; 8.398810; -2.379205;,
       -4.495094; 8.398810; -4.136751;,
       5.472506; 8.398810; 1.618025;,
       5.833506; 14.916611; 1.749415;,
       5.824905; 8.398810; -0.380585;,
       6.209005; 14.916611; -0.380585;,
       4.457705; 8.398810; 3.375575;,
       4.752006; 14.916611; 3.622515;,
       5.472506; 8.398810; -2.379205;,
       5.833506; 14.916611; -2.510595;,
       4.457705; 8.398810; -4.136750;,
       4.752006; 14.916611; -4.383686;,
       2.903106; 8.398810; -5.441255;,
       3.095205; 14.916611; -5.773945;,
       0.996006; 8.398810; -6.135365;,
       1.062805; 14.916611; -6.513695;,
       -1.033394; 8.398810; -6.135365;,
       -1.100094; 14.916611; -6.513695;,
       -2.940495; 8.398810; -5.441255;,
       -3.132494; 14.916611; -5.773945;,
       -4.495094; 8.398810; -4.136751;,
       -4.789394; 14.916611; -4.383686;,
       -5.509794; 8.398810; -2.379205;,
       -5.870794; 14.916611; -2.510595;,
       -5.862194; 8.398810; -0.380585;,
       -6.246395; 14.916611; -0.380585;,
       -5.509794; 8.398810; 1.618025;,
       -5.870794; 14.916611; 1.749415;,
       -4.495094; 8.398810; 3.375575;,
       -4.789394; 14.916611; 3.622515;,
       -2.940495; 8.398810; 4.680075;,
       -3.132494; 14.916611; 5.012775;,
       -1.033394; 8.398810; 5.374185;,
       -1.100094; 14.916611; 5.752515;,
       0.996006; 8.398810; 5.374185;,
       1.062805; 14.916611; 5.752515;,
       2.903106; 8.398810; 4.680075;,
       3.095205; 14.916611; 5.012775;,
       -0.961094; 6.117411; 3.113615;,
       -0.472895; 6.272251; 2.543805;,
       -0.961094; 13.960310; 5.244855;,
       -0.472895; 14.115110; 4.675055;,
       -1.666494; 6.031481; 3.429835;,
       -1.666494; 13.874311; 5.561075;,
       -2.449394; 6.031481; 3.429835;,
       -2.449394; 13.874311; 5.561075;,
       -3.154795; 6.117411; 3.113615;,
       -3.154795; 13.960310; 5.244855;,
       -3.642895; 6.272251; 2.543805;,
       -3.642895; 14.115110; 4.675055;,
       -3.817194; 6.465331; 1.833265;,
       -3.817194; 14.308210; 3.964515;,
       -3.642895; 6.658411; 1.122735;,
       -3.642895; 14.501310; 3.253975;,
       -3.154795; 6.813251; 0.552925;,
       -3.154795; 14.656111; 2.684165;,
       -2.449394; 6.899191; 0.236705;,
       -2.449394; 14.742010; 2.367955;,
       -1.666494; 6.899191; 0.236705;,
       -1.666494; 14.742010; 2.367955;,
       -0.961094; 6.813251; 0.552925;,
       -0.961094; 14.656111; 2.684165;,
       -0.472895; 6.658411; 1.122735;,
       -0.472895; 14.501310; 3.253975;,
       -0.298695; 6.465331; 1.833265;,
       -0.472895; 6.658411; 1.122735;,
       -0.298695; 14.308210; 3.964515;,
       -0.472895; 14.501310; 3.253975;,
       -0.472895; 6.272251; 2.543805;,
       -0.472895; 14.115110; 4.675055;,
       -0.472895; 19.812311; 6.223205;,
       -0.298695; 20.005411; 5.512695;,
       -0.961094; 19.657511; 6.793005;,
       -0.472895; 20.198511; 4.802155;,
       -1.666494; 19.571611; 7.109305;,
       -0.961094; 20.353312; 4.232355;,
       -2.449394; 19.571611; 7.109305;,
       -1.666494; 20.439310; 3.916135;,
       -3.154795; 19.657511; 6.793005;,
       -2.449394; 20.439310; 3.916135;,
       -3.642895; 19.812311; 6.223205;,
       -3.154795; 20.353312; 4.232355;,
       -3.817194; 20.005411; 5.512695;,
       -3.642895; 20.198511; 4.802166;,
       -0.298695; 6.465331; 1.833265;,
       -0.961094; 19.657511; 6.793005;,
       -0.472895; 19.812311; 6.223205;,
       -0.472895; 19.812311; 6.223205;,
       -0.298695; 20.005411; 5.512695;,
       -1.666494; 19.571611; 7.109305;,
       -2.449394; 19.571611; 7.109305;,
       -3.154795; 19.657511; 6.793005;,
       -3.642895; 19.812311; 6.223205;,
       -3.817194; 20.005411; 5.512695;,
       -3.642895; 20.198511; 4.802166;,
       -3.154795; 20.353312; 4.232355;,
       -2.449394; 20.439310; 3.916135;,
       -1.666494; 20.439310; 3.916135;,
       -0.961094; 20.353312; 4.232355;,
       -0.472895; 20.198511; 4.802155;,
       -0.472895; 20.198511; 4.802155;,
       -0.654795; 7.499721; 1.212375;,
       -0.191996; 7.656211; 0.622255;,
       -3.571695; 15.080410; 0.934305;,
       -3.108894; 15.236811; 0.344185;,
       -1.317194; 7.256861; 1.539875;,
       -4.234095; 14.837610; 1.261805;,
       -2.047895; 6.975700; 1.539875;,
       -4.964794; 14.556410; 1.261805;,
       -2.702194; 6.711921; 1.212375;,
       -5.619095; 14.292610; 0.934315;,
       -3.150496; 6.517771; 0.622255;,
       -6.067394; 14.098511; 0.344185;,
       -3.304094; 6.431691; -0.113625;,
       -6.220995; 14.012411; -0.391685;,
       -3.132395; 6.470740; -0.849495;,
       -6.049295; 14.051411; -1.127565;,
       -2.669594; 6.627191; -1.439625;,
       -5.586494; 14.207911; -1.717685;,
       -2.007195; 6.870041; -1.767115;,
       -4.924095; 14.450710; -2.045185;,
       -1.276495; 7.151200; -1.767115;,
       -4.193396; 14.731911; -2.045185;,
       -0.622194; 7.414981; -1.439625;,
       -3.539095; 14.995710; -1.717685;,
       -0.173895; 7.609111; -0.849495;,
       -3.090796; 15.189812; -1.127565;,
       -0.020294; 7.695210; -0.113625;,
       -0.173895; 7.609111; -0.849495;,
       -2.937195; 15.275911; -0.391685;,
       -3.090796; 15.189812; -1.127565;,
       -0.191996; 7.656211; 0.622255;,
       -3.108894; 15.236811; 0.344185;,
       -5.227795; 20.743610; 0.142195;,
       -5.056194; 20.782711; -0.593685;,
       -5.690596; 20.587212; 0.732315;,
       -5.209694; 20.696611; -1.329555;,
       -6.352995; 20.344311; 1.059815;,
       -5.657995; 20.502510; -1.919685;,
       -7.083694; 20.063211; 1.059815;,
       -6.312294; 20.238710; -2.247175;,
       -7.737995; 19.799410; 0.732315;,
       -7.042995; 19.957510; -2.247175;,
       -8.186295; 19.605211; 0.142195;,
       -7.705395; 19.714710; -1.919685;,
       -8.339895; 19.519211; -0.593685;,
       -8.168295; 19.558210; -1.329555;,
       -0.020294; 7.695210; -0.113625;,
       -0.191996; 7.656211; 0.622255;,
       -0.173895; 7.609111; -0.849495;,
       -0.654795; 7.499721; 1.212375;,
       -0.622194; 7.414981; -1.439625;,
       -1.317194; 7.256861; 1.539875;,
       -1.276495; 7.151200; -1.767115;,
       -2.047895; 6.975700; 1.539875;,
       -2.007195; 6.870041; -1.767115;,
       -2.702194; 6.711921; 1.212375;,
       -2.669594; 6.627191; -1.439625;,
       -3.150496; 6.517771; 0.622255;,
       -3.132395; 6.470740; -0.849495;,
       -3.304094; 6.431691; -0.113625;,
       -5.690596; 20.587212; 0.732315;,
       -5.227795; 20.743610; 0.142195;,
       -5.227795; 20.743610; 0.142195;,
       -5.056194; 20.782711; -0.593685;,
       -6.352995; 20.344311; 1.059815;,
       -7.083694; 20.063211; 1.059815;,
       -7.737995; 19.799410; 0.732315;,
       -8.186295; 19.605211; 0.142195;,
       -8.339895; 19.519211; -0.593685;,
       -8.168295; 19.558210; -1.329555;,
       -7.705395; 19.714710; -1.919685;,
       -7.042995; 19.957510; -2.247175;,
       -6.312294; 20.238710; -2.247175;,
       -5.657995; 20.502510; -1.919685;,
       -5.209694; 20.696611; -1.329555;,
       -5.209694; 20.696611; -1.329555;,
       0.192005; 7.656211; 0.622255;,
       0.654806; 7.499721; 1.212375;,
       3.108905; 15.236811; 0.344185;,
       3.571705; 15.080410; 0.934305;,
       1.317205; 7.256861; 1.539875;,
       4.234105; 14.837610; 1.261805;,
       2.047905; 6.975700; 1.539875;,
       4.964806; 14.556410; 1.261805;,
       2.702206; 6.711921; 1.212375;,
       5.619105; 14.292610; 0.934315;,
       3.150505; 6.517771; 0.622255;,
       6.067406; 14.098511; 0.344185;,
       3.304106; 6.431691; -0.113625;,
       6.221005; 14.012411; -0.391685;,
       3.132405; 6.470740; -0.849495;,
       6.049305; 14.051411; -1.127565;,
       2.669605; 6.627191; -1.439625;,
       5.586505; 14.207911; -1.717685;,
       2.007205; 6.870041; -1.767115;,
       4.924106; 14.450710; -2.045185;,
       1.276505; 7.151200; -1.767115;,
       4.193405; 14.731911; -2.045185;,
       0.622206; 7.414981; -1.439625;,
       3.539105; 14.995710; -1.717685;,
       0.173904; 7.609111; -0.849495;,
       3.090805; 15.189812; -1.127565;,
       0.020306; 7.695210; -0.113625;,
       2.937205; 15.275911; -0.391685;,
       5.056106; 20.782711; -0.593685;,
       5.227805; 20.743610; 0.142195;,
       5.209705; 20.696611; -1.329555;,
       5.690605; 20.587212; 0.732315;,
       5.658006; 20.502510; -1.919685;,
       6.353005; 20.344311; 1.059815;,
       6.312305; 20.238710; -2.247175;,
       7.083705; 20.063211; 1.059815;,
       7.043005; 19.957510; -2.247175;,
       7.738006; 19.799410; 0.732315;,
       7.705405; 19.714710; -1.919685;,
       8.186345; 19.605211; 0.142195;,
       8.168245; 19.558210; -1.329555;,
       8.339895; 19.519211; -0.593685;,
       5.690605; 20.587212; 0.732315;,
       5.227805; 20.743610; 0.142195;,
       5.056106; 20.782711; -0.593685;,
       6.353005; 20.344311; 1.059815;,
       7.083705; 20.063211; 1.059815;,
       7.738006; 19.799410; 0.732315;,
       8.186345; 19.605211; 0.142195;,
       6.221005; 14.012411; -0.391685;,
       8.339895; 19.519211; -0.593685;,
       6.067406; 14.098511; 0.344185;,
       8.186345; 19.605211; 0.142195;,
       6.049305; 14.051411; -1.127565;,
       8.168245; 19.558210; -1.329555;,
       7.705405; 19.714710; -1.919685;,
       8.168245; 19.558210; -1.329555;,
       7.043005; 19.957510; -2.247175;,
       6.312305; 20.238710; -2.247175;,
       5.658006; 20.502510; -1.919685;,
       5.209705; 20.696611; -1.329555;;
       380;
       3;0, 1, 2;,
       3;1, 3, 2;,
       3;4, 0, 5;,
       3;0, 2, 5;,
       3;6, 4, 7;,
       3;4, 5, 7;,
       3;8, 6, 9;,
       3;6, 7, 9;,
       3;10, 8, 11;,
       3;8, 9, 11;,
       3;12, 10, 13;,
       3;10, 11, 13;,
       3;14, 12, 15;,
       3;12, 13, 15;,
       3;16, 14, 17;,
       3;14, 15, 17;,
       3;18, 16, 19;,
       3;16, 17, 19;,
       3;20, 18, 21;,
       3;18, 19, 21;,
       3;22, 20, 23;,
       3;20, 21, 23;,
       3;24, 22, 25;,
       3;22, 23, 25;,
       3;26, 24, 27;,
       3;24, 25, 27;,
       3;28, 26, 29;,
       3;26, 27, 29;,
       3;30, 28, 31;,
       3;28, 29, 31;,
       3;32, 30, 33;,
       3;30, 31, 33;,
       3;34, 32, 35;,
       3;32, 33, 35;,
       3;1, 34, 3;,
       3;34, 35, 3;,
       3;36, 37, 38;,
       3;37, 39, 38;,
       3;38, 39, 40;,
       3;39, 41, 40;,
       3;40, 41, 42;,
       3;41, 43, 42;,
       3;42, 43, 44;,
       3;43, 45, 44;,
       3;44, 45, 46;,
       3;45, 47, 46;,
       3;46, 47, 48;,
       3;47, 49, 48;,
       3;48, 49, 50;,
       3;49, 51, 50;,
       3;50, 51, 52;,
       3;51, 53, 52;,
       3;54, 55, 56;,
       3;55, 57, 56;,
       3;58, 54, 59;,
       3;54, 56, 59;,
       3;60, 58, 61;,
       3;58, 59, 61;,
       3;62, 60, 63;,
       3;60, 61, 63;,
       3;64, 62, 65;,
       3;62, 63, 65;,
       3;66, 64, 67;,
       3;64, 65, 67;,
       3;68, 66, 69;,
       3;66, 67, 69;,
       3;70, 68, 71;,
       3;68, 69, 71;,
       3;72, 70, 73;,
       3;70, 71, 73;,
       3;74, 72, 75;,
       3;72, 73, 75;,
       3;76, 74, 77;,
       3;74, 75, 77;,
       3;78, 76, 79;,
       3;76, 77, 79;,
       3;80, 78, 81;,
       3;78, 79, 81;,
       3;82, 80, 83;,
       3;80, 81, 83;,
       3;84, 82, 85;,
       3;82, 83, 85;,
       3;86, 84, 87;,
       3;84, 85, 87;,
       3;88, 86, 89;,
       3;86, 87, 89;,
       3;55, 88, 57;,
       3;88, 89, 57;,
       3;90, 91, 92;,
       3;91, 93, 92;,
       3;92, 93, 94;,
       3;93, 95, 94;,
       3;94, 95, 96;,
       3;95, 97, 96;,
       3;96, 97, 98;,
       3;97, 99, 98;,
       3;98, 99, 100;,
       3;99, 101, 100;,
       3;100, 101, 102;,
       3;101, 103, 102;,
       3;102, 103, 104;,
       3;103, 105, 104;,
       3;104, 105, 106;,
       3;105, 107, 106;,
       3;108, 109, 110;,
       3;109, 111, 110;,
       3;112, 113, 108;,
       3;113, 109, 108;,
       3;110, 111, 114;,
       3;111, 115, 114;,
       3;114, 115, 116;,
       3;115, 117, 116;,
       3;116, 117, 118;,
       3;117, 119, 118;,
       3;118, 119, 120;,
       3;119, 121, 120;,
       3;120, 121, 122;,
       3;121, 123, 122;,
       3;122, 123, 124;,
       3;123, 125, 124;,
       3;124, 125, 126;,
       3;125, 127, 126;,
       3;126, 127, 128;,
       3;127, 129, 128;,
       3;128, 129, 130;,
       3;129, 131, 130;,
       3;130, 131, 132;,
       3;131, 133, 132;,
       3;132, 133, 134;,
       3;133, 135, 134;,
       3;134, 135, 136;,
       3;135, 137, 136;,
       3;136, 137, 138;,
       3;137, 139, 138;,
       3;138, 139, 140;,
       3;139, 141, 140;,
       3;140, 141, 142;,
       3;141, 143, 142;,
       3;142, 143, 112;,
       3;143, 113, 112;,
       3;144, 145, 146;,
       3;145, 147, 146;,
       3;148, 144, 149;,
       3;144, 146, 149;,
       3;150, 148, 151;,
       3;148, 149, 151;,
       3;152, 150, 153;,
       3;150, 151, 153;,
       3;154, 152, 155;,
       3;152, 153, 155;,
       3;156, 154, 157;,
       3;154, 155, 157;,
       3;158, 156, 159;,
       3;156, 157, 159;,
       3;160, 158, 161;,
       3;158, 159, 161;,
       3;162, 160, 163;,
       3;160, 161, 163;,
       3;164, 162, 165;,
       3;162, 163, 165;,
       3;166, 164, 167;,
       3;164, 165, 167;,
       3;168, 166, 169;,
       3;166, 167, 169;,
       3;170, 171, 172;,
       3;171, 173, 172;,
       3;174, 170, 175;,
       3;170, 172, 175;,
       3;176, 177, 178;,
       3;177, 179, 178;,
       3;178, 179, 180;,
       3;179, 181, 180;,
       3;180, 181, 182;,
       3;181, 183, 182;,
       3;182, 183, 184;,
       3;183, 185, 184;,
       3;184, 185, 186;,
       3;185, 187, 186;,
       3;186, 187, 188;,
       3;187, 189, 188;,
       3;190, 145, 168;,
       3;145, 144, 168;,
       3;168, 144, 166;,
       3;144, 148, 166;,
       3;166, 148, 164;,
       3;148, 150, 164;,
       3;164, 150, 162;,
       3;150, 152, 162;,
       3;162, 152, 160;,
       3;152, 154, 160;,
       3;160, 154, 158;,
       3;154, 156, 158;,
       3;191, 146, 192;,
       3;146, 147, 192;,
       3;193, 175, 194;,
       3;175, 172, 194;,
       3;195, 149, 191;,
       3;149, 146, 191;,
       3;196, 151, 195;,
       3;151, 149, 195;,
       3;197, 153, 196;,
       3;153, 151, 196;,
       3;198, 155, 197;,
       3;155, 153, 197;,
       3;199, 157, 198;,
       3;157, 155, 198;,
       3;200, 159, 199;,
       3;159, 157, 199;,
       3;201, 161, 200;,
       3;161, 159, 200;,
       3;202, 163, 201;,
       3;163, 161, 201;,
       3;203, 165, 202;,
       3;165, 163, 202;,
       3;204, 167, 203;,
       3;167, 165, 203;,
       3;205, 169, 204;,
       3;169, 167, 204;,
       3;194, 172, 206;,
       3;172, 173, 206;,
       3;207, 208, 209;,
       3;208, 210, 209;,
       3;211, 207, 212;,
       3;207, 209, 212;,
       3;213, 211, 214;,
       3;211, 212, 214;,
       3;215, 213, 216;,
       3;213, 214, 216;,
       3;217, 215, 218;,
       3;215, 216, 218;,
       3;219, 217, 220;,
       3;217, 218, 220;,
       3;221, 219, 222;,
       3;219, 220, 222;,
       3;223, 221, 224;,
       3;221, 222, 224;,
       3;225, 223, 226;,
       3;223, 224, 226;,
       3;227, 225, 228;,
       3;225, 226, 228;,
       3;229, 227, 230;,
       3;227, 228, 230;,
       3;231, 229, 232;,
       3;229, 230, 232;,
       3;233, 234, 235;,
       3;234, 236, 235;,
       3;237, 233, 238;,
       3;233, 235, 238;,
       3;239, 240, 241;,
       3;240, 242, 241;,
       3;241, 242, 243;,
       3;242, 244, 243;,
       3;243, 244, 245;,
       3;244, 246, 245;,
       3;245, 246, 247;,
       3;246, 248, 247;,
       3;247, 248, 249;,
       3;248, 250, 249;,
       3;249, 250, 251;,
       3;250, 252, 251;,
       3;253, 254, 255;,
       3;254, 256, 255;,
       3;255, 256, 257;,
       3;256, 258, 257;,
       3;257, 258, 259;,
       3;258, 260, 259;,
       3;259, 260, 261;,
       3;260, 262, 261;,
       3;261, 262, 263;,
       3;262, 264, 263;,
       3;263, 264, 265;,
       3;264, 266, 265;,
       3;267, 209, 268;,
       3;209, 210, 268;,
       3;269, 238, 270;,
       3;238, 235, 270;,
       3;271, 212, 267;,
       3;212, 209, 267;,
       3;272, 214, 271;,
       3;214, 212, 271;,
       3;273, 216, 272;,
       3;216, 214, 272;,
       3;274, 218, 273;,
       3;218, 216, 273;,
       3;275, 220, 274;,
       3;220, 218, 274;,
       3;276, 222, 275;,
       3;222, 220, 275;,
       3;277, 224, 276;,
       3;224, 222, 276;,
       3;278, 226, 277;,
       3;226, 224, 277;,
       3;279, 228, 278;,
       3;228, 226, 278;,
       3;280, 230, 279;,
       3;230, 228, 279;,
       3;281, 232, 280;,
       3;232, 230, 280;,
       3;270, 235, 282;,
       3;235, 236, 282;,
       3;283, 284, 285;,
       3;284, 286, 285;,
       3;284, 287, 286;,
       3;287, 288, 286;,
       3;287, 289, 288;,
       3;289, 290, 288;,
       3;289, 291, 290;,
       3;291, 292, 290;,
       3;291, 293, 292;,
       3;293, 294, 292;,
       3;293, 295, 294;,
       3;295, 296, 294;,
       3;295, 297, 296;,
       3;297, 298, 296;,
       3;297, 299, 298;,
       3;299, 300, 298;,
       3;299, 301, 300;,
       3;301, 302, 300;,
       3;301, 303, 302;,
       3;303, 304, 302;,
       3;303, 305, 304;,
       3;305, 306, 304;,
       3;305, 307, 306;,
       3;307, 308, 306;,
       3;307, 309, 308;,
       3;309, 310, 308;,
       3;309, 283, 310;,
       3;283, 285, 310;,
       3;311, 312, 313;,
       3;312, 314, 313;,
       3;313, 314, 315;,
       3;314, 316, 315;,
       3;315, 316, 317;,
       3;316, 318, 317;,
       3;317, 318, 319;,
       3;318, 320, 319;,
       3;319, 320, 321;,
       3;320, 322, 321;,
       3;321, 322, 323;,
       3;322, 324, 323;,
       3;283, 309, 284;,
       3;309, 307, 284;,
       3;284, 307, 287;,
       3;307, 305, 287;,
       3;287, 305, 289;,
       3;305, 303, 289;,
       3;289, 303, 291;,
       3;303, 301, 291;,
       3;291, 301, 293;,
       3;301, 299, 293;,
       3;293, 299, 295;,
       3;299, 297, 295;,
       3;286, 325, 285;,
       3;325, 326, 285;,
       3;285, 326, 310;,
       3;326, 327, 310;,
       3;288, 328, 286;,
       3;328, 325, 286;,
       3;290, 329, 288;,
       3;329, 328, 288;,
       3;292, 330, 290;,
       3;330, 329, 290;,
       3;294, 331, 292;,
       3;331, 330, 292;,
       3;332, 333, 334;,
       3;333, 335, 334;,
       3;336, 337, 332;,
       3;337, 333, 332;,
       3;300, 338, 298;,
       3;338, 339, 298;,
       3;302, 340, 300;,
       3;340, 338, 300;,
       3;304, 341, 302;,
       3;341, 340, 302;,
       3;306, 342, 304;,
       3;342, 341, 304;,
       3;308, 343, 306;,
       3;343, 342, 306;,
       3;310, 327, 308;,
       3;327, 343, 308;;

      MeshNormals {
       344;
       0.724692; -0.079945; 0.684419;,
       0.915067; -0.079948; 0.395299;,
       0.799875; -0.079946; 0.594818;,
       0.955074; -0.079948; 0.285381;,
       0.446890; -0.079945; 0.891010;,
       0.548196; -0.079946; 0.832520;,
       0.115196; -0.079945; 0.990121;,
       0.230389; -0.079945; 0.969809;,
       -0.230389; -0.079945; 0.969809;,
       -0.115193; -0.079945; 0.990121;,
       -0.548190; -0.079947; 0.832524;,
       -0.446883; -0.079945; 0.891013;,
       -0.799873; -0.079947; 0.594821;,
       -0.724685; -0.079948; 0.684426;,
       -0.955070; -0.079944; 0.285396;,
       -0.915065; -0.079945; 0.395304;,
       -0.995082; -0.079944; -0.058493;,
       -0.995082; -0.079944; 0.058491;,
       -0.915066; -0.079946; -0.395301;,
       -0.955074; -0.079944; -0.285382;,
       -0.724676; -0.079948; -0.684436;,
       -0.799869; -0.079947; -0.594827;,
       -0.446891; -0.079946; -0.891009;,
       -0.548190; -0.079947; -0.832524;,
       -0.115196; -0.079947; -0.990120;,
       -0.230392; -0.079947; -0.969808;,
       0.230392; -0.079947; -0.969808;,
       0.115196; -0.079947; -0.990120;,
       0.548198; -0.079946; -0.832519;,
       0.446894; -0.079946; -0.891007;,
       0.799873; -0.079946; -0.594820;,
       0.724684; -0.079945; -0.684429;,
       0.955078; -0.079948; -0.285369;,
       0.915071; -0.079948; -0.395290;,
       0.995082; -0.079947; 0.058480;,
       0.995082; -0.079946; -0.058490;,
       0.000000; -1.000000; 0.000000;,
       0.000000; -1.000000; 0.000000;,
       0.000000; -1.000000; 0.000000;,
       0.000000; -1.000000; 0.000000;,
       0.000000; -1.000000; 0.000000;,
       0.000000; -1.000000; 0.000000;,
       0.000000; -1.000000; 0.000000;,
       0.000000; -1.000000; 0.000000;,
       0.000000; -1.000000; 0.000000;,
       0.000000; -1.000000; 0.000000;,
       0.000000; -1.000000; 0.000000;,
       0.000000; -1.000000; 0.000000;,
       0.000000; -1.000000; 0.000000;,
       0.000000; -1.000000; 0.000000;,
       0.000000; -1.000000; 0.000000;,
       0.000000; -1.000000; 0.000000;,
       0.000000; -1.000000; 0.000000;,
       0.000000; -1.000000; 0.000000;,
       0.000000; 1.000000; 0.000000;,
       0.000000; 1.000000; 0.000000;,
       0.000000; 1.000000; 0.000000;,
       0.000000; 1.000000; 0.000000;,
       0.000000; 1.000000; 0.000000;,
       0.000000; 1.000000; 0.000000;,
       0.000000; 1.000000; 0.000000;,
       0.000000; 1.000000; 0.000000;,
       0.000000; 1.000000; 0.000000;,
       0.000000; 1.000000; 0.000000;,
       0.000000; 1.000000; 0.000000;,
       0.000000; 1.000000; 0.000000;,
       0.000000; 1.000000; 0.000000;,
       0.000000; 1.000000; 0.000000;,
       0.000000; 1.000000; 0.000000;,
       0.000000; 1.000000; 0.000000;,
       0.000000; 1.000000; 0.000000;,
       0.000000; 1.000000; 0.000000;,
       0.000000; 1.000000; 0.000000;,
       0.000000; 1.000000; 0.000000;,
       0.000000; 1.000000; 0.000000;,
       0.000000; 1.000000; 0.000000;,
       0.000000; 1.000000; 0.000000;,
       0.000000; 1.000000; 0.000000;,
       0.000000; 1.000000; 0.000000;,
       0.000000; 1.000000; 0.000000;,
       0.000000; 1.000000; 0.000000;,
       0.000000; 1.000000; 0.000000;,
       0.000000; 1.000000; 0.000000;,
       0.000000; 1.000000; 0.000000;,
       0.000000; 1.000000; 0.000000;,
       0.000000; 1.000000; 0.000000;,
       0.000000; 1.000000; 0.000000;,
       0.000000; 1.000000; 0.000000;,
       0.000000; 1.000000; 0.000000;,
       0.000000; 1.000000; 0.000000;,
       0.000000; 1.000000; 0.000000;,
       0.000000; 1.000000; 0.000000;,
       0.000000; 1.000000; 0.000000;,
       0.000000; 1.000000; 0.000000;,
       0.000000; 1.000000; 0.000000;,
       0.000000; 1.000000; 0.000000;,
       0.000000; 1.000000; 0.000000;,
       0.000000; 1.000000; 0.000000;,
       0.000000; 1.000000; 0.000000;,
       0.000000; 1.000000; 0.000000;,
       0.000000; 1.000000; 0.000000;,
       0.000000; 1.000000; 0.000000;,
       0.000000; 1.000000; 0.000000;,
       0.000000; 1.000000; 0.000000;,
       0.000000; 1.000000; 0.000000;,
       0.000000; 1.000000; 0.000000;,
       0.000000; 1.000000; 0.000000;,
       0.000000; 1.000000; 0.000000;,
       -0.916414; 0.058739; -0.395899;,
       -0.956489; 0.058735; -0.285796;,
       -0.996555; 0.058731; -0.058562;,
       -0.996554; 0.058731; 0.058571;,
       -0.725753; 0.058740; -0.685443;,
       -0.801045; 0.058739; -0.595715;,
       -0.956488; 0.058735; 0.285798;,
       -0.916417; 0.058739; 0.395891;,
       -0.801045; 0.058739; 0.595715;,
       -0.725754; 0.058739; 0.685441;,
       -0.549008; 0.058739; 0.833750;,
       -0.447555; 0.058740; 0.892325;,
       -0.230733; 0.058739; 0.971243;,
       -0.115369; 0.058740; 0.991584;,
       0.115364; 0.058738; 0.991585;,
       0.230733; 0.058736; 0.971243;,
       0.447555; 0.058733; 0.892325;,
       0.549004; 0.058733; 0.833753;,
       0.725756; 0.058736; 0.685440;,
       0.801055; 0.058739; 0.595702;,
       0.916424; 0.058738; 0.395874;,
       0.956488; 0.058740; 0.285799;,
       0.996553; 0.058741; 0.058576;,
       0.996553; 0.058742; -0.058572;,
       0.956487; 0.058740; -0.285800;,
       0.916422; 0.058739; -0.395878;,
       0.801062; 0.058739; -0.595693;,
       0.725757; 0.058736; -0.685439;,
       0.549000; 0.058734; -0.833756;,
       0.447545; 0.058734; -0.892331;,
       0.230731; 0.058736; -0.971243;,
       0.115367; 0.058738; -0.991585;,
       -0.115364; 0.058739; -0.991585;,
       -0.230731; 0.058740; -0.971243;,
       -0.447553; 0.058741; -0.892326;,
       -0.549011; 0.058740; -0.833748;,
       0.384446; -0.843030; 0.376166;,
       0.544957; -0.800518; 0.249384;,
       0.668868; -0.194937; 0.717366;,
       0.770684; -0.167099; 0.614918;,
       0.100342; -0.871091; 0.480762;,
       0.286884; -0.251211; 0.924441;,
       -0.200695; -0.865277; 0.459366;,
       -0.143439; -0.259524; 0.955025;,
       -0.467727; -0.826174; 0.314115;,
       -0.549839; -0.219035; 0.806040;,
       -0.647867; -0.758972; 0.065032;,
       -0.858115; -0.134645; 0.495489;,
       -0.943411; -0.292332; -0.156580;,
       -0.996901; -0.020628; 0.075911;,
       -0.708773; -0.432786; -0.557079;,
       -0.927170; 0.098244; -0.361531;,
       -0.384453; -0.536715; -0.751088;,
       -0.668911; 0.194930; -0.717328;,
       -0.100342; -0.507968; -0.855511;,
       -0.286861; 0.251212; -0.924448;,
       0.200683; -0.513781; -0.834119;,
       0.143425; 0.259521; -0.955028;,
       0.467698; -0.553561; -0.689078;,
       0.549795; 0.219044; -0.806068;,
       0.243713; -0.862645; -0.443223;,
       0.770689; 0.167098; -0.614912;,
       0.996905; -0.020616; 0.075865;,
       0.973136; 0.060374; -0.222174;,
       0.996905; 0.020616; -0.075867;,
       0.973137; 0.060374; -0.222172;,
       0.973136; -0.060374; 0.222174;,
       0.973136; -0.060374; 0.222175;,
       0.000160; 0.964987; 0.262300;,
       0.000101; 0.964994; 0.262272;,
       0.000095; 0.964996; 0.262265;,
       0.000031; 0.965005; 0.262231;,
       0.000017; 0.965009; 0.262218;,
       0.000018; 0.965009; 0.262216;,
       0.000008; 0.965008; 0.262221;,
       0.000008; 0.965004; 0.262234;,
       -0.000044; 0.965006; 0.262227;,
       -0.000058; 0.965006; 0.262226;,
       -0.000036; 0.965006; 0.262228;,
       0.000039; 0.965000; 0.262250;,
       0.000111; 0.964994; 0.262271;,
       0.000157; 0.964988; 0.262293;,
       -0.000008; -0.965006; -0.262230;,
       0.549824; -0.219038; 0.806050;,
       0.770684; -0.167097; 0.614918;,
       0.973135; -0.060375; 0.222181;,
       0.996905; -0.020617; 0.075869;,
       0.143458; -0.259525; 0.955022;,
       -0.286897; -0.251211; 0.924437;,
       -0.668930; -0.194922; 0.717313;,
       -0.927168; -0.098243; 0.361535;,
       -0.996901; 0.020628; -0.075907;,
       -0.858116; 0.134647; -0.495487;,
       -0.549824; 0.219039; -0.806049;,
       -0.143439; 0.259518; -0.955027;,
       0.286864; 0.251210; -0.924447;,
       0.668868; 0.194941; -0.717366;,
       0.770684; 0.167100; -0.614918;,
       0.973137; 0.060374; -0.222172;,
       0.502877; 0.224118; 0.834797;,
       0.711505; 0.297132; 0.636768;,
       0.615162; 0.263953; 0.742903;,
       0.711515; 0.297135; 0.636755;,
       0.121701; 0.083109; 0.989081;,
       0.255955; 0.133605; 0.957411;,
       -0.279504; -0.072429; 0.957409;,
       -0.146024; -0.019907; 0.989081;,
       -0.633430; -0.216481; 0.742901;,
       -0.523417; -0.170779; 0.834787;,
       -0.869933; -0.320997; 0.374403;,
       -0.807186; -0.291767; 0.513151;,
       -0.929437; -0.360512; -0.078597;,
       -0.931369; -0.355489; 0.078606;,
       -0.794567; -0.324557; -0.513154;,
       -0.860735; -0.344931; -0.374377;,
       -0.502880; -0.224119; -0.834795;,
       -0.615141; -0.263947; -0.742922;,
       -0.121698; -0.083108; -0.989082;,
       -0.255955; -0.133605; -0.957411;,
       0.279504; 0.072429; -0.957409;,
       0.146028; 0.019908; -0.989080;,
       0.633429; 0.216480; -0.742902;,
       0.523415; 0.170778; -0.834788;,
       0.727168; 0.256442; -0.636761;,
       0.727169; 0.256443; -0.636759;,
       0.929437; 0.360513; 0.078601;,
       0.911032; 0.342103; -0.230189;,
       0.931369; 0.355495; -0.078579;,
       0.911032; 0.342103; -0.230188;,
       0.905377; 0.356818; 0.230161;,
       0.905376; 0.356818; 0.230166;,
       -0.358696; 0.932832; -0.034079;,
       -0.358849; 0.932770; -0.034162;,
       -0.358884; 0.932756; -0.034185;,
       -0.358940; 0.932733; -0.034219;,
       -0.358885; 0.932755; -0.034197;,
       -0.358877; 0.932758; -0.034195;,
       -0.358899; 0.932749; -0.034209;,
       -0.358936; 0.932734; -0.034229;,
       -0.358950; 0.932729; -0.034234;,
       -0.358904; 0.932748; -0.034207;,
       -0.358837; 0.932775; -0.034173;,
       -0.358865; 0.932763; -0.034193;,
       -0.358901; 0.932748; -0.034216;,
       -0.359054; 0.932686; -0.034299;,
       0.358723; -0.932815; 0.034265;,
       0.358895; -0.932749; 0.034265;,
       0.358889; -0.932752; 0.034249;,
       0.358947; -0.932730; 0.034232;,
       0.358894; -0.932751; 0.034217;,
       0.358904; -0.932747; 0.034218;,
       0.358905; -0.932747; 0.034219;,
       0.358905; -0.932747; 0.034219;,
       0.358897; -0.932750; 0.034217;,
       0.358902; -0.932748; 0.034215;,
       0.358916; -0.932743; 0.034215;,
       0.358889; -0.932753; 0.034218;,
       0.358875; -0.932758; 0.034221;,
       0.358803; -0.932786; 0.034221;,
       0.502883; 0.224120; 0.834793;,
       0.711516; 0.297133; 0.636755;,
       0.905395; 0.356817; 0.230090;,
       0.929432; 0.360521; 0.078616;,
       0.121699; 0.083108; 0.989082;,
       -0.279502; -0.072428; 0.957409;,
       -0.633426; -0.216480; 0.742905;,
       -0.869933; -0.321003; 0.374397;,
       -0.929439; -0.360516; -0.078560;,
       -0.794568; -0.324566; -0.513146;,
       -0.502855; -0.224110; -0.834812;,
       -0.121702; -0.083108; -0.989081;,
       0.279504; 0.072429; -0.957409;,
       0.633431; 0.216480; -0.742901;,
       0.727172; 0.256444; -0.636755;,
       0.911042; 0.342116; -0.230130;,
       -0.930506; 0.025231; 0.365407;,
       -0.686744; -0.482192; 0.543943;,
       -0.794568; 0.324558; 0.513151;,
       -0.502884; 0.224121; 0.834792;,
       -0.435510; -0.573012; 0.694253;,
       -0.121706; 0.083110; 0.989081;,
       -0.154289; -0.680407; 0.716409;,
       0.279504; -0.072429; 0.957409;,
       0.109411; -0.786223; 0.608179;,
       0.633420; -0.216478; 0.742911;,
       0.307294; -0.871124; 0.383033;,
       0.841094; -0.307311; 0.445107;,
       0.566688; -0.819617; 0.084220;,
       0.929438; -0.360511; -0.078594;,
       0.698684; -0.627698; -0.343272;,
       0.762980; -0.314300; -0.564869;,
       0.173549; -0.851378; -0.495011;,
       0.502875; -0.224117; -0.834798;,
       -0.077379; -0.759951; -0.645357;,
       0.121705; -0.083110; -0.989081;,
       -0.358611; -0.652555; -0.667511;,
       -0.279504; 0.072429; -0.957409;,
       -0.622565; -0.547399; -0.559256;,
       -0.633432; 0.216481; -0.742900;,
       -0.820770; -0.463381; -0.334087;,
       -0.869933; 0.320999; -0.374400;,
       -0.971542; -0.232445; -0.045569;,
       -0.929436; 0.360512; 0.078610;,
       0.358984; 0.932717; -0.034200;,
       0.358908; 0.932746; -0.034200;,
       0.358885; 0.932755; -0.034201;,
       0.358871; 0.932760; -0.034202;,
       0.358907; 0.932746; -0.034202;,
       0.358906; 0.932747; -0.034202;,
       0.358909; 0.932746; -0.034212;,
       0.358905; 0.932747; -0.034221;,
       0.358898; 0.932749; -0.034221;,
       0.358911; 0.932745; -0.034212;,
       0.358930; 0.932738; -0.034202;,
       0.358850; 0.932768; -0.034202;,
       0.358781; 0.932795; -0.034201;,
       0.358576; 0.932874; -0.034201;,
       -0.615162; 0.263951; 0.742904;,
       -0.860724; 0.344922; 0.374410;,
       -0.931370; 0.355489; -0.078599;,
       -0.255954; 0.133605; 0.957412;,
       0.146027; -0.019908; 0.989080;,
       0.523397; -0.170771; 0.834801;,
       0.727148; -0.256438; 0.636785;,
       0.929440; -0.360512; -0.078566;,
       0.931369; -0.355491; 0.078597;,
       0.911041; -0.342113; 0.230136;,
       0.911049; -0.342126; 0.230085;,
       0.905377; -0.356819; -0.230158;,
       0.905385; -0.356817; -0.230131;,
       0.615138; -0.263946; -0.742925;,
       0.711474; -0.297124; -0.636806;,
       0.255957; -0.133605; -0.957411;,
       -0.146025; 0.019908; -0.989081;,
       -0.523416; 0.170779; -0.834787;,
       -0.807190; 0.291767; -0.513143;;
       380;
       3;0, 1, 2;,
       3;1, 3, 2;,
       3;4, 0, 5;,
       3;0, 2, 5;,
       3;6, 4, 7;,
       3;4, 5, 7;,
       3;8, 6, 9;,
       3;6, 7, 9;,
       3;10, 8, 11;,
       3;8, 9, 11;,
       3;12, 10, 13;,
       3;10, 11, 13;,
       3;14, 12, 15;,
       3;12, 13, 15;,
       3;16, 14, 17;,
       3;14, 15, 17;,
       3;18, 16, 19;,
       3;16, 17, 19;,
       3;20, 18, 21;,
       3;18, 19, 21;,
       3;22, 20, 23;,
       3;20, 21, 23;,
       3;24, 22, 25;,
       3;22, 23, 25;,
       3;26, 24, 27;,
       3;24, 25, 27;,
       3;28, 26, 29;,
       3;26, 27, 29;,
       3;30, 28, 31;,
       3;28, 29, 31;,
       3;32, 30, 33;,
       3;30, 31, 33;,
       3;34, 32, 35;,
       3;32, 33, 35;,
       3;1, 34, 3;,
       3;34, 35, 3;,
       3;36, 37, 38;,
       3;37, 39, 38;,
       3;38, 39, 40;,
       3;39, 41, 40;,
       3;40, 41, 42;,
       3;41, 43, 42;,
       3;42, 43, 44;,
       3;43, 45, 44;,
       3;44, 45, 46;,
       3;45, 47, 46;,
       3;46, 47, 48;,
       3;47, 49, 48;,
       3;48, 49, 50;,
       3;49, 51, 50;,
       3;50, 51, 52;,
       3;51, 53, 52;,
       3;54, 55, 56;,
       3;55, 57, 56;,
       3;58, 54, 59;,
       3;54, 56, 59;,
       3;60, 58, 61;,
       3;58, 59, 61;,
       3;62, 60, 63;,
       3;60, 61, 63;,
       3;64, 62, 65;,
       3;62, 63, 65;,
       3;66, 64, 67;,
       3;64, 65, 67;,
       3;68, 66, 69;,
       3;66, 67, 69;,
       3;70, 68, 71;,
       3;68, 69, 71;,
       3;72, 70, 73;,
       3;70, 71, 73;,
       3;74, 72, 75;,
       3;72, 73, 75;,
       3;76, 74, 77;,
       3;74, 75, 77;,
       3;78, 76, 79;,
       3;76, 77, 79;,
       3;80, 78, 81;,
       3;78, 79, 81;,
       3;82, 80, 83;,
       3;80, 81, 83;,
       3;84, 82, 85;,
       3;82, 83, 85;,
       3;86, 84, 87;,
       3;84, 85, 87;,
       3;88, 86, 89;,
       3;86, 87, 89;,
       3;55, 88, 57;,
       3;88, 89, 57;,
       3;90, 91, 92;,
       3;91, 93, 92;,
       3;92, 93, 94;,
       3;93, 95, 94;,
       3;94, 95, 96;,
       3;95, 97, 96;,
       3;96, 97, 98;,
       3;97, 99, 98;,
       3;98, 99, 100;,
       3;99, 101, 100;,
       3;100, 101, 102;,
       3;101, 103, 102;,
       3;102, 103, 104;,
       3;103, 105, 104;,
       3;104, 105, 106;,
       3;105, 107, 106;,
       3;108, 109, 110;,
       3;109, 111, 110;,
       3;112, 113, 108;,
       3;113, 109, 108;,
       3;110, 111, 114;,
       3;111, 115, 114;,
       3;114, 115, 116;,
       3;115, 117, 116;,
       3;116, 117, 118;,
       3;117, 119, 118;,
       3;118, 119, 120;,
       3;119, 121, 120;,
       3;120, 121, 122;,
       3;121, 123, 122;,
       3;122, 123, 124;,
       3;123, 125, 124;,
       3;124, 125, 126;,
       3;125, 127, 126;,
       3;126, 127, 128;,
       3;127, 129, 128;,
       3;128, 129, 130;,
       3;129, 131, 130;,
       3;130, 131, 132;,
       3;131, 133, 132;,
       3;132, 133, 134;,
       3;133, 135, 134;,
       3;134, 135, 136;,
       3;135, 137, 136;,
       3;136, 137, 138;,
       3;137, 139, 138;,
       3;138, 139, 140;,
       3;139, 141, 140;,
       3;140, 141, 142;,
       3;141, 143, 142;,
       3;142, 143, 112;,
       3;143, 113, 112;,
       3;144, 145, 146;,
       3;145, 147, 146;,
       3;148, 144, 149;,
       3;144, 146, 149;,
       3;150, 148, 151;,
       3;148, 149, 151;,
       3;152, 150, 153;,
       3;150, 151, 153;,
       3;154, 152, 155;,
       3;152, 153, 155;,
       3;156, 154, 157;,
       3;154, 155, 157;,
       3;158, 156, 159;,
       3;156, 157, 159;,
       3;160, 158, 161;,
       3;158, 159, 161;,
       3;162, 160, 163;,
       3;160, 161, 163;,
       3;164, 162, 165;,
       3;162, 163, 165;,
       3;166, 164, 167;,
       3;164, 165, 167;,
       3;168, 166, 169;,
       3;166, 167, 169;,
       3;170, 171, 172;,
       3;171, 173, 172;,
       3;174, 170, 175;,
       3;170, 172, 175;,
       3;176, 177, 178;,
       3;177, 179, 178;,
       3;178, 179, 180;,
       3;179, 181, 180;,
       3;180, 181, 182;,
       3;181, 183, 182;,
       3;182, 183, 184;,
       3;183, 185, 184;,
       3;184, 185, 186;,
       3;185, 187, 186;,
       3;186, 187, 188;,
       3;187, 189, 188;,
       3;190, 145, 168;,
       3;145, 144, 168;,
       3;168, 144, 166;,
       3;144, 148, 166;,
       3;166, 148, 164;,
       3;148, 150, 164;,
       3;164, 150, 162;,
       3;150, 152, 162;,
       3;162, 152, 160;,
       3;152, 154, 160;,
       3;160, 154, 158;,
       3;154, 156, 158;,
       3;191, 146, 192;,
       3;146, 147, 192;,
       3;193, 175, 194;,
       3;175, 172, 194;,
       3;195, 149, 191;,
       3;149, 146, 191;,
       3;196, 151, 195;,
       3;151, 149, 195;,
       3;197, 153, 196;,
       3;153, 151, 196;,
       3;198, 155, 197;,
       3;155, 153, 197;,
       3;199, 157, 198;,
       3;157, 155, 198;,
       3;200, 159, 199;,
       3;159, 157, 199;,
       3;201, 161, 200;,
       3;161, 159, 200;,
       3;202, 163, 201;,
       3;163, 161, 201;,
       3;203, 165, 202;,
       3;165, 163, 202;,
       3;204, 167, 203;,
       3;167, 165, 203;,
       3;205, 169, 204;,
       3;169, 167, 204;,
       3;194, 172, 206;,
       3;172, 173, 206;,
       3;207, 208, 209;,
       3;208, 210, 209;,
       3;211, 207, 212;,
       3;207, 209, 212;,
       3;213, 211, 214;,
       3;211, 212, 214;,
       3;215, 213, 216;,
       3;213, 214, 216;,
       3;217, 215, 218;,
       3;215, 216, 218;,
       3;219, 217, 220;,
       3;217, 218, 220;,
       3;221, 219, 222;,
       3;219, 220, 222;,
       3;223, 221, 224;,
       3;221, 222, 224;,
       3;225, 223, 226;,
       3;223, 224, 226;,
       3;227, 225, 228;,
       3;225, 226, 228;,
       3;229, 227, 230;,
       3;227, 228, 230;,
       3;231, 229, 232;,
       3;229, 230, 232;,
       3;233, 234, 235;,
       3;234, 236, 235;,
       3;237, 233, 238;,
       3;233, 235, 238;,
       3;239, 240, 241;,
       3;240, 242, 241;,
       3;241, 242, 243;,
       3;242, 244, 243;,
       3;243, 244, 245;,
       3;244, 246, 245;,
       3;245, 246, 247;,
       3;246, 248, 247;,
       3;247, 248, 249;,
       3;248, 250, 249;,
       3;249, 250, 251;,
       3;250, 252, 251;,
       3;253, 254, 255;,
       3;254, 256, 255;,
       3;255, 256, 257;,
       3;256, 258, 257;,
       3;257, 258, 259;,
       3;258, 260, 259;,
       3;259, 260, 261;,
       3;260, 262, 261;,
       3;261, 262, 263;,
       3;262, 264, 263;,
       3;263, 264, 265;,
       3;264, 266, 265;,
       3;267, 209, 268;,
       3;209, 210, 268;,
       3;269, 238, 270;,
       3;238, 235, 270;,
       3;271, 212, 267;,
       3;212, 209, 267;,
       3;272, 214, 271;,
       3;214, 212, 271;,
       3;273, 216, 272;,
       3;216, 214, 272;,
       3;274, 218, 273;,
       3;218, 216, 273;,
       3;275, 220, 274;,
       3;220, 218, 274;,
       3;276, 222, 275;,
       3;222, 220, 275;,
       3;277, 224, 276;,
       3;224, 222, 276;,
       3;278, 226, 277;,
       3;226, 224, 277;,
       3;279, 228, 278;,
       3;228, 226, 278;,
       3;280, 230, 279;,
       3;230, 228, 279;,
       3;281, 232, 280;,
       3;232, 230, 280;,
       3;270, 235, 282;,
       3;235, 236, 282;,
       3;283, 284, 285;,
       3;284, 286, 285;,
       3;284, 287, 286;,
       3;287, 288, 286;,
       3;287, 289, 288;,
       3;289, 290, 288;,
       3;289, 291, 290;,
       3;291, 292, 290;,
       3;291, 293, 292;,
       3;293, 294, 292;,
       3;293, 295, 294;,
       3;295, 296, 294;,
       3;295, 297, 296;,
       3;297, 298, 296;,
       3;297, 299, 298;,
       3;299, 300, 298;,
       3;299, 301, 300;,
       3;301, 302, 300;,
       3;301, 303, 302;,
       3;303, 304, 302;,
       3;303, 305, 304;,
       3;305, 306, 304;,
       3;305, 307, 306;,
       3;307, 308, 306;,
       3;307, 309, 308;,
       3;309, 310, 308;,
       3;309, 283, 310;,
       3;283, 285, 310;,
       3;311, 312, 313;,
       3;312, 314, 313;,
       3;313, 314, 315;,
       3;314, 316, 315;,
       3;315, 316, 317;,
       3;316, 318, 317;,
       3;317, 318, 319;,
       3;318, 320, 319;,
       3;319, 320, 321;,
       3;320, 322, 321;,
       3;321, 322, 323;,
       3;322, 324, 323;,
       3;283, 309, 284;,
       3;309, 307, 284;,
       3;284, 307, 287;,
       3;307, 305, 287;,
       3;287, 305, 289;,
       3;305, 303, 289;,
       3;289, 303, 291;,
       3;303, 301, 291;,
       3;291, 301, 293;,
       3;301, 299, 293;,
       3;293, 299, 295;,
       3;299, 297, 295;,
       3;286, 325, 285;,
       3;325, 326, 285;,
       3;285, 326, 310;,
       3;326, 327, 310;,
       3;288, 328, 286;,
       3;328, 325, 286;,
       3;290, 329, 288;,
       3;329, 328, 288;,
       3;292, 330, 290;,
       3;330, 329, 290;,
       3;294, 331, 292;,
       3;331, 330, 292;,
       3;332, 333, 334;,
       3;333, 335, 334;,
       3;336, 337, 332;,
       3;337, 333, 332;,
       3;300, 338, 298;,
       3;338, 339, 298;,
       3;302, 340, 300;,
       3;340, 338, 300;,
       3;304, 341, 302;,
       3;341, 340, 302;,
       3;306, 342, 304;,
       3;342, 341, 304;,
       3;308, 343, 306;,
       3;343, 342, 306;,
       3;310, 327, 308;,
       3;327, 343, 308;;
      }

      MeshTextureCoords {
       344;
       0.423419; 0.502385;,
       0.443357; 0.502385;,
       0.442128; 0.198386;,
       0.466308; 0.198386;,
       0.392871; 0.502385;,
       0.405083; 0.198386;,
       0.355399; 0.502385;,
       0.359640; 0.198386;,
       0.315521; 0.502385;,
       0.311280; 0.198386;,
       0.278049; 0.502385;,
       0.265837; 0.198386;,
       0.247501; 0.502385;,
       0.228790; 0.198386;,
       0.227561; 0.502385;,
       0.204611; 0.198386;,
       0.327665; 0.502385;,
       0.303242; 0.198386;,
       0.288308; 0.502385;,
       0.265358; 0.198386;,
       0.247501; 0.502385;,
       0.228790; 0.198386;,
       0.278049; 0.502385;,
       0.265837; 0.198386;,
       0.315521; 0.502385;,
       0.311280; 0.198386;,
       0.355399; 0.502385;,
       0.359640; 0.198386;,
       0.392871; 0.502385;,
       0.405083; 0.198386;,
       0.423419; 0.502385;,
       0.442128; 0.198386;,
       0.443357; 0.502385;,
       0.466308; 0.198386;,
       0.364947; 0.485029;,
       0.389371; 0.181030;,
       0.446781; 0.341708;,
       0.440067; 0.379782;,
       0.440067; 0.303634;,
       0.420738; 0.413264;,
       0.420738; 0.270152;,
       0.391122; 0.438115;,
       0.391122; 0.245301;,
       0.354792; 0.451338;,
       0.354792; 0.232078;,
       0.316130; 0.451338;,
       0.316130; 0.232078;,
       0.279800; 0.438115;,
       0.279800; 0.245301;,
       0.250184; 0.413264;,
       0.250184; 0.270152;,
       0.230852; 0.379782;,
       0.230852; 0.303634;,
       0.224138; 0.341708;,
       0.458510; 0.341708;,
       0.451091; 0.383794;,
       0.470460; 0.341708;,
       0.462319; 0.387881;,
       0.451091; 0.299622;,
       0.462319; 0.295535;,
       0.429722; 0.262613;,
       0.438876; 0.254931;,
       0.396986; 0.235143;,
       0.402961; 0.224794;,
       0.356829; 0.220527;,
       0.358903; 0.208758;,
       0.314093; 0.220527;,
       0.312018; 0.208758;,
       0.273936; 0.235143;,
       0.267961; 0.224794;,
       0.241198; 0.262613;,
       0.232044; 0.254931;,
       0.219831; 0.299622;,
       0.208602; 0.295535;,
       0.212410; 0.341708;,
       0.200460; 0.341708;,
       0.219831; 0.383794;,
       0.208602; 0.387881;,
       0.241198; 0.420803;,
       0.232044; 0.428484;,
       0.273936; 0.448273;,
       0.267961; 0.458622;,
       0.314093; 0.462889;,
       0.312018; 0.474657;,
       0.356829; 0.462889;,
       0.358903; 0.474657;,
       0.396986; 0.448273;,
       0.402961; 0.458622;,
       0.429722; 0.420803;,
       0.438876; 0.428484;,
       0.423907; 0.415924;,
       0.443958; 0.381197;,
       0.393190; 0.441699;,
       0.450921; 0.341708;,
       0.355509; 0.455414;,
       0.443958; 0.302218;,
       0.315411; 0.455414;,
       0.423907; 0.267492;,
       0.277729; 0.441699;,
       0.393190; 0.241717;,
       0.247013; 0.415924;,
       0.355509; 0.228002;,
       0.226964; 0.381197;,
       0.315411; 0.228002;,
       0.220001; 0.341708;,
       0.277729; 0.241717;,
       0.226964; 0.302218;,
       0.247013; 0.267492;,
       0.447369; 0.331219;,
       0.454726; 0.198386;,
       0.454551; 0.331219;,
       0.462379; 0.198386;,
       0.426688; 0.331219;,
       0.432686; 0.198386;,
       0.447369; 0.331219;,
       0.454726; 0.198386;,
       0.426688; 0.331219;,
       0.432686; 0.198386;,
       0.395005; 0.331219;,
       0.398920; 0.198386;,
       0.356138; 0.331219;,
       0.357500; 0.198386;,
       0.314779; 0.331219;,
       0.313420; 0.198386;,
       0.275913; 0.331219;,
       0.272000; 0.198386;,
       0.244230; 0.331219;,
       0.238232; 0.198386;,
       0.223550; 0.331219;,
       0.216193; 0.198386;,
       0.216369; 0.331219;,
       0.208539; 0.198386;,
       0.223550; 0.331219;,
       0.216193; 0.198386;,
       0.244230; 0.331219;,
       0.238232; 0.198386;,
       0.275913; 0.331219;,
       0.272000; 0.198386;,
       0.314779; 0.331219;,
       0.313420; 0.198386;,
       0.356138; 0.331219;,
       0.357500; 0.198386;,
       0.395005; 0.331219;,
       0.398920; 0.198386;,
       0.845184; 0.924573;,
       0.867721; 0.917425;,
       0.845184; 0.562517;,
       0.886523; 0.555370;,
       0.812620; 0.928540;,
       0.812620; 0.566487;,
       0.776479; 0.928540;,
       0.776479; 0.566487;,
       0.743915; 0.924573;,
       0.743915; 0.562517;,
       0.721382; 0.917425;,
       0.721382; 0.555370;,
       0.713336; 0.908512;,
       0.713336; 0.546456;,
       0.721382; 0.899599;,
       0.721382; 0.537542;,
       0.743915; 0.892451;,
       0.743915; 0.530396;,
       0.776479; 0.888483;,
       0.776479; 0.526431;,
       0.812620; 0.888483;,
       0.812620; 0.526431;,
       0.845184; 0.892451;,
       0.845184; 0.530396;,
       0.867721; 0.899599;,
       0.867721; 0.537542;,
       0.888438; 0.883065;,
       0.924911; 0.882432;,
       0.879986; 0.550489;,
       0.916460; 0.549855;,
       0.851964; 0.883697;,
       0.843512; 0.551122;,
       0.394753; 0.734318;,
       0.383455; 0.705793;,
       0.351348; 0.757186;,
       0.375011; 0.677267;,
       0.317155; 0.769875;,
       0.351348; 0.654400;,
       0.279207; 0.769875;,
       0.317155; 0.641695;,
       0.245015; 0.757186;,
       0.279207; 0.641695;,
       0.221356; 0.734318;,
       0.245015; 0.654400;,
       0.212908; 0.705793;,
       0.221356; 0.677267;,
       0.875763; 0.908512;,
       0.845184; 0.299513;,
       0.886523; 0.292367;,
       0.837374; 0.309533;,
       0.873846; 0.308900;,
       0.812620; 0.303478;,
       0.776479; 0.303478;,
       0.743915; 0.299513;,
       0.721382; 0.292367;,
       0.713336; 0.283453;,
       0.721382; 0.274538;,
       0.743915; 0.267392;,
       0.776479; 0.263422;,
       0.812620; 0.263422;,
       0.845184; 0.267392;,
       0.867721; 0.274538;,
       0.910320; 0.308267;,
       0.862733; 0.937868;,
       0.894339; 0.939331;,
       0.871499; 0.517623;,
       0.903103; 0.519090;,
       0.817037; 0.936679;,
       0.825804; 0.516432;,
       0.766307; 0.936005;,
       0.775074; 0.515759;,
       0.720590; 0.935977;,
       0.729356; 0.515732;,
       0.688940; 0.936602;,
       0.697708; 0.516355;,
       0.677622; 0.937754;,
       0.738289; 0.517508;,
       0.688886; 0.939209;,
       0.697652; 0.518965;,
       0.720492; 0.940674;,
       0.729259; 0.520428;,
       0.766187; 0.941863;,
       0.774953; 0.521619;,
       0.816917; 0.942538;,
       0.825684; 0.522292;,
       0.862634; 0.942565;,
       0.871401; 0.522318;,
       0.894283; 0.941941;,
       0.903049; 0.521696;,
       0.841557; 0.929088;,
       0.897417; 0.933663;,
       0.862665; 0.526276;,
       0.918525; 0.530851;,
       0.785697; 0.931161;,
       0.806805; 0.528353;,
       0.373625; 0.740105;,
       0.381966; 0.710312;,
       0.351129; 0.763997;,
       0.374505; 0.680519;,
       0.318932; 0.777256;,
       0.352714; 0.656627;,
       0.283415; 0.777256;,
       0.320911; 0.643368;,
       0.251612; 0.763997;,
       0.285393; 0.643368;,
       0.229821; 0.740105;,
       0.253196; 0.656627;,
       0.222355; 0.710312;,
       0.230696; 0.680519;,
       0.840205; 1.510020;,
       0.829850; 1.507969;,
       0.829693; 1.510990;,
       0.800687; 1.505255;,
       0.800406; 1.510691;,
       0.758486; 1.502404;,
       0.758138; 1.509183;,
       0.711609; 1.499984;,
       0.711262; 1.506764;,
       0.669342; 1.498477;,
       0.669061; 1.503912;,
       0.640054; 1.498178;,
       0.639899; 1.501196;,
       0.629542; 1.499148;,
       0.877867; 0.212347;,
       0.909471; 0.213814;,
       0.822138; 0.235741;,
       0.877998; 0.233663;,
       0.832170; 0.211161;,
       0.781442; 0.210483;,
       0.735725; 0.210457;,
       0.704074; 0.211084;,
       0.744657; 0.212233;,
       0.704015; 0.213688;,
       0.735627; 0.215152;,
       0.781322; 0.216343;,
       0.832052; 0.217016;,
       0.877770; 0.217043;,
       0.909418; 0.216420;,
       0.933858; 0.238238;,
       0.713410; 0.920030;,
       0.742616; 0.918288;,
       0.696806; 0.535554;,
       0.726010; 0.533808;,
       0.784861; 0.916617;,
       0.768253; 0.532135;,
       0.831772; 0.915353;,
       0.815166; 0.530872;,
       0.874060; 0.914744;,
       0.857454; 0.530264;,
       0.903349; 0.914912;,
       0.886741; 0.530430;,
       0.913842; 0.915823;,
       0.897235; 0.531341;,
       0.903451; 0.917298;,
       0.886845; 0.532819;,
       0.874246; 0.919042;,
       0.857639; 0.534560;,
       0.832001; 0.920713;,
       0.815395; 0.536233;,
       0.785090; 0.921977;,
       0.768483; 0.537496;,
       0.742802; 0.922585;,
       0.726195; 0.538104;,
       0.713514; 0.922418;,
       0.696908; 0.537938;,
       0.703020; 0.921507;,
       0.686414; 0.537026;,
       0.218488; 0.712426;,
       0.227451; 0.744029;,
       0.226506; 0.680822;,
       0.251607; 0.769373;,
       0.249906; 0.655478;,
       0.286183; 0.783438;,
       0.284058; 0.641413;,
       0.324323; 0.783438;,
       0.322199; 0.641413;,
       0.358475; 0.769373;,
       0.356774; 0.655478;,
       0.381877; 0.744029;,
       0.380933; 0.680822;,
       0.389892; 0.712426;,
       0.713946; 0.254512;,
       0.684742; 0.256258;,
       0.674350; 0.257731;,
       0.756192; 0.252843;,
       0.803102; 0.251576;,
       0.845390; 0.250969;,
       0.874682; 0.251138;,
       0.864192; 0.666888;,
       0.875905; 0.430283;,
       0.821523; 0.663188;,
       0.833235; 0.426588;,
       0.906862; 0.665212;,
       0.918575; 0.428607;,
       0.845575; 0.255265;,
       0.874784; 0.253522;,
       0.803332; 0.256938;,
       0.756420; 0.258201;,
       0.714131; 0.258808;,
       0.684844; 0.258642;;
      }

      MeshVertexColors {
       344;
       0; 1.000000; 1.000000; 1.000000; 1.000000;,
       1; 1.000000; 1.000000; 1.000000; 1.000000;,
       2; 1.000000; 1.000000; 1.000000; 1.000000;,
       3; 1.000000; 1.000000; 1.000000; 1.000000;,
       4; 1.000000; 1.000000; 1.000000; 1.000000;,
       5; 1.000000; 1.000000; 1.000000; 1.000000;,
       6; 1.000000; 1.000000; 1.000000; 1.000000;,
       7; 1.000000; 1.000000; 1.000000; 1.000000;,
       8; 1.000000; 1.000000; 1.000000; 1.000000;,
       9; 1.000000; 1.000000; 1.000000; 1.000000;,
       10; 1.000000; 1.000000; 1.000000; 1.000000;,
       11; 1.000000; 1.000000; 1.000000; 1.000000;,
       12; 1.000000; 1.000000; 1.000000; 1.000000;,
       13; 1.000000; 1.000000; 1.000000; 1.000000;,
       14; 1.000000; 1.000000; 1.000000; 1.000000;,
       15; 1.000000; 1.000000; 1.000000; 1.000000;,
       16; 1.000000; 1.000000; 1.000000; 1.000000;,
       17; 1.000000; 1.000000; 1.000000; 1.000000;,
       18; 1.000000; 1.000000; 1.000000; 1.000000;,
       19; 1.000000; 1.000000; 1.000000; 1.000000;,
       20; 1.000000; 1.000000; 1.000000; 1.000000;,
       21; 1.000000; 1.000000; 1.000000; 1.000000;,
       22; 1.000000; 1.000000; 1.000000; 1.000000;,
       23; 1.000000; 1.000000; 1.000000; 1.000000;,
       24; 1.000000; 1.000000; 1.000000; 1.000000;,
       25; 1.000000; 1.000000; 1.000000; 1.000000;,
       26; 1.000000; 1.000000; 1.000000; 1.000000;,
       27; 1.000000; 1.000000; 1.000000; 1.000000;,
       28; 1.000000; 1.000000; 1.000000; 1.000000;,
       29; 1.000000; 1.000000; 1.000000; 1.000000;,
       30; 1.000000; 1.000000; 1.000000; 1.000000;,
       31; 1.000000; 1.000000; 1.000000; 1.000000;,
       32; 1.000000; 1.000000; 1.000000; 1.000000;,
       33; 1.000000; 1.000000; 1.000000; 1.000000;,
       34; 1.000000; 1.000000; 1.000000; 1.000000;,
       35; 1.000000; 1.000000; 1.000000; 1.000000;,
       36; 1.000000; 1.000000; 1.000000; 1.000000;,
       37; 1.000000; 1.000000; 1.000000; 1.000000;,
       38; 1.000000; 1.000000; 1.000000; 1.000000;,
       39; 1.000000; 1.000000; 1.000000; 1.000000;,
       40; 1.000000; 1.000000; 1.000000; 1.000000;,
       41; 1.000000; 1.000000; 1.000000; 1.000000;,
       42; 1.000000; 1.000000; 1.000000; 1.000000;,
       43; 1.000000; 1.000000; 1.000000; 1.000000;,
       44; 1.000000; 1.000000; 1.000000; 1.000000;,
       45; 1.000000; 1.000000; 1.000000; 1.000000;,
       46; 1.000000; 1.000000; 1.000000; 1.000000;,
       47; 1.000000; 1.000000; 1.000000; 1.000000;,
       48; 1.000000; 1.000000; 1.000000; 1.000000;,
       49; 1.000000; 1.000000; 1.000000; 1.000000;,
       50; 1.000000; 1.000000; 1.000000; 1.000000;,
       51; 1.000000; 1.000000; 1.000000; 1.000000;,
       52; 1.000000; 1.000000; 1.000000; 1.000000;,
       53; 1.000000; 1.000000; 1.000000; 1.000000;,
       54; 1.000000; 1.000000; 1.000000; 1.000000;,
       55; 1.000000; 1.000000; 1.000000; 1.000000;,
       56; 1.000000; 1.000000; 1.000000; 1.000000;,
       57; 1.000000; 1.000000; 1.000000; 1.000000;,
       58; 1.000000; 1.000000; 1.000000; 1.000000;,
       59; 1.000000; 1.000000; 1.000000; 1.000000;,
       60; 1.000000; 1.000000; 1.000000; 1.000000;,
       61; 1.000000; 1.000000; 1.000000; 1.000000;,
       62; 1.000000; 1.000000; 1.000000; 1.000000;,
       63; 1.000000; 1.000000; 1.000000; 1.000000;,
       64; 1.000000; 1.000000; 1.000000; 1.000000;,
       65; 1.000000; 1.000000; 1.000000; 1.000000;,
       66; 1.000000; 1.000000; 1.000000; 1.000000;,
       67; 1.000000; 1.000000; 1.000000; 1.000000;,
       68; 1.000000; 1.000000; 1.000000; 1.000000;,
       69; 1.000000; 1.000000; 1.000000; 1.000000;,
       70; 1.000000; 1.000000; 1.000000; 1.000000;,
       71; 1.000000; 1.000000; 1.000000; 1.000000;,
       72; 1.000000; 1.000000; 1.000000; 1.000000;,
       73; 1.000000; 1.000000; 1.000000; 1.000000;,
       74; 1.000000; 1.000000; 1.000000; 1.000000;,
       75; 1.000000; 1.000000; 1.000000; 1.000000;,
       76; 1.000000; 1.000000; 1.000000; 1.000000;,
       77; 1.000000; 1.000000; 1.000000; 1.000000;,
       78; 1.000000; 1.000000; 1.000000; 1.000000;,
       79; 1.000000; 1.000000; 1.000000; 1.000000;,
       80; 1.000000; 1.000000; 1.000000; 1.000000;,
       81; 1.000000; 1.000000; 1.000000; 1.000000;,
       82; 1.000000; 1.000000; 1.000000; 1.000000;,
       83; 1.000000; 1.000000; 1.000000; 1.000000;,
       84; 1.000000; 1.000000; 1.000000; 1.000000;,
       85; 1.000000; 1.000000; 1.000000; 1.000000;,
       86; 1.000000; 1.000000; 1.000000; 1.000000;,
       87; 1.000000; 1.000000; 1.000000; 1.000000;,
       88; 1.000000; 1.000000; 1.000000; 1.000000;,
       89; 1.000000; 1.000000; 1.000000; 1.000000;,
       90; 1.000000; 1.000000; 1.000000; 1.000000;,
       91; 1.000000; 1.000000; 1.000000; 1.000000;,
       92; 1.000000; 1.000000; 1.000000; 1.000000;,
       93; 1.000000; 1.000000; 1.000000; 1.000000;,
       94; 1.000000; 1.000000; 1.000000; 1.000000;,
       95; 1.000000; 1.000000; 1.000000; 1.000000;,
       96; 1.000000; 1.000000; 1.000000; 1.000000;,
       97; 1.000000; 1.000000; 1.000000; 1.000000;,
       98; 1.000000; 1.000000; 1.000000; 1.000000;,
       99; 1.000000; 1.000000; 1.000000; 1.000000;,
       100; 1.000000; 1.000000; 1.000000; 1.000000;,
       101; 1.000000; 1.000000; 1.000000; 1.000000;,
       102; 1.000000; 1.000000; 1.000000; 1.000000;,
       103; 1.000000; 1.000000; 1.000000; 1.000000;,
       104; 1.000000; 1.000000; 1.000000; 1.000000;,
       105; 1.000000; 1.000000; 1.000000; 1.000000;,
       106; 1.000000; 1.000000; 1.000000; 1.000000;,
       107; 1.000000; 1.000000; 1.000000; 1.000000;,
       108; 1.000000; 1.000000; 1.000000; 1.000000;,
       109; 1.000000; 1.000000; 1.000000; 1.000000;,
       110; 1.000000; 1.000000; 1.000000; 1.000000;,
       111; 1.000000; 1.000000; 1.000000; 1.000000;,
       112; 1.000000; 1.000000; 1.000000; 1.000000;,
       113; 1.000000; 1.000000; 1.000000; 1.000000;,
       114; 1.000000; 1.000000; 1.000000; 1.000000;,
       115; 1.000000; 1.000000; 1.000000; 1.000000;,
       116; 1.000000; 1.000000; 1.000000; 1.000000;,
       117; 1.000000; 1.000000; 1.000000; 1.000000;,
       118; 1.000000; 1.000000; 1.000000; 1.000000;,
       119; 1.000000; 1.000000; 1.000000; 1.000000;,
       120; 1.000000; 1.000000; 1.000000; 1.000000;,
       121; 1.000000; 1.000000; 1.000000; 1.000000;,
       122; 1.000000; 1.000000; 1.000000; 1.000000;,
       123; 1.000000; 1.000000; 1.000000; 1.000000;,
       124; 1.000000; 1.000000; 1.000000; 1.000000;,
       125; 1.000000; 1.000000; 1.000000; 1.000000;,
       126; 1.000000; 1.000000; 1.000000; 1.000000;,
       127; 1.000000; 1.000000; 1.000000; 1.000000;,
       128; 1.000000; 1.000000; 1.000000; 1.000000;,
       129; 1.000000; 1.000000; 1.000000; 1.000000;,
       130; 1.000000; 1.000000; 1.000000; 1.000000;,
       131; 1.000000; 1.000000; 1.000000; 1.000000;,
       132; 1.000000; 1.000000; 1.000000; 1.000000;,
       133; 1.000000; 1.000000; 1.000000; 1.000000;,
       134; 1.000000; 1.000000; 1.000000; 1.000000;,
       135; 1.000000; 1.000000; 1.000000; 1.000000;,
       136; 1.000000; 1.000000; 1.000000; 1.000000;,
       137; 1.000000; 1.000000; 1.000000; 1.000000;,
       138; 1.000000; 1.000000; 1.000000; 1.000000;,
       139; 1.000000; 1.000000; 1.000000; 1.000000;,
       140; 1.000000; 1.000000; 1.000000; 1.000000;,
       141; 1.000000; 1.000000; 1.000000; 1.000000;,
       142; 1.000000; 1.000000; 1.000000; 1.000000;,
       143; 1.000000; 1.000000; 1.000000; 1.000000;,
       144; 1.000000; 1.000000; 1.000000; 1.000000;,
       145; 1.000000; 1.000000; 1.000000; 1.000000;,
       146; 1.000000; 1.000000; 1.000000; 1.000000;,
       147; 1.000000; 1.000000; 1.000000; 1.000000;,
       148; 1.000000; 1.000000; 1.000000; 1.000000;,
       149; 1.000000; 1.000000; 1.000000; 1.000000;,
       150; 1.000000; 1.000000; 1.000000; 1.000000;,
       151; 1.000000; 1.000000; 1.000000; 1.000000;,
       152; 1.000000; 1.000000; 1.000000; 1.000000;,
       153; 1.000000; 1.000000; 1.000000; 1.000000;,
       154; 1.000000; 1.000000; 1.000000; 1.000000;,
       155; 1.000000; 1.000000; 1.000000; 1.000000;,
       156; 1.000000; 1.000000; 1.000000; 1.000000;,
       157; 1.000000; 1.000000; 1.000000; 1.000000;,
       158; 1.000000; 1.000000; 1.000000; 1.000000;,
       159; 1.000000; 1.000000; 1.000000; 1.000000;,
       160; 1.000000; 1.000000; 1.000000; 1.000000;,
       161; 1.000000; 1.000000; 1.000000; 1.000000;,
       162; 1.000000; 1.000000; 1.000000; 1.000000;,
       163; 1.000000; 1.000000; 1.000000; 1.000000;,
       164; 1.000000; 1.000000; 1.000000; 1.000000;,
       165; 1.000000; 1.000000; 1.000000; 1.000000;,
       166; 1.000000; 1.000000; 1.000000; 1.000000;,
       167; 1.000000; 1.000000; 1.000000; 1.000000;,
       168; 1.000000; 1.000000; 1.000000; 1.000000;,
       169; 1.000000; 1.000000; 1.000000; 1.000000;,
       170; 1.000000; 1.000000; 1.000000; 1.000000;,
       171; 1.000000; 1.000000; 1.000000; 1.000000;,
       172; 1.000000; 1.000000; 1.000000; 1.000000;,
       173; 1.000000; 1.000000; 1.000000; 1.000000;,
       174; 1.000000; 1.000000; 1.000000; 1.000000;,
       175; 1.000000; 1.000000; 1.000000; 1.000000;,
       176; 1.000000; 1.000000; 1.000000; 1.000000;,
       177; 1.000000; 1.000000; 1.000000; 1.000000;,
       178; 1.000000; 1.000000; 1.000000; 1.000000;,
       179; 1.000000; 1.000000; 1.000000; 1.000000;,
       180; 1.000000; 1.000000; 1.000000; 1.000000;,
       181; 1.000000; 1.000000; 1.000000; 1.000000;,
       182; 1.000000; 1.000000; 1.000000; 1.000000;,
       183; 1.000000; 1.000000; 1.000000; 1.000000;,
       184; 1.000000; 1.000000; 1.000000; 1.000000;,
       185; 1.000000; 1.000000; 1.000000; 1.000000;,
       186; 1.000000; 1.000000; 1.000000; 1.000000;,
       187; 1.000000; 1.000000; 1.000000; 1.000000;,
       188; 1.000000; 1.000000; 1.000000; 1.000000;,
       189; 1.000000; 1.000000; 1.000000; 1.000000;,
       190; 1.000000; 1.000000; 1.000000; 1.000000;,
       191; 1.000000; 1.000000; 1.000000; 1.000000;,
       192; 1.000000; 1.000000; 1.000000; 1.000000;,
       193; 1.000000; 1.000000; 1.000000; 1.000000;,
       194; 1.000000; 1.000000; 1.000000; 1.000000;,
       195; 1.000000; 1.000000; 1.000000; 1.000000;,
       196; 1.000000; 1.000000; 1.000000; 1.000000;,
       197; 1.000000; 1.000000; 1.000000; 1.000000;,
       198; 1.000000; 1.000000; 1.000000; 1.000000;,
       199; 1.000000; 1.000000; 1.000000; 1.000000;,
       200; 1.000000; 1.000000; 1.000000; 1.000000;,
       201; 1.000000; 1.000000; 1.000000; 1.000000;,
       202; 1.000000; 1.000000; 1.000000; 1.000000;,
       203; 1.000000; 1.000000; 1.000000; 1.000000;,
       204; 1.000000; 1.000000; 1.000000; 1.000000;,
       205; 1.000000; 1.000000; 1.000000; 1.000000;,
       206; 1.000000; 1.000000; 1.000000; 1.000000;,
       207; 1.000000; 1.000000; 1.000000; 1.000000;,
       208; 1.000000; 1.000000; 1.000000; 1.000000;,
       209; 1.000000; 1.000000; 1.000000; 1.000000;,
       210; 1.000000; 1.000000; 1.000000; 1.000000;,
       211; 1.000000; 1.000000; 1.000000; 1.000000;,
       212; 1.000000; 1.000000; 1.000000; 1.000000;,
       213; 1.000000; 1.000000; 1.000000; 1.000000;,
       214; 1.000000; 1.000000; 1.000000; 1.000000;,
       215; 1.000000; 1.000000; 1.000000; 1.000000;,
       216; 1.000000; 1.000000; 1.000000; 1.000000;,
       217; 1.000000; 1.000000; 1.000000; 1.000000;,
       218; 1.000000; 1.000000; 1.000000; 1.000000;,
       219; 1.000000; 1.000000; 1.000000; 1.000000;,
       220; 1.000000; 1.000000; 1.000000; 1.000000;,
       221; 1.000000; 1.000000; 1.000000; 1.000000;,
       222; 1.000000; 1.000000; 1.000000; 1.000000;,
       223; 1.000000; 1.000000; 1.000000; 1.000000;,
       224; 1.000000; 1.000000; 1.000000; 1.000000;,
       225; 1.000000; 1.000000; 1.000000; 1.000000;,
       226; 1.000000; 1.000000; 1.000000; 1.000000;,
       227; 1.000000; 1.000000; 1.000000; 1.000000;,
       228; 1.000000; 1.000000; 1.000000; 1.000000;,
       229; 1.000000; 1.000000; 1.000000; 1.000000;,
       230; 1.000000; 1.000000; 1.000000; 1.000000;,
       231; 1.000000; 1.000000; 1.000000; 1.000000;,
       232; 1.000000; 1.000000; 1.000000; 1.000000;,
       233; 1.000000; 1.000000; 1.000000; 1.000000;,
       234; 1.000000; 1.000000; 1.000000; 1.000000;,
       235; 1.000000; 1.000000; 1.000000; 1.000000;,
       236; 1.000000; 1.000000; 1.000000; 1.000000;,
       237; 1.000000; 1.000000; 1.000000; 1.000000;,
       238; 1.000000; 1.000000; 1.000000; 1.000000;,
       239; 1.000000; 1.000000; 1.000000; 1.000000;,
       240; 1.000000; 1.000000; 1.000000; 1.000000;,
       241; 1.000000; 1.000000; 1.000000; 1.000000;,
       242; 1.000000; 1.000000; 1.000000; 1.000000;,
       243; 1.000000; 1.000000; 1.000000; 1.000000;,
       244; 1.000000; 1.000000; 1.000000; 1.000000;,
       245; 1.000000; 1.000000; 1.000000; 1.000000;,
       246; 1.000000; 1.000000; 1.000000; 1.000000;,
       247; 1.000000; 1.000000; 1.000000; 1.000000;,
       248; 1.000000; 1.000000; 1.000000; 1.000000;,
       249; 1.000000; 1.000000; 1.000000; 1.000000;,
       250; 1.000000; 1.000000; 1.000000; 1.000000;,
       251; 1.000000; 1.000000; 1.000000; 1.000000;,
       252; 1.000000; 1.000000; 1.000000; 1.000000;,
       253; 1.000000; 1.000000; 1.000000; 1.000000;,
       254; 1.000000; 1.000000; 1.000000; 1.000000;,
       255; 1.000000; 1.000000; 1.000000; 1.000000;,
       256; 1.000000; 1.000000; 1.000000; 1.000000;,
       257; 1.000000; 1.000000; 1.000000; 1.000000;,
       258; 1.000000; 1.000000; 1.000000; 1.000000;,
       259; 1.000000; 1.000000; 1.000000; 1.000000;,
       260; 1.000000; 1.000000; 1.000000; 1.000000;,
       261; 1.000000; 1.000000; 1.000000; 1.000000;,
       262; 1.000000; 1.000000; 1.000000; 1.000000;,
       263; 1.000000; 1.000000; 1.000000; 1.000000;,
       264; 1.000000; 1.000000; 1.000000; 1.000000;,
       265; 1.000000; 1.000000; 1.000000; 1.000000;,
       266; 1.000000; 1.000000; 1.000000; 1.000000;,
       267; 1.000000; 1.000000; 1.000000; 1.000000;,
       268; 1.000000; 1.000000; 1.000000; 1.000000;,
       269; 1.000000; 1.000000; 1.000000; 1.000000;,
       270; 1.000000; 1.000000; 1.000000; 1.000000;,
       271; 1.000000; 1.000000; 1.000000; 1.000000;,
       272; 1.000000; 1.000000; 1.000000; 1.000000;,
       273; 1.000000; 1.000000; 1.000000; 1.000000;,
       274; 1.000000; 1.000000; 1.000000; 1.000000;,
       275; 1.000000; 1.000000; 1.000000; 1.000000;,
       276; 1.000000; 1.000000; 1.000000; 1.000000;,
       277; 1.000000; 1.000000; 1.000000; 1.000000;,
       278; 1.000000; 1.000000; 1.000000; 1.000000;,
       279; 1.000000; 1.000000; 1.000000; 1.000000;,
       280; 1.000000; 1.000000; 1.000000; 1.000000;,
       281; 1.000000; 1.000000; 1.000000; 1.000000;,
       282; 1.000000; 1.000000; 1.000000; 1.000000;,
       283; 1.000000; 1.000000; 1.000000; 1.000000;,
       284; 1.000000; 1.000000; 1.000000; 1.000000;,
       285; 1.000000; 1.000000; 1.000000; 1.000000;,
       286; 1.000000; 1.000000; 1.000000; 1.000000;,
       287; 1.000000; 1.000000; 1.000000; 1.000000;,
       288; 1.000000; 1.000000; 1.000000; 1.000000;,
       289; 1.000000; 1.000000; 1.000000; 1.000000;,
       290; 1.000000; 1.000000; 1.000000; 1.000000;,
       291; 1.000000; 1.000000; 1.000000; 1.000000;,
       292; 1.000000; 1.000000; 1.000000; 1.000000;,
       293; 1.000000; 1.000000; 1.000000; 1.000000;,
       294; 1.000000; 1.000000; 1.000000; 1.000000;,
       295; 1.000000; 1.000000; 1.000000; 1.000000;,
       296; 1.000000; 1.000000; 1.000000; 1.000000;,
       297; 1.000000; 1.000000; 1.000000; 1.000000;,
       298; 1.000000; 1.000000; 1.000000; 1.000000;,
       299; 1.000000; 1.000000; 1.000000; 1.000000;,
       300; 1.000000; 1.000000; 1.000000; 1.000000;,
       301; 1.000000; 1.000000; 1.000000; 1.000000;,
       302; 1.000000; 1.000000; 1.000000; 1.000000;,
       303; 1.000000; 1.000000; 1.000000; 1.000000;,
       304; 1.000000; 1.000000; 1.000000; 1.000000;,
       305; 1.000000; 1.000000; 1.000000; 1.000000;,
       306; 1.000000; 1.000000; 1.000000; 1.000000;,
       307; 1.000000; 1.000000; 1.000000; 1.000000;,
       308; 1.000000; 1.000000; 1.000000; 1.000000;,
       309; 1.000000; 1.000000; 1.000000; 1.000000;,
       310; 1.000000; 1.000000; 1.000000; 1.000000;,
       311; 1.000000; 1.000000; 1.000000; 1.000000;,
       312; 1.000000; 1.000000; 1.000000; 1.000000;,
       313; 1.000000; 1.000000; 1.000000; 1.000000;,
       314; 1.000000; 1.000000; 1.000000; 1.000000;,
       315; 1.000000; 1.000000; 1.000000; 1.000000;,
       316; 1.000000; 1.000000; 1.000000; 1.000000;,
       317; 1.000000; 1.000000; 1.000000; 1.000000;,
       318; 1.000000; 1.000000; 1.000000; 1.000000;,
       319; 1.000000; 1.000000; 1.000000; 1.000000;,
       320; 1.000000; 1.000000; 1.000000; 1.000000;,
       321; 1.000000; 1.000000; 1.000000; 1.000000;,
       322; 1.000000; 1.000000; 1.000000; 1.000000;,
       323; 1.000000; 1.000000; 1.000000; 1.000000;,
       324; 1.000000; 1.000000; 1.000000; 1.000000;,
       325; 1.000000; 1.000000; 1.000000; 1.000000;,
       326; 1.000000; 1.000000; 1.000000; 1.000000;,
       327; 1.000000; 1.000000; 1.000000; 1.000000;,
       328; 1.000000; 1.000000; 1.000000; 1.000000;,
       329; 1.000000; 1.000000; 1.000000; 1.000000;,
       330; 1.000000; 1.000000; 1.000000; 1.000000;,
       331; 1.000000; 1.000000; 1.000000; 1.000000;,
       332; 1.000000; 1.000000; 1.000000; 1.000000;,
       333; 1.000000; 1.000000; 1.000000; 1.000000;,
       334; 1.000000; 1.000000; 1.000000; 1.000000;,
       335; 1.000000; 1.000000; 1.000000; 1.000000;,
       336; 1.000000; 1.000000; 1.000000; 1.000000;,
       337; 1.000000; 1.000000; 1.000000; 1.000000;,
       338; 1.000000; 1.000000; 1.000000; 1.000000;,
       339; 1.000000; 1.000000; 1.000000; 1.000000;,
       340; 1.000000; 1.000000; 1.000000; 1.000000;,
       341; 1.000000; 1.000000; 1.000000; 1.000000;,
       342; 1.000000; 1.000000; 1.000000; 1.000000;,
       343; 1.000000; 1.000000; 1.000000; 1.000000;;
      }

      MeshMaterialList {
       1;
       380;
       0,
       0,
       0,
       0,
       0,
       0,
       0,
       0,
       0,
       0,
       0,
       0,
       0,
       0,
       0,
       0,
       0,
       0,
       0,
       0,
       0,
       0,
       0,
       0,
       0,
       0,
       0,
       0,
       0,
       0,
       0,
       0,
       0,
       0,
       0,
       0,
       0,
       0,
       0,
       0,
       0,
       0,
       0,
       0,
       0,
       0,
       0,
       0,
       0,
       0,
       0,
       0,
       0,
       0,
       0,
       0,
       0,
       0,
       0,
       0,
       0,
       0,
       0,
       0,
       0,
       0,
       0,
       0,
       0,
       0,
       0,
       0,
       0,
       0,
       0,
       0,
       0,
       0,
       0,
       0,
       0,
       0,
       0,
       0,
       0,
       0,
       0,
       0,
       0,
       0,
       0,
       0,
       0,
       0,
       0,
       0,
       0,
       0,
       0,
       0,
       0,
       0,
       0,
       0,
       0,
       0,
       0,
       0,
       0,
       0,
       0,
       0,
       0,
       0,
       0,
       0,
       0,
       0,
       0,
       0,
       0,
       0,
       0,
       0,
       0,
       0,
       0,
       0,
       0,
       0,
       0,
       0,
       0,
       0,
       0,
       0,
       0,
       0,
       0,
       0,
       0,
       0,
       0,
       0,
       0,
       0,
       0,
       0,
       0,
       0,
       0,
       0,
       0,
       0,
       0,
       0,
       0,
       0,
       0,
       0,
       0,
       0,
       0,
       0,
       0,
       0,
       0,
       0,
       0,
       0,
       0,
       0,
       0,
       0,
       0,
       0,
       0,
       0,
       0,
       0,
       0,
       0,
       0,
       0,
       0,
       0,
       0,
       0,
       0,
       0,
       0,
       0,
       0,
       0,
       0,
       0,
       0,
       0,
       0,
       0,
       0,
       0,
       0,
       0,
       0,
       0,
       0,
       0,
       0,
       0,
       0,
       0,
       0,
       0,
       0,
       0,
       0,
       0,
       0,
       0,
       0,
       0,
       0,
       0,
       0,
       0,
       0,
       0,
       0,
       0,
       0,
       0,
       0,
       0,
       0,
       0,
       0,
       0,
       0,
       0,
       0,
       0,
       0,
       0,
       0,
       0,
       0,
       0,
       0,
       0,
       0,
       0,
       0,
       0,
       0,
       0,
       0,
       0,
       0,
       0,
       0,
       0,
       0,
       0,
       0,
       0,
       0,
       0,
       0,
       0,
       0,
       0,
       0,
       0,
       0,
       0,
       0,
       0,
       0,
       0,
       0,
       0,
       0,
       0,
       0,
       0,
       0,
       0,
       0,
       0,
       0,
       0,
       0,
       0,
       0,
       0,
       0,
       0,
       0,
       0,
       0,
       0,
       0,
       0,
       0,
       0,
       0,
       0,
       0,
       0,
       0,
       0,
       0,
       0,
       0,
       0,
       0,
       0,
       0,
       0,
       0,
       0,
       0,
       0,
       0,
       0,
       0,
       0,
       0,
       0,
       0,
       0,
       0,
       0,
       0,
       0,
       0,
       0,
       0,
       0,
       0,
       0,
       0,
       0,
       0,
       0,
       0,
       0,
       0,
       0,
       0,
       0,
       0,
       0,
       0,
       0,
       0,
       0,
       0,
       0,
       0,
       0,
       0,
       0,
       0,
       0,
       0,
       0,
       0,
       0,
       0,
       0,
       0,
       0,
       0,
       0,
       0,
       0,
       0,
       0;

       Material def_surf_mat {
        0.992157; 0.992157; 0.992157; 1.000000;;
        1.000000;
        0.150000; 0.150000; 0.150000;;
        0.000000; 0.000000; 0.000000;;

        TextureFilename {
         "log_holder.dds";
        }
       }

      }

      XSkinMeshHeader {
       1;
       1;
       1;
      }

      SkinWeights {
       "Body";
       344;
       0,
       1,
       2,
       3,
       4,
       5,
       6,
       7,
       8,
       9,
       10,
       11,
       12,
       13,
       14,
       15,
       16,
       17,
       18,
       19,
       20,
       21,
       22,
       23,
       24,
       25,
       26,
       27,
       28,
       29,
       30,
       31,
       32,
       33,
       34,
       35,
       36,
       37,
       38,
       39,
       40,
       41,
       42,
       43,
       44,
       45,
       46,
       47,
       48,
       49,
       50,
       51,
       52,
       53,
       54,
       55,
       56,
       57,
       58,
       59,
       60,
       61,
       62,
       63,
       64,
       65,
       66,
       67,
       68,
       69,
       70,
       71,
       72,
       73,
       74,
       75,
       76,
       77,
       78,
       79,
       80,
       81,
       82,
       83,
       84,
       85,
       86,
       87,
       88,
       89,
       90,
       91,
       92,
       93,
       94,
       95,
       96,
       97,
       98,
       99,
       100,
       101,
       102,
       103,
       104,
       105,
       106,
       107,
       108,
       109,
       110,
       111,
       112,
       113,
       114,
       115,
       116,
       117,
       118,
       119,
       120,
       121,
       122,
       123,
       124,
       125,
       126,
       127,
       128,
       129,
       130,
       131,
       132,
       133,
       134,
       135,
       136,
       137,
       138,
       139,
       140,
       141,
       142,
       143,
       144,
       145,
       146,
       147,
       148,
       149,
       150,
       151,
       152,
       153,
       154,
       155,
       156,
       157,
       158,
       159,
       160,
       161,
       162,
       163,
       164,
       165,
       166,
       167,
       168,
       169,
       170,
       171,
       172,
       173,
       174,
       175,
       176,
       177,
       178,
       179,
       180,
       181,
       182,
       183,
       184,
       185,
       186,
       187,
       188,
       189,
       190,
       191,
       192,
       193,
       194,
       195,
       196,
       197,
       198,
       199,
       200,
       201,
       202,
       203,
       204,
       205,
       206,
       207,
       208,
       209,
       210,
       211,
       212,
       213,
       214,
       215,
       216,
       217,
       218,
       219,
       220,
       221,
       222,
       223,
       224,
       225,
       226,
       227,
       228,
       229,
       230,
       231,
       232,
       233,
       234,
       235,
       236,
       237,
       238,
       239,
       240,
       241,
       242,
       243,
       244,
       245,
       246,
       247,
       248,
       249,
       250,
       251,
       252,
       253,
       254,
       255,
       256,
       257,
       258,
       259,
       260,
       261,
       262,
       263,
       264,
       265,
       266,
       267,
       268,
       269,
       270,
       271,
       272,
       273,
       274,
       275,
       276,
       277,
       278,
       279,
       280,
       281,
       282,
       283,
       284,
       285,
       286,
       287,
       288,
       289,
       290,
       291,
       292,
       293,
       294,
       295,
       296,
       297,
       298,
       299,
       300,
       301,
       302,
       303,
       304,
       305,
       306,
       307,
       308,
       309,
       310,
       311,
       312,
       313,
       314,
       315,
       316,
       317,
       318,
       319,
       320,
       321,
       322,
       323,
       324,
       325,
       326,
       327,
       328,
       329,
       330,
       331,
       332,
       333,
       334,
       335,
       336,
       337,
       338,
       339,
       340,
       341,
       342,
       343;
       1.000000,
       1.000000,
       1.000000,
       1.000000,
       1.000000,
       1.000000,
       1.000000,
       1.000000,
       1.000000,
       1.000000,
       1.000000,
       1.000000,
       1.000000,
       1.000000,
       1.000000,
       1.000000,
       1.000000,
       1.000000,
       1.000000,
       1.000000,
       1.000000,
       1.000000,
       1.000000,
       1.000000,
       1.000000,
       1.000000,
       1.000000,
       1.000000,
       1.000000,
       1.000000,
       1.000000,
       1.000000,
       1.000000,
       1.000000,
       1.000000,
       1.000000,
       1.000000,
       1.000000,
       1.000000,
       1.000000,
       1.000000,
       1.000000,
       1.000000,
       1.000000,
       1.000000,
       1.000000,
       1.000000,
       1.000000,
       1.000000,
       1.000000,
       1.000000,
       1.000000,
       1.000000,
       1.000000,
       1.000000,
       1.000000,
       1.000000,
       1.000000,
       1.000000,
       1.000000,
       1.000000,
       1.000000,
       1.000000,
       1.000000,
       1.000000,
       1.000000,
       1.000000,
       1.000000,
       1.000000,
       1.000000,
       1.000000,
       1.000000,
       1.000000,
       1.000000,
       1.000000,
       1.000000,
       1.000000,
       1.000000,
       1.000000,
       1.000000,
       1.000000,
       1.000000,
       1.000000,
       1.000000,
       1.000000,
       1.000000,
       1.000000,
       1.000000,
       1.000000,
       1.000000,
       1.000000,
       1.000000,
       1.000000,
       1.000000,
       1.000000,
       1.000000,
       1.000000,
       1.000000,
       1.000000,
       1.000000,
       1.000000,
       1.000000,
       1.000000,
       1.000000,
       1.000000,
       1.000000,
       1.000000,
       1.000000,
       1.000000,
       1.000000,
       1.000000,
       1.000000,
       1.000000,
       1.000000,
       1.000000,
       1.000000,
       1.000000,
       1.000000,
       1.000000,
       1.000000,
       1.000000,
       1.000000,
       1.000000,
       1.000000,
       1.000000,
       1.000000,
       1.000000,
       1.000000,
       1.000000,
       1.000000,
       1.000000,
       1.000000,
       1.000000,
       1.000000,
       1.000000,
       1.000000,
       1.000000,
       1.000000,
       1.000000,
       1.000000,
       1.000000,
       1.000000,
       1.000000,
       1.000000,
       1.000000,
       1.000000,
       1.000000,
       1.000000,
       1.000000,
       1.000000,
       1.000000,
       1.000000,
       1.000000,
       1.000000,
       1.000000,
       1.000000,
       1.000000,
       1.000000,
       1.000000,
       1.000000,
       1.000000,
       1.000000,
       1.000000,
       1.000000,
       1.000000,
       1.000000,
       1.000000,
       1.000000,
       1.000000,
       1.000000,
       1.000000,
       1.000000,
       1.000000,
       1.000000,
       1.000000,
       1.000000,
       1.000000,
       1.000000,
       1.000000,
       1.000000,
       1.000000,
       1.000000,
       1.000000,
       1.000000,
       1.000000,
       1.000000,
       1.000000,
       1.000000,
       1.000000,
       1.000000,
       1.000000,
       1.000000,
       1.000000,
       1.000000,
       1.000000,
       1.000000,
       1.000000,
       1.000000,
       1.000000,
       1.000000,
       1.000000,
       1.000000,
       1.000000,
       1.000000,
       1.000000,
       1.000000,
       1.000000,
       1.000000,
       1.000000,
       1.000000,
       1.000000,
       1.000000,
       1.000000,
       1.000000,
       1.000000,
       1.000000,
       1.000000,
       1.000000,
       1.000000,
       1.000000,
       1.000000,
       1.000000,
       1.000000,
       1.000000,
       1.000000,
       1.000000,
       1.000000,
       1.000000,
       1.000000,
       1.000000,
       1.000000,
       1.000000,
       1.000000,
       1.000000,
       1.000000,
       1.000000,
       1.000000,
       1.000000,
       1.000000,
       1.000000,
       1.000000,
       1.000000,
       1.000000,
       1.000000,
       1.000000,
       1.000000,
       1.000000,
       1.000000,
       1.000000,
       1.000000,
       1.000000,
       1.000000,
       1.000000,
       1.000000,
       1.000000,
       1.000000,
       1.000000,
       1.000000,
       1.000000,
       1.000000,
       1.000000,
       1.000000,
       1.000000,
       1.000000,
       1.000000,
       1.000000,
       1.000000,
       1.000000,
       1.000000,
       1.000000,
       1.000000,
       1.000000,
       1.000000,
       1.000000,
       1.000000,
       1.000000,
       1.000000,
       1.000000,
       1.000000,
       1.000000,
       1.000000,
       1.000000,
       1.000000,
       1.000000,
       1.000000,
       1.000000,
       1.000000,
       1.000000,
       1.000000,
       1.000000,
       1.000000,
       1.000000,
       1.000000,
       1.000000,
       1.000000,
       1.000000,
       1.000000,
       1.000000,
       1.000000,
       1.000000,
       1.000000,
       1.000000,
       1.000000,
       1.000000,
       1.000000,
       1.000000,
       1.000000,
       1.000000,
       1.000000,
       1.000000,
       1.000000,
       1.000000,
       1.000000,
       1.000000,
       1.000000,
       1.000000,
       1.000000,
       1.000000,
       1.000000,
       1.000000,
       1.000000,
       1.000000,
       1.000000,
       1.000000,
       1.000000,
       1.000000,
       1.000000,
       1.000000,
       1.000000,
       1.000000,
       1.000000,
       1.000000,
       1.000000,
       1.000000,
       1.000000,
       1.000000,
       1.000000,
       1.000000,
       1.000000,
       1.000000,
       1.000000,
       1.000000,
       1.000000,
       1.000000;
          1.000000, -0.000000, 0.000000, 0.000000,
          -0.000000, 1.000000, -0.000000, 0.000000,
          0.000000, -0.000000, 1.000000, 0.000000,
          -0.000000, -0.000000, -0.000000, 1.000000;;
      }


     }
   }

// Start of Animation

AnimationSet Untitled {
}
