# Wavefront OBJ file
# Creator: Ultimate Unwrap3D Pro v3.19
# Website: http://www.unwrap3d.com
# Time: Thu Dec 10 21:49:30 2009
# num_vertices: 345
# num_vertex_normals: 345
# num_uvs: 1878
# num_faces: 626
# num_groups: 1

mtllib meat_roll.mtl

v 2.371870 6.856201 -2.850151
v 3.252630 5.643902 -3.298653
v 2.371870 6.856201 -3.298653
v 3.252630 5.643902 -2.850151
v 1.074190 7.605400 -2.850151
v 1.074190 7.605400 -3.298653
v -0.416040 7.762001 -2.850151
v -0.416040 7.762001 -3.298653
v -1.841141 7.299000 -2.850151
v -1.841141 7.299000 -3.298653
v -2.954696 6.296303 -2.850151
v -2.954696 6.296303 -3.298653
v -3.564165 4.927502 -2.850151
v -3.564165 4.927502 -3.298653
v -3.564166 3.429001 -2.850151
v -3.564166 3.429001 -3.298653
v -2.954697 2.060101 -2.850151
v -2.954697 2.060101 -3.298653
v -1.841141 1.057503 -2.850151
v -1.841141 1.057503 -3.298653
v -0.416040 0.594402 -2.850151
v -0.416040 0.594402 -3.298653
v 1.074180 0.751102 -2.850151
v 1.074180 0.751102 -3.298653
v 2.371870 1.500301 -2.850151
v 2.371870 1.500301 -3.298653
v 3.252630 2.712502 -2.850151
v 3.252630 2.712502 -3.298653
v 3.564170 4.178200 -2.850151
v 3.564170 4.178200 -3.298653
v 2.431170 6.923103 7.764347
v 3.653280 4.178200 7.764347
v 3.333950 5.680603 7.764347
v 3.333950 2.675903 7.764347
v 1.101040 7.691101 7.764347
v 2.431170 1.433300 7.764347
v -0.426440 7.851601 7.764347
v 1.101040 0.665401 7.764347
v -1.887172 7.377003 7.764347
v -0.426440 0.504803 7.764347
v -3.028568 6.349300 7.764347
v -1.887173 0.979500 7.764347
v -3.653275 4.946201 7.764347
v -3.028569 2.007202 7.764347
v -3.653275 3.410301 7.764347
v 2.646650 2.985603 -7.764351
v 2.646650 5.370903 -7.764351
v 2.900160 4.178200 -7.764351
v 1.929980 6.357300 -7.764351
v 1.929980 1.999203 -7.764351
v 0.874060 6.966900 -7.764351
v 0.874060 1.389603 -7.764351
v -0.338530 7.094402 -7.764351
v -0.338530 1.262100 -7.764351
v -1.498130 6.717602 -7.764351
v -1.498130 1.638901 -7.764351
v -2.404227 5.901703 -7.764351
v -2.404228 2.454700 -7.764351
v -2.900150 4.787903 -7.764351
v -2.900151 3.568600 -7.764351
v -0.367840 7.346802 -2.097954
v 0.949720 7.208302 -2.097954
v -1.627810 6.937401 -2.097954
v -2.612341 6.050903 -2.098053
v -3.151191 4.840603 -2.098053
v -3.151192 3.515800 -2.098053
v -2.612341 2.305500 -2.098053
v -1.627810 1.419102 -2.098053
v -0.367840 1.009701 -2.098053
v 0.949720 1.148201 -2.098053
v 2.097040 1.810600 -2.098053
v 2.875750 2.882401 -2.098053
v 3.151200 4.178200 -2.098053
v 2.875750 5.474102 -2.098053
v 2.097050 6.545902 -2.098053
v -0.422260 7.815601 -1.595955
v 1.090230 7.656601 -1.595955
v -1.868646 7.345600 -1.595955
v -2.998838 6.328003 -1.595955
v -3.617412 4.938602 -1.595955
v -3.617412 3.417801 -1.595955
v -2.998838 2.028500 -1.595955
v -1.868647 1.010902 -1.595955
v -0.422260 0.540901 -1.595955
v 1.090230 0.699902 -1.595955
v 2.407300 1.460300 -1.595955
v 3.301220 2.690601 -1.595955
v 3.617420 4.178200 -1.595955
v 3.301220 5.665802 -1.595955
v 2.407300 6.896202 -1.595955
v -0.472490 8.248302 -0.340752
v 1.219940 8.070400 -0.340752
v -2.090956 7.722401 -0.340752
v -3.355604 6.583702 -0.340752
v -4.047770 5.029102 -0.340752
v -4.047770 3.327400 -0.340752
v -3.355604 1.772701 -0.340752
v -2.090956 0.634003 -0.340752
v -0.472490 0.108200 -0.340752
v 1.219930 0.286102 -0.340752
v 2.693690 1.136902 -0.340752
v 3.693960 2.513702 -0.340752
v 4.047771 4.178200 -0.340752
v 3.693960 5.842800 -0.340752
v 2.693700 7.219501 -0.340752
v -0.476680 8.284401 1.093849
v 1.230740 8.104900 1.093849
v -2.109482 7.753803 1.093849
v -3.385335 6.605103 1.093849
v -4.083630 5.036701 1.093849
v -4.083630 3.319801 1.093849
v -3.385335 1.751400 1.093849
v -2.109482 0.602600 1.093849
v -0.476680 0.072102 1.093849
v 1.230740 0.251602 1.093849
v 2.717560 1.110001 1.093849
v 3.726690 2.498901 1.093849
v 4.083640 4.178200 1.093849
v 3.726690 5.857502 1.093849
v 2.717560 7.246502 1.093849
v -0.447380 8.031902 2.456650
v 1.155080 7.863503 2.456650
v -1.979801 7.534000 2.456650
v -3.177221 6.455902 2.456650
v -3.832590 4.983902 2.456650
v -3.832590 3.372601 2.456650
v -3.177222 1.900600 2.456650
v -1.979802 0.822403 2.456650
v -0.447380 0.324501 2.456650
v 1.155080 0.493000 2.456650
v 2.550500 1.298603 2.456650
v 3.497590 2.602200 2.456650
v 3.832600 4.178200 2.456650
v 3.497590 5.754303 2.456650
v 2.550500 7.057903 2.456650
v -0.430630 7.887703 3.138046
v 1.111850 7.725601 3.138046
v -1.905698 7.408401 3.138046
v -3.058299 6.370602 3.138046
v -3.689139 4.953701 3.138046
v -3.689139 3.402702 3.138046
v -3.058300 1.985901 3.138046
v -1.905699 0.948101 3.138046
v -0.430630 0.468800 3.138046
v 1.111850 0.630901 3.138046
v 2.455030 1.406403 3.138046
v 3.366680 2.661201 3.138046
v 3.689140 4.178200 3.138046
v 3.366680 5.695301 3.138046
v 2.455040 6.950100 3.138046
v -0.451560 8.068001 3.532448
v 1.165890 7.898003 3.532448
v -1.998327 7.565403 3.532448
v -3.206951 6.477200 3.532448
v -3.868450 4.991402 3.532448
v -3.868450 3.365101 3.532448
v -3.206951 1.879303 3.532448
v -1.998327 0.791000 3.532448
v -0.451560 0.288502 3.532448
v 1.165890 0.458500 3.532448
v 2.574360 1.271702 3.532448
v 3.530320 2.587402 3.532448
v 3.868460 4.178200 3.532448
v 3.530320 5.769100 3.532448
v 2.574360 7.084801 3.532448
v -0.485050 8.356503 4.644249
v 1.252360 8.173901 4.644249
v -2.146533 7.816601 4.644249
v -3.444795 6.647701 4.644249
v -4.155360 5.051701 4.644249
v -4.155360 3.304703 4.644249
v -3.444796 1.708801 4.644249
v -2.146534 0.539803 4.644249
v -0.485050 0.000000 4.644249
v 1.252360 0.182602 4.644249
v 2.765290 1.056103 4.644249
v 3.792140 2.469402 4.644249
v 4.155360 4.178200 4.644249
v 3.792140 5.887001 4.644249
v 2.765290 7.300400 4.644249
v -0.485050 8.356503 6.007050
v 1.252360 8.173901 6.007050
v -2.146533 7.816601 6.007050
v -3.444795 6.647701 6.007050
v -4.155360 5.051701 6.007050
v -4.155360 3.304703 6.007050
v -3.444796 1.708801 6.007050
v -2.146534 0.539803 6.007050
v -0.485050 0.000000 6.007050
v 1.252360 0.182602 6.007050
v 2.765290 1.056103 6.007050
v 3.792140 2.469402 6.007050
v 4.155360 4.178200 6.007050
v 3.792140 5.887001 6.007050
v 2.765290 7.300400 6.007050
v -0.443190 7.995903 6.939445
v 1.144280 7.829002 6.939445
v -1.961276 7.502602 6.939445
v -3.147491 6.434601 6.939445
v -3.796730 4.976303 6.939445
v -3.796730 3.380100 6.939445
v -3.147491 1.921902 6.939445
v -1.961276 0.853802 6.939445
v -0.443190 0.360603 6.939445
v 1.144280 0.527401 6.939445
v 2.526630 1.325500 6.939445
v 3.464860 2.616901 6.939445
v 3.796730 4.178200 6.939445
v 3.464860 5.739601 6.939445
v 2.526630 7.030903 6.939445
v -0.455750 8.104103 7.405746
v 1.176700 7.932503 7.405746
v -2.016853 7.596802 7.405746
v -3.236682 6.498501 7.405746
v -3.904320 4.999001 7.405746
v -3.904320 3.357502 7.405746
v -3.236682 1.858002 7.405746
v -2.016853 0.759602 7.405746
v -0.455750 0.252403 7.405746
v 1.176700 0.424000 7.405746
v 2.598230 1.244701 7.405746
v 3.563050 2.572701 7.405746
v 3.904320 4.178200 7.405746
v 3.563050 5.783802 7.405746
v 2.598230 7.111801 7.405746
v -0.426440 7.851601 7.764347
v 1.101040 7.691101 7.764347
v -1.887172 7.377003 7.764347
v -3.028568 6.349300 7.764347
v -3.653275 4.946201 7.764347
v -3.653275 3.410301 7.764347
v -3.028569 2.007202 7.764347
v -1.887173 0.979500 7.764347
v -0.426440 0.504803 7.764347
v 1.101040 0.665401 7.764347
v 2.431170 1.433300 7.764347
v 3.333950 2.675903 7.764347
v 3.653280 4.178200 7.764347
v 3.333950 5.680603 7.764347
v 2.431170 6.923103 7.764347
v 3.366680 2.661201 -3.783554
v 3.689140 4.178200 -3.783554
v 2.455030 1.406403 -3.783554
v 1.111850 0.630901 -3.783554
v -0.430630 0.468800 -3.783554
v -1.905699 0.948101 -3.783554
v -3.058300 1.985901 -3.783554
v -3.689139 3.402702 -3.783554
v -3.689139 4.953701 -3.783554
v -3.058299 6.370602 -3.783554
v -1.905698 7.408401 -3.783554
v -0.430630 7.887703 -3.783554
v 1.111850 7.725601 -3.783554
v 2.455040 6.950100 -3.783554
v 3.366680 5.695301 -3.783554
v 3.399400 2.646400 -4.393257
v 3.725010 4.178200 -4.393257
v 2.478900 1.379402 -4.393257
v 1.122660 0.596401 -4.393257
v -0.434820 0.432701 -4.393257
v -1.924224 0.916702 -4.393257
v -3.088029 1.964500 -4.393257
v -3.725001 3.395203 -4.393257
v -3.725001 4.961300 -4.393257
v -3.088029 6.391903 -4.393257
v -1.924223 7.439800 -4.393257
v -0.434820 7.923801 -4.393257
v 1.122660 7.760101 -4.393257
v 2.478900 6.977001 -4.393257
v 3.399400 5.710102 -4.393257
v 3.104850 2.779102 -5.110550
v 3.402240 4.178200 -5.110550
v 2.264110 1.622002 -5.110550
v 1.025380 0.906803 -5.110550
v -0.397140 0.757301 -5.110550
v -1.757490 1.199303 -5.110550
v -2.820455 2.156403 -5.110550
v -3.402234 3.463100 -5.110550
v -3.402234 4.893402 -5.110550
v -2.820455 6.200100 -5.110550
v -1.757490 7.157200 -5.110550
v -0.397140 7.599201 -5.110550
v 1.025380 7.449703 -5.110550
v 2.264110 6.734501 -5.110550
v 3.104850 5.577301 -5.110550
v 3.268490 2.705402 -5.648453
v 3.581550 4.178200 -5.648453
v 2.383440 1.487202 -5.648453
v 1.079420 0.734402 -5.648453
v -0.418070 0.577000 -5.648453
v -1.850121 1.042301 -5.648453
v -2.969107 2.049801 -5.648453
v -3.581549 3.425400 -5.648453
v -3.581548 4.931103 -5.648453
v -2.969107 6.306702 -5.648453
v -1.850120 7.314201 -5.648453
v -0.418070 7.779503 -5.648453
v 1.079420 7.622101 -5.648453
v 2.383440 6.869202 -5.648453
v 3.268490 5.651100 -5.648453
v 3.366680 2.661201 -6.545052
v 3.689140 4.178200 -6.545052
v 2.455030 1.406403 -6.545052
v 1.111850 0.630901 -6.545052
v -0.430630 0.468800 -6.545052
v -1.905699 0.948101 -6.545052
v -3.058300 1.985901 -6.545052
v -3.689139 3.402702 -6.545052
v -3.689139 4.953701 -6.545052
v -3.058299 6.370602 -6.545052
v -1.905698 7.408401 -6.545052
v -0.430630 7.887703 -6.545052
v 1.111850 7.725601 -6.545052
v 2.455040 6.950100 -6.545052
v 3.366680 5.695301 -6.545052
v 3.006660 2.823402 -7.656754
v 3.294650 4.178200 -7.656754
v 2.192510 1.702801 -7.656754
v 0.992960 1.010201 -7.656754
v -0.384580 0.865402 -7.656754
v -1.701910 1.293503 -7.656754
v -2.731263 2.220303 -7.656754
v -3.294644 3.485703 -7.656754
v -3.294644 4.870800 -7.656754
v -2.731263 6.136200 -7.656754
v -1.701910 7.063000 -7.656754
v -0.384580 7.491001 -7.656754
v 0.992960 7.346203 -7.656754
v 2.192510 6.653702 -7.656754
v 3.006660 5.533100 -7.656754
v 2.646650 2.985603 -7.764351
v 2.900160 4.178200 -7.764351
v 1.929980 1.999203 -7.764351
v 0.874060 1.389603 -7.764351
v -0.338530 1.262100 -7.764351
v -1.498130 1.638901 -7.764351
v -2.404228 2.454700 -7.764351
v -2.900151 3.568600 -7.764351
v -2.900150 4.787903 -7.764351
v -2.404227 5.901703 -7.764351
v -1.498130 6.717602 -7.764351
v -0.338530 7.094402 -7.764351
v 0.874060 6.966900 -7.764351
v 1.929980 6.357300 -7.764351
v 2.646650 5.370903 -7.764351
# num_vertices: 345

vn 0.651169 0.716598 0.249932
vn 0.905835 0.404474 0.125948
vn 0.662976 0.737920 0.126243
vn 0.886466 0.389889 0.249327
vn 0.303361 0.919291 0.250753
vn 0.305483 0.943728 0.126716
vn -0.096707 0.962965 0.251685
vn -0.104761 0.986319 0.127277
vn -0.479879 0.840189 0.252582
vn -0.496863 0.858371 0.127777
vn -0.779980 0.572271 0.253254
vn -0.802992 0.582035 0.128218
vn -0.945225 0.205542 0.253579
vn -0.970274 0.205096 0.128467
vn -0.947120 -0.196720 0.253504
vn -0.969801 -0.207293 0.128515
vn -0.785289 -0.565049 0.253062
vn -0.801654 -0.583857 0.128301
vn -0.487645 -0.835782 0.252332
vn -0.494922 -0.859471 0.127910
vn -0.105528 -0.962106 0.251429
vn -0.102551 -0.986538 0.127384
vn 0.295043 -0.922067 0.250483
vn 0.307583 -0.943024 0.126876
vn 0.644696 -0.722504 0.249710
vn 0.664572 -0.736458 0.126386
vn 0.882948 -0.397866 0.249209
vn 0.906705 -0.402504 0.125998
vn 0.968477 -0.004342 0.249066
vn 0.992047 0.001080 0.125862
vn 0.000000 0.000000 1.000000
vn 0.000000 0.000000 1.000000
vn 0.000000 0.000000 1.000000
vn 0.000000 0.000000 1.000000
vn 0.000000 0.000000 1.000000
vn 0.000000 0.000000 1.000000
vn 0.000000 0.000000 1.000000
vn 0.000000 0.000000 1.000000
vn 0.000000 0.000000 1.000000
vn 0.000000 0.000000 1.000000
vn 0.000000 0.000000 1.000000
vn 0.000000 0.000000 1.000000
vn 0.000000 0.000000 1.000000
vn 0.000000 0.000000 1.000000
vn 0.000000 0.000000 1.000000
vn 0.000000 0.000000 -1.000000
vn 0.000000 0.000000 -1.000000
vn 0.000000 0.000000 -1.000000
vn 0.000000 0.000000 -1.000000
vn 0.000000 0.000000 -1.000000
vn 0.000000 0.000000 -1.000000
vn 0.000000 0.000000 -1.000000
vn 0.000000 0.000000 -1.000000
vn 0.000000 0.000000 -1.000000
vn 0.000000 0.000000 -1.000000
vn 0.000000 0.000000 -1.000000
vn 0.000000 0.000000 -1.000000
vn 0.000000 0.000000 -1.000000
vn 0.000000 0.000000 -1.000000
vn 0.000000 0.000000 -1.000000
vn -0.097376 0.987296 -0.125554
vn 0.312585 0.941585 -0.125333
vn -0.490501 0.862334 -0.125652
vn -0.798860 0.588251 -0.125635
vn -0.969077 0.212435 -0.125546
vn -0.971705 -0.200162 -0.125397
vn -0.806251 -0.578176 -0.125185
vn -0.501337 -0.856181 -0.124961
vn -0.109715 -0.986106 -0.124732
vn 0.300902 -0.945484 -0.124570
vn 0.659439 -0.741377 -0.124499
vn 0.903959 -0.409093 -0.124503
vn 0.992187 -0.006106 -0.124609
vn 0.908899 0.397904 -0.124798
vn 0.668513 0.733113 -0.125047
vn -0.096822 0.849616 -0.518438
vn 0.257449 0.816445 -0.516854
vn -0.433614 0.735969 -0.519931
vn -0.694924 0.495520 -0.521096
vn -0.836017 0.169878 -0.521744
vn -0.832813 -0.184884 -0.521766
vn -0.685897 -0.507880 -0.521155
vn -0.420372 -0.743557 -0.520009
vn -0.081723 -0.851151 -0.518521
vn 0.271787 -0.811719 -0.516957
vn 0.578956 -0.631659 -0.515575
vn 0.786320 -0.341855 -0.514622
vn 0.857600 0.007478 -0.514262
vn 0.780266 0.355545 -0.514561
vn 0.567844 0.641755 -0.515465
vn -0.104704 0.978303 -0.178773
vn 0.302331 0.936430 -0.178029
vn -0.493513 0.851014 -0.179499
vn -0.796904 0.576638 -0.180091
vn -0.962491 0.202623 -0.180433
vn -0.961684 -0.206378 -0.180475
vn -0.794638 -0.579718 -0.180215
vn -0.490175 -0.852896 -0.179712
vn -0.100919 -0.978659 -0.179000
vn 0.305866 -0.935243 -0.178229
vn 0.659883 -0.730085 -0.177567
vn 0.899862 -0.398610 -0.177086
vn 0.984231 0.001843 -0.176882
vn 0.898372 0.401995 -0.176997
vn 0.657147 0.732589 -0.177405
vn -0.103626 0.991429 0.079560
vn 0.308593 0.947891 0.079203
vn -0.497900 0.863549 0.079872
vn -0.806070 0.586374 0.080106
vn -0.974874 0.207809 0.080223
vn -0.975117 -0.206677 0.080195
vn -0.806763 -0.585432 0.080022
vn -0.498893 -0.862988 0.079736
vn -0.104727 -0.991328 0.079382
vn 0.307527 -0.948251 0.079042
vn 0.666632 -0.741213 0.078769
vn 0.910493 -0.405988 0.078587
vn 0.996911 -0.000555 0.078538
vn 0.910946 0.404959 0.078646
vn 0.667462 0.740455 0.078872
vn -0.102318 0.975275 0.195880
vn 0.303245 0.932746 0.195005
vn -0.490063 0.849202 0.196707
vn -0.792991 0.576385 0.197346
vn -0.958810 0.203980 0.197676
vn -0.958883 -0.203645 0.197667
vn -0.793206 -0.576088 0.197349
vn -0.490370 -0.849020 0.196729
vn -0.102637 -0.975242 0.195877
vn 0.302952 -0.932842 0.195001
vn 0.656264 -0.729090 0.194283
vn 0.896162 -0.399176 0.193784
vn 0.981079 -0.000172 0.193608
vn 0.896302 0.398861 0.193784
vn 0.656516 0.728863 0.194282
vn -0.101359 0.988620 -0.111165
vn 0.309511 0.944427 -0.110729
vn -0.494660 0.861903 -0.111513
vn -0.802441 0.586178 -0.111731
vn -0.971483 0.209101 -0.111795
vn -0.972547 -0.204141 -0.111709
vn -0.805441 -0.582094 -0.111496
vn -0.499044 -0.859424 -0.111113
vn -0.106327 -0.988157 -0.110634
vn 0.304829 -0.946001 -0.110282
vn 0.663264 -0.740257 -0.109999
vn 0.907027 -0.406490 -0.109851
vn 0.993945 -0.002454 -0.109849
vn 0.909002 0.402008 -0.110026
vn 0.666909 0.736930 -0.110303
vn -0.100394 0.936234 -0.336731
vn 0.289260 0.896570 -0.335396
vn -0.472291 0.814060 -0.338005
vn -0.762286 0.551343 -0.339030
vn -0.920446 0.193554 -0.339582
vn -0.919589 -0.197575 -0.339587
vn -0.759874 -0.554636 -0.339073
vn -0.468730 -0.816051 -0.338161
vn -0.096342 -0.936609 -0.336870
vn 0.293063 -0.895295 -0.335501
vn 0.632133 -0.699025 -0.334324
vn 0.862042 -0.381618 -0.333543
vn 0.942841 0.001977 -0.333237
vn 0.860444 0.385243 -0.333502
vn 0.629186 0.701706 -0.334265
vn -0.104783 0.986301 -0.127402
vn 0.305487 0.943708 -0.126860
vn -0.496849 0.858356 -0.127929
vn -0.802977 0.582023 -0.128365
vn -0.970257 0.205076 -0.128627
vn -0.969779 -0.207298 -0.128673
vn -0.801647 -0.583828 -0.128483
vn -0.494897 -0.859459 -0.128091
vn -0.102541 -0.986513 -0.127584
vn 0.307575 -0.943006 -0.127037
vn 0.664570 -0.736434 -0.126541
vn 0.906684 -0.402495 -0.126178
vn 0.992027 0.001085 -0.126020
vn 0.905819 0.404468 -0.126087
vn 0.662965 0.737905 -0.126391
vn -0.100367 0.977608 0.184959
vn 0.305983 0.934044 0.184218
vn -0.489227 0.852167 0.185657
vn -0.793450 0.579458 0.186187
vn -0.960494 0.206612 0.186450
vn -0.961499 -0.201932 0.186395
vn -0.796287 -0.575603 0.186033
vn -0.493356 -0.849831 0.185438
vn -0.105038 -0.977166 0.184697
vn 0.301548 -0.935541 0.183936
vn 0.656082 -0.732087 0.183315
vn 0.897191 -0.401978 0.182927
vn 0.983144 -0.002306 0.182817
vn 0.899057 0.397743 0.183022
vn 0.659512 0.728943 0.183536
vn -0.105715 0.991865 0.070909
vn 0.306887 0.949121 0.070641
vn -0.500002 0.863092 0.071201
vn -0.807817 0.585086 0.071449
vn -0.975950 0.205891 0.071629
vn -0.975308 -0.208874 0.071741
vn -0.806031 -0.587513 0.071719
vn -0.497375 -0.864579 0.071559
vn -0.102727 -0.992148 0.071346
vn 0.309670 -0.948182 0.071101
vn 0.668573 -0.740269 0.070796
vn 0.911869 -0.404370 0.070564
vn 0.997517 0.001455 0.070417
vn 0.910691 0.407051 0.070368
vn 0.666396 0.742265 0.070424
vn -0.096572 0.976246 0.193954
vn 0.308847 0.931254 0.193338
vn -0.485233 0.852493 0.194435
vn -0.789941 0.581413 0.194815
vn -0.958115 0.209813 0.194919
vn -0.960633 -0.198068 0.194818
vn -0.797045 -0.571736 0.194519
vn -0.495596 -0.846602 0.194037
vn -0.108335 -0.975123 0.193385
vn 0.297689 -0.934976 0.192878
vn 0.652323 -0.733108 0.192426
vn 0.894154 -0.404427 0.192166
vn 0.981350 -0.005813 0.192144
vn 0.898845 0.393782 0.192388
vn 0.660952 0.725234 0.192817
vn -0.027635 0.816291 0.576980
vn 0.307224 0.758118 0.575214
vn -0.356775 0.733419 0.578626
vn -0.623515 0.524270 0.579974
vn -0.782296 0.225128 0.580801
vn -0.806137 -0.112562 0.580924
vn -0.690989 -0.430981 0.580336
vn -0.456406 -0.675445 0.579195
vn -0.142382 -0.803865 0.577519
vn 0.197183 -0.793501 0.575738
vn 0.503542 -0.645600 0.574148
vn 0.723293 -0.385378 0.573001
vn 0.817836 -0.057951 0.572526
vn 0.770560 0.279612 0.572760
vn 0.589749 0.568334 0.573753
vn 0.902087 -0.402744 0.155037
vn 0.987924 -0.001027 0.154935
vn 0.660244 -0.734793 0.155428
vn 0.304259 -0.939723 0.156034
vn -0.104269 -0.982132 0.156664
vn -0.494675 -0.854722 0.157313
vn -0.799485 -0.579576 0.157845
vn -0.966056 -0.204265 0.158147
vn -0.965610 0.206339 0.158183
vn -0.798233 0.581275 0.157935
vn -0.492851 0.855749 0.157453
vn -0.102185 0.982321 0.156855
vn 0.306227 0.939063 0.156160
vn 0.661761 0.733406 0.155523
vn 0.902910 0.400865 0.155114
vn 0.899575 -0.397187 -0.181680
vn 0.983393 0.003019 -0.181464
vn 0.660219 -0.728647 -0.182166
vn 0.306757 -0.934064 -0.182824
vn -0.099653 -0.977949 -0.183532
vn -0.488714 -0.852779 -0.184194
vn -0.793234 -0.580236 -0.184675
vn -0.960621 -0.207410 -0.184903
vn -0.961940 0.201265 -0.184832
vn -0.796954 0.575181 -0.184476
vn -0.494149 0.849701 -0.183915
vn -0.105812 0.977362 -0.183214
vn 0.300958 0.936012 -0.182496
vn 0.655725 0.732752 -0.181934
vn 0.897130 0.402732 -0.181561
vn 0.911827 -0.407429 -0.050719
vn 0.998707 -0.001347 -0.050809
vn 0.667289 -0.743069 -0.050737
vn 0.307377 -0.950227 -0.050878
vn -0.105697 -0.993088 -0.051027
vn -0.500497 -0.864224 -0.051194
vn -0.808740 -0.585917 -0.051398
vn -0.977133 -0.206279 -0.051573
vn -0.976547 0.209010 -0.051671
vn -0.807090 0.588161 -0.051693
vn -0.498085 0.865589 -0.051647
vn -0.102967 0.993348 -0.051547
vn 0.309967 0.949358 -0.051384
vn 0.669303 0.741228 -0.051138
vn 0.912918 0.404953 -0.050939
vn 0.890748 -0.398227 0.219053
vn 0.975745 -0.001516 0.218907
vn 0.651669 -0.726013 0.219620
vn 0.299971 -0.928133 0.220424
vn -0.103446 -0.969698 0.221327
vn -0.488819 -0.843608 0.222218
vn -0.789559 -0.571742 0.222952
vn -0.953761 -0.201124 0.223359
vn -0.953104 0.204197 0.223373
vn -0.787707 0.574262 0.223028
vn -0.486111 0.845136 0.222354
vn -0.100371 0.969986 0.221479
vn 0.302893 0.927155 0.220544
vn 0.653925 0.723957 0.219700
vn 0.891959 0.395461 0.219135
vn 0.908624 -0.402601 -0.110969
vn 0.993841 0.001753 -0.110804
vn 0.666315 -0.737317 -0.111299
vn 0.308802 -0.944546 -0.111689
vn -0.102064 -0.988437 -0.112137
vn -0.495227 -0.861440 -0.112569
vn -0.802755 -0.585530 -0.112871
vn -0.971499 -0.208385 -0.112984
vn -0.972271 0.204792 -0.112911
vn -0.804927 0.582579 -0.112669
vn -0.498385 0.859653 -0.112293
vn -0.105643 0.988094 -0.111847
vn 0.305415 0.945682 -0.111391
vn 0.663700 0.739716 -0.111012
vn 0.907205 0.405829 -0.110826
vn 0.628703 -0.250633 -0.736149
vn 0.676483 0.026704 -0.735974
vn 0.472074 -0.484221 -0.736665
vn 0.234097 -0.633565 -0.737424
vn -0.043737 -0.673084 -0.738272
vn -0.313262 -0.596329 -0.739093
vn -0.528150 -0.416938 -0.739743
vn -0.651688 -0.165963 -0.740108
vn -0.662835 0.113491 -0.740114
vn -0.559648 0.373540 -0.739771
vn -0.359642 0.569520 -0.739125
vn -0.096966 0.667457 -0.738308
vn 0.183187 0.650076 -0.737458
vn 0.432323 0.519984 -0.736691
vn 0.606965 0.299431 -0.736162
vn 0.247801 -0.089891 -0.964632
vn 0.263092 0.018639 -0.964591
vn 0.189413 -0.182469 -0.964794
vn 0.098489 -0.242837 -0.965055
vn -0.008760 -0.260806 -0.965352
vn -0.113645 -0.233749 -0.965633
vn -0.198254 -0.166751 -0.965862
vn -0.248449 -0.071511 -0.966002
vn -0.255966 0.035758 -0.966024
vn -0.219577 0.136994 -0.965929
vn -0.145274 0.215112 -0.965724
vn -0.045384 0.256642 -0.965440
vn 0.063183 0.253987 -0.965142
vn 0.161608 0.207124 -0.964874
vn 0.232510 0.123852 -0.964676
# num_vertex_normals: 345

vt 0.416924 0.223349
vt 0.467206 0.203606
vt 0.416924 0.203606
vt 0.416924 0.223349
vt 0.467206 0.223349
vt 0.467206 0.203606
vt 0.385850 0.223349
vt 0.416924 0.203606
vt 0.385850 0.203606
vt 0.385850 0.223349
vt 0.416924 0.223349
vt 0.416924 0.203606
vt 0.379355 0.223349
vt 0.385850 0.203606
vt 0.379355 0.203606
vt 0.379355 0.223349
vt 0.385850 0.223349
vt 0.385850 0.203606
vt 0.398558 0.223349
vt 0.379355 0.203606
vt 0.398558 0.203606
vt 0.398558 0.223349
vt 0.379355 0.223349
vt 0.379355 0.203606
vt 0.440147 0.223349
vt 0.398558 0.203606
vt 0.440147 0.203606
vt 0.440147 0.223349
vt 0.398558 0.223349
vt 0.398558 0.203606
vt 0.496920 0.223349
vt 0.440147 0.203606
vt 0.496920 0.203606
vt 0.496920 0.223349
vt 0.440147 0.223349
vt 0.440147 0.203606
vt 0.559073 0.223349
vt 0.496920 0.203606
vt 0.559073 0.203606
vt 0.559073 0.223349
vt 0.496920 0.223349
vt 0.496920 0.203606
vt 0.615851 0.223349
vt 0.559073 0.203606
vt 0.615851 0.203606
vt 0.615851 0.223349
vt 0.559073 0.223349
vt 0.559073 0.203606
vt 0.657435 0.223349
vt 0.615851 0.203606
vt 0.657435 0.203606
vt 0.657435 0.223349
vt 0.615851 0.223349
vt 0.615851 0.203606
vt 0.676643 0.223349
vt 0.657435 0.203606
vt 0.676643 0.203606
vt 0.676643 0.223349
vt 0.657435 0.223349
vt 0.657435 0.203606
vt 0.670144 0.223349
vt 0.676643 0.203606
vt 0.670144 0.203606
vt 0.670144 0.223349
vt 0.676643 0.223349
vt 0.676643 0.203606
vt 0.639070 0.223349
vt 0.670144 0.203606
vt 0.639070 0.203606
vt 0.639070 0.223349
vt 0.670144 0.223349
vt 0.670144 0.203606
vt 0.588791 0.223349
vt 0.639070 0.203606
vt 0.588791 0.203606
vt 0.588791 0.223349
vt 0.639070 0.223349
vt 0.639070 0.203606
vt 0.527999 0.223349
vt 0.588791 0.203606
vt 0.527999 0.203606
vt 0.527999 0.223349
vt 0.588791 0.223349
vt 0.588791 0.203606
vt 0.467206 0.223349
vt 0.527999 0.203606
vt 0.467206 0.203606
vt 0.467206 0.223349
vt 0.527999 0.223349
vt 0.527999 0.203606
vt 0.663684 0.868503
vt 0.730222 0.793779
vt 0.712836 0.834678
vt 0.663684 0.868503
vt 0.712836 0.752882
vt 0.730222 0.793779
vt 0.591264 0.889410
vt 0.712836 0.752882
vt 0.663684 0.868503
vt 0.591264 0.889410
vt 0.663684 0.719055
vt 0.712836 0.752882
vt 0.508100 0.893779
vt 0.663684 0.719055
vt 0.591264 0.889410
vt 0.508100 0.893779
vt 0.591264 0.698151
vt 0.663684 0.719055
vt 0.428570 0.880859
vt 0.591264 0.698151
vt 0.508100 0.893779
vt 0.428570 0.880859
vt 0.508100 0.693779
vt 0.591264 0.698151
vt 0.366426 0.852882
vt 0.508100 0.693779
vt 0.428570 0.880859
vt 0.366426 0.852882
vt 0.428570 0.706702
vt 0.508100 0.693779
vt 0.332413 0.814686
vt 0.428570 0.706702
vt 0.366426 0.852882
vt 0.332413 0.814686
vt 0.366426 0.734679
vt 0.428570 0.706702
vt 0.332413 0.772875
vt 0.366426 0.734679
vt 0.332413 0.814686
vt 0.675416 0.761313
vt 0.675416 0.826247
vt 0.689218 0.793779
vt 0.675416 0.761313
vt 0.636396 0.853100
vt 0.675416 0.826247
vt 0.636396 0.734461
vt 0.636396 0.853100
vt 0.675416 0.761313
vt 0.636396 0.734461
vt 0.578906 0.869695
vt 0.636396 0.853100
vt 0.578906 0.717866
vt 0.578906 0.869695
vt 0.636396 0.734461
vt 0.578906 0.717866
vt 0.512886 0.873166
vt 0.578906 0.869695
vt 0.512886 0.714395
vt 0.512886 0.873166
vt 0.578906 0.717866
vt 0.512886 0.714395
vt 0.449751 0.862908
vt 0.512886 0.873166
vt 0.449751 0.724652
vt 0.449751 0.862908
vt 0.512886 0.714395
vt 0.449751 0.724652
vt 0.400418 0.840697
vt 0.449751 0.862908
vt 0.400418 0.746861
vt 0.400418 0.840697
vt 0.449751 0.724652
vt 0.400418 0.746861
vt 0.373418 0.810377
vt 0.400418 0.840697
vt 0.373417 0.777184
vt 0.373418 0.810377
vt 0.400418 0.746861
vt 0.396576 0.256462
vt 0.385850 0.223349
vt 0.379355 0.223349
vt 0.396576 0.256462
vt 0.402320 0.256462
vt 0.385850 0.223349
vt 0.413556 0.256462
vt 0.379355 0.223349
vt 0.398558 0.223349
vt 0.413556 0.256462
vt 0.396576 0.256462
vt 0.379355 0.223349
vt 0.450325 0.256458
vt 0.398558 0.223349
vt 0.440147 0.223349
vt 0.450325 0.256458
vt 0.413556 0.256462
vt 0.398558 0.223349
vt 0.500525 0.256458
vt 0.440147 0.223349
vt 0.496920 0.223349
vt 0.500525 0.256458
vt 0.450325 0.256458
vt 0.440147 0.223349
vt 0.555473 0.256458
vt 0.496920 0.223349
vt 0.559073 0.223349
vt 0.555473 0.256458
vt 0.500525 0.256458
vt 0.496920 0.223349
vt 0.605673 0.256458
vt 0.559073 0.223349
vt 0.615851 0.223349
vt 0.605673 0.256458
vt 0.555473 0.256458
vt 0.559073 0.223349
vt 0.642438 0.256458
vt 0.615851 0.223349
vt 0.657435 0.223349
vt 0.642438 0.256458
vt 0.605673 0.256458
vt 0.615851 0.223349
vt 0.659418 0.256458
vt 0.657435 0.223349
vt 0.676643 0.223349
vt 0.659418 0.256458
vt 0.642438 0.256458
vt 0.657435 0.223349
vt 0.653674 0.256458
vt 0.676643 0.223349
vt 0.670144 0.223349
vt 0.653674 0.256458
vt 0.659418 0.256458
vt 0.676643 0.223349
vt 0.626199 0.256458
vt 0.670144 0.223349
vt 0.639070 0.223349
vt 0.626199 0.256458
vt 0.653674 0.256458
vt 0.670144 0.223349
vt 0.581745 0.256458
vt 0.639070 0.223349
vt 0.588791 0.223349
vt 0.581745 0.256458
vt 0.626199 0.256458
vt 0.639070 0.223349
vt 0.527999 0.256458
vt 0.588791 0.223349
vt 0.527999 0.223349
vt 0.527999 0.256458
vt 0.581745 0.256458
vt 0.588791 0.223349
vt 0.474249 0.256458
vt 0.527999 0.223349
vt 0.467206 0.223349
vt 0.474249 0.256458
vt 0.527999 0.256458
vt 0.527999 0.223349
vt 0.429794 0.256458
vt 0.467206 0.223349
vt 0.416924 0.223349
vt 0.429794 0.256458
vt 0.474249 0.256458
vt 0.467206 0.223349
vt 0.402320 0.256462
vt 0.416924 0.223349
vt 0.385850 0.223349
vt 0.402320 0.256462
vt 0.429794 0.256458
vt 0.416924 0.223349
vt 0.377131 0.278561
vt 0.402320 0.256462
vt 0.396576 0.256462
vt 0.377131 0.278561
vt 0.383726 0.278561
vt 0.402320 0.256462
vt 0.396626 0.278561
vt 0.396576 0.256462
vt 0.413556 0.256462
vt 0.396626 0.278561
vt 0.377131 0.278561
vt 0.396576 0.256462
vt 0.438832 0.278561
vt 0.413556 0.256462
vt 0.450325 0.256458
vt 0.438832 0.278561
vt 0.396626 0.278561
vt 0.413556 0.256462
vt 0.496460 0.278561
vt 0.450325 0.256458
vt 0.500525 0.256458
vt 0.496460 0.278561
vt 0.438832 0.278561
vt 0.450325 0.256458
vt 0.559538 0.278561
vt 0.500525 0.256458
vt 0.555473 0.256458
vt 0.559538 0.278561
vt 0.496460 0.278561
vt 0.500525 0.256458
vt 0.617162 0.278561
vt 0.555473 0.256458
vt 0.605673 0.256458
vt 0.617162 0.278561
vt 0.559538 0.278561
vt 0.555473 0.256458
vt 0.659368 0.278561
vt 0.605673 0.256458
vt 0.642438 0.256458
vt 0.659368 0.278561
vt 0.617162 0.278561
vt 0.605673 0.256458
vt 0.678862 0.278561
vt 0.642438 0.256458
vt 0.659418 0.256458
vt 0.678862 0.278561
vt 0.659368 0.278561
vt 0.642438 0.256458
vt 0.672268 0.278561
vt 0.659418 0.256458
vt 0.653674 0.256458
vt 0.672268 0.278561
vt 0.678862 0.278561
vt 0.659418 0.256458
vt 0.640729 0.278561
vt 0.653674 0.256458
vt 0.626199 0.256458
vt 0.640729 0.278561
vt 0.672268 0.278561
vt 0.653674 0.256458
vt 0.589700 0.278561
vt 0.626199 0.256458
vt 0.581745 0.256458
vt 0.589700 0.278561
vt 0.640729 0.278561
vt 0.626199 0.256458
vt 0.527999 0.278561
vt 0.581745 0.256458
vt 0.527999 0.256458
vt 0.527999 0.278561
vt 0.589700 0.278561
vt 0.581745 0.256458
vt 0.466298 0.278561
vt 0.527999 0.256458
vt 0.474249 0.256458
vt 0.466298 0.278561
vt 0.527999 0.278561
vt 0.527999 0.256458
vt 0.415265 0.278561
vt 0.474249 0.256458
vt 0.429794 0.256458
vt 0.415265 0.278561
vt 0.466298 0.278561
vt 0.474249 0.256458
vt 0.383726 0.278561
vt 0.429794 0.256458
vt 0.402320 0.256462
vt 0.383726 0.278561
vt 0.415265 0.278561
vt 0.429794 0.256458
vt 0.359184 0.333816
vt 0.383726 0.278561
vt 0.377131 0.278561
vt 0.359184 0.333816
vt 0.366563 0.333816
vt 0.383726 0.278561
vt 0.380997 0.333816
vt 0.377131 0.278561
vt 0.396626 0.278561
vt 0.380997 0.333816
vt 0.359184 0.333816
vt 0.377131 0.278561
vt 0.428227 0.333816
vt 0.396626 0.278561
vt 0.438832 0.278561
vt 0.428227 0.333816
vt 0.380997 0.333816
vt 0.396626 0.278561
vt 0.492706 0.333816
vt 0.438832 0.278561
vt 0.496460 0.278561
vt 0.492706 0.333816
vt 0.428227 0.333816
vt 0.438832 0.278561
vt 0.563287 0.333816
vt 0.496460 0.278561
vt 0.559538 0.278561
vt 0.563287 0.333816
vt 0.492706 0.333816
vt 0.496460 0.278561
vt 0.627771 0.333816
vt 0.559538 0.278561
vt 0.617162 0.278561
vt 0.627771 0.333816
vt 0.563287 0.333816
vt 0.559538 0.278561
vt 0.675001 0.333816
vt 0.617162 0.278561
vt 0.659368 0.278561
vt 0.675001 0.333816
vt 0.627771 0.333816
vt 0.617162 0.278561
vt 0.696809 0.333816
vt 0.659368 0.278561
vt 0.678862 0.278561
vt 0.696809 0.333816
vt 0.675001 0.333816
vt 0.659368 0.278561
vt 0.689431 0.333816
vt 0.678862 0.278561
vt 0.672268 0.278561
vt 0.689431 0.333816
vt 0.696809 0.333816
vt 0.678862 0.278561
vt 0.654142 0.333816
vt 0.672268 0.278561
vt 0.640729 0.278561
vt 0.654142 0.333816
vt 0.689431 0.333816
vt 0.672268 0.278561
vt 0.597037 0.333816
vt 0.640729 0.278561
vt 0.589700 0.278561
vt 0.597037 0.333816
vt 0.654142 0.333816
vt 0.640729 0.278561
vt 0.527999 0.333816
vt 0.589700 0.278561
vt 0.527999 0.278561
vt 0.527999 0.333816
vt 0.597037 0.333816
vt 0.589700 0.278561
vt 0.458957 0.333816
vt 0.527999 0.278561
vt 0.466298 0.278561
vt 0.458957 0.333816
vt 0.527999 0.333816
vt 0.527999 0.278561
vt 0.401856 0.333816
vt 0.466298 0.278561
vt 0.415265 0.278561
vt 0.401856 0.333816
vt 0.458957 0.333816
vt 0.466298 0.278561
vt 0.366563 0.333816
vt 0.415265 0.278561
vt 0.383726 0.278561
vt 0.366563 0.333816
vt 0.401856 0.333816
vt 0.415265 0.278561
vt 0.357687 0.396970
vt 0.366563 0.333816
vt 0.359184 0.333816
vt 0.357687 0.396970
vt 0.365132 0.396970
vt 0.366563 0.333816
vt 0.379695 0.396970
vt 0.359184 0.333816
vt 0.380997 0.333816
vt 0.379695 0.396970
vt 0.357687 0.396970
vt 0.359184 0.333816
vt 0.427339 0.396970
vt 0.380997 0.333816
vt 0.428227 0.333816
vt 0.427339 0.396970
vt 0.379695 0.396970
vt 0.380997 0.333816
vt 0.492391 0.396970
vt 0.428227 0.333816
vt 0.492706 0.333816
vt 0.492391 0.396970
vt 0.427339 0.396970
vt 0.428227 0.333816
vt 0.563603 0.396970
vt 0.492706 0.333816
vt 0.563287 0.333816
vt 0.563603 0.396970
vt 0.492391 0.396970
vt 0.492706 0.333816
vt 0.628655 0.396970
vt 0.563287 0.333816
vt 0.627771 0.333816
vt 0.628655 0.396970
vt 0.563603 0.396970
vt 0.563287 0.333816
vt 0.676303 0.396970
vt 0.627771 0.333816
vt 0.675001 0.333816
vt 0.676303 0.396970
vt 0.628655 0.396970
vt 0.627771 0.333816
vt 0.698307 0.396970
vt 0.675001 0.333816
vt 0.696809 0.333816
vt 0.698307 0.396970
vt 0.676303 0.396970
vt 0.675001 0.333816
vt 0.690862 0.396970
vt 0.696809 0.333816
vt 0.689431 0.333816
vt 0.690862 0.396970
vt 0.698307 0.396970
vt 0.696809 0.333816
vt 0.655258 0.396970
vt 0.689431 0.333816
vt 0.654142 0.333816
vt 0.655258 0.396970
vt 0.690862 0.396970
vt 0.689431 0.333816
vt 0.597651 0.396970
vt 0.654142 0.333816
vt 0.597037 0.333816
vt 0.597651 0.396970
vt 0.655258 0.396970
vt 0.654142 0.333816
vt 0.527999 0.396970
vt 0.597037 0.333816
vt 0.527999 0.333816
vt 0.527999 0.396970
vt 0.597651 0.396970
vt 0.597037 0.333816
vt 0.458347 0.396970
vt 0.527999 0.333816
vt 0.458957 0.333816
vt 0.458347 0.396970
vt 0.527999 0.396970
vt 0.527999 0.333816
vt 0.400736 0.396970
vt 0.458957 0.333816
vt 0.401856 0.333816
vt 0.400736 0.396970
vt 0.458347 0.396970
vt 0.458957 0.333816
vt 0.365132 0.396970
vt 0.401856 0.333816
vt 0.366563 0.333816
vt 0.365132 0.396970
vt 0.400736 0.396970
vt 0.401856 0.333816
vt 0.368160 0.456962
vt 0.365132 0.396970
vt 0.357687 0.396970
vt 0.368160 0.456962
vt 0.375145 0.456962
vt 0.365132 0.396970
vt 0.388811 0.456962
vt 0.357687 0.396970
vt 0.379695 0.396970
vt 0.388811 0.456962
vt 0.368160 0.456962
vt 0.357687 0.396970
vt 0.433527 0.456962
vt 0.379695 0.396970
vt 0.427339 0.396970
vt 0.433527 0.456962
vt 0.388811 0.456962
vt 0.379695 0.396970
vt 0.494581 0.456962
vt 0.427339 0.396970
vt 0.492391 0.396970
vt 0.494581 0.456962
vt 0.433527 0.456962
vt 0.427339 0.396970
vt 0.561413 0.456962
vt 0.492391 0.396970
vt 0.563603 0.396970
vt 0.561413 0.456962
vt 0.494581 0.456962
vt 0.492391 0.396970
vt 0.622466 0.456962
vt 0.563603 0.396970
vt 0.628655 0.396970
vt 0.622466 0.456962
vt 0.561413 0.456962
vt 0.563603 0.396970
vt 0.667187 0.456962
vt 0.628655 0.396970
vt 0.676303 0.396970
vt 0.667187 0.456962
vt 0.622466 0.456962
vt 0.628655 0.396970
vt 0.687838 0.456962
vt 0.676303 0.396970
vt 0.698307 0.396970
vt 0.687838 0.456962
vt 0.667187 0.456962
vt 0.676303 0.396970
vt 0.680849 0.456962
vt 0.698307 0.396970
vt 0.690862 0.396970
vt 0.680849 0.456962
vt 0.687838 0.456962
vt 0.698307 0.396970
vt 0.647435 0.456962
vt 0.690862 0.396970
vt 0.655258 0.396970
vt 0.647435 0.456962
vt 0.680849 0.456962
vt 0.690862 0.396970
vt 0.593366 0.456962
vt 0.655258 0.396970
vt 0.597651 0.396970
vt 0.593366 0.456962
vt 0.647435 0.456962
vt 0.655258 0.396970
vt 0.527999 0.456962
vt 0.597651 0.396970
vt 0.527999 0.396970
vt 0.527999 0.456962
vt 0.593366 0.456962
vt 0.597651 0.396970
vt 0.462627 0.456962
vt 0.527999 0.396970
vt 0.458347 0.396970
vt 0.462627 0.456962
vt 0.527999 0.456962
vt 0.527999 0.396970
vt 0.408558 0.456962
vt 0.458347 0.396970
vt 0.400736 0.396970
vt 0.408558 0.456962
vt 0.462627 0.456962
vt 0.458347 0.396970
vt 0.375145 0.456962
vt 0.400736 0.396970
vt 0.365132 0.396970
vt 0.375145 0.456962
vt 0.408558 0.456962
vt 0.400736 0.396970
vt 0.374141 0.486958
vt 0.375145 0.456962
vt 0.368160 0.456962
vt 0.374141 0.486958
vt 0.380864 0.486958
vt 0.375145 0.456962
vt 0.394021 0.486958
vt 0.368160 0.456962
vt 0.388811 0.456962
vt 0.394021 0.486958
vt 0.374141 0.486958
vt 0.368160 0.456962
vt 0.437065 0.486958
vt 0.388811 0.456962
vt 0.433527 0.456962
vt 0.437065 0.486958
vt 0.394021 0.486958
vt 0.388811 0.456962
vt 0.495834 0.486958
vt 0.433527 0.456962
vt 0.494581 0.456962
vt 0.495834 0.486958
vt 0.437065 0.486958
vt 0.433527 0.456962
vt 0.560164 0.486958
vt 0.494581 0.456962
vt 0.561413 0.456962
vt 0.560164 0.486958
vt 0.495834 0.486958
vt 0.494581 0.456962
vt 0.618928 0.486958
vt 0.561413 0.456962
vt 0.622466 0.456962
vt 0.618928 0.486958
vt 0.560164 0.486958
vt 0.561413 0.456962
vt 0.661973 0.486958
vt 0.622466 0.456962
vt 0.667187 0.456962
vt 0.661973 0.486958
vt 0.618928 0.486958
vt 0.622466 0.456962
vt 0.681853 0.486958
vt 0.667187 0.456962
vt 0.687838 0.456962
vt 0.681853 0.486958
vt 0.661973 0.486958
vt 0.667187 0.456962
vt 0.675130 0.486958
vt 0.687838 0.456962
vt 0.680849 0.456962
vt 0.675130 0.486958
vt 0.681853 0.486958
vt 0.687838 0.456962
vt 0.642964 0.486958
vt 0.680849 0.456962
vt 0.647435 0.456962
vt 0.642964 0.486958
vt 0.675130 0.486958
vt 0.680849 0.456962
vt 0.590919 0.486958
vt 0.647435 0.456962
vt 0.593366 0.456962
vt 0.590919 0.486958
vt 0.642964 0.486958
vt 0.647435 0.456962
vt 0.527999 0.486958
vt 0.593366 0.456962
vt 0.527999 0.456962
vt 0.527999 0.486958
vt 0.590919 0.486958
vt 0.593366 0.456962
vt 0.465075 0.486958
vt 0.527999 0.456962
vt 0.462627 0.456962
vt 0.465075 0.486958
vt 0.527999 0.486958
vt 0.527999 0.456962
vt 0.413030 0.486958
vt 0.462627 0.456962
vt 0.408558 0.456962
vt 0.413030 0.486958
vt 0.465075 0.486958
vt 0.462627 0.456962
vt 0.380864 0.486958
vt 0.408558 0.456962
vt 0.375145 0.456962
vt 0.380864 0.486958
vt 0.413030 0.486958
vt 0.408558 0.456962
vt 0.366663 0.504320
vt 0.380864 0.486958
vt 0.374141 0.486958
vt 0.366663 0.504320
vt 0.373714 0.504320
vt 0.380864 0.486958
vt 0.387509 0.504320
vt 0.374141 0.486958
vt 0.394021 0.486958
vt 0.387509 0.504320
vt 0.366663 0.504320
vt 0.374141 0.486958
vt 0.432644 0.504320
vt 0.394021 0.486958
vt 0.437065 0.486958
vt 0.432644 0.504320
vt 0.387509 0.504320
vt 0.394021 0.486958
vt 0.494270 0.504320
vt 0.437065 0.486958
vt 0.495834 0.486958
vt 0.494270 0.504320
vt 0.432644 0.504320
vt 0.437065 0.486958
vt 0.561724 0.504320
vt 0.495834 0.486958
vt 0.560164 0.486958
vt 0.561724 0.504320
vt 0.494270 0.504320
vt 0.495834 0.486958
vt 0.623350 0.504320
vt 0.560164 0.486958
vt 0.618928 0.486958
vt 0.623350 0.504320
vt 0.561724 0.504320
vt 0.560164 0.486958
vt 0.668489 0.504320
vt 0.618928 0.486958
vt 0.661973 0.486958
vt 0.668489 0.504320
vt 0.623350 0.504320
vt 0.618928 0.486958
vt 0.689331 0.504320
vt 0.661973 0.486958
vt 0.681853 0.486958
vt 0.689331 0.504320
vt 0.668489 0.504320
vt 0.661973 0.486958
vt 0.682280 0.504320
vt 0.681853 0.486958
vt 0.675130 0.486958
vt 0.682280 0.504320
vt 0.689331 0.504320
vt 0.681853 0.486958
vt 0.648551 0.504320
vt 0.675130 0.486958
vt 0.642964 0.486958
vt 0.648551 0.504320
vt 0.682280 0.504320
vt 0.675130 0.486958
vt 0.593980 0.504320
vt 0.642964 0.486958
vt 0.590919 0.486958
vt 0.593980 0.504320
vt 0.648551 0.504320
vt 0.642964 0.486958
vt 0.527999 0.504320
vt 0.590919 0.486958
vt 0.527999 0.486958
vt 0.527999 0.504320
vt 0.593980 0.504320
vt 0.590919 0.486958
vt 0.462014 0.504320
vt 0.527999 0.486958
vt 0.465075 0.486958
vt 0.462014 0.504320
vt 0.527999 0.504320
vt 0.527999 0.486958
vt 0.407443 0.504320
vt 0.465075 0.486958
vt 0.413030 0.486958
vt 0.407443 0.504320
vt 0.462014 0.504320
vt 0.465075 0.486958
vt 0.373714 0.504320
vt 0.413030 0.486958
vt 0.380864 0.486958
vt 0.373714 0.504320
vt 0.407443 0.504320
vt 0.413030 0.486958
vt 0.354697 0.553263
vt 0.373714 0.504320
vt 0.366663 0.504320
vt 0.354697 0.553263
vt 0.362270 0.553263
vt 0.373714 0.504320
vt 0.377090 0.553263
vt 0.366663 0.504320
vt 0.387509 0.504320
vt 0.377090 0.553263
vt 0.354697 0.553263
vt 0.366663 0.504320
vt 0.425572 0.553263
vt 0.387509 0.504320
vt 0.432644 0.504320
vt 0.425572 0.553263
vt 0.377090 0.553263
vt 0.387509 0.504320
vt 0.491769 0.553263
vt 0.432644 0.504320
vt 0.494270 0.504320
vt 0.491769 0.553263
vt 0.425572 0.553263
vt 0.432644 0.504320
vt 0.564229 0.553263
vt 0.494270 0.504320
vt 0.561724 0.504320
vt 0.564229 0.553263
vt 0.491769 0.553263
vt 0.494270 0.504320
vt 0.630422 0.553263
vt 0.561724 0.504320
vt 0.623350 0.504320
vt 0.630422 0.553263
vt 0.564229 0.553263
vt 0.561724 0.504320
vt 0.678908 0.553263
vt 0.623350 0.504320
vt 0.668489 0.504320
vt 0.678908 0.553263
vt 0.630422 0.553263
vt 0.623350 0.504320
vt 0.701297 0.553263
vt 0.668489 0.504320
vt 0.689331 0.504320
vt 0.701297 0.553263
vt 0.678908 0.553263
vt 0.668489 0.504320
vt 0.693723 0.553263
vt 0.689331 0.504320
vt 0.682280 0.504320
vt 0.693723 0.553263
vt 0.701297 0.553263
vt 0.689331 0.504320
vt 0.657493 0.553263
vt 0.682280 0.504320
vt 0.648551 0.504320
vt 0.657493 0.553263
vt 0.693723 0.553263
vt 0.682280 0.504320
vt 0.598874 0.553263
vt 0.648551 0.504320
vt 0.593980 0.504320
vt 0.598874 0.553263
vt 0.657493 0.553263
vt 0.648551 0.504320
vt 0.527999 0.553263
vt 0.593980 0.504320
vt 0.527999 0.504320
vt 0.527999 0.553263
vt 0.598874 0.553263
vt 0.593980 0.504320
vt 0.457123 0.553263
vt 0.527999 0.504320
vt 0.462014 0.504320
vt 0.457123 0.553263
vt 0.527999 0.553263
vt 0.527999 0.504320
vt 0.398500 0.553263
vt 0.462014 0.504320
vt 0.407443 0.504320
vt 0.398500 0.553263
vt 0.457123 0.553263
vt 0.462014 0.504320
vt 0.362270 0.553263
vt 0.407443 0.504320
vt 0.373714 0.504320
vt 0.362270 0.553263
vt 0.398500 0.553263
vt 0.407443 0.504320
vt 0.354697 0.613256
vt 0.362270 0.553263
vt 0.354697 0.553263
vt 0.354697 0.613256
vt 0.362270 0.613256
vt 0.362270 0.553263
vt 0.377090 0.613256
vt 0.354697 0.553263
vt 0.377090 0.553263
vt 0.377090 0.613256
vt 0.354697 0.613256
vt 0.354697 0.553263
vt 0.425572 0.613256
vt 0.377090 0.553263
vt 0.425572 0.553263
vt 0.425572 0.613256
vt 0.377090 0.613256
vt 0.377090 0.553263
vt 0.491769 0.613256
vt 0.425572 0.553263
vt 0.491769 0.553263
vt 0.491769 0.613256
vt 0.425572 0.613256
vt 0.425572 0.553263
vt 0.564229 0.613256
vt 0.491769 0.553263
vt 0.564229 0.553263
vt 0.564229 0.613256
vt 0.491769 0.613256
vt 0.491769 0.553263
vt 0.630422 0.613256
vt 0.564229 0.553263
vt 0.630422 0.553263
vt 0.630422 0.613256
vt 0.564229 0.613256
vt 0.564229 0.553263
vt 0.678908 0.613256
vt 0.630422 0.553263
vt 0.678908 0.553263
vt 0.678908 0.613256
vt 0.630422 0.613256
vt 0.630422 0.553263
vt 0.701297 0.613256
vt 0.678908 0.553263
vt 0.701297 0.553263
vt 0.701297 0.613256
vt 0.678908 0.613256
vt 0.678908 0.553263
vt 0.693723 0.613256
vt 0.701297 0.553263
vt 0.693723 0.553263
vt 0.693723 0.613256
vt 0.701297 0.613256
vt 0.701297 0.553263
vt 0.657493 0.613256
vt 0.693723 0.553263
vt 0.657493 0.553263
vt 0.657493 0.613256
vt 0.693723 0.613256
vt 0.693723 0.553263
vt 0.598874 0.613256
vt 0.657493 0.553263
vt 0.598874 0.553263
vt 0.598874 0.613256
vt 0.657493 0.613256
vt 0.657493 0.553263
vt 0.527999 0.613256
vt 0.598874 0.553263
vt 0.527999 0.553263
vt 0.527999 0.613256
vt 0.598874 0.613256
vt 0.598874 0.553263
vt 0.457123 0.613256
vt 0.527999 0.553263
vt 0.457123 0.553263
vt 0.457123 0.613256
vt 0.527999 0.613256
vt 0.527999 0.553263
vt 0.398500 0.613256
vt 0.457123 0.553263
vt 0.398500 0.553263
vt 0.398500 0.613256
vt 0.457123 0.613256
vt 0.457123 0.553263
vt 0.362270 0.613256
vt 0.398500 0.553263
vt 0.362270 0.553263
vt 0.362270 0.613256
vt 0.398500 0.613256
vt 0.398500 0.553263
vt 0.369653 0.654301
vt 0.362270 0.613256
vt 0.354697 0.613256
vt 0.369653 0.654301
vt 0.376576 0.654301
vt 0.362270 0.613256
vt 0.390114 0.654301
vt 0.354697 0.613256
vt 0.377090 0.613256
vt 0.390114 0.654301
vt 0.369653 0.654301
vt 0.354697 0.613256
vt 0.434411 0.654301
vt 0.377090 0.613256
vt 0.425572 0.613256
vt 0.434411 0.654301
vt 0.390114 0.654301
vt 0.377090 0.613256
vt 0.494896 0.654301
vt 0.425572 0.613256
vt 0.491769 0.613256
vt 0.494896 0.654301
vt 0.434411 0.654301
vt 0.425572 0.613256
vt 0.561102 0.654301
vt 0.491769 0.613256
vt 0.564229 0.613256
vt 0.561102 0.654301
vt 0.494896 0.654301
vt 0.491769 0.613256
vt 0.621583 0.654301
vt 0.564229 0.613256
vt 0.630422 0.613256
vt 0.621583 0.654301
vt 0.561102 0.654301
vt 0.564229 0.613256
vt 0.665884 0.654301
vt 0.630422 0.613256
vt 0.678908 0.613256
vt 0.665884 0.654301
vt 0.621583 0.654301
vt 0.630422 0.613256
vt 0.686341 0.654301
vt 0.678908 0.613256
vt 0.701297 0.613256
vt 0.686341 0.654301
vt 0.665884 0.654301
vt 0.678908 0.613256
vt 0.679422 0.654301
vt 0.701297 0.613256
vt 0.693723 0.613256
vt 0.679422 0.654301
vt 0.686341 0.654301
vt 0.701297 0.613256
vt 0.646320 0.654301
vt 0.693723 0.613256
vt 0.657493 0.613256
vt 0.646320 0.654301
vt 0.679422 0.654301
vt 0.693723 0.613256
vt 0.592757 0.654301
vt 0.657493 0.613256
vt 0.598874 0.613256
vt 0.592757 0.654301
vt 0.646320 0.654301
vt 0.657493 0.613256
vt 0.527999 0.654301
vt 0.598874 0.613256
vt 0.527999 0.613256
vt 0.527999 0.654301
vt 0.592757 0.654301
vt 0.598874 0.613256
vt 0.463237 0.654301
vt 0.527999 0.613256
vt 0.457123 0.613256
vt 0.463237 0.654301
vt 0.527999 0.654301
vt 0.527999 0.613256
vt 0.409678 0.654301
vt 0.457123 0.613256
vt 0.398500 0.613256
vt 0.409678 0.654301
vt 0.463237 0.654301
vt 0.457123 0.613256
vt 0.376576 0.654301
vt 0.398500 0.613256
vt 0.362270 0.613256
vt 0.376576 0.654301
vt 0.409678 0.654301
vt 0.398500 0.613256
vt 0.365165 0.674828
vt 0.376576 0.654301
vt 0.369653 0.654301
vt 0.365165 0.674828
vt 0.372283 0.674828
vt 0.376576 0.654301
vt 0.386207 0.674828
vt 0.369653 0.654301
vt 0.390114 0.654301
vt 0.386207 0.674828
vt 0.365165 0.674828
vt 0.369653 0.654301
vt 0.431760 0.674828
vt 0.390114 0.654301
vt 0.434411 0.654301
vt 0.431760 0.674828
vt 0.386207 0.674828
vt 0.390114 0.654301
vt 0.493955 0.674828
vt 0.434411 0.654301
vt 0.494896 0.654301
vt 0.493955 0.674828
vt 0.431760 0.674828
vt 0.434411 0.654301
vt 0.562039 0.674828
vt 0.494896 0.654301
vt 0.561102 0.654301
vt 0.562039 0.674828
vt 0.493955 0.674828
vt 0.494896 0.654301
vt 0.624233 0.674828
vt 0.561102 0.654301
vt 0.621583 0.654301
vt 0.624233 0.674828
vt 0.562039 0.674828
vt 0.561102 0.654301
vt 0.669791 0.674828
vt 0.621583 0.654301
vt 0.665884 0.654301
vt 0.669791 0.674828
vt 0.624233 0.674828
vt 0.621583 0.654301
vt 0.690828 0.674828
vt 0.665884 0.654301
vt 0.686341 0.654301
vt 0.690828 0.674828
vt 0.669791 0.674828
vt 0.665884 0.654301
vt 0.683711 0.674828
vt 0.686341 0.654301
vt 0.679422 0.654301
vt 0.683711 0.674828
vt 0.690828 0.674828
vt 0.686341 0.654301
vt 0.649671 0.674828
vt 0.679422 0.654301
vt 0.646320 0.654301
vt 0.649671 0.674828
vt 0.683711 0.674828
vt 0.679422 0.654301
vt 0.594590 0.674828
vt 0.646320 0.654301
vt 0.592757 0.654301
vt 0.594590 0.674828
vt 0.649671 0.674828
vt 0.646320 0.654301
vt 0.527999 0.674828
vt 0.592757 0.654301
vt 0.527999 0.654301
vt 0.527999 0.674828
vt 0.594590 0.674828
vt 0.592757 0.654301
vt 0.461404 0.674828
vt 0.527999 0.654301
vt 0.463237 0.654301
vt 0.461404 0.674828
vt 0.527999 0.674828
vt 0.527999 0.654301
vt 0.406323 0.674828
vt 0.463237 0.654301
vt 0.409678 0.654301
vt 0.406323 0.674828
vt 0.461404 0.674828
vt 0.463237 0.654301
vt 0.372283 0.674828
vt 0.409678 0.654301
vt 0.376576 0.654301
vt 0.372283 0.674828
vt 0.406323 0.674828
vt 0.409678 0.654301
vt 0.375638 0.690614
vt 0.372283 0.674828
vt 0.365165 0.674828
vt 0.375638 0.690614
vt 0.382295 0.690614
vt 0.372283 0.674828
vt 0.395323 0.690614
vt 0.365165 0.674828
vt 0.386207 0.674828
vt 0.395323 0.690614
vt 0.375638 0.690614
vt 0.365165 0.674828
vt 0.437949 0.690614
vt 0.386207 0.674828
vt 0.431760 0.674828
vt 0.437949 0.690614
vt 0.395323 0.690614
vt 0.386207 0.674828
vt 0.496145 0.690614
vt 0.431760 0.674828
vt 0.493955 0.674828
vt 0.496145 0.690614
vt 0.437949 0.690614
vt 0.431760 0.674828
vt 0.559849 0.690614
vt 0.493955 0.674828
vt 0.562039 0.674828
vt 0.559849 0.690614
vt 0.496145 0.690614
vt 0.493955 0.674828
vt 0.618045 0.690614
vt 0.562039 0.674828
vt 0.624233 0.674828
vt 0.618045 0.690614
vt 0.559849 0.690614
vt 0.562039 0.674828
vt 0.660671 0.690614
vt 0.624233 0.674828
vt 0.669791 0.674828
vt 0.660671 0.690614
vt 0.618045 0.690614
vt 0.624233 0.674828
vt 0.680360 0.690614
vt 0.669791 0.674828
vt 0.690828 0.674828
vt 0.680360 0.690614
vt 0.660671 0.690614
vt 0.669791 0.674828
vt 0.673699 0.690614
vt 0.690828 0.674828
vt 0.683711 0.674828
vt 0.673699 0.690614
vt 0.680360 0.690614
vt 0.690828 0.674828
vt 0.641849 0.690614
vt 0.683711 0.674828
vt 0.649671 0.674828
vt 0.641849 0.690614
vt 0.673699 0.690614
vt 0.683711 0.674828
vt 0.590309 0.690614
vt 0.649671 0.674828
vt 0.594590 0.674828
vt 0.590309 0.690614
vt 0.641849 0.690614
vt 0.649671 0.674828
vt 0.527999 0.690614
vt 0.594590 0.674828
vt 0.527999 0.674828
vt 0.527999 0.690614
vt 0.590309 0.690614
vt 0.594590 0.674828
vt 0.465684 0.690614
vt 0.527999 0.674828
vt 0.461404 0.674828
vt 0.465684 0.690614
vt 0.527999 0.690614
vt 0.527999 0.674828
vt 0.414149 0.690614
vt 0.461404 0.674828
vt 0.406323 0.674828
vt 0.414149 0.690614
vt 0.465684 0.690614
vt 0.461404 0.674828
vt 0.382295 0.690614
vt 0.406323 0.674828
vt 0.372283 0.674828
vt 0.382295 0.690614
vt 0.414149 0.690614
vt 0.406323 0.674828
vt 0.590919 0.182260
vt 0.527999 0.203606
vt 0.588791 0.203606
vt 0.590919 0.182260
vt 0.527999 0.182260
vt 0.527999 0.203606
vt 0.642964 0.182260
vt 0.588791 0.203606
vt 0.639070 0.203606
vt 0.642964 0.182260
vt 0.590919 0.182260
vt 0.588791 0.203606
vt 0.675130 0.182260
vt 0.639070 0.203606
vt 0.670144 0.203606
vt 0.675130 0.182260
vt 0.642964 0.182260
vt 0.639070 0.203606
vt 0.681853 0.182260
vt 0.670144 0.203606
vt 0.676643 0.203606
vt 0.681853 0.182260
vt 0.675130 0.182260
vt 0.670144 0.203606
vt 0.661973 0.182260
vt 0.676643 0.203606
vt 0.657435 0.203606
vt 0.661973 0.182260
vt 0.681853 0.182260
vt 0.676643 0.203606
vt 0.618928 0.182260
vt 0.657435 0.203606
vt 0.615851 0.203606
vt 0.618928 0.182260
vt 0.661973 0.182260
vt 0.657435 0.203606
vt 0.560164 0.182260
vt 0.615851 0.203606
vt 0.559073 0.203606
vt 0.560164 0.182260
vt 0.618928 0.182260
vt 0.615851 0.203606
vt 0.495834 0.182260
vt 0.559073 0.203606
vt 0.496920 0.203606
vt 0.495834 0.182260
vt 0.560164 0.182260
vt 0.559073 0.203606
vt 0.437065 0.182260
vt 0.496920 0.203606
vt 0.440147 0.203606
vt 0.437065 0.182260
vt 0.495834 0.182260
vt 0.496920 0.203606
vt 0.394021 0.182260
vt 0.440147 0.203606
vt 0.398558 0.203606
vt 0.394021 0.182260
vt 0.437065 0.182260
vt 0.440147 0.203606
vt 0.374141 0.182260
vt 0.398558 0.203606
vt 0.379355 0.203606
vt 0.374141 0.182260
vt 0.394021 0.182260
vt 0.398558 0.203606
vt 0.380864 0.182260
vt 0.379355 0.203606
vt 0.385850 0.203606
vt 0.380864 0.182260
vt 0.374141 0.182260
vt 0.379355 0.203606
vt 0.413030 0.182260
vt 0.385850 0.203606
vt 0.416924 0.203606
vt 0.413030 0.182260
vt 0.380864 0.182260
vt 0.385850 0.203606
vt 0.465075 0.182260
vt 0.416924 0.203606
vt 0.467206 0.203606
vt 0.465075 0.182260
vt 0.413030 0.182260
vt 0.416924 0.203606
vt 0.527999 0.182260
vt 0.467206 0.203606
vt 0.527999 0.203606
vt 0.527999 0.182260
vt 0.465075 0.182260
vt 0.467206 0.203606
vt 0.591533 0.155420
vt 0.527999 0.182260
vt 0.590919 0.182260
vt 0.591533 0.155420
vt 0.527999 0.155420
vt 0.527999 0.182260
vt 0.644084 0.155420
vt 0.590919 0.182260
vt 0.642964 0.182260
vt 0.644084 0.155420
vt 0.591533 0.155420
vt 0.590919 0.182260
vt 0.676560 0.155420
vt 0.642964 0.182260
vt 0.675130 0.182260
vt 0.676560 0.155420
vt 0.644084 0.155420
vt 0.642964 0.182260
vt 0.683350 0.155420
vt 0.675130 0.182260
vt 0.681853 0.182260
vt 0.683350 0.155420
vt 0.676560 0.155420
vt 0.675130 0.182260
vt 0.663275 0.155420
vt 0.681853 0.182260
vt 0.661973 0.182260
vt 0.663275 0.155420
vt 0.683350 0.155420
vt 0.681853 0.182260
vt 0.619816 0.155420
vt 0.661973 0.182260
vt 0.618928 0.182260
vt 0.619816 0.155420
vt 0.663275 0.155420
vt 0.661973 0.182260
vt 0.560475 0.155420
vt 0.618928 0.182260
vt 0.560164 0.182260
vt 0.560475 0.155420
vt 0.619816 0.155420
vt 0.618928 0.182260
vt 0.495519 0.155420
vt 0.560164 0.182260
vt 0.495834 0.182260
vt 0.495519 0.155420
vt 0.560475 0.155420
vt 0.560164 0.182260
vt 0.436182 0.155420
vt 0.495834 0.182260
vt 0.437065 0.182260
vt 0.436182 0.155420
vt 0.495519 0.155420
vt 0.495834 0.182260
vt 0.392718 0.155420
vt 0.437065 0.182260
vt 0.394021 0.182260
vt 0.392718 0.155420
vt 0.436182 0.155420
vt 0.437065 0.182260
vt 0.372644 0.155420
vt 0.394021 0.182260
vt 0.374141 0.182260
vt 0.372644 0.155420
vt 0.392718 0.155420
vt 0.394021 0.182260
vt 0.379433 0.155420
vt 0.374141 0.182260
vt 0.380864 0.182260
vt 0.379433 0.155420
vt 0.372644 0.155420
vt 0.374141 0.182260
vt 0.411914 0.155420
vt 0.380864 0.182260
vt 0.413030 0.182260
vt 0.411914 0.155420
vt 0.379433 0.155420
vt 0.380864 0.182260
vt 0.464461 0.155420
vt 0.413030 0.182260
vt 0.465075 0.182260
vt 0.464461 0.155420
vt 0.411914 0.155420
vt 0.413030 0.182260
vt 0.527999 0.155420
vt 0.465075 0.182260
vt 0.527999 0.182260
vt 0.527999 0.155420
vt 0.464461 0.155420
vt 0.465075 0.182260
vt 0.586029 0.123843
vt 0.527999 0.155420
vt 0.591533 0.155420
vt 0.586029 0.123843
vt 0.527999 0.123843
vt 0.527999 0.155420
vt 0.634022 0.123843
vt 0.591533 0.155420
vt 0.644084 0.155420
vt 0.634022 0.123843
vt 0.586029 0.123843
vt 0.591533 0.155420
vt 0.663686 0.123843
vt 0.644084 0.155420
vt 0.676560 0.155420
vt 0.663686 0.123843
vt 0.634022 0.123843
vt 0.644084 0.155420
vt 0.669887 0.123843
vt 0.676560 0.155420
vt 0.683350 0.155420
vt 0.669887 0.123843
vt 0.663686 0.123843
vt 0.676560 0.155420
vt 0.651554 0.123843
vt 0.683350 0.155420
vt 0.663275 0.155420
vt 0.651554 0.123843
vt 0.669887 0.123843
vt 0.683350 0.155420
vt 0.611857 0.123843
vt 0.663275 0.155420
vt 0.619816 0.155420
vt 0.611857 0.123843
vt 0.651554 0.123843
vt 0.663275 0.155420
vt 0.557659 0.123843
vt 0.619816 0.155420
vt 0.560475 0.155420
vt 0.557659 0.123843
vt 0.611857 0.123843
vt 0.619816 0.155420
vt 0.498335 0.123843
vt 0.560475 0.155420
vt 0.495519 0.155420
vt 0.498335 0.123843
vt 0.557659 0.123843
vt 0.560475 0.155420
vt 0.444137 0.123843
vt 0.495519 0.155420
vt 0.436182 0.155420
vt 0.444137 0.123843
vt 0.498335 0.123843
vt 0.495519 0.155420
vt 0.404440 0.123843
vt 0.436182 0.155420
vt 0.392718 0.155420
vt 0.404440 0.123843
vt 0.444137 0.123843
vt 0.436182 0.155420
vt 0.386107 0.123843
vt 0.392718 0.155420
vt 0.372644 0.155420
vt 0.386107 0.123843
vt 0.404440 0.123843
vt 0.392718 0.155420
vt 0.392308 0.123843
vt 0.372644 0.155420
vt 0.379433 0.155420
vt 0.392308 0.123843
vt 0.386107 0.123843
vt 0.372644 0.155420
vt 0.421972 0.123843
vt 0.379433 0.155420
vt 0.411914 0.155420
vt 0.421972 0.123843
vt 0.392308 0.123843
vt 0.379433 0.155420
vt 0.469969 0.123843
vt 0.411914 0.155420
vt 0.464461 0.155420
vt 0.469969 0.123843
vt 0.421972 0.123843
vt 0.411914 0.155420
vt 0.527999 0.123843
vt 0.464461 0.155420
vt 0.527999 0.155420
vt 0.527999 0.123843
vt 0.469969 0.123843
vt 0.464461 0.155420
vt 0.589086 0.100164
vt 0.527999 0.123843
vt 0.586029 0.123843
vt 0.589086 0.100164
vt 0.527999 0.100164
vt 0.527999 0.123843
vt 0.639613 0.100164
vt 0.586029 0.123843
vt 0.634022 0.123843
vt 0.639613 0.100164
vt 0.589086 0.100164
vt 0.586029 0.123843
vt 0.670837 0.100164
vt 0.634022 0.123843
vt 0.663686 0.123843
vt 0.670837 0.100164
vt 0.639613 0.100164
vt 0.634022 0.123843
vt 0.677365 0.100164
vt 0.663686 0.123843
vt 0.669887 0.123843
vt 0.677365 0.100164
vt 0.670837 0.100164
vt 0.663686 0.123843
vt 0.658066 0.100164
vt 0.669887 0.123843
vt 0.651554 0.123843
vt 0.658066 0.100164
vt 0.677365 0.100164
vt 0.669887 0.123843
vt 0.616278 0.100164
vt 0.651554 0.123843
vt 0.611857 0.123843
vt 0.616278 0.100164
vt 0.658066 0.100164
vt 0.651554 0.123843
vt 0.559223 0.100164
vt 0.611857 0.123843
vt 0.557659 0.123843
vt 0.559223 0.100164
vt 0.616278 0.100164
vt 0.611857 0.123843
vt 0.496771 0.100164
vt 0.557659 0.123843
vt 0.498335 0.123843
vt 0.496771 0.100164
vt 0.559223 0.100164
vt 0.557659 0.123843
vt 0.439716 0.100164
vt 0.498335 0.123843
vt 0.444137 0.123843
vt 0.439716 0.100164
vt 0.496771 0.100164
vt 0.498335 0.123843
vt 0.397928 0.100164
vt 0.444137 0.123843
vt 0.404440 0.123843
vt 0.397928 0.100164
vt 0.439716 0.100164
vt 0.444137 0.123843
vt 0.378629 0.100164
vt 0.404440 0.123843
vt 0.386107 0.123843
vt 0.378629 0.100164
vt 0.397928 0.100164
vt 0.404440 0.123843
vt 0.385157 0.100164
vt 0.386107 0.123843
vt 0.392308 0.123843
vt 0.385157 0.100164
vt 0.378629 0.100164
vt 0.386107 0.123843
vt 0.416385 0.100164
vt 0.392308 0.123843
vt 0.421972 0.123843
vt 0.416385 0.100164
vt 0.385157 0.100164
vt 0.392308 0.123843
vt 0.466908 0.100164
vt 0.421972 0.123843
vt 0.469969 0.123843
vt 0.466908 0.100164
vt 0.416385 0.100164
vt 0.421972 0.123843
vt 0.527999 0.100164
vt 0.469969 0.123843
vt 0.527999 0.123843
vt 0.527999 0.100164
vt 0.466908 0.100164
vt 0.469969 0.123843
vt 0.590919 0.060695
vt 0.527999 0.100164
vt 0.589086 0.100164
vt 0.590919 0.060695
vt 0.527999 0.060695
vt 0.527999 0.100164
vt 0.642964 0.060695
vt 0.589086 0.100164
vt 0.639613 0.100164
vt 0.642964 0.060695
vt 0.590919 0.060695
vt 0.589086 0.100164
vt 0.675130 0.060695
vt 0.639613 0.100164
vt 0.670837 0.100164
vt 0.675130 0.060695
vt 0.642964 0.060695
vt 0.639613 0.100164
vt 0.681853 0.060695
vt 0.670837 0.100164
vt 0.677365 0.100164
vt 0.681853 0.060695
vt 0.675130 0.060695
vt 0.670837 0.100164
vt 0.661973 0.060695
vt 0.677365 0.100164
vt 0.658066 0.100164
vt 0.661973 0.060695
vt 0.681853 0.060695
vt 0.677365 0.100164
vt 0.618928 0.060695
vt 0.658066 0.100164
vt 0.616278 0.100164
vt 0.618928 0.060695
vt 0.661973 0.060695
vt 0.658066 0.100164
vt 0.560164 0.060695
vt 0.616278 0.100164
vt 0.559223 0.100164
vt 0.560164 0.060695
vt 0.618928 0.060695
vt 0.616278 0.100164
vt 0.495834 0.060695
vt 0.559223 0.100164
vt 0.496771 0.100164
vt 0.495834 0.060695
vt 0.560164 0.060695
vt 0.559223 0.100164
vt 0.437065 0.060695
vt 0.496771 0.100164
vt 0.439716 0.100164
vt 0.437065 0.060695
vt 0.495834 0.060695
vt 0.496771 0.100164
vt 0.394021 0.060695
vt 0.439716 0.100164
vt 0.397928 0.100164
vt 0.394021 0.060695
vt 0.437065 0.060695
vt 0.439716 0.100164
vt 0.374141 0.060695
vt 0.397928 0.100164
vt 0.378629 0.100164
vt 0.374141 0.060695
vt 0.394021 0.060695
vt 0.397928 0.100164
vt 0.380864 0.060695
vt 0.378629 0.100164
vt 0.385157 0.100164
vt 0.380864 0.060695
vt 0.374141 0.060695
vt 0.378629 0.100164
vt 0.413030 0.060695
vt 0.385157 0.100164
vt 0.416385 0.100164
vt 0.413030 0.060695
vt 0.380864 0.060695
vt 0.385157 0.100164
vt 0.465075 0.060695
vt 0.416385 0.100164
vt 0.466908 0.100164
vt 0.465075 0.060695
vt 0.413030 0.060695
vt 0.416385 0.100164
vt 0.527999 0.060695
vt 0.466908 0.100164
vt 0.527999 0.100164
vt 0.527999 0.060695
vt 0.465075 0.060695
vt 0.466908 0.100164
vt 0.584192 0.011756
vt 0.527999 0.060695
vt 0.590919 0.060695
vt 0.584192 0.011756
vt 0.527999 0.011756
vt 0.527999 0.060695
vt 0.630671 0.011756
vt 0.590919 0.060695
vt 0.642964 0.060695
vt 0.630671 0.011756
vt 0.584192 0.011756
vt 0.590919 0.060695
vt 0.659397 0.011756
vt 0.642964 0.060695
vt 0.675130 0.060695
vt 0.659397 0.011756
vt 0.630671 0.011756
vt 0.642964 0.060695
vt 0.665403 0.011756
vt 0.675130 0.060695
vt 0.681853 0.060695
vt 0.665403 0.011756
vt 0.659397 0.011756
vt 0.675130 0.060695
vt 0.647647 0.011756
vt 0.681853 0.060695
vt 0.661973 0.060695
vt 0.647647 0.011756
vt 0.665403 0.011756
vt 0.681853 0.060695
vt 0.609206 0.011756
vt 0.661973 0.060695
vt 0.618928 0.060695
vt 0.609206 0.011756
vt 0.647647 0.011756
vt 0.661973 0.060695
vt 0.556722 0.011756
vt 0.618928 0.060695
vt 0.560164 0.060695
vt 0.556722 0.011756
vt 0.609206 0.011756
vt 0.618928 0.060695
vt 0.499272 0.011756
vt 0.560164 0.060695
vt 0.495834 0.060695
vt 0.499272 0.011756
vt 0.556722 0.011756
vt 0.560164 0.060695
vt 0.446788 0.011756
vt 0.495834 0.060695
vt 0.437065 0.060695
vt 0.446788 0.011756
vt 0.499272 0.011756
vt 0.495834 0.060695
vt 0.408347 0.011756
vt 0.437065 0.060695
vt 0.394021 0.060695
vt 0.408347 0.011756
vt 0.446788 0.011756
vt 0.437065 0.060695
vt 0.390595 0.011756
vt 0.394021 0.060695
vt 0.374141 0.060695
vt 0.390595 0.011756
vt 0.408347 0.011756
vt 0.394021 0.060695
vt 0.396601 0.011756
vt 0.374141 0.060695
vt 0.380864 0.060695
vt 0.396601 0.011756
vt 0.390595 0.011756
vt 0.374141 0.060695
vt 0.425323 0.011756
vt 0.380864 0.060695
vt 0.413030 0.060695
vt 0.425323 0.011756
vt 0.396601 0.011756
vt 0.380864 0.060695
vt 0.471802 0.011756
vt 0.413030 0.060695
vt 0.465075 0.060695
vt 0.471802 0.011756
vt 0.425323 0.011756
vt 0.413030 0.060695
vt 0.527999 0.011756
vt 0.465075 0.060695
vt 0.527999 0.060695
vt 0.527999 0.011756
vt 0.471802 0.011756
vt 0.465075 0.060695
vt 0.577464 0.007019
vt 0.527999 0.011756
vt 0.584192 0.011756
vt 0.577464 0.007019
vt 0.527999 0.007019
vt 0.527999 0.011756
vt 0.618377 0.007019
vt 0.584192 0.011756
vt 0.630671 0.011756
vt 0.618377 0.007019
vt 0.577464 0.007019
vt 0.584192 0.011756
vt 0.643661 0.007019
vt 0.630671 0.011756
vt 0.659397 0.011756
vt 0.643661 0.007019
vt 0.618377 0.007019
vt 0.630671 0.011756
vt 0.648949 0.007019
vt 0.659397 0.011756
vt 0.665403 0.011756
vt 0.648949 0.007019
vt 0.643661 0.007019
vt 0.659397 0.011756
vt 0.633321 0.007019
vt 0.665403 0.011756
vt 0.647647 0.011756
vt 0.633321 0.007019
vt 0.648949 0.007019
vt 0.665403 0.011756
vt 0.599484 0.007019
vt 0.647647 0.011756
vt 0.609206 0.011756
vt 0.599484 0.007019
vt 0.633321 0.007019
vt 0.647647 0.011756
vt 0.553283 0.007019
vt 0.609206 0.011756
vt 0.556722 0.011756
vt 0.553283 0.007019
vt 0.599484 0.007019
vt 0.609206 0.011756
vt 0.502711 0.007019
vt 0.556722 0.011756
vt 0.499272 0.011756
vt 0.502711 0.007019
vt 0.553283 0.007019
vt 0.556722 0.011756
vt 0.456514 0.007019
vt 0.499272 0.011756
vt 0.446788 0.011756
vt 0.456514 0.007019
vt 0.502711 0.007019
vt 0.499272 0.011756
vt 0.422673 0.007019
vt 0.446788 0.011756
vt 0.408347 0.011756
vt 0.422673 0.007019
vt 0.456514 0.007019
vt 0.446788 0.011756
vt 0.407044 0.007019
vt 0.408347 0.011756
vt 0.390595 0.011756
vt 0.407044 0.007019
vt 0.422673 0.007019
vt 0.408347 0.011756
vt 0.412333 0.007019
vt 0.390595 0.011756
vt 0.396601 0.011756
vt 0.412333 0.007019
vt 0.407044 0.007019
vt 0.390595 0.011756
vt 0.437617 0.007019
vt 0.396601 0.011756
vt 0.425323 0.011756
vt 0.437617 0.007019
vt 0.412333 0.007019
vt 0.396601 0.011756
vt 0.478530 0.007019
vt 0.425323 0.011756
vt 0.471802 0.011756
vt 0.478530 0.007019
vt 0.437617 0.007019
vt 0.425323 0.011756
vt 0.527999 0.007019
vt 0.471802 0.011756
vt 0.527999 0.011756
vt 0.527999 0.007019
vt 0.478530 0.007019
vt 0.471802 0.011756
# num_uvs: 1878

g def_surf_mat
s 1

usemtl def_surf_mat
f 1/1/1 2/2/2 3/3/3 
f 1/4/1 4/5/4 2/6/2 
f 5/7/5 3/8/3 6/9/6 
f 5/10/5 1/11/1 3/12/3 
f 7/13/7 6/14/6 8/15/8 
f 7/16/7 5/17/5 6/18/6 
f 9/19/9 8/20/8 10/21/10 
f 9/22/9 7/23/7 8/24/8 
f 11/25/11 10/26/10 12/27/12 
f 11/28/11 9/29/9 10/30/10 
f 13/31/13 12/32/12 14/33/14 
f 13/34/13 11/35/11 12/36/12 
f 15/37/15 14/38/14 16/39/16 
f 15/40/15 13/41/13 14/42/14 
f 17/43/17 16/44/16 18/45/18 
f 17/46/17 15/47/15 16/48/16 
f 19/49/19 18/50/18 20/51/20 
f 19/52/19 17/53/17 18/54/18 
f 21/55/21 20/56/20 22/57/22 
f 21/58/21 19/59/19 20/60/20 
f 23/61/23 22/62/22 24/63/24 
f 23/64/23 21/65/21 22/66/22 
f 25/67/25 24/68/24 26/69/26 
f 25/70/25 23/71/23 24/72/24 
f 27/73/27 26/74/26 28/75/28 
f 27/76/27 25/77/25 26/78/26 
f 29/79/29 28/80/28 30/81/30 
f 29/82/29 27/83/27 28/84/28 
f 4/85/4 30/86/30 2/87/2 
f 4/88/4 29/89/29 30/90/30 
f 31/91/31 32/92/32 33/93/33 
f 31/94/31 34/95/34 32/96/32 
f 35/97/35 34/98/34 31/99/31 
f 35/100/35 36/101/36 34/102/34 
f 37/103/37 36/104/36 35/105/35 
f 37/106/37 38/107/38 36/108/36 
f 39/109/39 38/110/38 37/111/37 
f 39/112/39 40/113/40 38/114/38 
f 41/115/41 40/116/40 39/117/39 
f 41/118/41 42/119/42 40/120/40 
f 43/121/43 42/122/42 41/123/41 
f 43/124/43 44/125/44 42/126/42 
f 45/127/45 44/128/44 43/129/43 
f 46/130/46 47/131/47 48/132/48 
f 46/133/46 49/134/49 47/135/47 
f 50/136/50 49/137/49 46/138/46 
f 50/139/50 51/140/51 49/141/49 
f 52/142/52 51/143/51 50/144/50 
f 52/145/52 53/146/53 51/147/51 
f 54/148/54 53/149/53 52/150/52 
f 54/151/54 55/152/55 53/153/53 
f 56/154/56 55/155/55 54/156/54 
f 56/157/56 57/158/57 55/159/55 
f 58/160/58 57/161/57 56/162/56 
f 58/163/58 59/164/59 57/165/57 
f 60/166/60 59/167/59 58/168/58 
f 61/169/61 5/170/5 7/171/7 
f 61/172/61 62/173/62 5/174/5 
f 63/175/63 7/176/7 9/177/9 
f 63/178/63 61/179/61 7/180/7 
f 64/181/64 9/182/9 11/183/11 
f 64/184/64 63/185/63 9/186/9 
f 65/187/65 11/188/11 13/189/13 
f 65/190/65 64/191/64 11/192/11 
f 66/193/66 13/194/13 15/195/15 
f 66/196/66 65/197/65 13/198/13 
f 67/199/67 15/200/15 17/201/17 
f 67/202/67 66/203/66 15/204/15 
f 68/205/68 17/206/17 19/207/19 
f 68/208/68 67/209/67 17/210/17 
f 69/211/69 19/212/19 21/213/21 
f 69/214/69 68/215/68 19/216/19 
f 70/217/70 21/218/21 23/219/23 
f 70/220/70 69/221/69 21/222/21 
f 71/223/71 23/224/23 25/225/25 
f 71/226/71 70/227/70 23/228/23 
f 72/229/72 25/230/25 27/231/27 
f 72/232/72 71/233/71 25/234/25 
f 73/235/73 27/236/27 29/237/29 
f 73/238/73 72/239/72 27/240/27 
f 74/241/74 29/242/29 4/243/4 
f 74/244/74 73/245/73 29/246/29 
f 75/247/75 4/248/4 1/249/1 
f 75/250/75 74/251/74 4/252/4 
f 62/253/62 1/254/1 5/255/5 
f 62/256/62 75/257/75 1/258/1 
f 76/259/76 62/260/62 61/261/61 
f 76/262/76 77/263/77 62/264/62 
f 78/265/78 61/266/61 63/267/63 
f 78/268/78 76/269/76 61/270/61 
f 79/271/79 63/272/63 64/273/64 
f 79/274/79 78/275/78 63/276/63 
f 80/277/80 64/278/64 65/279/65 
f 80/280/80 79/281/79 64/282/64 
f 81/283/81 65/284/65 66/285/66 
f 81/286/81 80/287/80 65/288/65 
f 82/289/82 66/290/66 67/291/67 
f 82/292/82 81/293/81 66/294/66 
f 83/295/83 67/296/67 68/297/68 
f 83/298/83 82/299/82 67/300/67 
f 84/301/84 68/302/68 69/303/69 
f 84/304/84 83/305/83 68/306/68 
f 85/307/85 69/308/69 70/309/70 
f 85/310/85 84/311/84 69/312/69 
f 86/313/86 70/314/70 71/315/71 
f 86/316/86 85/317/85 70/318/70 
f 87/319/87 71/320/71 72/321/72 
f 87/322/87 86/323/86 71/324/71 
f 88/325/88 72/326/72 73/327/73 
f 88/328/88 87/329/87 72/330/72 
f 89/331/89 73/332/73 74/333/74 
f 89/334/89 88/335/88 73/336/73 
f 90/337/90 74/338/74 75/339/75 
f 90/340/90 89/341/89 74/342/74 
f 77/343/77 75/344/75 62/345/62 
f 77/346/77 90/347/90 75/348/75 
f 91/349/91 77/350/77 76/351/76 
f 91/352/91 92/353/92 77/354/77 
f 93/355/93 76/356/76 78/357/78 
f 93/358/93 91/359/91 76/360/76 
f 94/361/94 78/362/78 79/363/79 
f 94/364/94 93/365/93 78/366/78 
f 95/367/95 79/368/79 80/369/80 
f 95/370/95 94/371/94 79/372/79 
f 96/373/96 80/374/80 81/375/81 
f 96/376/96 95/377/95 80/378/80 
f 97/379/97 81/380/81 82/381/82 
f 97/382/97 96/383/96 81/384/81 
f 98/385/98 82/386/82 83/387/83 
f 98/388/98 97/389/97 82/390/82 
f 99/391/99 83/392/83 84/393/84 
f 99/394/99 98/395/98 83/396/83 
f 100/397/100 84/398/84 85/399/85 
f 100/400/100 99/401/99 84/402/84 
f 101/403/101 85/404/85 86/405/86 
f 101/406/101 100/407/100 85/408/85 
f 102/409/102 86/410/86 87/411/87 
f 102/412/102 101/413/101 86/414/86 
f 103/415/103 87/416/87 88/417/88 
f 103/418/103 102/419/102 87/420/87 
f 104/421/104 88/422/88 89/423/89 
f 104/424/104 103/425/103 88/426/88 
f 105/427/105 89/428/89 90/429/90 
f 105/430/105 104/431/104 89/432/89 
f 92/433/92 90/434/90 77/435/77 
f 92/436/92 105/437/105 90/438/90 
f 106/439/106 92/440/92 91/441/91 
f 106/442/106 107/443/107 92/444/92 
f 108/445/108 91/446/91 93/447/93 
f 108/448/108 106/449/106 91/450/91 
f 109/451/109 93/452/93 94/453/94 
f 109/454/109 108/455/108 93/456/93 
f 110/457/110 94/458/94 95/459/95 
f 110/460/110 109/461/109 94/462/94 
f 111/463/111 95/464/95 96/465/96 
f 111/466/111 110/467/110 95/468/95 
f 112/469/112 96/470/96 97/471/97 
f 112/472/112 111/473/111 96/474/96 
f 113/475/113 97/476/97 98/477/98 
f 113/478/113 112/479/112 97/480/97 
f 114/481/114 98/482/98 99/483/99 
f 114/484/114 113/485/113 98/486/98 
f 115/487/115 99/488/99 100/489/100 
f 115/490/115 114/491/114 99/492/99 
f 116/493/116 100/494/100 101/495/101 
f 116/496/116 115/497/115 100/498/100 
f 117/499/117 101/500/101 102/501/102 
f 117/502/117 116/503/116 101/504/101 
f 118/505/118 102/506/102 103/507/103 
f 118/508/118 117/509/117 102/510/102 
f 119/511/119 103/512/103 104/513/104 
f 119/514/119 118/515/118 103/516/103 
f 120/517/120 104/518/104 105/519/105 
f 120/520/120 119/521/119 104/522/104 
f 107/523/107 105/524/105 92/525/92 
f 107/526/107 120/527/120 105/528/105 
f 121/529/121 107/530/107 106/531/106 
f 121/532/121 122/533/122 107/534/107 
f 123/535/123 106/536/106 108/537/108 
f 123/538/123 121/539/121 106/540/106 
f 124/541/124 108/542/108 109/543/109 
f 124/544/124 123/545/123 108/546/108 
f 125/547/125 109/548/109 110/549/110 
f 125/550/125 124/551/124 109/552/109 
f 126/553/126 110/554/110 111/555/111 
f 126/556/126 125/557/125 110/558/110 
f 127/559/127 111/560/111 112/561/112 
f 127/562/127 126/563/126 111/564/111 
f 128/565/128 112/566/112 113/567/113 
f 128/568/128 127/569/127 112/570/112 
f 129/571/129 113/572/113 114/573/114 
f 129/574/129 128/575/128 113/576/113 
f 130/577/130 114/578/114 115/579/115 
f 130/580/130 129/581/129 114/582/114 
f 131/583/131 115/584/115 116/585/116 
f 131/586/131 130/587/130 115/588/115 
f 132/589/132 116/590/116 117/591/117 
f 132/592/132 131/593/131 116/594/116 
f 133/595/133 117/596/117 118/597/118 
f 133/598/133 132/599/132 117/600/117 
f 134/601/134 118/602/118 119/603/119 
f 134/604/134 133/605/133 118/606/118 
f 135/607/135 119/608/119 120/609/120 
f 135/610/135 134/611/134 119/612/119 
f 122/613/122 120/614/120 107/615/107 
f 122/616/122 135/617/135 120/618/120 
f 136/619/136 122/620/122 121/621/121 
f 136/622/136 137/623/137 122/624/122 
f 138/625/138 121/626/121 123/627/123 
f 138/628/138 136/629/136 121/630/121 
f 139/631/139 123/632/123 124/633/124 
f 139/634/139 138/635/138 123/636/123 
f 140/637/140 124/638/124 125/639/125 
f 140/640/140 139/641/139 124/642/124 
f 141/643/141 125/644/125 126/645/126 
f 141/646/141 140/647/140 125/648/125 
f 142/649/142 126/650/126 127/651/127 
f 142/652/142 141/653/141 126/654/126 
f 143/655/143 127/656/127 128/657/128 
f 143/658/143 142/659/142 127/660/127 
f 144/661/144 128/662/128 129/663/129 
f 144/664/144 143/665/143 128/666/128 
f 145/667/145 129/668/129 130/669/130 
f 145/670/145 144/671/144 129/672/129 
f 146/673/146 130/674/130 131/675/131 
f 146/676/146 145/677/145 130/678/130 
f 147/679/147 131/680/131 132/681/132 
f 147/682/147 146/683/146 131/684/131 
f 148/685/148 132/686/132 133/687/133 
f 148/688/148 147/689/147 132/690/132 
f 149/691/149 133/692/133 134/693/134 
f 149/694/149 148/695/148 133/696/133 
f 150/697/150 134/698/134 135/699/135 
f 150/700/150 149/701/149 134/702/134 
f 137/703/137 135/704/135 122/705/122 
f 137/706/137 150/707/150 135/708/135 
f 151/709/151 137/710/137 136/711/136 
f 151/712/151 152/713/152 137/714/137 
f 153/715/153 136/716/136 138/717/138 
f 153/718/153 151/719/151 136/720/136 
f 154/721/154 138/722/138 139/723/139 
f 154/724/154 153/725/153 138/726/138 
f 155/727/155 139/728/139 140/729/140 
f 155/730/155 154/731/154 139/732/139 
f 156/733/156 140/734/140 141/735/141 
f 156/736/156 155/737/155 140/738/140 
f 157/739/157 141/740/141 142/741/142 
f 157/742/157 156/743/156 141/744/141 
f 158/745/158 142/746/142 143/747/143 
f 158/748/158 157/749/157 142/750/142 
f 159/751/159 143/752/143 144/753/144 
f 159/754/159 158/755/158 143/756/143 
f 160/757/160 144/758/144 145/759/145 
f 160/760/160 159/761/159 144/762/144 
f 161/763/161 145/764/145 146/765/146 
f 161/766/161 160/767/160 145/768/145 
f 162/769/162 146/770/146 147/771/147 
f 162/772/162 161/773/161 146/774/146 
f 163/775/163 147/776/147 148/777/148 
f 163/778/163 162/779/162 147/780/147 
f 164/781/164 148/782/148 149/783/149 
f 164/784/164 163/785/163 148/786/148 
f 165/787/165 149/788/149 150/789/150 
f 165/790/165 164/791/164 149/792/149 
f 152/793/152 150/794/150 137/795/137 
f 152/796/152 165/797/165 150/798/150 
f 166/799/166 152/800/152 151/801/151 
f 166/802/166 167/803/167 152/804/152 
f 168/805/168 151/806/151 153/807/153 
f 168/808/168 166/809/166 151/810/151 
f 169/811/169 153/812/153 154/813/154 
f 169/814/169 168/815/168 153/816/153 
f 170/817/170 154/818/154 155/819/155 
f 170/820/170 169/821/169 154/822/154 
f 171/823/171 155/824/155 156/825/156 
f 171/826/171 170/827/170 155/828/155 
f 172/829/172 156/830/156 157/831/157 
f 172/832/172 171/833/171 156/834/156 
f 173/835/173 157/836/157 158/837/158 
f 173/838/173 172/839/172 157/840/157 
f 174/841/174 158/842/158 159/843/159 
f 174/844/174 173/845/173 158/846/158 
f 175/847/175 159/848/159 160/849/160 
f 175/850/175 174/851/174 159/852/159 
f 176/853/176 160/854/160 161/855/161 
f 176/856/176 175/857/175 160/858/160 
f 177/859/177 161/860/161 162/861/162 
f 177/862/177 176/863/176 161/864/161 
f 178/865/178 162/866/162 163/867/163 
f 178/868/178 177/869/177 162/870/162 
f 179/871/179 163/872/163 164/873/164 
f 179/874/179 178/875/178 163/876/163 
f 180/877/180 164/878/164 165/879/165 
f 180/880/180 179/881/179 164/882/164 
f 167/883/167 165/884/165 152/885/152 
f 167/886/167 180/887/180 165/888/165 
f 181/889/181 167/890/167 166/891/166 
f 181/892/181 182/893/182 167/894/167 
f 183/895/183 166/896/166 168/897/168 
f 183/898/183 181/899/181 166/900/166 
f 184/901/184 168/902/168 169/903/169 
f 184/904/184 183/905/183 168/906/168 
f 185/907/185 169/908/169 170/909/170 
f 185/910/185 184/911/184 169/912/169 
f 186/913/186 170/914/170 171/915/171 
f 186/916/186 185/917/185 170/918/170 
f 187/919/187 171/920/171 172/921/172 
f 187/922/187 186/923/186 171/924/171 
f 188/925/188 172/926/172 173/927/173 
f 188/928/188 187/929/187 172/930/172 
f 189/931/189 173/932/173 174/933/174 
f 189/934/189 188/935/188 173/936/173 
f 190/937/190 174/938/174 175/939/175 
f 190/940/190 189/941/189 174/942/174 
f 191/943/191 175/944/175 176/945/176 
f 191/946/191 190/947/190 175/948/175 
f 192/949/192 176/950/176 177/951/177 
f 192/952/192 191/953/191 176/954/176 
f 193/955/193 177/956/177 178/957/178 
f 193/958/193 192/959/192 177/960/177 
f 194/961/194 178/962/178 179/963/179 
f 194/964/194 193/965/193 178/966/178 
f 195/967/195 179/968/179 180/969/180 
f 195/970/195 194/971/194 179/972/179 
f 182/973/182 180/974/180 167/975/167 
f 182/976/182 195/977/195 180/978/180 
f 196/979/196 182/980/182 181/981/181 
f 196/982/196 197/983/197 182/984/182 
f 198/985/198 181/986/181 183/987/183 
f 198/988/198 196/989/196 181/990/181 
f 199/991/199 183/992/183 184/993/184 
f 199/994/199 198/995/198 183/996/183 
f 200/997/200 184/998/184 185/999/185 
f 200/1000/200 199/1001/199 184/1002/184 
f 201/1003/201 185/1004/185 186/1005/186 
f 201/1006/201 200/1007/200 185/1008/185 
f 202/1009/202 186/1010/186 187/1011/187 
f 202/1012/202 201/1013/201 186/1014/186 
f 203/1015/203 187/1016/187 188/1017/188 
f 203/1018/203 202/1019/202 187/1020/187 
f 204/1021/204 188/1022/188 189/1023/189 
f 204/1024/204 203/1025/203 188/1026/188 
f 205/1027/205 189/1028/189 190/1029/190 
f 205/1030/205 204/1031/204 189/1032/189 
f 206/1033/206 190/1034/190 191/1035/191 
f 206/1036/206 205/1037/205 190/1038/190 
f 207/1039/207 191/1040/191 192/1041/192 
f 207/1042/207 206/1043/206 191/1044/191 
f 208/1045/208 192/1046/192 193/1047/193 
f 208/1048/208 207/1049/207 192/1050/192 
f 209/1051/209 193/1052/193 194/1053/194 
f 209/1054/209 208/1055/208 193/1056/193 
f 210/1057/210 194/1058/194 195/1059/195 
f 210/1060/210 209/1061/209 194/1062/194 
f 197/1063/197 195/1064/195 182/1065/182 
f 197/1066/197 210/1067/210 195/1068/195 
f 211/1069/211 197/1070/197 196/1071/196 
f 211/1072/211 212/1073/212 197/1074/197 
f 213/1075/213 196/1076/196 198/1077/198 
f 213/1078/213 211/1079/211 196/1080/196 
f 214/1081/214 198/1082/198 199/1083/199 
f 214/1084/214 213/1085/213 198/1086/198 
f 215/1087/215 199/1088/199 200/1089/200 
f 215/1090/215 214/1091/214 199/1092/199 
f 216/1093/216 200/1094/200 201/1095/201 
f 216/1096/216 215/1097/215 200/1098/200 
f 217/1099/217 201/1100/201 202/1101/202 
f 217/1102/217 216/1103/216 201/1104/201 
f 218/1105/218 202/1106/202 203/1107/203 
f 218/1108/218 217/1109/217 202/1110/202 
f 219/1111/219 203/1112/203 204/1113/204 
f 219/1114/219 218/1115/218 203/1116/203 
f 220/1117/220 204/1118/204 205/1119/205 
f 220/1120/220 219/1121/219 204/1122/204 
f 221/1123/221 205/1124/205 206/1125/206 
f 221/1126/221 220/1127/220 205/1128/205 
f 222/1129/222 206/1130/206 207/1131/207 
f 222/1132/222 221/1133/221 206/1134/206 
f 223/1135/223 207/1136/207 208/1137/208 
f 223/1138/223 222/1139/222 207/1140/207 
f 224/1141/224 208/1142/208 209/1143/209 
f 224/1144/224 223/1145/223 208/1146/208 
f 225/1147/225 209/1148/209 210/1149/210 
f 225/1150/225 224/1151/224 209/1152/209 
f 212/1153/212 210/1154/210 197/1155/197 
f 212/1156/212 225/1157/225 210/1158/210 
f 226/1159/226 212/1160/212 211/1161/211 
f 226/1162/226 227/1163/227 212/1164/212 
f 228/1165/228 211/1166/211 213/1167/213 
f 228/1168/228 226/1169/226 211/1170/211 
f 229/1171/229 213/1172/213 214/1173/214 
f 229/1174/229 228/1175/228 213/1176/213 
f 230/1177/230 214/1178/214 215/1179/215 
f 230/1180/230 229/1181/229 214/1182/214 
f 231/1183/231 215/1184/215 216/1185/216 
f 231/1186/231 230/1187/230 215/1188/215 
f 232/1189/232 216/1190/216 217/1191/217 
f 232/1192/232 231/1193/231 216/1194/216 
f 233/1195/233 217/1196/217 218/1197/218 
f 233/1198/233 232/1199/232 217/1200/217 
f 234/1201/234 218/1202/218 219/1203/219 
f 234/1204/234 233/1205/233 218/1206/218 
f 235/1207/235 219/1208/219 220/1209/220 
f 235/1210/235 234/1211/234 219/1212/219 
f 236/1213/236 220/1214/220 221/1215/221 
f 236/1216/236 235/1217/235 220/1218/220 
f 237/1219/237 221/1220/221 222/1221/222 
f 237/1222/237 236/1223/236 221/1224/221 
f 238/1225/238 222/1226/222 223/1227/223 
f 238/1228/238 237/1229/237 222/1230/222 
f 239/1231/239 223/1232/223 224/1233/224 
f 239/1234/239 238/1235/238 223/1236/223 
f 240/1237/240 224/1238/224 225/1239/225 
f 240/1240/240 239/1241/239 224/1242/224 
f 227/1243/227 225/1244/225 212/1245/212 
f 227/1246/227 240/1247/240 225/1248/225 
f 241/1249/241 30/1250/30 28/1251/28 
f 241/1252/241 242/1253/242 30/1254/30 
f 243/1255/243 28/1256/28 26/1257/26 
f 243/1258/243 241/1259/241 28/1260/28 
f 244/1261/244 26/1262/26 24/1263/24 
f 244/1264/244 243/1265/243 26/1266/26 
f 245/1267/245 24/1268/24 22/1269/22 
f 245/1270/245 244/1271/244 24/1272/24 
f 246/1273/246 22/1274/22 20/1275/20 
f 246/1276/246 245/1277/245 22/1278/22 
f 247/1279/247 20/1280/20 18/1281/18 
f 247/1282/247 246/1283/246 20/1284/20 
f 248/1285/248 18/1286/18 16/1287/16 
f 248/1288/248 247/1289/247 18/1290/18 
f 249/1291/249 16/1292/16 14/1293/14 
f 249/1294/249 248/1295/248 16/1296/16 
f 250/1297/250 14/1298/14 12/1299/12 
f 250/1300/250 249/1301/249 14/1302/14 
f 251/1303/251 12/1304/12 10/1305/10 
f 251/1306/251 250/1307/250 12/1308/12 
f 252/1309/252 10/1310/10 8/1311/8 
f 252/1312/252 251/1313/251 10/1314/10 
f 253/1315/253 8/1316/8 6/1317/6 
f 253/1318/253 252/1319/252 8/1320/8 
f 254/1321/254 6/1322/6 3/1323/3 
f 254/1324/254 253/1325/253 6/1326/6 
f 255/1327/255 3/1328/3 2/1329/2 
f 255/1330/255 254/1331/254 3/1332/3 
f 242/1333/242 2/1334/2 30/1335/30 
f 242/1336/242 255/1337/255 2/1338/2 
f 256/1339/256 242/1340/242 241/1341/241 
f 256/1342/256 257/1343/257 242/1344/242 
f 258/1345/258 241/1346/241 243/1347/243 
f 258/1348/258 256/1349/256 241/1350/241 
f 259/1351/259 243/1352/243 244/1353/244 
f 259/1354/259 258/1355/258 243/1356/243 
f 260/1357/260 244/1358/244 245/1359/245 
f 260/1360/260 259/1361/259 244/1362/244 
f 261/1363/261 245/1364/245 246/1365/246 
f 261/1366/261 260/1367/260 245/1368/245 
f 262/1369/262 246/1370/246 247/1371/247 
f 262/1372/262 261/1373/261 246/1374/246 
f 263/1375/263 247/1376/247 248/1377/248 
f 263/1378/263 262/1379/262 247/1380/247 
f 264/1381/264 248/1382/248 249/1383/249 
f 264/1384/264 263/1385/263 248/1386/248 
f 265/1387/265 249/1388/249 250/1389/250 
f 265/1390/265 264/1391/264 249/1392/249 
f 266/1393/266 250/1394/250 251/1395/251 
f 266/1396/266 265/1397/265 250/1398/250 
f 267/1399/267 251/1400/251 252/1401/252 
f 267/1402/267 266/1403/266 251/1404/251 
f 268/1405/268 252/1406/252 253/1407/253 
f 268/1408/268 267/1409/267 252/1410/252 
f 269/1411/269 253/1412/253 254/1413/254 
f 269/1414/269 268/1415/268 253/1416/253 
f 270/1417/270 254/1418/254 255/1419/255 
f 270/1420/270 269/1421/269 254/1422/254 
f 257/1423/257 255/1424/255 242/1425/242 
f 257/1426/257 270/1427/270 255/1428/255 
f 271/1429/271 257/1430/257 256/1431/256 
f 271/1432/271 272/1433/272 257/1434/257 
f 273/1435/273 256/1436/256 258/1437/258 
f 273/1438/273 271/1439/271 256/1440/256 
f 274/1441/274 258/1442/258 259/1443/259 
f 274/1444/274 273/1445/273 258/1446/258 
f 275/1447/275 259/1448/259 260/1449/260 
f 275/1450/275 274/1451/274 259/1452/259 
f 276/1453/276 260/1454/260 261/1455/261 
f 276/1456/276 275/1457/275 260/1458/260 
f 277/1459/277 261/1460/261 262/1461/262 
f 277/1462/277 276/1463/276 261/1464/261 
f 278/1465/278 262/1466/262 263/1467/263 
f 278/1468/278 277/1469/277 262/1470/262 
f 279/1471/279 263/1472/263 264/1473/264 
f 279/1474/279 278/1475/278 263/1476/263 
f 280/1477/280 264/1478/264 265/1479/265 
f 280/1480/280 279/1481/279 264/1482/264 
f 281/1483/281 265/1484/265 266/1485/266 
f 281/1486/281 280/1487/280 265/1488/265 
f 282/1489/282 266/1490/266 267/1491/267 
f 282/1492/282 281/1493/281 266/1494/266 
f 283/1495/283 267/1496/267 268/1497/268 
f 283/1498/283 282/1499/282 267/1500/267 
f 284/1501/284 268/1502/268 269/1503/269 
f 284/1504/284 283/1505/283 268/1506/268 
f 285/1507/285 269/1508/269 270/1509/270 
f 285/1510/285 284/1511/284 269/1512/269 
f 272/1513/272 270/1514/270 257/1515/257 
f 272/1516/272 285/1517/285 270/1518/270 
f 286/1519/286 272/1520/272 271/1521/271 
f 286/1522/286 287/1523/287 272/1524/272 
f 288/1525/288 271/1526/271 273/1527/273 
f 288/1528/288 286/1529/286 271/1530/271 
f 289/1531/289 273/1532/273 274/1533/274 
f 289/1534/289 288/1535/288 273/1536/273 
f 290/1537/290 274/1538/274 275/1539/275 
f 290/1540/290 289/1541/289 274/1542/274 
f 291/1543/291 275/1544/275 276/1545/276 
f 291/1546/291 290/1547/290 275/1548/275 
f 292/1549/292 276/1550/276 277/1551/277 
f 292/1552/292 291/1553/291 276/1554/276 
f 293/1555/293 277/1556/277 278/1557/278 
f 293/1558/293 292/1559/292 277/1560/277 
f 294/1561/294 278/1562/278 279/1563/279 
f 294/1564/294 293/1565/293 278/1566/278 
f 295/1567/295 279/1568/279 280/1569/280 
f 295/1570/295 294/1571/294 279/1572/279 
f 296/1573/296 280/1574/280 281/1575/281 
f 296/1576/296 295/1577/295 280/1578/280 
f 297/1579/297 281/1580/281 282/1581/282 
f 297/1582/297 296/1583/296 281/1584/281 
f 298/1585/298 282/1586/282 283/1587/283 
f 298/1588/298 297/1589/297 282/1590/282 
f 299/1591/299 283/1592/283 284/1593/284 
f 299/1594/299 298/1595/298 283/1596/283 
f 300/1597/300 284/1598/284 285/1599/285 
f 300/1600/300 299/1601/299 284/1602/284 
f 287/1603/287 285/1604/285 272/1605/272 
f 287/1606/287 300/1607/300 285/1608/285 
f 301/1609/301 287/1610/287 286/1611/286 
f 301/1612/301 302/1613/302 287/1614/287 
f 303/1615/303 286/1616/286 288/1617/288 
f 303/1618/303 301/1619/301 286/1620/286 
f 304/1621/304 288/1622/288 289/1623/289 
f 304/1624/304 303/1625/303 288/1626/288 
f 305/1627/305 289/1628/289 290/1629/290 
f 305/1630/305 304/1631/304 289/1632/289 
f 306/1633/306 290/1634/290 291/1635/291 
f 306/1636/306 305/1637/305 290/1638/290 
f 307/1639/307 291/1640/291 292/1641/292 
f 307/1642/307 306/1643/306 291/1644/291 
f 308/1645/308 292/1646/292 293/1647/293 
f 308/1648/308 307/1649/307 292/1650/292 
f 309/1651/309 293/1652/293 294/1653/294 
f 309/1654/309 308/1655/308 293/1656/293 
f 310/1657/310 294/1658/294 295/1659/295 
f 310/1660/310 309/1661/309 294/1662/294 
f 311/1663/311 295/1664/295 296/1665/296 
f 311/1666/311 310/1667/310 295/1668/295 
f 312/1669/312 296/1670/296 297/1671/297 
f 312/1672/312 311/1673/311 296/1674/296 
f 313/1675/313 297/1676/297 298/1677/298 
f 313/1678/313 312/1679/312 297/1680/297 
f 314/1681/314 298/1682/298 299/1683/299 
f 314/1684/314 313/1685/313 298/1686/298 
f 315/1687/315 299/1688/299 300/1689/300 
f 315/1690/315 314/1691/314 299/1692/299 
f 302/1693/302 300/1694/300 287/1695/287 
f 302/1696/302 315/1697/315 300/1698/300 
f 316/1699/316 302/1700/302 301/1701/301 
f 316/1702/316 317/1703/317 302/1704/302 
f 318/1705/318 301/1706/301 303/1707/303 
f 318/1708/318 316/1709/316 301/1710/301 
f 319/1711/319 303/1712/303 304/1713/304 
f 319/1714/319 318/1715/318 303/1716/303 
f 320/1717/320 304/1718/304 305/1719/305 
f 320/1720/320 319/1721/319 304/1722/304 
f 321/1723/321 305/1724/305 306/1725/306 
f 321/1726/321 320/1727/320 305/1728/305 
f 322/1729/322 306/1730/306 307/1731/307 
f 322/1732/322 321/1733/321 306/1734/306 
f 323/1735/323 307/1736/307 308/1737/308 
f 323/1738/323 322/1739/322 307/1740/307 
f 324/1741/324 308/1742/308 309/1743/309 
f 324/1744/324 323/1745/323 308/1746/308 
f 325/1747/325 309/1748/309 310/1749/310 
f 325/1750/325 324/1751/324 309/1752/309 
f 326/1753/326 310/1754/310 311/1755/311 
f 326/1756/326 325/1757/325 310/1758/310 
f 327/1759/327 311/1760/311 312/1761/312 
f 327/1762/327 326/1763/326 311/1764/311 
f 328/1765/328 312/1766/312 313/1767/313 
f 328/1768/328 327/1769/327 312/1770/312 
f 329/1771/329 313/1772/313 314/1773/314 
f 329/1774/329 328/1775/328 313/1776/313 
f 330/1777/330 314/1778/314 315/1779/315 
f 330/1780/330 329/1781/329 314/1782/314 
f 317/1783/317 315/1784/315 302/1785/302 
f 317/1786/317 330/1787/330 315/1788/315 
f 331/1789/331 317/1790/317 316/1791/316 
f 331/1792/331 332/1793/332 317/1794/317 
f 333/1795/333 316/1796/316 318/1797/318 
f 333/1798/333 331/1799/331 316/1800/316 
f 334/1801/334 318/1802/318 319/1803/319 
f 334/1804/334 333/1805/333 318/1806/318 
f 335/1807/335 319/1808/319 320/1809/320 
f 335/1810/335 334/1811/334 319/1812/319 
f 336/1813/336 320/1814/320 321/1815/321 
f 336/1816/336 335/1817/335 320/1818/320 
f 337/1819/337 321/1820/321 322/1821/322 
f 337/1822/337 336/1823/336 321/1824/321 
f 338/1825/338 322/1826/322 323/1827/323 
f 338/1828/338 337/1829/337 322/1830/322 
f 339/1831/339 323/1832/323 324/1833/324 
f 339/1834/339 338/1835/338 323/1836/323 
f 340/1837/340 324/1838/324 325/1839/325 
f 340/1840/340 339/1841/339 324/1842/324 
f 341/1843/341 325/1844/325 326/1845/326 
f 341/1846/341 340/1847/340 325/1848/325 
f 342/1849/342 326/1850/326 327/1851/327 
f 342/1852/342 341/1853/341 326/1854/326 
f 343/1855/343 327/1856/327 328/1857/328 
f 343/1858/343 342/1859/342 327/1860/327 
f 344/1861/344 328/1862/328 329/1863/329 
f 344/1864/344 343/1865/343 328/1866/328 
f 345/1867/345 329/1868/329 330/1869/330 
f 345/1870/345 344/1871/344 329/1872/329 
f 332/1873/332 330/1874/330 317/1875/317 
f 332/1876/332 345/1877/345 330/1878/330 
# num_faces: 626

