xof 0303txt 0032

// DirectX 9.0 file
// Creator: Ultimate Unwrap3D Pro v3.19
// Website: http://www.unwrap3d.com
// Time: Thu Dec 10 21:49:47 2009

// Start of Templates

template VertexDuplicationIndices {
 <b8d65549-d7c9-4995-89cf-53a9a8b031e3>
 DWORD nIndices;
 DWORD nOriginalVertices;
 array DWORD indices[nIndices];
}

template FVFData {
 <b6e70a0e-8ef9-4e83-94ad-ecc8b0c04897>
 DWORD dwFVF;
 DWORD nDWords;
 array DWORD data[nDWords];
}

template Header {
 <3D82AB43-62DA-11cf-AB39-0020AF71E433>
 WORD major;
 WORD minor;
 DWORD flags;
}

template Vector {
 <3D82AB5E-62DA-11cf-AB39-0020AF71E433>
 FLOAT x;
 FLOAT y;
 FLOAT z;
}

template Coords2d {
 <F6F23F44-7686-11cf-8F52-0040333594A3>
 FLOAT u;
 FLOAT v;
}

template Matrix4x4 {
 <F6F23F45-7686-11cf-8F52-0040333594A3>
 array FLOAT matrix[16];
}

template ColorRGBA {
 <35FF44E0-6C7C-11cf-8F52-0040333594A3>
 FLOAT red;
 FLOAT green;
 FLOAT blue;
 FLOAT alpha;
}

template ColorRGB {
 <D3E16E81-7835-11cf-8F52-0040333594A3>
 FLOAT red;
 FLOAT green;
 FLOAT blue;
}

template IndexedColor {
 <1630B820-7842-11cf-8F52-0040333594A3>
 DWORD index;
 ColorRGBA indexColor;
}

template Material {
 <3D82AB4D-62DA-11cf-AB39-0020AF71E433>
 ColorRGBA faceColor;
 FLOAT power;
 ColorRGB specularColor;
 ColorRGB emissiveColor;
 [...]
}

template TextureFilename {
 <A42790E1-7810-11cf-8F52-0040333594A3>
 STRING filename;
}

template MeshFace {
 <3D82AB5F-62DA-11cf-AB39-0020AF71E433>
 DWORD nFaceVertexIndices;
 array DWORD faceVertexIndices[nFaceVertexIndices];
}

template MeshTextureCoords {
 <F6F23F40-7686-11cf-8F52-0040333594A3>
 DWORD nTextureCoords;
 array Coords2d textureCoords[nTextureCoords];
}

template MeshMaterialList {
 <F6F23F42-7686-11cf-8F52-0040333594A3>
 DWORD nMaterials;
 DWORD nFaceIndexes;
 array DWORD faceIndexes[nFaceIndexes];
 [Material]
}

template MeshNormals {
 <F6F23F43-7686-11cf-8F52-0040333594A3>
 DWORD nNormals;
 array Vector normals[nNormals];
 DWORD nFaceNormals;
 array MeshFace faceNormals[nFaceNormals];
}

template MeshVertexColors {
 <1630B821-7842-11cf-8F52-0040333594A3>
 DWORD nVertexColors;
 array IndexedColor vertexColors[nVertexColors];
}

template Mesh {
 <3D82AB44-62DA-11cf-AB39-0020AF71E433>
 DWORD nVertices;
 array Vector vertices[nVertices];
 DWORD nFaces;
 array MeshFace faces[nFaces];
 [...]
}

template FrameTransformMatrix {
 <F6F23F41-7686-11cf-8F52-0040333594A3>
 Matrix4x4 frameMatrix;
}

template Frame {
 <3D82AB46-62DA-11cf-AB39-0020AF71E433>
 [...]
}

template FloatKeys {
 <10DD46A9-775B-11cf-8F52-0040333594A3>
 DWORD nValues;
 array FLOAT values[nValues];
}

template TimedFloatKeys {
 <F406B180-7B3B-11cf-8F52-0040333594A3>
 DWORD time;
 FloatKeys tfkeys;
}

template AnimationKey {
 <10DD46A8-775B-11cf-8F52-0040333594A3>
 DWORD keyType;
 DWORD nKeys;
 array TimedFloatKeys keys[nKeys];
}

template AnimationOptions {
 <E2BF56C0-840F-11cf-8F52-0040333594A3>
 DWORD openclosed;
 DWORD positionquality;
}

template Animation {
 <3D82AB4F-62DA-11cf-AB39-0020AF71E433>
 [...]
}

template AnimationSet {
 <3D82AB50-62DA-11cf-AB39-0020AF71E433>
 [Animation]
}

template XSkinMeshHeader {
 <3CF169CE-FF7C-44ab-93C0-F78F62D172E2>
 WORD nMaxSkinWeightsPerVertex;
 WORD nMaxSkinWeightsPerFace;
 WORD nBones;
}

template SkinWeights {
 <6F0D123B-BAD2-4167-A0D0-80224F25FABB>
 STRING transformNodeName;
 DWORD nWeights;
 array DWORD vertexIndices[nWeights];
 array FLOAT weights[nWeights];
 Matrix4x4 matrixOffset;
}

template AnimTicksPerSecond {
 <9E415A43-7BA6-4a73-8743-B73D47E88476>
 DWORD AnimTicksPerSecond;
}

AnimTicksPerSecond {
 30;
}

// Start of Frames

   Frame Body {
      FrameTransformMatrix {
       1.000000, 0.000000, 0.000000, 0.000000,
       0.000000, 1.000000, 0.000000, 0.000000,
       0.000000, 0.000000, 1.000000, 0.000000,
       0.000000, 0.000000, 0.000000, 1.000000;;
      }

   }
   Frame def_surf_mat {
      FrameTransformMatrix {
       1.000000, 0.000000, 0.000000, 0.000000,
       0.000000, 1.000000, 0.000000, 0.000000,
       0.000000, 0.000000, 1.000000, 0.000000,
       0.000000, 0.000000, 0.000000, 1.000000;;
      }

   }

   Frame Body0 {
      FrameTransformMatrix {
       1.000000, 0.000000, 0.000000, 0.000000,
       0.000000, 1.000000, 0.000000, 0.000000,
       0.000000, 0.000000, 1.000000, 0.000000,
       0.000000, 0.000000, 0.000000, 1.000000;;
      }

      Mesh skinnedMesh {
       130;
       0.689450; 2.087700; -1.618797;,
       0.746250; 2.117199; -1.605095;,
       0.000050; 2.179699; -1.739693;,
       0.527750; 2.062702; -1.630394;,
       0.285650; 2.045902; -1.638199;,
       0.000050; 2.040100; -1.640900;,
       -0.285550; 2.045902; -1.638199;,
       -0.527650; 2.062702; -1.630394;,
       -0.689350; 2.087700; -1.618797;,
       -0.746150; 2.117199; -1.605095;,
       -0.689350; 1.966999; -1.674797;,
       -0.746150; 2.117199; -1.605095;,
       0.000050; 2.179699; -1.739693;,
       -0.527650; 1.827999; -1.739296;,
       -0.285550; 1.735100; -1.782494;,
       0.000050; 1.702499; -1.797600;,
       0.285650; 1.735100; -1.782494;,
       0.527750; 1.827999; -1.739296;,
       0.689450; 1.966999; -1.674797;,
       0.746250; 2.117199; -1.605095;,
       1.273950; 1.884701; -1.246994;,
       1.378850; 1.939201; -1.221695;,
       0.975050; 1.783302; -1.294098;,
       0.527650; 1.752399; -1.308395;,
       0.000050; 1.741501; -1.313499;,
       -0.527650; 1.752399; -1.308395;,
       -0.974950; 1.783302; -1.294098;,
       -1.273850; 1.884701; -1.246994;,
       -1.378750; 1.939201; -1.221695;,
       -1.273850; 1.650002; -1.355896;,
       -1.378750; 1.939201; -1.221695;,
       -0.974950; 1.393101; -1.475197;,
       -0.527650; 1.221500; -1.554893;,
       0.000050; 1.161201; -1.582893;,
       0.527750; 1.221500; -1.554893;,
       0.975050; 1.393101; -1.475197;,
       1.273950; 1.650002; -1.355896;,
       1.378850; 1.939201; -1.221695;,
       1.664450; 1.601601; -0.681000;,
       1.801550; 1.672901; -0.647896;,
       1.273950; 1.486000; -0.734596;,
       0.689450; 1.445599; -0.753395;,
       0.000050; 1.431400; -0.759895;,
       -0.689350; 1.445599; -0.753395;,
       -1.273850; 1.486000; -0.734596;,
       -1.664351; 1.601601; -0.681000;,
       -1.801451; 1.672901; -0.647896;,
       -1.664351; 1.290699; -0.825294;,
       -1.801451; 1.672901; -0.647896;,
       -1.273850; 0.955101; -0.981094;,
       -0.689350; 0.730801; -1.085197;,
       0.000050; 0.652100; -1.121696;,
       0.689450; 0.730801; -1.085197;,
       1.273950; 0.955101; -0.981094;,
       1.664450; 1.290699; -0.825294;,
       1.801550; 1.672901; -0.647896;,
       1.801550; 1.281502; -0.006897;,
       1.949950; 1.358700; 0.029007;,
       1.378850; 1.160900; -0.062798;,
       0.746250; 1.117199; -0.083099;,
       0.000050; 1.101902; -0.090195;,
       -0.746150; 1.117199; -0.083099;,
       -1.378750; 1.160900; -0.062798;,
       -1.801451; 1.281502; -0.006897;,
       -1.949949; 1.358700; 0.029007;,
       -1.801451; 0.943901; -0.163597;,
       -1.949949; 1.358700; 0.029007;,
       -1.378750; 0.580601; -0.332199;,
       -0.746150; 0.337902; -0.444893;,
       0.000050; 0.252701; -0.484497;,
       0.746250; 0.337902; -0.444893;,
       1.378850; 0.580601; -0.332199;,
       1.801550; 0.943901; -0.163597;,
       1.949950; 1.358700; 0.029007;,
       1.664450; 0.973202; 0.672707;,
       1.801550; 1.044502; 0.705803;,
       1.273950; 0.857601; 0.619102;,
       0.689450; 0.817200; 0.600304;,
       0.000050; 0.803001; 0.593704;,
       -0.689350; 0.817200; 0.600304;,
       -1.273850; 0.857601; 0.619102;,
       -1.664351; 0.973202; 0.672707;,
       -1.801451; 1.044502; 0.705803;,
       -1.664351; 0.662300; 0.528404;,
       -1.801451; 1.044502; 0.705803;,
       -1.273850; 0.326702; 0.372604;,
       -0.689350; 0.102402; 0.268501;,
       0.000050; 0.023701; 0.231903;,
       0.689450; 0.102402; 0.268501;,
       1.273950; 0.326702; 0.372604;,
       1.664450; 0.662300; 0.528404;,
       1.801550; 1.044502; 0.705803;,
       1.273950; 0.723499; 1.254303;,
       1.378850; 0.778099; 1.279602;,
       0.975050; 0.622101; 1.207207;,
       0.527650; 0.591202; 1.192902;,
       0.000050; 0.580399; 1.187805;,
       -0.527650; 0.591202; 1.192902;,
       -0.974950; 0.622101; 1.207207;,
       -1.273850; 0.723499; 1.254303;,
       -1.378750; 0.778099; 1.279602;,
       -1.273850; 0.488800; 1.145302;,
       -1.378750; 0.778099; 1.279602;,
       -0.974950; 0.232002; 1.026100;,
       -0.527650; 0.060299; 0.946404;,
       0.000050; 0.000000; 0.918404;,
       0.527750; 0.060299; 0.946404;,
       0.975050; 0.232002; 1.026100;,
       1.273950; 0.488800; 1.145302;,
       1.378850; 0.778099; 1.279602;,
       0.689450; 0.570599; 1.649307;,
       0.746250; 0.600101; 1.663002;,
       0.527650; 0.545502; 1.637703;,
       0.285650; 0.528801; 1.629906;,
       0.000050; 0.522900; 1.627205;,
       -0.285550; 0.528801; 1.629906;,
       -0.527650; 0.545502; 1.637703;,
       -0.689350; 0.570599; 1.649307;,
       -0.746150; 0.600101; 1.663002;,
       -0.689350; 0.449902; 1.593307;,
       -0.746150; 0.600101; 1.663002;,
       -0.527650; 0.310799; 1.528702;,
       -0.285550; 0.218002; 1.485603;,
       0.000050; 0.185299; 1.470505;,
       0.285650; 0.218002; 1.485603;,
       0.527750; 0.310799; 1.528702;,
       0.689450; 0.449902; 1.593307;,
       0.746250; 0.600101; 1.663002;,
       0.000050; 0.537601; 1.797607;,
       0.000050; 0.537601; 1.797607;;
       224;
       3;0, 1, 2;,
       3;3, 0, 2;,
       3;4, 3, 2;,
       3;5, 4, 2;,
       3;6, 5, 2;,
       3;7, 6, 2;,
       3;8, 7, 2;,
       3;9, 8, 2;,
       3;10, 11, 12;,
       3;13, 10, 12;,
       3;14, 13, 12;,
       3;15, 14, 12;,
       3;16, 15, 12;,
       3;17, 16, 12;,
       3;18, 17, 12;,
       3;19, 18, 12;,
       3;20, 1, 0;,
       3;20, 21, 1;,
       3;22, 0, 3;,
       3;22, 20, 0;,
       3;23, 3, 4;,
       3;23, 22, 3;,
       3;24, 4, 5;,
       3;24, 23, 4;,
       3;25, 5, 6;,
       3;25, 24, 5;,
       3;26, 6, 7;,
       3;26, 25, 6;,
       3;27, 7, 8;,
       3;27, 26, 7;,
       3;28, 8, 9;,
       3;28, 27, 8;,
       3;29, 11, 10;,
       3;29, 30, 11;,
       3;31, 10, 13;,
       3;31, 29, 10;,
       3;32, 13, 14;,
       3;32, 31, 13;,
       3;33, 14, 15;,
       3;33, 32, 14;,
       3;34, 15, 16;,
       3;34, 33, 15;,
       3;35, 16, 17;,
       3;35, 34, 16;,
       3;36, 17, 18;,
       3;36, 35, 17;,
       3;37, 18, 19;,
       3;37, 36, 18;,
       3;38, 21, 20;,
       3;38, 39, 21;,
       3;40, 20, 22;,
       3;40, 38, 20;,
       3;41, 22, 23;,
       3;41, 40, 22;,
       3;42, 23, 24;,
       3;42, 41, 23;,
       3;43, 24, 25;,
       3;43, 42, 24;,
       3;44, 25, 26;,
       3;44, 43, 25;,
       3;45, 26, 27;,
       3;45, 44, 26;,
       3;46, 27, 28;,
       3;46, 45, 27;,
       3;47, 30, 29;,
       3;47, 48, 30;,
       3;49, 29, 31;,
       3;49, 47, 29;,
       3;50, 31, 32;,
       3;50, 49, 31;,
       3;51, 32, 33;,
       3;51, 50, 32;,
       3;52, 33, 34;,
       3;52, 51, 33;,
       3;53, 34, 35;,
       3;53, 52, 34;,
       3;54, 35, 36;,
       3;54, 53, 35;,
       3;55, 36, 37;,
       3;55, 54, 36;,
       3;56, 39, 38;,
       3;56, 57, 39;,
       3;58, 38, 40;,
       3;58, 56, 38;,
       3;59, 40, 41;,
       3;59, 58, 40;,
       3;60, 41, 42;,
       3;60, 59, 41;,
       3;61, 42, 43;,
       3;61, 60, 42;,
       3;62, 43, 44;,
       3;62, 61, 43;,
       3;63, 44, 45;,
       3;63, 62, 44;,
       3;64, 45, 46;,
       3;64, 63, 45;,
       3;65, 48, 47;,
       3;65, 66, 48;,
       3;67, 47, 49;,
       3;67, 65, 47;,
       3;68, 49, 50;,
       3;68, 67, 49;,
       3;69, 50, 51;,
       3;69, 68, 50;,
       3;70, 51, 52;,
       3;70, 69, 51;,
       3;71, 52, 53;,
       3;71, 70, 52;,
       3;72, 53, 54;,
       3;72, 71, 53;,
       3;73, 54, 55;,
       3;73, 72, 54;,
       3;74, 57, 56;,
       3;74, 75, 57;,
       3;76, 56, 58;,
       3;76, 74, 56;,
       3;77, 58, 59;,
       3;77, 76, 58;,
       3;78, 59, 60;,
       3;78, 77, 59;,
       3;79, 60, 61;,
       3;79, 78, 60;,
       3;80, 61, 62;,
       3;80, 79, 61;,
       3;81, 62, 63;,
       3;81, 80, 62;,
       3;82, 63, 64;,
       3;82, 81, 63;,
       3;83, 66, 65;,
       3;83, 84, 66;,
       3;85, 65, 67;,
       3;85, 83, 65;,
       3;86, 67, 68;,
       3;86, 85, 67;,
       3;87, 68, 69;,
       3;87, 86, 68;,
       3;88, 69, 70;,
       3;88, 87, 69;,
       3;89, 70, 71;,
       3;89, 88, 70;,
       3;90, 71, 72;,
       3;90, 89, 71;,
       3;91, 72, 73;,
       3;91, 90, 72;,
       3;92, 75, 74;,
       3;92, 93, 75;,
       3;94, 74, 76;,
       3;94, 92, 74;,
       3;95, 76, 77;,
       3;95, 94, 76;,
       3;96, 77, 78;,
       3;96, 95, 77;,
       3;97, 78, 79;,
       3;97, 96, 78;,
       3;98, 79, 80;,
       3;98, 97, 79;,
       3;99, 80, 81;,
       3;99, 98, 80;,
       3;100, 81, 82;,
       3;100, 99, 81;,
       3;101, 84, 83;,
       3;101, 102, 84;,
       3;103, 83, 85;,
       3;103, 101, 83;,
       3;104, 85, 86;,
       3;104, 103, 85;,
       3;105, 86, 87;,
       3;105, 104, 86;,
       3;106, 87, 88;,
       3;106, 105, 87;,
       3;107, 88, 89;,
       3;107, 106, 88;,
       3;108, 89, 90;,
       3;108, 107, 89;,
       3;109, 90, 91;,
       3;109, 108, 90;,
       3;110, 93, 92;,
       3;110, 111, 93;,
       3;112, 92, 94;,
       3;112, 110, 92;,
       3;113, 94, 95;,
       3;113, 112, 94;,
       3;114, 95, 96;,
       3;114, 113, 95;,
       3;115, 96, 97;,
       3;115, 114, 96;,
       3;116, 97, 98;,
       3;116, 115, 97;,
       3;117, 98, 99;,
       3;117, 116, 98;,
       3;118, 99, 100;,
       3;118, 117, 99;,
       3;119, 102, 101;,
       3;119, 120, 102;,
       3;121, 101, 103;,
       3;121, 119, 101;,
       3;122, 103, 104;,
       3;122, 121, 103;,
       3;123, 104, 105;,
       3;123, 122, 104;,
       3;124, 105, 106;,
       3;124, 123, 105;,
       3;125, 106, 107;,
       3;125, 124, 106;,
       3;126, 107, 108;,
       3;126, 125, 107;,
       3;127, 108, 109;,
       3;127, 126, 108;,
       3;110, 128, 111;,
       3;112, 128, 110;,
       3;113, 128, 112;,
       3;114, 128, 113;,
       3;115, 128, 114;,
       3;116, 128, 115;,
       3;117, 128, 116;,
       3;118, 128, 117;,
       3;119, 129, 120;,
       3;121, 129, 119;,
       3;122, 129, 121;,
       3;123, 129, 122;,
       3;124, 129, 123;,
       3;125, 129, 124;,
       3;126, 129, 125;,
       3;127, 129, 126;;

      MeshNormals {
       130;
       -0.243293; 0.378697; 0.892971;,
       -0.338725; 0.228215; 0.912789;,
       -0.000000; 0.347709; 0.937603;,
       -0.097548; 0.596812; 0.796429;,
       -0.039908; 0.662557; 0.747947;,
       0.004380; 0.678219; 0.734847;,
       0.049952; 0.658096; 0.751276;,
       0.145647; 0.572964; 0.806535;,
       0.265768; 0.365402; 0.892103;,
       0.303134; 0.146296; 0.941651;,
       -0.366339; 0.121274; -0.922544;,
       -0.436024; 0.240418; -0.867227;,
       0.000000; 0.224833; -0.974397;,
       -0.259830; -0.049308; -0.964395;,
       -0.124785; -0.150547; -0.980696;,
       0.018824; -0.177919; -0.983865;,
       0.161781; -0.132280; -0.977921;,
       0.293166; -0.010729; -0.956001;,
       0.388148; 0.177223; -0.904396;,
       0.378012; 0.268249; -0.886087;,
       -0.377811; 0.580130; 0.721601;,
       -0.452605; 0.542222; 0.707915;,
       -0.174528; 0.744385; 0.644540;,
       -0.048127; 0.803321; 0.593598;,
       0.000198; 0.810963; 0.585098;,
       0.048493; 0.804654; 0.591760;,
       0.197355; 0.728580; 0.655913;,
       0.363585; 0.606410; 0.707158;,
       0.427916; 0.463461; 0.775945;,
       -0.612821; -0.087620; -0.785349;,
       -0.729090; 0.053289; -0.682340;,
       -0.422683; -0.345783; -0.837719;,
       -0.208131; -0.485743; -0.848961;,
       0.004124; -0.528301; -0.849047;,
       0.217534; -0.485206; -0.846908;,
       0.435298; -0.340977; -0.833217;,
       0.625901; -0.070255; -0.776731;,
       0.641890; 0.116047; -0.757964;,
       -0.396368; 0.741016; 0.542022;,
       -0.490114; 0.702839; 0.515564;,
       -0.199359; 0.839168; 0.506017;,
       -0.049221; 0.881648; 0.469334;,
       -0.000026; 0.885164; 0.465279;,
       0.049300; 0.882367; 0.467972;,
       0.191687; 0.849725; 0.491145;,
       0.406212; 0.743078; 0.531815;,
       0.482218; 0.660193; 0.575857;,
       -0.784767; -0.307812; -0.537953;,
       -0.904844; -0.137281; -0.403003;,
       -0.516996; -0.594020; -0.616324;,
       -0.247621; -0.728310; -0.638944;,
       0.001476; -0.766519; -0.642220;,
       0.251311; -0.729833; -0.635756;,
       0.523037; -0.595634; -0.609632;,
       0.792931; -0.303257; -0.528483;,
       0.859813; -0.075116; -0.505054;,
       -0.402601; 0.827485; 0.391384;,
       -0.497284; 0.800245; 0.335137;,
       -0.190883; 0.887651; 0.419093;,
       -0.049318; 0.905640; 0.421169;,
       0.000011; 0.907028; 0.421071;,
       0.049307; 0.906221; 0.419920;,
       0.190887; 0.893027; 0.407511;,
       0.402507; 0.833071; 0.379449;,
       0.497125; 0.772567; 0.394978;,
       -0.845186; -0.482806; -0.229257;,
       -0.949162; -0.306291; -0.072645;,
       -0.547182; -0.757479; -0.356115;,
       -0.259603; -0.875107; -0.408405;,
       0.000009; -0.907025; -0.421076;,
       0.259596; -0.876763; -0.404842;,
       0.547180; -0.760910; -0.348726;,
       0.845224; -0.486666; -0.220800;,
       0.949201; -0.253078; -0.187000;,
       -0.406248; 0.885784; 0.224385;,
       -0.482408; 0.865870; 0.132482;,
       -0.191703; 0.923567; 0.332075;,
       -0.049289; 0.926943; 0.371951;,
       -0.000005; 0.926701; 0.375799;,
       0.049246; 0.927503; 0.370557;,
       0.199364; 0.928113; 0.314421;,
       0.396487; 0.892238; 0.216124;,
       0.489997; 0.847491; 0.204111;,
       -0.792897; -0.599452; 0.109415;,
       -0.859826; -0.434192; 0.268657;,
       -0.523060; -0.850076; -0.061479;,
       -0.251329; -0.956650; -0.147153;,
       -0.001475; -0.985266; -0.171020;,
       0.247662; -0.958095; -0.143932;,
       0.516965; -0.854175; -0.055965;,
       0.784798; -0.609533; 0.112079;,
       0.904878; -0.396350; 0.155247;,
       -0.363819; 0.931447; 0.006456;,
       -0.428231; 0.891589; -0.147266;,
       -0.197290; 0.971241; 0.133296;,
       -0.048485; 0.971338; 0.232705;,
       -0.000158; 0.970306; 0.241881;,
       0.048015; 0.971887; 0.230500;,
       0.174625; 0.972746; 0.152548;,
       0.377980; 0.925533; -0.022813;,
       0.452962; 0.890485; -0.043150;,
       -0.625930; -0.638609; 0.447650;,
       -0.641930; -0.503894; 0.577942;,
       -0.435225; -0.856593; 0.277180;,
       -0.217642; -0.960023; 0.176034;,
       -0.004054; -0.989509; 0.144412;,
       0.208087; -0.961985; 0.176873;,
       0.422715; -0.863053; 0.276500;,
       0.612825; -0.656417; 0.439957;,
       0.729140; -0.486678; 0.481144;,
       -0.265991; 0.916991; -0.297282;,
       -0.303120; 0.813779; -0.495865;,
       -0.145657; 0.985839; -0.083103;,
       -0.049939; 0.998592; 0.017868;,
       -0.004335; 0.999036; 0.043675;,
       0.039828; 0.998930; 0.023499;,
       0.097607; 0.993508; -0.058440;,
       0.243447; 0.926320; -0.287514;,
       0.338820; 0.844361; -0.415037;,
       -0.388180; -0.576231; 0.719218;,
       -0.378036; -0.503466; 0.776924;,
       -0.293040; -0.737280; 0.608725;,
       -0.161815; -0.832380; 0.530057;,
       -0.018815; -0.866306; 0.499159;,
       0.124781; -0.846290; 0.517902;,
       0.259737; -0.768527; 0.584724;,
       0.366384; -0.626296; 0.688126;,
       0.436054; -0.507047; 0.743479;,
       0.000003; 0.940490; -0.339821;,
       0.000000; -0.599116; 0.800662;;
       224;
       3;0, 1, 2;,
       3;3, 0, 2;,
       3;4, 3, 2;,
       3;5, 4, 2;,
       3;6, 5, 2;,
       3;7, 6, 2;,
       3;8, 7, 2;,
       3;9, 8, 2;,
       3;10, 11, 12;,
       3;13, 10, 12;,
       3;14, 13, 12;,
       3;15, 14, 12;,
       3;16, 15, 12;,
       3;17, 16, 12;,
       3;18, 17, 12;,
       3;19, 18, 12;,
       3;20, 1, 0;,
       3;20, 21, 1;,
       3;22, 0, 3;,
       3;22, 20, 0;,
       3;23, 3, 4;,
       3;23, 22, 3;,
       3;24, 4, 5;,
       3;24, 23, 4;,
       3;25, 5, 6;,
       3;25, 24, 5;,
       3;26, 6, 7;,
       3;26, 25, 6;,
       3;27, 7, 8;,
       3;27, 26, 7;,
       3;28, 8, 9;,
       3;28, 27, 8;,
       3;29, 11, 10;,
       3;29, 30, 11;,
       3;31, 10, 13;,
       3;31, 29, 10;,
       3;32, 13, 14;,
       3;32, 31, 13;,
       3;33, 14, 15;,
       3;33, 32, 14;,
       3;34, 15, 16;,
       3;34, 33, 15;,
       3;35, 16, 17;,
       3;35, 34, 16;,
       3;36, 17, 18;,
       3;36, 35, 17;,
       3;37, 18, 19;,
       3;37, 36, 18;,
       3;38, 21, 20;,
       3;38, 39, 21;,
       3;40, 20, 22;,
       3;40, 38, 20;,
       3;41, 22, 23;,
       3;41, 40, 22;,
       3;42, 23, 24;,
       3;42, 41, 23;,
       3;43, 24, 25;,
       3;43, 42, 24;,
       3;44, 25, 26;,
       3;44, 43, 25;,
       3;45, 26, 27;,
       3;45, 44, 26;,
       3;46, 27, 28;,
       3;46, 45, 27;,
       3;47, 30, 29;,
       3;47, 48, 30;,
       3;49, 29, 31;,
       3;49, 47, 29;,
       3;50, 31, 32;,
       3;50, 49, 31;,
       3;51, 32, 33;,
       3;51, 50, 32;,
       3;52, 33, 34;,
       3;52, 51, 33;,
       3;53, 34, 35;,
       3;53, 52, 34;,
       3;54, 35, 36;,
       3;54, 53, 35;,
       3;55, 36, 37;,
       3;55, 54, 36;,
       3;56, 39, 38;,
       3;56, 57, 39;,
       3;58, 38, 40;,
       3;58, 56, 38;,
       3;59, 40, 41;,
       3;59, 58, 40;,
       3;60, 41, 42;,
       3;60, 59, 41;,
       3;61, 42, 43;,
       3;61, 60, 42;,
       3;62, 43, 44;,
       3;62, 61, 43;,
       3;63, 44, 45;,
       3;63, 62, 44;,
       3;64, 45, 46;,
       3;64, 63, 45;,
       3;65, 48, 47;,
       3;65, 66, 48;,
       3;67, 47, 49;,
       3;67, 65, 47;,
       3;68, 49, 50;,
       3;68, 67, 49;,
       3;69, 50, 51;,
       3;69, 68, 50;,
       3;70, 51, 52;,
       3;70, 69, 51;,
       3;71, 52, 53;,
       3;71, 70, 52;,
       3;72, 53, 54;,
       3;72, 71, 53;,
       3;73, 54, 55;,
       3;73, 72, 54;,
       3;74, 57, 56;,
       3;74, 75, 57;,
       3;76, 56, 58;,
       3;76, 74, 56;,
       3;77, 58, 59;,
       3;77, 76, 58;,
       3;78, 59, 60;,
       3;78, 77, 59;,
       3;79, 60, 61;,
       3;79, 78, 60;,
       3;80, 61, 62;,
       3;80, 79, 61;,
       3;81, 62, 63;,
       3;81, 80, 62;,
       3;82, 63, 64;,
       3;82, 81, 63;,
       3;83, 66, 65;,
       3;83, 84, 66;,
       3;85, 65, 67;,
       3;85, 83, 65;,
       3;86, 67, 68;,
       3;86, 85, 67;,
       3;87, 68, 69;,
       3;87, 86, 68;,
       3;88, 69, 70;,
       3;88, 87, 69;,
       3;89, 70, 71;,
       3;89, 88, 70;,
       3;90, 71, 72;,
       3;90, 89, 71;,
       3;91, 72, 73;,
       3;91, 90, 72;,
       3;92, 75, 74;,
       3;92, 93, 75;,
       3;94, 74, 76;,
       3;94, 92, 74;,
       3;95, 76, 77;,
       3;95, 94, 76;,
       3;96, 77, 78;,
       3;96, 95, 77;,
       3;97, 78, 79;,
       3;97, 96, 78;,
       3;98, 79, 80;,
       3;98, 97, 79;,
       3;99, 80, 81;,
       3;99, 98, 80;,
       3;100, 81, 82;,
       3;100, 99, 81;,
       3;101, 84, 83;,
       3;101, 102, 84;,
       3;103, 83, 85;,
       3;103, 101, 83;,
       3;104, 85, 86;,
       3;104, 103, 85;,
       3;105, 86, 87;,
       3;105, 104, 86;,
       3;106, 87, 88;,
       3;106, 105, 87;,
       3;107, 88, 89;,
       3;107, 106, 88;,
       3;108, 89, 90;,
       3;108, 107, 89;,
       3;109, 90, 91;,
       3;109, 108, 90;,
       3;110, 93, 92;,
       3;110, 111, 93;,
       3;112, 92, 94;,
       3;112, 110, 92;,
       3;113, 94, 95;,
       3;113, 112, 94;,
       3;114, 95, 96;,
       3;114, 113, 95;,
       3;115, 96, 97;,
       3;115, 114, 96;,
       3;116, 97, 98;,
       3;116, 115, 97;,
       3;117, 98, 99;,
       3;117, 116, 98;,
       3;118, 99, 100;,
       3;118, 117, 99;,
       3;119, 102, 101;,
       3;119, 120, 102;,
       3;121, 101, 103;,
       3;121, 119, 101;,
       3;122, 103, 104;,
       3;122, 121, 103;,
       3;123, 104, 105;,
       3;123, 122, 104;,
       3;124, 105, 106;,
       3;124, 123, 105;,
       3;125, 106, 107;,
       3;125, 124, 106;,
       3;126, 107, 108;,
       3;126, 125, 107;,
       3;127, 108, 109;,
       3;127, 126, 108;,
       3;110, 128, 111;,
       3;112, 128, 110;,
       3;113, 128, 112;,
       3;114, 128, 113;,
       3;115, 128, 114;,
       3;116, 128, 115;,
       3;117, 128, 116;,
       3;118, 128, 117;,
       3;119, 129, 120;,
       3;121, 129, 119;,
       3;122, 129, 121;,
       3;123, 129, 122;,
       3;124, 129, 123;,
       3;125, 129, 124;,
       3;126, 129, 125;,
       3;127, 129, 126;;
      }

      MeshTextureCoords {
       130;
       0.245012; 0.043238;,
       0.249540; 0.043238;,
       0.190055; 0.030975;,
       0.232118; 0.043238;,
       0.212819; 0.043238;,
       0.190055; 0.043238;,
       0.167291; 0.043238;,
       0.147993; 0.043238;,
       0.135099; 0.043238;,
       0.130571; 0.043238;,
       0.494044; 0.028256;,
       0.489772; 0.028256;,
       0.545889; 0.017403;,
       0.506209; 0.028256;,
       0.524414; 0.028256;,
       0.545889; 0.028256;,
       0.567365; 0.028256;,
       0.585571; 0.028256;,
       0.597736; 0.028256;,
       0.602007; 0.028256;,
       0.291601; 0.078161;,
       0.299968; 0.078161;,
       0.267776; 0.078161;,
       0.232116; 0.078161;,
       0.190055; 0.078161;,
       0.147993; 0.078161;,
       0.112335; 0.078161;,
       0.088508; 0.078161;,
       0.080142; 0.078161;,
       0.450091; 0.059161;,
       0.442198; 0.059161;,
       0.472569; 0.059161;,
       0.506209; 0.059161;,
       0.545889; 0.059161;,
       0.585571; 0.059161;,
       0.619211; 0.059161;,
       0.641688; 0.059161;,
       0.649581; 0.059161;,
       0.322731; 0.130427;,
       0.333663; 0.130427;,
       0.291601; 0.130427;,
       0.245012; 0.130427;,
       0.190055; 0.130427;,
       0.135099; 0.130427;,
       0.088508; 0.130427;,
       0.057378; 0.130427;,
       0.046447; 0.130427;,
       0.420723; 0.105414;,
       0.410410; 0.105414;,
       0.450091; 0.105414;,
       0.494044; 0.105414;,
       0.545889; 0.105414;,
       0.597736; 0.105414;,
       0.641688; 0.105414;,
       0.671056; 0.105414;,
       0.681368; 0.105414;,
       0.333663; 0.192077;,
       0.345495; 0.192077;,
       0.299968; 0.192077;,
       0.249540; 0.192077;,
       0.190055; 0.192077;,
       0.130571; 0.192077;,
       0.080142; 0.192077;,
       0.046447; 0.192077;,
       0.034614; 0.192077;,
       0.410410; 0.159971;,
       0.399248; 0.159971;,
       0.442198; 0.159971;,
       0.489772; 0.159971;,
       0.545889; 0.159971;,
       0.602007; 0.159971;,
       0.649581; 0.159971;,
       0.681368; 0.159971;,
       0.692531; 0.159971;,
       0.322731; 0.253728;,
       0.333663; 0.253728;,
       0.291601; 0.253728;,
       0.245012; 0.253728;,
       0.190055; 0.253728;,
       0.135099; 0.253728;,
       0.088508; 0.253728;,
       0.057378; 0.253728;,
       0.046447; 0.253728;,
       0.420723; 0.214530;,
       0.410410; 0.214530;,
       0.450091; 0.214530;,
       0.494044; 0.214530;,
       0.545889; 0.214530;,
       0.597736; 0.214530;,
       0.641688; 0.214530;,
       0.671056; 0.214530;,
       0.681368; 0.214530;,
       0.291601; 0.305994;,
       0.299968; 0.305994;,
       0.267776; 0.305994;,
       0.232116; 0.305994;,
       0.190055; 0.305994;,
       0.147993; 0.305994;,
       0.112335; 0.305994;,
       0.088508; 0.305994;,
       0.080142; 0.305994;,
       0.450091; 0.260783;,
       0.442198; 0.260783;,
       0.472569; 0.260783;,
       0.506209; 0.260783;,
       0.545889; 0.260783;,
       0.585571; 0.260783;,
       0.619211; 0.260783;,
       0.641688; 0.260783;,
       0.649581; 0.260783;,
       0.245012; 0.340917;,
       0.249540; 0.340917;,
       0.232116; 0.340917;,
       0.212819; 0.340917;,
       0.190055; 0.340917;,
       0.167291; 0.340917;,
       0.147993; 0.340917;,
       0.135099; 0.340917;,
       0.130571; 0.340917;,
       0.494044; 0.291688;,
       0.489772; 0.291688;,
       0.506209; 0.291688;,
       0.524414; 0.291688;,
       0.545889; 0.291688;,
       0.567365; 0.291688;,
       0.585571; 0.291688;,
       0.597736; 0.291688;,
       0.602007; 0.291688;,
       0.190055; 0.353179;,
       0.545889; 0.302540;;
      }

      MeshVertexColors {
       130;
       0; 1.000000; 1.000000; 1.000000; 1.000000;,
       1; 1.000000; 1.000000; 1.000000; 1.000000;,
       2; 1.000000; 1.000000; 1.000000; 1.000000;,
       3; 1.000000; 1.000000; 1.000000; 1.000000;,
       4; 1.000000; 1.000000; 1.000000; 1.000000;,
       5; 1.000000; 1.000000; 1.000000; 1.000000;,
       6; 1.000000; 1.000000; 1.000000; 1.000000;,
       7; 1.000000; 1.000000; 1.000000; 1.000000;,
       8; 1.000000; 1.000000; 1.000000; 1.000000;,
       9; 1.000000; 1.000000; 1.000000; 1.000000;,
       10; 1.000000; 1.000000; 1.000000; 1.000000;,
       11; 1.000000; 1.000000; 1.000000; 1.000000;,
       12; 1.000000; 1.000000; 1.000000; 1.000000;,
       13; 1.000000; 1.000000; 1.000000; 1.000000;,
       14; 1.000000; 1.000000; 1.000000; 1.000000;,
       15; 1.000000; 1.000000; 1.000000; 1.000000;,
       16; 1.000000; 1.000000; 1.000000; 1.000000;,
       17; 1.000000; 1.000000; 1.000000; 1.000000;,
       18; 1.000000; 1.000000; 1.000000; 1.000000;,
       19; 1.000000; 1.000000; 1.000000; 1.000000;,
       20; 1.000000; 1.000000; 1.000000; 1.000000;,
       21; 1.000000; 1.000000; 1.000000; 1.000000;,
       22; 1.000000; 1.000000; 1.000000; 1.000000;,
       23; 1.000000; 1.000000; 1.000000; 1.000000;,
       24; 1.000000; 1.000000; 1.000000; 1.000000;,
       25; 1.000000; 1.000000; 1.000000; 1.000000;,
       26; 1.000000; 1.000000; 1.000000; 1.000000;,
       27; 1.000000; 1.000000; 1.000000; 1.000000;,
       28; 1.000000; 1.000000; 1.000000; 1.000000;,
       29; 1.000000; 1.000000; 1.000000; 1.000000;,
       30; 1.000000; 1.000000; 1.000000; 1.000000;,
       31; 1.000000; 1.000000; 1.000000; 1.000000;,
       32; 1.000000; 1.000000; 1.000000; 1.000000;,
       33; 1.000000; 1.000000; 1.000000; 1.000000;,
       34; 1.000000; 1.000000; 1.000000; 1.000000;,
       35; 1.000000; 1.000000; 1.000000; 1.000000;,
       36; 1.000000; 1.000000; 1.000000; 1.000000;,
       37; 1.000000; 1.000000; 1.000000; 1.000000;,
       38; 1.000000; 1.000000; 1.000000; 1.000000;,
       39; 1.000000; 1.000000; 1.000000; 1.000000;,
       40; 1.000000; 1.000000; 1.000000; 1.000000;,
       41; 1.000000; 1.000000; 1.000000; 1.000000;,
       42; 1.000000; 1.000000; 1.000000; 1.000000;,
       43; 1.000000; 1.000000; 1.000000; 1.000000;,
       44; 1.000000; 1.000000; 1.000000; 1.000000;,
       45; 1.000000; 1.000000; 1.000000; 1.000000;,
       46; 1.000000; 1.000000; 1.000000; 1.000000;,
       47; 1.000000; 1.000000; 1.000000; 1.000000;,
       48; 1.000000; 1.000000; 1.000000; 1.000000;,
       49; 1.000000; 1.000000; 1.000000; 1.000000;,
       50; 1.000000; 1.000000; 1.000000; 1.000000;,
       51; 1.000000; 1.000000; 1.000000; 1.000000;,
       52; 1.000000; 1.000000; 1.000000; 1.000000;,
       53; 1.000000; 1.000000; 1.000000; 1.000000;,
       54; 1.000000; 1.000000; 1.000000; 1.000000;,
       55; 1.000000; 1.000000; 1.000000; 1.000000;,
       56; 1.000000; 1.000000; 1.000000; 1.000000;,
       57; 1.000000; 1.000000; 1.000000; 1.000000;,
       58; 1.000000; 1.000000; 1.000000; 1.000000;,
       59; 1.000000; 1.000000; 1.000000; 1.000000;,
       60; 1.000000; 1.000000; 1.000000; 1.000000;,
       61; 1.000000; 1.000000; 1.000000; 1.000000;,
       62; 1.000000; 1.000000; 1.000000; 1.000000;,
       63; 1.000000; 1.000000; 1.000000; 1.000000;,
       64; 1.000000; 1.000000; 1.000000; 1.000000;,
       65; 1.000000; 1.000000; 1.000000; 1.000000;,
       66; 1.000000; 1.000000; 1.000000; 1.000000;,
       67; 1.000000; 1.000000; 1.000000; 1.000000;,
       68; 1.000000; 1.000000; 1.000000; 1.000000;,
       69; 1.000000; 1.000000; 1.000000; 1.000000;,
       70; 1.000000; 1.000000; 1.000000; 1.000000;,
       71; 1.000000; 1.000000; 1.000000; 1.000000;,
       72; 1.000000; 1.000000; 1.000000; 1.000000;,
       73; 1.000000; 1.000000; 1.000000; 1.000000;,
       74; 1.000000; 1.000000; 1.000000; 1.000000;,
       75; 1.000000; 1.000000; 1.000000; 1.000000;,
       76; 1.000000; 1.000000; 1.000000; 1.000000;,
       77; 1.000000; 1.000000; 1.000000; 1.000000;,
       78; 1.000000; 1.000000; 1.000000; 1.000000;,
       79; 1.000000; 1.000000; 1.000000; 1.000000;,
       80; 1.000000; 1.000000; 1.000000; 1.000000;,
       81; 1.000000; 1.000000; 1.000000; 1.000000;,
       82; 1.000000; 1.000000; 1.000000; 1.000000;,
       83; 1.000000; 1.000000; 1.000000; 1.000000;,
       84; 1.000000; 1.000000; 1.000000; 1.000000;,
       85; 1.000000; 1.000000; 1.000000; 1.000000;,
       86; 1.000000; 1.000000; 1.000000; 1.000000;,
       87; 1.000000; 1.000000; 1.000000; 1.000000;,
       88; 1.000000; 1.000000; 1.000000; 1.000000;,
       89; 1.000000; 1.000000; 1.000000; 1.000000;,
       90; 1.000000; 1.000000; 1.000000; 1.000000;,
       91; 1.000000; 1.000000; 1.000000; 1.000000;,
       92; 1.000000; 1.000000; 1.000000; 1.000000;,
       93; 1.000000; 1.000000; 1.000000; 1.000000;,
       94; 1.000000; 1.000000; 1.000000; 1.000000;,
       95; 1.000000; 1.000000; 1.000000; 1.000000;,
       96; 1.000000; 1.000000; 1.000000; 1.000000;,
       97; 1.000000; 1.000000; 1.000000; 1.000000;,
       98; 1.000000; 1.000000; 1.000000; 1.000000;,
       99; 1.000000; 1.000000; 1.000000; 1.000000;,
       100; 1.000000; 1.000000; 1.000000; 1.000000;,
       101; 1.000000; 1.000000; 1.000000; 1.000000;,
       102; 1.000000; 1.000000; 1.000000; 1.000000;,
       103; 1.000000; 1.000000; 1.000000; 1.000000;,
       104; 1.000000; 1.000000; 1.000000; 1.000000;,
       105; 1.000000; 1.000000; 1.000000; 1.000000;,
       106; 1.000000; 1.000000; 1.000000; 1.000000;,
       107; 1.000000; 1.000000; 1.000000; 1.000000;,
       108; 1.000000; 1.000000; 1.000000; 1.000000;,
       109; 1.000000; 1.000000; 1.000000; 1.000000;,
       110; 1.000000; 1.000000; 1.000000; 1.000000;,
       111; 1.000000; 1.000000; 1.000000; 1.000000;,
       112; 1.000000; 1.000000; 1.000000; 1.000000;,
       113; 1.000000; 1.000000; 1.000000; 1.000000;,
       114; 1.000000; 1.000000; 1.000000; 1.000000;,
       115; 1.000000; 1.000000; 1.000000; 1.000000;,
       116; 1.000000; 1.000000; 1.000000; 1.000000;,
       117; 1.000000; 1.000000; 1.000000; 1.000000;,
       118; 1.000000; 1.000000; 1.000000; 1.000000;,
       119; 1.000000; 1.000000; 1.000000; 1.000000;,
       120; 1.000000; 1.000000; 1.000000; 1.000000;,
       121; 1.000000; 1.000000; 1.000000; 1.000000;,
       122; 1.000000; 1.000000; 1.000000; 1.000000;,
       123; 1.000000; 1.000000; 1.000000; 1.000000;,
       124; 1.000000; 1.000000; 1.000000; 1.000000;,
       125; 1.000000; 1.000000; 1.000000; 1.000000;,
       126; 1.000000; 1.000000; 1.000000; 1.000000;,
       127; 1.000000; 1.000000; 1.000000; 1.000000;,
       128; 1.000000; 1.000000; 1.000000; 1.000000;,
       129; 1.000000; 1.000000; 1.000000; 1.000000;;
      }

      MeshMaterialList {
       1;
       224;
       0,
       0,
       0,
       0,
       0,
       0,
       0,
       0,
       0,
       0,
       0,
       0,
       0,
       0,
       0,
       0,
       0,
       0,
       0,
       0,
       0,
       0,
       0,
       0,
       0,
       0,
       0,
       0,
       0,
       0,
       0,
       0,
       0,
       0,
       0,
       0,
       0,
       0,
       0,
       0,
       0,
       0,
       0,
       0,
       0,
       0,
       0,
       0,
       0,
       0,
       0,
       0,
       0,
       0,
       0,
       0,
       0,
       0,
       0,
       0,
       0,
       0,
       0,
       0,
       0,
       0,
       0,
       0,
       0,
       0,
       0,
       0,
       0,
       0,
       0,
       0,
       0,
       0,
       0,
       0,
       0,
       0,
       0,
       0,
       0,
       0,
       0,
       0,
       0,
       0,
       0,
       0,
       0,
       0,
       0,
       0,
       0,
       0,
       0,
       0,
       0,
       0,
       0,
       0,
       0,
       0,
       0,
       0,
       0,
       0,
       0,
       0,
       0,
       0,
       0,
       0,
       0,
       0,
       0,
       0,
       0,
       0,
       0,
       0,
       0,
       0,
       0,
       0,
       0,
       0,
       0,
       0,
       0,
       0,
       0,
       0,
       0,
       0,
       0,
       0,
       0,
       0,
       0,
       0,
       0,
       0,
       0,
       0,
       0,
       0,
       0,
       0,
       0,
       0,
       0,
       0,
       0,
       0,
       0,
       0,
       0,
       0,
       0,
       0,
       0,
       0,
       0,
       0,
       0,
       0,
       0,
       0,
       0,
       0,
       0,
       0,
       0,
       0,
       0,
       0,
       0,
       0,
       0,
       0,
       0,
       0,
       0,
       0,
       0,
       0,
       0,
       0,
       0,
       0,
       0,
       0,
       0,
       0,
       0,
       0,
       0,
       0,
       0,
       0,
       0,
       0,
       0,
       0,
       0,
       0,
       0,
       0,
       0,
       0,
       0,
       0,
       0,
       0,
       0,
       0,
       0,
       0,
       0,
       0;

       Material def_surf_mat {
        0.992157; 0.992157; 0.992157; 1.000000;;
        1.000000;
        0.150000; 0.150000; 0.150000;;
        0.000000; 0.000000; 0.000000;;

        TextureFilename {
         "more_veg.dds";
        }
       }

      }

      XSkinMeshHeader {
       1;
       1;
       1;
      }

      SkinWeights {
       "Body";
       130;
       0,
       1,
       2,
       3,
       4,
       5,
       6,
       7,
       8,
       9,
       10,
       11,
       12,
       13,
       14,
       15,
       16,
       17,
       18,
       19,
       20,
       21,
       22,
       23,
       24,
       25,
       26,
       27,
       28,
       29,
       30,
       31,
       32,
       33,
       34,
       35,
       36,
       37,
       38,
       39,
       40,
       41,
       42,
       43,
       44,
       45,
       46,
       47,
       48,
       49,
       50,
       51,
       52,
       53,
       54,
       55,
       56,
       57,
       58,
       59,
       60,
       61,
       62,
       63,
       64,
       65,
       66,
       67,
       68,
       69,
       70,
       71,
       72,
       73,
       74,
       75,
       76,
       77,
       78,
       79,
       80,
       81,
       82,
       83,
       84,
       85,
       86,
       87,
       88,
       89,
       90,
       91,
       92,
       93,
       94,
       95,
       96,
       97,
       98,
       99,
       100,
       101,
       102,
       103,
       104,
       105,
       106,
       107,
       108,
       109,
       110,
       111,
       112,
       113,
       114,
       115,
       116,
       117,
       118,
       119,
       120,
       121,
       122,
       123,
       124,
       125,
       126,
       127,
       128,
       129;
       1.000000,
       1.000000,
       1.000000,
       1.000000,
       1.000000,
       1.000000,
       1.000000,
       1.000000,
       1.000000,
       1.000000,
       1.000000,
       1.000000,
       1.000000,
       1.000000,
       1.000000,
       1.000000,
       1.000000,
       1.000000,
       1.000000,
       1.000000,
       1.000000,
       1.000000,
       1.000000,
       1.000000,
       1.000000,
       1.000000,
       1.000000,
       1.000000,
       1.000000,
       1.000000,
       1.000000,
       1.000000,
       1.000000,
       1.000000,
       1.000000,
       1.000000,
       1.000000,
       1.000000,
       1.000000,
       1.000000,
       1.000000,
       1.000000,
       1.000000,
       1.000000,
       1.000000,
       1.000000,
       1.000000,
       1.000000,
       1.000000,
       1.000000,
       1.000000,
       1.000000,
       1.000000,
       1.000000,
       1.000000,
       1.000000,
       1.000000,
       1.000000,
       1.000000,
       1.000000,
       1.000000,
       1.000000,
       1.000000,
       1.000000,
       1.000000,
       1.000000,
       1.000000,
       1.000000,
       1.000000,
       1.000000,
       1.000000,
       1.000000,
       1.000000,
       1.000000,
       1.000000,
       1.000000,
       1.000000,
       1.000000,
       1.000000,
       1.000000,
       1.000000,
       1.000000,
       1.000000,
       1.000000,
       1.000000,
       1.000000,
       1.000000,
       1.000000,
       1.000000,
       1.000000,
       1.000000,
       1.000000,
       1.000000,
       1.000000,
       1.000000,
       1.000000,
       1.000000,
       1.000000,
       1.000000,
       1.000000,
       1.000000,
       1.000000,
       1.000000,
       1.000000,
       1.000000,
       1.000000,
       1.000000,
       1.000000,
       1.000000,
       1.000000,
       1.000000,
       1.000000,
       1.000000,
       1.000000,
       1.000000,
       1.000000,
       1.000000,
       1.000000,
       1.000000,
       1.000000,
       1.000000,
       1.000000,
       1.000000,
       1.000000,
       1.000000,
       1.000000,
       1.000000,
       1.000000,
       1.000000,
       1.000000;
          1.000000, -0.000000, 0.000000, 0.000000,
          -0.000000, 1.000000, -0.000000, 0.000000,
          0.000000, -0.000000, 1.000000, 0.000000,
          -0.000000, -0.000000, -0.000000, 1.000000;;
      }


     }
   }

// Start of Animation

AnimationSet Untitled {
}
