xof 0303txt 0032

// DirectX 9.0 file
// Creator: Ultimate Unwrap3D Pro v3.19
// Website: http://www.unwrap3d.com
// Time: Thu Dec 10 21:50:37 2009

// Start of Templates

template VertexDuplicationIndices {
 <b8d65549-d7c9-4995-89cf-53a9a8b031e3>
 DWORD nIndices;
 DWORD nOriginalVertices;
 array DWORD indices[nIndices];
}

template FVFData {
 <b6e70a0e-8ef9-4e83-94ad-ecc8b0c04897>
 DWORD dwFVF;
 DWORD nDWords;
 array DWORD data[nDWords];
}

template Header {
 <3D82AB43-62DA-11cf-AB39-0020AF71E433>
 WORD major;
 WORD minor;
 DWORD flags;
}

template Vector {
 <3D82AB5E-62DA-11cf-AB39-0020AF71E433>
 FLOAT x;
 FLOAT y;
 FLOAT z;
}

template Coords2d {
 <F6F23F44-7686-11cf-8F52-0040333594A3>
 FLOAT u;
 FLOAT v;
}

template Matrix4x4 {
 <F6F23F45-7686-11cf-8F52-0040333594A3>
 array FLOAT matrix[16];
}

template ColorRGBA {
 <35FF44E0-6C7C-11cf-8F52-0040333594A3>
 FLOAT red;
 FLOAT green;
 FLOAT blue;
 FLOAT alpha;
}

template ColorRGB {
 <D3E16E81-7835-11cf-8F52-0040333594A3>
 FLOAT red;
 FLOAT green;
 FLOAT blue;
}

template IndexedColor {
 <1630B820-7842-11cf-8F52-0040333594A3>
 DWORD index;
 ColorRGBA indexColor;
}

template Material {
 <3D82AB4D-62DA-11cf-AB39-0020AF71E433>
 ColorRGBA faceColor;
 FLOAT power;
 ColorRGB specularColor;
 ColorRGB emissiveColor;
 [...]
}

template TextureFilename {
 <A42790E1-7810-11cf-8F52-0040333594A3>
 STRING filename;
}

template MeshFace {
 <3D82AB5F-62DA-11cf-AB39-0020AF71E433>
 DWORD nFaceVertexIndices;
 array DWORD faceVertexIndices[nFaceVertexIndices];
}

template MeshTextureCoords {
 <F6F23F40-7686-11cf-8F52-0040333594A3>
 DWORD nTextureCoords;
 array Coords2d textureCoords[nTextureCoords];
}

template MeshMaterialList {
 <F6F23F42-7686-11cf-8F52-0040333594A3>
 DWORD nMaterials;
 DWORD nFaceIndexes;
 array DWORD faceIndexes[nFaceIndexes];
 [Material]
}

template MeshNormals {
 <F6F23F43-7686-11cf-8F52-0040333594A3>
 DWORD nNormals;
 array Vector normals[nNormals];
 DWORD nFaceNormals;
 array MeshFace faceNormals[nFaceNormals];
}

template MeshVertexColors {
 <1630B821-7842-11cf-8F52-0040333594A3>
 DWORD nVertexColors;
 array IndexedColor vertexColors[nVertexColors];
}

template Mesh {
 <3D82AB44-62DA-11cf-AB39-0020AF71E433>
 DWORD nVertices;
 array Vector vertices[nVertices];
 DWORD nFaces;
 array MeshFace faces[nFaces];
 [...]
}

template FrameTransformMatrix {
 <F6F23F41-7686-11cf-8F52-0040333594A3>
 Matrix4x4 frameMatrix;
}

template Frame {
 <3D82AB46-62DA-11cf-AB39-0020AF71E433>
 [...]
}

template FloatKeys {
 <10DD46A9-775B-11cf-8F52-0040333594A3>
 DWORD nValues;
 array FLOAT values[nValues];
}

template TimedFloatKeys {
 <F406B180-7B3B-11cf-8F52-0040333594A3>
 DWORD time;
 FloatKeys tfkeys;
}

template AnimationKey {
 <10DD46A8-775B-11cf-8F52-0040333594A3>
 DWORD keyType;
 DWORD nKeys;
 array TimedFloatKeys keys[nKeys];
}

template AnimationOptions {
 <E2BF56C0-840F-11cf-8F52-0040333594A3>
 DWORD openclosed;
 DWORD positionquality;
}

template Animation {
 <3D82AB4F-62DA-11cf-AB39-0020AF71E433>
 [...]
}

template AnimationSet {
 <3D82AB50-62DA-11cf-AB39-0020AF71E433>
 [Animation]
}

template XSkinMeshHeader {
 <3CF169CE-FF7C-44ab-93C0-F78F62D172E2>
 WORD nMaxSkinWeightsPerVertex;
 WORD nMaxSkinWeightsPerFace;
 WORD nBones;
}

template SkinWeights {
 <6F0D123B-BAD2-4167-A0D0-80224F25FABB>
 STRING transformNodeName;
 DWORD nWeights;
 array DWORD vertexIndices[nWeights];
 array FLOAT weights[nWeights];
 Matrix4x4 matrixOffset;
}

template AnimTicksPerSecond {
 <9E415A43-7BA6-4a73-8743-B73D47E88476>
 DWORD AnimTicksPerSecond;
}

AnimTicksPerSecond {
 30;
}

// Start of Frames

   Frame Body {
      FrameTransformMatrix {
       1.000000, 0.000000, 0.000000, 0.000000,
       0.000000, 1.000000, 0.000000, 0.000000,
       0.000000, 0.000000, 1.000000, 0.000000,
       0.000000, 0.000000, 0.000000, 1.000000;;
      }

   }
   Frame material23 {
      FrameTransformMatrix {
       1.000000, 0.000000, 0.000000, 0.000000,
       0.000000, 1.000000, 0.000000, 0.000000,
       0.000000, 0.000000, 1.000000, 0.000000,
       0.000000, 0.000000, 0.000000, 1.000000;;
      }

   }

   Frame Body0 {
      FrameTransformMatrix {
       1.000000, 0.000000, 0.000000, 0.000000,
       0.000000, 1.000000, 0.000000, 0.000000,
       0.000000, 0.000000, 1.000000, 0.000000,
       0.000000, 0.000000, 0.000000, 1.000000;;
      }

      Mesh skinnedMesh {
       334;
       7.400540; 7.519489; -6.643440;,
       8.303940; 0.000000; -3.761550;,
       6.769620; 0.000000; -5.961840;,
       9.077940; 7.519489; -4.443130;,
       4.830680; 7.519489; -8.276540;,
       4.418860; 0.000000; -7.594970;,
       1.678240; 7.519489; -9.145490;,
       1.535220; 0.000000; -8.463920;,
       -1.676510; 7.519489; -9.145490;,
       -1.533480; 0.000000; -8.463920;,
       -4.828940; 7.519489; -8.276540;,
       -4.417109; 0.000000; -7.594970;,
       -7.398810; 7.519489; -6.643440;,
       -6.767900; 0.000000; -5.961840;,
       -9.076149; 7.519489; -4.443130;,
       -8.302219; 0.000000; -3.761550;,
       -10.022449; 7.519489; -2.247790;,
       -9.167799; 0.000000; -2.247790;,
       -10.299850; 7.519489; 0.040518;,
       -9.421629; 0.000000; 0.040518;,
       10.023750; 7.519489; -2.247820;,
       9.421631; 0.000000; -0.040531;,
       9.169100; 0.000000; -2.247820;,
       10.299850; 7.519489; -0.040531;,
       9.421631; 0.000000; -0.040531;,
       8.303940; 0.000000; -3.761550;,
       9.169100; 0.000000; -2.247820;,
       6.769620; 0.000000; -5.961840;,
       -9.421629; 0.000000; 0.040518;,
       4.418860; 0.000000; -7.594970;,
       -9.167799; 0.000000; -2.247790;,
       1.535220; 0.000000; -8.463920;,
       -8.302219; 0.000000; -3.761550;,
       -1.533480; 0.000000; -8.463920;,
       -6.767900; 0.000000; -5.961840;,
       -4.417109; 0.000000; -7.594970;,
       9.353451; 11.177900; -4.613700;,
       7.625170; 11.177900; -6.813980;,
       10.327950; 11.177900; -2.247820;,
       4.977300; 11.177900; -8.447080;,
       1.729160; 11.177900; -9.316100;,
       -1.727410; 11.177900; -9.316100;,
       -4.975550; 11.177900; -8.447080;,
       -7.623450; 11.177900; -6.813980;,
       -9.351719; 11.177900; -4.613700;,
       -10.326750; 11.177900; -2.247790;,
       -10.612549; 11.177900; 0.040518;,
       10.612450; 11.177900; -0.040531;,
       9.729050; 17.412701; -4.749910;,
       7.931290; 17.412701; -6.950180;,
       10.742651; 17.412701; -2.247820;,
       5.177110; 17.412701; -8.583350;,
       11.038651; 17.412701; -0.040531;,
       1.798560; 17.412701; -9.452240;,
       -1.796810; 17.412701; -9.452240;,
       -5.175360; 17.412701; -8.583350;,
       -7.929570; 17.412701; -6.950180;,
       -9.727261; 17.412701; -4.749880;,
       -10.741449; 17.412701; -2.247790;,
       -11.038651; 17.412701; 0.040518;,
       9.729050; 23.492800; -4.749910;,
       7.931290; 23.492800; -6.950180;,
       10.742651; 23.492800; -2.247820;,
       5.177110; 23.492800; -8.583350;,
       11.038651; 23.492800; -0.040531;,
       1.798560; 23.492800; -9.452240;,
       -1.796810; 23.492800; -9.452240;,
       -5.175360; 23.492800; -8.583350;,
       -7.929570; 23.492800; -6.950180;,
       -9.727261; 23.492800; -4.749880;,
       -10.741449; 23.492800; -2.247790;,
       -11.038651; 23.492800; 0.040518;,
       8.518230; 36.786800; -3.961660;,
       7.535240; 31.273399; -6.575300;,
       6.944310; 36.786800; -6.161960;,
       9.243130; 31.273399; -4.375020;,
       9.405680; 36.786800; -2.247820;,
       10.206150; 31.273399; -2.247820;,
       4.918580; 31.273399; -8.208470;,
       4.532870; 36.786800; -7.795070;,
       9.664740; 36.786800; -0.040531;,
       10.487350; 31.273399; -0.040531;,
       1.708780; 31.273399; -9.077420;,
       1.574820; 36.786800; -8.664020;,
       -1.707030; 31.273399; -9.077420;,
       -1.573060; 36.786800; -8.664020;,
       -9.404449; 36.786800; -2.247790;,
       -10.487350; 31.273399; 0.040518;,
       -9.664810; 36.786800; 0.040518;,
       -10.204849; 31.273399; -2.247790;,
       -4.916820; 31.273399; -8.208470;,
       -4.531120; 36.786800; -7.795070;,
       -8.516500; 36.786800; -3.961660;,
       -9.241409; 31.273399; -4.375020;,
       -7.533520; 31.273399; -6.575300;,
       -6.942520; 36.786800; -6.161960;,
       7.607550; 40.548302; -3.479850;,
       6.201910; 40.548302; -5.680130;,
       8.400030; 40.548302; -2.247820;,
       4.048290; 40.548302; -7.313240;,
       8.631380; 40.548302; 0.040518;,
       1.406530; 40.548302; -8.182250;,
       -1.404780; 40.548302; -8.182250;,
       -8.398800; 40.548302; -2.247790;,
       -8.631380; 40.548302; 0.040518;,
       -4.046530; 40.548302; -7.313240;,
       -7.605770; 40.548302; -3.479850;,
       -6.200119; 40.548302; -5.680130;,
       6.732610; 39.033600; -3.172070;,
       7.556551; 39.033600; 0.040518;,
       7.391670; 39.033600; -2.184590;,
       6.732610; 39.033600; -3.172070;,
       -7.556550; 39.033600; -0.040531;,
       7.556551; 39.033600; 0.040518;,
       5.441210; 39.033600; -5.193510;,
       -7.390370; 39.033600; -2.184590;,
       3.536840; 39.033600; -6.637640;,
       -6.730880; 39.033600; -3.172070;,
       1.225250; 39.033600; -7.397980;,
       -5.439450; 39.033600; -5.193510;,
       -1.223500; 39.033600; -7.397980;,
       -3.535090; 39.033600; -6.637640;,
       7.556551; 40.548302; 0.040518;,
       8.400030; 40.548302; -2.247820;,
       7.391670; 40.548302; -2.184590;,
       8.631380; 40.548302; 0.040518;,
       7.607550; 40.548302; -3.479850;,
       6.732610; 40.548302; -3.172070;,
       6.201910; 40.548302; -5.680130;,
       5.441210; 40.548302; -5.193510;,
       3.536840; 40.548302; -6.637640;,
       4.048290; 40.548302; -7.313240;,
       1.406530; 40.548302; -8.182250;,
       1.225250; 40.548302; -7.397980;,
       -1.404780; 40.548302; -8.182250;,
       -1.223500; 40.548302; -7.397980;,
       -4.046530; 40.548302; -7.313240;,
       -3.535090; 40.548302; -6.637640;,
       -6.200119; 40.548302; -5.680130;,
       -5.439450; 40.548302; -5.193510;,
       -7.605770; 40.548302; -3.479850;,
       -6.730880; 40.548302; -3.172070;,
       -8.398800; 40.548302; -2.247790;,
       -7.390370; 40.548302; -2.184590;,
       -8.631380; 40.548302; 0.040518;,
       -7.556550; 40.548302; 0.040518;,
       7.556551; 39.033600; 0.040518;,
       7.391670; 40.548302; -2.184590;,
       7.391670; 39.033600; -2.184590;,
       7.556551; 40.548302; 0.040518;,
       6.732610; 40.548302; -3.172070;,
       6.732610; 39.033600; -3.172070;,
       5.441210; 40.548302; -5.193510;,
       5.441210; 39.033600; -5.193510;,
       3.536840; 40.548302; -6.637640;,
       3.536840; 39.033600; -6.637640;,
       1.225250; 40.548302; -7.397980;,
       1.225250; 39.033600; -7.397980;,
       -1.223500; 40.548302; -7.397980;,
       -1.223500; 39.033600; -7.397980;,
       -3.535090; 40.548302; -6.637640;,
       -3.535090; 39.033600; -6.637640;,
       -5.439450; 40.548302; -5.193510;,
       -5.439450; 39.033600; -5.193510;,
       -6.730880; 40.548302; -3.172070;,
       -6.730880; 39.033600; -3.172070;,
       -7.390370; 40.548302; -2.184590;,
       -7.390370; 39.033600; -2.184590;,
       -7.556550; 40.548302; 0.040518;,
       -7.556550; 39.033600; -0.040531;,
       9.644360; 24.848600; -4.684590;,
       7.862190; 24.850901; -6.884800;,
       10.648750; 24.853701; -2.247820;,
       5.131900; 24.853500; -8.517730;,
       10.942150; 24.854500; -0.040531;,
       1.782840; 24.855301; -9.386620;,
       -1.781090; 24.855301; -9.386620;,
       -5.130150; 24.853500; -8.517730;,
       -7.860460; 24.850901; -6.884740;,
       -9.642570; 24.848600; -4.684560;,
       -10.647551; 24.853701; -2.247790;,
       -10.927549; 25.060600; 0.040518;,
       9.077940; 7.519489; 4.443110;,
       6.769620; 0.000000; 5.961840;,
       8.303940; 0.000000; 3.761540;,
       7.400540; 7.519489; 6.643440;,
       4.418860; 0.000000; 7.594970;,
       4.830680; 7.519489; 8.276540;,
       1.535220; 0.000000; 8.463920;,
       1.678240; 7.519489; 9.145490;,
       -1.533480; 0.000000; 8.463920;,
       -1.676510; 7.519489; 9.145490;,
       -4.417109; 0.000000; 7.594970;,
       -4.828940; 7.519489; 8.276540;,
       -6.767900; 0.000000; 5.961840;,
       -7.398810; 7.519489; 6.643440;,
       -8.302219; 0.000000; 3.761540;,
       -9.076149; 7.519489; 4.443110;,
       -9.167799; 0.000000; 2.247770;,
       -10.022449; 7.519489; 2.247770;,
       9.169100; 0.000000; 2.247800;,
       10.023750; 7.519489; 2.247800;,
       6.769620; 0.000000; 5.961840;,
       9.169100; 0.000000; 2.247800;,
       8.303940; 0.000000; 3.761540;,
       6.769620; 0.000000; 5.961840;,
       9.169100; 0.000000; 2.247800;,
       4.418860; 0.000000; 7.594970;,
       1.535220; 0.000000; 8.463920;,
       -9.167799; 0.000000; 2.247770;,
       -1.533480; 0.000000; 8.463920;,
       -8.302219; 0.000000; 3.761540;,
       -4.417109; 0.000000; 7.594970;,
       -6.767900; 0.000000; 5.961840;,
       7.625170; 11.177900; 6.813980;,
       9.353451; 11.177900; 4.613690;,
       10.327950; 11.177900; 2.247800;,
       4.977300; 11.177900; 8.447080;,
       1.729160; 11.177900; 9.316100;,
       -1.727410; 11.177900; 9.316100;,
       -4.975550; 11.177900; 8.447080;,
       -7.623450; 11.177900; 6.813980;,
       -9.351719; 11.177900; 4.613690;,
       -10.326750; 11.177900; 2.247770;,
       7.931290; 17.412701; 6.950180;,
       9.729050; 17.412701; 4.749910;,
       10.742651; 17.412701; 2.247800;,
       5.177110; 17.412701; 8.583290;,
       1.798560; 17.412701; 9.452240;,
       -1.796810; 17.412701; 9.452240;,
       -5.175360; 17.412701; 8.583290;,
       -7.929570; 17.412701; 6.950180;,
       -9.727261; 17.412701; 4.749870;,
       -10.741449; 17.412701; 2.247770;,
       7.931290; 23.492800; 6.950180;,
       9.729050; 23.492800; 4.749910;,
       10.742651; 23.492800; 2.247800;,
       5.177110; 23.492800; 8.583290;,
       1.798560; 23.492800; 9.452240;,
       -1.796810; 23.492800; 9.452240;,
       -5.175360; 23.492800; 8.583290;,
       -7.929570; 23.492800; 6.950180;,
       -9.727261; 23.492800; 4.749870;,
       -10.741449; 23.492800; 2.247770;,
       9.243130; 31.273399; 4.375020;,
       6.944310; 36.786800; 6.161910;,
       7.535240; 31.273399; 6.575300;,
       8.518230; 36.786800; 3.961630;,
       10.206150; 31.273399; 2.247800;,
       9.405680; 36.786800; 2.247800;,
       4.532870; 36.786800; 7.795070;,
       4.918580; 31.273399; 8.208410;,
       1.574820; 36.786800; 8.664020;,
       1.708780; 31.273399; 9.077360;,
       -1.573060; 36.786800; 8.664020;,
       -1.707030; 31.273399; 9.077360;,
       -10.204849; 31.273399; 2.247770;,
       -9.404449; 36.786800; 2.247770;,
       -4.531120; 36.786800; 7.795070;,
       -4.916820; 31.273399; 8.208410;,
       -9.241409; 31.273399; 4.375020;,
       -8.516500; 36.786800; 3.961630;,
       -6.942520; 36.786800; 6.161910;,
       -7.533520; 31.273399; 6.575300;,
       6.201910; 40.548302; 5.680130;,
       7.607550; 40.548302; 3.479830;,
       8.400030; 40.548302; 2.247800;,
       4.048290; 40.548302; 7.313240;,
       1.406530; 40.548302; 8.182250;,
       -1.404780; 40.548302; 8.182250;,
       -8.398800; 40.548302; 2.247770;,
       -4.046530; 40.548302; 7.313240;,
       -7.605770; 40.548302; 3.479830;,
       -6.200119; 40.548302; 5.680130;,
       7.391670; 39.033600; 2.184570;,
       6.732610; 39.033600; 3.172050;,
       -7.390370; 39.033600; 2.184570;,
       5.441210; 39.033600; 5.193480;,
       -6.730880; 39.033600; 3.172050;,
       3.536840; 39.033600; 6.637640;,
       -5.439450; 39.033600; 5.193480;,
       1.225250; 39.033600; 7.397980;,
       -3.535090; 39.033600; 6.637640;,
       -1.223500; 39.033600; 7.397980;,
       7.391670; 40.548302; 2.184570;,
       8.400030; 40.548302; 2.247800;,
       6.732610; 40.548302; 3.172050;,
       7.607550; 40.548302; 3.479830;,
       5.441210; 40.548302; 5.193480;,
       6.201910; 40.548302; 5.680130;,
       4.048290; 40.548302; 7.313240;,
       3.536840; 40.548302; 6.637640;,
       1.225250; 40.548302; 7.397980;,
       1.406530; 40.548302; 8.182250;,
       -1.223500; 40.548302; 7.397980;,
       -1.404780; 40.548302; 8.182250;,
       -3.535090; 40.548302; 6.637640;,
       -4.046530; 40.548302; 7.313240;,
       -5.439450; 40.548302; 5.193480;,
       -6.200119; 40.548302; 5.680130;,
       -6.730880; 40.548302; 3.172050;,
       -7.605770; 40.548302; 3.479830;,
       -7.390370; 40.548302; 2.184570;,
       -8.398800; 40.548302; 2.247770;,
       7.391670; 39.033600; 2.184570;,
       7.391670; 40.548302; 2.184570;,
       6.732610; 39.033600; 3.172050;,
       6.732610; 40.548302; 3.172050;,
       5.441210; 39.033600; 5.193480;,
       5.441210; 40.548302; 5.193480;,
       3.536840; 39.033600; 6.637640;,
       3.536840; 40.548302; 6.637640;,
       1.225250; 39.033600; 7.397980;,
       1.225250; 40.548302; 7.397980;,
       -1.223500; 39.033600; 7.397980;,
       -1.223500; 40.548302; 7.397980;,
       -3.535090; 39.033600; 6.637640;,
       -3.535090; 40.548302; 6.637640;,
       -5.439450; 39.033600; 5.193480;,
       -5.439450; 40.548302; 5.193480;,
       -6.730880; 39.033600; 3.172050;,
       -6.730880; 40.548302; 3.172050;,
       -7.390370; 39.033600; 2.184570;,
       -7.390370; 40.548302; 2.184570;,
       7.862190; 24.850901; 6.884740;,
       9.644360; 24.848600; 4.684580;,
       10.648750; 24.853701; 2.247800;,
       5.131900; 24.853500; 8.517730;,
       1.782840; 24.855301; 9.386560;,
       -1.781090; 24.855301; 9.386560;,
       -5.130150; 24.853500; 8.517730;,
       -7.860460; 24.850901; 6.884740;,
       -9.642570; 24.848600; 4.684540;,
       -10.647551; 24.853701; 2.247770;;
       480;
       3;0, 1, 2;,
       3;0, 3, 1;,
       3;4, 2, 5;,
       3;4, 0, 2;,
       3;6, 5, 7;,
       3;6, 4, 5;,
       3;8, 7, 9;,
       3;8, 6, 7;,
       3;10, 9, 11;,
       3;10, 8, 9;,
       3;12, 11, 13;,
       3;12, 10, 11;,
       3;14, 13, 15;,
       3;14, 12, 13;,
       3;16, 15, 17;,
       3;16, 14, 15;,
       3;18, 17, 19;,
       3;18, 16, 17;,
       3;20, 21, 22;,
       3;20, 23, 21;,
       3;3, 22, 1;,
       3;3, 20, 22;,
       3;24, 25, 26;,
       3;24, 27, 25;,
       3;28, 27, 24;,
       3;28, 29, 27;,
       3;30, 29, 28;,
       3;30, 31, 29;,
       3;32, 31, 30;,
       3;32, 33, 31;,
       3;34, 33, 32;,
       3;34, 35, 33;,
       3;36, 0, 37;,
       3;36, 3, 0;,
       3;38, 3, 36;,
       3;38, 20, 3;,
       3;37, 4, 39;,
       3;37, 0, 4;,
       3;39, 6, 40;,
       3;39, 4, 6;,
       3;40, 8, 41;,
       3;40, 6, 8;,
       3;41, 10, 42;,
       3;41, 8, 10;,
       3;42, 12, 43;,
       3;42, 10, 12;,
       3;43, 14, 44;,
       3;43, 12, 14;,
       3;44, 16, 45;,
       3;44, 14, 16;,
       3;45, 18, 46;,
       3;45, 16, 18;,
       3;47, 20, 38;,
       3;47, 23, 20;,
       3;48, 37, 49;,
       3;48, 36, 37;,
       3;50, 36, 48;,
       3;50, 38, 36;,
       3;49, 39, 51;,
       3;49, 37, 39;,
       3;52, 38, 50;,
       3;52, 47, 38;,
       3;51, 40, 53;,
       3;51, 39, 40;,
       3;53, 41, 54;,
       3;53, 40, 41;,
       3;54, 42, 55;,
       3;54, 41, 42;,
       3;55, 43, 56;,
       3;55, 42, 43;,
       3;56, 44, 57;,
       3;56, 43, 44;,
       3;57, 45, 58;,
       3;57, 44, 45;,
       3;58, 46, 59;,
       3;58, 45, 46;,
       3;60, 49, 61;,
       3;60, 48, 49;,
       3;62, 48, 60;,
       3;62, 50, 48;,
       3;61, 51, 63;,
       3;61, 49, 51;,
       3;64, 50, 62;,
       3;64, 52, 50;,
       3;63, 53, 65;,
       3;63, 51, 53;,
       3;65, 54, 66;,
       3;65, 53, 54;,
       3;66, 55, 67;,
       3;66, 54, 55;,
       3;67, 56, 68;,
       3;67, 55, 56;,
       3;68, 57, 69;,
       3;68, 56, 57;,
       3;69, 58, 70;,
       3;69, 57, 58;,
       3;70, 59, 71;,
       3;70, 58, 59;,
       3;72, 73, 74;,
       3;72, 75, 73;,
       3;76, 75, 72;,
       3;76, 77, 75;,
       3;74, 78, 79;,
       3;74, 73, 78;,
       3;80, 77, 76;,
       3;80, 81, 77;,
       3;79, 82, 83;,
       3;79, 78, 82;,
       3;83, 84, 85;,
       3;83, 82, 84;,
       3;86, 87, 88;,
       3;86, 89, 87;,
       3;85, 90, 91;,
       3;85, 84, 90;,
       3;92, 89, 86;,
       3;92, 93, 89;,
       3;91, 94, 95;,
       3;91, 90, 94;,
       3;95, 93, 92;,
       3;95, 94, 93;,
       3;96, 74, 97;,
       3;96, 72, 74;,
       3;98, 72, 96;,
       3;98, 76, 72;,
       3;97, 79, 99;,
       3;97, 74, 79;,
       3;100, 76, 98;,
       3;100, 80, 76;,
       3;99, 83, 101;,
       3;99, 79, 83;,
       3;101, 85, 102;,
       3;101, 83, 85;,
       3;103, 88, 104;,
       3;103, 86, 88;,
       3;102, 91, 105;,
       3;102, 85, 91;,
       3;106, 86, 103;,
       3;106, 92, 86;,
       3;105, 95, 107;,
       3;105, 91, 95;,
       3;107, 92, 106;,
       3;107, 95, 92;,
       3;108, 109, 110;,
       3;111, 112, 113;,
       3;114, 112, 111;,
       3;114, 115, 112;,
       3;116, 115, 114;,
       3;116, 117, 115;,
       3;118, 117, 116;,
       3;118, 119, 117;,
       3;120, 119, 118;,
       3;120, 121, 119;,
       3;122, 123, 124;,
       3;122, 125, 123;,
       3;124, 126, 127;,
       3;124, 123, 126;,
       3;127, 128, 129;,
       3;127, 126, 128;,
       3;130, 128, 131;,
       3;130, 129, 128;,
       3;132, 130, 131;,
       3;132, 133, 130;,
       3;134, 133, 132;,
       3;134, 135, 133;,
       3;136, 135, 134;,
       3;136, 137, 135;,
       3;138, 137, 136;,
       3;138, 139, 137;,
       3;140, 139, 138;,
       3;140, 141, 139;,
       3;142, 141, 140;,
       3;142, 143, 141;,
       3;144, 143, 142;,
       3;144, 145, 143;,
       3;146, 147, 148;,
       3;146, 149, 147;,
       3;148, 150, 151;,
       3;148, 147, 150;,
       3;151, 152, 153;,
       3;151, 150, 152;,
       3;153, 154, 155;,
       3;153, 152, 154;,
       3;155, 156, 157;,
       3;155, 154, 156;,
       3;157, 158, 159;,
       3;157, 156, 158;,
       3;159, 160, 161;,
       3;159, 158, 160;,
       3;161, 162, 163;,
       3;161, 160, 162;,
       3;163, 164, 165;,
       3;163, 162, 164;,
       3;165, 166, 167;,
       3;165, 164, 166;,
       3;167, 168, 169;,
       3;167, 166, 168;,
       3;170, 61, 171;,
       3;170, 60, 61;,
       3;73, 170, 171;,
       3;73, 75, 170;,
       3;172, 60, 170;,
       3;172, 62, 60;,
       3;75, 172, 170;,
       3;75, 77, 172;,
       3;171, 63, 173;,
       3;171, 61, 63;,
       3;78, 171, 173;,
       3;78, 73, 171;,
       3;174, 62, 172;,
       3;174, 64, 62;,
       3;77, 174, 172;,
       3;77, 81, 174;,
       3;173, 65, 175;,
       3;173, 63, 65;,
       3;82, 173, 175;,
       3;82, 78, 173;,
       3;175, 66, 176;,
       3;175, 65, 66;,
       3;84, 175, 176;,
       3;84, 82, 175;,
       3;176, 67, 177;,
       3;176, 66, 67;,
       3;90, 176, 177;,
       3;90, 84, 176;,
       3;177, 68, 178;,
       3;177, 67, 68;,
       3;94, 177, 178;,
       3;94, 90, 177;,
       3;178, 69, 179;,
       3;178, 68, 69;,
       3;93, 178, 179;,
       3;93, 94, 178;,
       3;89, 179, 180;,
       3;89, 93, 179;,
       3;180, 71, 181;,
       3;180, 70, 71;,
       3;87, 180, 181;,
       3;87, 89, 180;,
       3;179, 70, 180;,
       3;179, 69, 70;,
       3;182, 183, 184;,
       3;182, 185, 183;,
       3;185, 186, 183;,
       3;185, 187, 186;,
       3;187, 188, 186;,
       3;187, 189, 188;,
       3;189, 190, 188;,
       3;189, 191, 190;,
       3;191, 192, 190;,
       3;191, 193, 192;,
       3;193, 194, 192;,
       3;193, 195, 194;,
       3;195, 196, 194;,
       3;195, 197, 196;,
       3;197, 198, 196;,
       3;197, 199, 198;,
       3;199, 19, 198;,
       3;199, 18, 19;,
       3;23, 200, 21;,
       3;23, 201, 200;,
       3;201, 184, 200;,
       3;201, 182, 184;,
       3;202, 203, 204;,
       3;205, 24, 206;,
       3;207, 24, 205;,
       3;207, 28, 24;,
       3;208, 28, 207;,
       3;208, 209, 28;,
       3;210, 209, 208;,
       3;210, 211, 209;,
       3;212, 211, 210;,
       3;212, 213, 211;,
       3;182, 214, 185;,
       3;182, 215, 214;,
       3;201, 215, 182;,
       3;201, 216, 215;,
       3;185, 217, 187;,
       3;185, 214, 217;,
       3;187, 218, 189;,
       3;187, 217, 218;,
       3;189, 219, 191;,
       3;189, 218, 219;,
       3;191, 220, 193;,
       3;191, 219, 220;,
       3;193, 221, 195;,
       3;193, 220, 221;,
       3;195, 222, 197;,
       3;195, 221, 222;,
       3;197, 223, 199;,
       3;197, 222, 223;,
       3;199, 46, 18;,
       3;199, 223, 46;,
       3;23, 216, 201;,
       3;23, 47, 216;,
       3;215, 224, 214;,
       3;215, 225, 224;,
       3;216, 225, 215;,
       3;216, 226, 225;,
       3;214, 227, 217;,
       3;214, 224, 227;,
       3;47, 226, 216;,
       3;47, 52, 226;,
       3;217, 228, 218;,
       3;217, 227, 228;,
       3;218, 229, 219;,
       3;218, 228, 229;,
       3;219, 230, 220;,
       3;219, 229, 230;,
       3;220, 231, 221;,
       3;220, 230, 231;,
       3;221, 232, 222;,
       3;221, 231, 232;,
       3;222, 233, 223;,
       3;222, 232, 233;,
       3;223, 59, 46;,
       3;223, 233, 59;,
       3;225, 234, 224;,
       3;225, 235, 234;,
       3;226, 235, 225;,
       3;226, 236, 235;,
       3;224, 237, 227;,
       3;224, 234, 237;,
       3;52, 236, 226;,
       3;52, 64, 236;,
       3;227, 238, 228;,
       3;227, 237, 238;,
       3;228, 239, 229;,
       3;228, 238, 239;,
       3;229, 240, 230;,
       3;229, 239, 240;,
       3;230, 241, 231;,
       3;230, 240, 241;,
       3;231, 242, 232;,
       3;231, 241, 242;,
       3;232, 243, 233;,
       3;232, 242, 243;,
       3;233, 71, 59;,
       3;233, 243, 71;,
       3;244, 245, 246;,
       3;244, 247, 245;,
       3;248, 247, 244;,
       3;248, 249, 247;,
       3;246, 250, 251;,
       3;246, 245, 250;,
       3;81, 249, 248;,
       3;81, 80, 249;,
       3;251, 252, 253;,
       3;251, 250, 252;,
       3;253, 254, 255;,
       3;253, 252, 254;,
       3;256, 88, 87;,
       3;256, 257, 88;,
       3;255, 258, 259;,
       3;255, 254, 258;,
       3;260, 257, 256;,
       3;260, 261, 257;,
       3;259, 262, 263;,
       3;259, 258, 262;,
       3;263, 261, 260;,
       3;263, 262, 261;,
       3;247, 264, 245;,
       3;247, 265, 264;,
       3;249, 265, 247;,
       3;249, 266, 265;,
       3;245, 267, 250;,
       3;245, 264, 267;,
       3;80, 266, 249;,
       3;80, 100, 266;,
       3;250, 268, 252;,
       3;250, 267, 268;,
       3;252, 269, 254;,
       3;252, 268, 269;,
       3;257, 104, 88;,
       3;257, 270, 104;,
       3;254, 271, 258;,
       3;254, 269, 271;,
       3;261, 270, 257;,
       3;261, 272, 270;,
       3;258, 273, 262;,
       3;258, 271, 273;,
       3;262, 272, 261;,
       3;262, 273, 272;,
       3;112, 274, 113;,
       3;112, 275, 274;,
       3;276, 275, 112;,
       3;276, 277, 275;,
       3;278, 277, 276;,
       3;278, 279, 277;,
       3;280, 279, 278;,
       3;280, 281, 279;,
       3;282, 281, 280;,
       3;282, 283, 281;,
       3;125, 284, 285;,
       3;125, 122, 284;,
       3;285, 286, 287;,
       3;285, 284, 286;,
       3;287, 288, 289;,
       3;287, 286, 288;,
       3;288, 290, 289;,
       3;288, 291, 290;,
       3;292, 290, 291;,
       3;292, 293, 290;,
       3;294, 293, 292;,
       3;294, 295, 293;,
       3;296, 295, 294;,
       3;296, 297, 295;,
       3;298, 297, 296;,
       3;298, 299, 297;,
       3;300, 299, 298;,
       3;300, 301, 299;,
       3;302, 301, 300;,
       3;302, 303, 301;,
       3;145, 303, 302;,
       3;145, 144, 303;,
       3;149, 304, 305;,
       3;149, 146, 304;,
       3;305, 306, 307;,
       3;305, 304, 306;,
       3;307, 308, 309;,
       3;307, 306, 308;,
       3;309, 310, 311;,
       3;309, 308, 310;,
       3;311, 312, 313;,
       3;311, 310, 312;,
       3;313, 314, 315;,
       3;313, 312, 314;,
       3;315, 316, 317;,
       3;315, 314, 316;,
       3;317, 318, 319;,
       3;317, 316, 318;,
       3;319, 320, 321;,
       3;319, 318, 320;,
       3;321, 322, 323;,
       3;321, 320, 322;,
       3;323, 169, 168;,
       3;323, 322, 169;,
       3;235, 324, 234;,
       3;235, 325, 324;,
       3;244, 324, 325;,
       3;244, 246, 324;,
       3;236, 325, 235;,
       3;236, 326, 325;,
       3;248, 325, 326;,
       3;248, 244, 325;,
       3;234, 327, 237;,
       3;234, 324, 327;,
       3;246, 327, 324;,
       3;246, 251, 327;,
       3;64, 326, 236;,
       3;64, 174, 326;,
       3;81, 326, 174;,
       3;81, 248, 326;,
       3;237, 328, 238;,
       3;237, 327, 328;,
       3;251, 328, 327;,
       3;251, 253, 328;,
       3;238, 329, 239;,
       3;238, 328, 329;,
       3;253, 329, 328;,
       3;253, 255, 329;,
       3;239, 330, 240;,
       3;239, 329, 330;,
       3;255, 330, 329;,
       3;255, 259, 330;,
       3;240, 331, 241;,
       3;240, 330, 331;,
       3;259, 331, 330;,
       3;259, 263, 331;,
       3;241, 332, 242;,
       3;241, 331, 332;,
       3;263, 332, 331;,
       3;263, 260, 332;,
       3;260, 333, 332;,
       3;260, 256, 333;,
       3;243, 181, 71;,
       3;243, 333, 181;,
       3;256, 181, 333;,
       3;256, 87, 181;,
       3;242, 333, 243;,
       3;242, 332, 333;;

      MeshNormals {
       334;
       0.718187; -0.103641; -0.688089;,
       0.822160; -0.129696; -0.554284;,
       0.648125; -0.116991; -0.752494;,
       0.870779; -0.104599; -0.480419;,
       0.452876; -0.086808; -0.887337;,
       0.377450; -0.100646; -0.920544;,
       0.180730; -0.072996; -0.980820;,
       0.096678; -0.091671; -0.991085;,
       -0.089070; -0.069631; -0.993588;,
       -0.185493; -0.095623; -0.977982;,
       -0.360830; -0.078099; -0.929356;,
       -0.466734; -0.110649; -0.877449;,
       -0.632099; -0.094080; -0.769156;,
       -0.731838; -0.127305; -0.669482;,
       -0.839522; -0.106866; -0.532712;,
       -0.865441; -0.121261; -0.486115;,
       -0.942106; -0.098793; -0.320431;,
       -0.963098; -0.110514; -0.245415;,
       -0.994311; -0.099639; -0.037652;,
       -0.992454; -0.114874; 0.042875;,
       0.971944; -0.096528; -0.214491;,
       0.992463; -0.114875; -0.042673;,
       0.933843; -0.118094; -0.337626;,
       0.994319; -0.099626; 0.037471;,
       0.000000; -1.000000; 0.000000;,
       0.000000; -1.000000; 0.000000;,
       0.000000; -1.000000; 0.000000;,
       0.000000; -1.000000; 0.000000;,
       0.000000; -1.000000; 0.000000;,
       0.000000; -1.000000; 0.000000;,
       0.000000; -1.000000; 0.000000;,
       0.000000; -1.000000; 0.000000;,
       0.000000; -1.000000; 0.000000;,
       0.000000; -1.000000; 0.000000;,
       0.000000; -1.000000; 0.000000;,
       0.000000; -1.000000; 0.000000;,
       0.863039; -0.073646; -0.499740;,
       0.663965; -0.061970; -0.745191;,
       0.962974; -0.074022; -0.259234;,
       0.393951; -0.046051; -0.917977;,
       0.128660; -0.036453; -0.991019;,
       -0.131465; -0.036674; -0.990642;,
       -0.395966; -0.046569; -0.917084;,
       -0.664234; -0.062284; -0.744925;,
       -0.858398; -0.072013; -0.507904;,
       -0.964807; -0.073103; -0.252593;,
       -0.997108; -0.075996; 0.000788;,
       0.997108; -0.075988; -0.000770;,
       0.861543; -0.029740; -0.506813;,
       0.654247; -0.022205; -0.755955;,
       0.965883; -0.032119; -0.256980;,
       0.384859; -0.014884; -0.922855;,
       0.999427; -0.033815; -0.001433;,
       0.125525; -0.011353; -0.992025;,
       -0.127112; -0.012592; -0.991808;,
       -0.385990; -0.018249; -0.922322;,
       -0.654353; -0.026459; -0.755726;,
       -0.859292; -0.031322; -0.510525;,
       -0.966798; -0.032789; -0.253431;,
       -0.999427; -0.033809; 0.001450;,
       0.859146; 0.036820; -0.510405;,
       0.652240; 0.036501; -0.757133;,
       0.966096; 0.033976; -0.255938;,
       0.383761; 0.030396; -0.922932;,
       0.999382; 0.035063; -0.002566;,
       0.125810; 0.025622; -0.991723;,
       -0.125515; 0.024479; -0.991790;,
       -0.383614; 0.027404; -0.923087;,
       -0.652374; 0.033082; -0.757175;,
       -0.860019; 0.037798; -0.508861;,
       -0.966286; 0.034925; -0.255091;,
       -0.999382; 0.035061; 0.002576;,
       0.824361; 0.198078; -0.530277;,
       0.711139; 0.103750; -0.695354;,
       0.687614; 0.179037; -0.703657;,
       0.869388; 0.108408; -0.482092;,
       0.939899; 0.199410; -0.277175;,
       0.969399; 0.104641; -0.222072;,
       0.445453; 0.082785; -0.891470;,
       0.426461; 0.138040; -0.893911;,
       0.978764; 0.204919; -0.005404;,
       0.993385; 0.108171; 0.038535;,
       0.176921; 0.066584; -0.981970;,
       0.146503; 0.109043; -0.983182;,
       -0.087601; 0.062778; -0.994176;,
       -0.138113; 0.106535; -0.984670;,
       -0.932987; 0.196936; -0.301250;,
       -0.993379; 0.108167; -0.038710;,
       -0.978768; 0.204881; 0.006035;,
       -0.941408; 0.105845; -0.320231;,
       -0.354777; 0.072797; -0.932113;,
       -0.421808; 0.131796; -0.897055;,
       -0.844867; 0.197893; -0.497030;,
       -0.832012; 0.109412; -0.543861;,
       -0.624548; 0.092317; -0.775511;,
       -0.689148; 0.172401; -0.703813;,
       0.805861; 0.251526; -0.536025;,
       0.664801; 0.209265; -0.717111;,
       0.896303; 0.255389; -0.362514;,
       0.399504; 0.158331; -0.902955;,
       0.964214; 0.262602; -0.036498;,
       0.104363; 0.130940; -0.985882;,
       -0.197915; 0.141818; -0.969906;,
       -0.934629; 0.252293; -0.250631;,
       -0.964137; 0.262509; 0.039099;,
       -0.488590; 0.185767; -0.852508;,
       -0.830836; 0.249234; -0.497589;,
       -0.740173; 0.238871; -0.628557;,
       0.000000; 1.000000; 0.000000;,
       0.000000; 1.000000; 0.000000;,
       0.000000; 1.000000; 0.000000;,
       0.000000; 1.000000; 0.000000;,
       0.000000; 1.000000; 0.000000;,
       0.000000; 1.000000; 0.000000;,
       0.000000; 1.000000; 0.000000;,
       0.000000; 1.000000; 0.000000;,
       0.000000; 1.000000; 0.000000;,
       0.000000; 1.000000; 0.000000;,
       0.000000; 1.000000; 0.000000;,
       0.000000; 1.000000; 0.000000;,
       0.000000; 1.000000; 0.000000;,
       0.000000; 1.000000; 0.000000;,
       0.000000; 1.000000; 0.000000;,
       0.000000; 1.000000; 0.000000;,
       0.000000; 1.000000; 0.000000;,
       0.000000; 1.000000; 0.000000;,
       0.000000; 1.000000; 0.000000;,
       0.000000; 1.000000; 0.000000;,
       0.000000; 1.000000; 0.000000;,
       0.000000; 1.000000; 0.000000;,
       0.000000; 1.000000; 0.000000;,
       0.000000; 1.000000; 0.000000;,
       0.000000; 1.000000; 0.000000;,
       0.000000; 1.000000; 0.000000;,
       0.000000; 1.000000; 0.000000;,
       0.000000; 1.000000; 0.000000;,
       0.000000; 1.000000; 0.000000;,
       0.000000; 1.000000; 0.000000;,
       0.000000; 1.000000; 0.000000;,
       0.000000; 1.000000; 0.000000;,
       0.000000; 1.000000; 0.000000;,
       0.000000; 1.000000; 0.000000;,
       0.000000; 1.000000; 0.000000;,
       0.000000; 1.000000; 0.000000;,
       0.000000; 1.000000; 0.000000;,
       0.000000; 1.000000; 0.000000;,
       -0.999718; 0.000000; 0.023767;,
       -0.970436; 0.000000; 0.241357;,
       -0.913609; 0.000000; 0.406593;,
       -0.999647; 0.000000; -0.026551;,
       -0.835449; 0.000000; 0.549568;,
       -0.839099; 0.000000; 0.543979;,
       -0.773927; 0.000000; 0.633275;,
       -0.693320; 0.000000; 0.720629;,
       -0.513206; 0.000000; 0.858265;,
       -0.414751; 0.000000; 0.909935;,
       -0.210661; 0.000000; 0.977559;,
       -0.105331; 0.000000; 0.994437;,
       0.105331; 0.000000; 0.994437;,
       0.210661; 0.000000; 0.977559;,
       0.414752; 0.000000; 0.909935;,
       0.513208; 0.000000; 0.858265;,
       0.693319; 0.000000; 0.720631;,
       0.773923; 0.000000; 0.633280;,
       0.839040; 0.000000; 0.544070;,
       0.835337; 0.000000; 0.549739;,
       0.913450; 0.000000; 0.406951;,
       0.970087; -0.001419; 0.242755;,
       0.999690; 0.000000; 0.024891;,
       0.999690; 0.000000; -0.024891;,
       0.833112; 0.075416; -0.547939;,
       0.610213; 0.066033; -0.789480;,
       0.950126; 0.069668; -0.303985;,
       0.342405; 0.054746; -0.937956;,
       0.996534; 0.069988; -0.044972;,
       0.084216; 0.048912; -0.995246;,
       -0.169785; 0.051201; -0.984150;,
       -0.431271; 0.060758; -0.900175;,
       -0.698788; 0.072879; -0.711606;,
       -0.878967; 0.073453; -0.471192;,
       -0.974743; 0.067862; -0.212768;,
       -0.996527; 0.069989; 0.045110;,
       0.839553; -0.106864; 0.532665;,
       0.731837; -0.127308; 0.669483;,
       0.865503; -0.121268; 0.486002;,
       0.632097; -0.094080; 0.769157;,
       0.466736; -0.110649; 0.877447;,
       0.360830; -0.078099; 0.929356;,
       0.185492; -0.095623; 0.977982;,
       0.089070; -0.069631; 0.993589;,
       -0.096678; -0.091671; 0.991085;,
       -0.180730; -0.072995; 0.980820;,
       -0.377449; -0.100647; 0.920545;,
       -0.452874; -0.086808; 0.887338;,
       -0.648123; -0.116991; 0.752496;,
       -0.718193; -0.103643; 0.688083;,
       -0.822129; -0.129691; 0.554332;,
       -0.870722; -0.104604; 0.480521;,
       -0.933736; -0.118084; 0.337925;,
       -0.971847; -0.096532; 0.214929;,
       0.963206; -0.110526; 0.244987;,
       0.942207; -0.098789; 0.320137;,
       0.000000; -1.000000; 0.000000;,
       0.000000; -1.000000; 0.000000;,
       0.000000; -1.000000; 0.000000;,
       0.000000; -1.000000; 0.000000;,
       0.000000; -1.000000; 0.000000;,
       0.000000; -1.000000; 0.000000;,
       0.000000; -1.000000; 0.000000;,
       0.000000; -1.000000; 0.000000;,
       0.000000; -1.000000; 0.000000;,
       0.000000; -1.000000; 0.000000;,
       0.000000; -1.000000; 0.000000;,
       0.000000; -1.000000; 0.000000;,
       0.664232; -0.062280; 0.744927;,
       0.858443; -0.072010; 0.507828;,
       0.964903; -0.073098; 0.252229;,
       0.395970; -0.046567; 0.917082;,
       0.131464; -0.036674; 0.990642;,
       -0.128663; -0.036451; 0.991018;,
       -0.393946; -0.046047; 0.917979;,
       -0.663969; -0.061968; 0.745188;,
       -0.862994; -0.073647; 0.499817;,
       -0.962876; -0.074025; 0.259596;,
       0.654342; -0.026461; 0.755736;,
       0.859336; -0.031327; 0.510450;,
       0.966891; -0.032795; 0.253075;,
       0.385995; -0.018246; 0.922320;,
       0.127118; -0.012590; 0.991808;,
       -0.125534; -0.011353; 0.992024;,
       -0.384854; -0.014881; 0.922857;,
       -0.654252; -0.022203; 0.755951;,
       -0.861498; -0.029736; 0.506890;,
       -0.965789; -0.032115; 0.257334;,
       0.652362; 0.033074; 0.757186;,
       0.860065; 0.037798; 0.508783;,
       0.966378; 0.034928; 0.254742;,
       0.383611; 0.027398; 0.923088;,
       0.125523; 0.024500; 0.991788;,
       -0.125813; 0.025629; 0.991723;,
       -0.383765; 0.030389; 0.922931;,
       -0.652240; 0.036514; 0.757132;,
       -0.859101; 0.036820; 0.510480;,
       -0.966009; 0.033972; 0.256267;,
       0.832040; 0.109415; 0.543817;,
       0.689153; 0.172397; 0.703810;,
       0.624547; 0.092316; 0.775512;,
       0.844920; 0.197893; 0.496940;,
       0.941507; 0.105854; 0.319938;,
       0.933104; 0.196961; 0.300870;,
       0.421808; 0.131793; 0.897055;,
       0.354772; 0.072795; 0.932115;,
       0.138114; 0.106530; 0.984670;,
       0.087601; 0.062772; 0.994176;,
       -0.146503; 0.109038; 0.983182;,
       -0.176919; 0.066581; 0.981971;,
       -0.969310; 0.104630; 0.222464;,
       -0.939715; 0.198967; 0.278113;,
       -0.426469; 0.138034; 0.893908;,
       -0.445451; 0.082786; 0.891471;,
       -0.869328; 0.108403; 0.482201;,
       -0.824291; 0.198079; 0.530386;,
       -0.687611; 0.179039; 0.703659;,
       -0.711133; 0.103751; 0.695360;,
       0.740178; 0.238861; 0.628555;,
       0.830923; 0.249240; 0.497440;,
       0.934633; 0.251549; 0.251366;,
       0.488590; 0.185763; 0.852509;,
       0.197915; 0.141818; 0.969906;,
       -0.104363; 0.130940; 0.985882;,
       -0.895771; 0.255257; 0.363920;,
       -0.399507; 0.158331; 0.902954;,
       -0.805803; 0.251527; 0.536112;,
       -0.664808; 0.209260; 0.717105;,
       0.000000; 1.000000; 0.000000;,
       0.000000; 1.000000; 0.000000;,
       0.000000; 1.000000; 0.000000;,
       0.000000; 1.000000; 0.000000;,
       0.000000; 1.000000; 0.000000;,
       0.000000; 1.000000; 0.000000;,
       0.000000; 1.000000; 0.000000;,
       0.000000; 1.000000; 0.000000;,
       0.000000; 1.000000; 0.000000;,
       0.000000; 1.000000; 0.000000;,
       0.000000; 1.000000; 0.000000;,
       0.000000; 1.000000; 0.000000;,
       0.000000; 1.000000; 0.000000;,
       0.000000; 1.000000; 0.000000;,
       0.000000; 1.000000; 0.000000;,
       0.000000; 1.000000; 0.000000;,
       0.000000; 1.000000; 0.000000;,
       0.000000; 1.000000; 0.000000;,
       0.000000; 1.000000; 0.000000;,
       0.000000; 1.000000; 0.000000;,
       0.000000; 1.000000; 0.000000;,
       0.000000; 1.000000; 0.000000;,
       0.000000; 1.000000; 0.000000;,
       0.000000; 1.000000; 0.000000;,
       0.000000; 1.000000; 0.000000;,
       0.000000; 1.000000; 0.000000;,
       0.000000; 1.000000; 0.000000;,
       0.000000; 1.000000; 0.000000;,
       0.000000; 1.000000; 0.000000;,
       0.000000; 1.000000; 0.000000;,
       -0.969980; 0.000000; -0.243186;,
       -0.913243; 0.000000; -0.407416;,
       -0.835449; 0.000000; -0.549569;,
       -0.839098; 0.000000; -0.543981;,
       -0.773928; 0.000000; -0.633273;,
       -0.693325; 0.000000; -0.720625;,
       -0.513212; 0.000000; -0.858262;,
       -0.414754; 0.000000; -0.909934;,
       -0.210661; 0.000000; -0.977559;,
       -0.105331; 0.000000; -0.994437;,
       0.105331; 0.000000; -0.994437;,
       0.210661; 0.000000; -0.977559;,
       0.414755; 0.000000; -0.909933;,
       0.513213; 0.000000; -0.858261;,
       0.693324; 0.000000; -0.720626;,
       0.773924; 0.000000; -0.633278;,
       0.839039; 0.000000; -0.544071;,
       0.835336; 0.000000; -0.549739;,
       0.913450; 0.000000; -0.406951;,
       0.970087; 0.001419; -0.242755;,
       0.698781; 0.072880; 0.711614;,
       0.879025; 0.073457; 0.471083;,
       0.974833; 0.067864; 0.212355;,
       0.431264; 0.060746; 0.900179;,
       0.169783; 0.051209; 0.984150;,
       -0.084210; 0.048933; 0.995246;,
       -0.342407; 0.054743; 0.937956;,
       -0.610214; 0.066038; 0.789479;,
       -0.833079; 0.075417; 0.547988;,
       -0.950050; 0.069669; 0.304222;;
       480;
       3;0, 1, 2;,
       3;0, 3, 1;,
       3;4, 2, 5;,
       3;4, 0, 2;,
       3;6, 5, 7;,
       3;6, 4, 5;,
       3;8, 7, 9;,
       3;8, 6, 7;,
       3;10, 9, 11;,
       3;10, 8, 9;,
       3;12, 11, 13;,
       3;12, 10, 11;,
       3;14, 13, 15;,
       3;14, 12, 13;,
       3;16, 15, 17;,
       3;16, 14, 15;,
       3;18, 17, 19;,
       3;18, 16, 17;,
       3;20, 21, 22;,
       3;20, 23, 21;,
       3;3, 22, 1;,
       3;3, 20, 22;,
       3;24, 25, 26;,
       3;24, 27, 25;,
       3;28, 27, 24;,
       3;28, 29, 27;,
       3;30, 29, 28;,
       3;30, 31, 29;,
       3;32, 31, 30;,
       3;32, 33, 31;,
       3;34, 33, 32;,
       3;34, 35, 33;,
       3;36, 0, 37;,
       3;36, 3, 0;,
       3;38, 3, 36;,
       3;38, 20, 3;,
       3;37, 4, 39;,
       3;37, 0, 4;,
       3;39, 6, 40;,
       3;39, 4, 6;,
       3;40, 8, 41;,
       3;40, 6, 8;,
       3;41, 10, 42;,
       3;41, 8, 10;,
       3;42, 12, 43;,
       3;42, 10, 12;,
       3;43, 14, 44;,
       3;43, 12, 14;,
       3;44, 16, 45;,
       3;44, 14, 16;,
       3;45, 18, 46;,
       3;45, 16, 18;,
       3;47, 20, 38;,
       3;47, 23, 20;,
       3;48, 37, 49;,
       3;48, 36, 37;,
       3;50, 36, 48;,
       3;50, 38, 36;,
       3;49, 39, 51;,
       3;49, 37, 39;,
       3;52, 38, 50;,
       3;52, 47, 38;,
       3;51, 40, 53;,
       3;51, 39, 40;,
       3;53, 41, 54;,
       3;53, 40, 41;,
       3;54, 42, 55;,
       3;54, 41, 42;,
       3;55, 43, 56;,
       3;55, 42, 43;,
       3;56, 44, 57;,
       3;56, 43, 44;,
       3;57, 45, 58;,
       3;57, 44, 45;,
       3;58, 46, 59;,
       3;58, 45, 46;,
       3;60, 49, 61;,
       3;60, 48, 49;,
       3;62, 48, 60;,
       3;62, 50, 48;,
       3;61, 51, 63;,
       3;61, 49, 51;,
       3;64, 50, 62;,
       3;64, 52, 50;,
       3;63, 53, 65;,
       3;63, 51, 53;,
       3;65, 54, 66;,
       3;65, 53, 54;,
       3;66, 55, 67;,
       3;66, 54, 55;,
       3;67, 56, 68;,
       3;67, 55, 56;,
       3;68, 57, 69;,
       3;68, 56, 57;,
       3;69, 58, 70;,
       3;69, 57, 58;,
       3;70, 59, 71;,
       3;70, 58, 59;,
       3;72, 73, 74;,
       3;72, 75, 73;,
       3;76, 75, 72;,
       3;76, 77, 75;,
       3;74, 78, 79;,
       3;74, 73, 78;,
       3;80, 77, 76;,
       3;80, 81, 77;,
       3;79, 82, 83;,
       3;79, 78, 82;,
       3;83, 84, 85;,
       3;83, 82, 84;,
       3;86, 87, 88;,
       3;86, 89, 87;,
       3;85, 90, 91;,
       3;85, 84, 90;,
       3;92, 89, 86;,
       3;92, 93, 89;,
       3;91, 94, 95;,
       3;91, 90, 94;,
       3;95, 93, 92;,
       3;95, 94, 93;,
       3;96, 74, 97;,
       3;96, 72, 74;,
       3;98, 72, 96;,
       3;98, 76, 72;,
       3;97, 79, 99;,
       3;97, 74, 79;,
       3;100, 76, 98;,
       3;100, 80, 76;,
       3;99, 83, 101;,
       3;99, 79, 83;,
       3;101, 85, 102;,
       3;101, 83, 85;,
       3;103, 88, 104;,
       3;103, 86, 88;,
       3;102, 91, 105;,
       3;102, 85, 91;,
       3;106, 86, 103;,
       3;106, 92, 86;,
       3;105, 95, 107;,
       3;105, 91, 95;,
       3;107, 92, 106;,
       3;107, 95, 92;,
       3;108, 109, 110;,
       3;111, 112, 113;,
       3;114, 112, 111;,
       3;114, 115, 112;,
       3;116, 115, 114;,
       3;116, 117, 115;,
       3;118, 117, 116;,
       3;118, 119, 117;,
       3;120, 119, 118;,
       3;120, 121, 119;,
       3;122, 123, 124;,
       3;122, 125, 123;,
       3;124, 126, 127;,
       3;124, 123, 126;,
       3;127, 128, 129;,
       3;127, 126, 128;,
       3;130, 128, 131;,
       3;130, 129, 128;,
       3;132, 130, 131;,
       3;132, 133, 130;,
       3;134, 133, 132;,
       3;134, 135, 133;,
       3;136, 135, 134;,
       3;136, 137, 135;,
       3;138, 137, 136;,
       3;138, 139, 137;,
       3;140, 139, 138;,
       3;140, 141, 139;,
       3;142, 141, 140;,
       3;142, 143, 141;,
       3;144, 143, 142;,
       3;144, 145, 143;,
       3;146, 147, 148;,
       3;146, 149, 147;,
       3;148, 150, 151;,
       3;148, 147, 150;,
       3;151, 152, 153;,
       3;151, 150, 152;,
       3;153, 154, 155;,
       3;153, 152, 154;,
       3;155, 156, 157;,
       3;155, 154, 156;,
       3;157, 158, 159;,
       3;157, 156, 158;,
       3;159, 160, 161;,
       3;159, 158, 160;,
       3;161, 162, 163;,
       3;161, 160, 162;,
       3;163, 164, 165;,
       3;163, 162, 164;,
       3;165, 166, 167;,
       3;165, 164, 166;,
       3;167, 168, 169;,
       3;167, 166, 168;,
       3;170, 61, 171;,
       3;170, 60, 61;,
       3;73, 170, 171;,
       3;73, 75, 170;,
       3;172, 60, 170;,
       3;172, 62, 60;,
       3;75, 172, 170;,
       3;75, 77, 172;,
       3;171, 63, 173;,
       3;171, 61, 63;,
       3;78, 171, 173;,
       3;78, 73, 171;,
       3;174, 62, 172;,
       3;174, 64, 62;,
       3;77, 174, 172;,
       3;77, 81, 174;,
       3;173, 65, 175;,
       3;173, 63, 65;,
       3;82, 173, 175;,
       3;82, 78, 173;,
       3;175, 66, 176;,
       3;175, 65, 66;,
       3;84, 175, 176;,
       3;84, 82, 175;,
       3;176, 67, 177;,
       3;176, 66, 67;,
       3;90, 176, 177;,
       3;90, 84, 176;,
       3;177, 68, 178;,
       3;177, 67, 68;,
       3;94, 177, 178;,
       3;94, 90, 177;,
       3;178, 69, 179;,
       3;178, 68, 69;,
       3;93, 178, 179;,
       3;93, 94, 178;,
       3;89, 179, 180;,
       3;89, 93, 179;,
       3;180, 71, 181;,
       3;180, 70, 71;,
       3;87, 180, 181;,
       3;87, 89, 180;,
       3;179, 70, 180;,
       3;179, 69, 70;,
       3;182, 183, 184;,
       3;182, 185, 183;,
       3;185, 186, 183;,
       3;185, 187, 186;,
       3;187, 188, 186;,
       3;187, 189, 188;,
       3;189, 190, 188;,
       3;189, 191, 190;,
       3;191, 192, 190;,
       3;191, 193, 192;,
       3;193, 194, 192;,
       3;193, 195, 194;,
       3;195, 196, 194;,
       3;195, 197, 196;,
       3;197, 198, 196;,
       3;197, 199, 198;,
       3;199, 19, 198;,
       3;199, 18, 19;,
       3;23, 200, 21;,
       3;23, 201, 200;,
       3;201, 184, 200;,
       3;201, 182, 184;,
       3;202, 203, 204;,
       3;205, 24, 206;,
       3;207, 24, 205;,
       3;207, 28, 24;,
       3;208, 28, 207;,
       3;208, 209, 28;,
       3;210, 209, 208;,
       3;210, 211, 209;,
       3;212, 211, 210;,
       3;212, 213, 211;,
       3;182, 214, 185;,
       3;182, 215, 214;,
       3;201, 215, 182;,
       3;201, 216, 215;,
       3;185, 217, 187;,
       3;185, 214, 217;,
       3;187, 218, 189;,
       3;187, 217, 218;,
       3;189, 219, 191;,
       3;189, 218, 219;,
       3;191, 220, 193;,
       3;191, 219, 220;,
       3;193, 221, 195;,
       3;193, 220, 221;,
       3;195, 222, 197;,
       3;195, 221, 222;,
       3;197, 223, 199;,
       3;197, 222, 223;,
       3;199, 46, 18;,
       3;199, 223, 46;,
       3;23, 216, 201;,
       3;23, 47, 216;,
       3;215, 224, 214;,
       3;215, 225, 224;,
       3;216, 225, 215;,
       3;216, 226, 225;,
       3;214, 227, 217;,
       3;214, 224, 227;,
       3;47, 226, 216;,
       3;47, 52, 226;,
       3;217, 228, 218;,
       3;217, 227, 228;,
       3;218, 229, 219;,
       3;218, 228, 229;,
       3;219, 230, 220;,
       3;219, 229, 230;,
       3;220, 231, 221;,
       3;220, 230, 231;,
       3;221, 232, 222;,
       3;221, 231, 232;,
       3;222, 233, 223;,
       3;222, 232, 233;,
       3;223, 59, 46;,
       3;223, 233, 59;,
       3;225, 234, 224;,
       3;225, 235, 234;,
       3;226, 235, 225;,
       3;226, 236, 235;,
       3;224, 237, 227;,
       3;224, 234, 237;,
       3;52, 236, 226;,
       3;52, 64, 236;,
       3;227, 238, 228;,
       3;227, 237, 238;,
       3;228, 239, 229;,
       3;228, 238, 239;,
       3;229, 240, 230;,
       3;229, 239, 240;,
       3;230, 241, 231;,
       3;230, 240, 241;,
       3;231, 242, 232;,
       3;231, 241, 242;,
       3;232, 243, 233;,
       3;232, 242, 243;,
       3;233, 71, 59;,
       3;233, 243, 71;,
       3;244, 245, 246;,
       3;244, 247, 245;,
       3;248, 247, 244;,
       3;248, 249, 247;,
       3;246, 250, 251;,
       3;246, 245, 250;,
       3;81, 249, 248;,
       3;81, 80, 249;,
       3;251, 252, 253;,
       3;251, 250, 252;,
       3;253, 254, 255;,
       3;253, 252, 254;,
       3;256, 88, 87;,
       3;256, 257, 88;,
       3;255, 258, 259;,
       3;255, 254, 258;,
       3;260, 257, 256;,
       3;260, 261, 257;,
       3;259, 262, 263;,
       3;259, 258, 262;,
       3;263, 261, 260;,
       3;263, 262, 261;,
       3;247, 264, 245;,
       3;247, 265, 264;,
       3;249, 265, 247;,
       3;249, 266, 265;,
       3;245, 267, 250;,
       3;245, 264, 267;,
       3;80, 266, 249;,
       3;80, 100, 266;,
       3;250, 268, 252;,
       3;250, 267, 268;,
       3;252, 269, 254;,
       3;252, 268, 269;,
       3;257, 104, 88;,
       3;257, 270, 104;,
       3;254, 271, 258;,
       3;254, 269, 271;,
       3;261, 270, 257;,
       3;261, 272, 270;,
       3;258, 273, 262;,
       3;258, 271, 273;,
       3;262, 272, 261;,
       3;262, 273, 272;,
       3;112, 274, 113;,
       3;112, 275, 274;,
       3;276, 275, 112;,
       3;276, 277, 275;,
       3;278, 277, 276;,
       3;278, 279, 277;,
       3;280, 279, 278;,
       3;280, 281, 279;,
       3;282, 281, 280;,
       3;282, 283, 281;,
       3;125, 284, 285;,
       3;125, 122, 284;,
       3;285, 286, 287;,
       3;285, 284, 286;,
       3;287, 288, 289;,
       3;287, 286, 288;,
       3;288, 290, 289;,
       3;288, 291, 290;,
       3;292, 290, 291;,
       3;292, 293, 290;,
       3;294, 293, 292;,
       3;294, 295, 293;,
       3;296, 295, 294;,
       3;296, 297, 295;,
       3;298, 297, 296;,
       3;298, 299, 297;,
       3;300, 299, 298;,
       3;300, 301, 299;,
       3;302, 301, 300;,
       3;302, 303, 301;,
       3;145, 303, 302;,
       3;145, 144, 303;,
       3;149, 304, 305;,
       3;149, 146, 304;,
       3;305, 306, 307;,
       3;305, 304, 306;,
       3;307, 308, 309;,
       3;307, 306, 308;,
       3;309, 310, 311;,
       3;309, 308, 310;,
       3;311, 312, 313;,
       3;311, 310, 312;,
       3;313, 314, 315;,
       3;313, 312, 314;,
       3;315, 316, 317;,
       3;315, 314, 316;,
       3;317, 318, 319;,
       3;317, 316, 318;,
       3;319, 320, 321;,
       3;319, 318, 320;,
       3;321, 322, 323;,
       3;321, 320, 322;,
       3;323, 169, 168;,
       3;323, 322, 169;,
       3;235, 324, 234;,
       3;235, 325, 324;,
       3;244, 324, 325;,
       3;244, 246, 324;,
       3;236, 325, 235;,
       3;236, 326, 325;,
       3;248, 325, 326;,
       3;248, 244, 325;,
       3;234, 327, 237;,
       3;234, 324, 327;,
       3;246, 327, 324;,
       3;246, 251, 327;,
       3;64, 326, 236;,
       3;64, 174, 326;,
       3;81, 326, 174;,
       3;81, 248, 326;,
       3;237, 328, 238;,
       3;237, 327, 328;,
       3;251, 328, 327;,
       3;251, 253, 328;,
       3;238, 329, 239;,
       3;238, 328, 329;,
       3;253, 329, 328;,
       3;253, 255, 329;,
       3;239, 330, 240;,
       3;239, 329, 330;,
       3;255, 330, 329;,
       3;255, 259, 330;,
       3;240, 331, 241;,
       3;240, 330, 331;,
       3;259, 331, 330;,
       3;259, 263, 331;,
       3;241, 332, 242;,
       3;241, 331, 332;,
       3;263, 332, 331;,
       3;263, 260, 332;,
       3;260, 333, 332;,
       3;260, 256, 333;,
       3;243, 181, 71;,
       3;243, 333, 181;,
       3;256, 181, 333;,
       3;256, 87, 181;,
       3;242, 333, 243;,
       3;242, 332, 333;;
      }

      MeshTextureCoords {
       334;
       0.626855; 0.550962;,
       0.641526; 0.655048;,
       0.610606; 0.661341;,
       0.661458; 0.544669;,
       0.574178; 0.557255;,
       0.563572; 0.662389;,
       0.527767; 0.560401;,
       0.524083; 0.664487;,
       0.462244; 0.560401;,
       0.465928; 0.664487;,
       0.389655; 0.550962;,
       0.400260; 0.662389;,
       0.335751; 0.547816;,
       0.351999; 0.661341;,
       0.308514; 0.544669;,
       0.328447; 0.657146;,
       0.277550; 0.540474;,
       0.298761; 0.651902;,
       0.236071; 0.534182;,
       0.256003; 0.638268;,
       0.685055; 0.536279;,
       0.711884; 0.638268;,
       0.663844; 0.648756;,
       0.731817; 0.524743;,
       0.514669; 0.948504;,
       0.404085; 0.937827;,
       0.449071; 0.946092;,
       0.338695; 0.923171;,
       0.517078; 0.768504;,
       0.290160; 0.900715;,
       0.449072; 0.770929;,
       0.264336; 0.873169;,
       0.404085; 0.779197;,
       0.264336; 0.843855;,
       0.338695; 0.793854;,
       0.290160; 0.816309;,
       0.668555; 0.496581;,
       0.632640; 0.502873;,
       0.692608; 0.492385;,
       0.577954; 0.509166;,
       0.529078; 0.512312;,
       0.460934; 0.512312;,
       0.385879; 0.511263;,
       0.329966; 0.508117;,
       0.301418; 0.502873;,
       0.269997; 0.495532;,
       0.228974; 0.482946;,
       0.738913; 0.482946;,
       0.678226; 0.426162;,
       0.640524; 0.431406;,
       0.702899; 0.420917;,
       0.583099; 0.433504;,
       0.748584; 0.413576;,
       0.530865; 0.433504;,
       0.459146; 0.433504;,
       0.380732; 0.433504;,
       0.322081; 0.431406;,
       0.291747; 0.426162;,
       0.259706; 0.420917;,
       0.219304; 0.413576;,
       0.678226; 0.340995;,
       0.640524; 0.347288;,
       0.702899; 0.335752;,
       0.583099; 0.347288;,
       0.748584; 0.329459;,
       0.530865; 0.347288;,
       0.459146; 0.347288;,
       0.380732; 0.347288;,
       0.322081; 0.347288;,
       0.291747; 0.347288;,
       0.259706; 0.340995;,
       0.219304; 0.329459;,
       0.647044; 0.166248;,
       0.630324; 0.246062;,
       0.615105; 0.166248;,
       0.665713; 0.238721;,
       0.673549; 0.166248;,
       0.688356; 0.234526;,
       0.576442; 0.249209;,
       0.566509; 0.166248;,
       0.717402; 0.166248;,
       0.736072; 0.227184;,
       0.528553; 0.249209;,
       0.525103; 0.166248;,
       0.461459; 0.249209;,
       0.464909; 0.166248;,
       0.292888; 0.171309;,
       0.237954; 0.232428;,
       0.250484; 0.170585;,
       0.273022; 0.238721;,
       0.387391; 0.246062;,
       0.397324; 0.166248;,
       0.322929; 0.171309;,
       0.306417; 0.241867;,
       0.331053; 0.245014;,
       0.347501; 0.171309;,
       0.623590; 0.108130;,
       0.595984; 0.108130;,
       0.657213; 0.105961;,
       0.552336; 0.111021;,
       0.693950; 0.101623;,
       0.520769; 0.110298;,
       0.469242; 0.112467;,
       0.312770; 0.118250;,
       0.273938; 0.116804;,
       0.409803; 0.116804;,
       0.341304; 0.118250;,
       0.361543; 0.118250;,
       0.471323; 0.503951;,
       0.576366; 0.501991;,
       0.501597; 0.514555;,
       0.397597; 0.961389;,
       0.516995; 0.764972;,
       0.520085; 0.972715;,
       0.320524; 0.943637;,
       0.435247; 0.767256;,
       0.265463; 0.917460;,
       0.397597; 0.776321;,
       0.236473; 0.885686;,
       0.320524; 0.794073;,
       0.236473; 0.852025;,
       0.265463; 0.820250;,
       0.561108; 0.478825;,
       0.501374; 0.509857;,
       0.502884; 0.488847;,
       0.561108; 0.499303;,
       0.471961; 0.499303;,
       0.479309; 0.480388;,
       0.419433; 0.468915;,
       0.431051; 0.452470;,
       0.396574; 0.411299;,
       0.380444; 0.422356;,
       0.359699; 0.365244;,
       0.378422; 0.361325;,
       0.359699; 0.304467;,
       0.378422; 0.308386;,
       0.380444; 0.247356;,
       0.396574; 0.258413;,
       0.419433; 0.200799;,
       0.431051; 0.217243;,
       0.471961; 0.170410;,
       0.479309; 0.189325;,
       0.501375; 0.159856;,
       0.502884; 0.180866;,
       0.561108; 0.170410;,
       0.561108; 0.190887;,
       0.658851; 0.129590;,
       0.670790; 0.109680;,
       0.670790; 0.129590;,
       0.658851; 0.109680;,
       0.660712; 0.109680;,
       0.660712; 0.129590;,
       0.627455; 0.109680;,
       0.627455; 0.129590;,
       0.578411; 0.109680;,
       0.578411; 0.129590;,
       0.532780; 0.109680;,
       0.532780; 0.129590;,
       0.469718; 0.109680;,
       0.469718; 0.129590;,
       0.410186; 0.109680;,
       0.410186; 0.129590;,
       0.361144; 0.109680;,
       0.361144; 0.129590;,
       0.327885; 0.109680;,
       0.327885; 0.129590;,
       0.317809; 0.109680;,
       0.317809; 0.129590;,
       0.329747; 0.109680;,
       0.329747; 0.129590;,
       0.676046; 0.323173;,
       0.638743; 0.329620;,
       0.700355; 0.318047;,
       0.581935; 0.330135;,
       0.746394; 0.311559;,
       0.530460; 0.330114;,
       0.459551; 0.330114;,
       0.381897; 0.329585;,
       0.323647; 0.329437;,
       0.294304; 0.328918;,
       0.262035; 0.323107;,
       0.223062; 0.309906;,
       0.661458; 0.544669;,
       0.610606; 0.661341;,
       0.641526; 0.655048;,
       0.626855; 0.550962;,
       0.563572; 0.662389;,
       0.574178; 0.557255;,
       0.524083; 0.664487;,
       0.527767; 0.560401;,
       0.465928; 0.664487;,
       0.462244; 0.560401;,
       0.400260; 0.662389;,
       0.389655; 0.550962;,
       0.351999; 0.661341;,
       0.335751; 0.547816;,
       0.328447; 0.657146;,
       0.308514; 0.544669;,
       0.298761; 0.651902;,
       0.277550; 0.540474;,
       0.663844; 0.648756;,
       0.685055; 0.536279;,
       0.401350; 0.474870;,
       0.507964; 0.520492;,
       0.464512; 0.508732;,
       0.693054; 0.923171;,
       0.582677; 0.946092;,
       0.741588; 0.900715;,
       0.767413; 0.873169;,
       0.582676; 0.770929;,
       0.767413; 0.843855;,
       0.627663; 0.779197;,
       0.741588; 0.816309;,
       0.693054; 0.793854;,
       0.632640; 0.502873;,
       0.668555; 0.496581;,
       0.692608; 0.492385;,
       0.577954; 0.509166;,
       0.529078; 0.512312;,
       0.460934; 0.512312;,
       0.385879; 0.511263;,
       0.329966; 0.508117;,
       0.301418; 0.502873;,
       0.269997; 0.495532;,
       0.640524; 0.431406;,
       0.678226; 0.426162;,
       0.702899; 0.420917;,
       0.583099; 0.433504;,
       0.530865; 0.433504;,
       0.459146; 0.433504;,
       0.380732; 0.433504;,
       0.322081; 0.431406;,
       0.291747; 0.426162;,
       0.259706; 0.420917;,
       0.640524; 0.347288;,
       0.678226; 0.340995;,
       0.702899; 0.335752;,
       0.583099; 0.347288;,
       0.530865; 0.347288;,
       0.459146; 0.347288;,
       0.380732; 0.347288;,
       0.322081; 0.347288;,
       0.291747; 0.347288;,
       0.259706; 0.340995;,
       0.665713; 0.238721;,
       0.615105; 0.166248;,
       0.630324; 0.246062;,
       0.647044; 0.166248;,
       0.688356; 0.234526;,
       0.673549; 0.166248;,
       0.566509; 0.166248;,
       0.576442; 0.249209;,
       0.525103; 0.166248;,
       0.528553; 0.249209;,
       0.464909; 0.166248;,
       0.461459; 0.249209;,
       0.273022; 0.238721;,
       0.292888; 0.171309;,
       0.397324; 0.166248;,
       0.387391; 0.246062;,
       0.306417; 0.241867;,
       0.322929; 0.171309;,
       0.347501; 0.171309;,
       0.331053; 0.245014;,
       0.595984; 0.108130;,
       0.623590; 0.108130;,
       0.657213; 0.105961;,
       0.552336; 0.111021;,
       0.520769; 0.110298;,
       0.469242; 0.112467;,
       0.312770; 0.118250;,
       0.409803; 0.116804;,
       0.341304; 0.118250;,
       0.361543; 0.118250;,
       0.601833; 0.970448;,
       0.639483; 0.961389;,
       0.601833; 0.767256;,
       0.716555; 0.943638;,
       0.639483; 0.776321;,
       0.771618; 0.917460;,
       0.716555; 0.794073;,
       0.800608; 0.885686;,
       0.771618; 0.820250;,
       0.800608; 0.852025;,
       0.502884; 0.488847;,
       0.501374; 0.509857;,
       0.479309; 0.480388;,
       0.471961; 0.499303;,
       0.431051; 0.452470;,
       0.419433; 0.468915;,
       0.380444; 0.422356;,
       0.396574; 0.411299;,
       0.378422; 0.361325;,
       0.359699; 0.365244;,
       0.378422; 0.308386;,
       0.359699; 0.304467;,
       0.396574; 0.258413;,
       0.380444; 0.247356;,
       0.431051; 0.217243;,
       0.419433; 0.200799;,
       0.479309; 0.189325;,
       0.471961; 0.170410;,
       0.502884; 0.180866;,
       0.501375; 0.159856;,
       0.670790; 0.129590;,
       0.670790; 0.109680;,
       0.660712; 0.129590;,
       0.660712; 0.109680;,
       0.627455; 0.129590;,
       0.627455; 0.109680;,
       0.578411; 0.129590;,
       0.578411; 0.109680;,
       0.532780; 0.129590;,
       0.532780; 0.109680;,
       0.469718; 0.129590;,
       0.469718; 0.109680;,
       0.410186; 0.129590;,
       0.410186; 0.109680;,
       0.361144; 0.129590;,
       0.361144; 0.109680;,
       0.327885; 0.129590;,
       0.327885; 0.109680;,
       0.317809; 0.129590;,
       0.317809; 0.109680;,
       0.638743; 0.329620;,
       0.676046; 0.323173;,
       0.700355; 0.318047;,
       0.581935; 0.330135;,
       0.530460; 0.330114;,
       0.459551; 0.330114;,
       0.381897; 0.329585;,
       0.323647; 0.329437;,
       0.294304; 0.328918;,
       0.262035; 0.323107;;
      }

      MeshVertexColors {
       334;
       0; 1.000000; 1.000000; 1.000000; 1.000000;,
       1; 1.000000; 1.000000; 1.000000; 1.000000;,
       2; 1.000000; 1.000000; 1.000000; 1.000000;,
       3; 1.000000; 1.000000; 1.000000; 1.000000;,
       4; 1.000000; 1.000000; 1.000000; 1.000000;,
       5; 1.000000; 1.000000; 1.000000; 1.000000;,
       6; 1.000000; 1.000000; 1.000000; 1.000000;,
       7; 1.000000; 1.000000; 1.000000; 1.000000;,
       8; 1.000000; 1.000000; 1.000000; 1.000000;,
       9; 1.000000; 1.000000; 1.000000; 1.000000;,
       10; 1.000000; 1.000000; 1.000000; 1.000000;,
       11; 1.000000; 1.000000; 1.000000; 1.000000;,
       12; 1.000000; 1.000000; 1.000000; 1.000000;,
       13; 1.000000; 1.000000; 1.000000; 1.000000;,
       14; 1.000000; 1.000000; 1.000000; 1.000000;,
       15; 1.000000; 1.000000; 1.000000; 1.000000;,
       16; 1.000000; 1.000000; 1.000000; 1.000000;,
       17; 1.000000; 1.000000; 1.000000; 1.000000;,
       18; 1.000000; 1.000000; 1.000000; 1.000000;,
       19; 1.000000; 1.000000; 1.000000; 1.000000;,
       20; 1.000000; 1.000000; 1.000000; 1.000000;,
       21; 1.000000; 1.000000; 1.000000; 1.000000;,
       22; 1.000000; 1.000000; 1.000000; 1.000000;,
       23; 1.000000; 1.000000; 1.000000; 1.000000;,
       24; 1.000000; 1.000000; 1.000000; 1.000000;,
       25; 1.000000; 1.000000; 1.000000; 1.000000;,
       26; 1.000000; 1.000000; 1.000000; 1.000000;,
       27; 1.000000; 1.000000; 1.000000; 1.000000;,
       28; 1.000000; 1.000000; 1.000000; 1.000000;,
       29; 1.000000; 1.000000; 1.000000; 1.000000;,
       30; 1.000000; 1.000000; 1.000000; 1.000000;,
       31; 1.000000; 1.000000; 1.000000; 1.000000;,
       32; 1.000000; 1.000000; 1.000000; 1.000000;,
       33; 1.000000; 1.000000; 1.000000; 1.000000;,
       34; 1.000000; 1.000000; 1.000000; 1.000000;,
       35; 1.000000; 1.000000; 1.000000; 1.000000;,
       36; 1.000000; 1.000000; 1.000000; 1.000000;,
       37; 1.000000; 1.000000; 1.000000; 1.000000;,
       38; 1.000000; 1.000000; 1.000000; 1.000000;,
       39; 1.000000; 1.000000; 1.000000; 1.000000;,
       40; 1.000000; 1.000000; 1.000000; 1.000000;,
       41; 1.000000; 1.000000; 1.000000; 1.000000;,
       42; 1.000000; 1.000000; 1.000000; 1.000000;,
       43; 1.000000; 1.000000; 1.000000; 1.000000;,
       44; 1.000000; 1.000000; 1.000000; 1.000000;,
       45; 1.000000; 1.000000; 1.000000; 1.000000;,
       46; 1.000000; 1.000000; 1.000000; 1.000000;,
       47; 1.000000; 1.000000; 1.000000; 1.000000;,
       48; 1.000000; 1.000000; 1.000000; 1.000000;,
       49; 1.000000; 1.000000; 1.000000; 1.000000;,
       50; 1.000000; 1.000000; 1.000000; 1.000000;,
       51; 1.000000; 1.000000; 1.000000; 1.000000;,
       52; 1.000000; 1.000000; 1.000000; 1.000000;,
       53; 1.000000; 1.000000; 1.000000; 1.000000;,
       54; 1.000000; 1.000000; 1.000000; 1.000000;,
       55; 1.000000; 1.000000; 1.000000; 1.000000;,
       56; 1.000000; 1.000000; 1.000000; 1.000000;,
       57; 1.000000; 1.000000; 1.000000; 1.000000;,
       58; 1.000000; 1.000000; 1.000000; 1.000000;,
       59; 1.000000; 1.000000; 1.000000; 1.000000;,
       60; 1.000000; 1.000000; 1.000000; 1.000000;,
       61; 1.000000; 1.000000; 1.000000; 1.000000;,
       62; 1.000000; 1.000000; 1.000000; 1.000000;,
       63; 1.000000; 1.000000; 1.000000; 1.000000;,
       64; 1.000000; 1.000000; 1.000000; 1.000000;,
       65; 1.000000; 1.000000; 1.000000; 1.000000;,
       66; 1.000000; 1.000000; 1.000000; 1.000000;,
       67; 1.000000; 1.000000; 1.000000; 1.000000;,
       68; 1.000000; 1.000000; 1.000000; 1.000000;,
       69; 1.000000; 1.000000; 1.000000; 1.000000;,
       70; 1.000000; 1.000000; 1.000000; 1.000000;,
       71; 1.000000; 1.000000; 1.000000; 1.000000;,
       72; 1.000000; 1.000000; 1.000000; 1.000000;,
       73; 1.000000; 1.000000; 1.000000; 1.000000;,
       74; 1.000000; 1.000000; 1.000000; 1.000000;,
       75; 1.000000; 1.000000; 1.000000; 1.000000;,
       76; 1.000000; 1.000000; 1.000000; 1.000000;,
       77; 1.000000; 1.000000; 1.000000; 1.000000;,
       78; 1.000000; 1.000000; 1.000000; 1.000000;,
       79; 1.000000; 1.000000; 1.000000; 1.000000;,
       80; 1.000000; 1.000000; 1.000000; 1.000000;,
       81; 1.000000; 1.000000; 1.000000; 1.000000;,
       82; 1.000000; 1.000000; 1.000000; 1.000000;,
       83; 1.000000; 1.000000; 1.000000; 1.000000;,
       84; 1.000000; 1.000000; 1.000000; 1.000000;,
       85; 1.000000; 1.000000; 1.000000; 1.000000;,
       86; 1.000000; 1.000000; 1.000000; 1.000000;,
       87; 1.000000; 1.000000; 1.000000; 1.000000;,
       88; 1.000000; 1.000000; 1.000000; 1.000000;,
       89; 1.000000; 1.000000; 1.000000; 1.000000;,
       90; 1.000000; 1.000000; 1.000000; 1.000000;,
       91; 1.000000; 1.000000; 1.000000; 1.000000;,
       92; 1.000000; 1.000000; 1.000000; 1.000000;,
       93; 1.000000; 1.000000; 1.000000; 1.000000;,
       94; 1.000000; 1.000000; 1.000000; 1.000000;,
       95; 1.000000; 1.000000; 1.000000; 1.000000;,
       96; 1.000000; 1.000000; 1.000000; 1.000000;,
       97; 1.000000; 1.000000; 1.000000; 1.000000;,
       98; 1.000000; 1.000000; 1.000000; 1.000000;,
       99; 1.000000; 1.000000; 1.000000; 1.000000;,
       100; 1.000000; 1.000000; 1.000000; 1.000000;,
       101; 1.000000; 1.000000; 1.000000; 1.000000;,
       102; 1.000000; 1.000000; 1.000000; 1.000000;,
       103; 1.000000; 1.000000; 1.000000; 1.000000;,
       104; 1.000000; 1.000000; 1.000000; 1.000000;,
       105; 1.000000; 1.000000; 1.000000; 1.000000;,
       106; 1.000000; 1.000000; 1.000000; 1.000000;,
       107; 1.000000; 1.000000; 1.000000; 1.000000;,
       108; 1.000000; 1.000000; 1.000000; 1.000000;,
       109; 1.000000; 1.000000; 1.000000; 1.000000;,
       110; 1.000000; 1.000000; 1.000000; 1.000000;,
       111; 1.000000; 1.000000; 1.000000; 1.000000;,
       112; 1.000000; 1.000000; 1.000000; 1.000000;,
       113; 1.000000; 1.000000; 1.000000; 1.000000;,
       114; 1.000000; 1.000000; 1.000000; 1.000000;,
       115; 1.000000; 1.000000; 1.000000; 1.000000;,
       116; 1.000000; 1.000000; 1.000000; 1.000000;,
       117; 1.000000; 1.000000; 1.000000; 1.000000;,
       118; 1.000000; 1.000000; 1.000000; 1.000000;,
       119; 1.000000; 1.000000; 1.000000; 1.000000;,
       120; 1.000000; 1.000000; 1.000000; 1.000000;,
       121; 1.000000; 1.000000; 1.000000; 1.000000;,
       122; 1.000000; 1.000000; 1.000000; 1.000000;,
       123; 1.000000; 1.000000; 1.000000; 1.000000;,
       124; 1.000000; 1.000000; 1.000000; 1.000000;,
       125; 1.000000; 1.000000; 1.000000; 1.000000;,
       126; 1.000000; 1.000000; 1.000000; 1.000000;,
       127; 1.000000; 1.000000; 1.000000; 1.000000;,
       128; 1.000000; 1.000000; 1.000000; 1.000000;,
       129; 1.000000; 1.000000; 1.000000; 1.000000;,
       130; 1.000000; 1.000000; 1.000000; 1.000000;,
       131; 1.000000; 1.000000; 1.000000; 1.000000;,
       132; 1.000000; 1.000000; 1.000000; 1.000000;,
       133; 1.000000; 1.000000; 1.000000; 1.000000;,
       134; 1.000000; 1.000000; 1.000000; 1.000000;,
       135; 1.000000; 1.000000; 1.000000; 1.000000;,
       136; 1.000000; 1.000000; 1.000000; 1.000000;,
       137; 1.000000; 1.000000; 1.000000; 1.000000;,
       138; 1.000000; 1.000000; 1.000000; 1.000000;,
       139; 1.000000; 1.000000; 1.000000; 1.000000;,
       140; 1.000000; 1.000000; 1.000000; 1.000000;,
       141; 1.000000; 1.000000; 1.000000; 1.000000;,
       142; 1.000000; 1.000000; 1.000000; 1.000000;,
       143; 1.000000; 1.000000; 1.000000; 1.000000;,
       144; 1.000000; 1.000000; 1.000000; 1.000000;,
       145; 1.000000; 1.000000; 1.000000; 1.000000;,
       146; 1.000000; 1.000000; 1.000000; 1.000000;,
       147; 1.000000; 1.000000; 1.000000; 1.000000;,
       148; 1.000000; 1.000000; 1.000000; 1.000000;,
       149; 1.000000; 1.000000; 1.000000; 1.000000;,
       150; 1.000000; 1.000000; 1.000000; 1.000000;,
       151; 1.000000; 1.000000; 1.000000; 1.000000;,
       152; 1.000000; 1.000000; 1.000000; 1.000000;,
       153; 1.000000; 1.000000; 1.000000; 1.000000;,
       154; 1.000000; 1.000000; 1.000000; 1.000000;,
       155; 1.000000; 1.000000; 1.000000; 1.000000;,
       156; 1.000000; 1.000000; 1.000000; 1.000000;,
       157; 1.000000; 1.000000; 1.000000; 1.000000;,
       158; 1.000000; 1.000000; 1.000000; 1.000000;,
       159; 1.000000; 1.000000; 1.000000; 1.000000;,
       160; 1.000000; 1.000000; 1.000000; 1.000000;,
       161; 1.000000; 1.000000; 1.000000; 1.000000;,
       162; 1.000000; 1.000000; 1.000000; 1.000000;,
       163; 1.000000; 1.000000; 1.000000; 1.000000;,
       164; 1.000000; 1.000000; 1.000000; 1.000000;,
       165; 1.000000; 1.000000; 1.000000; 1.000000;,
       166; 1.000000; 1.000000; 1.000000; 1.000000;,
       167; 1.000000; 1.000000; 1.000000; 1.000000;,
       168; 1.000000; 1.000000; 1.000000; 1.000000;,
       169; 1.000000; 1.000000; 1.000000; 1.000000;,
       170; 1.000000; 1.000000; 1.000000; 1.000000;,
       171; 1.000000; 1.000000; 1.000000; 1.000000;,
       172; 1.000000; 1.000000; 1.000000; 1.000000;,
       173; 1.000000; 1.000000; 1.000000; 1.000000;,
       174; 1.000000; 1.000000; 1.000000; 1.000000;,
       175; 1.000000; 1.000000; 1.000000; 1.000000;,
       176; 1.000000; 1.000000; 1.000000; 1.000000;,
       177; 1.000000; 1.000000; 1.000000; 1.000000;,
       178; 1.000000; 1.000000; 1.000000; 1.000000;,
       179; 1.000000; 1.000000; 1.000000; 1.000000;,
       180; 1.000000; 1.000000; 1.000000; 1.000000;,
       181; 1.000000; 1.000000; 1.000000; 1.000000;,
       182; 1.000000; 1.000000; 1.000000; 1.000000;,
       183; 1.000000; 1.000000; 1.000000; 1.000000;,
       184; 1.000000; 1.000000; 1.000000; 1.000000;,
       185; 1.000000; 1.000000; 1.000000; 1.000000;,
       186; 1.000000; 1.000000; 1.000000; 1.000000;,
       187; 1.000000; 1.000000; 1.000000; 1.000000;,
       188; 1.000000; 1.000000; 1.000000; 1.000000;,
       189; 1.000000; 1.000000; 1.000000; 1.000000;,
       190; 1.000000; 1.000000; 1.000000; 1.000000;,
       191; 1.000000; 1.000000; 1.000000; 1.000000;,
       192; 1.000000; 1.000000; 1.000000; 1.000000;,
       193; 1.000000; 1.000000; 1.000000; 1.000000;,
       194; 1.000000; 1.000000; 1.000000; 1.000000;,
       195; 1.000000; 1.000000; 1.000000; 1.000000;,
       196; 1.000000; 1.000000; 1.000000; 1.000000;,
       197; 1.000000; 1.000000; 1.000000; 1.000000;,
       198; 1.000000; 1.000000; 1.000000; 1.000000;,
       199; 1.000000; 1.000000; 1.000000; 1.000000;,
       200; 1.000000; 1.000000; 1.000000; 1.000000;,
       201; 1.000000; 1.000000; 1.000000; 1.000000;,
       202; 1.000000; 1.000000; 1.000000; 1.000000;,
       203; 1.000000; 1.000000; 1.000000; 1.000000;,
       204; 1.000000; 1.000000; 1.000000; 1.000000;,
       205; 1.000000; 1.000000; 1.000000; 1.000000;,
       206; 1.000000; 1.000000; 1.000000; 1.000000;,
       207; 1.000000; 1.000000; 1.000000; 1.000000;,
       208; 1.000000; 1.000000; 1.000000; 1.000000;,
       209; 1.000000; 1.000000; 1.000000; 1.000000;,
       210; 1.000000; 1.000000; 1.000000; 1.000000;,
       211; 1.000000; 1.000000; 1.000000; 1.000000;,
       212; 1.000000; 1.000000; 1.000000; 1.000000;,
       213; 1.000000; 1.000000; 1.000000; 1.000000;,
       214; 1.000000; 1.000000; 1.000000; 1.000000;,
       215; 1.000000; 1.000000; 1.000000; 1.000000;,
       216; 1.000000; 1.000000; 1.000000; 1.000000;,
       217; 1.000000; 1.000000; 1.000000; 1.000000;,
       218; 1.000000; 1.000000; 1.000000; 1.000000;,
       219; 1.000000; 1.000000; 1.000000; 1.000000;,
       220; 1.000000; 1.000000; 1.000000; 1.000000;,
       221; 1.000000; 1.000000; 1.000000; 1.000000;,
       222; 1.000000; 1.000000; 1.000000; 1.000000;,
       223; 1.000000; 1.000000; 1.000000; 1.000000;,
       224; 1.000000; 1.000000; 1.000000; 1.000000;,
       225; 1.000000; 1.000000; 1.000000; 1.000000;,
       226; 1.000000; 1.000000; 1.000000; 1.000000;,
       227; 1.000000; 1.000000; 1.000000; 1.000000;,
       228; 1.000000; 1.000000; 1.000000; 1.000000;,
       229; 1.000000; 1.000000; 1.000000; 1.000000;,
       230; 1.000000; 1.000000; 1.000000; 1.000000;,
       231; 1.000000; 1.000000; 1.000000; 1.000000;,
       232; 1.000000; 1.000000; 1.000000; 1.000000;,
       233; 1.000000; 1.000000; 1.000000; 1.000000;,
       234; 1.000000; 1.000000; 1.000000; 1.000000;,
       235; 1.000000; 1.000000; 1.000000; 1.000000;,
       236; 1.000000; 1.000000; 1.000000; 1.000000;,
       237; 1.000000; 1.000000; 1.000000; 1.000000;,
       238; 1.000000; 1.000000; 1.000000; 1.000000;,
       239; 1.000000; 1.000000; 1.000000; 1.000000;,
       240; 1.000000; 1.000000; 1.000000; 1.000000;,
       241; 1.000000; 1.000000; 1.000000; 1.000000;,
       242; 1.000000; 1.000000; 1.000000; 1.000000;,
       243; 1.000000; 1.000000; 1.000000; 1.000000;,
       244; 1.000000; 1.000000; 1.000000; 1.000000;,
       245; 1.000000; 1.000000; 1.000000; 1.000000;,
       246; 1.000000; 1.000000; 1.000000; 1.000000;,
       247; 1.000000; 1.000000; 1.000000; 1.000000;,
       248; 1.000000; 1.000000; 1.000000; 1.000000;,
       249; 1.000000; 1.000000; 1.000000; 1.000000;,
       250; 1.000000; 1.000000; 1.000000; 1.000000;,
       251; 1.000000; 1.000000; 1.000000; 1.000000;,
       252; 1.000000; 1.000000; 1.000000; 1.000000;,
       253; 1.000000; 1.000000; 1.000000; 1.000000;,
       254; 1.000000; 1.000000; 1.000000; 1.000000;,
       255; 1.000000; 1.000000; 1.000000; 1.000000;,
       256; 1.000000; 1.000000; 1.000000; 1.000000;,
       257; 1.000000; 1.000000; 1.000000; 1.000000;,
       258; 1.000000; 1.000000; 1.000000; 1.000000;,
       259; 1.000000; 1.000000; 1.000000; 1.000000;,
       260; 1.000000; 1.000000; 1.000000; 1.000000;,
       261; 1.000000; 1.000000; 1.000000; 1.000000;,
       262; 1.000000; 1.000000; 1.000000; 1.000000;,
       263; 1.000000; 1.000000; 1.000000; 1.000000;,
       264; 1.000000; 1.000000; 1.000000; 1.000000;,
       265; 1.000000; 1.000000; 1.000000; 1.000000;,
       266; 1.000000; 1.000000; 1.000000; 1.000000;,
       267; 1.000000; 1.000000; 1.000000; 1.000000;,
       268; 1.000000; 1.000000; 1.000000; 1.000000;,
       269; 1.000000; 1.000000; 1.000000; 1.000000;,
       270; 1.000000; 1.000000; 1.000000; 1.000000;,
       271; 1.000000; 1.000000; 1.000000; 1.000000;,
       272; 1.000000; 1.000000; 1.000000; 1.000000;,
       273; 1.000000; 1.000000; 1.000000; 1.000000;,
       274; 1.000000; 1.000000; 1.000000; 1.000000;,
       275; 1.000000; 1.000000; 1.000000; 1.000000;,
       276; 1.000000; 1.000000; 1.000000; 1.000000;,
       277; 1.000000; 1.000000; 1.000000; 1.000000;,
       278; 1.000000; 1.000000; 1.000000; 1.000000;,
       279; 1.000000; 1.000000; 1.000000; 1.000000;,
       280; 1.000000; 1.000000; 1.000000; 1.000000;,
       281; 1.000000; 1.000000; 1.000000; 1.000000;,
       282; 1.000000; 1.000000; 1.000000; 1.000000;,
       283; 1.000000; 1.000000; 1.000000; 1.000000;,
       284; 1.000000; 1.000000; 1.000000; 1.000000;,
       285; 1.000000; 1.000000; 1.000000; 1.000000;,
       286; 1.000000; 1.000000; 1.000000; 1.000000;,
       287; 1.000000; 1.000000; 1.000000; 1.000000;,
       288; 1.000000; 1.000000; 1.000000; 1.000000;,
       289; 1.000000; 1.000000; 1.000000; 1.000000;,
       290; 1.000000; 1.000000; 1.000000; 1.000000;,
       291; 1.000000; 1.000000; 1.000000; 1.000000;,
       292; 1.000000; 1.000000; 1.000000; 1.000000;,
       293; 1.000000; 1.000000; 1.000000; 1.000000;,
       294; 1.000000; 1.000000; 1.000000; 1.000000;,
       295; 1.000000; 1.000000; 1.000000; 1.000000;,
       296; 1.000000; 1.000000; 1.000000; 1.000000;,
       297; 1.000000; 1.000000; 1.000000; 1.000000;,
       298; 1.000000; 1.000000; 1.000000; 1.000000;,
       299; 1.000000; 1.000000; 1.000000; 1.000000;,
       300; 1.000000; 1.000000; 1.000000; 1.000000;,
       301; 1.000000; 1.000000; 1.000000; 1.000000;,
       302; 1.000000; 1.000000; 1.000000; 1.000000;,
       303; 1.000000; 1.000000; 1.000000; 1.000000;,
       304; 1.000000; 1.000000; 1.000000; 1.000000;,
       305; 1.000000; 1.000000; 1.000000; 1.000000;,
       306; 1.000000; 1.000000; 1.000000; 1.000000;,
       307; 1.000000; 1.000000; 1.000000; 1.000000;,
       308; 1.000000; 1.000000; 1.000000; 1.000000;,
       309; 1.000000; 1.000000; 1.000000; 1.000000;,
       310; 1.000000; 1.000000; 1.000000; 1.000000;,
       311; 1.000000; 1.000000; 1.000000; 1.000000;,
       312; 1.000000; 1.000000; 1.000000; 1.000000;,
       313; 1.000000; 1.000000; 1.000000; 1.000000;,
       314; 1.000000; 1.000000; 1.000000; 1.000000;,
       315; 1.000000; 1.000000; 1.000000; 1.000000;,
       316; 1.000000; 1.000000; 1.000000; 1.000000;,
       317; 1.000000; 1.000000; 1.000000; 1.000000;,
       318; 1.000000; 1.000000; 1.000000; 1.000000;,
       319; 1.000000; 1.000000; 1.000000; 1.000000;,
       320; 1.000000; 1.000000; 1.000000; 1.000000;,
       321; 1.000000; 1.000000; 1.000000; 1.000000;,
       322; 1.000000; 1.000000; 1.000000; 1.000000;,
       323; 1.000000; 1.000000; 1.000000; 1.000000;,
       324; 1.000000; 1.000000; 1.000000; 1.000000;,
       325; 1.000000; 1.000000; 1.000000; 1.000000;,
       326; 1.000000; 1.000000; 1.000000; 1.000000;,
       327; 1.000000; 1.000000; 1.000000; 1.000000;,
       328; 1.000000; 1.000000; 1.000000; 1.000000;,
       329; 1.000000; 1.000000; 1.000000; 1.000000;,
       330; 1.000000; 1.000000; 1.000000; 1.000000;,
       331; 1.000000; 1.000000; 1.000000; 1.000000;,
       332; 1.000000; 1.000000; 1.000000; 1.000000;,
       333; 1.000000; 1.000000; 1.000000; 1.000000;;
      }

      MeshMaterialList {
       1;
       480;
       0,
       0,
       0,
       0,
       0,
       0,
       0,
       0,
       0,
       0,
       0,
       0,
       0,
       0,
       0,
       0,
       0,
       0,
       0,
       0,
       0,
       0,
       0,
       0,
       0,
       0,
       0,
       0,
       0,
       0,
       0,
       0,
       0,
       0,
       0,
       0,
       0,
       0,
       0,
       0,
       0,
       0,
       0,
       0,
       0,
       0,
       0,
       0,
       0,
       0,
       0,
       0,
       0,
       0,
       0,
       0,
       0,
       0,
       0,
       0,
       0,
       0,
       0,
       0,
       0,
       0,
       0,
       0,
       0,
       0,
       0,
       0,
       0,
       0,
       0,
       0,
       0,
       0,
       0,
       0,
       0,
       0,
       0,
       0,
       0,
       0,
       0,
       0,
       0,
       0,
       0,
       0,
       0,
       0,
       0,
       0,
       0,
       0,
       0,
       0,
       0,
       0,
       0,
       0,
       0,
       0,
       0,
       0,
       0,
       0,
       0,
       0,
       0,
       0,
       0,
       0,
       0,
       0,
       0,
       0,
       0,
       0,
       0,
       0,
       0,
       0,
       0,
       0,
       0,
       0,
       0,
       0,
       0,
       0,
       0,
       0,
       0,
       0,
       0,
       0,
       0,
       0,
       0,
       0,
       0,
       0,
       0,
       0,
       0,
       0,
       0,
       0,
       0,
       0,
       0,
       0,
       0,
       0,
       0,
       0,
       0,
       0,
       0,
       0,
       0,
       0,
       0,
       0,
       0,
       0,
       0,
       0,
       0,
       0,
       0,
       0,
       0,
       0,
       0,
       0,
       0,
       0,
       0,
       0,
       0,
       0,
       0,
       0,
       0,
       0,
       0,
       0,
       0,
       0,
       0,
       0,
       0,
       0,
       0,
       0,
       0,
       0,
       0,
       0,
       0,
       0,
       0,
       0,
       0,
       0,
       0,
       0,
       0,
       0,
       0,
       0,
       0,
       0,
       0,
       0,
       0,
       0,
       0,
       0,
       0,
       0,
       0,
       0,
       0,
       0,
       0,
       0,
       0,
       0,
       0,
       0,
       0,
       0,
       0,
       0,
       0,
       0,
       0,
       0,
       0,
       0,
       0,
       0,
       0,
       0,
       0,
       0,
       0,
       0,
       0,
       0,
       0,
       0,
       0,
       0,
       0,
       0,
       0,
       0,
       0,
       0,
       0,
       0,
       0,
       0,
       0,
       0,
       0,
       0,
       0,
       0,
       0,
       0,
       0,
       0,
       0,
       0,
       0,
       0,
       0,
       0,
       0,
       0,
       0,
       0,
       0,
       0,
       0,
       0,
       0,
       0,
       0,
       0,
       0,
       0,
       0,
       0,
       0,
       0,
       0,
       0,
       0,
       0,
       0,
       0,
       0,
       0,
       0,
       0,
       0,
       0,
       0,
       0,
       0,
       0,
       0,
       0,
       0,
       0,
       0,
       0,
       0,
       0,
       0,
       0,
       0,
       0,
       0,
       0,
       0,
       0,
       0,
       0,
       0,
       0,
       0,
       0,
       0,
       0,
       0,
       0,
       0,
       0,
       0,
       0,
       0,
       0,
       0,
       0,
       0,
       0,
       0,
       0,
       0,
       0,
       0,
       0,
       0,
       0,
       0,
       0,
       0,
       0,
       0,
       0,
       0,
       0,
       0,
       0,
       0,
       0,
       0,
       0,
       0,
       0,
       0,
       0,
       0,
       0,
       0,
       0,
       0,
       0,
       0,
       0,
       0,
       0,
       0,
       0,
       0,
       0,
       0,
       0,
       0,
       0,
       0,
       0,
       0,
       0,
       0,
       0,
       0,
       0,
       0,
       0,
       0,
       0,
       0,
       0,
       0,
       0,
       0,
       0,
       0,
       0,
       0,
       0,
       0,
       0,
       0,
       0,
       0,
       0,
       0,
       0,
       0,
       0,
       0,
       0,
       0,
       0,
       0,
       0,
       0,
       0,
       0,
       0,
       0,
       0,
       0,
       0,
       0,
       0,
       0,
       0,
       0,
       0,
       0,
       0,
       0,
       0,
       0,
       0,
       0,
       0,
       0,
       0,
       0,
       0,
       0,
       0,
       0,
       0,
       0,
       0,
       0,
       0,
       0,
       0,
       0,
       0,
       0,
       0,
       0,
       0;

       Material material23 {
        0.992157; 0.992157; 0.992157; 1.000000;;
        1.000000;
        0.992157; 0.992157; 0.992157;;
        0.000000; 0.000000; 0.000000;;

        TextureFilename {
         "old_barrell.dds";
        }
       }

      }

      XSkinMeshHeader {
       1;
       1;
       1;
      }

      SkinWeights {
       "Body";
       334;
       0,
       1,
       2,
       3,
       4,
       5,
       6,
       7,
       8,
       9,
       10,
       11,
       12,
       13,
       14,
       15,
       16,
       17,
       18,
       19,
       20,
       21,
       22,
       23,
       24,
       25,
       26,
       27,
       28,
       29,
       30,
       31,
       32,
       33,
       34,
       35,
       36,
       37,
       38,
       39,
       40,
       41,
       42,
       43,
       44,
       45,
       46,
       47,
       48,
       49,
       50,
       51,
       52,
       53,
       54,
       55,
       56,
       57,
       58,
       59,
       60,
       61,
       62,
       63,
       64,
       65,
       66,
       67,
       68,
       69,
       70,
       71,
       72,
       73,
       74,
       75,
       76,
       77,
       78,
       79,
       80,
       81,
       82,
       83,
       84,
       85,
       86,
       87,
       88,
       89,
       90,
       91,
       92,
       93,
       94,
       95,
       96,
       97,
       98,
       99,
       100,
       101,
       102,
       103,
       104,
       105,
       106,
       107,
       108,
       109,
       110,
       111,
       112,
       113,
       114,
       115,
       116,
       117,
       118,
       119,
       120,
       121,
       122,
       123,
       124,
       125,
       126,
       127,
       128,
       129,
       130,
       131,
       132,
       133,
       134,
       135,
       136,
       137,
       138,
       139,
       140,
       141,
       142,
       143,
       144,
       145,
       146,
       147,
       148,
       149,
       150,
       151,
       152,
       153,
       154,
       155,
       156,
       157,
       158,
       159,
       160,
       161,
       162,
       163,
       164,
       165,
       166,
       167,
       168,
       169,
       170,
       171,
       172,
       173,
       174,
       175,
       176,
       177,
       178,
       179,
       180,
       181,
       182,
       183,
       184,
       185,
       186,
       187,
       188,
       189,
       190,
       191,
       192,
       193,
       194,
       195,
       196,
       197,
       198,
       199,
       200,
       201,
       202,
       203,
       204,
       205,
       206,
       207,
       208,
       209,
       210,
       211,
       212,
       213,
       214,
       215,
       216,
       217,
       218,
       219,
       220,
       221,
       222,
       223,
       224,
       225,
       226,
       227,
       228,
       229,
       230,
       231,
       232,
       233,
       234,
       235,
       236,
       237,
       238,
       239,
       240,
       241,
       242,
       243,
       244,
       245,
       246,
       247,
       248,
       249,
       250,
       251,
       252,
       253,
       254,
       255,
       256,
       257,
       258,
       259,
       260,
       261,
       262,
       263,
       264,
       265,
       266,
       267,
       268,
       269,
       270,
       271,
       272,
       273,
       274,
       275,
       276,
       277,
       278,
       279,
       280,
       281,
       282,
       283,
       284,
       285,
       286,
       287,
       288,
       289,
       290,
       291,
       292,
       293,
       294,
       295,
       296,
       297,
       298,
       299,
       300,
       301,
       302,
       303,
       304,
       305,
       306,
       307,
       308,
       309,
       310,
       311,
       312,
       313,
       314,
       315,
       316,
       317,
       318,
       319,
       320,
       321,
       322,
       323,
       324,
       325,
       326,
       327,
       328,
       329,
       330,
       331,
       332,
       333;
       1.000000,
       1.000000,
       1.000000,
       1.000000,
       1.000000,
       1.000000,
       1.000000,
       1.000000,
       1.000000,
       1.000000,
       1.000000,
       1.000000,
       1.000000,
       1.000000,
       1.000000,
       1.000000,
       1.000000,
       1.000000,
       1.000000,
       1.000000,
       1.000000,
       1.000000,
       1.000000,
       1.000000,
       1.000000,
       1.000000,
       1.000000,
       1.000000,
       1.000000,
       1.000000,
       1.000000,
       1.000000,
       1.000000,
       1.000000,
       1.000000,
       1.000000,
       1.000000,
       1.000000,
       1.000000,
       1.000000,
       1.000000,
       1.000000,
       1.000000,
       1.000000,
       1.000000,
       1.000000,
       1.000000,
       1.000000,
       1.000000,
       1.000000,
       1.000000,
       1.000000,
       1.000000,
       1.000000,
       1.000000,
       1.000000,
       1.000000,
       1.000000,
       1.000000,
       1.000000,
       1.000000,
       1.000000,
       1.000000,
       1.000000,
       1.000000,
       1.000000,
       1.000000,
       1.000000,
       1.000000,
       1.000000,
       1.000000,
       1.000000,
       1.000000,
       1.000000,
       1.000000,
       1.000000,
       1.000000,
       1.000000,
       1.000000,
       1.000000,
       1.000000,
       1.000000,
       1.000000,
       1.000000,
       1.000000,
       1.000000,
       1.000000,
       1.000000,
       1.000000,
       1.000000,
       1.000000,
       1.000000,
       1.000000,
       1.000000,
       1.000000,
       1.000000,
       1.000000,
       1.000000,
       1.000000,
       1.000000,
       1.000000,
       1.000000,
       1.000000,
       1.000000,
       1.000000,
       1.000000,
       1.000000,
       1.000000,
       1.000000,
       1.000000,
       1.000000,
       1.000000,
       1.000000,
       1.000000,
       1.000000,
       1.000000,
       1.000000,
       1.000000,
       1.000000,
       1.000000,
       1.000000,
       1.000000,
       1.000000,
       1.000000,
       1.000000,
       1.000000,
       1.000000,
       1.000000,
       1.000000,
       1.000000,
       1.000000,
       1.000000,
       1.000000,
       1.000000,
       1.000000,
       1.000000,
       1.000000,
       1.000000,
       1.000000,
       1.000000,
       1.000000,
       1.000000,
       1.000000,
       1.000000,
       1.000000,
       1.000000,
       1.000000,
       1.000000,
       1.000000,
       1.000000,
       1.000000,
       1.000000,
       1.000000,
       1.000000,
       1.000000,
       1.000000,
       1.000000,
       1.000000,
       1.000000,
       1.000000,
       1.000000,
       1.000000,
       1.000000,
       1.000000,
       1.000000,
       1.000000,
       1.000000,
       1.000000,
       1.000000,
       1.000000,
       1.000000,
       1.000000,
       1.000000,
       1.000000,
       1.000000,
       1.000000,
       1.000000,
       1.000000,
       1.000000,
       1.000000,
       1.000000,
       1.000000,
       1.000000,
       1.000000,
       1.000000,
       1.000000,
       1.000000,
       1.000000,
       1.000000,
       1.000000,
       1.000000,
       1.000000,
       1.000000,
       1.000000,
       1.000000,
       1.000000,
       1.000000,
       1.000000,
       1.000000,
       1.000000,
       1.000000,
       1.000000,
       1.000000,
       1.000000,
       1.000000,
       1.000000,
       1.000000,
       1.000000,
       1.000000,
       1.000000,
       1.000000,
       1.000000,
       1.000000,
       1.000000,
       1.000000,
       1.000000,
       1.000000,
       1.000000,
       1.000000,
       1.000000,
       1.000000,
       1.000000,
       1.000000,
       1.000000,
       1.000000,
       1.000000,
       1.000000,
       1.000000,
       1.000000,
       1.000000,
       1.000000,
       1.000000,
       1.000000,
       1.000000,
       1.000000,
       1.000000,
       1.000000,
       1.000000,
       1.000000,
       1.000000,
       1.000000,
       1.000000,
       1.000000,
       1.000000,
       1.000000,
       1.000000,
       1.000000,
       1.000000,
       1.000000,
       1.000000,
       1.000000,
       1.000000,
       1.000000,
       1.000000,
       1.000000,
       1.000000,
       1.000000,
       1.000000,
       1.000000,
       1.000000,
       1.000000,
       1.000000,
       1.000000,
       1.000000,
       1.000000,
       1.000000,
       1.000000,
       1.000000,
       1.000000,
       1.000000,
       1.000000,
       1.000000,
       1.000000,
       1.000000,
       1.000000,
       1.000000,
       1.000000,
       1.000000,
       1.000000,
       1.000000,
       1.000000,
       1.000000,
       1.000000,
       1.000000,
       1.000000,
       1.000000,
       1.000000,
       1.000000,
       1.000000,
       1.000000,
       1.000000,
       1.000000,
       1.000000,
       1.000000,
       1.000000,
       1.000000,
       1.000000,
       1.000000,
       1.000000,
       1.000000,
       1.000000,
       1.000000,
       1.000000,
       1.000000,
       1.000000,
       1.000000,
       1.000000,
       1.000000,
       1.000000,
       1.000000,
       1.000000,
       1.000000,
       1.000000,
       1.000000,
       1.000000,
       1.000000,
       1.000000,
       1.000000,
       1.000000,
       1.000000,
       1.000000,
       1.000000,
       1.000000,
       1.000000,
       1.000000,
       1.000000,
       1.000000,
       1.000000,
       1.000000,
       1.000000,
       1.000000,
       1.000000,
       1.000000,
       1.000000;
          1.000000, -0.000000, 0.000000, 0.000000,
          -0.000000, 1.000000, -0.000000, 0.000000,
          0.000000, -0.000000, 1.000000, 0.000000,
          -0.000000, -0.000000, -0.000000, 1.000000;;
      }


     }
   }

// Start of Animation

AnimationSet Untitled {
}
