# Wavefront MTL file
# Creator: Ultimate Unwrap3D Pro v3.19
# URL: http://www.unwrap3d.com
# Time: Thu Dec 10 21:52:02 2009
# num_materials: 1

newmtl orange_pot
Ka 0.000000 0.000000 0.000000
Kd 0.992157 0.992157 0.992157
Ks 0.992157 0.992157 0.992157
d 1.000000
illum 2
Ns 0.007813
map_Kd orange_pot.dds

# num_materials: 1
