xof 0303txt 0032

// DirectX 9.0 file
// Creator: Ultimate Unwrap3D Pro v3.19
// Website: http://www.unwrap3d.com
// Time: Thu Dec 10 21:54:28 2009

// Start of Templates

template VertexDuplicationIndices {
 <b8d65549-d7c9-4995-89cf-53a9a8b031e3>
 DWORD nIndices;
 DWORD nOriginalVertices;
 array DWORD indices[nIndices];
}

template FVFData {
 <b6e70a0e-8ef9-4e83-94ad-ecc8b0c04897>
 DWORD dwFVF;
 DWORD nDWords;
 array DWORD data[nDWords];
}

template Header {
 <3D82AB43-62DA-11cf-AB39-0020AF71E433>
 WORD major;
 WORD minor;
 DWORD flags;
}

template Vector {
 <3D82AB5E-62DA-11cf-AB39-0020AF71E433>
 FLOAT x;
 FLOAT y;
 FLOAT z;
}

template Coords2d {
 <F6F23F44-7686-11cf-8F52-0040333594A3>
 FLOAT u;
 FLOAT v;
}

template Matrix4x4 {
 <F6F23F45-7686-11cf-8F52-0040333594A3>
 array FLOAT matrix[16];
}

template ColorRGBA {
 <35FF44E0-6C7C-11cf-8F52-0040333594A3>
 FLOAT red;
 FLOAT green;
 FLOAT blue;
 FLOAT alpha;
}

template ColorRGB {
 <D3E16E81-7835-11cf-8F52-0040333594A3>
 FLOAT red;
 FLOAT green;
 FLOAT blue;
}

template IndexedColor {
 <1630B820-7842-11cf-8F52-0040333594A3>
 DWORD index;
 ColorRGBA indexColor;
}

template Material {
 <3D82AB4D-62DA-11cf-AB39-0020AF71E433>
 ColorRGBA faceColor;
 FLOAT power;
 ColorRGB specularColor;
 ColorRGB emissiveColor;
 [...]
}

template TextureFilename {
 <A42790E1-7810-11cf-8F52-0040333594A3>
 STRING filename;
}

template MeshFace {
 <3D82AB5F-62DA-11cf-AB39-0020AF71E433>
 DWORD nFaceVertexIndices;
 array DWORD faceVertexIndices[nFaceVertexIndices];
}

template MeshTextureCoords {
 <F6F23F40-7686-11cf-8F52-0040333594A3>
 DWORD nTextureCoords;
 array Coords2d textureCoords[nTextureCoords];
}

template MeshMaterialList {
 <F6F23F42-7686-11cf-8F52-0040333594A3>
 DWORD nMaterials;
 DWORD nFaceIndexes;
 array DWORD faceIndexes[nFaceIndexes];
 [Material]
}

template MeshNormals {
 <F6F23F43-7686-11cf-8F52-0040333594A3>
 DWORD nNormals;
 array Vector normals[nNormals];
 DWORD nFaceNormals;
 array MeshFace faceNormals[nFaceNormals];
}

template MeshVertexColors {
 <1630B821-7842-11cf-8F52-0040333594A3>
 DWORD nVertexColors;
 array IndexedColor vertexColors[nVertexColors];
}

template Mesh {
 <3D82AB44-62DA-11cf-AB39-0020AF71E433>
 DWORD nVertices;
 array Vector vertices[nVertices];
 DWORD nFaces;
 array MeshFace faces[nFaces];
 [...]
}

template FrameTransformMatrix {
 <F6F23F41-7686-11cf-8F52-0040333594A3>
 Matrix4x4 frameMatrix;
}

template Frame {
 <3D82AB46-62DA-11cf-AB39-0020AF71E433>
 [...]
}

template FloatKeys {
 <10DD46A9-775B-11cf-8F52-0040333594A3>
 DWORD nValues;
 array FLOAT values[nValues];
}

template TimedFloatKeys {
 <F406B180-7B3B-11cf-8F52-0040333594A3>
 DWORD time;
 FloatKeys tfkeys;
}

template AnimationKey {
 <10DD46A8-775B-11cf-8F52-0040333594A3>
 DWORD keyType;
 DWORD nKeys;
 array TimedFloatKeys keys[nKeys];
}

template AnimationOptions {
 <E2BF56C0-840F-11cf-8F52-0040333594A3>
 DWORD openclosed;
 DWORD positionquality;
}

template Animation {
 <3D82AB4F-62DA-11cf-AB39-0020AF71E433>
 [...]
}

template AnimationSet {
 <3D82AB50-62DA-11cf-AB39-0020AF71E433>
 [Animation]
}

template XSkinMeshHeader {
 <3CF169CE-FF7C-44ab-93C0-F78F62D172E2>
 WORD nMaxSkinWeightsPerVertex;
 WORD nMaxSkinWeightsPerFace;
 WORD nBones;
}

template SkinWeights {
 <6F0D123B-BAD2-4167-A0D0-80224F25FABB>
 STRING transformNodeName;
 DWORD nWeights;
 array DWORD vertexIndices[nWeights];
 array FLOAT weights[nWeights];
 Matrix4x4 matrixOffset;
}

template AnimTicksPerSecond {
 <9E415A43-7BA6-4a73-8743-B73D47E88476>
 DWORD AnimTicksPerSecond;
}

AnimTicksPerSecond {
 30;
}

// Start of Frames

   Frame Body {
      FrameTransformMatrix {
       1.000000, 0.000000, 0.000000, 0.000000,
       0.000000, 1.000000, 0.000000, 0.000000,
       0.000000, 0.000000, 1.000000, 0.000000,
       0.000000, 0.000000, 0.000000, 1.000000;;
      }

   }
   Frame def_surf_mat {
      FrameTransformMatrix {
       1.000000, 0.000000, 0.000000, 0.000000,
       0.000000, 1.000000, 0.000000, 0.000000,
       0.000000, 0.000000, 1.000000, 0.000000,
       0.000000, 0.000000, 0.000000, 1.000000;;
      }

   }

   Frame Body0 {
      FrameTransformMatrix {
       1.000000, 0.000000, 0.000000, 0.000000,
       0.000000, 1.000000, 0.000000, 0.000000,
       0.000000, 0.000000, 1.000000, 0.000000,
       0.000000, 0.000000, 0.000000, 1.000000;;
      }

      Mesh skinnedMesh {
       154;
       2.977901; 0.101299; -0.443802;,
       2.976600; 0.000000; 0.000000;,
       2.174600; 0.112202; -0.443802;,
       2.173200; 0.010899; 0.000000;,
       2.981800; 0.385101; -0.799599;,
       2.178400; 0.396000; -0.799599;,
       2.987400; 0.795101; -0.997101;,
       2.184000; 0.806000; -0.997101;,
       2.993500; 1.250202; -0.997101;,
       2.190200; 1.261101; -0.997101;,
       2.999100; 1.660301; -0.799599;,
       2.195700; 1.671200; -0.799599;,
       3.003000; 1.944000; -0.443802;,
       2.199600; 1.955002; -0.443802;,
       3.004300; 2.045300; 0.000000;,
       2.201000; 2.056202; 0.000000;,
       3.003000; 1.944000; 0.443703;,
       2.199600; 1.955002; 0.443703;,
       2.999100; 1.660301; 0.799599;,
       2.195700; 1.671200; 0.799599;,
       2.993500; 1.250202; 0.997101;,
       2.190200; 1.261101; 0.997101;,
       2.987400; 0.795101; 0.997101;,
       2.184000; 0.806000; 0.997101;,
       2.981800; 0.385101; 0.799599;,
       2.178400; 0.396000; 0.799599;,
       2.977901; 0.101299; 0.443703;,
       2.174600; 0.112202; 0.443703;,
       -3.415199; 1.021500; 0.000000;,
       -3.415100; 1.030399; 0.038696;,
       -3.415100; 1.030399; -0.038704;,
       -3.414700; 1.055099; 0.069702;,
       -3.414700; 1.055099; -0.069801;,
       -3.414299; 1.090900; 0.086899;,
       -3.414299; 1.090900; -0.086998;,
       -3.413700; 1.130600; 0.086899;,
       -3.413700; 1.130600; -0.086998;,
       -3.413200; 1.166302; 0.069702;,
       -3.413200; 1.166302; -0.069801;,
       -3.412899; 1.191101; 0.038696;,
       -3.412899; 1.191101; -0.038704;,
       -3.412800; 1.199902; 0.000000;,
       3.362000; 0.630199; 0.186501;,
       3.361500; 0.587601; 0.000000;,
       3.363700; 0.749500; 0.336197;,
       3.362000; 0.630199; -0.186600;,
       3.366000; 0.921902; 0.419197;,
       3.363700; 0.749500; -0.336205;,
       3.368600; 1.113201; 0.419197;,
       3.366000; 0.921902; -0.419304;,
       3.371000; 1.285599; 0.336197;,
       3.368600; 1.113201; -0.419304;,
       3.372600; 1.404900; 0.186501;,
       3.371000; 1.285599; -0.336205;,
       3.373200; 1.447502; 0.000000;,
       3.372600; 1.404900; -0.186600;,
       3.203100; 0.460499; 0.701202;,
       3.199700; 0.211700; 0.389099;,
       3.207900; 0.820099; 0.874397;,
       3.213400; 1.219200; 0.874397;,
       3.218300; 1.578800; 0.701202;,
       3.221601; 1.827702; 0.389099;,
       3.222800; 1.916500; 0.000000;,
       3.221601; 1.827702; -0.389198;,
       3.218300; 1.578800; -0.701302;,
       3.213400; 1.219200; -0.874397;,
       3.207900; 0.820099; -0.874397;,
       3.203100; 0.460499; -0.701302;,
       3.199700; 0.211700; -0.389198;,
       3.198500; 0.122902; 0.000000;,
       3.370900; 0.614300; 0.505501;,
       3.368500; 0.434902; 0.280502;,
       3.374400; 0.873600; 0.630402;,
       3.378300; 1.161301; 0.630402;,
       3.381900; 1.420502; 0.505501;,
       3.384300; 1.599899; 0.280502;,
       3.385201; 1.664001; 0.000000;,
       3.384300; 1.599899; -0.280602;,
       3.381900; 1.420502; -0.505600;,
       3.378300; 1.161301; -0.630402;,
       3.374400; 0.873600; -0.630402;,
       3.370900; 0.614300; -0.505600;,
       3.368500; 0.434902; -0.280602;,
       3.367600; 0.370899; 0.000000;,
       3.404900; 0.726101; 0.364799;,
       3.403200; 0.596600; 0.202400;,
       3.407500; 0.913200; 0.454903;,
       3.410300; 1.120800; 0.454903;,
       3.412900; 1.307899; 0.364799;,
       3.414600; 1.437401; 0.202400;,
       3.415200; 1.483601; 0.000000;,
       3.414600; 1.437401; -0.202499;,
       3.412900; 1.307899; -0.364899;,
       3.410300; 1.120800; -0.455002;,
       3.407500; 0.913200; -0.455002;,
       3.404900; 0.726101; -0.364899;,
       3.403200; 0.596600; -0.202499;,
       3.402600; 0.550400; 0.000000;,
       0.346300; 0.911301; -0.649704;,
       0.342700; 0.644100; -0.521103;,
       0.350300; 1.207901; -0.649704;,
       0.354000; 1.475101; -0.521103;,
       0.356500; 1.660000; -0.289200;,
       0.357400; 1.726002; 0.000000;,
       0.356500; 1.660000; 0.289101;,
       0.354000; 1.475101; 0.520996;,
       0.350300; 1.207901; 0.649696;,
       0.346300; 0.911301; 0.649696;,
       0.342700; 0.644100; 0.520996;,
       0.340200; 0.459202; 0.289101;,
       0.339300; 0.393200; 0.000000;,
       0.340200; 0.459202; -0.289200;,
       -1.200800; 0.979000; -0.445404;,
       -1.203300; 0.795902; -0.357201;,
       -1.198100; 1.182301; -0.445404;,
       -1.195600; 1.365402; -0.357201;,
       -1.193900; 1.492199; -0.198204;,
       -1.193200; 1.537399; 0.000000;,
       -1.193900; 1.492199; 0.198196;,
       -1.195600; 1.365402; 0.357101;,
       -1.198100; 1.182301; 0.445297;,
       -1.200800; 0.979000; 0.445297;,
       -1.203300; 0.795902; 0.357101;,
       -1.205000; 0.669102; 0.198196;,
       -1.205600; 0.623901; 0.000000;,
       -1.205000; 0.669102; -0.198204;,
       -3.047100; 1.048702; -0.250099;,
       -3.048500; 0.945801; -0.200500;,
       -3.045599; 1.162800; -0.250099;,
       -3.044199; 1.265602; -0.200500;,
       -3.043200; 1.336800; -0.111298;,
       -3.042799; 1.362202; 0.000000;,
       -3.043200; 1.336800; 0.111198;,
       -3.044199; 1.265602; 0.200500;,
       -3.045599; 1.162800; 0.250000;,
       -3.047100; 1.048702; 0.250000;,
       -3.048500; 0.945801; 0.200500;,
       -3.049500; 0.874699; 0.111198;,
       -3.049801; 0.849300; 0.000000;,
       -3.049500; 0.874699; -0.111298;,
       -3.363400; 1.075600; -0.150902;,
       -3.364300; 1.013500; -0.121101;,
       -3.362499; 1.144501; -0.150902;,
       -3.361601; 1.206501; -0.121101;,
       -3.361099; 1.249500; -0.067200;,
       -3.360901; 1.264801; 0.000000;,
       -3.361099; 1.249500; 0.067101;,
       -3.361601; 1.206501; 0.121002;,
       -3.362499; 1.144501; 0.150902;,
       -3.363400; 1.075600; 0.150902;,
       -3.364300; 1.013500; 0.121002;,
       -3.364799; 0.970600; 0.067101;,
       -3.365101; 0.955200; 0.000000;,
       -3.364799; 0.970600; -0.067200;;
       304;
       3;0, 1, 2;,
       3;1, 3, 2;,
       3;4, 0, 5;,
       3;0, 2, 5;,
       3;6, 4, 7;,
       3;4, 5, 7;,
       3;8, 6, 9;,
       3;6, 7, 9;,
       3;10, 8, 11;,
       3;8, 9, 11;,
       3;12, 10, 13;,
       3;10, 11, 13;,
       3;14, 12, 15;,
       3;12, 13, 15;,
       3;16, 14, 17;,
       3;14, 15, 17;,
       3;18, 16, 19;,
       3;16, 17, 19;,
       3;20, 18, 21;,
       3;18, 19, 21;,
       3;22, 20, 23;,
       3;20, 21, 23;,
       3;24, 22, 25;,
       3;22, 23, 25;,
       3;26, 24, 27;,
       3;24, 25, 27;,
       3;1, 26, 3;,
       3;26, 27, 3;,
       3;28, 29, 30;,
       3;29, 31, 30;,
       3;30, 31, 32;,
       3;31, 33, 32;,
       3;32, 33, 34;,
       3;33, 35, 34;,
       3;34, 35, 36;,
       3;35, 37, 36;,
       3;36, 37, 38;,
       3;37, 39, 38;,
       3;38, 39, 40;,
       3;39, 41, 40;,
       3;42, 43, 44;,
       3;43, 45, 44;,
       3;44, 45, 46;,
       3;45, 47, 46;,
       3;46, 47, 48;,
       3;47, 49, 48;,
       3;48, 49, 50;,
       3;49, 51, 50;,
       3;50, 51, 52;,
       3;51, 53, 52;,
       3;52, 53, 54;,
       3;53, 55, 54;,
       3;24, 26, 56;,
       3;26, 57, 56;,
       3;22, 24, 58;,
       3;24, 56, 58;,
       3;20, 22, 59;,
       3;22, 58, 59;,
       3;18, 20, 60;,
       3;20, 59, 60;,
       3;16, 18, 61;,
       3;18, 60, 61;,
       3;14, 16, 62;,
       3;16, 61, 62;,
       3;12, 14, 63;,
       3;14, 62, 63;,
       3;10, 12, 64;,
       3;12, 63, 64;,
       3;8, 10, 65;,
       3;10, 64, 65;,
       3;6, 8, 66;,
       3;8, 65, 66;,
       3;4, 6, 67;,
       3;6, 66, 67;,
       3;0, 4, 68;,
       3;4, 67, 68;,
       3;1, 0, 69;,
       3;0, 68, 69;,
       3;26, 1, 57;,
       3;1, 69, 57;,
       3;56, 57, 70;,
       3;57, 71, 70;,
       3;58, 56, 72;,
       3;56, 70, 72;,
       3;59, 58, 73;,
       3;58, 72, 73;,
       3;60, 59, 74;,
       3;59, 73, 74;,
       3;61, 60, 75;,
       3;60, 74, 75;,
       3;62, 61, 76;,
       3;61, 75, 76;,
       3;63, 62, 77;,
       3;62, 76, 77;,
       3;64, 63, 78;,
       3;63, 77, 78;,
       3;65, 64, 79;,
       3;64, 78, 79;,
       3;66, 65, 80;,
       3;65, 79, 80;,
       3;67, 66, 81;,
       3;66, 80, 81;,
       3;68, 67, 82;,
       3;67, 81, 82;,
       3;69, 68, 83;,
       3;68, 82, 83;,
       3;57, 69, 71;,
       3;69, 83, 71;,
       3;70, 71, 84;,
       3;71, 85, 84;,
       3;72, 70, 86;,
       3;70, 84, 86;,
       3;73, 72, 87;,
       3;72, 86, 87;,
       3;74, 73, 88;,
       3;73, 87, 88;,
       3;75, 74, 89;,
       3;74, 88, 89;,
       3;76, 75, 90;,
       3;75, 89, 90;,
       3;77, 76, 91;,
       3;76, 90, 91;,
       3;78, 77, 92;,
       3;77, 91, 92;,
       3;79, 78, 93;,
       3;78, 92, 93;,
       3;80, 79, 94;,
       3;79, 93, 94;,
       3;81, 80, 95;,
       3;80, 94, 95;,
       3;82, 81, 96;,
       3;81, 95, 96;,
       3;83, 82, 97;,
       3;82, 96, 97;,
       3;71, 83, 85;,
       3;83, 97, 85;,
       3;84, 85, 44;,
       3;85, 42, 44;,
       3;86, 84, 46;,
       3;84, 44, 46;,
       3;87, 86, 48;,
       3;86, 46, 48;,
       3;88, 87, 50;,
       3;87, 48, 50;,
       3;89, 88, 52;,
       3;88, 50, 52;,
       3;90, 89, 54;,
       3;89, 52, 54;,
       3;91, 90, 55;,
       3;90, 54, 55;,
       3;92, 91, 53;,
       3;91, 55, 53;,
       3;93, 92, 51;,
       3;92, 53, 51;,
       3;94, 93, 49;,
       3;93, 51, 49;,
       3;95, 94, 47;,
       3;94, 49, 47;,
       3;96, 95, 45;,
       3;95, 47, 45;,
       3;97, 96, 43;,
       3;96, 45, 43;,
       3;85, 97, 42;,
       3;97, 43, 42;,
       3;7, 5, 98;,
       3;5, 99, 98;,
       3;9, 7, 100;,
       3;7, 98, 100;,
       3;11, 9, 101;,
       3;9, 100, 101;,
       3;13, 11, 102;,
       3;11, 101, 102;,
       3;15, 13, 103;,
       3;13, 102, 103;,
       3;17, 15, 104;,
       3;15, 103, 104;,
       3;19, 17, 105;,
       3;17, 104, 105;,
       3;21, 19, 106;,
       3;19, 105, 106;,
       3;23, 21, 107;,
       3;21, 106, 107;,
       3;25, 23, 108;,
       3;23, 107, 108;,
       3;27, 25, 109;,
       3;25, 108, 109;,
       3;3, 27, 110;,
       3;27, 109, 110;,
       3;2, 3, 111;,
       3;3, 110, 111;,
       3;5, 2, 99;,
       3;2, 111, 99;,
       3;98, 99, 112;,
       3;99, 113, 112;,
       3;100, 98, 114;,
       3;98, 112, 114;,
       3;101, 100, 115;,
       3;100, 114, 115;,
       3;102, 101, 116;,
       3;101, 115, 116;,
       3;103, 102, 117;,
       3;102, 116, 117;,
       3;104, 103, 118;,
       3;103, 117, 118;,
       3;105, 104, 119;,
       3;104, 118, 119;,
       3;106, 105, 120;,
       3;105, 119, 120;,
       3;107, 106, 121;,
       3;106, 120, 121;,
       3;108, 107, 122;,
       3;107, 121, 122;,
       3;109, 108, 123;,
       3;108, 122, 123;,
       3;110, 109, 124;,
       3;109, 123, 124;,
       3;111, 110, 125;,
       3;110, 124, 125;,
       3;99, 111, 113;,
       3;111, 125, 113;,
       3;112, 113, 126;,
       3;113, 127, 126;,
       3;114, 112, 128;,
       3;112, 126, 128;,
       3;115, 114, 129;,
       3;114, 128, 129;,
       3;116, 115, 130;,
       3;115, 129, 130;,
       3;117, 116, 131;,
       3;116, 130, 131;,
       3;118, 117, 132;,
       3;117, 131, 132;,
       3;119, 118, 133;,
       3;118, 132, 133;,
       3;120, 119, 134;,
       3;119, 133, 134;,
       3;121, 120, 135;,
       3;120, 134, 135;,
       3;122, 121, 136;,
       3;121, 135, 136;,
       3;123, 122, 137;,
       3;122, 136, 137;,
       3;124, 123, 138;,
       3;123, 137, 138;,
       3;125, 124, 139;,
       3;124, 138, 139;,
       3;113, 125, 127;,
       3;125, 139, 127;,
       3;126, 127, 140;,
       3;127, 141, 140;,
       3;128, 126, 142;,
       3;126, 140, 142;,
       3;129, 128, 143;,
       3;128, 142, 143;,
       3;130, 129, 144;,
       3;129, 143, 144;,
       3;131, 130, 145;,
       3;130, 144, 145;,
       3;132, 131, 146;,
       3;131, 145, 146;,
       3;133, 132, 147;,
       3;132, 146, 147;,
       3;134, 133, 148;,
       3;133, 147, 148;,
       3;135, 134, 149;,
       3;134, 148, 149;,
       3;136, 135, 150;,
       3;135, 149, 150;,
       3;137, 136, 151;,
       3;136, 150, 151;,
       3;138, 137, 152;,
       3;137, 151, 152;,
       3;139, 138, 153;,
       3;138, 152, 153;,
       3;127, 139, 141;,
       3;139, 153, 141;,
       3;140, 141, 34;,
       3;141, 32, 34;,
       3;142, 140, 36;,
       3;140, 34, 36;,
       3;143, 142, 38;,
       3;142, 36, 38;,
       3;144, 143, 40;,
       3;143, 38, 40;,
       3;145, 144, 41;,
       3;144, 40, 41;,
       3;146, 145, 39;,
       3;145, 41, 39;,
       3;147, 146, 37;,
       3;146, 39, 37;,
       3;148, 147, 35;,
       3;147, 37, 35;,
       3;149, 148, 33;,
       3;148, 35, 33;,
       3;150, 149, 31;,
       3;149, 33, 31;,
       3;151, 150, 29;,
       3;150, 31, 29;,
       3;152, 151, 28;,
       3;151, 29, 28;,
       3;153, 152, 30;,
       3;152, 28, 30;,
       3;141, 153, 32;,
       3;153, 30, 32;;

      MeshNormals {
       154;
       0.245666; -0.871806; -0.423795;,
       0.244390; -0.969664; -0.004951;,
       -0.107989; -0.895706; -0.431335;,
       -0.109367; -0.994001; 0.000696;,
       0.249146; -0.602073; -0.758574;,
       -0.104149; -0.619719; -0.777882;,
       0.254576; -0.213632; -0.943161;,
       -0.098641; -0.220864; -0.970304;,
       0.260416; 0.216324; -0.940950;,
       -0.092496; 0.222092; -0.970628;,
       0.265578; 0.602743; -0.752442;,
       -0.086968; 0.621326; -0.778711;,
       0.269266; 0.869183; -0.414749;,
       -0.083121; 0.897801; -0.432486;,
       0.270523; 0.962701; 0.004962;,
       -0.081765; 0.996651; -0.000637;,
       0.269218; 0.864874; 0.423692;,
       -0.083135; 0.898380; 0.431280;,
       0.265557; 0.595062; 0.758538;,
       -0.086984; 0.622421; 0.777834;,
       0.260251; 0.206669; 0.943163;,
       -0.092529; 0.223414; 0.970322;,
       0.254501; -0.223369; 0.940922;,
       -0.098667; -0.219559; 0.970597;,
       0.249168; -0.609802; 0.752367;,
       -0.104184; -0.618778; 0.778627;,
       0.245535; -0.876151; 0.414815;,
       -0.108005; -0.895127; 0.432530;,
       -0.883536; -0.466907; 0.036909;,
       -0.926072; -0.323391; 0.194445;,
       -0.950211; -0.288226; -0.118427;,
       -0.948618; -0.168576; 0.267780;,
       -0.948994; -0.208281; -0.236705;,
       -0.946686; -0.035682; 0.320175;,
       -0.947294; -0.082544; -0.309548;,
       -0.944708; 0.109631; 0.309044;,
       -0.945257; 0.061369; -0.320506;,
       -0.943015; 0.233048; 0.237512;,
       -0.943604; 0.194541; -0.267889;,
       -0.942235; 0.313392; 0.118236;,
       -0.917310; 0.347321; -0.194707;,
       -0.871109; 0.489744; -0.036339;,
       0.806435; 0.549256; -0.219045;,
       0.878094; 0.477033; 0.037285;,
       0.915997; 0.266461; -0.299913;,
       0.916978; 0.342182; 0.205094;,
       0.913740; 0.108768; -0.391471;,
       0.915393; 0.217740; 0.338591;,
       0.911263; -0.073020; -0.405299;,
       0.912866; 0.048309; 0.405390;,
       0.908943; -0.242932; -0.338832;,
       0.910505; -0.133719; 0.391280;,
       0.907439; -0.366719; -0.205112;,
       0.908504; -0.291170; 0.299736;,
       0.865220; -0.500008; -0.037226;,
       0.791769; -0.570261; 0.218870;,
       0.678057; -0.473189; 0.562434;,
       0.675378; -0.671248; 0.305435;,
       0.682023; -0.183248; 0.708000;,
       0.686446; 0.141102; 0.713360;,
       0.690414; 0.435785; 0.577425;,
       0.693170; 0.642254; 0.327147;,
       0.694166; 0.719714; 0.012021;,
       0.693327; 0.652719; -0.305377;,
       0.690628; 0.454549; -0.562511;,
       0.686683; 0.164552; -0.708088;,
       0.682343; -0.159640; -0.713389;,
       0.678273; -0.454341; -0.577513;,
       0.675425; -0.660901; -0.327125;,
       0.674506; -0.738170; -0.012065;,
       0.924804; -0.255709; 0.281693;,
       0.923465; -0.353839; 0.148361;,
       0.926732; -0.109363; 0.359454;,
       0.928990; 0.055955; 0.365852;,
       0.931082; 0.207971; 0.299723;,
       0.932561; 0.316128; 0.174339;,
       0.933153; 0.359188; 0.014467;,
       0.932684; 0.328779; -0.148341;,
       0.931372; 0.230477; -0.281828;,
       0.929357; 0.084125; -0.359469;,
       0.927118; -0.081301; -0.365844;,
       0.925134; -0.232939; -0.299777;,
       0.923612; -0.341390; -0.174340;,
       0.922990; -0.384553; -0.014405;,
       0.947151; 0.158144; -0.279098;,
       0.948558; 0.262362; -0.177212;,
       0.945212; 0.020114; -0.325838;,
       0.943301; -0.124521; -0.307698;,
       0.941683; -0.246831; -0.228710;,
       0.940842; -0.322319; -0.104535;,
       0.940603; -0.337107; 0.040303;,
       0.941234; -0.287564; 0.177160;,
       0.942567; -0.183745; 0.278937;,
       0.944363; -0.045876; 0.325690;,
       0.946399; 0.098712; 0.307547;,
       0.948132; 0.220961; 0.228522;,
       0.948965; 0.297563; 0.104509;,
       0.949228; 0.311996; -0.040304;,
       -0.165296; -0.216957; -0.962085;,
       -0.170799; -0.612625; -0.771699;,
       -0.159226; 0.222020; -0.961953;,
       -0.153752; 0.617586; -0.771329;,
       -0.149956; 0.891336; -0.427824;,
       -0.148588; 0.988899; 0.000352;,
       -0.149933; 0.891020; 0.428490;,
       -0.153742; 0.617164; 0.771668;,
       -0.159222; 0.221439; 0.962088;,
       -0.165313; -0.217695; 0.961915;,
       -0.170790; -0.613197; 0.771246;,
       -0.174581; -0.886855; 0.427796;,
       -0.175958; -0.984398; -0.000269;,
       -0.174607; -0.886552; -0.428413;,
       -0.124007; -0.219111; -0.967788;,
       -0.129439; -0.617170; -0.776110;,
       -0.117996; 0.222749; -0.967709;,
       -0.112613; 0.620503; -0.776076;,
       -0.108868; 0.895985; -0.430533;,
       -0.107528; 0.994202; 0.000146;,
       -0.108871; 0.895839; 0.430837;,
       -0.112599; 0.620322; 0.776223;,
       -0.118020; 0.222405; 0.967785;,
       -0.124021; -0.219288; 0.967746;,
       -0.129430; -0.617320; 0.775992;,
       -0.133184; -0.892637; 0.430651;,
       -0.134512; -0.990912; -0.000091;,
       -0.133181; -0.892596; -0.430739;,
       -0.211008; -0.216467; -0.953214;,
       -0.216164; -0.608082; -0.763878;,
       -0.205044; 0.219073; -0.953920;,
       -0.199606; 0.611449; -0.765694;,
       -0.195960; 0.883333; -0.425820;,
       -0.194634; 0.980875; -0.001457;,
       -0.195948; 0.884659; 0.423064;,
       -0.199650; 0.613886; 0.763730;,
       -0.204911; 0.221885; 0.953299;,
       -0.210817; -0.213147; 0.954005;,
       -0.216199; -0.606001; 0.765519;,
       -0.219863; -0.877650; 0.425899;,
       -0.221135; -0.975242; 0.001355;,
       -0.219897; -0.879167; -0.422741;,
       -0.576896; -0.186441; -0.795255;,
       -0.581808; -0.512579; -0.631476;,
       -0.572338; 0.177040; -0.800679;,
       -0.567793; 0.507486; -0.648127;,
       -0.564787; 0.739160; -0.366958;,
       -0.563539; 0.825988; -0.012949;,
       -0.564549; 0.750398; 0.343784;,
       -0.567545; 0.528231; 0.631558;,
       -0.572097; 0.202950; 0.794680;,
       -0.576854; -0.161655; 0.800691;,
       -0.581556; -0.492118; 0.647775;,
       -0.584255; -0.723858; 0.366981;,
       -0.585809; -0.810344; 0.013039;,
       -0.584522; -0.735152; -0.343346;;
       304;
       3;0, 1, 2;,
       3;1, 3, 2;,
       3;4, 0, 5;,
       3;0, 2, 5;,
       3;6, 4, 7;,
       3;4, 5, 7;,
       3;8, 6, 9;,
       3;6, 7, 9;,
       3;10, 8, 11;,
       3;8, 9, 11;,
       3;12, 10, 13;,
       3;10, 11, 13;,
       3;14, 12, 15;,
       3;12, 13, 15;,
       3;16, 14, 17;,
       3;14, 15, 17;,
       3;18, 16, 19;,
       3;16, 17, 19;,
       3;20, 18, 21;,
       3;18, 19, 21;,
       3;22, 20, 23;,
       3;20, 21, 23;,
       3;24, 22, 25;,
       3;22, 23, 25;,
       3;26, 24, 27;,
       3;24, 25, 27;,
       3;1, 26, 3;,
       3;26, 27, 3;,
       3;28, 29, 30;,
       3;29, 31, 30;,
       3;30, 31, 32;,
       3;31, 33, 32;,
       3;32, 33, 34;,
       3;33, 35, 34;,
       3;34, 35, 36;,
       3;35, 37, 36;,
       3;36, 37, 38;,
       3;37, 39, 38;,
       3;38, 39, 40;,
       3;39, 41, 40;,
       3;42, 43, 44;,
       3;43, 45, 44;,
       3;44, 45, 46;,
       3;45, 47, 46;,
       3;46, 47, 48;,
       3;47, 49, 48;,
       3;48, 49, 50;,
       3;49, 51, 50;,
       3;50, 51, 52;,
       3;51, 53, 52;,
       3;52, 53, 54;,
       3;53, 55, 54;,
       3;24, 26, 56;,
       3;26, 57, 56;,
       3;22, 24, 58;,
       3;24, 56, 58;,
       3;20, 22, 59;,
       3;22, 58, 59;,
       3;18, 20, 60;,
       3;20, 59, 60;,
       3;16, 18, 61;,
       3;18, 60, 61;,
       3;14, 16, 62;,
       3;16, 61, 62;,
       3;12, 14, 63;,
       3;14, 62, 63;,
       3;10, 12, 64;,
       3;12, 63, 64;,
       3;8, 10, 65;,
       3;10, 64, 65;,
       3;6, 8, 66;,
       3;8, 65, 66;,
       3;4, 6, 67;,
       3;6, 66, 67;,
       3;0, 4, 68;,
       3;4, 67, 68;,
       3;1, 0, 69;,
       3;0, 68, 69;,
       3;26, 1, 57;,
       3;1, 69, 57;,
       3;56, 57, 70;,
       3;57, 71, 70;,
       3;58, 56, 72;,
       3;56, 70, 72;,
       3;59, 58, 73;,
       3;58, 72, 73;,
       3;60, 59, 74;,
       3;59, 73, 74;,
       3;61, 60, 75;,
       3;60, 74, 75;,
       3;62, 61, 76;,
       3;61, 75, 76;,
       3;63, 62, 77;,
       3;62, 76, 77;,
       3;64, 63, 78;,
       3;63, 77, 78;,
       3;65, 64, 79;,
       3;64, 78, 79;,
       3;66, 65, 80;,
       3;65, 79, 80;,
       3;67, 66, 81;,
       3;66, 80, 81;,
       3;68, 67, 82;,
       3;67, 81, 82;,
       3;69, 68, 83;,
       3;68, 82, 83;,
       3;57, 69, 71;,
       3;69, 83, 71;,
       3;70, 71, 84;,
       3;71, 85, 84;,
       3;72, 70, 86;,
       3;70, 84, 86;,
       3;73, 72, 87;,
       3;72, 86, 87;,
       3;74, 73, 88;,
       3;73, 87, 88;,
       3;75, 74, 89;,
       3;74, 88, 89;,
       3;76, 75, 90;,
       3;75, 89, 90;,
       3;77, 76, 91;,
       3;76, 90, 91;,
       3;78, 77, 92;,
       3;77, 91, 92;,
       3;79, 78, 93;,
       3;78, 92, 93;,
       3;80, 79, 94;,
       3;79, 93, 94;,
       3;81, 80, 95;,
       3;80, 94, 95;,
       3;82, 81, 96;,
       3;81, 95, 96;,
       3;83, 82, 97;,
       3;82, 96, 97;,
       3;71, 83, 85;,
       3;83, 97, 85;,
       3;84, 85, 44;,
       3;85, 42, 44;,
       3;86, 84, 46;,
       3;84, 44, 46;,
       3;87, 86, 48;,
       3;86, 46, 48;,
       3;88, 87, 50;,
       3;87, 48, 50;,
       3;89, 88, 52;,
       3;88, 50, 52;,
       3;90, 89, 54;,
       3;89, 52, 54;,
       3;91, 90, 55;,
       3;90, 54, 55;,
       3;92, 91, 53;,
       3;91, 55, 53;,
       3;93, 92, 51;,
       3;92, 53, 51;,
       3;94, 93, 49;,
       3;93, 51, 49;,
       3;95, 94, 47;,
       3;94, 49, 47;,
       3;96, 95, 45;,
       3;95, 47, 45;,
       3;97, 96, 43;,
       3;96, 45, 43;,
       3;85, 97, 42;,
       3;97, 43, 42;,
       3;7, 5, 98;,
       3;5, 99, 98;,
       3;9, 7, 100;,
       3;7, 98, 100;,
       3;11, 9, 101;,
       3;9, 100, 101;,
       3;13, 11, 102;,
       3;11, 101, 102;,
       3;15, 13, 103;,
       3;13, 102, 103;,
       3;17, 15, 104;,
       3;15, 103, 104;,
       3;19, 17, 105;,
       3;17, 104, 105;,
       3;21, 19, 106;,
       3;19, 105, 106;,
       3;23, 21, 107;,
       3;21, 106, 107;,
       3;25, 23, 108;,
       3;23, 107, 108;,
       3;27, 25, 109;,
       3;25, 108, 109;,
       3;3, 27, 110;,
       3;27, 109, 110;,
       3;2, 3, 111;,
       3;3, 110, 111;,
       3;5, 2, 99;,
       3;2, 111, 99;,
       3;98, 99, 112;,
       3;99, 113, 112;,
       3;100, 98, 114;,
       3;98, 112, 114;,
       3;101, 100, 115;,
       3;100, 114, 115;,
       3;102, 101, 116;,
       3;101, 115, 116;,
       3;103, 102, 117;,
       3;102, 116, 117;,
       3;104, 103, 118;,
       3;103, 117, 118;,
       3;105, 104, 119;,
       3;104, 118, 119;,
       3;106, 105, 120;,
       3;105, 119, 120;,
       3;107, 106, 121;,
       3;106, 120, 121;,
       3;108, 107, 122;,
       3;107, 121, 122;,
       3;109, 108, 123;,
       3;108, 122, 123;,
       3;110, 109, 124;,
       3;109, 123, 124;,
       3;111, 110, 125;,
       3;110, 124, 125;,
       3;99, 111, 113;,
       3;111, 125, 113;,
       3;112, 113, 126;,
       3;113, 127, 126;,
       3;114, 112, 128;,
       3;112, 126, 128;,
       3;115, 114, 129;,
       3;114, 128, 129;,
       3;116, 115, 130;,
       3;115, 129, 130;,
       3;117, 116, 131;,
       3;116, 130, 131;,
       3;118, 117, 132;,
       3;117, 131, 132;,
       3;119, 118, 133;,
       3;118, 132, 133;,
       3;120, 119, 134;,
       3;119, 133, 134;,
       3;121, 120, 135;,
       3;120, 134, 135;,
       3;122, 121, 136;,
       3;121, 135, 136;,
       3;123, 122, 137;,
       3;122, 136, 137;,
       3;124, 123, 138;,
       3;123, 137, 138;,
       3;125, 124, 139;,
       3;124, 138, 139;,
       3;113, 125, 127;,
       3;125, 139, 127;,
       3;126, 127, 140;,
       3;127, 141, 140;,
       3;128, 126, 142;,
       3;126, 140, 142;,
       3;129, 128, 143;,
       3;128, 142, 143;,
       3;130, 129, 144;,
       3;129, 143, 144;,
       3;131, 130, 145;,
       3;130, 144, 145;,
       3;132, 131, 146;,
       3;131, 145, 146;,
       3;133, 132, 147;,
       3;132, 146, 147;,
       3;134, 133, 148;,
       3;133, 147, 148;,
       3;135, 134, 149;,
       3;134, 148, 149;,
       3;136, 135, 150;,
       3;135, 149, 150;,
       3;137, 136, 151;,
       3;136, 150, 151;,
       3;138, 137, 152;,
       3;137, 151, 152;,
       3;139, 138, 153;,
       3;138, 152, 153;,
       3;127, 139, 141;,
       3;139, 153, 141;,
       3;140, 141, 34;,
       3;141, 32, 34;,
       3;142, 140, 36;,
       3;140, 34, 36;,
       3;143, 142, 38;,
       3;142, 36, 38;,
       3;144, 143, 40;,
       3;143, 38, 40;,
       3;145, 144, 41;,
       3;144, 40, 41;,
       3;146, 145, 39;,
       3;145, 41, 39;,
       3;147, 146, 37;,
       3;146, 39, 37;,
       3;148, 147, 35;,
       3;147, 37, 35;,
       3;149, 148, 33;,
       3;148, 35, 33;,
       3;150, 149, 31;,
       3;149, 33, 31;,
       3;151, 150, 29;,
       3;150, 31, 29;,
       3;152, 151, 28;,
       3;151, 29, 28;,
       3;153, 152, 30;,
       3;152, 28, 30;,
       3;141, 153, 32;,
       3;153, 30, 32;;
      }

      MeshTextureCoords {
       154;
       0.892892; 0.791023;,
       0.893426; 0.817996;,
       0.785941; 0.799325;,
       0.786461; 0.826300;,
       0.891432; 0.715452;,
       0.784468; 0.723755;,
       0.889319; 0.606277;,
       0.782354; 0.614580;,
       0.886957; 0.485093;,
       0.780006; 0.493396;,
       0.884843; 0.375892;,
       0.777878; 0.384195;,
       0.883383; 0.300348;,
       0.776418; 0.308624;,
       0.882850; 0.273375;,
       0.775899; 0.281676;,
       0.883383; 0.300348;,
       0.776418; 0.308624;,
       0.884843; 0.375892;,
       0.777878; 0.384195;,
       0.886957; 0.485093;,
       0.780006; 0.493396;,
       0.889319; 0.606277;,
       0.782354; 0.614580;,
       0.891432; 0.715452;,
       0.784468; 0.723755;,
       0.892892; 0.791023;,
       0.785941; 0.799325;,
       0.035904; 0.635320;,
       0.035855; 0.632950;,
       0.035855; 0.632950;,
       0.035736; 0.626372;,
       0.035736; 0.626372;,
       0.035540; 0.616840;,
       0.035540; 0.616840;,
       0.035343; 0.606268;,
       0.035343; 0.606268;,
       0.035160; 0.596761;,
       0.035160; 0.596761;,
       0.035027; 0.590158;,
       0.035027; 0.590158;,
       0.034979; 0.587815;,
       0.940307; 0.644931;,
       0.940538; 0.656274;,
       0.939701; 0.613163;,
       0.940307; 0.644931;,
       0.938805; 0.567257;,
       0.939701; 0.613163;,
       0.937818; 0.516317;,
       0.938805; 0.567257;,
       0.936935; 0.470410;,
       0.937818; 0.516317;,
       0.936316; 0.438643;,
       0.936935; 0.470410;,
       0.936099; 0.427299;,
       0.936316; 0.438643;,
       0.920350; 0.692303;,
       0.921632; 0.758554;,
       0.918481; 0.596550;,
       0.916430; 0.490276;,
       0.914574; 0.394522;,
       0.913278; 0.328245;,
       0.912818; 0.304600;,
       0.913278; 0.328245;,
       0.914574; 0.394522;,
       0.916430; 0.490276;,
       0.918481; 0.596550;,
       0.920350; 0.692303;,
       0.921632; 0.758554;,
       0.922091; 0.782199;,
       0.941602; 0.649038;,
       0.942534; 0.696808;,
       0.940260; 0.579992;,
       0.938773; 0.503383;,
       0.937444; 0.434362;,
       0.936513; 0.386592;,
       0.936186; 0.369523;,
       0.936513; 0.386592;,
       0.937444; 0.434362;,
       0.938773; 0.503383;,
       0.940260; 0.579992;,
       0.941602; 0.649038;,
       0.942534; 0.696808;,
       0.942860; 0.713851;,
       0.945346; 0.618815;,
       0.946023; 0.653298;,
       0.944387; 0.568993;,
       0.943313; 0.513714;,
       0.942354; 0.463892;,
       0.941677; 0.429409;,
       0.941435; 0.417108;,
       0.941677; 0.429409;,
       0.942354; 0.463892;,
       0.943313; 0.513714;,
       0.944387; 0.568993;,
       0.945346; 0.618815;,
       0.946023; 0.653298;,
       0.946265; 0.665599;,
       0.537122; 0.612188;,
       0.538506; 0.683338;,
       0.535586; 0.533209;,
       0.534216; 0.462058;,
       0.533259; 0.412824;,
       0.532919; 0.395249;,
       0.533259; 0.412824;,
       0.534216; 0.462058;,
       0.535586; 0.533209;,
       0.537122; 0.612188;,
       0.538506; 0.683338;,
       0.539463; 0.732572;,
       0.539804; 0.750147;,
       0.539463; 0.732572;,
       0.330816; 0.615748;,
       0.331760; 0.664504;,
       0.329758; 0.561614;,
       0.328813; 0.512858;,
       0.328156; 0.479095;,
       0.327933; 0.467057;,
       0.328156; 0.479095;,
       0.328813; 0.512858;,
       0.329758; 0.561614;,
       0.330816; 0.615748;,
       0.331760; 0.664504;,
       0.332418; 0.698268;,
       0.332653; 0.710304;,
       0.332418; 0.698268;,
       0.084688; 0.622948;,
       0.085219; 0.650349;,
       0.084092; 0.592567;,
       0.083562; 0.565193;,
       0.083198; 0.546234;,
       0.083074; 0.539469;,
       0.083198; 0.546234;,
       0.083562; 0.565193;,
       0.084092; 0.592567;,
       0.084688; 0.622948;,
       0.085219; 0.650349;,
       0.085582; 0.669282;,
       0.085719; 0.676045;,
       0.085582; 0.669282;,
       0.042418; 0.620202;,
       0.042732; 0.636739;,
       0.042058; 0.601855;,
       0.041745; 0.585345;,
       0.041512; 0.573896;,
       0.041432; 0.569822;,
       0.041512; 0.573896;,
       0.041745; 0.585345;,
       0.042058; 0.601855;,
       0.042418; 0.620202;,
       0.042732; 0.636739;,
       0.042964; 0.648161;,
       0.043032; 0.652263;,
       0.042964; 0.648161;;
      }

      MeshVertexColors {
       154;
       0; 1.000000; 1.000000; 1.000000; 1.000000;,
       1; 1.000000; 1.000000; 1.000000; 1.000000;,
       2; 1.000000; 1.000000; 1.000000; 1.000000;,
       3; 1.000000; 1.000000; 1.000000; 1.000000;,
       4; 1.000000; 1.000000; 1.000000; 1.000000;,
       5; 1.000000; 1.000000; 1.000000; 1.000000;,
       6; 1.000000; 1.000000; 1.000000; 1.000000;,
       7; 1.000000; 1.000000; 1.000000; 1.000000;,
       8; 1.000000; 1.000000; 1.000000; 1.000000;,
       9; 1.000000; 1.000000; 1.000000; 1.000000;,
       10; 1.000000; 1.000000; 1.000000; 1.000000;,
       11; 1.000000; 1.000000; 1.000000; 1.000000;,
       12; 1.000000; 1.000000; 1.000000; 1.000000;,
       13; 1.000000; 1.000000; 1.000000; 1.000000;,
       14; 1.000000; 1.000000; 1.000000; 1.000000;,
       15; 1.000000; 1.000000; 1.000000; 1.000000;,
       16; 1.000000; 1.000000; 1.000000; 1.000000;,
       17; 1.000000; 1.000000; 1.000000; 1.000000;,
       18; 1.000000; 1.000000; 1.000000; 1.000000;,
       19; 1.000000; 1.000000; 1.000000; 1.000000;,
       20; 1.000000; 1.000000; 1.000000; 1.000000;,
       21; 1.000000; 1.000000; 1.000000; 1.000000;,
       22; 1.000000; 1.000000; 1.000000; 1.000000;,
       23; 1.000000; 1.000000; 1.000000; 1.000000;,
       24; 1.000000; 1.000000; 1.000000; 1.000000;,
       25; 1.000000; 1.000000; 1.000000; 1.000000;,
       26; 1.000000; 1.000000; 1.000000; 1.000000;,
       27; 1.000000; 1.000000; 1.000000; 1.000000;,
       28; 1.000000; 1.000000; 1.000000; 1.000000;,
       29; 1.000000; 1.000000; 1.000000; 1.000000;,
       30; 1.000000; 1.000000; 1.000000; 1.000000;,
       31; 1.000000; 1.000000; 1.000000; 1.000000;,
       32; 1.000000; 1.000000; 1.000000; 1.000000;,
       33; 1.000000; 1.000000; 1.000000; 1.000000;,
       34; 1.000000; 1.000000; 1.000000; 1.000000;,
       35; 1.000000; 1.000000; 1.000000; 1.000000;,
       36; 1.000000; 1.000000; 1.000000; 1.000000;,
       37; 1.000000; 1.000000; 1.000000; 1.000000;,
       38; 1.000000; 1.000000; 1.000000; 1.000000;,
       39; 1.000000; 1.000000; 1.000000; 1.000000;,
       40; 1.000000; 1.000000; 1.000000; 1.000000;,
       41; 1.000000; 1.000000; 1.000000; 1.000000;,
       42; 1.000000; 1.000000; 1.000000; 1.000000;,
       43; 1.000000; 1.000000; 1.000000; 1.000000;,
       44; 1.000000; 1.000000; 1.000000; 1.000000;,
       45; 1.000000; 1.000000; 1.000000; 1.000000;,
       46; 1.000000; 1.000000; 1.000000; 1.000000;,
       47; 1.000000; 1.000000; 1.000000; 1.000000;,
       48; 1.000000; 1.000000; 1.000000; 1.000000;,
       49; 1.000000; 1.000000; 1.000000; 1.000000;,
       50; 1.000000; 1.000000; 1.000000; 1.000000;,
       51; 1.000000; 1.000000; 1.000000; 1.000000;,
       52; 1.000000; 1.000000; 1.000000; 1.000000;,
       53; 1.000000; 1.000000; 1.000000; 1.000000;,
       54; 1.000000; 1.000000; 1.000000; 1.000000;,
       55; 1.000000; 1.000000; 1.000000; 1.000000;,
       56; 1.000000; 1.000000; 1.000000; 1.000000;,
       57; 1.000000; 1.000000; 1.000000; 1.000000;,
       58; 1.000000; 1.000000; 1.000000; 1.000000;,
       59; 1.000000; 1.000000; 1.000000; 1.000000;,
       60; 1.000000; 1.000000; 1.000000; 1.000000;,
       61; 1.000000; 1.000000; 1.000000; 1.000000;,
       62; 1.000000; 1.000000; 1.000000; 1.000000;,
       63; 1.000000; 1.000000; 1.000000; 1.000000;,
       64; 1.000000; 1.000000; 1.000000; 1.000000;,
       65; 1.000000; 1.000000; 1.000000; 1.000000;,
       66; 1.000000; 1.000000; 1.000000; 1.000000;,
       67; 1.000000; 1.000000; 1.000000; 1.000000;,
       68; 1.000000; 1.000000; 1.000000; 1.000000;,
       69; 1.000000; 1.000000; 1.000000; 1.000000;,
       70; 1.000000; 1.000000; 1.000000; 1.000000;,
       71; 1.000000; 1.000000; 1.000000; 1.000000;,
       72; 1.000000; 1.000000; 1.000000; 1.000000;,
       73; 1.000000; 1.000000; 1.000000; 1.000000;,
       74; 1.000000; 1.000000; 1.000000; 1.000000;,
       75; 1.000000; 1.000000; 1.000000; 1.000000;,
       76; 1.000000; 1.000000; 1.000000; 1.000000;,
       77; 1.000000; 1.000000; 1.000000; 1.000000;,
       78; 1.000000; 1.000000; 1.000000; 1.000000;,
       79; 1.000000; 1.000000; 1.000000; 1.000000;,
       80; 1.000000; 1.000000; 1.000000; 1.000000;,
       81; 1.000000; 1.000000; 1.000000; 1.000000;,
       82; 1.000000; 1.000000; 1.000000; 1.000000;,
       83; 1.000000; 1.000000; 1.000000; 1.000000;,
       84; 1.000000; 1.000000; 1.000000; 1.000000;,
       85; 1.000000; 1.000000; 1.000000; 1.000000;,
       86; 1.000000; 1.000000; 1.000000; 1.000000;,
       87; 1.000000; 1.000000; 1.000000; 1.000000;,
       88; 1.000000; 1.000000; 1.000000; 1.000000;,
       89; 1.000000; 1.000000; 1.000000; 1.000000;,
       90; 1.000000; 1.000000; 1.000000; 1.000000;,
       91; 1.000000; 1.000000; 1.000000; 1.000000;,
       92; 1.000000; 1.000000; 1.000000; 1.000000;,
       93; 1.000000; 1.000000; 1.000000; 1.000000;,
       94; 1.000000; 1.000000; 1.000000; 1.000000;,
       95; 1.000000; 1.000000; 1.000000; 1.000000;,
       96; 1.000000; 1.000000; 1.000000; 1.000000;,
       97; 1.000000; 1.000000; 1.000000; 1.000000;,
       98; 1.000000; 1.000000; 1.000000; 1.000000;,
       99; 1.000000; 1.000000; 1.000000; 1.000000;,
       100; 1.000000; 1.000000; 1.000000; 1.000000;,
       101; 1.000000; 1.000000; 1.000000; 1.000000;,
       102; 1.000000; 1.000000; 1.000000; 1.000000;,
       103; 1.000000; 1.000000; 1.000000; 1.000000;,
       104; 1.000000; 1.000000; 1.000000; 1.000000;,
       105; 1.000000; 1.000000; 1.000000; 1.000000;,
       106; 1.000000; 1.000000; 1.000000; 1.000000;,
       107; 1.000000; 1.000000; 1.000000; 1.000000;,
       108; 1.000000; 1.000000; 1.000000; 1.000000;,
       109; 1.000000; 1.000000; 1.000000; 1.000000;,
       110; 1.000000; 1.000000; 1.000000; 1.000000;,
       111; 1.000000; 1.000000; 1.000000; 1.000000;,
       112; 1.000000; 1.000000; 1.000000; 1.000000;,
       113; 1.000000; 1.000000; 1.000000; 1.000000;,
       114; 1.000000; 1.000000; 1.000000; 1.000000;,
       115; 1.000000; 1.000000; 1.000000; 1.000000;,
       116; 1.000000; 1.000000; 1.000000; 1.000000;,
       117; 1.000000; 1.000000; 1.000000; 1.000000;,
       118; 1.000000; 1.000000; 1.000000; 1.000000;,
       119; 1.000000; 1.000000; 1.000000; 1.000000;,
       120; 1.000000; 1.000000; 1.000000; 1.000000;,
       121; 1.000000; 1.000000; 1.000000; 1.000000;,
       122; 1.000000; 1.000000; 1.000000; 1.000000;,
       123; 1.000000; 1.000000; 1.000000; 1.000000;,
       124; 1.000000; 1.000000; 1.000000; 1.000000;,
       125; 1.000000; 1.000000; 1.000000; 1.000000;,
       126; 1.000000; 1.000000; 1.000000; 1.000000;,
       127; 1.000000; 1.000000; 1.000000; 1.000000;,
       128; 1.000000; 1.000000; 1.000000; 1.000000;,
       129; 1.000000; 1.000000; 1.000000; 1.000000;,
       130; 1.000000; 1.000000; 1.000000; 1.000000;,
       131; 1.000000; 1.000000; 1.000000; 1.000000;,
       132; 1.000000; 1.000000; 1.000000; 1.000000;,
       133; 1.000000; 1.000000; 1.000000; 1.000000;,
       134; 1.000000; 1.000000; 1.000000; 1.000000;,
       135; 1.000000; 1.000000; 1.000000; 1.000000;,
       136; 1.000000; 1.000000; 1.000000; 1.000000;,
       137; 1.000000; 1.000000; 1.000000; 1.000000;,
       138; 1.000000; 1.000000; 1.000000; 1.000000;,
       139; 1.000000; 1.000000; 1.000000; 1.000000;,
       140; 1.000000; 1.000000; 1.000000; 1.000000;,
       141; 1.000000; 1.000000; 1.000000; 1.000000;,
       142; 1.000000; 1.000000; 1.000000; 1.000000;,
       143; 1.000000; 1.000000; 1.000000; 1.000000;,
       144; 1.000000; 1.000000; 1.000000; 1.000000;,
       145; 1.000000; 1.000000; 1.000000; 1.000000;,
       146; 1.000000; 1.000000; 1.000000; 1.000000;,
       147; 1.000000; 1.000000; 1.000000; 1.000000;,
       148; 1.000000; 1.000000; 1.000000; 1.000000;,
       149; 1.000000; 1.000000; 1.000000; 1.000000;,
       150; 1.000000; 1.000000; 1.000000; 1.000000;,
       151; 1.000000; 1.000000; 1.000000; 1.000000;,
       152; 1.000000; 1.000000; 1.000000; 1.000000;,
       153; 1.000000; 1.000000; 1.000000; 1.000000;;
      }

      MeshMaterialList {
       1;
       304;
       0,
       0,
       0,
       0,
       0,
       0,
       0,
       0,
       0,
       0,
       0,
       0,
       0,
       0,
       0,
       0,
       0,
       0,
       0,
       0,
       0,
       0,
       0,
       0,
       0,
       0,
       0,
       0,
       0,
       0,
       0,
       0,
       0,
       0,
       0,
       0,
       0,
       0,
       0,
       0,
       0,
       0,
       0,
       0,
       0,
       0,
       0,
       0,
       0,
       0,
       0,
       0,
       0,
       0,
       0,
       0,
       0,
       0,
       0,
       0,
       0,
       0,
       0,
       0,
       0,
       0,
       0,
       0,
       0,
       0,
       0,
       0,
       0,
       0,
       0,
       0,
       0,
       0,
       0,
       0,
       0,
       0,
       0,
       0,
       0,
       0,
       0,
       0,
       0,
       0,
       0,
       0,
       0,
       0,
       0,
       0,
       0,
       0,
       0,
       0,
       0,
       0,
       0,
       0,
       0,
       0,
       0,
       0,
       0,
       0,
       0,
       0,
       0,
       0,
       0,
       0,
       0,
       0,
       0,
       0,
       0,
       0,
       0,
       0,
       0,
       0,
       0,
       0,
       0,
       0,
       0,
       0,
       0,
       0,
       0,
       0,
       0,
       0,
       0,
       0,
       0,
       0,
       0,
       0,
       0,
       0,
       0,
       0,
       0,
       0,
       0,
       0,
       0,
       0,
       0,
       0,
       0,
       0,
       0,
       0,
       0,
       0,
       0,
       0,
       0,
       0,
       0,
       0,
       0,
       0,
       0,
       0,
       0,
       0,
       0,
       0,
       0,
       0,
       0,
       0,
       0,
       0,
       0,
       0,
       0,
       0,
       0,
       0,
       0,
       0,
       0,
       0,
       0,
       0,
       0,
       0,
       0,
       0,
       0,
       0,
       0,
       0,
       0,
       0,
       0,
       0,
       0,
       0,
       0,
       0,
       0,
       0,
       0,
       0,
       0,
       0,
       0,
       0,
       0,
       0,
       0,
       0,
       0,
       0,
       0,
       0,
       0,
       0,
       0,
       0,
       0,
       0,
       0,
       0,
       0,
       0,
       0,
       0,
       0,
       0,
       0,
       0,
       0,
       0,
       0,
       0,
       0,
       0,
       0,
       0,
       0,
       0,
       0,
       0,
       0,
       0,
       0,
       0,
       0,
       0,
       0,
       0,
       0,
       0,
       0,
       0,
       0,
       0,
       0,
       0,
       0,
       0,
       0,
       0,
       0,
       0,
       0,
       0,
       0,
       0,
       0,
       0,
       0,
       0,
       0,
       0,
       0,
       0,
       0,
       0,
       0,
       0,
       0,
       0,
       0,
       0,
       0,
       0,
       0,
       0,
       0,
       0,
       0,
       0;

       Material def_surf_mat {
        0.992157; 0.992157; 0.992157; 1.000000;;
        1.000000;
        0.150000; 0.150000; 0.150000;;
        0.000000; 0.000000; 0.000000;;

        TextureFilename {
         "parsnip.dds";
        }
       }

      }

      XSkinMeshHeader {
       1;
       1;
       1;
      }

      SkinWeights {
       "Body";
       154;
       0,
       1,
       2,
       3,
       4,
       5,
       6,
       7,
       8,
       9,
       10,
       11,
       12,
       13,
       14,
       15,
       16,
       17,
       18,
       19,
       20,
       21,
       22,
       23,
       24,
       25,
       26,
       27,
       28,
       29,
       30,
       31,
       32,
       33,
       34,
       35,
       36,
       37,
       38,
       39,
       40,
       41,
       42,
       43,
       44,
       45,
       46,
       47,
       48,
       49,
       50,
       51,
       52,
       53,
       54,
       55,
       56,
       57,
       58,
       59,
       60,
       61,
       62,
       63,
       64,
       65,
       66,
       67,
       68,
       69,
       70,
       71,
       72,
       73,
       74,
       75,
       76,
       77,
       78,
       79,
       80,
       81,
       82,
       83,
       84,
       85,
       86,
       87,
       88,
       89,
       90,
       91,
       92,
       93,
       94,
       95,
       96,
       97,
       98,
       99,
       100,
       101,
       102,
       103,
       104,
       105,
       106,
       107,
       108,
       109,
       110,
       111,
       112,
       113,
       114,
       115,
       116,
       117,
       118,
       119,
       120,
       121,
       122,
       123,
       124,
       125,
       126,
       127,
       128,
       129,
       130,
       131,
       132,
       133,
       134,
       135,
       136,
       137,
       138,
       139,
       140,
       141,
       142,
       143,
       144,
       145,
       146,
       147,
       148,
       149,
       150,
       151,
       152,
       153;
       1.000000,
       1.000000,
       1.000000,
       1.000000,
       1.000000,
       1.000000,
       1.000000,
       1.000000,
       1.000000,
       1.000000,
       1.000000,
       1.000000,
       1.000000,
       1.000000,
       1.000000,
       1.000000,
       1.000000,
       1.000000,
       1.000000,
       1.000000,
       1.000000,
       1.000000,
       1.000000,
       1.000000,
       1.000000,
       1.000000,
       1.000000,
       1.000000,
       1.000000,
       1.000000,
       1.000000,
       1.000000,
       1.000000,
       1.000000,
       1.000000,
       1.000000,
       1.000000,
       1.000000,
       1.000000,
       1.000000,
       1.000000,
       1.000000,
       1.000000,
       1.000000,
       1.000000,
       1.000000,
       1.000000,
       1.000000,
       1.000000,
       1.000000,
       1.000000,
       1.000000,
       1.000000,
       1.000000,
       1.000000,
       1.000000,
       1.000000,
       1.000000,
       1.000000,
       1.000000,
       1.000000,
       1.000000,
       1.000000,
       1.000000,
       1.000000,
       1.000000,
       1.000000,
       1.000000,
       1.000000,
       1.000000,
       1.000000,
       1.000000,
       1.000000,
       1.000000,
       1.000000,
       1.000000,
       1.000000,
       1.000000,
       1.000000,
       1.000000,
       1.000000,
       1.000000,
       1.000000,
       1.000000,
       1.000000,
       1.000000,
       1.000000,
       1.000000,
       1.000000,
       1.000000,
       1.000000,
       1.000000,
       1.000000,
       1.000000,
       1.000000,
       1.000000,
       1.000000,
       1.000000,
       1.000000,
       1.000000,
       1.000000,
       1.000000,
       1.000000,
       1.000000,
       1.000000,
       1.000000,
       1.000000,
       1.000000,
       1.000000,
       1.000000,
       1.000000,
       1.000000,
       1.000000,
       1.000000,
       1.000000,
       1.000000,
       1.000000,
       1.000000,
       1.000000,
       1.000000,
       1.000000,
       1.000000,
       1.000000,
       1.000000,
       1.000000,
       1.000000,
       1.000000,
       1.000000,
       1.000000,
       1.000000,
       1.000000,
       1.000000,
       1.000000,
       1.000000,
       1.000000,
       1.000000,
       1.000000,
       1.000000,
       1.000000,
       1.000000,
       1.000000,
       1.000000,
       1.000000,
       1.000000,
       1.000000,
       1.000000,
       1.000000,
       1.000000,
       1.000000,
       1.000000,
       1.000000,
       1.000000,
       1.000000,
       1.000000;
          1.000000, -0.000000, 0.000000, 0.000000,
          -0.000000, 1.000000, -0.000000, 0.000000,
          0.000000, -0.000000, 1.000000, 0.000000,
          -0.000000, -0.000000, -0.000000, 1.000000;;
      }


     }
   }

// Start of Animation

AnimationSet Untitled {
}
