# Wavefront OBJ file
# Creator: Ultimate Unwrap3D Pro v3.19
# Website: http://www.unwrap3d.com
# Time: Thu Dec 10 21:55:26 2009
# num_vertices: 72
# num_vertex_normals: 72
# num_uvs: 420
# num_faces: 140
# num_groups: 1

mtllib plate.mtl

v -4.667351 0.000000 5.562350
v -2.483450 0.000000 6.823251
v -4.667351 0.374001 5.562350
v -2.483450 0.374001 6.823251
v -6.288349 0.000000 3.630550
v -6.288349 0.374001 3.630550
v -7.150850 0.000000 1.260850
v -7.150850 0.374001 1.260850
v -7.150850 0.000000 -1.260850
v -7.150850 0.374001 -1.260850
v -6.288349 0.000000 -3.630569
v -6.288349 0.374001 -3.630569
v -4.667351 0.000000 -5.562360
v -4.667351 0.374001 -5.562360
v -2.483450 0.000000 -6.823250
v -2.483450 0.374001 -6.823250
v -0.000050 0.000000 -7.261150
v -0.000050 0.374001 -7.261150
v 2.483450 0.000000 -6.823250
v 2.483450 0.374001 -6.823250
v 4.667351 0.000000 -5.562360
v 4.667351 0.374001 -5.562360
v 6.288350 0.000000 -3.630569
v 6.288350 0.374001 -3.630569
v 7.150850 0.000000 -1.260850
v 7.150850 0.374001 -1.260850
v 7.150850 0.000000 1.260850
v 7.150850 0.374001 1.260850
v 6.288350 0.000000 3.630550
v 6.288350 0.374001 3.630550
v 4.667351 0.000000 5.562350
v 4.667351 0.374001 5.562350
v 2.483450 0.000000 6.823251
v 2.483450 0.374001 6.823251
v -0.000050 0.000000 7.261149
v -0.000050 0.374001 7.261149
v -0.000050 0.374001 6.837150
v -2.338449 0.374001 6.424750
v 2.338449 0.374001 6.424750
v 4.394751 0.374001 5.237550
v 5.921051 0.374001 3.418550
v 6.733250 0.374001 1.187250
v 6.733250 0.374001 -1.187250
v 5.921051 0.374001 -3.418540
v 4.394751 0.374001 -5.237510
v 2.338449 0.374001 -6.424760
v -0.000050 0.374001 -6.837080
v -2.338449 0.374001 -6.424760
v -4.394850 0.374001 -5.237510
v -5.921150 0.374001 -3.418540
v -6.733250 0.374001 -1.187250
v -6.733250 0.374001 1.187250
v -5.921150 0.374001 3.418550
v -4.394850 0.374001 5.237550
v -4.394850 0.281700 5.237550
v -2.338449 0.281700 6.424750
v -5.921150 0.281700 3.418550
v -0.000050 0.281700 6.837150
v -6.733250 0.281700 1.187250
v 2.338449 0.281700 6.424750
v -6.733250 0.281700 -1.187250
v 4.394751 0.281700 5.237550
v -5.921150 0.281700 -3.418540
v 5.921051 0.281700 3.418550
v -4.394850 0.281700 -5.237510
v 6.733250 0.281700 1.187250
v -2.338449 0.281700 -6.424760
v 6.733250 0.281700 -1.187250
v -0.000050 0.281700 -6.837080
v 5.921051 0.281700 -3.418540
v 2.338449 0.281700 -6.424760
v 4.394751 0.281700 -5.237510
# num_vertices: 72

vn -0.482209 -0.711893 0.510571
vn -0.328579 -0.559920 0.760609
vn -0.419080 0.711893 0.563543
vn -0.201065 0.711893 0.672890
vn -0.627753 -0.711893 0.314855
vn -0.586546 0.711893 0.386228
vn -0.697582 -0.711893 0.081161
vn -0.683272 0.711893 0.162321
vn -0.683272 -0.711893 -0.162320
vn -0.697582 0.711893 -0.081160
vn -0.586545 -0.711893 -0.386228
vn -0.627754 0.711893 -0.314854
vn -0.419079 -0.711893 -0.563544
vn -0.482208 0.711893 -0.510573
vn -0.201064 -0.711893 -0.672890
vn -0.278507 0.711893 -0.644703
vn 0.055584 -0.320112 -0.945748
vn -0.041209 0.711893 -0.701078
vn 0.328576 -0.559920 -0.760610
vn 0.201061 0.711893 -0.672891
vn 0.482208 -0.711893 -0.510573
vn 0.419078 0.711893 -0.563544
vn 0.627754 -0.711893 -0.314854
vn 0.586545 0.711893 -0.386228
vn 0.697582 -0.711893 -0.081160
vn 0.683272 0.711893 -0.162320
vn 0.683272 -0.711893 0.162321
vn 0.697582 0.711893 0.081161
vn 0.586546 -0.711893 0.386228
vn 0.627753 0.711893 0.314855
vn 0.419080 -0.711893 0.563543
vn 0.482209 0.711893 0.510571
vn 0.201062 -0.711893 0.672891
vn 0.278507 0.711893 0.644703
vn -0.055590 -0.320112 0.945747
vn 0.041204 0.711893 0.701078
vn -0.041210 0.711895 -0.701076
vn 0.201071 0.711892 -0.672890
vn -0.278509 0.711892 -0.644703
vn -0.482212 0.711893 -0.510568
vn -0.627750 0.711892 -0.314864
vn -0.697581 0.711894 -0.081167
vn -0.683267 0.711894 0.162335
vn -0.586545 0.711892 0.386231
vn -0.419084 0.711893 0.563540
vn -0.201061 0.711894 0.672890
vn 0.041208 0.711893 0.701078
vn 0.278502 0.711893 0.644705
vn 0.482209 0.711893 0.510571
vn 0.627756 0.711893 0.314849
vn 0.697583 0.711893 0.081159
vn 0.683273 0.711893 -0.162316
vn 0.586551 0.711893 -0.386220
vn 0.419070 0.711894 -0.563549
vn 0.650495 0.320113 -0.688756
vn 0.328571 0.559918 -0.760614
vn 0.627757 0.711893 -0.314847
vn 0.041216 0.711895 -0.701076
vn 0.697583 0.711893 -0.081158
vn -0.201072 0.711892 -0.672889
vn 0.683273 0.711893 0.162317
vn -0.419079 0.711893 -0.563543
vn 0.586549 0.711893 0.386223
vn -0.586547 0.711892 -0.386228
vn 0.419076 0.711893 0.563545
vn -0.683268 0.711894 -0.162334
vn 0.201060 0.711893 0.672892
vn -0.697581 0.711894 0.081167
vn -0.041203 0.711893 0.701078
vn -0.627749 0.711892 0.314866
vn -0.328580 0.559920 0.760608
vn -0.650500 0.320112 0.688751
# num_vertex_normals: 72

vt 0.220876 0.158716
vt 0.345408 0.086816
vt 0.194554 0.127347
vt 0.345408 0.086816
vt 0.331402 0.048336
vt 0.194554 0.127347
vt 0.128443 0.268873
vt 0.220876 0.158716
vt 0.092979 0.248398
vt 0.220876 0.158716
vt 0.194554 0.127347
vt 0.092979 0.248398
vt 0.079261 0.403999
vt 0.128443 0.268873
vt 0.038933 0.396888
vt 0.128443 0.268873
vt 0.092979 0.248398
vt 0.038933 0.396888
vt 0.079261 0.547793
vt 0.079261 0.403999
vt 0.038933 0.554904
vt 0.079261 0.403999
vt 0.038933 0.396888
vt 0.038933 0.554904
vt 0.128443 0.682921
vt 0.079261 0.547793
vt 0.092979 0.703396
vt 0.079261 0.547793
vt 0.038933 0.554904
vt 0.092979 0.703396
vt 0.220876 0.793077
vt 0.128443 0.682921
vt 0.194554 0.824446
vt 0.128443 0.682921
vt 0.092979 0.703396
vt 0.194554 0.824446
vt 0.345408 0.864976
vt 0.220876 0.793077
vt 0.331402 0.903456
vt 0.220876 0.793077
vt 0.194554 0.824446
vt 0.331402 0.903456
vt 0.487018 0.889946
vt 0.345408 0.864976
vt 0.487018 0.930896
vt 0.345408 0.864976
vt 0.331402 0.903456
vt 0.487018 0.930896
vt 0.628634 0.864976
vt 0.487018 0.889946
vt 0.642640 0.903456
vt 0.487018 0.889946
vt 0.487018 0.930896
vt 0.642640 0.903456
vt 0.753166 0.793077
vt 0.628634 0.864976
vt 0.779488 0.824446
vt 0.628634 0.864976
vt 0.642640 0.903456
vt 0.779488 0.824446
vt 0.845600 0.682921
vt 0.753166 0.793077
vt 0.881063 0.703396
vt 0.753166 0.793077
vt 0.779488 0.824446
vt 0.881063 0.703396
vt 0.894782 0.547793
vt 0.845600 0.682921
vt 0.935109 0.554904
vt 0.845600 0.682921
vt 0.881063 0.703396
vt 0.935109 0.554904
vt 0.894782 0.403999
vt 0.894782 0.547793
vt 0.935109 0.396888
vt 0.894782 0.547793
vt 0.935109 0.554904
vt 0.935109 0.396888
vt 0.845600 0.268873
vt 0.894782 0.403999
vt 0.881063 0.248398
vt 0.894782 0.403999
vt 0.935109 0.396888
vt 0.881063 0.248398
vt 0.753166 0.158716
vt 0.845600 0.268873
vt 0.779488 0.127347
vt 0.845600 0.268873
vt 0.881063 0.248398
vt 0.779488 0.127347
vt 0.628634 0.086816
vt 0.753166 0.158716
vt 0.642640 0.048336
vt 0.753166 0.158716
vt 0.779488 0.127347
vt 0.642640 0.048336
vt 0.487018 0.061846
vt 0.628634 0.086816
vt 0.487018 0.020896
vt 0.628634 0.086816
vt 0.642640 0.048336
vt 0.487018 0.020896
vt 0.345408 0.086816
vt 0.487018 0.061846
vt 0.331402 0.048336
vt 0.487018 0.061846
vt 0.487018 0.020896
vt 0.331402 0.048336
vt 0.487018 0.061846
vt 0.345408 0.086816
vt 0.628634 0.086816
vt 0.345408 0.086816
vt 0.220876 0.158716
vt 0.628634 0.086816
vt 0.628634 0.086816
vt 0.220876 0.158716
vt 0.753166 0.158716
vt 0.220876 0.158716
vt 0.128443 0.268873
vt 0.753166 0.158716
vt 0.753166 0.158716
vt 0.128443 0.268873
vt 0.845600 0.268873
vt 0.128443 0.268873
vt 0.079261 0.403999
vt 0.845600 0.268873
vt 0.845600 0.268873
vt 0.079261 0.403999
vt 0.894782 0.403999
vt 0.079261 0.403999
vt 0.079261 0.547793
vt 0.894782 0.403999
vt 0.894782 0.403999
vt 0.079261 0.547793
vt 0.894782 0.547793
vt 0.079261 0.547793
vt 0.128443 0.682921
vt 0.894782 0.547793
vt 0.894782 0.547793
vt 0.128443 0.682921
vt 0.845600 0.682921
vt 0.128443 0.682921
vt 0.220876 0.793077
vt 0.845600 0.682921
vt 0.845600 0.682921
vt 0.220876 0.793077
vt 0.753166 0.793077
vt 0.220876 0.793077
vt 0.345408 0.864976
vt 0.753166 0.793077
vt 0.753166 0.793077
vt 0.345408 0.864976
vt 0.628634 0.864976
vt 0.345408 0.864976
vt 0.487018 0.889946
vt 0.628634 0.864976
vt 0.487018 0.047465
vt 0.340488 0.073307
vt 0.487018 0.020896
vt 0.340488 0.073307
vt 0.331402 0.048336
vt 0.487018 0.020896
vt 0.633554 0.073307
vt 0.487018 0.047465
vt 0.642640 0.048336
vt 0.487018 0.047465
vt 0.487018 0.020896
vt 0.642640 0.048336
vt 0.762406 0.147699
vt 0.633554 0.073307
vt 0.779488 0.127347
vt 0.633554 0.073307
vt 0.642640 0.048336
vt 0.779488 0.127347
vt 0.858047 0.261682
vt 0.762406 0.147699
vt 0.881063 0.248398
vt 0.762406 0.147699
vt 0.779488 0.127347
vt 0.881063 0.248398
vt 0.908942 0.401500
vt 0.858047 0.261682
vt 0.935109 0.396888
vt 0.858047 0.261682
vt 0.881063 0.248398
vt 0.935109 0.396888
vt 0.908942 0.550292
vt 0.908942 0.401500
vt 0.935109 0.554904
vt 0.908942 0.401500
vt 0.935109 0.396888
vt 0.935109 0.554904
vt 0.858047 0.690109
vt 0.908942 0.550292
vt 0.881063 0.703396
vt 0.908942 0.550292
vt 0.935109 0.554904
vt 0.881063 0.703396
vt 0.762406 0.804090
vt 0.858047 0.690109
vt 0.779488 0.824446
vt 0.858047 0.690109
vt 0.881063 0.703396
vt 0.779488 0.824446
vt 0.633554 0.878486
vt 0.762406 0.804090
vt 0.642640 0.903456
vt 0.762406 0.804090
vt 0.779488 0.824446
vt 0.642640 0.903456
vt 0.487018 0.904323
vt 0.633554 0.878486
vt 0.487018 0.930896
vt 0.633554 0.878486
vt 0.642640 0.903456
vt 0.487018 0.930896
vt 0.340488 0.878486
vt 0.487018 0.904323
vt 0.331402 0.903456
vt 0.487018 0.904323
vt 0.487018 0.930896
vt 0.331402 0.903456
vt 0.211630 0.804090
vt 0.340488 0.878486
vt 0.194554 0.824446
vt 0.340488 0.878486
vt 0.331402 0.903456
vt 0.194554 0.824446
vt 0.115988 0.690109
vt 0.211630 0.804090
vt 0.092979 0.703396
vt 0.211630 0.804090
vt 0.194554 0.824446
vt 0.092979 0.703396
vt 0.065100 0.550292
vt 0.115988 0.690109
vt 0.038933 0.554904
vt 0.115988 0.690109
vt 0.092979 0.703396
vt 0.038933 0.554904
vt 0.065100 0.401500
vt 0.065100 0.550292
vt 0.038933 0.396888
vt 0.065100 0.550292
vt 0.038933 0.554904
vt 0.038933 0.396888
vt 0.115988 0.261682
vt 0.065100 0.401500
vt 0.092979 0.248398
vt 0.065100 0.401500
vt 0.038933 0.396888
vt 0.092979 0.248398
vt 0.211630 0.147699
vt 0.115988 0.261682
vt 0.194554 0.127347
vt 0.115988 0.261682
vt 0.092979 0.248398
vt 0.194554 0.127347
vt 0.340488 0.073307
vt 0.211630 0.147699
vt 0.331402 0.048336
vt 0.211630 0.147699
vt 0.194554 0.127347
vt 0.331402 0.048336
vt 0.211630 0.147699
vt 0.340488 0.073307
vt 0.115988 0.261682
vt 0.340488 0.073307
vt 0.487018 0.047465
vt 0.115988 0.261682
vt 0.115988 0.261682
vt 0.487018 0.047465
vt 0.065100 0.401500
vt 0.487018 0.047465
vt 0.633554 0.073307
vt 0.065100 0.401500
vt 0.065100 0.401500
vt 0.633554 0.073307
vt 0.065100 0.550292
vt 0.633554 0.073307
vt 0.762406 0.147699
vt 0.065100 0.550292
vt 0.065100 0.550292
vt 0.762406 0.147699
vt 0.115988 0.690109
vt 0.762406 0.147699
vt 0.858047 0.261682
vt 0.115988 0.690109
vt 0.115988 0.690109
vt 0.858047 0.261682
vt 0.211630 0.804090
vt 0.858047 0.261682
vt 0.908942 0.401500
vt 0.211630 0.804090
vt 0.211630 0.804090
vt 0.908942 0.401500
vt 0.340488 0.878486
vt 0.908942 0.401500
vt 0.908942 0.550292
vt 0.340488 0.878486
vt 0.340488 0.878486
vt 0.908942 0.550292
vt 0.487018 0.904323
vt 0.908942 0.550292
vt 0.858047 0.690109
vt 0.487018 0.904323
vt 0.487018 0.904323
vt 0.858047 0.690109
vt 0.633554 0.878486
vt 0.858047 0.690109
vt 0.762406 0.804090
vt 0.633554 0.878486
vt 0.340488 0.073307
vt 0.340488 0.073307
vt 0.487018 0.047465
vt 0.340488 0.073307
vt 0.487018 0.047465
vt 0.487018 0.047465
vt 0.211630 0.147699
vt 0.211630 0.147699
vt 0.340488 0.073307
vt 0.211630 0.147699
vt 0.340488 0.073307
vt 0.340488 0.073307
vt 0.487018 0.047465
vt 0.487018 0.047465
vt 0.633554 0.073307
vt 0.487018 0.047465
vt 0.633554 0.073307
vt 0.633554 0.073307
vt 0.633554 0.073307
vt 0.633554 0.073307
vt 0.762406 0.147699
vt 0.633554 0.073307
vt 0.762406 0.147699
vt 0.762406 0.147699
vt 0.762406 0.147699
vt 0.762406 0.147699
vt 0.858047 0.261682
vt 0.762406 0.147699
vt 0.858047 0.261682
vt 0.858047 0.261682
vt 0.858047 0.261682
vt 0.858047 0.261682
vt 0.908942 0.401500
vt 0.858047 0.261682
vt 0.908942 0.401500
vt 0.908942 0.401500
vt 0.908942 0.401500
vt 0.908942 0.401500
vt 0.908942 0.550292
vt 0.908942 0.401500
vt 0.908942 0.550292
vt 0.908942 0.550292
vt 0.908942 0.550292
vt 0.908942 0.550292
vt 0.858047 0.690109
vt 0.908942 0.550292
vt 0.858047 0.690109
vt 0.858047 0.690109
vt 0.858047 0.690109
vt 0.858047 0.690109
vt 0.762406 0.804090
vt 0.858047 0.690109
vt 0.762406 0.804090
vt 0.762406 0.804090
vt 0.762406 0.804090
vt 0.762406 0.804090
vt 0.633554 0.878486
vt 0.762406 0.804090
vt 0.633554 0.878486
vt 0.633554 0.878486
vt 0.633554 0.878486
vt 0.633554 0.878486
vt 0.487018 0.904323
vt 0.633554 0.878486
vt 0.487018 0.904323
vt 0.487018 0.904323
vt 0.487018 0.904323
vt 0.487018 0.904323
vt 0.340488 0.878486
vt 0.487018 0.904323
vt 0.340488 0.878486
vt 0.340488 0.878486
vt 0.340488 0.878486
vt 0.340488 0.878486
vt 0.211630 0.804090
vt 0.340488 0.878486
vt 0.211630 0.804090
vt 0.211630 0.804090
vt 0.211630 0.804090
vt 0.211630 0.804090
vt 0.115988 0.690109
vt 0.211630 0.804090
vt 0.115988 0.690109
vt 0.115988 0.690109
vt 0.115988 0.690109
vt 0.115988 0.690109
vt 0.065100 0.550292
vt 0.115988 0.690109
vt 0.065100 0.550292
vt 0.065100 0.550292
vt 0.065100 0.550292
vt 0.065100 0.550292
vt 0.065100 0.401500
vt 0.065100 0.550292
vt 0.065100 0.401500
vt 0.065100 0.401500
vt 0.065100 0.401500
vt 0.065100 0.401500
vt 0.115988 0.261682
vt 0.065100 0.401500
vt 0.115988 0.261682
vt 0.115988 0.261682
vt 0.115988 0.261682
vt 0.115988 0.261682
vt 0.211630 0.147699
vt 0.115988 0.261682
vt 0.211630 0.147699
vt 0.211630 0.147699
# num_uvs: 420

g def_surf_mat
s 1

usemtl def_surf_mat
f 1/1/1 2/2/2 3/3/3 
f 2/4/2 4/5/4 3/6/3 
f 5/7/5 1/8/1 6/9/6 
f 1/10/1 3/11/3 6/12/6 
f 7/13/7 5/14/5 8/15/8 
f 5/16/5 6/17/6 8/18/8 
f 9/19/9 7/20/7 10/21/10 
f 7/22/7 8/23/8 10/24/10 
f 11/25/11 9/26/9 12/27/12 
f 9/28/9 10/29/10 12/30/12 
f 13/31/13 11/32/11 14/33/14 
f 11/34/11 12/35/12 14/36/14 
f 15/37/15 13/38/13 16/39/16 
f 13/40/13 14/41/14 16/42/16 
f 17/43/17 15/44/15 18/45/18 
f 15/46/15 16/47/16 18/48/18 
f 19/49/19 17/50/17 20/51/20 
f 17/52/17 18/53/18 20/54/20 
f 21/55/21 19/56/19 22/57/22 
f 19/58/19 20/59/20 22/60/22 
f 23/61/23 21/62/21 24/63/24 
f 21/64/21 22/65/22 24/66/24 
f 25/67/25 23/68/23 26/69/26 
f 23/70/23 24/71/24 26/72/26 
f 27/73/27 25/74/25 28/75/28 
f 25/76/25 26/77/26 28/78/28 
f 29/79/29 27/80/27 30/81/30 
f 27/82/27 28/83/28 30/84/30 
f 31/85/31 29/86/29 32/87/32 
f 29/88/29 30/89/30 32/90/32 
f 33/91/33 31/92/31 34/93/34 
f 31/94/31 32/95/32 34/96/34 
f 35/97/35 33/98/33 36/99/36 
f 33/100/33 34/101/34 36/102/36 
f 2/103/2 35/104/35 4/105/4 
f 35/106/35 36/107/36 4/108/4 
f 35/109/35 2/110/2 33/111/33 
f 2/112/2 1/113/1 33/114/33 
f 33/115/33 1/116/1 31/117/31 
f 1/118/1 5/119/5 31/120/31 
f 31/121/31 5/122/5 29/123/29 
f 5/124/5 7/125/7 29/126/29 
f 29/127/29 7/128/7 27/129/27 
f 7/130/7 9/131/9 27/132/27 
f 27/133/27 9/134/9 25/135/25 
f 9/136/9 11/137/11 25/138/25 
f 25/139/25 11/140/11 23/141/23 
f 11/142/11 13/143/13 23/144/23 
f 23/145/23 13/146/13 21/147/21 
f 13/148/13 15/149/15 21/150/21 
f 21/151/21 15/152/15 19/153/19 
f 15/154/15 17/155/17 19/156/19 
f 37/157/37 38/158/38 36/159/36 
f 38/160/38 4/161/4 36/162/36 
f 39/163/39 37/164/37 34/165/34 
f 37/166/37 36/167/36 34/168/34 
f 40/169/40 39/170/39 32/171/32 
f 39/172/39 34/173/34 32/174/32 
f 41/175/41 40/176/40 30/177/30 
f 40/178/40 32/179/32 30/180/30 
f 42/181/42 41/182/41 28/183/28 
f 41/184/41 30/185/30 28/186/28 
f 43/187/43 42/188/42 26/189/26 
f 42/190/42 28/191/28 26/192/26 
f 44/193/44 43/194/43 24/195/24 
f 43/196/43 26/197/26 24/198/24 
f 45/199/45 44/200/44 22/201/22 
f 44/202/44 24/203/24 22/204/22 
f 46/205/46 45/206/45 20/207/20 
f 45/208/45 22/209/22 20/210/20 
f 47/211/47 46/212/46 18/213/18 
f 46/214/46 20/215/20 18/216/18 
f 48/217/48 47/218/47 16/219/16 
f 47/220/47 18/221/18 16/222/16 
f 49/223/49 48/224/48 14/225/14 
f 48/226/48 16/227/16 14/228/14 
f 50/229/50 49/230/49 12/231/12 
f 49/232/49 14/233/14 12/234/12 
f 51/235/51 50/236/50 10/237/10 
f 50/238/50 12/239/12 10/240/10 
f 52/241/52 51/242/51 8/243/8 
f 51/244/51 10/245/10 8/246/8 
f 53/247/53 52/248/52 6/249/6 
f 52/250/52 8/251/8 6/252/6 
f 54/253/54 53/254/53 3/255/3 
f 53/256/53 6/257/6 3/258/3 
f 38/259/38 54/260/54 4/261/4 
f 54/262/54 3/263/3 4/264/4 
f 55/265/55 56/266/56 57/267/57 
f 56/268/56 58/269/58 57/270/57 
f 57/271/57 58/272/58 59/273/59 
f 58/274/58 60/275/60 59/276/59 
f 59/277/59 60/278/60 61/279/61 
f 60/280/60 62/281/62 61/282/61 
f 61/283/61 62/284/62 63/285/63 
f 62/286/62 64/287/64 63/288/63 
f 63/289/63 64/290/64 65/291/65 
f 64/292/64 66/293/66 65/294/65 
f 65/295/65 66/296/66 67/297/67 
f 66/298/66 68/299/68 67/300/67 
f 67/301/67 68/302/68 69/303/69 
f 68/304/68 70/305/70 69/306/69 
f 69/307/69 70/308/70 71/309/71 
f 70/310/70 72/311/72 71/312/71 
f 56/313/56 38/314/38 58/315/58 
f 38/316/38 37/317/37 58/318/58 
f 55/319/55 54/320/54 56/321/56 
f 54/322/54 38/323/38 56/324/56 
f 58/325/58 37/326/37 60/327/60 
f 37/328/37 39/329/39 60/330/60 
f 60/331/60 39/332/39 62/333/62 
f 39/334/39 40/335/40 62/336/62 
f 62/337/62 40/338/40 64/339/64 
f 40/340/40 41/341/41 64/342/64 
f 64/343/64 41/344/41 66/345/66 
f 41/346/41 42/347/42 66/348/66 
f 66/349/66 42/350/42 68/351/68 
f 42/352/42 43/353/43 68/354/68 
f 68/355/68 43/356/43 70/357/70 
f 43/358/43 44/359/44 70/360/70 
f 70/361/70 44/362/44 72/363/72 
f 44/364/44 45/365/45 72/366/72 
f 72/367/72 45/368/45 71/369/71 
f 45/370/45 46/371/46 71/372/71 
f 71/373/71 46/374/46 69/375/69 
f 46/376/46 47/377/47 69/378/69 
f 69/379/69 47/380/47 67/381/67 
f 47/382/47 48/383/48 67/384/67 
f 67/385/67 48/386/48 65/387/65 
f 48/388/48 49/389/49 65/390/65 
f 65/391/65 49/392/49 63/393/63 
f 49/394/49 50/395/50 63/396/63 
f 63/397/63 50/398/50 61/399/61 
f 50/400/50 51/401/51 61/402/61 
f 61/403/61 51/404/51 59/405/59 
f 51/406/51 52/407/52 59/408/59 
f 59/409/59 52/410/52 57/411/57 
f 52/412/52 53/413/53 57/414/57 
f 57/415/57 53/416/53 55/417/55 
f 53/418/53 54/419/54 55/420/55 
# num_faces: 140

