xof 0303txt 0032

// DirectX 9.0 file
// Creator: Ultimate Unwrap3D Pro v3.19
// Website: http://www.unwrap3d.com
// Time: Thu Dec 10 21:59:50 2009

// Start of Templates

template VertexDuplicationIndices {
 <b8d65549-d7c9-4995-89cf-53a9a8b031e3>
 DWORD nIndices;
 DWORD nOriginalVertices;
 array DWORD indices[nIndices];
}

template FVFData {
 <b6e70a0e-8ef9-4e83-94ad-ecc8b0c04897>
 DWORD dwFVF;
 DWORD nDWords;
 array DWORD data[nDWords];
}

template Header {
 <3D82AB43-62DA-11cf-AB39-0020AF71E433>
 WORD major;
 WORD minor;
 DWORD flags;
}

template Vector {
 <3D82AB5E-62DA-11cf-AB39-0020AF71E433>
 FLOAT x;
 FLOAT y;
 FLOAT z;
}

template Coords2d {
 <F6F23F44-7686-11cf-8F52-0040333594A3>
 FLOAT u;
 FLOAT v;
}

template Matrix4x4 {
 <F6F23F45-7686-11cf-8F52-0040333594A3>
 array FLOAT matrix[16];
}

template ColorRGBA {
 <35FF44E0-6C7C-11cf-8F52-0040333594A3>
 FLOAT red;
 FLOAT green;
 FLOAT blue;
 FLOAT alpha;
}

template ColorRGB {
 <D3E16E81-7835-11cf-8F52-0040333594A3>
 FLOAT red;
 FLOAT green;
 FLOAT blue;
}

template IndexedColor {
 <1630B820-7842-11cf-8F52-0040333594A3>
 DWORD index;
 ColorRGBA indexColor;
}

template Material {
 <3D82AB4D-62DA-11cf-AB39-0020AF71E433>
 ColorRGBA faceColor;
 FLOAT power;
 ColorRGB specularColor;
 ColorRGB emissiveColor;
 [...]
}

template TextureFilename {
 <A42790E1-7810-11cf-8F52-0040333594A3>
 STRING filename;
}

template MeshFace {
 <3D82AB5F-62DA-11cf-AB39-0020AF71E433>
 DWORD nFaceVertexIndices;
 array DWORD faceVertexIndices[nFaceVertexIndices];
}

template MeshTextureCoords {
 <F6F23F40-7686-11cf-8F52-0040333594A3>
 DWORD nTextureCoords;
 array Coords2d textureCoords[nTextureCoords];
}

template MeshMaterialList {
 <F6F23F42-7686-11cf-8F52-0040333594A3>
 DWORD nMaterials;
 DWORD nFaceIndexes;
 array DWORD faceIndexes[nFaceIndexes];
 [Material]
}

template MeshNormals {
 <F6F23F43-7686-11cf-8F52-0040333594A3>
 DWORD nNormals;
 array Vector normals[nNormals];
 DWORD nFaceNormals;
 array MeshFace faceNormals[nFaceNormals];
}

template MeshVertexColors {
 <1630B821-7842-11cf-8F52-0040333594A3>
 DWORD nVertexColors;
 array IndexedColor vertexColors[nVertexColors];
}

template Mesh {
 <3D82AB44-62DA-11cf-AB39-0020AF71E433>
 DWORD nVertices;
 array Vector vertices[nVertices];
 DWORD nFaces;
 array MeshFace faces[nFaces];
 [...]
}

template FrameTransformMatrix {
 <F6F23F41-7686-11cf-8F52-0040333594A3>
 Matrix4x4 frameMatrix;
}

template Frame {
 <3D82AB46-62DA-11cf-AB39-0020AF71E433>
 [...]
}

template FloatKeys {
 <10DD46A9-775B-11cf-8F52-0040333594A3>
 DWORD nValues;
 array FLOAT values[nValues];
}

template TimedFloatKeys {
 <F406B180-7B3B-11cf-8F52-0040333594A3>
 DWORD time;
 FloatKeys tfkeys;
}

template AnimationKey {
 <10DD46A8-775B-11cf-8F52-0040333594A3>
 DWORD keyType;
 DWORD nKeys;
 array TimedFloatKeys keys[nKeys];
}

template AnimationOptions {
 <E2BF56C0-840F-11cf-8F52-0040333594A3>
 DWORD openclosed;
 DWORD positionquality;
}

template Animation {
 <3D82AB4F-62DA-11cf-AB39-0020AF71E433>
 [...]
}

template AnimationSet {
 <3D82AB50-62DA-11cf-AB39-0020AF71E433>
 [Animation]
}

template XSkinMeshHeader {
 <3CF169CE-FF7C-44ab-93C0-F78F62D172E2>
 WORD nMaxSkinWeightsPerVertex;
 WORD nMaxSkinWeightsPerFace;
 WORD nBones;
}

template SkinWeights {
 <6F0D123B-BAD2-4167-A0D0-80224F25FABB>
 STRING transformNodeName;
 DWORD nWeights;
 array DWORD vertexIndices[nWeights];
 array FLOAT weights[nWeights];
 Matrix4x4 matrixOffset;
}

template AnimTicksPerSecond {
 <9E415A43-7BA6-4a73-8743-B73D47E88476>
 DWORD AnimTicksPerSecond;
}

AnimTicksPerSecond {
 30;
}

// Start of Frames

   Frame Body {
      FrameTransformMatrix {
       1.000000, 0.000000, 0.000000, 0.000000,
       0.000000, 1.000000, 0.000000, 0.000000,
       0.000000, 0.000000, 1.000000, 0.000000,
       0.000000, 0.000000, 0.000000, 1.000000;;
      }

   }
   Frame def_surf_mat {
      FrameTransformMatrix {
       1.000000, 0.000000, 0.000000, 0.000000,
       0.000000, 1.000000, 0.000000, 0.000000,
       0.000000, 0.000000, 1.000000, 0.000000,
       0.000000, 0.000000, 0.000000, 1.000000;;
      }

   }

   Frame Body0 {
      FrameTransformMatrix {
       1.000000, 0.000000, 0.000000, 0.000000,
       0.000000, 1.000000, 0.000000, 0.000000,
       0.000000, 0.000000, 1.000000, 0.000000,
       0.000000, 0.000000, 0.000000, 1.000000;;
      }

      Mesh skinnedMesh {
       190;
       -14.281100; 0.000000; -4.244700;,
       -17.058901; 0.000000; -4.217290;,
       -14.527300; 0.000000; -6.107490;,
       -17.400200; 0.000000; -6.112300;,
       -14.910100; 0.000000; -7.788100;,
       -16.922100; 0.000000; -7.651400;,
       -14.281100; 0.000000; -2.603800;,
       -18.316799; 0.000000; -2.576490;,
       -14.281100; 0.000000; -0.990295;,
       -18.645000; 0.000000; -0.962997;,
       -14.281100; 0.000000; 0.677803;,
       -18.480900; 0.000000; 0.705208;,
       -14.281100; 0.000000; 2.318700;,
       -18.152800; 0.000000; 2.346000;,
       -14.281100; 0.000000; 3.877500;,
       -18.070700; 0.000000; 3.904800;,
       -14.281100; 0.000000; 5.463610;,
       -17.934000; 0.000000; 5.491000;,
       -13.788900; 0.000000; 7.788100;,
       -17.824600; 0.000000; 6.885700;,
       -12.257400; 0.000000; -6.107490;,
       -12.011300; 0.000000; -4.244700;,
       -12.011300; 0.000000; -2.603800;,
       -12.640300; 0.000000; -7.213800;,
       -12.011300; 0.000000; -0.990295;,
       -12.011300; 0.000000; 0.677803;,
       -12.011300; 0.000000; 2.318700;,
       -12.011300; 0.000000; 3.877500;,
       -12.011300; 0.000000; 7.268500;,
       -9.112500; 0.000000; -5.806690;,
       -8.866370; 0.000000; -4.244700;,
       -8.866370; 0.000000; -2.603800;,
       -9.495360; 0.000000; -6.557500;,
       -8.866370; 0.000000; -0.990295;,
       -8.866370; 0.000000; 0.677803;,
       -8.866370; 0.000000; 2.318700;,
       -8.866370; 0.000000; 3.877500;,
       -8.866370; 0.000000; 6.530110;,
       -5.447960; 0.000000; -4.244700;,
       -5.447960; 0.000000; -2.603800;,
       -6.076950; 0.000000; -5.846500;,
       -5.447960; 0.000000; -0.990295;,
       -5.447960; 0.000000; 0.677803;,
       -5.447960; 0.000000; 2.318700;,
       -5.447960; 0.000000; 3.877500;,
       -5.447960; 0.000000; 5.737110;,
       -2.494460; 0.000000; -4.244700;,
       -2.494460; 0.000000; -2.603800;,
       -3.123450; 0.000000; -5.709690;,
       -2.494460; 0.000000; -0.990295;,
       -2.494460; 0.000000; 0.677803;,
       -2.494460; 0.000000; 2.318700;,
       -2.494460; 0.000000; 3.877500;,
       -2.494460; 0.000000; 4.889310;,
       -0.279330; 0.000000; -4.244700;,
       -0.279330; 0.000000; -2.603800;,
       -0.908320; 0.000000; -5.983190;,
       -0.279330; 0.000000; -0.990295;,
       -0.279330; 0.000000; 0.677803;,
       -0.279330; 0.000000; 2.318700;,
       -0.279330; 0.000000; 4.068900;,
       2.619480; 0.000000; -4.244700;,
       2.619480; 0.000000; -2.603800;,
       2.619480; 0.000000; -0.990295;,
       1.990490; 0.000000; -6.174590;,
       2.619480; 0.000000; 0.677803;,
       2.619480; 0.000000; 2.318700;,
       2.619480; 0.000000; 3.658710;,
       5.600330; 0.000000; -4.244700;,
       5.600330; 0.000000; -2.603800;,
       5.600330; 0.000000; -0.990295;,
       4.971340; 0.000000; -5.709690;,
       5.600330; 0.000000; 0.677803;,
       5.600330; 0.000000; 2.318700;,
       7.186470; 0.000000; -4.818990;,
       7.186470; 0.000000; -2.603800;,
       7.186470; 0.000000; -0.990295;,
       6.557480; 0.000000; -5.709690;,
       7.186470; 0.000000; 1.498310;,
       9.456300; 0.000000; -5.283900;,
       9.456300; 0.000000; -2.603800;,
       9.456300; 0.000000; -0.990295;,
       9.374200; 0.000000; 1.580310;,
       12.929400; 0.000000; -4.490800;,
       12.929400; 0.000000; -2.603800;,
       12.929400; 0.000000; -0.990295;,
       11.835500; 0.000000; 1.553000;,
       14.460800; 0.000000; -4.518100;,
       14.460800; 0.000000; -2.603800;,
       14.460800; 0.000000; -0.990295;,
       14.570200; 0.000000; 1.279500;,
       16.621300; 0.000000; -5.147100;,
       18.180099; 0.000000; -2.603800;,
       18.645000; 0.000000; -0.990295;,
       16.976801; 0.000000; 0.459106;,
       -16.539301; 0.298401; -4.089390;,
       -14.091300; 1.283300; -4.305200;,
       -16.862000; 0.290100; -5.923290;,
       -14.102400; 0.475101; -5.952190;,
       -16.398701; 0.290100; -7.414700;,
       -14.448900; 0.290100; -7.547190;,
       -14.012500; 1.228200; -2.525300;,
       -17.750299; 0.290100; -2.496800;,
       -13.905200; 0.664001; -0.924896;,
       -18.068300; 0.290100; -0.933197;,
       -13.906100; 0.808899; 0.709007;,
       -17.909300; 0.290100; 0.683403;,
       -13.848800; 0.446301; 2.265400;,
       -17.591299; 0.290100; 2.273510;,
       -13.839400; 0.290100; 3.757510;,
       -17.511801; 0.290100; 3.784000;,
       -13.839400; 0.290100; 5.294600;,
       -17.379299; 0.290100; 5.321110;,
       -13.362400; 0.290100; 7.547200;,
       -17.273300; 0.290100; 6.672710;,
       -11.881500; 0.743999; -6.029990;,
       -11.743500; 1.270610; -4.734200;,
       -11.868600; 2.233500; -2.797100;,
       -12.246700; 0.300999; -7.002800;,
       -11.809900; 1.426100; -0.747093;,
       -11.735000; 1.484400; 0.943901;,
       -11.652700; 1.272900; 2.458700;,
       -11.642500; 0.525700; 3.789210;,
       -11.639800; 0.290100; 7.043700;,
       -8.830580; 0.291599; -5.627200;,
       -8.579670; 1.116450; -4.171390;,
       -8.591370; 1.612300; -2.826600;,
       -9.201640; 0.290199; -6.354800;,
       -8.669440; 1.695200; -0.891495;,
       -8.576550; 1.865240; 0.764702;,
       -8.437900; 1.628400; 2.426000;,
       -8.547510; 0.906898; 3.860500;,
       -8.592140; 0.290100; 6.328200;,
       -5.279520; 1.473390; -4.116800;,
       -5.261710; 1.856280; -2.768000;,
       -5.888990; 0.290100; -5.665600;,
       -5.253060; 2.207900; -0.855598;,
       -5.268150; 1.810340; 0.789101;,
       -5.204450; 1.401760; 2.302200;,
       -5.260550; 0.501400; 3.783500;,
       -5.279460; 0.290100; 5.559600;,
       -2.417210; 0.915788; -4.113900;,
       -2.334100; 1.454470; -2.709790;,
       -3.026840; 0.290100; -5.533100;,
       -2.137320; 2.253600; -0.804993;,
       -2.381170; 1.622240; 0.781502;,
       -2.417310; 0.866464; 2.247000;,
       -2.417310; 0.290100; 3.757510;,
       -2.417310; 0.290100; 4.738110;,
       -0.270530; 0.728476; -4.115590;,
       -0.203590; 1.293970; -2.745400;,
       -0.880230; 0.290100; -5.798190;,
       -0.125050; 2.105710; -0.830093;,
       -0.264570; 1.340040; 0.685402;,
       -0.270690; 0.866464; 2.247000;,
       -0.270690; 0.290100; 3.943110;,
       2.538460; 0.724578; -4.113490;,
       2.585900; 1.495470; -2.709000;,
       2.665990; 1.782170; -0.833099;,
       1.928920; 0.290100; -5.983700;,
       2.555650; 0.808102; 0.773201;,
       2.538460; 0.290100; 2.247000;,
       2.538460; 0.290100; 3.545500;,
       5.427960; 1.010850; -4.117390;,
       5.536590; 1.051500; -2.694790;,
       5.629500; 1.285700; -0.868797;,
       4.817580; 0.290100; -5.533100;,
       5.434470; 0.363602; 0.670204;,
       5.427110; 0.290100; 2.247000;,
       6.964190; 0.290100; -4.669900;,
       6.967410; 0.918301; -2.580700;,
       6.991360; 1.079100; -0.874397;,
       6.354660; 0.290100; -5.533100;,
       6.964190; 0.290100; 1.451900;,
       9.163800; 0.290100; -5.120400;,
       9.180000; 1.181300; -2.570300;,
       9.223000; 1.020790; -0.843895;,
       9.084300; 0.290298; 1.531600;,
       12.529500; 0.290100; -4.351900;,
       12.529700; 0.292198; -2.523500;,
       12.538200; 0.353600; -0.956795;,
       11.469500; 0.290501; 1.505400;,
       14.013600; 0.290100; -4.378400;,
       14.013600; 0.290100; -2.523290;,
       14.013600; 0.290100; -0.959694;,
       14.119600; 0.290100; 1.239910;,
       16.107201; 0.290100; -4.987900;,
       17.617800; 0.290100; -2.523290;,
       18.068300; 0.290100; -0.959694;,
       16.451700; 0.290100; 0.444901;;
       376;
       3;0, 1, 2;,
       3;1, 3, 2;,
       3;2, 3, 4;,
       3;3, 5, 4;,
       3;0, 6, 1;,
       3;6, 7, 1;,
       3;6, 8, 7;,
       3;8, 9, 7;,
       3;8, 10, 9;,
       3;10, 11, 9;,
       3;10, 12, 11;,
       3;12, 13, 11;,
       3;12, 14, 13;,
       3;14, 15, 13;,
       3;14, 16, 15;,
       3;16, 17, 15;,
       3;16, 18, 17;,
       3;18, 19, 17;,
       3;2, 20, 0;,
       3;20, 21, 0;,
       3;0, 21, 6;,
       3;21, 22, 6;,
       3;4, 23, 2;,
       3;23, 20, 2;,
       3;6, 22, 8;,
       3;22, 24, 8;,
       3;8, 24, 10;,
       3;24, 25, 10;,
       3;10, 25, 12;,
       3;25, 26, 12;,
       3;12, 26, 14;,
       3;26, 27, 14;,
       3;14, 27, 16;,
       3;27, 28, 16;,
       3;28, 18, 16;,
       3;20, 29, 21;,
       3;29, 30, 21;,
       3;21, 30, 22;,
       3;30, 31, 22;,
       3;23, 32, 20;,
       3;32, 29, 20;,
       3;22, 31, 24;,
       3;31, 33, 24;,
       3;24, 33, 25;,
       3;33, 34, 25;,
       3;25, 34, 26;,
       3;34, 35, 26;,
       3;26, 35, 27;,
       3;35, 36, 27;,
       3;27, 36, 28;,
       3;36, 37, 28;,
       3;38, 30, 29;,
       3;30, 38, 31;,
       3;38, 39, 31;,
       3;32, 40, 29;,
       3;40, 38, 29;,
       3;31, 39, 33;,
       3;39, 41, 33;,
       3;33, 41, 34;,
       3;41, 42, 34;,
       3;34, 42, 35;,
       3;42, 43, 35;,
       3;35, 43, 36;,
       3;43, 44, 36;,
       3;44, 37, 36;,
       3;44, 45, 37;,
       3;38, 46, 39;,
       3;46, 47, 39;,
       3;40, 48, 38;,
       3;48, 46, 38;,
       3;39, 47, 41;,
       3;47, 49, 41;,
       3;41, 49, 42;,
       3;49, 50, 42;,
       3;42, 50, 43;,
       3;50, 51, 43;,
       3;43, 51, 44;,
       3;51, 52, 44;,
       3;52, 53, 44;,
       3;53, 45, 44;,
       3;46, 54, 47;,
       3;54, 55, 47;,
       3;48, 56, 46;,
       3;56, 54, 46;,
       3;47, 55, 49;,
       3;55, 57, 49;,
       3;49, 57, 50;,
       3;57, 58, 50;,
       3;50, 58, 51;,
       3;58, 59, 51;,
       3;51, 59, 52;,
       3;59, 60, 52;,
       3;60, 53, 52;,
       3;54, 61, 55;,
       3;61, 62, 55;,
       3;55, 62, 57;,
       3;62, 63, 57;,
       3;56, 64, 54;,
       3;64, 61, 54;,
       3;57, 63, 58;,
       3;63, 65, 58;,
       3;58, 65, 59;,
       3;65, 66, 59;,
       3;59, 66, 60;,
       3;66, 67, 60;,
       3;61, 68, 62;,
       3;68, 69, 62;,
       3;62, 69, 63;,
       3;69, 70, 63;,
       3;64, 71, 61;,
       3;71, 68, 61;,
       3;63, 70, 65;,
       3;70, 72, 65;,
       3;65, 72, 66;,
       3;72, 73, 66;,
       3;73, 67, 66;,
       3;68, 74, 69;,
       3;74, 75, 69;,
       3;69, 75, 70;,
       3;75, 76, 70;,
       3;71, 77, 68;,
       3;77, 74, 68;,
       3;70, 76, 72;,
       3;76, 78, 72;,
       3;78, 73, 72;,
       3;74, 79, 75;,
       3;79, 80, 75;,
       3;75, 80, 76;,
       3;80, 81, 76;,
       3;79, 74, 77;,
       3;76, 81, 78;,
       3;81, 82, 78;,
       3;79, 83, 80;,
       3;83, 84, 80;,
       3;80, 84, 81;,
       3;84, 85, 81;,
       3;81, 85, 82;,
       3;85, 86, 82;,
       3;83, 87, 84;,
       3;87, 88, 84;,
       3;84, 88, 85;,
       3;88, 89, 85;,
       3;85, 89, 86;,
       3;89, 90, 86;,
       3;87, 91, 88;,
       3;91, 92, 88;,
       3;88, 92, 89;,
       3;92, 93, 89;,
       3;89, 93, 90;,
       3;93, 94, 90;,
       3;95, 96, 97;,
       3;96, 98, 97;,
       3;97, 98, 99;,
       3;98, 100, 99;,
       3;101, 96, 102;,
       3;96, 95, 102;,
       3;103, 101, 104;,
       3;101, 102, 104;,
       3;105, 103, 106;,
       3;103, 104, 106;,
       3;107, 105, 108;,
       3;105, 106, 108;,
       3;109, 107, 110;,
       3;107, 108, 110;,
       3;111, 109, 112;,
       3;109, 110, 112;,
       3;113, 111, 114;,
       3;111, 112, 114;,
       3;115, 98, 116;,
       3;98, 96, 116;,
       3;116, 96, 117;,
       3;96, 101, 117;,
       3;118, 100, 115;,
       3;100, 98, 115;,
       3;117, 101, 119;,
       3;101, 103, 119;,
       3;119, 103, 120;,
       3;103, 105, 120;,
       3;120, 105, 121;,
       3;105, 107, 121;,
       3;121, 107, 122;,
       3;107, 109, 122;,
       3;122, 109, 123;,
       3;109, 111, 123;,
       3;111, 113, 123;,
       3;124, 115, 125;,
       3;115, 116, 125;,
       3;125, 116, 126;,
       3;116, 117, 126;,
       3;127, 118, 124;,
       3;118, 115, 124;,
       3;126, 117, 128;,
       3;117, 119, 128;,
       3;128, 119, 129;,
       3;119, 120, 129;,
       3;129, 120, 130;,
       3;120, 121, 130;,
       3;130, 121, 131;,
       3;121, 122, 131;,
       3;131, 122, 132;,
       3;122, 123, 132;,
       3;124, 125, 133;,
       3;133, 125, 134;,
       3;125, 126, 134;,
       3;135, 127, 133;,
       3;127, 124, 133;,
       3;134, 126, 136;,
       3;126, 128, 136;,
       3;136, 128, 137;,
       3;128, 129, 137;,
       3;137, 129, 138;,
       3;129, 130, 138;,
       3;138, 130, 139;,
       3;130, 131, 139;,
       3;131, 132, 139;,
       3;132, 140, 139;,
       3;141, 133, 142;,
       3;133, 134, 142;,
       3;143, 135, 141;,
       3;135, 133, 141;,
       3;142, 134, 144;,
       3;134, 136, 144;,
       3;144, 136, 145;,
       3;136, 137, 145;,
       3;145, 137, 146;,
       3;137, 138, 146;,
       3;146, 138, 147;,
       3;138, 139, 147;,
       3;139, 148, 147;,
       3;139, 140, 148;,
       3;149, 141, 150;,
       3;141, 142, 150;,
       3;151, 143, 149;,
       3;143, 141, 149;,
       3;150, 142, 152;,
       3;142, 144, 152;,
       3;152, 144, 153;,
       3;144, 145, 153;,
       3;153, 145, 154;,
       3;145, 146, 154;,
       3;154, 146, 155;,
       3;146, 147, 155;,
       3;147, 148, 155;,
       3;156, 149, 157;,
       3;149, 150, 157;,
       3;157, 150, 158;,
       3;150, 152, 158;,
       3;159, 151, 156;,
       3;151, 149, 156;,
       3;158, 152, 160;,
       3;152, 153, 160;,
       3;160, 153, 161;,
       3;153, 154, 161;,
       3;161, 154, 162;,
       3;154, 155, 162;,
       3;163, 156, 164;,
       3;156, 157, 164;,
       3;164, 157, 165;,
       3;157, 158, 165;,
       3;166, 159, 163;,
       3;159, 156, 163;,
       3;165, 158, 167;,
       3;158, 160, 167;,
       3;167, 160, 168;,
       3;160, 161, 168;,
       3;161, 162, 168;,
       3;169, 163, 170;,
       3;163, 164, 170;,
       3;170, 164, 171;,
       3;164, 165, 171;,
       3;172, 166, 169;,
       3;166, 163, 169;,
       3;171, 165, 173;,
       3;165, 167, 173;,
       3;167, 168, 173;,
       3;174, 169, 175;,
       3;169, 170, 175;,
       3;175, 170, 176;,
       3;170, 171, 176;,
       3;172, 169, 174;,
       3;176, 171, 177;,
       3;171, 173, 177;,
       3;178, 174, 179;,
       3;174, 175, 179;,
       3;179, 175, 180;,
       3;175, 176, 180;,
       3;180, 176, 181;,
       3;176, 177, 181;,
       3;182, 178, 183;,
       3;178, 179, 183;,
       3;183, 179, 184;,
       3;179, 180, 184;,
       3;184, 180, 185;,
       3;180, 181, 185;,
       3;186, 182, 187;,
       3;182, 183, 187;,
       3;187, 183, 188;,
       3;183, 184, 188;,
       3;188, 184, 189;,
       3;184, 185, 189;,
       3;100, 4, 99;,
       3;4, 5, 99;,
       3;118, 23, 100;,
       3;23, 4, 100;,
       3;99, 5, 97;,
       3;5, 3, 97;,
       3;97, 3, 95;,
       3;3, 1, 95;,
       3;95, 1, 102;,
       3;1, 7, 102;,
       3;102, 7, 104;,
       3;7, 9, 104;,
       3;104, 9, 106;,
       3;9, 11, 106;,
       3;106, 11, 108;,
       3;11, 13, 108;,
       3;108, 13, 110;,
       3;13, 15, 110;,
       3;110, 15, 112;,
       3;15, 17, 112;,
       3;112, 17, 114;,
       3;17, 19, 114;,
       3;114, 19, 113;,
       3;19, 18, 113;,
       3;113, 18, 123;,
       3;18, 28, 123;,
       3;127, 32, 118;,
       3;32, 23, 118;,
       3;123, 28, 132;,
       3;28, 37, 132;,
       3;135, 40, 127;,
       3;40, 32, 127;,
       3;132, 37, 140;,
       3;37, 45, 140;,
       3;143, 48, 135;,
       3;48, 40, 135;,
       3;140, 45, 148;,
       3;45, 53, 148;,
       3;151, 56, 143;,
       3;56, 48, 143;,
       3;148, 53, 155;,
       3;53, 60, 155;,
       3;159, 64, 151;,
       3;64, 56, 151;,
       3;155, 60, 162;,
       3;60, 67, 162;,
       3;166, 71, 159;,
       3;71, 64, 159;,
       3;162, 67, 168;,
       3;67, 73, 168;,
       3;172, 77, 166;,
       3;77, 71, 166;,
       3;168, 73, 173;,
       3;73, 78, 173;,
       3;174, 79, 172;,
       3;79, 77, 172;,
       3;173, 78, 177;,
       3;78, 82, 177;,
       3;178, 83, 174;,
       3;83, 79, 174;,
       3;177, 82, 181;,
       3;82, 86, 181;,
       3;182, 87, 178;,
       3;87, 83, 178;,
       3;181, 86, 185;,
       3;86, 90, 185;,
       3;186, 91, 182;,
       3;91, 87, 182;,
       3;185, 90, 189;,
       3;90, 94, 189;,
       3;187, 92, 186;,
       3;92, 91, 186;,
       3;188, 93, 187;,
       3;93, 92, 187;,
       3;189, 94, 188;,
       3;94, 93, 188;;

      MeshNormals {
       190;
       0.000000; -1.000000; 0.000000;,
       -0.657513; -0.707167; -0.259983;,
       0.000000; -1.000000; 0.000000;,
       -0.964824; -0.261456; 0.027491;,
       0.047846; -0.468668; -0.882078;,
       -0.458885; 0.734598; -0.499790;,
       0.000000; -1.000000; 0.000000;,
       -0.906043; -0.248343; -0.342653;,
       0.000000; -1.000000; 0.000000;,
       -0.971978; -0.235068; -0.001155;,
       0.000000; -1.000000; 0.000000;,
       -0.958984; -0.234560; 0.159161;,
       0.000000; -1.000000; 0.000000;,
       -0.966914; -0.235612; 0.097799;,
       0.000000; -1.000000; 0.000000;,
       -0.969388; -0.234530; 0.072676;,
       0.000000; -1.000000; 0.000000;,
       -0.968965; -0.234403; 0.078497;,
       0.130540; -0.527718; 0.839329;,
       -0.360904; 0.673865; 0.644713;,
       0.000000; -1.000000; 0.000000;,
       0.000000; -1.000000; 0.000000;,
       0.000000; -1.000000; 0.000000;,
       0.189962; -0.560462; -0.806099;,
       0.000000; -1.000000; 0.000000;,
       0.000000; -1.000000; 0.000000;,
       0.000000; -1.000000; 0.000000;,
       0.000000; -1.000000; 0.000000;,
       0.172440; -0.714019; 0.678558;,
       0.000000; -1.000000; 0.000000;,
       0.000000; -1.000000; 0.000000;,
       0.000000; -1.000000; 0.000000;,
       0.173124; -0.541183; -0.822891;,
       0.000000; -1.000000; 0.000000;,
       0.000000; -1.000000; 0.000000;,
       0.000000; -1.000000; 0.000000;,
       0.000000; -1.000000; 0.000000;,
       0.191190; -0.538255; 0.820809;,
       0.000000; -1.000000; 0.000000;,
       0.000000; -1.000000; 0.000000;,
       0.130716; -0.522250; -0.842715;,
       0.000000; -1.000000; 0.000000;,
       0.000000; -1.000000; 0.000000;,
       0.000000; -1.000000; 0.000000;,
       0.000000; -1.000000; 0.000000;,
       0.249315; -0.277209; 0.927899;,
       0.000000; -1.000000; 0.000000;,
       0.000000; -1.000000; 0.000000;,
       -0.007985; -0.490836; -0.871215;,
       0.000000; -1.000000; 0.000000;,
       0.000000; -1.000000; 0.000000;,
       0.000000; -1.000000; 0.000000;,
       0.000000; -1.000000; 0.000000;,
       0.268653; -0.558538; 0.784768;,
       0.000000; -1.000000; 0.000000;,
       0.000000; -1.000000; 0.000000;,
       -0.091022; -0.478924; -0.873125;,
       0.000000; -1.000000; 0.000000;,
       0.000000; -1.000000; 0.000000;,
       0.000000; -1.000000; 0.000000;,
       0.146524; -0.718719; 0.679686;,
       0.000000; -1.000000; 0.000000;,
       0.000000; -1.000000; 0.000000;,
       0.000000; -1.000000; 0.000000;,
       0.005777; -0.477213; -0.878769;,
       0.000000; -1.000000; 0.000000;,
       0.000000; -1.000000; 0.000000;,
       0.309977; -0.269497; 0.911749;,
       0.000000; -1.000000; 0.000000;,
       0.000000; -1.000000; 0.000000;,
       0.000000; -1.000000; 0.000000;,
       0.089580; -0.475850; -0.874953;,
       0.000000; -1.000000; 0.000000;,
       0.375484; -0.530661; 0.759876;,
       0.000000; -1.000000; 0.000000;,
       0.000000; -1.000000; 0.000000;,
       0.000000; -1.000000; 0.000000;,
       0.041328; -0.481481; -0.875482;,
       0.078025; -0.762476; 0.642294;,
       0.125428; -0.678049; -0.724236;,
       0.000000; -1.000000; 0.000000;,
       0.000000; -1.000000; 0.000000;,
       -0.003967; -0.648240; 0.761425;,
       0.118877; -0.482225; -0.867944;,
       0.000000; -1.000000; 0.000000;,
       0.000000; -1.000000; 0.000000;,
       0.054908; -0.615758; 0.786020;,
       -0.088514; -0.607833; -0.789116;,
       0.000000; -1.000000; 0.000000;,
       0.000000; -1.000000; 0.000000;,
       0.206101; -0.531615; 0.821528;,
       -0.059540; -0.438632; -0.896692;,
       0.866392; -0.248059; -0.433396;,
       0.932767; -0.322474; 0.161109;,
       0.471519; 0.462696; 0.750721;,
       -0.442617; 0.893724; -0.073123;,
       -0.241617; 0.945762; -0.217154;,
       -0.320571; 0.941843; -0.100822;,
       -0.078358; 0.965584; -0.248006;,
       -0.131189; 0.918515; -0.372988;,
       0.070210; 0.800943; -0.594609;,
       -0.289120; 0.940222; 0.179979;,
       -0.359029; 0.917889; -0.169049;,
       -0.218136; 0.972355; 0.083315;,
       -0.300257; 0.953469; 0.027252;,
       -0.212207; 0.974200; 0.076829;,
       -0.287408; 0.957573; 0.021214;,
       -0.153163; 0.969386; 0.191918;,
       -0.266589; 0.960622; 0.078334;,
       -0.035782; 0.998263; 0.046809;,
       -0.241078; 0.969940; 0.033139;,
       0.000000; 1.000000; 0.000000;,
       -0.233476; 0.972167; 0.019518;,
       -0.006134; 0.869741; 0.493470;,
       -0.223927; 0.962597; 0.152525;,
       0.059924; 0.921806; -0.382993;,
       0.017965; 0.914531; -0.404117;,
       -0.103716; 0.994240; -0.027004;,
       0.166862; 0.724463; -0.668813;,
       -0.227174; 0.961282; 0.155979;,
       -0.214693; 0.975290; 0.052111;,
       -0.227118; 0.918452; 0.323827;,
       -0.134522; 0.960142; 0.245011;,
       0.108883; 0.870974; 0.479112;,
       -0.017988; 0.962277; -0.271475;,
       0.027469; 0.919160; -0.392925;,
       0.030243; 0.971458; -0.235276;,
       0.061755; 0.785844; -0.615333;,
       -0.041550; 0.997682; 0.053890;,
       -0.036261; 0.997925; 0.053213;,
       -0.006469; 0.949586; 0.313439;,
       -0.018683; 0.925732; 0.377718;,
       0.107461; 0.836553; 0.537243;,
       0.003984; 0.927787; -0.373089;,
       0.004525; 0.961064; -0.276288;,
       0.096832; 0.668476; -0.737403;,
       -0.056605; 0.995751; 0.072632;,
       0.033109; 0.973534; 0.226130;,
       0.102542; 0.933466; 0.343694;,
       0.077043; 0.954410; 0.288384;,
       0.165297; 0.734376; 0.658307;,
       0.095392; 0.895923; -0.433846;,
       0.106327; 0.925745; -0.362892;,
       -0.017442; 0.771223; -0.636326;,
       0.067312; 0.996804; 0.043031;,
       0.063985; 0.927871; 0.367371;,
       0.066959; 0.927295; 0.368294;,
       0.060540; 0.965816; 0.252059;,
       0.185215; 0.818153; 0.544354;,
       0.011662; 0.931573; -0.363366;,
       0.030376; 0.938278; -0.344546;,
       -0.046082; 0.813759; -0.579373;,
       0.102214; 0.993615; 0.047773;,
       0.143569; 0.918786; 0.367723;,
       0.097739; 0.954135; 0.282972;,
       0.127181; 0.798255; 0.588739;,
       -0.012611; 0.959833; -0.280289;,
       0.053076; 0.951967; -0.301567;,
       0.107520; 0.981627; 0.157631;,
       0.028840; 0.800118; -0.599149;,
       0.121626; 0.919541; 0.373699;,
       0.113662; 0.974713; 0.192393;,
       0.169501; 0.800473; 0.574902;,
       0.087416; 0.961347; -0.261096;,
       0.089089; 0.984320; -0.152240;,
       0.095715; 0.982553; 0.159462;,
       0.073161; 0.773047; -0.630115;,
       0.055653; 0.939900; 0.336884;,
       0.218117; 0.855162; 0.470237;,
       0.060847; 0.968645; -0.240882;,
       0.054356; 0.991622; -0.117178;,
       0.073021; 0.991810; 0.104786;,
       0.053623; 0.828275; -0.557750;,
       0.120653; 0.778739; 0.615637;,
       0.101152; 0.878760; -0.466423;,
       0.069970; 0.988124; -0.136805;,
       0.056297; 0.989479; 0.133272;,
       -0.010161; 0.647427; 0.762060;,
       0.028242; 0.863021; -0.504378;,
       0.092942; 0.993352; -0.067928;,
       0.124930; 0.991873; 0.024092;,
       0.065939; 0.725660; 0.684887;,
       -0.127242; 0.769239; -0.626163;,
       0.000471; 1.000000; -0.000191;,
       0.014554; 0.999870; -0.006907;,
       0.103146; 0.826529; 0.553363;,
       0.172236; 0.871056; -0.459996;,
       0.222539; 0.971012; -0.087249;,
       0.225010; 0.963247; 0.146716;,
       0.214861; 0.858901; 0.464891;;
       376;
       3;0, 1, 2;,
       3;1, 3, 2;,
       3;2, 3, 4;,
       3;3, 5, 4;,
       3;0, 6, 1;,
       3;6, 7, 1;,
       3;6, 8, 7;,
       3;8, 9, 7;,
       3;8, 10, 9;,
       3;10, 11, 9;,
       3;10, 12, 11;,
       3;12, 13, 11;,
       3;12, 14, 13;,
       3;14, 15, 13;,
       3;14, 16, 15;,
       3;16, 17, 15;,
       3;16, 18, 17;,
       3;18, 19, 17;,
       3;2, 20, 0;,
       3;20, 21, 0;,
       3;0, 21, 6;,
       3;21, 22, 6;,
       3;4, 23, 2;,
       3;23, 20, 2;,
       3;6, 22, 8;,
       3;22, 24, 8;,
       3;8, 24, 10;,
       3;24, 25, 10;,
       3;10, 25, 12;,
       3;25, 26, 12;,
       3;12, 26, 14;,
       3;26, 27, 14;,
       3;14, 27, 16;,
       3;27, 28, 16;,
       3;28, 18, 16;,
       3;20, 29, 21;,
       3;29, 30, 21;,
       3;21, 30, 22;,
       3;30, 31, 22;,
       3;23, 32, 20;,
       3;32, 29, 20;,
       3;22, 31, 24;,
       3;31, 33, 24;,
       3;24, 33, 25;,
       3;33, 34, 25;,
       3;25, 34, 26;,
       3;34, 35, 26;,
       3;26, 35, 27;,
       3;35, 36, 27;,
       3;27, 36, 28;,
       3;36, 37, 28;,
       3;38, 30, 29;,
       3;30, 38, 31;,
       3;38, 39, 31;,
       3;32, 40, 29;,
       3;40, 38, 29;,
       3;31, 39, 33;,
       3;39, 41, 33;,
       3;33, 41, 34;,
       3;41, 42, 34;,
       3;34, 42, 35;,
       3;42, 43, 35;,
       3;35, 43, 36;,
       3;43, 44, 36;,
       3;44, 37, 36;,
       3;44, 45, 37;,
       3;38, 46, 39;,
       3;46, 47, 39;,
       3;40, 48, 38;,
       3;48, 46, 38;,
       3;39, 47, 41;,
       3;47, 49, 41;,
       3;41, 49, 42;,
       3;49, 50, 42;,
       3;42, 50, 43;,
       3;50, 51, 43;,
       3;43, 51, 44;,
       3;51, 52, 44;,
       3;52, 53, 44;,
       3;53, 45, 44;,
       3;46, 54, 47;,
       3;54, 55, 47;,
       3;48, 56, 46;,
       3;56, 54, 46;,
       3;47, 55, 49;,
       3;55, 57, 49;,
       3;49, 57, 50;,
       3;57, 58, 50;,
       3;50, 58, 51;,
       3;58, 59, 51;,
       3;51, 59, 52;,
       3;59, 60, 52;,
       3;60, 53, 52;,
       3;54, 61, 55;,
       3;61, 62, 55;,
       3;55, 62, 57;,
       3;62, 63, 57;,
       3;56, 64, 54;,
       3;64, 61, 54;,
       3;57, 63, 58;,
       3;63, 65, 58;,
       3;58, 65, 59;,
       3;65, 66, 59;,
       3;59, 66, 60;,
       3;66, 67, 60;,
       3;61, 68, 62;,
       3;68, 69, 62;,
       3;62, 69, 63;,
       3;69, 70, 63;,
       3;64, 71, 61;,
       3;71, 68, 61;,
       3;63, 70, 65;,
       3;70, 72, 65;,
       3;65, 72, 66;,
       3;72, 73, 66;,
       3;73, 67, 66;,
       3;68, 74, 69;,
       3;74, 75, 69;,
       3;69, 75, 70;,
       3;75, 76, 70;,
       3;71, 77, 68;,
       3;77, 74, 68;,
       3;70, 76, 72;,
       3;76, 78, 72;,
       3;78, 73, 72;,
       3;74, 79, 75;,
       3;79, 80, 75;,
       3;75, 80, 76;,
       3;80, 81, 76;,
       3;79, 74, 77;,
       3;76, 81, 78;,
       3;81, 82, 78;,
       3;79, 83, 80;,
       3;83, 84, 80;,
       3;80, 84, 81;,
       3;84, 85, 81;,
       3;81, 85, 82;,
       3;85, 86, 82;,
       3;83, 87, 84;,
       3;87, 88, 84;,
       3;84, 88, 85;,
       3;88, 89, 85;,
       3;85, 89, 86;,
       3;89, 90, 86;,
       3;87, 91, 88;,
       3;91, 92, 88;,
       3;88, 92, 89;,
       3;92, 93, 89;,
       3;89, 93, 90;,
       3;93, 94, 90;,
       3;95, 96, 97;,
       3;96, 98, 97;,
       3;97, 98, 99;,
       3;98, 100, 99;,
       3;101, 96, 102;,
       3;96, 95, 102;,
       3;103, 101, 104;,
       3;101, 102, 104;,
       3;105, 103, 106;,
       3;103, 104, 106;,
       3;107, 105, 108;,
       3;105, 106, 108;,
       3;109, 107, 110;,
       3;107, 108, 110;,
       3;111, 109, 112;,
       3;109, 110, 112;,
       3;113, 111, 114;,
       3;111, 112, 114;,
       3;115, 98, 116;,
       3;98, 96, 116;,
       3;116, 96, 117;,
       3;96, 101, 117;,
       3;118, 100, 115;,
       3;100, 98, 115;,
       3;117, 101, 119;,
       3;101, 103, 119;,
       3;119, 103, 120;,
       3;103, 105, 120;,
       3;120, 105, 121;,
       3;105, 107, 121;,
       3;121, 107, 122;,
       3;107, 109, 122;,
       3;122, 109, 123;,
       3;109, 111, 123;,
       3;111, 113, 123;,
       3;124, 115, 125;,
       3;115, 116, 125;,
       3;125, 116, 126;,
       3;116, 117, 126;,
       3;127, 118, 124;,
       3;118, 115, 124;,
       3;126, 117, 128;,
       3;117, 119, 128;,
       3;128, 119, 129;,
       3;119, 120, 129;,
       3;129, 120, 130;,
       3;120, 121, 130;,
       3;130, 121, 131;,
       3;121, 122, 131;,
       3;131, 122, 132;,
       3;122, 123, 132;,
       3;124, 125, 133;,
       3;133, 125, 134;,
       3;125, 126, 134;,
       3;135, 127, 133;,
       3;127, 124, 133;,
       3;134, 126, 136;,
       3;126, 128, 136;,
       3;136, 128, 137;,
       3;128, 129, 137;,
       3;137, 129, 138;,
       3;129, 130, 138;,
       3;138, 130, 139;,
       3;130, 131, 139;,
       3;131, 132, 139;,
       3;132, 140, 139;,
       3;141, 133, 142;,
       3;133, 134, 142;,
       3;143, 135, 141;,
       3;135, 133, 141;,
       3;142, 134, 144;,
       3;134, 136, 144;,
       3;144, 136, 145;,
       3;136, 137, 145;,
       3;145, 137, 146;,
       3;137, 138, 146;,
       3;146, 138, 147;,
       3;138, 139, 147;,
       3;139, 148, 147;,
       3;139, 140, 148;,
       3;149, 141, 150;,
       3;141, 142, 150;,
       3;151, 143, 149;,
       3;143, 141, 149;,
       3;150, 142, 152;,
       3;142, 144, 152;,
       3;152, 144, 153;,
       3;144, 145, 153;,
       3;153, 145, 154;,
       3;145, 146, 154;,
       3;154, 146, 155;,
       3;146, 147, 155;,
       3;147, 148, 155;,
       3;156, 149, 157;,
       3;149, 150, 157;,
       3;157, 150, 158;,
       3;150, 152, 158;,
       3;159, 151, 156;,
       3;151, 149, 156;,
       3;158, 152, 160;,
       3;152, 153, 160;,
       3;160, 153, 161;,
       3;153, 154, 161;,
       3;161, 154, 162;,
       3;154, 155, 162;,
       3;163, 156, 164;,
       3;156, 157, 164;,
       3;164, 157, 165;,
       3;157, 158, 165;,
       3;166, 159, 163;,
       3;159, 156, 163;,
       3;165, 158, 167;,
       3;158, 160, 167;,
       3;167, 160, 168;,
       3;160, 161, 168;,
       3;161, 162, 168;,
       3;169, 163, 170;,
       3;163, 164, 170;,
       3;170, 164, 171;,
       3;164, 165, 171;,
       3;172, 166, 169;,
       3;166, 163, 169;,
       3;171, 165, 173;,
       3;165, 167, 173;,
       3;167, 168, 173;,
       3;174, 169, 175;,
       3;169, 170, 175;,
       3;175, 170, 176;,
       3;170, 171, 176;,
       3;172, 169, 174;,
       3;176, 171, 177;,
       3;171, 173, 177;,
       3;178, 174, 179;,
       3;174, 175, 179;,
       3;179, 175, 180;,
       3;175, 176, 180;,
       3;180, 176, 181;,
       3;176, 177, 181;,
       3;182, 178, 183;,
       3;178, 179, 183;,
       3;183, 179, 184;,
       3;179, 180, 184;,
       3;184, 180, 185;,
       3;180, 181, 185;,
       3;186, 182, 187;,
       3;182, 183, 187;,
       3;187, 183, 188;,
       3;183, 184, 188;,
       3;188, 184, 189;,
       3;184, 185, 189;,
       3;100, 4, 99;,
       3;4, 5, 99;,
       3;118, 23, 100;,
       3;23, 4, 100;,
       3;99, 5, 97;,
       3;5, 3, 97;,
       3;97, 3, 95;,
       3;3, 1, 95;,
       3;95, 1, 102;,
       3;1, 7, 102;,
       3;102, 7, 104;,
       3;7, 9, 104;,
       3;104, 9, 106;,
       3;9, 11, 106;,
       3;106, 11, 108;,
       3;11, 13, 108;,
       3;108, 13, 110;,
       3;13, 15, 110;,
       3;110, 15, 112;,
       3;15, 17, 112;,
       3;112, 17, 114;,
       3;17, 19, 114;,
       3;114, 19, 113;,
       3;19, 18, 113;,
       3;113, 18, 123;,
       3;18, 28, 123;,
       3;127, 32, 118;,
       3;32, 23, 118;,
       3;123, 28, 132;,
       3;28, 37, 132;,
       3;135, 40, 127;,
       3;40, 32, 127;,
       3;132, 37, 140;,
       3;37, 45, 140;,
       3;143, 48, 135;,
       3;48, 40, 135;,
       3;140, 45, 148;,
       3;45, 53, 148;,
       3;151, 56, 143;,
       3;56, 48, 143;,
       3;148, 53, 155;,
       3;53, 60, 155;,
       3;159, 64, 151;,
       3;64, 56, 151;,
       3;155, 60, 162;,
       3;60, 67, 162;,
       3;166, 71, 159;,
       3;71, 64, 159;,
       3;162, 67, 168;,
       3;67, 73, 168;,
       3;172, 77, 166;,
       3;77, 71, 166;,
       3;168, 73, 173;,
       3;73, 78, 173;,
       3;174, 79, 172;,
       3;79, 77, 172;,
       3;173, 78, 177;,
       3;78, 82, 177;,
       3;178, 83, 174;,
       3;83, 79, 174;,
       3;177, 82, 181;,
       3;82, 86, 181;,
       3;182, 87, 178;,
       3;87, 83, 178;,
       3;181, 86, 185;,
       3;86, 90, 185;,
       3;186, 91, 182;,
       3;91, 87, 182;,
       3;185, 90, 189;,
       3;90, 94, 189;,
       3;187, 92, 186;,
       3;92, 91, 186;,
       3;188, 93, 187;,
       3;93, 92, 187;,
       3;189, 94, 188;,
       3;94, 93, 188;;
      }

      MeshTextureCoords {
       190;
       0.196477; 0.347849;,
       0.131729; 0.349009;,
       0.190738; 0.268951;,
       0.123773; 0.268747;,
       0.181815; 0.197770;,
       0.134917; 0.203559;,
       0.196477; 0.417348;,
       0.102408; 0.418505;,
       0.196477; 0.485687;,
       0.094758; 0.486843;,
       0.196477; 0.556339;,
       0.098583; 0.557500;,
       0.196477; 0.625838;,
       0.106231; 0.626994;,
       0.196477; 0.691860;,
       0.108144; 0.693017;,
       0.196477; 0.759039;,
       0.111331; 0.760200;,
       0.207950; 0.857492;,
       0.113881; 0.819271;,
       0.243648; 0.268951;,
       0.249384; 0.347849;,
       0.249384; 0.417348;,
       0.234722; 0.222094;,
       0.249384; 0.485687;,
       0.249384; 0.556339;,
       0.249384; 0.625838;,
       0.249384; 0.691860;,
       0.249384; 0.835485;,
       0.316953; 0.281691;,
       0.322690; 0.347849;,
       0.322690; 0.417348;,
       0.308029; 0.249891;,
       0.322690; 0.485687;,
       0.322690; 0.556339;,
       0.322690; 0.625838;,
       0.322690; 0.691860;,
       0.322690; 0.804210;,
       0.402370; 0.347849;,
       0.402370; 0.417348;,
       0.387709; 0.280005;,
       0.402370; 0.485687;,
       0.402370; 0.556339;,
       0.402370; 0.625838;,
       0.402370; 0.691860;,
       0.402370; 0.770623;,
       0.471214; 0.347849;,
       0.471214; 0.417348;,
       0.456553; 0.285799;,
       0.471214; 0.485687;,
       0.471214; 0.556339;,
       0.471214; 0.625838;,
       0.471214; 0.691860;,
       0.471214; 0.734715;,
       0.522847; 0.347849;,
       0.522847; 0.417348;,
       0.508186; 0.274215;,
       0.522847; 0.485687;,
       0.522847; 0.556339;,
       0.522847; 0.625838;,
       0.522847; 0.699967;,
       0.590416; 0.347849;,
       0.590416; 0.417348;,
       0.590416; 0.485687;,
       0.575754; 0.266109;,
       0.590416; 0.556339;,
       0.590416; 0.625838;,
       0.590416; 0.682594;,
       0.659897; 0.347849;,
       0.659897; 0.417348;,
       0.659897; 0.485687;,
       0.645236; 0.285799;,
       0.659897; 0.556339;,
       0.659897; 0.625838;,
       0.696869; 0.323525;,
       0.696869; 0.417348;,
       0.696869; 0.485687;,
       0.682207; 0.285799;,
       0.696869; 0.591091;,
       0.749776; 0.303834;,
       0.749776; 0.417348;,
       0.749776; 0.485687;,
       0.747863; 0.594564;,
       0.830732; 0.337425;,
       0.830732; 0.417348;,
       0.830732; 0.485687;,
       0.805234; 0.593407;,
       0.866427; 0.336269;,
       0.866427; 0.417348;,
       0.866427; 0.485687;,
       0.868977; 0.581823;,
       0.916787; 0.309628;,
       0.953121; 0.417348;,
       0.963958; 0.485687;,
       0.925073; 0.547076;,
       0.143840; 0.354426;,
       0.200901; 0.345286;,
       0.136318; 0.276752;,
       0.200642; 0.275528;,
       0.147117; 0.213585;,
       0.192565; 0.207973;,
       0.202738; 0.420673;,
       0.115612; 0.421880;,
       0.205239; 0.488457;,
       0.108200; 0.488106;,
       0.205218; 0.557660;,
       0.111906; 0.556576;,
       0.206553; 0.623581;,
       0.119319; 0.623924;,
       0.206772; 0.686778;,
       0.121172; 0.687900;,
       0.206772; 0.751881;,
       0.124260; 0.753004;,
       0.217891; 0.847289;,
       0.126731; 0.810250;,
       0.252410; 0.272233;,
       0.255626; 0.327116;,
       0.252709; 0.409161;,
       0.243897; 0.231031;,
       0.254078; 0.495988;,
       0.255824; 0.567609;,
       0.257744; 0.631768;,
       0.257980; 0.688121;,
       0.258043; 0.825963;,
       0.323524; 0.289293;,
       0.329372; 0.350953;,
       0.329100; 0.407911;,
       0.314875; 0.258476;,
       0.327280; 0.489872;,
       0.329445; 0.560019;,
       0.332677; 0.630383;,
       0.330122; 0.691141;,
       0.329082; 0.795659;,
       0.406296; 0.353266;,
       0.406711; 0.410394;,
       0.392090; 0.287667;,
       0.406913; 0.491392;,
       0.406561; 0.561053;,
       0.408046; 0.625139;,
       0.406739; 0.687879;,
       0.406298; 0.763105;,
       0.473015; 0.353389;,
       0.474952; 0.412859;,
       0.458805; 0.293279;,
       0.479539; 0.493536;,
       0.473855; 0.560731;,
       0.473012; 0.622801;,
       0.473012; 0.686778;,
       0.473012; 0.728311;,
       0.523052; 0.353317;,
       0.524612; 0.411351;,
       0.508840; 0.282051;,
       0.526443; 0.492472;,
       0.523191; 0.556661;,
       0.523048; 0.622801;,
       0.523048; 0.694639;,
       0.588527; 0.353406;,
       0.589633; 0.412892;,
       0.591500; 0.492345;,
       0.574319; 0.274194;,
       0.588928; 0.560379;,
       0.588527; 0.622801;,
       0.588527; 0.677799;,
       0.655879; 0.353240;,
       0.658411; 0.413494;,
       0.660577; 0.490833;,
       0.641652; 0.293279;,
       0.656031; 0.556017;,
       0.655859; 0.622801;,
       0.691687; 0.329839;,
       0.691762; 0.418327;,
       0.692321; 0.490596;,
       0.677480; 0.293279;,
       0.691687; 0.589125;,
       0.742959; 0.310759;,
       0.743336; 0.418767;,
       0.744338; 0.491888;,
       0.741105; 0.592501;,
       0.821410; 0.343308;,
       0.821415; 0.420749;,
       0.821613; 0.487106;,
       0.796703; 0.591391;,
       0.856004; 0.342186;,
       0.856004; 0.420758;,
       0.856004; 0.486983;,
       0.858474; 0.580146;,
       0.904804; 0.316371;,
       0.940015; 0.420758;,
       0.950515; 0.486983;,
       0.912834; 0.546474;;
      }

      MeshVertexColors {
       190;
       0; 1.000000; 1.000000; 1.000000; 1.000000;,
       1; 1.000000; 1.000000; 1.000000; 1.000000;,
       2; 1.000000; 1.000000; 1.000000; 1.000000;,
       3; 1.000000; 1.000000; 1.000000; 1.000000;,
       4; 1.000000; 1.000000; 1.000000; 1.000000;,
       5; 1.000000; 1.000000; 1.000000; 1.000000;,
       6; 1.000000; 1.000000; 1.000000; 1.000000;,
       7; 1.000000; 1.000000; 1.000000; 1.000000;,
       8; 1.000000; 1.000000; 1.000000; 1.000000;,
       9; 1.000000; 1.000000; 1.000000; 1.000000;,
       10; 1.000000; 1.000000; 1.000000; 1.000000;,
       11; 1.000000; 1.000000; 1.000000; 1.000000;,
       12; 1.000000; 1.000000; 1.000000; 1.000000;,
       13; 1.000000; 1.000000; 1.000000; 1.000000;,
       14; 1.000000; 1.000000; 1.000000; 1.000000;,
       15; 1.000000; 1.000000; 1.000000; 1.000000;,
       16; 1.000000; 1.000000; 1.000000; 1.000000;,
       17; 1.000000; 1.000000; 1.000000; 1.000000;,
       18; 1.000000; 1.000000; 1.000000; 1.000000;,
       19; 1.000000; 1.000000; 1.000000; 1.000000;,
       20; 1.000000; 1.000000; 1.000000; 1.000000;,
       21; 1.000000; 1.000000; 1.000000; 1.000000;,
       22; 1.000000; 1.000000; 1.000000; 1.000000;,
       23; 1.000000; 1.000000; 1.000000; 1.000000;,
       24; 1.000000; 1.000000; 1.000000; 1.000000;,
       25; 1.000000; 1.000000; 1.000000; 1.000000;,
       26; 1.000000; 1.000000; 1.000000; 1.000000;,
       27; 1.000000; 1.000000; 1.000000; 1.000000;,
       28; 1.000000; 1.000000; 1.000000; 1.000000;,
       29; 1.000000; 1.000000; 1.000000; 1.000000;,
       30; 1.000000; 1.000000; 1.000000; 1.000000;,
       31; 1.000000; 1.000000; 1.000000; 1.000000;,
       32; 1.000000; 1.000000; 1.000000; 1.000000;,
       33; 1.000000; 1.000000; 1.000000; 1.000000;,
       34; 1.000000; 1.000000; 1.000000; 1.000000;,
       35; 1.000000; 1.000000; 1.000000; 1.000000;,
       36; 1.000000; 1.000000; 1.000000; 1.000000;,
       37; 1.000000; 1.000000; 1.000000; 1.000000;,
       38; 1.000000; 1.000000; 1.000000; 1.000000;,
       39; 1.000000; 1.000000; 1.000000; 1.000000;,
       40; 1.000000; 1.000000; 1.000000; 1.000000;,
       41; 1.000000; 1.000000; 1.000000; 1.000000;,
       42; 1.000000; 1.000000; 1.000000; 1.000000;,
       43; 1.000000; 1.000000; 1.000000; 1.000000;,
       44; 1.000000; 1.000000; 1.000000; 1.000000;,
       45; 1.000000; 1.000000; 1.000000; 1.000000;,
       46; 1.000000; 1.000000; 1.000000; 1.000000;,
       47; 1.000000; 1.000000; 1.000000; 1.000000;,
       48; 1.000000; 1.000000; 1.000000; 1.000000;,
       49; 1.000000; 1.000000; 1.000000; 1.000000;,
       50; 1.000000; 1.000000; 1.000000; 1.000000;,
       51; 1.000000; 1.000000; 1.000000; 1.000000;,
       52; 1.000000; 1.000000; 1.000000; 1.000000;,
       53; 1.000000; 1.000000; 1.000000; 1.000000;,
       54; 1.000000; 1.000000; 1.000000; 1.000000;,
       55; 1.000000; 1.000000; 1.000000; 1.000000;,
       56; 1.000000; 1.000000; 1.000000; 1.000000;,
       57; 1.000000; 1.000000; 1.000000; 1.000000;,
       58; 1.000000; 1.000000; 1.000000; 1.000000;,
       59; 1.000000; 1.000000; 1.000000; 1.000000;,
       60; 1.000000; 1.000000; 1.000000; 1.000000;,
       61; 1.000000; 1.000000; 1.000000; 1.000000;,
       62; 1.000000; 1.000000; 1.000000; 1.000000;,
       63; 1.000000; 1.000000; 1.000000; 1.000000;,
       64; 1.000000; 1.000000; 1.000000; 1.000000;,
       65; 1.000000; 1.000000; 1.000000; 1.000000;,
       66; 1.000000; 1.000000; 1.000000; 1.000000;,
       67; 1.000000; 1.000000; 1.000000; 1.000000;,
       68; 1.000000; 1.000000; 1.000000; 1.000000;,
       69; 1.000000; 1.000000; 1.000000; 1.000000;,
       70; 1.000000; 1.000000; 1.000000; 1.000000;,
       71; 1.000000; 1.000000; 1.000000; 1.000000;,
       72; 1.000000; 1.000000; 1.000000; 1.000000;,
       73; 1.000000; 1.000000; 1.000000; 1.000000;,
       74; 1.000000; 1.000000; 1.000000; 1.000000;,
       75; 1.000000; 1.000000; 1.000000; 1.000000;,
       76; 1.000000; 1.000000; 1.000000; 1.000000;,
       77; 1.000000; 1.000000; 1.000000; 1.000000;,
       78; 1.000000; 1.000000; 1.000000; 1.000000;,
       79; 1.000000; 1.000000; 1.000000; 1.000000;,
       80; 1.000000; 1.000000; 1.000000; 1.000000;,
       81; 1.000000; 1.000000; 1.000000; 1.000000;,
       82; 1.000000; 1.000000; 1.000000; 1.000000;,
       83; 1.000000; 1.000000; 1.000000; 1.000000;,
       84; 1.000000; 1.000000; 1.000000; 1.000000;,
       85; 1.000000; 1.000000; 1.000000; 1.000000;,
       86; 1.000000; 1.000000; 1.000000; 1.000000;,
       87; 1.000000; 1.000000; 1.000000; 1.000000;,
       88; 1.000000; 1.000000; 1.000000; 1.000000;,
       89; 1.000000; 1.000000; 1.000000; 1.000000;,
       90; 1.000000; 1.000000; 1.000000; 1.000000;,
       91; 1.000000; 1.000000; 1.000000; 1.000000;,
       92; 1.000000; 1.000000; 1.000000; 1.000000;,
       93; 1.000000; 1.000000; 1.000000; 1.000000;,
       94; 1.000000; 1.000000; 1.000000; 1.000000;,
       95; 1.000000; 1.000000; 1.000000; 1.000000;,
       96; 1.000000; 1.000000; 1.000000; 1.000000;,
       97; 1.000000; 1.000000; 1.000000; 1.000000;,
       98; 1.000000; 1.000000; 1.000000; 1.000000;,
       99; 1.000000; 1.000000; 1.000000; 1.000000;,
       100; 1.000000; 1.000000; 1.000000; 1.000000;,
       101; 1.000000; 1.000000; 1.000000; 1.000000;,
       102; 1.000000; 1.000000; 1.000000; 1.000000;,
       103; 1.000000; 1.000000; 1.000000; 1.000000;,
       104; 1.000000; 1.000000; 1.000000; 1.000000;,
       105; 1.000000; 1.000000; 1.000000; 1.000000;,
       106; 1.000000; 1.000000; 1.000000; 1.000000;,
       107; 1.000000; 1.000000; 1.000000; 1.000000;,
       108; 1.000000; 1.000000; 1.000000; 1.000000;,
       109; 1.000000; 1.000000; 1.000000; 1.000000;,
       110; 1.000000; 1.000000; 1.000000; 1.000000;,
       111; 1.000000; 1.000000; 1.000000; 1.000000;,
       112; 1.000000; 1.000000; 1.000000; 1.000000;,
       113; 1.000000; 1.000000; 1.000000; 1.000000;,
       114; 1.000000; 1.000000; 1.000000; 1.000000;,
       115; 1.000000; 1.000000; 1.000000; 1.000000;,
       116; 1.000000; 1.000000; 1.000000; 1.000000;,
       117; 1.000000; 1.000000; 1.000000; 1.000000;,
       118; 1.000000; 1.000000; 1.000000; 1.000000;,
       119; 1.000000; 1.000000; 1.000000; 1.000000;,
       120; 1.000000; 1.000000; 1.000000; 1.000000;,
       121; 1.000000; 1.000000; 1.000000; 1.000000;,
       122; 1.000000; 1.000000; 1.000000; 1.000000;,
       123; 1.000000; 1.000000; 1.000000; 1.000000;,
       124; 1.000000; 1.000000; 1.000000; 1.000000;,
       125; 1.000000; 1.000000; 1.000000; 1.000000;,
       126; 1.000000; 1.000000; 1.000000; 1.000000;,
       127; 1.000000; 1.000000; 1.000000; 1.000000;,
       128; 1.000000; 1.000000; 1.000000; 1.000000;,
       129; 1.000000; 1.000000; 1.000000; 1.000000;,
       130; 1.000000; 1.000000; 1.000000; 1.000000;,
       131; 1.000000; 1.000000; 1.000000; 1.000000;,
       132; 1.000000; 1.000000; 1.000000; 1.000000;,
       133; 1.000000; 1.000000; 1.000000; 1.000000;,
       134; 1.000000; 1.000000; 1.000000; 1.000000;,
       135; 1.000000; 1.000000; 1.000000; 1.000000;,
       136; 1.000000; 1.000000; 1.000000; 1.000000;,
       137; 1.000000; 1.000000; 1.000000; 1.000000;,
       138; 1.000000; 1.000000; 1.000000; 1.000000;,
       139; 1.000000; 1.000000; 1.000000; 1.000000;,
       140; 1.000000; 1.000000; 1.000000; 1.000000;,
       141; 1.000000; 1.000000; 1.000000; 1.000000;,
       142; 1.000000; 1.000000; 1.000000; 1.000000;,
       143; 1.000000; 1.000000; 1.000000; 1.000000;,
       144; 1.000000; 1.000000; 1.000000; 1.000000;,
       145; 1.000000; 1.000000; 1.000000; 1.000000;,
       146; 1.000000; 1.000000; 1.000000; 1.000000;,
       147; 1.000000; 1.000000; 1.000000; 1.000000;,
       148; 1.000000; 1.000000; 1.000000; 1.000000;,
       149; 1.000000; 1.000000; 1.000000; 1.000000;,
       150; 1.000000; 1.000000; 1.000000; 1.000000;,
       151; 1.000000; 1.000000; 1.000000; 1.000000;,
       152; 1.000000; 1.000000; 1.000000; 1.000000;,
       153; 1.000000; 1.000000; 1.000000; 1.000000;,
       154; 1.000000; 1.000000; 1.000000; 1.000000;,
       155; 1.000000; 1.000000; 1.000000; 1.000000;,
       156; 1.000000; 1.000000; 1.000000; 1.000000;,
       157; 1.000000; 1.000000; 1.000000; 1.000000;,
       158; 1.000000; 1.000000; 1.000000; 1.000000;,
       159; 1.000000; 1.000000; 1.000000; 1.000000;,
       160; 1.000000; 1.000000; 1.000000; 1.000000;,
       161; 1.000000; 1.000000; 1.000000; 1.000000;,
       162; 1.000000; 1.000000; 1.000000; 1.000000;,
       163; 1.000000; 1.000000; 1.000000; 1.000000;,
       164; 1.000000; 1.000000; 1.000000; 1.000000;,
       165; 1.000000; 1.000000; 1.000000; 1.000000;,
       166; 1.000000; 1.000000; 1.000000; 1.000000;,
       167; 1.000000; 1.000000; 1.000000; 1.000000;,
       168; 1.000000; 1.000000; 1.000000; 1.000000;,
       169; 1.000000; 1.000000; 1.000000; 1.000000;,
       170; 1.000000; 1.000000; 1.000000; 1.000000;,
       171; 1.000000; 1.000000; 1.000000; 1.000000;,
       172; 1.000000; 1.000000; 1.000000; 1.000000;,
       173; 1.000000; 1.000000; 1.000000; 1.000000;,
       174; 1.000000; 1.000000; 1.000000; 1.000000;,
       175; 1.000000; 1.000000; 1.000000; 1.000000;,
       176; 1.000000; 1.000000; 1.000000; 1.000000;,
       177; 1.000000; 1.000000; 1.000000; 1.000000;,
       178; 1.000000; 1.000000; 1.000000; 1.000000;,
       179; 1.000000; 1.000000; 1.000000; 1.000000;,
       180; 1.000000; 1.000000; 1.000000; 1.000000;,
       181; 1.000000; 1.000000; 1.000000; 1.000000;,
       182; 1.000000; 1.000000; 1.000000; 1.000000;,
       183; 1.000000; 1.000000; 1.000000; 1.000000;,
       184; 1.000000; 1.000000; 1.000000; 1.000000;,
       185; 1.000000; 1.000000; 1.000000; 1.000000;,
       186; 1.000000; 1.000000; 1.000000; 1.000000;,
       187; 1.000000; 1.000000; 1.000000; 1.000000;,
       188; 1.000000; 1.000000; 1.000000; 1.000000;,
       189; 1.000000; 1.000000; 1.000000; 1.000000;;
      }

      MeshMaterialList {
       1;
       376;
       0,
       0,
       0,
       0,
       0,
       0,
       0,
       0,
       0,
       0,
       0,
       0,
       0,
       0,
       0,
       0,
       0,
       0,
       0,
       0,
       0,
       0,
       0,
       0,
       0,
       0,
       0,
       0,
       0,
       0,
       0,
       0,
       0,
       0,
       0,
       0,
       0,
       0,
       0,
       0,
       0,
       0,
       0,
       0,
       0,
       0,
       0,
       0,
       0,
       0,
       0,
       0,
       0,
       0,
       0,
       0,
       0,
       0,
       0,
       0,
       0,
       0,
       0,
       0,
       0,
       0,
       0,
       0,
       0,
       0,
       0,
       0,
       0,
       0,
       0,
       0,
       0,
       0,
       0,
       0,
       0,
       0,
       0,
       0,
       0,
       0,
       0,
       0,
       0,
       0,
       0,
       0,
       0,
       0,
       0,
       0,
       0,
       0,
       0,
       0,
       0,
       0,
       0,
       0,
       0,
       0,
       0,
       0,
       0,
       0,
       0,
       0,
       0,
       0,
       0,
       0,
       0,
       0,
       0,
       0,
       0,
       0,
       0,
       0,
       0,
       0,
       0,
       0,
       0,
       0,
       0,
       0,
       0,
       0,
       0,
       0,
       0,
       0,
       0,
       0,
       0,
       0,
       0,
       0,
       0,
       0,
       0,
       0,
       0,
       0,
       0,
       0,
       0,
       0,
       0,
       0,
       0,
       0,
       0,
       0,
       0,
       0,
       0,
       0,
       0,
       0,
       0,
       0,
       0,
       0,
       0,
       0,
       0,
       0,
       0,
       0,
       0,
       0,
       0,
       0,
       0,
       0,
       0,
       0,
       0,
       0,
       0,
       0,
       0,
       0,
       0,
       0,
       0,
       0,
       0,
       0,
       0,
       0,
       0,
       0,
       0,
       0,
       0,
       0,
       0,
       0,
       0,
       0,
       0,
       0,
       0,
       0,
       0,
       0,
       0,
       0,
       0,
       0,
       0,
       0,
       0,
       0,
       0,
       0,
       0,
       0,
       0,
       0,
       0,
       0,
       0,
       0,
       0,
       0,
       0,
       0,
       0,
       0,
       0,
       0,
       0,
       0,
       0,
       0,
       0,
       0,
       0,
       0,
       0,
       0,
       0,
       0,
       0,
       0,
       0,
       0,
       0,
       0,
       0,
       0,
       0,
       0,
       0,
       0,
       0,
       0,
       0,
       0,
       0,
       0,
       0,
       0,
       0,
       0,
       0,
       0,
       0,
       0,
       0,
       0,
       0,
       0,
       0,
       0,
       0,
       0,
       0,
       0,
       0,
       0,
       0,
       0,
       0,
       0,
       0,
       0,
       0,
       0,
       0,
       0,
       0,
       0,
       0,
       0,
       0,
       0,
       0,
       0,
       0,
       0,
       0,
       0,
       0,
       0,
       0,
       0,
       0,
       0,
       0,
       0,
       0,
       0,
       0,
       0,
       0,
       0,
       0,
       0,
       0,
       0,
       0,
       0,
       0,
       0,
       0,
       0,
       0,
       0,
       0,
       0,
       0,
       0,
       0,
       0,
       0,
       0,
       0,
       0,
       0,
       0,
       0,
       0,
       0,
       0,
       0,
       0,
       0,
       0,
       0,
       0,
       0,
       0,
       0,
       0,
       0,
       0,
       0,
       0,
       0,
       0,
       0,
       0,
       0,
       0,
       0,
       0;

       Material def_surf_mat {
        0.992157; 0.992157; 0.992157; 1.000000;;
        1.000000;
        0.150000; 0.150000; 0.150000;;
        0.000000; 0.000000; 0.000000;;

        TextureFilename {
         "ribbed_meat.dds";
        }
       }

      }

      XSkinMeshHeader {
       1;
       1;
       1;
      }

      SkinWeights {
       "Body";
       190;
       0,
       1,
       2,
       3,
       4,
       5,
       6,
       7,
       8,
       9,
       10,
       11,
       12,
       13,
       14,
       15,
       16,
       17,
       18,
       19,
       20,
       21,
       22,
       23,
       24,
       25,
       26,
       27,
       28,
       29,
       30,
       31,
       32,
       33,
       34,
       35,
       36,
       37,
       38,
       39,
       40,
       41,
       42,
       43,
       44,
       45,
       46,
       47,
       48,
       49,
       50,
       51,
       52,
       53,
       54,
       55,
       56,
       57,
       58,
       59,
       60,
       61,
       62,
       63,
       64,
       65,
       66,
       67,
       68,
       69,
       70,
       71,
       72,
       73,
       74,
       75,
       76,
       77,
       78,
       79,
       80,
       81,
       82,
       83,
       84,
       85,
       86,
       87,
       88,
       89,
       90,
       91,
       92,
       93,
       94,
       95,
       96,
       97,
       98,
       99,
       100,
       101,
       102,
       103,
       104,
       105,
       106,
       107,
       108,
       109,
       110,
       111,
       112,
       113,
       114,
       115,
       116,
       117,
       118,
       119,
       120,
       121,
       122,
       123,
       124,
       125,
       126,
       127,
       128,
       129,
       130,
       131,
       132,
       133,
       134,
       135,
       136,
       137,
       138,
       139,
       140,
       141,
       142,
       143,
       144,
       145,
       146,
       147,
       148,
       149,
       150,
       151,
       152,
       153,
       154,
       155,
       156,
       157,
       158,
       159,
       160,
       161,
       162,
       163,
       164,
       165,
       166,
       167,
       168,
       169,
       170,
       171,
       172,
       173,
       174,
       175,
       176,
       177,
       178,
       179,
       180,
       181,
       182,
       183,
       184,
       185,
       186,
       187,
       188,
       189;
       1.000000,
       1.000000,
       1.000000,
       1.000000,
       1.000000,
       1.000000,
       1.000000,
       1.000000,
       1.000000,
       1.000000,
       1.000000,
       1.000000,
       1.000000,
       1.000000,
       1.000000,
       1.000000,
       1.000000,
       1.000000,
       1.000000,
       1.000000,
       1.000000,
       1.000000,
       1.000000,
       1.000000,
       1.000000,
       1.000000,
       1.000000,
       1.000000,
       1.000000,
       1.000000,
       1.000000,
       1.000000,
       1.000000,
       1.000000,
       1.000000,
       1.000000,
       1.000000,
       1.000000,
       1.000000,
       1.000000,
       1.000000,
       1.000000,
       1.000000,
       1.000000,
       1.000000,
       1.000000,
       1.000000,
       1.000000,
       1.000000,
       1.000000,
       1.000000,
       1.000000,
       1.000000,
       1.000000,
       1.000000,
       1.000000,
       1.000000,
       1.000000,
       1.000000,
       1.000000,
       1.000000,
       1.000000,
       1.000000,
       1.000000,
       1.000000,
       1.000000,
       1.000000,
       1.000000,
       1.000000,
       1.000000,
       1.000000,
       1.000000,
       1.000000,
       1.000000,
       1.000000,
       1.000000,
       1.000000,
       1.000000,
       1.000000,
       1.000000,
       1.000000,
       1.000000,
       1.000000,
       1.000000,
       1.000000,
       1.000000,
       1.000000,
       1.000000,
       1.000000,
       1.000000,
       1.000000,
       1.000000,
       1.000000,
       1.000000,
       1.000000,
       1.000000,
       1.000000,
       1.000000,
       1.000000,
       1.000000,
       1.000000,
       1.000000,
       1.000000,
       1.000000,
       1.000000,
       1.000000,
       1.000000,
       1.000000,
       1.000000,
       1.000000,
       1.000000,
       1.000000,
       1.000000,
       1.000000,
       1.000000,
       1.000000,
       1.000000,
       1.000000,
       1.000000,
       1.000000,
       1.000000,
       1.000000,
       1.000000,
       1.000000,
       1.000000,
       1.000000,
       1.000000,
       1.000000,
       1.000000,
       1.000000,
       1.000000,
       1.000000,
       1.000000,
       1.000000,
       1.000000,
       1.000000,
       1.000000,
       1.000000,
       1.000000,
       1.000000,
       1.000000,
       1.000000,
       1.000000,
       1.000000,
       1.000000,
       1.000000,
       1.000000,
       1.000000,
       1.000000,
       1.000000,
       1.000000,
       1.000000,
       1.000000,
       1.000000,
       1.000000,
       1.000000,
       1.000000,
       1.000000,
       1.000000,
       1.000000,
       1.000000,
       1.000000,
       1.000000,
       1.000000,
       1.000000,
       1.000000,
       1.000000,
       1.000000,
       1.000000,
       1.000000,
       1.000000,
       1.000000,
       1.000000,
       1.000000,
       1.000000,
       1.000000,
       1.000000,
       1.000000,
       1.000000,
       1.000000,
       1.000000,
       1.000000,
       1.000000,
       1.000000,
       1.000000,
       1.000000,
       1.000000,
       1.000000,
       1.000000,
       1.000000;
          1.000000, -0.000000, 0.000000, 0.000000,
          -0.000000, 1.000000, -0.000000, 0.000000,
          0.000000, -0.000000, 1.000000, 0.000000,
          -0.000000, -0.000000, -0.000000, 1.000000;;
      }


     }
   }

// Start of Animation

AnimationSet Untitled {
}
