xof 0303txt 0032

// DirectX 9.0 file
// Creator: Ultimate Unwrap3D Pro v3.19
// Website: http://www.unwrap3d.com
// Time: Thu Dec 10 22:00:09 2009

// Start of Templates

template VertexDuplicationIndices {
 <b8d65549-d7c9-4995-89cf-53a9a8b031e3>
 DWORD nIndices;
 DWORD nOriginalVertices;
 array DWORD indices[nIndices];
}

template FVFData {
 <b6e70a0e-8ef9-4e83-94ad-ecc8b0c04897>
 DWORD dwFVF;
 DWORD nDWords;
 array DWORD data[nDWords];
}

template Header {
 <3D82AB43-62DA-11cf-AB39-0020AF71E433>
 WORD major;
 WORD minor;
 DWORD flags;
}

template Vector {
 <3D82AB5E-62DA-11cf-AB39-0020AF71E433>
 FLOAT x;
 FLOAT y;
 FLOAT z;
}

template Coords2d {
 <F6F23F44-7686-11cf-8F52-0040333594A3>
 FLOAT u;
 FLOAT v;
}

template Matrix4x4 {
 <F6F23F45-7686-11cf-8F52-0040333594A3>
 array FLOAT matrix[16];
}

template ColorRGBA {
 <35FF44E0-6C7C-11cf-8F52-0040333594A3>
 FLOAT red;
 FLOAT green;
 FLOAT blue;
 FLOAT alpha;
}

template ColorRGB {
 <D3E16E81-7835-11cf-8F52-0040333594A3>
 FLOAT red;
 FLOAT green;
 FLOAT blue;
}

template IndexedColor {
 <1630B820-7842-11cf-8F52-0040333594A3>
 DWORD index;
 ColorRGBA indexColor;
}

template Material {
 <3D82AB4D-62DA-11cf-AB39-0020AF71E433>
 ColorRGBA faceColor;
 FLOAT power;
 ColorRGB specularColor;
 ColorRGB emissiveColor;
 [...]
}

template TextureFilename {
 <A42790E1-7810-11cf-8F52-0040333594A3>
 STRING filename;
}

template MeshFace {
 <3D82AB5F-62DA-11cf-AB39-0020AF71E433>
 DWORD nFaceVertexIndices;
 array DWORD faceVertexIndices[nFaceVertexIndices];
}

template MeshTextureCoords {
 <F6F23F40-7686-11cf-8F52-0040333594A3>
 DWORD nTextureCoords;
 array Coords2d textureCoords[nTextureCoords];
}

template MeshMaterialList {
 <F6F23F42-7686-11cf-8F52-0040333594A3>
 DWORD nMaterials;
 DWORD nFaceIndexes;
 array DWORD faceIndexes[nFaceIndexes];
 [Material]
}

template MeshNormals {
 <F6F23F43-7686-11cf-8F52-0040333594A3>
 DWORD nNormals;
 array Vector normals[nNormals];
 DWORD nFaceNormals;
 array MeshFace faceNormals[nFaceNormals];
}

template MeshVertexColors {
 <1630B821-7842-11cf-8F52-0040333594A3>
 DWORD nVertexColors;
 array IndexedColor vertexColors[nVertexColors];
}

template Mesh {
 <3D82AB44-62DA-11cf-AB39-0020AF71E433>
 DWORD nVertices;
 array Vector vertices[nVertices];
 DWORD nFaces;
 array MeshFace faces[nFaces];
 [...]
}

template FrameTransformMatrix {
 <F6F23F41-7686-11cf-8F52-0040333594A3>
 Matrix4x4 frameMatrix;
}

template Frame {
 <3D82AB46-62DA-11cf-AB39-0020AF71E433>
 [...]
}

template FloatKeys {
 <10DD46A9-775B-11cf-8F52-0040333594A3>
 DWORD nValues;
 array FLOAT values[nValues];
}

template TimedFloatKeys {
 <F406B180-7B3B-11cf-8F52-0040333594A3>
 DWORD time;
 FloatKeys tfkeys;
}

template AnimationKey {
 <10DD46A8-775B-11cf-8F52-0040333594A3>
 DWORD keyType;
 DWORD nKeys;
 array TimedFloatKeys keys[nKeys];
}

template AnimationOptions {
 <E2BF56C0-840F-11cf-8F52-0040333594A3>
 DWORD openclosed;
 DWORD positionquality;
}

template Animation {
 <3D82AB4F-62DA-11cf-AB39-0020AF71E433>
 [...]
}

template AnimationSet {
 <3D82AB50-62DA-11cf-AB39-0020AF71E433>
 [Animation]
}

template XSkinMeshHeader {
 <3CF169CE-FF7C-44ab-93C0-F78F62D172E2>
 WORD nMaxSkinWeightsPerVertex;
 WORD nMaxSkinWeightsPerFace;
 WORD nBones;
}

template SkinWeights {
 <6F0D123B-BAD2-4167-A0D0-80224F25FABB>
 STRING transformNodeName;
 DWORD nWeights;
 array DWORD vertexIndices[nWeights];
 array FLOAT weights[nWeights];
 Matrix4x4 matrixOffset;
}

template AnimTicksPerSecond {
 <9E415A43-7BA6-4a73-8743-B73D47E88476>
 DWORD AnimTicksPerSecond;
}

AnimTicksPerSecond {
 30;
}

// Start of Frames

   Frame Body {
      FrameTransformMatrix {
       1.000000, 0.000000, 0.000000, 0.000000,
       0.000000, 1.000000, 0.000000, 0.000000,
       0.000000, 0.000000, 1.000000, 0.000000,
       0.000000, 0.000000, 0.000000, 1.000000;;
      }

   }
   Frame def_surf_mat {
      FrameTransformMatrix {
       1.000000, 0.000000, 0.000000, 0.000000,
       0.000000, 1.000000, 0.000000, 0.000000,
       0.000000, 0.000000, 1.000000, 0.000000,
       0.000000, 0.000000, 0.000000, 1.000000;;
      }

   }

   Frame Body0 {
      FrameTransformMatrix {
       1.000000, 0.000000, 0.000000, 0.000000,
       0.000000, 1.000000, 0.000000, 0.000000,
       0.000000, 0.000000, 1.000000, 0.000000,
       0.000000, 0.000000, 0.000000, 1.000000;;
      }

      Mesh skinnedMesh {
       66;
       4.216810; 1.267498; 2.067451;,
       -0.095150; 0.000000; 4.585350;,
       2.597200; 0.000000; 2.067451;,
       -0.054090; 1.373501; 4.585350;,
       -4.843830; 1.424301; 2.067451;,
       -4.191480; 0.000000; 2.067451;,
       -4.843830; 2.835098; 2.067451;,
       -0.054100; 2.873199; 4.585350;,
       4.812490; 2.960499; 2.067451;,
       -6.003839; 4.183201; 2.067451;,
       0.018840; 4.191200; 4.585350;,
       5.564920; 4.214600; 2.067451;,
       -6.724920; 6.848099; 2.067451;,
       0.064330; 6.737499; 4.585350;,
       6.568171; 6.346500; 2.067451;,
       -7.069790; 8.760498; 2.067451;,
       0.086050; 8.883999; 4.585350;,
       7.069790; 9.356201; 2.067451;,
       -6.202440; 12.372799; 1.879150;,
       -0.091760; 12.158501; 4.167652;,
       6.160600; 11.080498; 2.067451;,
       -5.974480; 13.826099; 1.879150;,
       -0.106580; 13.749699; 4.167652;,
       2.973250; 13.569599; 1.879150;,
       -4.385940; 15.489799; 1.411049;,
       -0.411980; 15.422001; 3.129349;,
       1.926130; 15.275799; 1.411049;,
       -3.513180; 16.403698; 1.079952;,
       -0.593580; 16.377098; 2.395050;,
       1.203150; 16.321899; 1.079952;,
       -1.539347; 17.143700; 0.695950;,
       -0.734340; 16.917500; 1.543552;,
       -0.082900; 16.995998; 0.695950;,
       -0.054090; 1.373501; -4.585350;,
       2.597200; 0.000000; -2.067551;,
       -0.095150; 0.000000; -4.585350;,
       4.216810; 1.267498; -2.067551;,
       -4.191480; 0.000000; -2.067551;,
       -4.843830; 1.424301; -2.067551;,
       -0.054100; 2.873199; -4.585350;,
       -4.843830; 2.835098; -2.067551;,
       4.812490; 2.960499; -2.067551;,
       0.018840; 4.191200; -4.585350;,
       -6.003839; 4.183201; -2.067551;,
       5.564920; 4.214600; -2.067551;,
       0.064330; 6.737499; -4.585350;,
       -6.724920; 6.848099; -2.067551;,
       6.568171; 6.346500; -2.067551;,
       0.086050; 8.883999; -4.585350;,
       -7.069790; 8.760498; -2.067551;,
       7.069790; 9.356201; -2.067551;,
       0.060850; 11.879299; -4.585350;,
       -6.662220; 12.115101; -2.067551;,
       6.160600; 11.080498; -2.067551;,
       -0.106580; 13.749699; -4.167747;,
       -5.974480; 13.826099; -1.879250;,
       2.973250; 13.569599; -1.879250;,
       -0.411980; 15.422001; -3.129448;,
       -4.385940; 15.489799; -1.411049;,
       1.926130; 15.275799; -1.411049;,
       -0.593580; 16.377098; -2.395149;,
       -3.513180; 16.403698; -1.079948;,
       1.203150; 16.321899; -1.079948;,
       -0.734340; 16.917500; -1.543549;,
       -1.539347; 17.143700; -0.696049;,
       -0.082900; 16.995998; -0.696049;;
       128;
       3;0, 1, 2;,
       3;0, 3, 1;,
       3;4, 1, 3;,
       3;4, 5, 1;,
       3;3, 6, 4;,
       3;3, 7, 6;,
       3;0, 7, 3;,
       3;0, 8, 7;,
       3;7, 9, 6;,
       3;7, 10, 9;,
       3;8, 10, 7;,
       3;8, 11, 10;,
       3;10, 12, 9;,
       3;10, 13, 12;,
       3;11, 13, 10;,
       3;11, 14, 13;,
       3;13, 15, 12;,
       3;13, 16, 15;,
       3;14, 16, 13;,
       3;14, 17, 16;,
       3;16, 18, 15;,
       3;16, 19, 18;,
       3;17, 19, 16;,
       3;17, 20, 19;,
       3;19, 21, 18;,
       3;19, 22, 21;,
       3;20, 22, 19;,
       3;20, 23, 22;,
       3;22, 24, 21;,
       3;22, 25, 24;,
       3;23, 25, 22;,
       3;23, 26, 25;,
       3;25, 27, 24;,
       3;25, 28, 27;,
       3;26, 28, 25;,
       3;26, 29, 28;,
       3;28, 30, 27;,
       3;28, 31, 30;,
       3;29, 31, 28;,
       3;29, 32, 31;,
       3;33, 34, 35;,
       3;33, 36, 34;,
       3;37, 33, 35;,
       3;37, 38, 33;,
       3;39, 38, 40;,
       3;39, 33, 38;,
       3;41, 33, 39;,
       3;41, 36, 33;,
       3;42, 40, 43;,
       3;42, 39, 40;,
       3;44, 39, 42;,
       3;44, 41, 39;,
       3;45, 43, 46;,
       3;45, 42, 43;,
       3;47, 42, 45;,
       3;47, 44, 42;,
       3;48, 46, 49;,
       3;48, 45, 46;,
       3;50, 45, 48;,
       3;50, 47, 45;,
       3;51, 49, 52;,
       3;51, 48, 49;,
       3;53, 48, 51;,
       3;53, 50, 48;,
       3;54, 52, 55;,
       3;54, 51, 52;,
       3;56, 51, 54;,
       3;56, 53, 51;,
       3;57, 55, 58;,
       3;57, 54, 55;,
       3;59, 54, 57;,
       3;59, 56, 54;,
       3;60, 58, 61;,
       3;60, 57, 58;,
       3;62, 57, 60;,
       3;62, 59, 57;,
       3;63, 61, 64;,
       3;63, 60, 61;,
       3;65, 60, 63;,
       3;65, 62, 60;,
       3;36, 2, 34;,
       3;36, 0, 2;,
       3;34, 1, 35;,
       3;34, 2, 1;,
       3;41, 0, 36;,
       3;41, 8, 0;,
       3;37, 4, 38;,
       3;37, 5, 4;,
       3;38, 6, 40;,
       3;38, 4, 6;,
       3;35, 5, 37;,
       3;35, 1, 5;,
       3;44, 8, 41;,
       3;44, 11, 8;,
       3;40, 9, 43;,
       3;40, 6, 9;,
       3;47, 11, 44;,
       3;47, 14, 11;,
       3;43, 12, 46;,
       3;43, 9, 12;,
       3;50, 14, 47;,
       3;50, 17, 14;,
       3;46, 15, 49;,
       3;46, 12, 15;,
       3;53, 17, 50;,
       3;53, 20, 17;,
       3;49, 18, 52;,
       3;49, 15, 18;,
       3;56, 20, 53;,
       3;56, 23, 20;,
       3;52, 21, 55;,
       3;52, 18, 21;,
       3;59, 23, 56;,
       3;59, 26, 23;,
       3;55, 24, 58;,
       3;55, 21, 24;,
       3;62, 26, 59;,
       3;62, 29, 26;,
       3;58, 27, 61;,
       3;58, 24, 27;,
       3;65, 29, 62;,
       3;65, 32, 29;,
       3;61, 30, 64;,
       3;61, 27, 30;,
       3;63, 32, 65;,
       3;63, 31, 32;,
       3;64, 31, 63;,
       3;64, 30, 31;;

      MeshNormals {
       66;
       0.755701; -0.384595; 0.530096;,
       0.009568; -0.779691; 0.626092;,
       0.470245; -0.870021; 0.148098;,
       -0.086553; -0.000288; 0.996247;,
       -0.835211; -0.206379; 0.509736;,
       -0.454978; -0.849928; 0.265738;,
       -0.828107; -0.205536; 0.521529;,
       0.026962; -0.101136; 0.994507;,
       0.779617; -0.350580; 0.518932;,
       -0.740347; -0.405955; 0.535805;,
       0.028937; -0.064000; 0.997530;,
       0.762764; -0.354131; 0.541094;,
       -0.807224; -0.173856; 0.564060;,
       0.016876; -0.040763; 0.999026;,
       0.798602; -0.199003; 0.568008;,
       -0.814571; -0.010845; 0.579962;,
       0.003845; 0.054793; 0.998490;,
       0.784354; 0.214140; 0.582180;,
       -0.786348; 0.156705; 0.597579;,
       -0.012476; 0.083773; 0.996407;,
       0.651432; 0.576901; 0.492770;,
       -0.742149; 0.362963; 0.563447;,
       0.058878; 0.407768; 0.911185;,
       0.692817; 0.631341; 0.348445;,
       -0.587573; 0.675837; 0.444976;,
       0.102803; 0.586032; 0.803740;,
       0.722747; 0.593567; 0.353998;,
       -0.493087; 0.785546; 0.373876;,
       0.082089; 0.750301; 0.655980;,
       0.524622; 0.810623; 0.260121;,
       -0.215553; 0.950643; 0.223192;,
       0.138799; 0.960391; 0.241627;,
       0.151507; 0.984155; 0.092110;,
       0.103684; -0.156417; -0.982234;,
       0.425945; -0.828816; -0.362814;,
       0.046863; -0.883871; -0.465376;,
       0.710877; -0.601755; -0.364066;,
       -0.725397; -0.525223; -0.444904;,
       -0.845966; -0.123180; -0.518815;,
       -0.014402; -0.049867; -0.998652;,
       -0.777005; -0.324766; -0.539250;,
       0.804919; -0.314630; -0.503104;,
       -0.006673; -0.092347; -0.995704;,
       -0.768476; -0.319863; -0.554195;,
       0.763373; -0.380456; -0.522029;,
       -0.004211; -0.027326; -0.999618;,
       -0.805271; -0.155849; -0.572057;,
       0.790452; -0.256718; -0.556131;,
       0.006276; 0.019882; -0.999783;,
       -0.824063; 0.032496; -0.565566;,
       0.809359; 0.051226; -0.585076;,
       0.061771; 0.184535; -0.980883;,
       -0.816540; 0.229340; -0.529778;,
       0.697367; 0.489959; -0.523087;,
       0.121600; 0.403094; -0.907044;,
       -0.653520; 0.578752; -0.487809;,
       0.664356; 0.626491; -0.407604;,
       0.102615; 0.587614; -0.802608;,
       -0.584620; 0.690220; -0.426398;,
       0.735627; 0.574504; -0.358886;,
       0.068304; 0.758395; -0.648206;,
       -0.399461; 0.861869; -0.312430;,
       0.618253; 0.723857; -0.306259;,
       0.002153; 0.966923; -0.255059;,
       -0.011889; 0.992623; -0.120657;,
       0.334352; 0.926096; -0.174801;;
       128;
       3;0, 1, 2;,
       3;0, 3, 1;,
       3;4, 1, 3;,
       3;4, 5, 1;,
       3;3, 6, 4;,
       3;3, 7, 6;,
       3;0, 7, 3;,
       3;0, 8, 7;,
       3;7, 9, 6;,
       3;7, 10, 9;,
       3;8, 10, 7;,
       3;8, 11, 10;,
       3;10, 12, 9;,
       3;10, 13, 12;,
       3;11, 13, 10;,
       3;11, 14, 13;,
       3;13, 15, 12;,
       3;13, 16, 15;,
       3;14, 16, 13;,
       3;14, 17, 16;,
       3;16, 18, 15;,
       3;16, 19, 18;,
       3;17, 19, 16;,
       3;17, 20, 19;,
       3;19, 21, 18;,
       3;19, 22, 21;,
       3;20, 22, 19;,
       3;20, 23, 22;,
       3;22, 24, 21;,
       3;22, 25, 24;,
       3;23, 25, 22;,
       3;23, 26, 25;,
       3;25, 27, 24;,
       3;25, 28, 27;,
       3;26, 28, 25;,
       3;26, 29, 28;,
       3;28, 30, 27;,
       3;28, 31, 30;,
       3;29, 31, 28;,
       3;29, 32, 31;,
       3;33, 34, 35;,
       3;33, 36, 34;,
       3;37, 33, 35;,
       3;37, 38, 33;,
       3;39, 38, 40;,
       3;39, 33, 38;,
       3;41, 33, 39;,
       3;41, 36, 33;,
       3;42, 40, 43;,
       3;42, 39, 40;,
       3;44, 39, 42;,
       3;44, 41, 39;,
       3;45, 43, 46;,
       3;45, 42, 43;,
       3;47, 42, 45;,
       3;47, 44, 42;,
       3;48, 46, 49;,
       3;48, 45, 46;,
       3;50, 45, 48;,
       3;50, 47, 45;,
       3;51, 49, 52;,
       3;51, 48, 49;,
       3;53, 48, 51;,
       3;53, 50, 48;,
       3;54, 52, 55;,
       3;54, 51, 52;,
       3;56, 51, 54;,
       3;56, 53, 51;,
       3;57, 55, 58;,
       3;57, 54, 55;,
       3;59, 54, 57;,
       3;59, 56, 54;,
       3;60, 58, 61;,
       3;60, 57, 58;,
       3;62, 57, 60;,
       3;62, 59, 57;,
       3;63, 61, 64;,
       3;63, 60, 61;,
       3;65, 60, 63;,
       3;65, 62, 60;,
       3;36, 2, 34;,
       3;36, 0, 2;,
       3;34, 1, 35;,
       3;34, 2, 1;,
       3;41, 0, 36;,
       3;41, 8, 0;,
       3;37, 4, 38;,
       3;37, 5, 4;,
       3;38, 6, 40;,
       3;38, 4, 6;,
       3;35, 5, 37;,
       3;35, 1, 5;,
       3;44, 8, 41;,
       3;44, 11, 8;,
       3;40, 9, 43;,
       3;40, 6, 9;,
       3;47, 11, 44;,
       3;47, 14, 11;,
       3;43, 12, 46;,
       3;43, 9, 12;,
       3;50, 14, 47;,
       3;50, 17, 14;,
       3;46, 15, 49;,
       3;46, 12, 15;,
       3;53, 17, 50;,
       3;53, 20, 17;,
       3;49, 18, 52;,
       3;49, 15, 18;,
       3;56, 20, 53;,
       3;56, 23, 20;,
       3;52, 21, 55;,
       3;52, 18, 21;,
       3;59, 23, 56;,
       3;59, 26, 23;,
       3;55, 24, 58;,
       3;55, 21, 24;,
       3;62, 26, 59;,
       3;62, 29, 26;,
       3;58, 27, 61;,
       3;58, 24, 27;,
       3;65, 29, 62;,
       3;65, 32, 29;,
       3;61, 30, 64;,
       3;61, 27, 30;,
       3;63, 32, 65;,
       3;63, 31, 32;,
       3;64, 31, 63;,
       3;64, 30, 31;;
      }

      MeshTextureCoords {
       66;
       0.656682; 0.736102;,
       0.496465; 0.783198;,
       0.596503; 0.783198;,
       0.497990; 0.732163;,
       0.320020; 0.730276;,
       0.344259; 0.783198;,
       0.320020; 0.699037;,
       0.497990; 0.697621;,
       0.660563; 0.694377;,
       0.276918; 0.663067;,
       0.500700; 0.662770;,
       0.688521; 0.661900;,
       0.250125; 0.564049;,
       0.502390; 0.568158;,
       0.657352; 0.582686;,
       0.237311; 0.492990;,
       0.503197; 0.488402;,
       0.675991; 0.470856;,
       0.269539; 0.358770;,
       0.496591; 0.366733;,
       0.642209; 0.406787;,
       0.278009; 0.304770;,
       0.496040; 0.307609;,
       0.610476; 0.314301;,
       0.337034; 0.242953;,
       0.484692; 0.245472;,
       0.571568; 0.250905;,
       0.369462; 0.208996;,
       0.477945; 0.206830;,
       0.583343; 0.304293;,
       0.425455; 0.181500;,
       0.496370; 0.264815;,
       0.532403; 0.273726;,
       0.497990; 0.732163;,
       0.652612; 0.803001;,
       0.496465; 0.783198;,
       0.712791; 0.755906;,
       0.400370; 0.803001;,
       0.376131; 0.750079;,
       0.497990; 0.697621;,
       0.376131; 0.718840;,
       0.734925; 0.714181;,
       0.500700; 0.662770;,
       0.333029; 0.682870;,
       0.744630; 0.681704;,
       0.502390; 0.568158;,
       0.306236; 0.583852;,
       0.713462; 0.602490;,
       0.503197; 0.488402;,
       0.293421; 0.512794;,
       0.732100; 0.490660;,
       0.502261; 0.377107;,
       0.308565; 0.388149;,
       0.698318; 0.426591;,
       0.496040; 0.307609;,
       0.334120; 0.324574;,
       0.666585; 0.334105;,
       0.484692; 0.245472;,
       0.393144; 0.262757;,
       0.627678; 0.270708;,
       0.477945; 0.206830;,
       0.427938; 0.231954;,
       0.600814; 0.228684;,
       0.528824; 0.206554;,
       0.498914; 0.198149;,
       0.553029; 0.203637;;
      }

      MeshVertexColors {
       66;
       0; 1.000000; 1.000000; 1.000000; 1.000000;,
       1; 1.000000; 1.000000; 1.000000; 1.000000;,
       2; 1.000000; 1.000000; 1.000000; 1.000000;,
       3; 1.000000; 1.000000; 1.000000; 1.000000;,
       4; 1.000000; 1.000000; 1.000000; 1.000000;,
       5; 1.000000; 1.000000; 1.000000; 1.000000;,
       6; 1.000000; 1.000000; 1.000000; 1.000000;,
       7; 1.000000; 1.000000; 1.000000; 1.000000;,
       8; 1.000000; 1.000000; 1.000000; 1.000000;,
       9; 1.000000; 1.000000; 1.000000; 1.000000;,
       10; 1.000000; 1.000000; 1.000000; 1.000000;,
       11; 1.000000; 1.000000; 1.000000; 1.000000;,
       12; 1.000000; 1.000000; 1.000000; 1.000000;,
       13; 1.000000; 1.000000; 1.000000; 1.000000;,
       14; 1.000000; 1.000000; 1.000000; 1.000000;,
       15; 1.000000; 1.000000; 1.000000; 1.000000;,
       16; 1.000000; 1.000000; 1.000000; 1.000000;,
       17; 1.000000; 1.000000; 1.000000; 1.000000;,
       18; 1.000000; 1.000000; 1.000000; 1.000000;,
       19; 1.000000; 1.000000; 1.000000; 1.000000;,
       20; 1.000000; 1.000000; 1.000000; 1.000000;,
       21; 1.000000; 1.000000; 1.000000; 1.000000;,
       22; 1.000000; 1.000000; 1.000000; 1.000000;,
       23; 1.000000; 1.000000; 1.000000; 1.000000;,
       24; 1.000000; 1.000000; 1.000000; 1.000000;,
       25; 1.000000; 1.000000; 1.000000; 1.000000;,
       26; 1.000000; 1.000000; 1.000000; 1.000000;,
       27; 1.000000; 1.000000; 1.000000; 1.000000;,
       28; 1.000000; 1.000000; 1.000000; 1.000000;,
       29; 1.000000; 1.000000; 1.000000; 1.000000;,
       30; 1.000000; 1.000000; 1.000000; 1.000000;,
       31; 1.000000; 1.000000; 1.000000; 1.000000;,
       32; 1.000000; 1.000000; 1.000000; 1.000000;,
       33; 1.000000; 1.000000; 1.000000; 1.000000;,
       34; 1.000000; 1.000000; 1.000000; 1.000000;,
       35; 1.000000; 1.000000; 1.000000; 1.000000;,
       36; 1.000000; 1.000000; 1.000000; 1.000000;,
       37; 1.000000; 1.000000; 1.000000; 1.000000;,
       38; 1.000000; 1.000000; 1.000000; 1.000000;,
       39; 1.000000; 1.000000; 1.000000; 1.000000;,
       40; 1.000000; 1.000000; 1.000000; 1.000000;,
       41; 1.000000; 1.000000; 1.000000; 1.000000;,
       42; 1.000000; 1.000000; 1.000000; 1.000000;,
       43; 1.000000; 1.000000; 1.000000; 1.000000;,
       44; 1.000000; 1.000000; 1.000000; 1.000000;,
       45; 1.000000; 1.000000; 1.000000; 1.000000;,
       46; 1.000000; 1.000000; 1.000000; 1.000000;,
       47; 1.000000; 1.000000; 1.000000; 1.000000;,
       48; 1.000000; 1.000000; 1.000000; 1.000000;,
       49; 1.000000; 1.000000; 1.000000; 1.000000;,
       50; 1.000000; 1.000000; 1.000000; 1.000000;,
       51; 1.000000; 1.000000; 1.000000; 1.000000;,
       52; 1.000000; 1.000000; 1.000000; 1.000000;,
       53; 1.000000; 1.000000; 1.000000; 1.000000;,
       54; 1.000000; 1.000000; 1.000000; 1.000000;,
       55; 1.000000; 1.000000; 1.000000; 1.000000;,
       56; 1.000000; 1.000000; 1.000000; 1.000000;,
       57; 1.000000; 1.000000; 1.000000; 1.000000;,
       58; 1.000000; 1.000000; 1.000000; 1.000000;,
       59; 1.000000; 1.000000; 1.000000; 1.000000;,
       60; 1.000000; 1.000000; 1.000000; 1.000000;,
       61; 1.000000; 1.000000; 1.000000; 1.000000;,
       62; 1.000000; 1.000000; 1.000000; 1.000000;,
       63; 1.000000; 1.000000; 1.000000; 1.000000;,
       64; 1.000000; 1.000000; 1.000000; 1.000000;,
       65; 1.000000; 1.000000; 1.000000; 1.000000;;
      }

      MeshMaterialList {
       1;
       128;
       0,
       0,
       0,
       0,
       0,
       0,
       0,
       0,
       0,
       0,
       0,
       0,
       0,
       0,
       0,
       0,
       0,
       0,
       0,
       0,
       0,
       0,
       0,
       0,
       0,
       0,
       0,
       0,
       0,
       0,
       0,
       0,
       0,
       0,
       0,
       0,
       0,
       0,
       0,
       0,
       0,
       0,
       0,
       0,
       0,
       0,
       0,
       0,
       0,
       0,
       0,
       0,
       0,
       0,
       0,
       0,
       0,
       0,
       0,
       0,
       0,
       0,
       0,
       0,
       0,
       0,
       0,
       0,
       0,
       0,
       0,
       0,
       0,
       0,
       0,
       0,
       0,
       0,
       0,
       0,
       0,
       0,
       0,
       0,
       0,
       0,
       0,
       0,
       0,
       0,
       0,
       0,
       0,
       0,
       0,
       0,
       0,
       0,
       0,
       0,
       0,
       0,
       0,
       0,
       0,
       0,
       0,
       0,
       0,
       0,
       0,
       0,
       0,
       0,
       0,
       0,
       0,
       0,
       0,
       0,
       0,
       0,
       0,
       0,
       0,
       0,
       0,
       0;

       Material def_surf_mat {
        0.992157; 0.992157; 0.992157; 1.000000;;
        1.000000;
        0.150000; 0.150000; 0.150000;;
        0.000000; 0.000000; 0.000000;;

        TextureFilename {
         "roast_beef.dds";
        }
       }

      }

      XSkinMeshHeader {
       1;
       1;
       1;
      }

      SkinWeights {
       "Body";
       66;
       0,
       1,
       2,
       3,
       4,
       5,
       6,
       7,
       8,
       9,
       10,
       11,
       12,
       13,
       14,
       15,
       16,
       17,
       18,
       19,
       20,
       21,
       22,
       23,
       24,
       25,
       26,
       27,
       28,
       29,
       30,
       31,
       32,
       33,
       34,
       35,
       36,
       37,
       38,
       39,
       40,
       41,
       42,
       43,
       44,
       45,
       46,
       47,
       48,
       49,
       50,
       51,
       52,
       53,
       54,
       55,
       56,
       57,
       58,
       59,
       60,
       61,
       62,
       63,
       64,
       65;
       1.000000,
       1.000000,
       1.000000,
       1.000000,
       1.000000,
       1.000000,
       1.000000,
       1.000000,
       1.000000,
       1.000000,
       1.000000,
       1.000000,
       1.000000,
       1.000000,
       1.000000,
       1.000000,
       1.000000,
       1.000000,
       1.000000,
       1.000000,
       1.000000,
       1.000000,
       1.000000,
       1.000000,
       1.000000,
       1.000000,
       1.000000,
       1.000000,
       1.000000,
       1.000000,
       1.000000,
       1.000000,
       1.000000,
       1.000000,
       1.000000,
       1.000000,
       1.000000,
       1.000000,
       1.000000,
       1.000000,
       1.000000,
       1.000000,
       1.000000,
       1.000000,
       1.000000,
       1.000000,
       1.000000,
       1.000000,
       1.000000,
       1.000000,
       1.000000,
       1.000000,
       1.000000,
       1.000000,
       1.000000,
       1.000000,
       1.000000,
       1.000000,
       1.000000,
       1.000000,
       1.000000,
       1.000000,
       1.000000,
       1.000000,
       1.000000,
       1.000000;
          1.000000, -0.000000, 0.000000, 0.000000,
          -0.000000, 1.000000, -0.000000, 0.000000,
          0.000000, -0.000000, 1.000000, 0.000000,
          -0.000000, -0.000000, -0.000000, 1.000000;;
      }


     }
   }

// Start of Animation

AnimationSet Untitled {
}
