<?xml version="1.0" encoding="utf-8"?>
<COLLADA xmlns="http://www.collada.org/2005/11/COLLADASchema" version="1.4.1">
  <asset>
    <contributor>
      <author>Ultimate Unwrap3D Pro</author>
      <authoring_tool>Ultimate Unwrap3D Pro v3.19</authoring_tool>
      <comments>Exported from Ultimate Unwrap3D Pro on Thu Dec 10 22:02:51 2009</comments>
      <source_data>file:///C:/Users/Public/Documents/Unity%20Projects/Island%20Demo/Assets/new/castle_props/shield.dae</source_data>
    </contributor>
    <created>2009-12-10T22:02:51Z</created>
    <modified>2009-12-10T22:02:51Z</modified>
    <unit meter="1" name="meter"/>
    <up_axis>Y_UP</up_axis>
  </asset>
  <library_images>
    <image id="Image" name="shield">
      <init_from>./shield.dds</init_from>
    </image>
  </library_images>
  <library_materials>
    <material id="VisualMaterial1" name="Unassigned">
      <instance_effect url="#Effect"/>
    </material>
    <material id="VisualMaterial" name="material28">
      <instance_effect url="#Effect1"/>
    </material>
  </library_materials>
  <library_effects>
    <effect id="Effect" name="Unassigned_eff">
      <profile_COMMON>
        <technique sid="common">
          <phong>
            <ambient>
              <color>0 0 0 1</color>
            </ambient>
            <diffuse>
              <color>1 1 1 1</color>
            </diffuse>
            <specular>
              <color>0 0 0 1</color>
            </specular>
            <shininess>
              <float>100</float>
            </shininess>
            <reflective>
              <color>0 0 0 1</color>
            </reflective>
            <reflectivity>
              <float>1</float>
            </reflectivity>
            <transparent opaque="A_ONE">
              <color>1 1 1 1</color>
            </transparent>
            <transparency>
              <float>0</float>
            </transparency>
            <index_of_refraction>
              <float>0</float>
            </index_of_refraction>
          </phong>
          <extra>
            <technique profile="FCOLLADA">
              <spec_level>
                <float>0</float>
              </spec_level>
              <emission_level>
                <float>0</float>
              </emission_level>
            </technique>
          </extra>
        </technique>
      </profile_COMMON>
      <extra>
        <technique profile="MAX3D">
          <faceted>0</faceted>
          <double_sided>0</double_sided>
          <wireframe>0</wireframe>
          <face_map>0</face_map>
        </technique>
      </extra>
    </effect>
    <effect id="Effect1" name="material28_eff">
      <profile_COMMON>
        <newparam sid="Image-surface">
          <surface type="2D">
            <init_from>Image</init_from>
            <format>A8R8G8B8</format>
          </surface>
        </newparam>
        <newparam sid="Image-sampler">
          <sampler2D>
            <source>Image-surface</source>
            <minfilter>LINEAR_MIPMAP_LINEAR</minfilter>
            <magfilter>LINEAR</magfilter>
          </sampler2D>
        </newparam>
        <technique sid="common">
          <phong>
            <ambient>
              <color>0 0 0 1</color>
            </ambient>
            <diffuse>
              <texture texture="Image-sampler" texcoord="UVSET0">
                <extra>
                  <technique profile="MAX3D">
                    <amount>1</amount>
                  </technique>
                </extra>
              </texture>
            </diffuse>
            <specular>
              <color>0.15 0.15 0.15 1</color>
            </specular>
            <shininess>
              <float>0.78125</float>
            </shininess>
            <reflective>
              <color>0 0 0 1</color>
            </reflective>
            <reflectivity>
              <float>1</float>
            </reflectivity>
            <transparent opaque="A_ONE">
              <color>1 1 1 1</color>
            </transparent>
            <transparency>
              <float>0</float>
            </transparency>
            <index_of_refraction>
              <float>0</float>
            </index_of_refraction>
          </phong>
          <extra>
            <technique profile="FCOLLADA">
              <spec_level>
                <float>0</float>
              </spec_level>
              <emission_level>
                <float>0</float>
              </emission_level>
            </technique>
          </extra>
        </technique>
      </profile_COMMON>
      <extra>
        <technique profile="MAX3D">
          <faceted>0</faceted>
          <double_sided>0</double_sided>
          <wireframe>0</wireframe>
          <face_map>0</face_map>
        </technique>
      </extra>
    </effect>
  </library_effects>
  <library_geometries>
    <geometry id="geomU3D_id" name="geomU3D">
      <mesh>
        <source id="PositionSrc_id" name="PositionSrc">
          <float_array id="PositionSrc_id-array" count="714">-2.722 26.4397 0.686844 -6.4301 18.6396 -0.46785 -2.722 18.6396 -0.247749 -6.4033 26.1149 0.466644 -9.6812 25.5988 1.04425 -10.1016 18.6396 0.109749 -2.722 14.2251 -0.45565 -6.4301 14.2251 -0.675751 -10.4019 14.2251 -0.098152 -2.722 12.2131 -0.45565 -6.4301 12.2131 -0.675751 -10.4019 12.2131 -0.098152 0 26.5411 0.686844 0.409901 18.6396 -0.247749 0.3459 14.2251 -0.45565 0.204399 12.2131 -0.45565 -2.722 8.2544 -0.247749 -6.4301 8.2544 -0.46785 -9.3362 8.2544 0.109749 0.201401 8.2544 -0.247749 -2.722 5.0063 0.003548 -6.963 5.0063 -0.216652 -0.3004 5.0063 0.003548 -2.722 2.5195 0.171844 -4.6183 2.5195 0.529243 -0.2096 2.5195 0.171844 -2.0115 0.509697 0.644844 0 0.1189 0.644844 -6.4367 26.1862 -0.087456 -2.7065 18.6863 -0.805252 -6.4595 18.6891 -1.02455 -2.7076 26.5067 0.131348 -10.1916 18.691 -0.440254 -9.7775 25.6725 0.497849 -6.4547 14.239 -1.23465 -2.7054 14.2383 -1.01525 -10.484 14.2396 -0.651756 -6.4569 12.1953 -1.23445 -2.7054 12.1984 -1.01525 -10.4885 12.1924 -0.650749 0.000601 18.6859 -0.80545 -0.001301 26.6073 0.13105 0 14.2383 -1.01525 0 12.1984 -1.01525 -6.4647 8.219 -1.02535 -2.706 8.2176 -0.805954 -9.4369 8.2215 -0.439949 0 8.2181 -0.806252 -6.9933 4.9469 -0.772255 -2.7174 4.9479 -0.553055 0 4.9658 -0.554649 -4.6746 2.3853 -0.013649 -2.7526 2.4132 -0.376755 -0.0049 2.4407 -0.383751 -2.0663 0.370098 0.105644 -0.0098 0 0.098045 -6.4367 26.1862 -0.087456 -2.722 26.4397 0.686844 -2.7076 26.5067 0.131348 -6.4033 26.1149 0.466644 -2.7076 26.5067 0.131348 0 26.5411 0.686844 -0.001301 26.6073 0.13105 -2.722 26.4397 0.686844 -10.1916 18.691 -0.440254 -9.6812 25.5988 1.04425 -9.7775 25.6725 0.497849 -10.1016 18.6396 0.109749 -9.7775 25.6725 0.497849 -9.6812 25.5988 1.04425 -10.484 14.2396 -0.651756 -10.4019 14.2251 -0.098152 -10.4885 12.1924 -0.650749 -10.4019 12.2131 -0.098152 -9.4369 8.2215 -0.439949 -9.3362 8.2544 0.109749 -6.9933 4.9469 -0.772255 -6.963 5.0063 -0.216652 -4.6746 2.3853 -0.013649 -4.6183 2.5195 0.529243 -2.0663 0.370098 0.105644 -4.6183 2.5195 0.529243 -4.6746 2.3853 -0.013649 -2.0115 0.509697 0.644844 -0.0098 0 0.098045 0 0.1189 0.644844 6.4033 26.1149 0.466644 2.722 18.6396 -0.247749 6.43 18.6396 -0.46785 2.722 26.4397 0.686844 10.1016 18.6396 0.109749 9.6811 25.5988 1.04425 6.43 14.2251 -0.675751 2.722 14.2251 -0.45565 10.4019 14.2251 -0.098152 6.43 12.2131 -0.675751 2.722 12.2131 -0.45565 10.4019 12.2131 -0.098152 6.43 8.2544 -0.46785 2.722 8.2544 -0.247749 9.3361 8.2544 0.109749 6.963 5.0063 -0.216652 2.722 5.0063 0.003548 4.6183 2.5195 0.529243 2.722 2.5195 0.171844 2.0115 0.509697 0.644844 2.7076 26.5067 0.131348 6.4594 18.6891 -1.02455 2.7065 18.6863 -0.805252 6.4366 26.1862 -0.087456 9.7775 25.6725 0.497849 10.1916 18.691 -0.440254 2.7054 14.2383 -1.01525 6.4546 14.239 -1.23465 10.484 14.2396 -0.651756 2.7054 12.1984 -1.01525 6.4569 12.1953 -1.23445 10.4885 12.1924 -0.650749 2.706 8.2176 -0.805954 6.4647 8.219 -1.02535 9.4369 8.2215 -0.439949 2.7174 4.9479 -0.553055 6.9933 4.9469 -0.772255 2.7526 2.4132 -0.376755 4.6745 2.3853 -0.013649 2.0663 0.370098 0.105644 6.4033 26.1149 0.466644 2.7076 26.5067 0.131348 2.722 26.4397 0.686844 6.4366 26.1862 -0.087456 10.1016 18.6396 0.109749 9.7775 25.6725 0.497849 9.6811 25.5988 1.04425 10.1916 18.691 -0.440254 9.6811 25.5988 1.04425 9.7775 25.6725 0.497849 10.4019 14.2251 -0.098152 10.484 14.2396 -0.651756 10.4019 12.2131 -0.098152 10.4885 12.1924 -0.650749 9.3361 8.2544 0.109749 9.4369 8.2215 -0.439949 6.963 5.0063 -0.216652 6.9933 4.9469 -0.772255 4.6183 2.5195 0.529243 4.6745 2.3853 -0.013649 2.0115 0.509697 0.644844 4.6745 2.3853 -0.013649 4.6183 2.5195 0.529243 2.0663 0.370098 0.105644 -1.473 24.1714 0.262047 -2.5962 21.433 0.39325 -3.4901 22.5345 0.769547 -0.5791 23.0699 -0.11425 -5.0275 21.2869 0.887947 -4.1336 20.1854 0.51165 -6.6766 19.9486 0.666847 -5.7827 18.8471 0.29055 -7.9631 18.9046 0.027046 -7.0692 17.803 -0.34935 -0.470699 23.0417 0.225449 -3.3987 22.4912 1.11345 -2.5048 21.3897 0.737045 -1.3647 24.1433 0.601746 -4.0816 20.1091 0.858345 -4.9755 21.2106 1.23465 -5.7894 18.7257 0.630051 -6.6833 19.8272 1.00635 -7.1121 17.6575 -0.025452 -8.0061 18.7591 0.350945 -1.3647 24.1433 0.601746 -3.4901 22.5345 0.769547 -3.3987 22.4912 1.11345 -1.473 24.1714 0.262047 -5.0275 21.2869 0.887947 -4.9755 21.2106 1.23465 -0.470699 23.0417 0.225449 -1.3647 24.1433 0.601746 -2.5048 21.3897 0.737045 -0.5791 23.0699 -0.11425 -0.470699 23.0417 0.225449 -2.5962 21.433 0.39325 -4.0816 20.1091 0.858345 -4.1336 20.1854 0.51165 -5.7894 18.7257 0.630051 -5.7827 18.8471 0.29055 -6.6766 19.9486 0.666847 -6.6833 19.8272 1.00635 -7.1121 17.6575 -0.025452 -7.0692 17.803 -0.34935 -7.9631 18.9046 0.027046 -8.0061 18.7591 0.350945 -8.0061 18.7591 0.350945 -7.1121 17.6575 -0.025452 5.026 13.9229 -0.336655 4.5618 11.0124 -0.034752 3.4388 11.8997 0.290245 6.149 13.0356 -0.661652 2.229 10.342 0.500145 3.352 9.4547 0.175148 0.9314 8.6507 0.377647 2.0544 7.7634 0.05265 -0.080999 7.3038 -0.184349 1.042 6.4165 -0.509354 6.2609 13.053 -0.32235 3.5376 11.8987 0.63475 4.6607 11.0114 0.309746 5.1379 13.9403 0.002647 3.4202 9.4128 0.524849 2.2972 10.3001 0.849846 2.0757 7.6637 0.398544 0.9527 8.551 0.723549 1.0337 6.2842 -0.177155 -0.089399 7.1716 0.14785 5.1379 13.9403 0.002647 3.4388 11.8997 0.290245 3.5376 11.8987 0.63475 5.026 13.9229 -0.336655 2.229 10.342 0.500145 2.2972 10.3001 0.849846 6.2609 13.053 -0.32235 5.1379 13.9403 0.002647 4.6607 11.0114 0.309746 6.149 13.0356 -0.661652 6.2609 13.053 -0.32235 4.5618 11.0124 -0.034752 3.4202 9.4128 0.524849 3.352 9.4547 0.175148 2.0757 7.6637 0.398544 2.0544 7.7634 0.05265 0.9314 8.6507 0.377647 0.9527 8.551 0.723549 1.0337 6.2842 -0.177155 1.042 6.4165 -0.509354 -0.080999 7.3038 -0.184349 -0.089399 7.1716 0.14785 -0.089399 7.1716 0.14785 1.0337 6.2842 -0.177155</float_array>
          <technique_common>
            <accessor source="#PositionSrc_id-array" count="238" stride="3">
              <param name="X" type="float"/>
              <param name="Y" type="float"/>
              <param name="Z" type="float"/>
            </accessor>
          </technique_common>
        </source>
        <source id="NormalSrc_id" name="NormalSrc">
          <float_array id="NormalSrc_id-array" count="714">-0.03427 -0.120532 0.992118 0.03948 -0.09293 0.994889 -0.022741 -0.089933 0.995688 0.071782 -0.123979 0.989685 0.172418 -0.131561 0.976198 0.151068 -0.081209 0.985182 -0.029624 -0.031355 0.999069 0.044443 -0.025099 0.998697 0.143886 -0.018775 0.989416 -0.025401 0.02248 0.999424 0.042559 0.026246 0.998749 0.160699 0.051839 0.985641 0.000015 -0.118038 0.993009 -0.000731 -0.082592 0.996583 0 -0.023528 0.999723 0 0.026231 0.999656 -0.029585 0.064771 0.997461 0.060852 0.069496 0.995724 0.194411 0.073662 0.97815 0 0.064796 0.997899 -0.027089 0.073702 0.996912 0.06609 0.158604 0.985128 0 0.072329 0.997381 0.057549 0.216406 0.974606 0.173098 0.3557 0.918431 -0.00617 0.13619 0.990663 0.112822 0.265243 0.957558 0.003542 0.209569 0.977787 -0.060252 0.127668 -0.989985 0.031819 0.078633 -0.996396 -0.06731 0.079939 -0.994525 0.014488 0.118401 -0.99286 -0.166736 0.10739 -0.980136 -0.19195 0.141871 -0.971096 -0.042627 0.02354 -0.998814 0.029204 0.015692 -0.99945 -0.146908 0.034463 -0.98855 -0.050997 -0.032533 -0.998169 0.034985 -0.031516 -0.998891 -0.143164 -0.030098 -0.989241 -0.000746 0.082572 -0.996585 0.000035 0.117908 -0.993024 -0.000011 0.023572 -0.999722 -0.000016 -0.026238 -0.999656 -0.042658 -0.057855 -0.997413 0.027857 -0.066362 -0.997407 -0.176342 -0.061987 -0.982375 -0.000012 -0.064797 -0.997898 -0.008643 -0.113504 -0.9935 -0.014043 -0.101936 -0.994692 -0.000292 -0.072635 -0.997358 -0.104009 -0.198373 -0.974592 -0.07275 -0.143961 -0.986905 -0.006339 -0.137251 -0.990516 -0.07119 -0.235715 -0.969211 0.003087 -0.210732 -0.977539 -0.10483 0.986228 0.127928 -0.093419 0.987775 0.124791 -0.091849 0.988888 0.116895 -0.116561 0.983198 0.14048 -0.036918 0.992268 0.1185 -0.012297 0.992885 0.118441 0.012317 0.992885 0.118442 -0.036963 0.992239 0.118721 -0.984559 0.042866 0.169723 -0.984551 0.035916 0.171376 -0.983435 0.034418 0.177964 -0.985819 0.051456 0.159728 -0.127326 0.9813 0.144353 -0.127033 0.979785 0.154544 -0.987308 0.039745 0.153767 -0.98848 0.020818 0.14991 -0.984614 -0.081425 0.15461 -0.971787 -0.164765 0.168765 -0.911632 -0.370123 0.178704 -0.857653 -0.488374 0.161004 -0.777566 -0.614752 0.13218 -0.76575 -0.625331 0.150292 -0.748641 -0.640334 0.171782 -0.741496 -0.629395 0.232479 -0.466914 -0.844166 0.26339 -0.598122 -0.760167 0.253765 -0.599091 -0.760604 0.250144 -0.325739 -0.911742 0.250241 -0.062654 -0.971077 0.230399 0.057054 -0.9713 0.230914 -0.060408 -0.127753 0.989965 0.032322 -0.078572 0.996384 -0.06743 -0.079927 0.994517 0.014821 -0.118527 0.99284 -0.167745 -0.107475 0.979954 -0.193433 -0.142047 0.970776 -0.042554 -0.02354 0.998817 0.029636 -0.015677 0.999438 -0.147651 -0.034529 0.988437 -0.051054 0.032579 0.998164 0.035546 0.031454 0.998873 -0.143842 0.030142 0.989142 -0.042749 0.05777 0.997414 0.028331 0.066369 0.997393 -0.177675 0.0619 0.98214 -0.008507 0.113652 0.993484 -0.013874 0.101924 0.994695 -0.105138 0.200116 0.974115 -0.073105 0.144244 0.986838 -0.07177 0.235453 0.969232 -0.033682 0.120506 -0.992141 0.039536 0.092927 -0.994888 -0.022357 0.089952 -0.995695 0.07149 0.123926 -0.989713 0.171315 0.13146 -0.976406 0.150299 0.081168 -0.985303 -0.029189 0.03144 -0.999079 0.044495 0.025109 -0.998694 0.143181 0.01875 -0.989519 -0.02501 -0.02252 -0.999433 0.042685 -0.026297 -0.998742 0.159738 -0.051594 -0.98581 -0.029058 -0.064849 -0.997472 0.06063 -0.069494 -0.995738 0.192781 -0.073711 -0.978469 -0.026365 -0.074429 -0.996878 0.064793 -0.15621 -0.985596 0.056639 -0.214472 -0.975086 0.169155 -0.348084 -0.922076 0.110919 -0.263514 -0.958257 0.105957 0.986111 0.127899 0.074577 0.989633 0.122741 0.056027 0.991441 0.117923 0.1158 0.983311 0.140317 0.984501 0.043644 0.169861 0.984532 0.035907 0.171484 0.983341 0.035478 0.178272 0.985834 0.051094 0.159749 0.127377 0.981321 0.144169 0.123741 0.980283 0.154054 0.987332 0.038994 0.153803 0.988506 0.020031 0.149846 0.984503 -0.082794 0.154595 0.971906 -0.164036 0.168794 0.912827 -0.367104 0.178836 0.858219 -0.487203 0.161531 0.773265 -0.61999 0.132938 0.763518 -0.628136 0.149949 0.748529 -0.640663 0.171041 0.754407 -0.614769 0.230062 0.471012 -0.841948 0.263193 0.598139 -0.760173 0.253706 0.598107 -0.761385 0.250123 0.325719 -0.912189 0.248635 0.304154 0.519598 -0.798441 -0.254998 0.120803 -0.959366 -0.254998 0.120803 -0.959366 0.304153 0.519596 -0.798443 -0.16553 0.195866 -0.966559 -0.124387 0.228884 -0.965474 -0.015399 0.312027 -0.949948 0.052826 0.360964 -0.931082 -0.243134 0.131076 -0.961096 -0.647518 -0.283818 -0.707226 0.30285 -0.078724 0.949781 0.255013 -0.120827 0.959359 0.255036 -0.120859 0.959349 0.302841 -0.078669 0.949789 0.165542 -0.19589 0.966552 0.124378 -0.228896 0.965472 0.015393 -0.312033 0.949946 -0.052816 -0.360961 0.931084 -0.120148 -0.406886 0.905543 -0.12012 -0.406891 0.905544 -0.572006 0.781627 0.248733 -0.580569 0.774654 0.250699 -0.5889 0.767284 0.253916 -0.572332 0.781892 0.247147 -0.608255 0.751399 0.255783 -0.618884 0.743118 0.254475 0.732994 0.656146 -0.179425 0.732995 0.656146 -0.179419 0.580608 -0.774563 -0.250892 0.571917 -0.78162 -0.248959 0.57252 -0.781615 -0.247586 0.588767 -0.767369 -0.253966 0.608001 -0.751586 -0.255837 0.618782 -0.743223 -0.25442 0.646162 -0.722004 -0.247355 0.662844 -0.710337 -0.236769 -0.646739 0.721527 0.24724 -0.662581 0.710542 0.236889 0.678759 -0.697485 -0.229785 0.678919 -0.69916 -0.224152 -0.678713 0.697507 0.229855 -0.677147 0.700655 0.224843 -0.78399 -0.520756 -0.337894 -0.783987 -0.520822 -0.3378 0.176666 0.527877 -0.830743 -0.275947 0.002805 -0.961169 -0.275947 0.002805 -0.961169 0.176667 0.527879 -0.830742 -0.206101 0.095841 -0.973826 -0.173628 0.137433 -0.975175 -0.086653 0.244103 -0.96587 -0.031505 0.308363 -0.950747 -0.266775 0.015321 -0.963637 -0.56504 -0.465656 -0.681098 0.312821 0.048491 0.948574 0.275931 -0.002814 0.961173 0.275926 -0.002809 0.961175 0.312825 0.048482 0.948573 0.206091 -0.095846 0.973827 0.173629 -0.137435 0.975174 0.086662 -0.244098 0.96587 0.031507 -0.308356 0.950749 -0.023471 -0.369886 0.928781 -0.023488 -0.369886 0.92878 -0.736248 0.642833 0.211434 -0.742984 0.63422 0.213868 -0.749399 0.62533 0.217632 -0.736599 0.642917 0.209951 -0.764573 0.605552 0.22076 -0.773008 0.594982 0.220125 0.562695 0.795073 -0.226348 0.562694 0.795073 -0.226352 0.743035 -0.634102 -0.214039 0.736219 -0.642829 -0.21155 0.736858 -0.642584 -0.210061 0.749265 -0.625444 -0.217763 0.764349 -0.605804 -0.220842 0.772922 -0.595117 -0.220062 0.794712 -0.567807 -0.214541 0.808267 -0.552025 -0.204871 -0.795167 0.567202 0.214458 -0.808067 0.552305 0.204909 0.820798 -0.535483 -0.198868 0.821331 -0.536726 -0.193237 -0.820776 0.535529 0.198837 -0.819974 0.538658 0.193626 -0.643421 -0.70553 -0.297047 -0.643423 -0.705525 -0.297055</float_array>
          <technique_common>
            <accessor source="#NormalSrc_id-array" count="238" stride="3">
              <param name="X" type="float"/>
              <param name="Y" type="float"/>
              <param name="Z" type="float"/>
            </accessor>
          </technique_common>
        </source>
        <source id="ColorSrc_id" name="ColorSrc">
          <float_array id="ColorSrc_id-array" count="952">1 1 1 1 1 1 1 1 1 1 1 1 1 1 1 1 1 1 1 1 1 1 1 1 1 1 1 1 1 1 1 1 1 1 1 1 1 1 1 1 1 1 1 1 1 1 1 1 1 1 1 1 1 1 1 1 1 1 1 1 1 1 1 1 1 1 1 1 1 1 1 1 1 1 1 1 1 1 1 1 1 1 1 1 1 1 1 1 1 1 1 1 1 1 1 1 1 1 1 1 1 1 1 1 1 1 1 1 1 1 1 1 1 1 1 1 1 1 1 1 1 1 1 1 1 1 1 1 1 1 1 1 1 1 1 1 1 1 1 1 1 1 1 1 1 1 1 1 1 1 1 1 1 1 1 1 1 1 1 1 1 1 1 1 1 1 1 1 1 1 1 1 1 1 1 1 1 1 1 1 1 1 1 1 1 1 1 1 1 1 1 1 1 1 1 1 1 1 1 1 1 1 1 1 1 1 1 1 1 1 1 1 1 1 1 1 1 1 1 1 1 1 1 1 1 1 1 1 1 1 1 1 1 1 1 1 1 1 1 1 1 1 1 1 1 1 1 1 1 1 1 1 1 1 1 1 1 1 1 1 1 1 1 1 1 1 1 1 1 1 1 1 1 1 1 1 1 1 1 1 1 1 1 1 1 1 1 1 1 1 1 1 1 1 1 1 1 1 1 1 1 1 1 1 1 1 1 1 1 1 1 1 1 1 1 1 1 1 1 1 1 1 1 1 1 1 1 1 1 1 1 1 1 1 1 1 1 1 1 1 1 1 1 1 1 1 1 1 1 1 1 1 1 1 1 1 1 1 1 1 1 1 1 1 1 1 1 1 1 1 1 1 1 1 1 1 1 1 1 1 1 1 1 1 1 1 1 1 1 1 1 1 1 1 1 1 1 1 1 1 1 1 1 1 1 1 1 1 1 1 1 1 1 1 1 1 1 1 1 1 1 1 1 1 1 1 1 1 1 1 1 1 1 1 1 1 1 1 1 1 1 1 1 1 1 1 1 1 1 1 1 1 1 1 1 1 1 1 1 1 1 1 1 1 1 1 1 1 1 1 1 1 1 1 1 1 1 1 1 1 1 1 1 1 1 1 1 1 1 1 1 1 1 1 1 1 1 1 1 1 1 1 1 1 1 1 1 1 1 1 1 1 1 1 1 1 1 1 1 1 1 1 1 1 1 1 1 1 1 1 1 1 1 1 1 1 1 1 1 1 1 1 1 1 1 1 1 1 1 1 1 1 1 1 1 1 1 1 1 1 1 1 1 1 1 1 1 1 1 1 1 1 1 1 1 1 1 1 1 1 1 1 1 1 1 1 1 1 1 1 1 1 1 1 1 1 1 1 1 1 1 1 1 1 1 1 1 1 1 1 1 1 1 1 1 1 1 1 1 1 1 1 1 1 1 1 1 1 1 1 1 1 1 1 1 1 1 1 1 1 1 1 1 1 1 1 1 1 1 1 1 1 1 1 1 1 1 1 1 1 1 1 1 1 1 1 1 1 1 1 1 1 1 1 1 1 1 1 1 1 1 1 1 1 1 1 1 1 1 1 1 1 1 1 1 1 1 1 1 1 1 1 1 1 1 1 1 1 1 1 1 1 1 1 1 1 1 1 1 1 1 1 1 1 1 1 1 1 1 1 1 1 1 1 1 1 1 1 1 1 1 1 1 1 1 1 1 1 1 1 1 1 1 1 1 1 1 1 1 1 1 1 1 1 1 1 1 1 1 1 1 1 1 1 1 1 1 1 1 1 1 1 1 1 1 1 1 1 1 1 1 1 1 1 1 1 1 1 1 1 1 1 1 1 1 1 1 1 1 1 1 1 1 1 1 1 1 1 1 1 1 1 1 1 1 1 1 1 1 1 1 1 1 1 1 1 1 1 1 1 1 1 1 1 1 1 1 1 1 1 1 1 1 1 1 1 1 1 1 1 1 1 1 1 1 1 1 1 1 1 1 1 1 1 1 1 1 1 1 1 1 1 1 1 1 1 1 1 1 1 1 1 1 1 1 1 1 1 1 1 1 1 1 1 1 1 1 1 1 1 1 1 1 1 1 1 1 1 1 1 1 1 1 1 1 1 1 1 1 1 1 1 1 1 1 1 1 1 1 1 1 1 1 1 1 1 1 1 1 1 1 1</float_array>
          <technique_common>
            <accessor source="#ColorSrc_id-array" count="238" stride="4">
              <param name="R" type="float"/>
              <param name="G" type="float"/>
              <param name="B" type="float"/>
              <param name="A" type="float"/>
            </accessor>
          </technique_common>
        </source>
        <source id="Tex1Src_id" name="Tex1Src">
          <float_array id="Tex1Src_id-array" count="1560">0.713871 0.909279 0.773904 0.645859 0.712412 0.643183 0.713871 0.909279 0.771116 0.922155 0.773904 0.645859 0.837817 0.94491 0.773904 0.645859 0.771116 0.922155 0.837817 0.94491 0.845417 0.650479 0.773904 0.645859 0.773904 0.645859 0.712412 0.500841 0.712412 0.643183 0.773904 0.645859 0.773012 0.500841 0.712412 0.500841 0.845417 0.650479 0.773012 0.500841 0.773904 0.645859 0.845417 0.650479 0.849596 0.503759 0.773012 0.500841 0.773012 0.500841 0.712412 0.435965 0.712412 0.500841 0.773012 0.500841 0.773012 0.435965 0.712412 0.435965 0.849596 0.503759 0.773012 0.435965 0.773012 0.500841 0.849596 0.503759 0.848137 0.433047 0.773012 0.435965 0.712412 0.643183 0.667926 0.897959 0.713871 0.909279 0.712412 0.643183 0.661227 0.643183 0.667926 0.897959 0.712412 0.500841 0.661227 0.643183 0.712412 0.643183 0.712412 0.500841 0.662274 0.500841 0.661227 0.643183 0.712412 0.435965 0.662274 0.500841 0.712412 0.500841 0.712412 0.435965 0.664585 0.435965 0.662274 0.500841 0.773012 0.435965 0.712412 0.308323 0.712412 0.435965 0.773012 0.435965 0.773012 0.308323 0.712412 0.308323 0.848137 0.433047 0.773012 0.308323 0.773012 0.435965 0.848137 0.433047 0.823423 0.302486 0.773012 0.308323 0.712412 0.435965 0.664634 0.308323 0.664585 0.435965 0.712412 0.435965 0.712412 0.308323 0.664634 0.308323 0.773012 0.308323 0.712412 0.203589 0.712412 0.308323 0.773012 0.308323 0.781721 0.194834 0.712412 0.203589 0.773012 0.308323 0.823423 0.302486 0.781721 0.194834 0.712412 0.308323 0.672835 0.203589 0.664634 0.308323 0.712412 0.308323 0.712412 0.203589 0.672835 0.203589 0.781721 0.194834 0.712412 0.123405 0.712412 0.203589 0.781721 0.194834 0.747779 0.120487 0.712412 0.123405 0.712412 0.203589 0.671351 0.123405 0.672835 0.203589 0.712412 0.203589 0.712412 0.123405 0.671351 0.123405 0.712412 0.123405 0.747779 0.120487 0.70007 0.048386 0.712412 0.123405 0.667196 0.035786 0.671351 0.123405 0.712412 0.123405 0.70007 0.048386 0.667196 0.035786 0.082389 0.942337 0.141505 0.696668 0.082028 0.69676 0.082389 0.942337 0.141487 0.952835 0.141505 0.696668 0.022881 0.69682 0.082389 0.942337 0.082028 0.69676 0.022881 0.69682 0.029444 0.925509 0.082389 0.942337 0.082103 0.55099 0.141505 0.696668 0.141522 0.550967 0.082103 0.55099 0.082028 0.69676 0.141505 0.696668 0.018246 0.551009 0.082028 0.69676 0.082103 0.55099 0.018246 0.551009 0.022881 0.69682 0.082028 0.69676 0.082068 0.484045 0.141522 0.550967 0.141522 0.484147 0.082068 0.484045 0.082103 0.55099 0.141522 0.550967 0.018176 0.483949 0.082103 0.55099 0.082068 0.484045 0.018176 0.483949 0.018246 0.551009 0.082103 0.55099 0.184408 0.696655 0.141487 0.952835 0.184378 0.956131 0.184408 0.696655 0.141505 0.696668 0.141487 0.952835 0.184398 0.550967 0.141505 0.696668 0.184408 0.696655 0.184398 0.550967 0.141522 0.550967 0.141505 0.696668 0.184398 0.484147 0.141522 0.550967 0.184398 0.550967 0.184398 0.484147 0.141522 0.484147 0.141522 0.550967 0.081944 0.353795 0.141522 0.484147 0.141513 0.353749 0.081944 0.353795 0.082068 0.484045 0.141522 0.484147 0.034841 0.353877 0.082068 0.484045 0.081944 0.353795 0.034841 0.353877 0.018176 0.483949 0.082068 0.484045 0.141513 0.353749 0.184398 0.484147 0.184398 0.353768 0.141513 0.353749 0.141522 0.484147 0.184398 0.484147 0.073567 0.246614 0.141513 0.353749 0.141333 0.246646 0.073567 0.246614 0.081944 0.353795 0.141513 0.353749 0.073567 0.246614 0.034841 0.353877 0.081944 0.353795 0.141333 0.246646 0.184398 0.353768 0.184398 0.247235 0.141333 0.246646 0.141513 0.353749 0.184398 0.353768 0.110315 0.162706 0.141333 0.246646 0.140775 0.163619 0.110315 0.162706 0.073567 0.246614 0.141333 0.246646 0.140775 0.163619 0.184398 0.247235 0.18432 0.16452 0.140775 0.163619 0.141333 0.246646 0.184398 0.247235 0.15165 0.096695 0.110315 0.162706 0.140775 0.163619 0.15165 0.096695 0.18432 0.16452 0.184243 0.084572 0.15165 0.096695 0.140775 0.163619 0.18432 0.16452 0.261735 0.53765 0.267955 0.418288 0.263492 0.417826 0.261735 0.53765 0.266186 0.536577 0.267955 0.418288 0.266607 0.669072 0.271069 0.582071 0.266604 0.582113 0.266607 0.669072 0.271069 0.669535 0.271069 0.582071 0.257103 0.532527 0.233253 0.643509 0.242031 0.644693 0.257103 0.532527 0.248266 0.531701 0.233253 0.643509 0.266436 0.644998 0.266186 0.536577 0.261735 0.53765 0.266436 0.644998 0.270826 0.641903 0.266186 0.536577 0.260501 0.46101 0.248266 0.531701 0.257103 0.532527 0.260501 0.46101 0.251607 0.460777 0.248266 0.531701 0.260485 0.42812 0.251607 0.460777 0.260501 0.46101 0.260485 0.42812 0.251607 0.428452 0.251607 0.460777 0.257098 0.364323 0.251607 0.428452 0.260485 0.42812 0.257098 0.364323 0.248266 0.364851 0.251607 0.428452 0.262437 0.311713 0.248266 0.364851 0.257098 0.364323 0.262437 0.311713 0.253511 0.312667 0.248266 0.364851 0.250249 0.270558 0.253511 0.312667 0.262437 0.311713 0.250249 0.270558 0.241527 0.272714 0.253511 0.312667 0.270906 0.509221 0.267503 0.591223 0.271864 0.593032 0.270906 0.509221 0.266574 0.50746 0.267503 0.591223 0.270967 0.443141 0.266574 0.50746 0.270906 0.509221 0.270967 0.443141 0.266574 0.442826 0.266574 0.50746 0.563278 0.898809 0.62344 0.643183 0.56284 0.643183 0.563278 0.898809 0.62344 0.894687 0.62344 0.643183 0.492623 0.643183 0.563278 0.898809 0.56284 0.643183 0.492623 0.643183 0.494387 0.898217 0.563278 0.898809 0.56284 0.500841 0.62344 0.643183 0.62344 0.500841 0.56284 0.500841 0.56284 0.643183 0.62344 0.643183 0.497929 0.500841 0.56284 0.643183 0.56284 0.500841 0.497929 0.500841 0.492623 0.643183 0.56284 0.643183 0.56284 0.435965 0.62344 0.500841 0.62344 0.435965 0.56284 0.435965 0.56284 0.500841 0.62344 0.500841 0.497929 0.435965 0.56284 0.500841 0.56284 0.435965 0.497929 0.435965 0.497929 0.500841 0.56284 0.500841 0.661227 0.643183 0.62344 0.894687 0.667926 0.897959 0.661227 0.643183 0.62344 0.643183 0.62344 0.894687 0.662274 0.500841 0.62344 0.643183 0.661227 0.643183 0.662274 0.500841 0.62344 0.500841 0.62344 0.643183 0.664585 0.435965 0.62344 0.500841 0.662274 0.500841 0.664585 0.435965 0.62344 0.435965 0.62344 0.500841 0.56284 0.308323 0.62344 0.435965 0.62344 0.308323 0.56284 0.308323 0.56284 0.435965 0.62344 0.435965 0.515347 0.308323 0.56284 0.435965 0.56284 0.308323 0.515347 0.308323 0.497929 0.435965 0.56284 0.435965 0.62344 0.308323 0.664585 0.435965 0.664634 0.308323 0.62344 0.308323 0.62344 0.435965 0.664585 0.435965 0.554131 0.203589 0.62344 0.308323 0.62344 0.203589 0.554131 0.203589 0.56284 0.308323 0.62344 0.308323 0.554131 0.203589 0.515347 0.308323 0.56284 0.308323 0.62344 0.203589 0.664634 0.308323 0.672835 0.203589 0.62344 0.203589 0.62344 0.308323 0.664634 0.308323 0.59245 0.123405 0.62344 0.203589 0.62344 0.123405 0.59245 0.123405 0.554131 0.203589 0.62344 0.203589 0.62344 0.123405 0.672835 0.203589 0.671351 0.123405 0.62344 0.123405 0.62344 0.203589 0.672835 0.203589 0.635052 0.0586 0.59245 0.123405 0.62344 0.123405 0.635052 0.0586 0.671351 0.123405 0.667196 0.035786 0.635052 0.0586 0.62344 0.123405 0.671351 0.123405 0.227308 0.952835 0.286768 0.69676 0.227291 0.696668 0.227308 0.952835 0.286406 0.942337 0.286768 0.69676 0.339353 0.925509 0.286768 0.69676 0.286406 0.942337 0.339353 0.925509 0.345916 0.69682 0.286768 0.69676 0.286768 0.69676 0.227274 0.550967 0.227291 0.696668 0.286768 0.69676 0.286692 0.55099 0.227274 0.550967 0.345916 0.69682 0.286692 0.55099 0.286768 0.69676 0.345916 0.69682 0.35055 0.551009 0.286692 0.55099 0.286692 0.55099 0.227274 0.484147 0.227274 0.550967 0.286692 0.55099 0.286728 0.484045 0.227274 0.484147 0.35055 0.551009 0.286728 0.484045 0.286692 0.55099 0.35055 0.551009 0.350621 0.483949 0.286728 0.484045 0.227291 0.696668 0.184378 0.956131 0.227308 0.952835 0.227291 0.696668 0.184408 0.696655 0.184378 0.956131 0.227274 0.550967 0.184408 0.696655 0.227291 0.696668 0.227274 0.550967 0.184398 0.550967 0.184408 0.696655 0.227274 0.484147 0.184398 0.550967 0.227274 0.550967 0.227274 0.484147 0.184398 0.484147 0.184398 0.550967 0.286728 0.484045 0.227283 0.353749 0.227274 0.484147 0.286728 0.484045 0.286851 0.353795 0.227283 0.353749 0.350621 0.483949 0.286851 0.353795 0.286728 0.484045 0.350621 0.483949 0.333955 0.353877 0.286851 0.353795 0.227274 0.484147 0.184398 0.353768 0.184398 0.484147 0.227274 0.484147 0.227283 0.353749 0.184398 0.353768 0.286851 0.353795 0.227463 0.246646 0.227283 0.353749 0.286851 0.353795 0.295229 0.246614 0.227463 0.246646 0.286851 0.353795 0.333955 0.353877 0.295229 0.246614 0.227283 0.353749 0.184398 0.247235 0.184398 0.353768 0.227283 0.353749 0.227463 0.246646 0.184398 0.247235 0.295229 0.246614 0.228021 0.163619 0.227463 0.246646 0.295229 0.246614 0.258481 0.162706 0.228021 0.163619 0.227463 0.246646 0.18432 0.16452 0.184398 0.247235 0.227463 0.246646 0.228021 0.163619 0.18432 0.16452 0.228021 0.163619 0.258481 0.162706 0.217145 0.096695 0.228021 0.163619 0.184243 0.084572 0.18432 0.16452 0.228021 0.163619 0.217145 0.096695 0.184243 0.084572 0.2693 0.376319 0.266607 0.49507 0.271069 0.494607 0.2693 0.376319 0.264849 0.375249 0.266607 0.49507 0.271069 0.494607 0.266604 0.582113 0.271069 0.582071 0.271069 0.494607 0.266607 0.49507 0.266604 0.582113 0.28223 0.531701 0.288466 0.644693 0.297244 0.643509 0.28223 0.531701 0.273394 0.532527 0.288466 0.644693 0.27394 0.270996 0.264849 0.375249 0.2693 0.376319 0.27394 0.270996 0.269551 0.267898 0.264849 0.375249 0.27889 0.460777 0.273394 0.532527 0.28223 0.531701 0.27889 0.460777 0.269996 0.46101 0.273394 0.532527 0.27889 0.428452 0.269996 0.46101 0.27889 0.460777 0.27889 0.428452 0.270012 0.42812 0.269996 0.46101 0.28223 0.364851 0.270012 0.42812 0.27889 0.428452 0.28223 0.364851 0.273399 0.364323 0.270012 0.42812 0.276986 0.312667 0.273399 0.364323 0.28223 0.364851 0.276986 0.312667 0.26806 0.311713 0.273399 0.364323 0.28897 0.272714 0.26806 0.311713 0.276986 0.312667 0.28897 0.272714 0.280248 0.270558 0.26806 0.311713 0.266574 0.378192 0.271864 0.292624 0.267503 0.29443 0.266574 0.378192 0.270905 0.376431 0.271864 0.292624 0.266574 0.442826 0.270905 0.376431 0.266574 0.378192 0.266574 0.442826 0.270967 0.443141 0.270905 0.376431 0.787461 0.656715 0.744932 0.696667 0.754078 0.717536 0.787461 0.656715 0.778316 0.635846 0.744932 0.696667 0.744932 0.696667 0.73577 0.74826 0.754078 0.717536 0.744932 0.696667 0.726625 0.72739 0.73577 0.74826 0.726625 0.72739 0.716132 0.781216 0.73577 0.74826 0.726625 0.72739 0.706987 0.760347 0.716132 0.781216 0.706987 0.760347 0.699474 0.816737 0.716132 0.781216 0.706987 0.760347 0.690329 0.789625 0.699474 0.816737 0.687603 0.794498 0.722885 0.769425 0.713917 0.748978 0.687603 0.794498 0.69657 0.821186 0.722885 0.769425 0.73328 0.71646 0.722885 0.769425 0.742247 0.736905 0.73328 0.71646 0.713917 0.748978 0.722885 0.769425 0.754252 0.681327 0.742247 0.736905 0.76322 0.701772 0.754252 0.681327 0.73328 0.71646 0.742247 0.736905 0.77986 0.633686 0.76322 0.701772 0.788828 0.654132 0.77986 0.633686 0.754252 0.681327 0.76322 0.701772 0.556508 0.533763 0.568512 0.510894 0.568563 0.516769 0.556508 0.533763 0.55657 0.527721 0.568512 0.510894 0.568563 0.516769 0.577831 0.492935 0.578128 0.498329 0.568563 0.516769 0.568512 0.510894 0.577831 0.492935 0.778207 0.633093 0.787461 0.656715 0.787353 0.653962 0.778207 0.633093 0.778316 0.635846 0.787461 0.656715 0.577177 0.491715 0.565184 0.502669 0.565123 0.508709 0.577177 0.491715 0.577127 0.485842 0.565184 0.502669 0.586742 0.473277 0.577127 0.485842 0.577177 0.491715 0.586742 0.473277 0.586445 0.467883 0.577127 0.485842 0.597364 0.446486 0.586445 0.467883 0.586742 0.473277 0.597364 0.446486 0.596721 0.441961 0.586445 0.467883 0.578128 0.498329 0.588107 0.467013 0.58875 0.471538 0.578128 0.498329 0.577831 0.492935 0.588107 0.467013 0.605951 0.416634 0.596721 0.441961 0.597364 0.446486 0.605951 0.416634 0.605114 0.412798 0.596721 0.441961 0.58875 0.471538 0.596499 0.437853 0.597336 0.441689 0.58875 0.471538 0.588107 0.467013 0.596499 0.437853 0.69763 0.817035 0.690329 0.789625 0.688484 0.789922 0.69763 0.817035 0.699474 0.816737 0.690329 0.789625 0.787461 0.656715 0.744932 0.696667 0.754078 0.717536 0.787461 0.656715 0.778316 0.635846 0.744932 0.696667 0.744932 0.696667 0.73577 0.74826 0.754078 0.717536 0.744932 0.696667 0.726625 0.72739 0.73577 0.74826 0.726625 0.72739 0.716132 0.781216 0.73577 0.74826 0.726625 0.72739 0.706987 0.760347 0.716132 0.781216 0.706987 0.760347 0.699474 0.816737 0.716132 0.781216 0.706987 0.760347 0.690329 0.789625 0.699474 0.816737 0.687603 0.794498 0.722885 0.769425 0.713917 0.748978 0.687603 0.794498 0.69657 0.821186 0.722885 0.769425 0.73328 0.71646 0.722885 0.769425 0.742247 0.736905 0.73328 0.71646 0.713917 0.748978 0.722885 0.769425 0.754252 0.681327 0.742247 0.736905 0.76322 0.701772 0.754252 0.681327 0.73328 0.71646 0.742247 0.736905 0.77986 0.633686 0.76322 0.701772 0.788828 0.654132 0.77986 0.633686 0.754252 0.681327 0.76322 0.701772 0.555661 0.541833 0.571677 0.506056 0.573202 0.508409 0.555661 0.541833 0.554292 0.539176 0.571677 0.506056 0.573202 0.508409 0.583861 0.478679 0.585704 0.480311 0.573202 0.508409 0.571677 0.506056 0.583861 0.478679 0.778207 0.633093 0.787461 0.656715 0.787353 0.653962 0.778207 0.633093 0.778316 0.635846 0.787461 0.656715 0.578184 0.489754 0.559273 0.520521 0.560642 0.523179 0.578184 0.489754 0.576659 0.487401 0.559273 0.520521 0.590686 0.461656 0.576659 0.487401 0.578184 0.489754 0.590686 0.461656 0.588843 0.460024 0.576659 0.487401 0.602772 0.428424 0.588843 0.460024 0.590686 0.461656 0.602772 0.428424 0.600528 0.427887 0.588843 0.460024 0.585704 0.480311 0.595546 0.446542 0.59779 0.447078 0.585704 0.480311 0.583861 0.478679 0.595546 0.446542 0.610207 0.398936 0.600528 0.427887 0.602772 0.428424 0.610207 0.398936 0.607787 0.399097 0.600528 0.427887 0.59779 0.447078 0.602805 0.417752 0.605225 0.417593 0.59779 0.447078 0.595546 0.446542 0.602805 0.417752 0.69763 0.817035 0.690329 0.789625 0.688484 0.789922 0.69763 0.817035 0.699474 0.816737 0.690329 0.789625</float_array>
          <technique_common>
            <accessor source="#Tex1Src_id-array" count="780" stride="2">
              <param name="S" type="float"/>
              <param name="T" type="float"/>
            </accessor>
          </technique_common>
        </source>
        <source id="Tex2Src_id" name="Tex2Src">
          <float_array id="Tex2Src_id-array" count="1560">0 1 0 1 0 1 0 1 0 1 0 1 0 1 0 1 0 1 0 1 0 1 0 1 0 1 0 1 0 1 0 1 0 1 0 1 0 1 0 1 0 1 0 1 0 1 0 1 0 1 0 1 0 1 0 1 0 1 0 1 0 1 0 1 0 1 0 1 0 1 0 1 0 1 0 1 0 1 0 1 0 1 0 1 0 1 0 1 0 1 0 1 0 1 0 1 0 1 0 1 0 1 0 1 0 1 0 1 0 1 0 1 0 1 0 1 0 1 0 1 0 1 0 1 0 1 0 1 0 1 0 1 0 1 0 1 0 1 0 1 0 1 0 1 0 1 0 1 0 1 0 1 0 1 0 1 0 1 0 1 0 1 0 1 0 1 0 1 0 1 0 1 0 1 0 1 0 1 0 1 0 1 0 1 0 1 0 1 0 1 0 1 0 1 0 1 0 1 0 1 0 1 0 1 0 1 0 1 0 1 0 1 0 1 0 1 0 1 0 1 0 1 0 1 0 1 0 1 0 1 0 1 0 1 0 1 0 1 0 1 0 1 0 1 0 1 0 1 0 1 0 1 0 1 0 1 0 1 0 1 0 1 0 1 0 1 0 1 0 1 0 1 0 1 0 1 0 1 0 1 0 1 0 1 0 1 0 1 0 1 0 1 0 1 0 1 0 1 0 1 0 1 0 1 0 1 0 1 0 1 0 1 0 1 0 1 0 1 0 1 0 1 0 1 0 1 0 1 0 1 0 1 0 1 0 1 0 1 0 1 0 1 0 1 0 1 0 1 0 1 0 1 0 1 0 1 0 1 0 1 0 1 0 1 0 1 0 1 0 1 0 1 0 1 0 1 0 1 0 1 0 1 0 1 0 1 0 1 0 1 0 1 0 1 0 1 0 1 0 1 0 1 0 1 0 1 0 1 0 1 0 1 0 1 0 1 0 1 0 1 0 1 0 1 0 1 0 1 0 1 0 1 0 1 0 1 0 1 0 1 0 1 0 1 0 1 0 1 0 1 0 1 0 1 0 1 0 1 0 1 0 1 0 1 0 1 0 1 0 1 0 1 0 1 0 1 0 1 0 1 0 1 0 1 0 1 0 1 0 1 0 1 0 1 0 1 0 1 0 1 0 1 0 1 0 1 0 1 0 1 0 1 0 1 0 1 0 1 0 1 0 1 0 1 0 1 0 1 0 1 0 1 0 1 0 1 0 1 0 1 0 1 0 1 0 1 0 1 0 1 0 1 0 1 0 1 0 1 0 1 0 1 0 1 0 1 0 1 0 1 0 1 0 1 0 1 0 1 0 1 0 1 0 1 0 1 0 1 0 1 0 1 0 1 0 1 0 1 0 1 0 1 0 1 0 1 0 1 0 1 0 1 0 1 0 1 0 1 0 1 0 1 0 1 0 1 0 1 0 1 0 1 0 1 0 1 0 1 0 1 0 1 0 1 0 1 0 1 0 1 0 1 0 1 0 1 0 1 0 1 0 1 0 1 0 1 0 1 0 1 0 1 0 1 0 1 0 1 0 1 0 1 0 1 0 1 0 1 0 1 0 1 0 1 0 1 0 1 0 1 0 1 0 1 0 1 0 1 0 1 0 1 0 1 0 1 0 1 0 1 0 1 0 1 0 1 0 1 0 1 0 1 0 1 0 1 0 1 0 1 0 1 0 1 0 1 0 1 0 1 0 1 0 1 0 1 0 1 0 1 0 1 0 1 0 1 0 1 0 1 0 1 0 1 0 1 0 1 0 1 0 1 0 1 0 1 0 1 0 1 0 1 0 1 0 1 0 1 0 1 0 1 0 1 0 1 0 1 0 1 0 1 0 1 0 1 0 1 0 1 0 1 0 1 0 1 0 1 0 1 0 1 0 1 0 1 0 1 0 1 0 1 0 1 0 1 0 1 0 1 0 1 0 1 0 1 0 1 0 1 0 1 0 1 0 1 0 1 0 1 0 1 0 1 0 1 0 1 0 1 0 1 0 1 0 1 0 1 0 1 0 1 0 1 0 1 0 1 0 1 0 1 0 1 0 1 0 1 0 1 0 1 0 1 0 1 0 1 0 1 0 1 0 1 0 1 0 1 0 1 0 1 0 1 0 1 0 1 0 1 0 1 0 1 0 1 0 1 0 1 0 1 0 1 0 1 0 1 0 1 0 1 0 1 0 1 0 1 0 1 0 1 0 1 0 1 0 1 0 1 0 1 0 1 0 1 0 1 0 1 0 1 0 1 0 1 0 1 0 1 0 1 0 1 0 1 0 1 0 1 0 1 0 1 0 1 0 1 0 1 0 1 0 1 0 1 0 1 0 1 0 1 0 1 0 1 0 1 0 1 0 1 0 1 0 1 0 1 0 1 0 1 0 1 0 1 0 1 0 1 0 1 0 1 0 1 0 1 0 1 0 1 0 1 0 1 0 1 0 1 0 1 0 1 0 1 0 1 0 1 0 1 0 1 0 1 0 1 0 1 0 1 0 1 0 1 0 1 0 1 0 1 0 1 0 1 0 1 0 1 0 1 0 1 0 1 0 1 0 1 0 1 0 1 0 1 0 1 0 1 0 1 0 1 0 1 0 1 0 1 0 1 0 1 0 1 0 1 0 1 0 1 0 1 0 1 0 1 0 1 0 1 0 1 0 1 0 1 0 1 0 1 0 1 0 1 0 1 0 1 0 1 0 1 0 1 0 1 0 1 0 1 0 1 0 1 0 1 0 1 0 1 0 1 0 1 0 1 0 1 0 1 0 1 0 1 0 1 0 1 0 1 0 1 0 1 0 1 0 1 0 1 0 1 0 1 0 1 0 1 0 1 0 1 0 1 0 1 0 1 0 1 0 1 0 1 0 1 0 1 0 1 0 1 0 1 0 1 0 1 0 1 0 1 0 1 0 1 0 1 0 1 0 1 0 1 0 1 0 1 0 1 0 1 0 1 0 1 0 1 0 1 0 1 0 1 0 1 0 1 0 1 0 1 0 1 0 1 0 1 0 1 0 1 0 1 0 1 0 1 0 1 0 1 0 1 0 1 0 1 0 1 0 1 0 1 0 1 0 1 0 1 0 1 0 1 0 1 0 1 0 1 0 1 0 1 0 1 0 1 0 1 0 1 0 1 0 1 0 1 0 1 0 1 0 1 0 1 0 1 0 1 0 1 0 1 0 1 0 1 0 1 0 1 0 1 0 1 0 1 0 1 0 1 0 1 0 1 0 1 0 1 0 1 0 1 0 1 0 1 0 1 0 1 0 1 0 1 0 1 0 1 0 1 0 1 0 1 0 1 0 1 0 1 0 1 0 1 0 1 0 1 0 1 0 1 0 1 0 1 0 1 0 1 0 1 0 1 0 1 0 1 0 1 0 1 0 1 0 1 0 1 0 1 0 1 0 1 0 1 0 1 0 1 0 1 0 1 0 1 0 1 0 1 0 1 0 1 0 1 0 1 0 1 0 1 0 1 0 1 0 1 0 1 0 1 0 1 0 1 0 1 0 1 0 1 0 1 0 1</float_array>
          <technique_common>
            <accessor source="#Tex2Src_id-array" count="780" stride="2">
              <param name="S" type="float"/>
              <param name="T" type="float"/>
            </accessor>
          </technique_common>
        </source>
        <vertices id="geomU3D_id-vertices">
          <input semantic="POSITION" source="#PositionSrc_id"/>
        </vertices>
        <triangles count="0">
          <input semantic="VERTEX" source="#geomU3D_id-vertices" offset="0"/>
          <input semantic="NORMAL" source="#NormalSrc_id" offset="1"/>
          <input semantic="COLOR" source="#ColorSrc_id" offset="2" set="0"/>
          <input semantic="TEXCOORD" source="#Tex1Src_id" offset="3" set="0"/>
          <input semantic="TEXCOORD" source="#Tex2Src_id" offset="4" set="1"/>
          <p/>
        </triangles>
        <triangles material="VisualMaterialVisualMaterial" count="260">
          <input semantic="VERTEX" source="#geomU3D_id-vertices" offset="0"/>
          <input semantic="NORMAL" source="#NormalSrc_id" offset="1"/>
          <input semantic="COLOR" source="#ColorSrc_id" offset="2" set="0"/>
          <input semantic="TEXCOORD" source="#Tex1Src_id" offset="3" set="0"/>
          <input semantic="TEXCOORD" source="#Tex2Src_id" offset="4" set="1"/>
          <p>0 0 0 0 0 1 1 1 1 1 2 2 2 2 2 0 0 0 3 3 3 3 3 4 4 1 1 1 5 5 4 4 4 6 6 1 1 1 7 7 3 3 3 8 8 4 4 4 9 9 5 5 5 10 10 1 1 1 11 11 1 1 1 12 12 6 6 6 13 13 2 2 2 14 14 1 1 1 15 15 7 7 7 16 16 6 6 6 17 17 5 5 5 18 18 7 7 7 19 19 1 1 1 20 20 5 5 5 21 21 8 8 8 22 22 7 7 7 23 23 7 7 7 24 24 9 9 9 25 25 6 6 6 26 26 7 7 7 27 27 10 10 10 28 28 9 9 9 29 29 8 8 8 30 30 10 10 10 31 31 7 7 7 32 32 8 8 8 33 33 11 11 11 34 34 10 10 10 35 35 2 2 2 36 36 12 12 12 37 37 0 0 0 38 38 2 2 2 39 39 13 13 13 40 40 12 12 12 41 41 6 6 6 42 42 13 13 13 43 43 2 2 2 44 44 6 6 6 45 45 14 14 14 46 46 13 13 13 47 47 9 9 9 48 48 14 14 14 49 49 6 6 6 50 50 9 9 9 51 51 15 15 15 52 52 14 14 14 53 53 10 10 10 54 54 16 16 16 55 55 9 9 9 56 56 10 10 10 57 57 17 17 17 58 58 16 16 16 59 59 11 11 11 60 60 17 17 17 61 61 10 10 10 62 62 11 11 11 63 63 18 18 18 64 64 17 17 17 65 65 9 9 9 66 66 19 19 19 67 67 15 15 15 68 68 9 9 9 69 69 16 16 16 70 70 19 19 19 71 71 17 17 17 72 72 20 20 20 73 73 16 16 16 74 74 17 17 17 75 75 21 21 21 76 76 20 20 20 77 77 17 17 17 78 78 18 18 18 79 79 21 21 21 80 80 16 16 16 81 81 22 22 22 82 82 19 19 19 83 83 16 16 16 84 84 20 20 20 85 85 22 22 22 86 86 21 21 21 87 87 23 23 23 88 88 20 20 20 89 89 21 21 21 90 90 24 24 24 91 91 23 23 23 92 92 20 20 20 93 93 25 25 25 94 94 22 22 22 95 95 20 20 20 96 96 23 23 23 97 97 25 25 25 98 98 23 23 23 99 99 24 24 24 100 100 26 26 26 101 101 23 23 23 102 102 27 27 27 103 103 25 25 25 104 104 23 23 23 105 105 26 26 26 106 106 27 27 27 107 107 28 28 28 108 108 29 29 29 109 109 30 30 30 110 110 28 28 28 111 111 31 31 31 112 112 29 29 29 113 113 32 32 32 114 114 28 28 28 115 115 30 30 30 116 116 32 32 32 117 117 33 33 33 118 118 28 28 28 119 119 34 34 34 120 120 29 29 29 121 121 35 35 35 122 122 34 34 34 123 123 30 30 30 124 124 29 29 29 125 125 36 36 36 126 126 30 30 30 127 127 34 34 34 128 128 36 36 36 129 129 32 32 32 130 130 30 30 30 131 131 37 37 37 132 132 35 35 35 133 133 38 38 38 134 134 37 37 37 135 135 34 34 34 136 136 35 35 35 137 137 39 39 39 138 138 34 34 34 139 139 37 37 37 140 140 39 39 39 141 141 36 36 36 142 142 34 34 34 143 143 40 40 40 144 144 31 31 31 145 145 41 41 41 146 146 40 40 40 147 147 29 29 29 148 148 31 31 31 149 149 42 42 42 150 150 29 29 29 151 151 40 40 40 152 152 42 42 42 153 153 35 35 35 154 154 29 29 29 155 155 43 43 43 156 156 35 35 35 157 157 42 42 42 158 158 43 43 43 159 159 38 38 38 160 160 35 35 35 161 161 44 44 44 162 162 38 38 38 163 163 45 45 45 164 164 44 44 44 165 165 37 37 37 166 166 38 38 38 167 167 46 46 46 168 168 37 37 37 169 169 44 44 44 170 170 46 46 46 171 171 39 39 39 172 172 37 37 37 173 173 45 45 45 174 174 43 43 43 175 175 47 47 47 176 176 45 45 45 177 177 38 38 38 178 178 43 43 43 179 179 48 48 48 180 180 45 45 45 181 181 49 49 49 182 182 48 48 48 183 183 44 44 44 184 184 45 45 45 185 185 48 48 48 186 186 46 46 46 187 187 44 44 44 188 188 49 49 49 189 189 47 47 47 190 190 50 50 50 191 191 49 49 49 192 192 45 45 45 193 193 47 47 47 194 194 51 51 51 195 195 49 49 49 196 196 52 52 52 197 197 51 51 51 198 198 48 48 48 199 199 49 49 49 200 200 52 52 52 201 201 50 50 50 202 202 53 53 53 203 203 52 52 52 204 204 49 49 49 205 205 50 50 50 206 206 54 54 54 207 207 51 51 51 208 208 52 52 52 209 209 54 54 54 210 210 53 53 53 211 211 55 55 55 212 212 54 54 54 213 213 52 52 52 214 214 53 53 53 215 215 56 56 56 216 216 57 57 57 217 217 58 58 58 218 218 56 56 56 219 219 59 59 59 220 220 57 57 57 221 221 60 60 60 222 222 61 61 61 223 223 62 62 62 224 224 60 60 60 225 225 63 63 63 226 226 61 61 61 227 227 64 64 64 228 228 65 65 65 229 229 66 66 66 230 230 64 64 64 231 231 67 67 67 232 232 65 65 65 233 233 68 68 68 234 234 59 59 59 235 235 56 56 56 236 236 68 68 68 237 237 69 69 69 238 238 59 59 59 239 239 70 70 70 240 240 67 67 67 241 241 64 64 64 242 242 70 70 70 243 243 71 71 71 244 244 67 67 67 245 245 72 72 72 246 246 71 71 71 247 247 70 70 70 248 248 72 72 72 249 249 73 73 73 250 250 71 71 71 251 251 74 74 74 252 252 73 73 73 253 253 72 72 72 254 254 74 74 74 255 255 75 75 75 256 256 73 73 73 257 257 76 76 76 258 258 75 75 75 259 259 74 74 74 260 260 76 76 76 261 261 77 77 77 262 262 75 75 75 263 263 78 78 78 264 264 77 77 77 265 265 76 76 76 266 266 78 78 78 267 267 79 79 79 268 268 77 77 77 269 269 80 80 80 270 270 81 81 81 271 271 82 82 82 272 272 80 80 80 273 273 83 83 83 274 274 81 81 81 275 275 84 84 84 276 276 83 83 83 277 277 80 80 80 278 278 84 84 84 279 279 85 85 85 280 280 83 83 83 281 281 86 86 86 282 282 87 87 87 283 283 88 88 88 284 284 86 86 86 285 285 89 89 89 286 286 87 87 87 287 287 90 90 90 288 288 86 86 86 289 289 88 88 88 290 290 90 90 90 291 291 91 91 91 292 292 86 86 86 293 293 92 92 92 294 294 87 87 87 295 295 93 93 93 296 296 92 92 92 297 297 88 88 88 298 298 87 87 87 299 299 94 94 94 300 300 88 88 88 301 301 92 92 92 302 302 94 94 94 303 303 90 90 90 304 304 88 88 88 305 305 95 95 95 306 306 93 93 93 307 307 96 96 96 308 308 95 95 95 309 309 92 92 92 310 310 93 93 93 311 311 97 97 97 312 312 92 92 92 313 313 95 95 95 314 314 97 97 97 315 315 94 94 94 316 316 92 92 92 317 317 13 13 13 318 318 89 89 89 319 319 12 12 12 320 320 13 13 13 321 321 87 87 87 322 322 89 89 89 323 323 14 14 14 324 324 87 87 87 325 325 13 13 13 326 326 14 14 14 327 327 93 93 93 328 328 87 87 87 329 329 15 15 15 330 330 93 93 93 331 331 14 14 14 332 332 15 15 15 333 333 96 96 96 334 334 93 93 93 335 335 98 98 98 336 336 96 96 96 337 337 99 99 99 338 338 98 98 98 339 339 95 95 95 340 340 96 96 96 341 341 100 100 100 342 342 95 95 95 343 343 98 98 98 344 344 100 100 100 345 345 97 97 97 346 346 95 95 95 347 347 99 99 99 348 348 15 15 15 349 349 19 19 19 350 350 99 99 99 351 351 96 96 96 352 352 15 15 15 353 353 101 101 101 354 354 99 99 99 355 355 102 102 102 356 356 101 101 101 357 357 98 98 98 358 358 99 99 99 359 359 101 101 101 360 360 100 100 100 361 361 98 98 98 362 362 102 102 102 363 363 19 19 19 364 364 22 22 22 365 365 102 102 102 366 366 99 99 99 367 367 19 19 19 368 368 103 103 103 369 369 102 102 102 370 370 104 104 104 371 371 103 103 103 372 372 101 101 101 373 373 102 102 102 374 374 104 104 104 375 375 22 22 22 376 376 25 25 25 377 377 104 104 104 378 378 102 102 102 379 379 22 22 22 380 380 105 105 105 381 381 103 103 103 382 382 104 104 104 383 383 105 105 105 384 384 25 25 25 385 385 27 27 27 386 386 105 105 105 387 387 104 104 104 388 388 25 25 25 389 389 106 106 106 390 390 107 107 107 391 391 108 108 108 392 392 106 106 106 393 393 109 109 109 394 394 107 107 107 395 395 110 110 110 396 396 107 107 107 397 397 109 109 109 398 398 110 110 110 399 399 111 111 111 400 400 107 107 107 401 401 107 107 107 402 402 112 112 112 403 403 108 108 108 404 404 107 107 107 405 405 113 113 113 406 406 112 112 112 407 407 111 111 111 408 408 113 113 113 409 409 107 107 107 410 410 111 111 111 411 411 114 114 114 412 412 113 113 113 413 413 113 113 113 414 414 115 115 115 415 415 112 112 112 416 416 113 113 113 417 417 116 116 116 418 418 115 115 115 419 419 114 114 114 420 420 116 116 116 421 421 113 113 113 422 422 114 114 114 423 423 117 117 117 424 424 116 116 116 425 425 108 108 108 426 426 41 41 41 427 427 106 106 106 428 428 108 108 108 429 429 40 40 40 430 430 41 41 41 431 431 112 112 112 432 432 40 40 40 433 433 108 108 108 434 434 112 112 112 435 435 42 42 42 436 436 40 40 40 437 437 115 115 115 438 438 42 42 42 439 439 112 112 112 440 440 115 115 115 441 441 43 43 43 442 442 42 42 42 443 443 116 116 116 444 444 118 118 118 445 445 115 115 115 446 446 116 116 116 447 447 119 119 119 448 448 118 118 118 449 449 117 117 117 450 450 119 119 119 451 451 116 116 116 452 452 117 117 117 453 453 120 120 120 454 454 119 119 119 455 455 115 115 115 456 456 47 47 47 457 457 43 43 43 458 458 115 115 115 459 459 118 118 118 460 460 47 47 47 461 461 119 119 119 462 462 121 121 121 463 463 118 118 118 464 464 119 119 119 465 465 122 122 122 466 466 121 121 121 467 467 119 119 119 468 468 120 120 120 469 469 122 122 122 470 470 118 118 118 471 471 50 50 50 472 472 47 47 47 473 473 118 118 118 474 474 121 121 121 475 475 50 50 50 476 476 122 122 122 477 477 123 123 123 478 478 121 121 121 479 479 122 122 122 480 480 124 124 124 481 481 123 123 123 482 482 121 121 121 483 483 53 53 53 484 484 50 50 50 485 485 121 121 121 486 486 123 123 123 487 487 53 53 53 488 488 123 123 123 489 489 124 124 124 490 490 125 125 125 491 491 123 123 123 492 492 55 55 55 493 493 53 53 53 494 494 123 123 123 495 495 125 125 125 496 496 55 55 55 497 497 126 126 126 498 498 127 127 127 499 499 128 128 128 500 500 126 126 126 501 501 129 129 129 502 502 127 127 127 503 503 128 128 128 504 504 62 62 62 505 505 61 61 61 506 506 128 128 128 507 507 127 127 127 508 508 62 62 62 509 509 130 130 130 510 510 131 131 131 511 511 132 132 132 512 512 130 130 130 513 513 133 133 133 514 514 131 131 131 515 515 134 134 134 516 516 129 129 129 517 517 126 126 126 518 518 134 134 134 519 519 135 135 135 520 520 129 129 129 521 521 136 136 136 522 522 133 133 133 523 523 130 130 130 524 524 136 136 136 525 525 137 137 137 526 526 133 133 133 527 527 138 138 138 528 528 137 137 137 529 529 136 136 136 530 530 138 138 138 531 531 139 139 139 532 532 137 137 137 533 533 140 140 140 534 534 139 139 139 535 535 138 138 138 536 536 140 140 140 537 537 141 141 141 538 538 139 139 139 539 539 142 142 142 540 540 141 141 141 541 541 140 140 140 542 542 142 142 142 543 543 143 143 143 544 544 141 141 141 545 545 144 144 144 546 546 143 143 143 547 547 142 142 142 548 548 144 144 144 549 549 145 145 145 550 550 143 143 143 551 551 146 146 146 552 552 147 147 147 553 553 148 148 148 554 554 146 146 146 555 555 149 149 149 556 556 147 147 147 557 557 85 85 85 558 558 149 149 149 559 559 146 146 146 560 560 85 85 85 561 561 84 84 84 562 562 149 149 149 563 563 150 150 150 564 564 151 151 151 565 565 152 152 152 566 566 150 150 150 567 567 153 153 153 568 568 151 151 151 569 569 151 151 151 570 570 154 154 154 571 571 152 152 152 572 572 151 151 151 573 573 155 155 155 574 574 154 154 154 575 575 155 155 155 576 576 156 156 156 577 577 154 154 154 578 578 155 155 155 579 579 157 157 157 580 580 156 156 156 581 581 157 157 157 582 582 158 158 158 583 583 156 156 156 584 584 157 157 157 585 585 159 159 159 586 586 158 158 158 587 587 160 160 160 588 588 161 161 161 589 589 162 162 162 590 590 160 160 160 591 591 163 163 163 592 592 161 161 161 593 593 164 164 164 594 594 161 161 161 595 595 165 165 165 596 596 164 164 164 597 597 162 162 162 598 598 161 161 161 599 599 166 166 166 600 600 165 165 165 601 601 167 167 167 602 602 166 166 166 603 603 164 164 164 604 604 165 165 165 605 605 168 168 168 606 606 167 167 167 607 607 169 169 169 608 608 168 168 168 609 609 166 166 166 610 610 167 167 167 611 611 170 170 170 612 612 171 171 171 613 613 172 172 172 614 614 170 170 170 615 615 173 173 173 616 616 171 171 171 617 617 172 172 172 618 618 174 174 174 619 619 175 175 175 620 620 172 172 172 621 621 171 171 171 622 622 174 174 174 623 623 176 176 176 624 624 150 150 150 625 625 177 177 177 626 626 176 176 176 627 627 153 153 153 628 628 150 150 150 629 629 178 178 178 630 630 179 179 179 631 631 180 180 180 632 632 178 178 178 633 633 181 181 181 634 634 179 179 179 635 635 182 182 182 636 636 181 181 181 637 637 178 178 178 638 638 182 182 182 639 639 183 183 183 640 640 181 181 181 641 641 184 184 184 642 642 183 183 183 643 643 182 182 182 644 644 184 184 184 645 645 185 185 185 646 646 183 183 183 647 647 175 175 175 648 648 186 186 186 649 649 187 187 187 650 650 175 175 175 651 651 174 174 174 652 652 186 186 186 653 653 188 188 188 654 654 185 185 185 655 655 184 184 184 656 656 188 188 188 657 657 189 189 189 658 658 185 185 185 659 659 187 187 187 660 660 190 190 190 661 661 191 191 191 662 662 187 187 187 663 663 186 186 186 664 664 190 190 190 665 665 192 192 192 666 666 159 159 159 667 667 193 193 193 668 668 192 192 192 669 669 158 158 158 670 670 159 159 159 671 671 194 194 194 672 672 195 195 195 673 673 196 196 196 674 674 194 194 194 675 675 197 197 197 676 676 195 195 195 677 677 195 195 195 678 678 198 198 198 679 679 196 196 196 680 680 195 195 195 681 681 199 199 199 682 682 198 198 198 683 683 199 199 199 684 684 200 200 200 685 685 198 198 198 686 686 199 199 199 687 687 201 201 201 688 688 200 200 200 689 689 201 201 201 690 690 202 202 202 691 691 200 200 200 692 692 201 201 201 693 693 203 203 203 694 694 202 202 202 695 695 204 204 204 696 696 205 205 205 697 697 206 206 206 698 698 204 204 204 699 699 207 207 207 700 700 205 205 205 701 701 208 208 208 702 702 205 205 205 703 703 209 209 209 704 704 208 208 208 705 705 206 206 206 706 706 205 205 205 707 707 210 210 210 708 708 209 209 209 709 709 211 211 211 710 710 210 210 210 711 711 208 208 208 712 712 209 209 209 713 713 212 212 212 714 714 211 211 211 715 715 213 213 213 716 716 212 212 212 717 717 210 210 210 718 718 211 211 211 719 719 214 214 214 720 720 215 215 215 721 721 216 216 216 722 722 214 214 214 723 723 217 217 217 724 724 215 215 215 725 725 216 216 216 726 726 218 218 218 727 727 219 219 219 728 728 216 216 216 729 729 215 215 215 730 730 218 218 218 731 731 220 220 220 732 732 194 194 194 733 733 221 221 221 734 734 220 220 220 735 735 197 197 197 736 736 194 194 194 737 737 222 222 222 738 738 223 223 223 739 739 224 224 224 740 740 222 222 222 741 741 225 225 225 742 742 223 223 223 743 743 226 226 226 744 744 225 225 225 745 745 222 222 222 746 746 226 226 226 747 747 227 227 227 748 748 225 225 225 749 749 228 228 228 750 750 227 227 227 751 751 226 226 226 752 752 228 228 228 753 753 229 229 229 754 754 227 227 227 755 755 219 219 219 756 756 230 230 230 757 757 231 231 231 758 758 219 219 219 759 759 218 218 218 760 760 230 230 230 761 761 232 232 232 762 762 229 229 229 763 763 228 228 228 764 764 232 232 232 765 765 233 233 233 766 766 229 229 229 767 767 231 231 231 768 768 234 234 234 769 769 235 235 235 770 770 231 231 231 771 771 230 230 230 772 772 234 234 234 773 773 236 236 236 774 774 203 203 203 775 775 237 237 237 776 776 236 236 236 777 777 202 202 202 778 778 203 203 203 779 779</p>
        </triangles>
      </mesh>
    </geometry>
  </library_geometries>
  <library_controllers>
    <controller id="skinU3D_id" name="skinU3D">
      <skin source="#geomU3D_id">
        <bind_shape_matrix>1 0 0 0 0 1 0 0 0 0 1 0 0 0 0 1</bind_shape_matrix>
        <source id="skinU3D_id-joints">
          <Name_array id="skinU3D_id-joints-array" count="1">Body_id</Name_array>
          <technique_common>
            <accessor source="#skinU3D_id-joints-array" count="1" stride="1">
              <param name="JOINT" type="Name"/>
            </accessor>
          </technique_common>
        </source>
        <source id="skinU3D_id-bind_poses">
          <float_array id="skinU3D_id-bind_poses-array" count="16">1 0 0 0 0 1 0 0 0 0 1 0 0 0 0 1</float_array>
          <technique_common>
            <accessor source="#skinU3D_id-bind_poses-array" count="1" stride="16">
              <param name="TRANSFORM" type="float4x4"/>
            </accessor>
          </technique_common>
        </source>
        <source id="skinU3D_id-weights">
          <float_array id="skinU3D_id-weights-array" count="1">1</float_array>
          <technique_common>
            <accessor source="#skinU3D_id-weights-array" count="1" stride="1">
              <param name="WEIGHT" type="float"/>
            </accessor>
          </technique_common>
        </source>
        <joints>
          <input semantic="JOINT" source="#skinU3D_id-joints"/>
          <input semantic="INV_BIND_MATRIX" source="#skinU3D_id-bind_poses"/>
        </joints>
        <vertex_weights count="238">
          <input semantic="JOINT" source="#skinU3D_id-joints" offset="0"/>
          <input semantic="WEIGHT" source="#skinU3D_id-weights" offset="1"/>
          <vcount>1 1 1 1 1 1 1 1 1 1 1 1 1 1 1 1 1 1 1 1 1 1 1 1 1 1 1 1 1 1 1 1 1 1 1 1 1 1 1 1 1 1 1 1 1 1 1 1 1 1 1 1 1 1 1 1 1 1 1 1 1 1 1 1 1 1 1 1 1 1 1 1 1 1 1 1 1 1 1 1 1 1 1 1 1 1 1 1 1 1 1 1 1 1 1 1 1 1 1 1 1 1 1 1 1 1 1 1 1 1 1 1 1 1 1 1 1 1 1 1 1 1 1 1 1 1 1 1 1 1 1 1 1 1 1 1 1 1 1 1 1 1 1 1 1 1 1 1 1 1 1 1 1 1 1 1 1 1 1 1 1 1 1 1 1 1 1 1 1 1 1 1 1 1 1 1 1 1 1 1 1 1 1 1 1 1 1 1 1 1 1 1 1 1 1 1 1 1 1 1 1 1 1 1 1 1 1 1 1 1 1 1 1 1 1 1 1 1 1 1 1 1 1 1 1 1 1 1 1 1 1 1 1 1 1 1 1 1 </vcount>
          <v>0 0 0 0 0 0 0 0 0 0 0 0 0 0 0 0 0 0 0 0 0 0 0 0 0 0 0 0 0 0 0 0 0 0 0 0 0 0 0 0 0 0 0 0 0 0 0 0 0 0 0 0 0 0 0 0 0 0 0 0 0 0 0 0 0 0 0 0 0 0 0 0 0 0 0 0 0 0 0 0 0 0 0 0 0 0 0 0 0 0 0 0 0 0 0 0 0 0 0 0 0 0 0 0 0 0 0 0 0 0 0 0 0 0 0 0 0 0 0 0 0 0 0 0 0 0 0 0 0 0 0 0 0 0 0 0 0 0 0 0 0 0 0 0 0 0 0 0 0 0 0 0 0 0 0 0 0 0 0 0 0 0 0 0 0 0 0 0 0 0 0 0 0 0 0 0 0 0 0 0 0 0 0 0 0 0 0 0 0 0 0 0 0 0 0 0 0 0 0 0 0 0 0 0 0 0 0 0 0 0 0 0 0 0 0 0 0 0 0 0 0 0 0 0 0 0 0 0 0 0 0 0 0 0 0 0 0 0 0 0 0 0 0 0 0 0 0 0 0 0 0 0 0 0 0 0 0 0 0 0 0 0 0 0 0 0 0 0 0 0 0 0 0 0 0 0 0 0 0 0 0 0 0 0 0 0 0 0 0 0 0 0 0 0 0 0 0 0 0 0 0 0 0 0 0 0 0 0 0 0 0 0 0 0 0 0 0 0 0 0 0 0 0 0 0 0 0 0 0 0 0 0 0 0 0 0 0 0 0 0 0 0 0 0 0 0 0 0 0 0 0 0 0 0 0 0 0 0 0 0 0 0 0 0 0 0 0 0 0 0 0 0 0 0 0 0 0 0 0 0 0 0 0 0 0 0 0 0 0 0 0 0 0 0 0 0 0 0 0 0 0 0 0 0 0 0 0 0 0 0 0 0 0 0 0 0 0 0 0 0 0 0 0 0 0 0 0 0 0 0 0 0 0 0 0 0 0 0 0 0 0 0 0 0 0 0 0 0 0 0 0 0 0 0 0 0 0 0 0 0 0 0 0 0 0 0 0 0 0 0 0 0 0 0 0 0</v>
        </vertex_weights>
      </skin>
    </controller>
  </library_controllers>
  <library_visual_scenes>
    <visual_scene id="VisualSceneNode" name="rootU3D">
      <node id="Body_id" name="Body" sid="Body_id" type="JOINT">
        <translate>0 0 0</translate>
        <rotate sid="rotateZ">0 0 1 0</rotate>
        <rotate sid="rotateY">0 1 0 0</rotate>
        <rotate sid="rotateX">1 0 0 0</rotate>
        <scale>1 1 1</scale>
      </node>
      <node id="material28_id" name="material28" type="JOINT">
        <translate>0 0 0</translate>
        <rotate sid="rotateZ">0 0 1 0</rotate>
        <rotate sid="rotateY">0 1 0 0</rotate>
        <rotate sid="rotateX">1 0 0 0</rotate>
        <scale>1 1 1</scale>
      </node>
      <node id="meshU3D_id" name="meshU3D" type="NODE">
        <translate>0 0 0</translate>
        <rotate>1 0 0 0</rotate>
        <scale>1 1 1</scale>
        <instance_controller url="#skinU3D_id">
          <skeleton>#Body_id</skeleton>
          <bind_material>
            <technique_common>
              <instance_material symbol="VisualMaterialVisualMaterial" target="#VisualMaterial">
                <bind_vertex_input semantic="UVSET0" input_semantic="TEXCOORD" input_set="0"/>
              </instance_material>
            </technique_common>
          </bind_material>
        </instance_controller>
      </node>
      <extra>
        <technique profile="MAX3D">
          <frame_rate>30</frame_rate>
        </technique>
        <technique profile="MAYA">
          <start_time>0</start_time>
          <end_time>1</end_time>
        </technique>
      </extra>
    </visual_scene>
  </library_visual_scenes>
  <scene>
    <instance_visual_scene url="#VisualSceneNode"/>
  </scene>
</COLLADA>
