# Wavefront MTL file
# Creator: Ultimate Unwrap3D Pro v3.19
# URL: http://www.unwrap3d.com
# Time: Thu Dec 10 22:02:32 2009
# num_materials: 1

newmtl material28
Ka 0.000000 0.000000 0.000000
Kd 0.992157 0.992157 0.992157
Ks 0.150000 0.150000 0.150000
d 1.000000
illum 2
Ns 0.007813
map_Kd shield.dds

# num_materials: 1
