xof 0303txt 0032

// DirectX 9.0 file
// Creator: Ultimate Unwrap3D Pro v3.19
// Website: http://www.unwrap3d.com
// Time: Thu Dec 10 22:02:37 2009

// Start of Templates

template VertexDuplicationIndices {
 <b8d65549-d7c9-4995-89cf-53a9a8b031e3>
 DWORD nIndices;
 DWORD nOriginalVertices;
 array DWORD indices[nIndices];
}

template FVFData {
 <b6e70a0e-8ef9-4e83-94ad-ecc8b0c04897>
 DWORD dwFVF;
 DWORD nDWords;
 array DWORD data[nDWords];
}

template Header {
 <3D82AB43-62DA-11cf-AB39-0020AF71E433>
 WORD major;
 WORD minor;
 DWORD flags;
}

template Vector {
 <3D82AB5E-62DA-11cf-AB39-0020AF71E433>
 FLOAT x;
 FLOAT y;
 FLOAT z;
}

template Coords2d {
 <F6F23F44-7686-11cf-8F52-0040333594A3>
 FLOAT u;
 FLOAT v;
}

template Matrix4x4 {
 <F6F23F45-7686-11cf-8F52-0040333594A3>
 array FLOAT matrix[16];
}

template ColorRGBA {
 <35FF44E0-6C7C-11cf-8F52-0040333594A3>
 FLOAT red;
 FLOAT green;
 FLOAT blue;
 FLOAT alpha;
}

template ColorRGB {
 <D3E16E81-7835-11cf-8F52-0040333594A3>
 FLOAT red;
 FLOAT green;
 FLOAT blue;
}

template IndexedColor {
 <1630B820-7842-11cf-8F52-0040333594A3>
 DWORD index;
 ColorRGBA indexColor;
}

template Material {
 <3D82AB4D-62DA-11cf-AB39-0020AF71E433>
 ColorRGBA faceColor;
 FLOAT power;
 ColorRGB specularColor;
 ColorRGB emissiveColor;
 [...]
}

template TextureFilename {
 <A42790E1-7810-11cf-8F52-0040333594A3>
 STRING filename;
}

template MeshFace {
 <3D82AB5F-62DA-11cf-AB39-0020AF71E433>
 DWORD nFaceVertexIndices;
 array DWORD faceVertexIndices[nFaceVertexIndices];
}

template MeshTextureCoords {
 <F6F23F40-7686-11cf-8F52-0040333594A3>
 DWORD nTextureCoords;
 array Coords2d textureCoords[nTextureCoords];
}

template MeshMaterialList {
 <F6F23F42-7686-11cf-8F52-0040333594A3>
 DWORD nMaterials;
 DWORD nFaceIndexes;
 array DWORD faceIndexes[nFaceIndexes];
 [Material]
}

template MeshNormals {
 <F6F23F43-7686-11cf-8F52-0040333594A3>
 DWORD nNormals;
 array Vector normals[nNormals];
 DWORD nFaceNormals;
 array MeshFace faceNormals[nFaceNormals];
}

template MeshVertexColors {
 <1630B821-7842-11cf-8F52-0040333594A3>
 DWORD nVertexColors;
 array IndexedColor vertexColors[nVertexColors];
}

template Mesh {
 <3D82AB44-62DA-11cf-AB39-0020AF71E433>
 DWORD nVertices;
 array Vector vertices[nVertices];
 DWORD nFaces;
 array MeshFace faces[nFaces];
 [...]
}

template FrameTransformMatrix {
 <F6F23F41-7686-11cf-8F52-0040333594A3>
 Matrix4x4 frameMatrix;
}

template Frame {
 <3D82AB46-62DA-11cf-AB39-0020AF71E433>
 [...]
}

template FloatKeys {
 <10DD46A9-775B-11cf-8F52-0040333594A3>
 DWORD nValues;
 array FLOAT values[nValues];
}

template TimedFloatKeys {
 <F406B180-7B3B-11cf-8F52-0040333594A3>
 DWORD time;
 FloatKeys tfkeys;
}

template AnimationKey {
 <10DD46A8-775B-11cf-8F52-0040333594A3>
 DWORD keyType;
 DWORD nKeys;
 array TimedFloatKeys keys[nKeys];
}

template AnimationOptions {
 <E2BF56C0-840F-11cf-8F52-0040333594A3>
 DWORD openclosed;
 DWORD positionquality;
}

template Animation {
 <3D82AB4F-62DA-11cf-AB39-0020AF71E433>
 [...]
}

template AnimationSet {
 <3D82AB50-62DA-11cf-AB39-0020AF71E433>
 [Animation]
}

template XSkinMeshHeader {
 <3CF169CE-FF7C-44ab-93C0-F78F62D172E2>
 WORD nMaxSkinWeightsPerVertex;
 WORD nMaxSkinWeightsPerFace;
 WORD nBones;
}

template SkinWeights {
 <6F0D123B-BAD2-4167-A0D0-80224F25FABB>
 STRING transformNodeName;
 DWORD nWeights;
 array DWORD vertexIndices[nWeights];
 array FLOAT weights[nWeights];
 Matrix4x4 matrixOffset;
}

template AnimTicksPerSecond {
 <9E415A43-7BA6-4a73-8743-B73D47E88476>
 DWORD AnimTicksPerSecond;
}

AnimTicksPerSecond {
 30;
}

// Start of Frames

   Frame Body {
      FrameTransformMatrix {
       1.000000, 0.000000, 0.000000, 0.000000,
       0.000000, 1.000000, 0.000000, 0.000000,
       0.000000, 0.000000, 1.000000, 0.000000,
       0.000000, 0.000000, 0.000000, 1.000000;;
      }

   }
   Frame material28 {
      FrameTransformMatrix {
       1.000000, 0.000000, 0.000000, 0.000000,
       0.000000, 1.000000, 0.000000, 0.000000,
       0.000000, 0.000000, 1.000000, 0.000000,
       0.000000, 0.000000, 0.000000, 1.000000;;
      }

   }

   Frame Body0 {
      FrameTransformMatrix {
       1.000000, 0.000000, 0.000000, 0.000000,
       0.000000, 1.000000, 0.000000, 0.000000,
       0.000000, 0.000000, 1.000000, 0.000000,
       0.000000, 0.000000, 0.000000, 1.000000;;
      }

      Mesh skinnedMesh {
       238;
       -2.721998; 26.439697; 0.686844;,
       -6.430101; 18.639599; -0.467850;,
       -2.721998; 18.639599; -0.247749;,
       -6.403299; 26.114899; 0.466644;,
       -9.681200; 25.598797; 1.044250;,
       -10.101599; 18.639599; 0.109749;,
       -2.721998; 14.225098; -0.455650;,
       -6.430101; 14.225098; -0.675751;,
       -10.401899; 14.225098; -0.098152;,
       -2.721998; 12.213100; -0.455650;,
       -6.430101; 12.213100; -0.675751;,
       -10.401899; 12.213100; -0.098152;,
       0.000000; 26.541100; 0.686844;,
       0.409901; 18.639599; -0.247749;,
       0.345900; 14.225098; -0.455650;,
       0.204399; 12.213100; -0.455650;,
       -2.721998; 8.254398; -0.247749;,
       -6.430101; 8.254398; -0.467850;,
       -9.336199; 8.254398; 0.109749;,
       0.201401; 8.254398; -0.247749;,
       -2.721998; 5.006298; 0.003548;,
       -6.962999; 5.006298; -0.216652;,
       -0.300400; 5.006298; 0.003548;,
       -2.721998; 2.519497; 0.171844;,
       -4.618299; 2.519497; 0.529243;,
       -0.209600; 2.519497; 0.171844;,
       -2.011499; 0.509697; 0.644844;,
       0.000000; 0.118900; 0.644844;,
       -6.436701; 26.186199; -0.087456;,
       -2.706499; 18.686298; -0.805252;,
       -6.459501; 18.689098; -1.024551;,
       -2.707602; 26.506699; 0.131348;,
       -10.191599; 18.690998; -0.440254;,
       -9.777498; 25.672497; 0.497849;,
       -6.454699; 14.238998; -1.234650;,
       -2.705400; 14.238300; -1.015251;,
       -10.483999; 14.239597; -0.651756;,
       -6.456900; 12.195297; -1.234451;,
       -2.705400; 12.198399; -1.015251;,
       -10.488501; 12.192398; -0.650749;,
       0.000601; 18.685898; -0.805450;,
       -0.001301; 26.607300; 0.131050;,
       0.000000; 14.238300; -1.015251;,
       0.000000; 12.198399; -1.015251;,
       -6.464701; 8.218998; -1.025352;,
       -2.705999; 8.217598; -0.805954;,
       -9.436899; 8.221500; -0.439949;,
       0.000000; 8.218098; -0.806252;,
       -6.993299; 4.946899; -0.772255;,
       -2.717402; 4.947899; -0.553055;,
       0.000000; 4.965797; -0.554649;,
       -4.674601; 2.385300; -0.013649;,
       -2.752600; 2.413200; -0.376755;,
       -0.004900; 2.440701; -0.383751;,
       -2.066301; 0.370098; 0.105644;,
       -0.009800; 0.000000; 0.098045;,
       -6.436701; 26.186199; -0.087456;,
       -2.721998; 26.439697; 0.686844;,
       -2.707602; 26.506699; 0.131348;,
       -6.403299; 26.114899; 0.466644;,
       -2.707602; 26.506699; 0.131348;,
       0.000000; 26.541100; 0.686844;,
       -0.001301; 26.607300; 0.131050;,
       -2.721998; 26.439697; 0.686844;,
       -10.191599; 18.690998; -0.440254;,
       -9.681200; 25.598797; 1.044250;,
       -9.777498; 25.672497; 0.497849;,
       -10.101599; 18.639599; 0.109749;,
       -9.777498; 25.672497; 0.497849;,
       -9.681200; 25.598797; 1.044250;,
       -10.483999; 14.239597; -0.651756;,
       -10.401899; 14.225098; -0.098152;,
       -10.488501; 12.192398; -0.650749;,
       -10.401899; 12.213100; -0.098152;,
       -9.436899; 8.221500; -0.439949;,
       -9.336199; 8.254398; 0.109749;,
       -6.993299; 4.946899; -0.772255;,
       -6.962999; 5.006298; -0.216652;,
       -4.674601; 2.385300; -0.013649;,
       -4.618299; 2.519497; 0.529243;,
       -2.066301; 0.370098; 0.105644;,
       -4.618299; 2.519497; 0.529243;,
       -4.674601; 2.385300; -0.013649;,
       -2.011499; 0.509697; 0.644844;,
       -0.009800; 0.000000; 0.098045;,
       0.000000; 0.118900; 0.644844;,
       6.403299; 26.114899; 0.466644;,
       2.722000; 18.639599; -0.247749;,
       6.430000; 18.639599; -0.467850;,
       2.722000; 26.439697; 0.686844;,
       10.101601; 18.639599; 0.109749;,
       9.681101; 25.598797; 1.044250;,
       6.430000; 14.225098; -0.675751;,
       2.722000; 14.225098; -0.455650;,
       10.401899; 14.225098; -0.098152;,
       6.430000; 12.213100; -0.675751;,
       2.722000; 12.213100; -0.455650;,
       10.401899; 12.213100; -0.098152;,
       6.430000; 8.254398; -0.467850;,
       2.722000; 8.254398; -0.247749;,
       9.336100; 8.254398; 0.109749;,
       6.962999; 5.006298; -0.216652;,
       2.722000; 5.006298; 0.003548;,
       4.618299; 2.519497; 0.529243;,
       2.722000; 2.519497; 0.171844;,
       2.011499; 0.509697; 0.644844;,
       2.707600; 26.506699; 0.131348;,
       6.459400; 18.689098; -1.024551;,
       2.706499; 18.686298; -0.805252;,
       6.436600; 26.186199; -0.087456;,
       9.777500; 25.672497; 0.497849;,
       10.191601; 18.690998; -0.440254;,
       2.705400; 14.238300; -1.015251;,
       6.454599; 14.238998; -1.234650;,
       10.483999; 14.239597; -0.651756;,
       2.705400; 12.198399; -1.015251;,
       6.456900; 12.195297; -1.234451;,
       10.488501; 12.192398; -0.650749;,
       2.705999; 8.217598; -0.805954;,
       6.464701; 8.218998; -1.025352;,
       9.436899; 8.221500; -0.439949;,
       2.717400; 4.947899; -0.553055;,
       6.993299; 4.946899; -0.772255;,
       2.752600; 2.413200; -0.376755;,
       4.674500; 2.385300; -0.013649;,
       2.066299; 0.370098; 0.105644;,
       6.403299; 26.114899; 0.466644;,
       2.707600; 26.506699; 0.131348;,
       2.722000; 26.439697; 0.686844;,
       6.436600; 26.186199; -0.087456;,
       10.101601; 18.639599; 0.109749;,
       9.777500; 25.672497; 0.497849;,
       9.681101; 25.598797; 1.044250;,
       10.191601; 18.690998; -0.440254;,
       9.681101; 25.598797; 1.044250;,
       9.777500; 25.672497; 0.497849;,
       10.401899; 14.225098; -0.098152;,
       10.483999; 14.239597; -0.651756;,
       10.401899; 12.213100; -0.098152;,
       10.488501; 12.192398; -0.650749;,
       9.336100; 8.254398; 0.109749;,
       9.436899; 8.221500; -0.439949;,
       6.962999; 5.006298; -0.216652;,
       6.993299; 4.946899; -0.772255;,
       4.618299; 2.519497; 0.529243;,
       4.674500; 2.385300; -0.013649;,
       2.011499; 0.509697; 0.644844;,
       4.674500; 2.385300; -0.013649;,
       4.618299; 2.519497; 0.529243;,
       2.066299; 0.370098; 0.105644;,
       -1.473001; 24.171398; 0.262047;,
       -2.596201; 21.432999; 0.393250;,
       -3.490099; 22.534500; 0.769547;,
       -0.579100; 23.069901; -0.114250;,
       -5.027498; 21.286900; 0.887947;,
       -4.133600; 20.185398; 0.511650;,
       -6.676600; 19.948597; 0.666847;,
       -5.782701; 18.847099; 0.290550;,
       -7.963099; 18.904598; 0.027046;,
       -7.069201; 17.802998; -0.349350;,
       -0.470699; 23.041698; 0.225449;,
       -3.398699; 22.491199; 1.113449;,
       -2.504801; 21.389698; 0.737045;,
       -1.364698; 24.143299; 0.601746;,
       -4.081598; 20.109100; 0.858345;,
       -4.975500; 21.210598; 1.234650;,
       -5.789400; 18.725700; 0.630051;,
       -6.683298; 19.827198; 1.006348;,
       -7.112101; 17.657497; -0.025452;,
       -8.006102; 18.759098; 0.350945;,
       -1.364698; 24.143299; 0.601746;,
       -3.490099; 22.534500; 0.769547;,
       -3.398699; 22.491199; 1.113449;,
       -1.473001; 24.171398; 0.262047;,
       -5.027498; 21.286900; 0.887947;,
       -4.975500; 21.210598; 1.234650;,
       -0.470699; 23.041698; 0.225449;,
       -1.364698; 24.143299; 0.601746;,
       -2.504801; 21.389698; 0.737045;,
       -0.579100; 23.069901; -0.114250;,
       -0.470699; 23.041698; 0.225449;,
       -2.596201; 21.432999; 0.393250;,
       -4.081598; 20.109100; 0.858345;,
       -4.133600; 20.185398; 0.511650;,
       -5.789400; 18.725700; 0.630051;,
       -5.782701; 18.847099; 0.290550;,
       -6.676600; 19.948597; 0.666847;,
       -6.683298; 19.827198; 1.006348;,
       -7.112101; 17.657497; -0.025452;,
       -7.069201; 17.802998; -0.349350;,
       -7.963099; 18.904598; 0.027046;,
       -8.006102; 18.759098; 0.350945;,
       -8.006102; 18.759098; 0.350945;,
       -7.112101; 17.657497; -0.025452;,
       5.025999; 13.922897; -0.336655;,
       4.561800; 11.012398; -0.034752;,
       3.438801; 11.899700; 0.290245;,
       6.149000; 13.035599; -0.661652;,
       2.229000; 10.341999; 0.500145;,
       3.351999; 9.454700; 0.175148;,
       0.931400; 8.650700; 0.377647;,
       2.054399; 7.763397; 0.052650;,
       -0.080999; 7.303799; -0.184349;,
       1.042000; 6.416500; -0.509354;,
       6.260900; 13.052998; -0.322350;,
       3.537600; 11.898697; 0.634750;,
       4.660700; 11.011398; 0.309746;,
       5.137899; 13.940300; 0.002647;,
       3.420200; 9.412800; 0.524849;,
       2.297199; 10.300098; 0.849846;,
       2.075701; 7.663700; 0.398544;,
       0.952700; 8.550999; 0.723549;,
       1.033701; 6.284199; -0.177155;,
       -0.089399; 7.171600; 0.147850;,
       5.137899; 13.940300; 0.002647;,
       3.438801; 11.899700; 0.290245;,
       3.537600; 11.898697; 0.634750;,
       5.025999; 13.922897; -0.336655;,
       2.229000; 10.341999; 0.500145;,
       2.297199; 10.300098; 0.849846;,
       6.260900; 13.052998; -0.322350;,
       5.137899; 13.940300; 0.002647;,
       4.660700; 11.011398; 0.309746;,
       6.149000; 13.035599; -0.661652;,
       6.260900; 13.052998; -0.322350;,
       4.561800; 11.012398; -0.034752;,
       3.420200; 9.412800; 0.524849;,
       3.351999; 9.454700; 0.175148;,
       2.075701; 7.663700; 0.398544;,
       2.054399; 7.763397; 0.052650;,
       0.931400; 8.650700; 0.377647;,
       0.952700; 8.550999; 0.723549;,
       1.033701; 6.284199; -0.177155;,
       1.042000; 6.416500; -0.509354;,
       -0.080999; 7.303799; -0.184349;,
       -0.089399; 7.171600; 0.147850;,
       -0.089399; 7.171600; 0.147850;,
       1.033701; 6.284199; -0.177155;;
       260;
       3;0, 1, 2;,
       3;0, 3, 1;,
       3;4, 1, 3;,
       3;4, 5, 1;,
       3;1, 6, 2;,
       3;1, 7, 6;,
       3;5, 7, 1;,
       3;5, 8, 7;,
       3;7, 9, 6;,
       3;7, 10, 9;,
       3;8, 10, 7;,
       3;8, 11, 10;,
       3;2, 12, 0;,
       3;2, 13, 12;,
       3;6, 13, 2;,
       3;6, 14, 13;,
       3;9, 14, 6;,
       3;9, 15, 14;,
       3;10, 16, 9;,
       3;10, 17, 16;,
       3;11, 17, 10;,
       3;11, 18, 17;,
       3;9, 19, 15;,
       3;9, 16, 19;,
       3;17, 20, 16;,
       3;17, 21, 20;,
       3;17, 18, 21;,
       3;16, 22, 19;,
       3;16, 20, 22;,
       3;21, 23, 20;,
       3;21, 24, 23;,
       3;20, 25, 22;,
       3;20, 23, 25;,
       3;23, 24, 26;,
       3;23, 27, 25;,
       3;23, 26, 27;,
       3;28, 29, 30;,
       3;28, 31, 29;,
       3;32, 28, 30;,
       3;32, 33, 28;,
       3;34, 29, 35;,
       3;34, 30, 29;,
       3;36, 30, 34;,
       3;36, 32, 30;,
       3;37, 35, 38;,
       3;37, 34, 35;,
       3;39, 34, 37;,
       3;39, 36, 34;,
       3;40, 31, 41;,
       3;40, 29, 31;,
       3;42, 29, 40;,
       3;42, 35, 29;,
       3;43, 35, 42;,
       3;43, 38, 35;,
       3;44, 38, 45;,
       3;44, 37, 38;,
       3;46, 37, 44;,
       3;46, 39, 37;,
       3;45, 43, 47;,
       3;45, 38, 43;,
       3;48, 45, 49;,
       3;48, 44, 45;,
       3;48, 46, 44;,
       3;49, 47, 50;,
       3;49, 45, 47;,
       3;51, 49, 52;,
       3;51, 48, 49;,
       3;52, 50, 53;,
       3;52, 49, 50;,
       3;54, 51, 52;,
       3;54, 53, 55;,
       3;54, 52, 53;,
       3;56, 57, 58;,
       3;56, 59, 57;,
       3;60, 61, 62;,
       3;60, 63, 61;,
       3;64, 65, 66;,
       3;64, 67, 65;,
       3;68, 59, 56;,
       3;68, 69, 59;,
       3;70, 67, 64;,
       3;70, 71, 67;,
       3;72, 71, 70;,
       3;72, 73, 71;,
       3;74, 73, 72;,
       3;74, 75, 73;,
       3;76, 75, 74;,
       3;76, 77, 75;,
       3;78, 77, 76;,
       3;78, 79, 77;,
       3;80, 81, 82;,
       3;80, 83, 81;,
       3;84, 83, 80;,
       3;84, 85, 83;,
       3;86, 87, 88;,
       3;86, 89, 87;,
       3;90, 86, 88;,
       3;90, 91, 86;,
       3;92, 87, 93;,
       3;92, 88, 87;,
       3;94, 88, 92;,
       3;94, 90, 88;,
       3;95, 93, 96;,
       3;95, 92, 93;,
       3;97, 92, 95;,
       3;97, 94, 92;,
       3;13, 89, 12;,
       3;13, 87, 89;,
       3;14, 87, 13;,
       3;14, 93, 87;,
       3;15, 93, 14;,
       3;15, 96, 93;,
       3;98, 96, 99;,
       3;98, 95, 96;,
       3;100, 95, 98;,
       3;100, 97, 95;,
       3;99, 15, 19;,
       3;99, 96, 15;,
       3;101, 99, 102;,
       3;101, 98, 99;,
       3;101, 100, 98;,
       3;102, 19, 22;,
       3;102, 99, 19;,
       3;103, 102, 104;,
       3;103, 101, 102;,
       3;104, 22, 25;,
       3;104, 102, 22;,
       3;105, 103, 104;,
       3;105, 25, 27;,
       3;105, 104, 25;,
       3;106, 107, 108;,
       3;106, 109, 107;,
       3;110, 107, 109;,
       3;110, 111, 107;,
       3;107, 112, 108;,
       3;107, 113, 112;,
       3;111, 113, 107;,
       3;111, 114, 113;,
       3;113, 115, 112;,
       3;113, 116, 115;,
       3;114, 116, 113;,
       3;114, 117, 116;,
       3;108, 41, 106;,
       3;108, 40, 41;,
       3;112, 40, 108;,
       3;112, 42, 40;,
       3;115, 42, 112;,
       3;115, 43, 42;,
       3;116, 118, 115;,
       3;116, 119, 118;,
       3;117, 119, 116;,
       3;117, 120, 119;,
       3;115, 47, 43;,
       3;115, 118, 47;,
       3;119, 121, 118;,
       3;119, 122, 121;,
       3;119, 120, 122;,
       3;118, 50, 47;,
       3;118, 121, 50;,
       3;122, 123, 121;,
       3;122, 124, 123;,
       3;121, 53, 50;,
       3;121, 123, 53;,
       3;123, 124, 125;,
       3;123, 55, 53;,
       3;123, 125, 55;,
       3;126, 127, 128;,
       3;126, 129, 127;,
       3;128, 62, 61;,
       3;128, 127, 62;,
       3;130, 131, 132;,
       3;130, 133, 131;,
       3;134, 129, 126;,
       3;134, 135, 129;,
       3;136, 133, 130;,
       3;136, 137, 133;,
       3;138, 137, 136;,
       3;138, 139, 137;,
       3;140, 139, 138;,
       3;140, 141, 139;,
       3;142, 141, 140;,
       3;142, 143, 141;,
       3;144, 143, 142;,
       3;144, 145, 143;,
       3;146, 147, 148;,
       3;146, 149, 147;,
       3;85, 149, 146;,
       3;85, 84, 149;,
       3;150, 151, 152;,
       3;150, 153, 151;,
       3;151, 154, 152;,
       3;151, 155, 154;,
       3;155, 156, 154;,
       3;155, 157, 156;,
       3;157, 158, 156;,
       3;157, 159, 158;,
       3;160, 161, 162;,
       3;160, 163, 161;,
       3;164, 161, 165;,
       3;164, 162, 161;,
       3;166, 165, 167;,
       3;166, 164, 165;,
       3;168, 167, 169;,
       3;168, 166, 167;,
       3;170, 171, 172;,
       3;170, 173, 171;,
       3;172, 174, 175;,
       3;172, 171, 174;,
       3;176, 150, 177;,
       3;176, 153, 150;,
       3;178, 179, 180;,
       3;178, 181, 179;,
       3;182, 181, 178;,
       3;182, 183, 181;,
       3;184, 183, 182;,
       3;184, 185, 183;,
       3;175, 186, 187;,
       3;175, 174, 186;,
       3;188, 185, 184;,
       3;188, 189, 185;,
       3;187, 190, 191;,
       3;187, 186, 190;,
       3;192, 159, 193;,
       3;192, 158, 159;,
       3;194, 195, 196;,
       3;194, 197, 195;,
       3;195, 198, 196;,
       3;195, 199, 198;,
       3;199, 200, 198;,
       3;199, 201, 200;,
       3;201, 202, 200;,
       3;201, 203, 202;,
       3;204, 205, 206;,
       3;204, 207, 205;,
       3;208, 205, 209;,
       3;208, 206, 205;,
       3;210, 209, 211;,
       3;210, 208, 209;,
       3;212, 211, 213;,
       3;212, 210, 211;,
       3;214, 215, 216;,
       3;214, 217, 215;,
       3;216, 218, 219;,
       3;216, 215, 218;,
       3;220, 194, 221;,
       3;220, 197, 194;,
       3;222, 223, 224;,
       3;222, 225, 223;,
       3;226, 225, 222;,
       3;226, 227, 225;,
       3;228, 227, 226;,
       3;228, 229, 227;,
       3;219, 230, 231;,
       3;219, 218, 230;,
       3;232, 229, 228;,
       3;232, 233, 229;,
       3;231, 234, 235;,
       3;231, 230, 234;,
       3;236, 203, 237;,
       3;236, 202, 203;;

      MeshNormals {
       238;
       -0.034270; -0.120532; 0.992118;,
       0.039481; -0.092931; 0.994889;,
       -0.022742; -0.089933; 0.995688;,
       0.071783; -0.123979; 0.989685;,
       0.172418; -0.131561; 0.976198;,
       0.151068; -0.081210; 0.985182;,
       -0.029625; -0.031356; 0.999069;,
       0.044444; -0.025099; 0.998697;,
       0.143886; -0.018775; 0.989416;,
       -0.025402; 0.022481; 0.999424;,
       0.042559; 0.026246; 0.998749;,
       0.160699; 0.051839; 0.985641;,
       0.000016; -0.118038; 0.993009;,
       -0.000731; -0.082593; 0.996583;,
       0.000000; -0.023528; 0.999723;,
       0.000000; 0.026232; 0.999656;,
       -0.029585; 0.064771; 0.997461;,
       0.060853; 0.069496; 0.995724;,
       0.194411; 0.073663; 0.978150;,
       0.000000; 0.064796; 0.997899;,
       -0.027089; 0.073702; 0.996912;,
       0.066091; 0.158604; 0.985128;,
       0.000000; 0.072330; 0.997381;,
       0.057550; 0.216406; 0.974606;,
       0.173098; 0.355700; 0.918431;,
       -0.006171; 0.136190; 0.990663;,
       0.112822; 0.265243; 0.957558;,
       0.003542; 0.209569; 0.977787;,
       -0.060253; 0.127668; -0.989985;,
       0.031820; 0.078634; -0.996396;,
       -0.067310; 0.079939; -0.994525;,
       0.014489; 0.118401; -0.992860;,
       -0.166736; 0.107390; -0.980136;,
       -0.191950; 0.141871; -0.971096;,
       -0.042628; 0.023540; -0.998814;,
       0.029205; 0.015693; -0.999450;,
       -0.146908; 0.034463; -0.988550;,
       -0.050997; -0.032534; -0.998169;,
       0.034985; -0.031517; -0.998891;,
       -0.143164; -0.030099; -0.989241;,
       -0.000746; 0.082573; -0.996585;,
       0.000036; 0.117908; -0.993024;,
       -0.000011; 0.023573; -0.999722;,
       -0.000017; -0.026238; -0.999656;,
       -0.042658; -0.057856; -0.997413;,
       0.027857; -0.066362; -0.997407;,
       -0.176342; -0.061987; -0.982375;,
       -0.000013; -0.064797; -0.997898;,
       -0.008644; -0.113504; -0.993500;,
       -0.014044; -0.101936; -0.994692;,
       -0.000293; -0.072636; -0.997358;,
       -0.104009; -0.198373; -0.974592;,
       -0.072750; -0.143961; -0.986905;,
       -0.006340; -0.137251; -0.990516;,
       -0.071190; -0.235715; -0.969211;,
       0.003087; -0.210732; -0.977539;,
       -0.104830; 0.986228; 0.127928;,
       -0.093419; 0.987775; 0.124791;,
       -0.091849; 0.988888; 0.116895;,
       -0.116561; 0.983198; 0.140480;,
       -0.036919; 0.992268; 0.118500;,
       -0.012298; 0.992885; 0.118441;,
       0.012317; 0.992885; 0.118442;,
       -0.036964; 0.992239; 0.118721;,
       -0.984559; 0.042866; 0.169723;,
       -0.984551; 0.035917; 0.171376;,
       -0.983435; 0.034418; 0.177964;,
       -0.985819; 0.051456; 0.159728;,
       -0.127326; 0.981300; 0.144353;,
       -0.127033; 0.979785; 0.154544;,
       -0.987308; 0.039745; 0.153767;,
       -0.988480; 0.020818; 0.149910;,
       -0.984614; -0.081425; 0.154610;,
       -0.971787; -0.164765; 0.168765;,
       -0.911632; -0.370123; 0.178704;,
       -0.857653; -0.488374; 0.161004;,
       -0.777566; -0.614752; 0.132180;,
       -0.765750; -0.625331; 0.150292;,
       -0.748641; -0.640334; 0.171782;,
       -0.741496; -0.629395; 0.232479;,
       -0.466914; -0.844166; 0.263390;,
       -0.598122; -0.760167; 0.253765;,
       -0.599091; -0.760604; 0.250144;,
       -0.325739; -0.911742; 0.250241;,
       -0.062655; -0.971077; 0.230399;,
       0.057055; -0.971300; 0.230914;,
       -0.060408; -0.127753; 0.989965;,
       0.032322; -0.078573; 0.996384;,
       -0.067431; -0.079927; 0.994517;,
       0.014822; -0.118527; 0.992840;,
       -0.167745; -0.107475; 0.979954;,
       -0.193433; -0.142047; 0.970776;,
       -0.042555; -0.023541; 0.998817;,
       0.029636; -0.015678; 0.999438;,
       -0.147651; -0.034530; 0.988437;,
       -0.051054; 0.032579; 0.998164;,
       0.035547; 0.031454; 0.998873;,
       -0.143842; 0.030142; 0.989142;,
       -0.042750; 0.057771; 0.997414;,
       0.028331; 0.066369; 0.997393;,
       -0.177675; 0.061901; 0.982140;,
       -0.008507; 0.113652; 0.993484;,
       -0.013875; 0.101924; 0.994695;,
       -0.105138; 0.200116; 0.974115;,
       -0.073105; 0.144244; 0.986838;,
       -0.071770; 0.235453; 0.969232;,
       -0.033682; 0.120506; -0.992141;,
       0.039536; 0.092928; -0.994888;,
       -0.022357; 0.089952; -0.995695;,
       0.071491; 0.123926; -0.989713;,
       0.171315; 0.131460; -0.976406;,
       0.150299; 0.081168; -0.985303;,
       -0.029190; 0.031440; -0.999079;,
       0.044496; 0.025109; -0.998694;,
       0.143181; 0.018750; -0.989519;,
       -0.025011; -0.022521; -0.999433;,
       0.042686; -0.026297; -0.998742;,
       0.159738; -0.051594; -0.985810;,
       -0.029058; -0.064849; -0.997472;,
       0.060631; -0.069495; -0.995738;,
       0.192781; -0.073711; -0.978469;,
       -0.026365; -0.074429; -0.996878;,
       0.064793; -0.156210; -0.985596;,
       0.056640; -0.214472; -0.975086;,
       0.169155; -0.348084; -0.922076;,
       0.110919; -0.263514; -0.958257;,
       0.105957; 0.986111; 0.127899;,
       0.074578; 0.989633; 0.122741;,
       0.056027; 0.991441; 0.117923;,
       0.115800; 0.983311; 0.140317;,
       0.984501; 0.043644; 0.169861;,
       0.984532; 0.035908; 0.171484;,
       0.983341; 0.035478; 0.178272;,
       0.985834; 0.051094; 0.159749;,
       0.127377; 0.981321; 0.144169;,
       0.123741; 0.980283; 0.154054;,
       0.987332; 0.038994; 0.153803;,
       0.988506; 0.020031; 0.149846;,
       0.984503; -0.082794; 0.154595;,
       0.971906; -0.164036; 0.168794;,
       0.912827; -0.367104; 0.178836;,
       0.858219; -0.487203; 0.161531;,
       0.773265; -0.619990; 0.132938;,
       0.763518; -0.628136; 0.149949;,
       0.748529; -0.640663; 0.171041;,
       0.754407; -0.614769; 0.230062;,
       0.471012; -0.841948; 0.263193;,
       0.598139; -0.760173; 0.253706;,
       0.598107; -0.761385; 0.250123;,
       0.325719; -0.912189; 0.248635;,
       0.304154; 0.519598; -0.798441;,
       -0.254998; 0.120803; -0.959366;,
       -0.254998; 0.120803; -0.959366;,
       0.304153; 0.519596; -0.798443;,
       -0.165530; 0.195866; -0.966559;,
       -0.124387; 0.228884; -0.965474;,
       -0.015399; 0.312027; -0.949948;,
       0.052826; 0.360964; -0.931082;,
       -0.243134; 0.131076; -0.961096;,
       -0.647518; -0.283818; -0.707226;,
       0.302850; -0.078724; 0.949781;,
       0.255013; -0.120827; 0.959359;,
       0.255036; -0.120859; 0.959349;,
       0.302841; -0.078670; 0.949789;,
       0.165542; -0.195890; 0.966552;,
       0.124378; -0.228896; 0.965472;,
       0.015394; -0.312033; 0.949946;,
       -0.052817; -0.360961; 0.931084;,
       -0.120148; -0.406886; 0.905543;,
       -0.120120; -0.406891; 0.905544;,
       -0.572006; 0.781627; 0.248733;,
       -0.580569; 0.774654; 0.250699;,
       -0.588900; 0.767284; 0.253916;,
       -0.572332; 0.781892; 0.247147;,
       -0.608255; 0.751399; 0.255783;,
       -0.618884; 0.743118; 0.254475;,
       0.732994; 0.656146; -0.179425;,
       0.732995; 0.656146; -0.179419;,
       0.580608; -0.774563; -0.250892;,
       0.571917; -0.781620; -0.248959;,
       0.572520; -0.781615; -0.247586;,
       0.588767; -0.767369; -0.253966;,
       0.608001; -0.751586; -0.255837;,
       0.618782; -0.743223; -0.254420;,
       0.646162; -0.722004; -0.247355;,
       0.662844; -0.710337; -0.236769;,
       -0.646739; 0.721527; 0.247240;,
       -0.662581; 0.710542; 0.236889;,
       0.678759; -0.697485; -0.229785;,
       0.678919; -0.699160; -0.224152;,
       -0.678713; 0.697507; 0.229855;,
       -0.677147; 0.700655; 0.224843;,
       -0.783990; -0.520756; -0.337894;,
       -0.783987; -0.520822; -0.337800;,
       0.176666; 0.527877; -0.830743;,
       -0.275947; 0.002805; -0.961169;,
       -0.275947; 0.002805; -0.961169;,
       0.176667; 0.527879; -0.830742;,
       -0.206101; 0.095841; -0.973826;,
       -0.173628; 0.137433; -0.975175;,
       -0.086654; 0.244103; -0.965870;,
       -0.031506; 0.308363; -0.950747;,
       -0.266775; 0.015321; -0.963637;,
       -0.565040; -0.465656; -0.681098;,
       0.312821; 0.048492; 0.948574;,
       0.275931; -0.002814; 0.961173;,
       0.275926; -0.002810; 0.961175;,
       0.312825; 0.048483; 0.948573;,
       0.206091; -0.095847; 0.973827;,
       0.173629; -0.137435; 0.975174;,
       0.086662; -0.244098; 0.965870;,
       0.031507; -0.308356; 0.950749;,
       -0.023472; -0.369886; 0.928781;,
       -0.023488; -0.369886; 0.928780;,
       -0.736248; 0.642833; 0.211434;,
       -0.742984; 0.634220; 0.213868;,
       -0.749399; 0.625330; 0.217632;,
       -0.736599; 0.642917; 0.209951;,
       -0.764573; 0.605552; 0.220760;,
       -0.773008; 0.594982; 0.220125;,
       0.562695; 0.795073; -0.226348;,
       0.562694; 0.795073; -0.226352;,
       0.743035; -0.634102; -0.214039;,
       0.736219; -0.642829; -0.211550;,
       0.736858; -0.642584; -0.210061;,
       0.749265; -0.625444; -0.217763;,
       0.764349; -0.605804; -0.220842;,
       0.772922; -0.595117; -0.220062;,
       0.794712; -0.567807; -0.214541;,
       0.808267; -0.552025; -0.204871;,
       -0.795167; 0.567202; 0.214458;,
       -0.808067; 0.552305; 0.204909;,
       0.820798; -0.535483; -0.198868;,
       0.821331; -0.536726; -0.193237;,
       -0.820776; 0.535529; 0.198837;,
       -0.819974; 0.538658; 0.193626;,
       -0.643421; -0.705530; -0.297047;,
       -0.643423; -0.705525; -0.297055;;
       260;
       3;0, 1, 2;,
       3;0, 3, 1;,
       3;4, 1, 3;,
       3;4, 5, 1;,
       3;1, 6, 2;,
       3;1, 7, 6;,
       3;5, 7, 1;,
       3;5, 8, 7;,
       3;7, 9, 6;,
       3;7, 10, 9;,
       3;8, 10, 7;,
       3;8, 11, 10;,
       3;2, 12, 0;,
       3;2, 13, 12;,
       3;6, 13, 2;,
       3;6, 14, 13;,
       3;9, 14, 6;,
       3;9, 15, 14;,
       3;10, 16, 9;,
       3;10, 17, 16;,
       3;11, 17, 10;,
       3;11, 18, 17;,
       3;9, 19, 15;,
       3;9, 16, 19;,
       3;17, 20, 16;,
       3;17, 21, 20;,
       3;17, 18, 21;,
       3;16, 22, 19;,
       3;16, 20, 22;,
       3;21, 23, 20;,
       3;21, 24, 23;,
       3;20, 25, 22;,
       3;20, 23, 25;,
       3;23, 24, 26;,
       3;23, 27, 25;,
       3;23, 26, 27;,
       3;28, 29, 30;,
       3;28, 31, 29;,
       3;32, 28, 30;,
       3;32, 33, 28;,
       3;34, 29, 35;,
       3;34, 30, 29;,
       3;36, 30, 34;,
       3;36, 32, 30;,
       3;37, 35, 38;,
       3;37, 34, 35;,
       3;39, 34, 37;,
       3;39, 36, 34;,
       3;40, 31, 41;,
       3;40, 29, 31;,
       3;42, 29, 40;,
       3;42, 35, 29;,
       3;43, 35, 42;,
       3;43, 38, 35;,
       3;44, 38, 45;,
       3;44, 37, 38;,
       3;46, 37, 44;,
       3;46, 39, 37;,
       3;45, 43, 47;,
       3;45, 38, 43;,
       3;48, 45, 49;,
       3;48, 44, 45;,
       3;48, 46, 44;,
       3;49, 47, 50;,
       3;49, 45, 47;,
       3;51, 49, 52;,
       3;51, 48, 49;,
       3;52, 50, 53;,
       3;52, 49, 50;,
       3;54, 51, 52;,
       3;54, 53, 55;,
       3;54, 52, 53;,
       3;56, 57, 58;,
       3;56, 59, 57;,
       3;60, 61, 62;,
       3;60, 63, 61;,
       3;64, 65, 66;,
       3;64, 67, 65;,
       3;68, 59, 56;,
       3;68, 69, 59;,
       3;70, 67, 64;,
       3;70, 71, 67;,
       3;72, 71, 70;,
       3;72, 73, 71;,
       3;74, 73, 72;,
       3;74, 75, 73;,
       3;76, 75, 74;,
       3;76, 77, 75;,
       3;78, 77, 76;,
       3;78, 79, 77;,
       3;80, 81, 82;,
       3;80, 83, 81;,
       3;84, 83, 80;,
       3;84, 85, 83;,
       3;86, 87, 88;,
       3;86, 89, 87;,
       3;90, 86, 88;,
       3;90, 91, 86;,
       3;92, 87, 93;,
       3;92, 88, 87;,
       3;94, 88, 92;,
       3;94, 90, 88;,
       3;95, 93, 96;,
       3;95, 92, 93;,
       3;97, 92, 95;,
       3;97, 94, 92;,
       3;13, 89, 12;,
       3;13, 87, 89;,
       3;14, 87, 13;,
       3;14, 93, 87;,
       3;15, 93, 14;,
       3;15, 96, 93;,
       3;98, 96, 99;,
       3;98, 95, 96;,
       3;100, 95, 98;,
       3;100, 97, 95;,
       3;99, 15, 19;,
       3;99, 96, 15;,
       3;101, 99, 102;,
       3;101, 98, 99;,
       3;101, 100, 98;,
       3;102, 19, 22;,
       3;102, 99, 19;,
       3;103, 102, 104;,
       3;103, 101, 102;,
       3;104, 22, 25;,
       3;104, 102, 22;,
       3;105, 103, 104;,
       3;105, 25, 27;,
       3;105, 104, 25;,
       3;106, 107, 108;,
       3;106, 109, 107;,
       3;110, 107, 109;,
       3;110, 111, 107;,
       3;107, 112, 108;,
       3;107, 113, 112;,
       3;111, 113, 107;,
       3;111, 114, 113;,
       3;113, 115, 112;,
       3;113, 116, 115;,
       3;114, 116, 113;,
       3;114, 117, 116;,
       3;108, 41, 106;,
       3;108, 40, 41;,
       3;112, 40, 108;,
       3;112, 42, 40;,
       3;115, 42, 112;,
       3;115, 43, 42;,
       3;116, 118, 115;,
       3;116, 119, 118;,
       3;117, 119, 116;,
       3;117, 120, 119;,
       3;115, 47, 43;,
       3;115, 118, 47;,
       3;119, 121, 118;,
       3;119, 122, 121;,
       3;119, 120, 122;,
       3;118, 50, 47;,
       3;118, 121, 50;,
       3;122, 123, 121;,
       3;122, 124, 123;,
       3;121, 53, 50;,
       3;121, 123, 53;,
       3;123, 124, 125;,
       3;123, 55, 53;,
       3;123, 125, 55;,
       3;126, 127, 128;,
       3;126, 129, 127;,
       3;128, 62, 61;,
       3;128, 127, 62;,
       3;130, 131, 132;,
       3;130, 133, 131;,
       3;134, 129, 126;,
       3;134, 135, 129;,
       3;136, 133, 130;,
       3;136, 137, 133;,
       3;138, 137, 136;,
       3;138, 139, 137;,
       3;140, 139, 138;,
       3;140, 141, 139;,
       3;142, 141, 140;,
       3;142, 143, 141;,
       3;144, 143, 142;,
       3;144, 145, 143;,
       3;146, 147, 148;,
       3;146, 149, 147;,
       3;85, 149, 146;,
       3;85, 84, 149;,
       3;150, 151, 152;,
       3;150, 153, 151;,
       3;151, 154, 152;,
       3;151, 155, 154;,
       3;155, 156, 154;,
       3;155, 157, 156;,
       3;157, 158, 156;,
       3;157, 159, 158;,
       3;160, 161, 162;,
       3;160, 163, 161;,
       3;164, 161, 165;,
       3;164, 162, 161;,
       3;166, 165, 167;,
       3;166, 164, 165;,
       3;168, 167, 169;,
       3;168, 166, 167;,
       3;170, 171, 172;,
       3;170, 173, 171;,
       3;172, 174, 175;,
       3;172, 171, 174;,
       3;176, 150, 177;,
       3;176, 153, 150;,
       3;178, 179, 180;,
       3;178, 181, 179;,
       3;182, 181, 178;,
       3;182, 183, 181;,
       3;184, 183, 182;,
       3;184, 185, 183;,
       3;175, 186, 187;,
       3;175, 174, 186;,
       3;188, 185, 184;,
       3;188, 189, 185;,
       3;187, 190, 191;,
       3;187, 186, 190;,
       3;192, 159, 193;,
       3;192, 158, 159;,
       3;194, 195, 196;,
       3;194, 197, 195;,
       3;195, 198, 196;,
       3;195, 199, 198;,
       3;199, 200, 198;,
       3;199, 201, 200;,
       3;201, 202, 200;,
       3;201, 203, 202;,
       3;204, 205, 206;,
       3;204, 207, 205;,
       3;208, 205, 209;,
       3;208, 206, 205;,
       3;210, 209, 211;,
       3;210, 208, 209;,
       3;212, 211, 213;,
       3;212, 210, 211;,
       3;214, 215, 216;,
       3;214, 217, 215;,
       3;216, 218, 219;,
       3;216, 215, 218;,
       3;220, 194, 221;,
       3;220, 197, 194;,
       3;222, 223, 224;,
       3;222, 225, 223;,
       3;226, 225, 222;,
       3;226, 227, 225;,
       3;228, 227, 226;,
       3;228, 229, 227;,
       3;219, 230, 231;,
       3;219, 218, 230;,
       3;232, 229, 228;,
       3;232, 233, 229;,
       3;231, 234, 235;,
       3;231, 230, 234;,
       3;236, 203, 237;,
       3;236, 202, 203;;
      }

      MeshTextureCoords {
       238;
       0.713871; 0.090721;,
       0.773904; 0.354141;,
       0.712412; 0.356817;,
       0.771116; 0.077845;,
       0.837817; 0.055090;,
       0.845417; 0.349521;,
       0.712412; 0.499159;,
       0.773012; 0.499159;,
       0.849596; 0.496241;,
       0.712412; 0.564035;,
       0.773012; 0.564035;,
       0.848137; 0.566953;,
       0.667926; 0.102041;,
       0.661227; 0.356817;,
       0.662274; 0.499159;,
       0.664585; 0.564035;,
       0.712412; 0.691677;,
       0.773012; 0.691677;,
       0.823423; 0.697514;,
       0.664634; 0.691677;,
       0.712412; 0.796411;,
       0.781721; 0.805166;,
       0.672835; 0.796411;,
       0.712412; 0.876595;,
       0.747779; 0.879513;,
       0.671351; 0.876595;,
       0.700070; 0.951614;,
       0.667196; 0.964214;,
       0.082389; 0.057663;,
       0.141505; 0.303332;,
       0.082028; 0.303240;,
       0.141487; 0.047165;,
       0.022881; 0.303180;,
       0.029444; 0.074491;,
       0.082103; 0.449010;,
       0.141522; 0.449033;,
       0.018246; 0.448991;,
       0.082068; 0.515955;,
       0.141522; 0.515853;,
       0.018176; 0.516051;,
       0.184408; 0.303345;,
       0.184378; 0.043869;,
       0.184398; 0.449033;,
       0.184398; 0.515853;,
       0.081944; 0.646205;,
       0.141513; 0.646251;,
       0.034841; 0.646123;,
       0.184398; 0.646232;,
       0.073567; 0.753386;,
       0.141333; 0.753354;,
       0.184398; 0.752765;,
       0.110315; 0.837294;,
       0.140775; 0.836381;,
       0.184320; 0.835480;,
       0.151650; 0.903305;,
       0.184243; 0.915428;,
       0.261735; 0.462350;,
       0.267955; 0.581712;,
       0.263492; 0.582174;,
       0.266186; 0.463423;,
       0.266607; 0.330928;,
       0.271069; 0.417929;,
       0.266604; 0.417887;,
       0.271069; 0.330465;,
       0.257103; 0.467473;,
       0.233253; 0.356491;,
       0.242031; 0.355307;,
       0.248266; 0.468299;,
       0.266436; 0.355002;,
       0.270826; 0.358097;,
       0.260501; 0.538990;,
       0.251607; 0.539223;,
       0.260485; 0.571880;,
       0.251607; 0.571548;,
       0.257098; 0.635677;,
       0.248266; 0.635149;,
       0.262437; 0.688287;,
       0.253511; 0.687333;,
       0.250249; 0.729442;,
       0.241527; 0.727286;,
       0.270906; 0.490779;,
       0.267503; 0.408777;,
       0.271864; 0.406968;,
       0.266574; 0.492540;,
       0.270967; 0.556859;,
       0.266574; 0.557174;,
       0.563278; 0.101191;,
       0.623440; 0.356817;,
       0.562840; 0.356817;,
       0.623440; 0.105313;,
       0.492623; 0.356817;,
       0.494387; 0.101783;,
       0.562840; 0.499159;,
       0.623440; 0.499159;,
       0.497929; 0.499159;,
       0.562840; 0.564035;,
       0.623440; 0.564035;,
       0.497929; 0.564035;,
       0.562840; 0.691677;,
       0.623440; 0.691677;,
       0.515347; 0.691677;,
       0.554131; 0.796411;,
       0.623440; 0.796411;,
       0.592450; 0.876595;,
       0.623440; 0.876595;,
       0.635052; 0.941400;,
       0.227308; 0.047165;,
       0.286768; 0.303240;,
       0.227291; 0.303332;,
       0.286406; 0.057663;,
       0.339353; 0.074491;,
       0.345916; 0.303180;,
       0.227274; 0.449033;,
       0.286692; 0.449010;,
       0.350550; 0.448991;,
       0.227274; 0.515853;,
       0.286728; 0.515955;,
       0.350621; 0.516051;,
       0.227283; 0.646251;,
       0.286851; 0.646205;,
       0.333955; 0.646123;,
       0.227463; 0.753354;,
       0.295229; 0.753386;,
       0.228021; 0.836381;,
       0.258481; 0.837294;,
       0.217145; 0.903305;,
       0.269300; 0.623681;,
       0.266607; 0.504930;,
       0.271069; 0.505393;,
       0.264849; 0.624751;,
       0.282230; 0.468299;,
       0.288466; 0.355307;,
       0.297244; 0.356491;,
       0.273394; 0.467473;,
       0.273940; 0.729004;,
       0.269551; 0.732102;,
       0.278890; 0.539223;,
       0.269996; 0.538990;,
       0.278890; 0.571548;,
       0.270012; 0.571880;,
       0.282230; 0.635149;,
       0.273399; 0.635677;,
       0.276986; 0.687333;,
       0.268060; 0.688287;,
       0.288970; 0.727286;,
       0.280248; 0.729442;,
       0.266574; 0.621808;,
       0.271864; 0.707376;,
       0.267503; 0.705570;,
       0.270905; 0.623569;,
       0.787461; 0.343285;,
       0.744932; 0.303333;,
       0.754078; 0.282464;,
       0.778316; 0.364154;,
       0.735770; 0.251740;,
       0.726625; 0.272610;,
       0.716132; 0.218784;,
       0.706987; 0.239653;,
       0.699474; 0.183263;,
       0.690329; 0.210375;,
       0.687603; 0.205502;,
       0.722885; 0.230575;,
       0.713917; 0.251022;,
       0.696570; 0.178814;,
       0.733280; 0.283540;,
       0.742247; 0.263095;,
       0.754252; 0.318673;,
       0.763220; 0.298228;,
       0.779860; 0.366314;,
       0.788828; 0.345868;,
       0.556508; 0.466237;,
       0.568512; 0.489106;,
       0.568563; 0.483231;,
       0.556570; 0.472279;,
       0.577831; 0.507065;,
       0.578128; 0.501671;,
       0.778207; 0.366907;,
       0.787353; 0.346038;,
       0.577177; 0.508285;,
       0.565184; 0.497331;,
       0.565123; 0.491291;,
       0.577127; 0.514158;,
       0.586742; 0.526723;,
       0.586445; 0.532117;,
       0.597364; 0.553514;,
       0.596721; 0.558039;,
       0.588107; 0.532987;,
       0.588750; 0.528462;,
       0.605951; 0.583366;,
       0.605114; 0.587202;,
       0.596499; 0.562147;,
       0.597336; 0.558311;,
       0.697630; 0.182965;,
       0.688484; 0.210078;,
       0.787461; 0.343285;,
       0.744932; 0.303333;,
       0.754078; 0.282464;,
       0.778316; 0.364154;,
       0.735770; 0.251740;,
       0.726625; 0.272610;,
       0.716132; 0.218784;,
       0.706987; 0.239653;,
       0.699474; 0.183263;,
       0.690329; 0.210375;,
       0.687603; 0.205502;,
       0.722885; 0.230575;,
       0.713917; 0.251022;,
       0.696570; 0.178814;,
       0.733280; 0.283540;,
       0.742247; 0.263095;,
       0.754252; 0.318673;,
       0.763220; 0.298228;,
       0.779860; 0.366314;,
       0.788828; 0.345868;,
       0.555661; 0.458167;,
       0.571677; 0.493944;,
       0.573202; 0.491591;,
       0.554292; 0.460824;,
       0.583861; 0.521321;,
       0.585704; 0.519689;,
       0.778207; 0.366907;,
       0.787353; 0.346038;,
       0.578184; 0.510246;,
       0.559273; 0.479479;,
       0.560642; 0.476821;,
       0.576659; 0.512599;,
       0.590686; 0.538344;,
       0.588843; 0.539976;,
       0.602772; 0.571576;,
       0.600528; 0.572113;,
       0.595546; 0.553458;,
       0.597790; 0.552922;,
       0.610207; 0.601064;,
       0.607787; 0.600903;,
       0.602805; 0.582248;,
       0.605225; 0.582407;,
       0.697630; 0.182965;,
       0.688484; 0.210078;;
      }

      MeshVertexColors {
       238;
       0; 1.000000; 1.000000; 1.000000; 1.000000;,
       1; 1.000000; 1.000000; 1.000000; 1.000000;,
       2; 1.000000; 1.000000; 1.000000; 1.000000;,
       3; 1.000000; 1.000000; 1.000000; 1.000000;,
       4; 1.000000; 1.000000; 1.000000; 1.000000;,
       5; 1.000000; 1.000000; 1.000000; 1.000000;,
       6; 1.000000; 1.000000; 1.000000; 1.000000;,
       7; 1.000000; 1.000000; 1.000000; 1.000000;,
       8; 1.000000; 1.000000; 1.000000; 1.000000;,
       9; 1.000000; 1.000000; 1.000000; 1.000000;,
       10; 1.000000; 1.000000; 1.000000; 1.000000;,
       11; 1.000000; 1.000000; 1.000000; 1.000000;,
       12; 1.000000; 1.000000; 1.000000; 1.000000;,
       13; 1.000000; 1.000000; 1.000000; 1.000000;,
       14; 1.000000; 1.000000; 1.000000; 1.000000;,
       15; 1.000000; 1.000000; 1.000000; 1.000000;,
       16; 1.000000; 1.000000; 1.000000; 1.000000;,
       17; 1.000000; 1.000000; 1.000000; 1.000000;,
       18; 1.000000; 1.000000; 1.000000; 1.000000;,
       19; 1.000000; 1.000000; 1.000000; 1.000000;,
       20; 1.000000; 1.000000; 1.000000; 1.000000;,
       21; 1.000000; 1.000000; 1.000000; 1.000000;,
       22; 1.000000; 1.000000; 1.000000; 1.000000;,
       23; 1.000000; 1.000000; 1.000000; 1.000000;,
       24; 1.000000; 1.000000; 1.000000; 1.000000;,
       25; 1.000000; 1.000000; 1.000000; 1.000000;,
       26; 1.000000; 1.000000; 1.000000; 1.000000;,
       27; 1.000000; 1.000000; 1.000000; 1.000000;,
       28; 1.000000; 1.000000; 1.000000; 1.000000;,
       29; 1.000000; 1.000000; 1.000000; 1.000000;,
       30; 1.000000; 1.000000; 1.000000; 1.000000;,
       31; 1.000000; 1.000000; 1.000000; 1.000000;,
       32; 1.000000; 1.000000; 1.000000; 1.000000;,
       33; 1.000000; 1.000000; 1.000000; 1.000000;,
       34; 1.000000; 1.000000; 1.000000; 1.000000;,
       35; 1.000000; 1.000000; 1.000000; 1.000000;,
       36; 1.000000; 1.000000; 1.000000; 1.000000;,
       37; 1.000000; 1.000000; 1.000000; 1.000000;,
       38; 1.000000; 1.000000; 1.000000; 1.000000;,
       39; 1.000000; 1.000000; 1.000000; 1.000000;,
       40; 1.000000; 1.000000; 1.000000; 1.000000;,
       41; 1.000000; 1.000000; 1.000000; 1.000000;,
       42; 1.000000; 1.000000; 1.000000; 1.000000;,
       43; 1.000000; 1.000000; 1.000000; 1.000000;,
       44; 1.000000; 1.000000; 1.000000; 1.000000;,
       45; 1.000000; 1.000000; 1.000000; 1.000000;,
       46; 1.000000; 1.000000; 1.000000; 1.000000;,
       47; 1.000000; 1.000000; 1.000000; 1.000000;,
       48; 1.000000; 1.000000; 1.000000; 1.000000;,
       49; 1.000000; 1.000000; 1.000000; 1.000000;,
       50; 1.000000; 1.000000; 1.000000; 1.000000;,
       51; 1.000000; 1.000000; 1.000000; 1.000000;,
       52; 1.000000; 1.000000; 1.000000; 1.000000;,
       53; 1.000000; 1.000000; 1.000000; 1.000000;,
       54; 1.000000; 1.000000; 1.000000; 1.000000;,
       55; 1.000000; 1.000000; 1.000000; 1.000000;,
       56; 1.000000; 1.000000; 1.000000; 1.000000;,
       57; 1.000000; 1.000000; 1.000000; 1.000000;,
       58; 1.000000; 1.000000; 1.000000; 1.000000;,
       59; 1.000000; 1.000000; 1.000000; 1.000000;,
       60; 1.000000; 1.000000; 1.000000; 1.000000;,
       61; 1.000000; 1.000000; 1.000000; 1.000000;,
       62; 1.000000; 1.000000; 1.000000; 1.000000;,
       63; 1.000000; 1.000000; 1.000000; 1.000000;,
       64; 1.000000; 1.000000; 1.000000; 1.000000;,
       65; 1.000000; 1.000000; 1.000000; 1.000000;,
       66; 1.000000; 1.000000; 1.000000; 1.000000;,
       67; 1.000000; 1.000000; 1.000000; 1.000000;,
       68; 1.000000; 1.000000; 1.000000; 1.000000;,
       69; 1.000000; 1.000000; 1.000000; 1.000000;,
       70; 1.000000; 1.000000; 1.000000; 1.000000;,
       71; 1.000000; 1.000000; 1.000000; 1.000000;,
       72; 1.000000; 1.000000; 1.000000; 1.000000;,
       73; 1.000000; 1.000000; 1.000000; 1.000000;,
       74; 1.000000; 1.000000; 1.000000; 1.000000;,
       75; 1.000000; 1.000000; 1.000000; 1.000000;,
       76; 1.000000; 1.000000; 1.000000; 1.000000;,
       77; 1.000000; 1.000000; 1.000000; 1.000000;,
       78; 1.000000; 1.000000; 1.000000; 1.000000;,
       79; 1.000000; 1.000000; 1.000000; 1.000000;,
       80; 1.000000; 1.000000; 1.000000; 1.000000;,
       81; 1.000000; 1.000000; 1.000000; 1.000000;,
       82; 1.000000; 1.000000; 1.000000; 1.000000;,
       83; 1.000000; 1.000000; 1.000000; 1.000000;,
       84; 1.000000; 1.000000; 1.000000; 1.000000;,
       85; 1.000000; 1.000000; 1.000000; 1.000000;,
       86; 1.000000; 1.000000; 1.000000; 1.000000;,
       87; 1.000000; 1.000000; 1.000000; 1.000000;,
       88; 1.000000; 1.000000; 1.000000; 1.000000;,
       89; 1.000000; 1.000000; 1.000000; 1.000000;,
       90; 1.000000; 1.000000; 1.000000; 1.000000;,
       91; 1.000000; 1.000000; 1.000000; 1.000000;,
       92; 1.000000; 1.000000; 1.000000; 1.000000;,
       93; 1.000000; 1.000000; 1.000000; 1.000000;,
       94; 1.000000; 1.000000; 1.000000; 1.000000;,
       95; 1.000000; 1.000000; 1.000000; 1.000000;,
       96; 1.000000; 1.000000; 1.000000; 1.000000;,
       97; 1.000000; 1.000000; 1.000000; 1.000000;,
       98; 1.000000; 1.000000; 1.000000; 1.000000;,
       99; 1.000000; 1.000000; 1.000000; 1.000000;,
       100; 1.000000; 1.000000; 1.000000; 1.000000;,
       101; 1.000000; 1.000000; 1.000000; 1.000000;,
       102; 1.000000; 1.000000; 1.000000; 1.000000;,
       103; 1.000000; 1.000000; 1.000000; 1.000000;,
       104; 1.000000; 1.000000; 1.000000; 1.000000;,
       105; 1.000000; 1.000000; 1.000000; 1.000000;,
       106; 1.000000; 1.000000; 1.000000; 1.000000;,
       107; 1.000000; 1.000000; 1.000000; 1.000000;,
       108; 1.000000; 1.000000; 1.000000; 1.000000;,
       109; 1.000000; 1.000000; 1.000000; 1.000000;,
       110; 1.000000; 1.000000; 1.000000; 1.000000;,
       111; 1.000000; 1.000000; 1.000000; 1.000000;,
       112; 1.000000; 1.000000; 1.000000; 1.000000;,
       113; 1.000000; 1.000000; 1.000000; 1.000000;,
       114; 1.000000; 1.000000; 1.000000; 1.000000;,
       115; 1.000000; 1.000000; 1.000000; 1.000000;,
       116; 1.000000; 1.000000; 1.000000; 1.000000;,
       117; 1.000000; 1.000000; 1.000000; 1.000000;,
       118; 1.000000; 1.000000; 1.000000; 1.000000;,
       119; 1.000000; 1.000000; 1.000000; 1.000000;,
       120; 1.000000; 1.000000; 1.000000; 1.000000;,
       121; 1.000000; 1.000000; 1.000000; 1.000000;,
       122; 1.000000; 1.000000; 1.000000; 1.000000;,
       123; 1.000000; 1.000000; 1.000000; 1.000000;,
       124; 1.000000; 1.000000; 1.000000; 1.000000;,
       125; 1.000000; 1.000000; 1.000000; 1.000000;,
       126; 1.000000; 1.000000; 1.000000; 1.000000;,
       127; 1.000000; 1.000000; 1.000000; 1.000000;,
       128; 1.000000; 1.000000; 1.000000; 1.000000;,
       129; 1.000000; 1.000000; 1.000000; 1.000000;,
       130; 1.000000; 1.000000; 1.000000; 1.000000;,
       131; 1.000000; 1.000000; 1.000000; 1.000000;,
       132; 1.000000; 1.000000; 1.000000; 1.000000;,
       133; 1.000000; 1.000000; 1.000000; 1.000000;,
       134; 1.000000; 1.000000; 1.000000; 1.000000;,
       135; 1.000000; 1.000000; 1.000000; 1.000000;,
       136; 1.000000; 1.000000; 1.000000; 1.000000;,
       137; 1.000000; 1.000000; 1.000000; 1.000000;,
       138; 1.000000; 1.000000; 1.000000; 1.000000;,
       139; 1.000000; 1.000000; 1.000000; 1.000000;,
       140; 1.000000; 1.000000; 1.000000; 1.000000;,
       141; 1.000000; 1.000000; 1.000000; 1.000000;,
       142; 1.000000; 1.000000; 1.000000; 1.000000;,
       143; 1.000000; 1.000000; 1.000000; 1.000000;,
       144; 1.000000; 1.000000; 1.000000; 1.000000;,
       145; 1.000000; 1.000000; 1.000000; 1.000000;,
       146; 1.000000; 1.000000; 1.000000; 1.000000;,
       147; 1.000000; 1.000000; 1.000000; 1.000000;,
       148; 1.000000; 1.000000; 1.000000; 1.000000;,
       149; 1.000000; 1.000000; 1.000000; 1.000000;,
       150; 1.000000; 1.000000; 1.000000; 1.000000;,
       151; 1.000000; 1.000000; 1.000000; 1.000000;,
       152; 1.000000; 1.000000; 1.000000; 1.000000;,
       153; 1.000000; 1.000000; 1.000000; 1.000000;,
       154; 1.000000; 1.000000; 1.000000; 1.000000;,
       155; 1.000000; 1.000000; 1.000000; 1.000000;,
       156; 1.000000; 1.000000; 1.000000; 1.000000;,
       157; 1.000000; 1.000000; 1.000000; 1.000000;,
       158; 1.000000; 1.000000; 1.000000; 1.000000;,
       159; 1.000000; 1.000000; 1.000000; 1.000000;,
       160; 1.000000; 1.000000; 1.000000; 1.000000;,
       161; 1.000000; 1.000000; 1.000000; 1.000000;,
       162; 1.000000; 1.000000; 1.000000; 1.000000;,
       163; 1.000000; 1.000000; 1.000000; 1.000000;,
       164; 1.000000; 1.000000; 1.000000; 1.000000;,
       165; 1.000000; 1.000000; 1.000000; 1.000000;,
       166; 1.000000; 1.000000; 1.000000; 1.000000;,
       167; 1.000000; 1.000000; 1.000000; 1.000000;,
       168; 1.000000; 1.000000; 1.000000; 1.000000;,
       169; 1.000000; 1.000000; 1.000000; 1.000000;,
       170; 1.000000; 1.000000; 1.000000; 1.000000;,
       171; 1.000000; 1.000000; 1.000000; 1.000000;,
       172; 1.000000; 1.000000; 1.000000; 1.000000;,
       173; 1.000000; 1.000000; 1.000000; 1.000000;,
       174; 1.000000; 1.000000; 1.000000; 1.000000;,
       175; 1.000000; 1.000000; 1.000000; 1.000000;,
       176; 1.000000; 1.000000; 1.000000; 1.000000;,
       177; 1.000000; 1.000000; 1.000000; 1.000000;,
       178; 1.000000; 1.000000; 1.000000; 1.000000;,
       179; 1.000000; 1.000000; 1.000000; 1.000000;,
       180; 1.000000; 1.000000; 1.000000; 1.000000;,
       181; 1.000000; 1.000000; 1.000000; 1.000000;,
       182; 1.000000; 1.000000; 1.000000; 1.000000;,
       183; 1.000000; 1.000000; 1.000000; 1.000000;,
       184; 1.000000; 1.000000; 1.000000; 1.000000;,
       185; 1.000000; 1.000000; 1.000000; 1.000000;,
       186; 1.000000; 1.000000; 1.000000; 1.000000;,
       187; 1.000000; 1.000000; 1.000000; 1.000000;,
       188; 1.000000; 1.000000; 1.000000; 1.000000;,
       189; 1.000000; 1.000000; 1.000000; 1.000000;,
       190; 1.000000; 1.000000; 1.000000; 1.000000;,
       191; 1.000000; 1.000000; 1.000000; 1.000000;,
       192; 1.000000; 1.000000; 1.000000; 1.000000;,
       193; 1.000000; 1.000000; 1.000000; 1.000000;,
       194; 1.000000; 1.000000; 1.000000; 1.000000;,
       195; 1.000000; 1.000000; 1.000000; 1.000000;,
       196; 1.000000; 1.000000; 1.000000; 1.000000;,
       197; 1.000000; 1.000000; 1.000000; 1.000000;,
       198; 1.000000; 1.000000; 1.000000; 1.000000;,
       199; 1.000000; 1.000000; 1.000000; 1.000000;,
       200; 1.000000; 1.000000; 1.000000; 1.000000;,
       201; 1.000000; 1.000000; 1.000000; 1.000000;,
       202; 1.000000; 1.000000; 1.000000; 1.000000;,
       203; 1.000000; 1.000000; 1.000000; 1.000000;,
       204; 1.000000; 1.000000; 1.000000; 1.000000;,
       205; 1.000000; 1.000000; 1.000000; 1.000000;,
       206; 1.000000; 1.000000; 1.000000; 1.000000;,
       207; 1.000000; 1.000000; 1.000000; 1.000000;,
       208; 1.000000; 1.000000; 1.000000; 1.000000;,
       209; 1.000000; 1.000000; 1.000000; 1.000000;,
       210; 1.000000; 1.000000; 1.000000; 1.000000;,
       211; 1.000000; 1.000000; 1.000000; 1.000000;,
       212; 1.000000; 1.000000; 1.000000; 1.000000;,
       213; 1.000000; 1.000000; 1.000000; 1.000000;,
       214; 1.000000; 1.000000; 1.000000; 1.000000;,
       215; 1.000000; 1.000000; 1.000000; 1.000000;,
       216; 1.000000; 1.000000; 1.000000; 1.000000;,
       217; 1.000000; 1.000000; 1.000000; 1.000000;,
       218; 1.000000; 1.000000; 1.000000; 1.000000;,
       219; 1.000000; 1.000000; 1.000000; 1.000000;,
       220; 1.000000; 1.000000; 1.000000; 1.000000;,
       221; 1.000000; 1.000000; 1.000000; 1.000000;,
       222; 1.000000; 1.000000; 1.000000; 1.000000;,
       223; 1.000000; 1.000000; 1.000000; 1.000000;,
       224; 1.000000; 1.000000; 1.000000; 1.000000;,
       225; 1.000000; 1.000000; 1.000000; 1.000000;,
       226; 1.000000; 1.000000; 1.000000; 1.000000;,
       227; 1.000000; 1.000000; 1.000000; 1.000000;,
       228; 1.000000; 1.000000; 1.000000; 1.000000;,
       229; 1.000000; 1.000000; 1.000000; 1.000000;,
       230; 1.000000; 1.000000; 1.000000; 1.000000;,
       231; 1.000000; 1.000000; 1.000000; 1.000000;,
       232; 1.000000; 1.000000; 1.000000; 1.000000;,
       233; 1.000000; 1.000000; 1.000000; 1.000000;,
       234; 1.000000; 1.000000; 1.000000; 1.000000;,
       235; 1.000000; 1.000000; 1.000000; 1.000000;,
       236; 1.000000; 1.000000; 1.000000; 1.000000;,
       237; 1.000000; 1.000000; 1.000000; 1.000000;;
      }

      MeshMaterialList {
       1;
       260;
       0,
       0,
       0,
       0,
       0,
       0,
       0,
       0,
       0,
       0,
       0,
       0,
       0,
       0,
       0,
       0,
       0,
       0,
       0,
       0,
       0,
       0,
       0,
       0,
       0,
       0,
       0,
       0,
       0,
       0,
       0,
       0,
       0,
       0,
       0,
       0,
       0,
       0,
       0,
       0,
       0,
       0,
       0,
       0,
       0,
       0,
       0,
       0,
       0,
       0,
       0,
       0,
       0,
       0,
       0,
       0,
       0,
       0,
       0,
       0,
       0,
       0,
       0,
       0,
       0,
       0,
       0,
       0,
       0,
       0,
       0,
       0,
       0,
       0,
       0,
       0,
       0,
       0,
       0,
       0,
       0,
       0,
       0,
       0,
       0,
       0,
       0,
       0,
       0,
       0,
       0,
       0,
       0,
       0,
       0,
       0,
       0,
       0,
       0,
       0,
       0,
       0,
       0,
       0,
       0,
       0,
       0,
       0,
       0,
       0,
       0,
       0,
       0,
       0,
       0,
       0,
       0,
       0,
       0,
       0,
       0,
       0,
       0,
       0,
       0,
       0,
       0,
       0,
       0,
       0,
       0,
       0,
       0,
       0,
       0,
       0,
       0,
       0,
       0,
       0,
       0,
       0,
       0,
       0,
       0,
       0,
       0,
       0,
       0,
       0,
       0,
       0,
       0,
       0,
       0,
       0,
       0,
       0,
       0,
       0,
       0,
       0,
       0,
       0,
       0,
       0,
       0,
       0,
       0,
       0,
       0,
       0,
       0,
       0,
       0,
       0,
       0,
       0,
       0,
       0,
       0,
       0,
       0,
       0,
       0,
       0,
       0,
       0,
       0,
       0,
       0,
       0,
       0,
       0,
       0,
       0,
       0,
       0,
       0,
       0,
       0,
       0,
       0,
       0,
       0,
       0,
       0,
       0,
       0,
       0,
       0,
       0,
       0,
       0,
       0,
       0,
       0,
       0,
       0,
       0,
       0,
       0,
       0,
       0,
       0,
       0,
       0,
       0,
       0,
       0,
       0,
       0,
       0,
       0,
       0,
       0,
       0,
       0,
       0,
       0,
       0,
       0,
       0,
       0,
       0,
       0,
       0,
       0,
       0,
       0,
       0,
       0,
       0,
       0,
       0,
       0,
       0,
       0,
       0,
       0;

       Material material28 {
        0.992157; 0.992157; 0.992157; 1.000000;;
        1.000000;
        0.150000; 0.150000; 0.150000;;
        0.000000; 0.000000; 0.000000;;

        TextureFilename {
         "shield.dds";
        }
       }

      }

      XSkinMeshHeader {
       1;
       1;
       1;
      }

      SkinWeights {
       "Body";
       238;
       0,
       1,
       2,
       3,
       4,
       5,
       6,
       7,
       8,
       9,
       10,
       11,
       12,
       13,
       14,
       15,
       16,
       17,
       18,
       19,
       20,
       21,
       22,
       23,
       24,
       25,
       26,
       27,
       28,
       29,
       30,
       31,
       32,
       33,
       34,
       35,
       36,
       37,
       38,
       39,
       40,
       41,
       42,
       43,
       44,
       45,
       46,
       47,
       48,
       49,
       50,
       51,
       52,
       53,
       54,
       55,
       56,
       57,
       58,
       59,
       60,
       61,
       62,
       63,
       64,
       65,
       66,
       67,
       68,
       69,
       70,
       71,
       72,
       73,
       74,
       75,
       76,
       77,
       78,
       79,
       80,
       81,
       82,
       83,
       84,
       85,
       86,
       87,
       88,
       89,
       90,
       91,
       92,
       93,
       94,
       95,
       96,
       97,
       98,
       99,
       100,
       101,
       102,
       103,
       104,
       105,
       106,
       107,
       108,
       109,
       110,
       111,
       112,
       113,
       114,
       115,
       116,
       117,
       118,
       119,
       120,
       121,
       122,
       123,
       124,
       125,
       126,
       127,
       128,
       129,
       130,
       131,
       132,
       133,
       134,
       135,
       136,
       137,
       138,
       139,
       140,
       141,
       142,
       143,
       144,
       145,
       146,
       147,
       148,
       149,
       150,
       151,
       152,
       153,
       154,
       155,
       156,
       157,
       158,
       159,
       160,
       161,
       162,
       163,
       164,
       165,
       166,
       167,
       168,
       169,
       170,
       171,
       172,
       173,
       174,
       175,
       176,
       177,
       178,
       179,
       180,
       181,
       182,
       183,
       184,
       185,
       186,
       187,
       188,
       189,
       190,
       191,
       192,
       193,
       194,
       195,
       196,
       197,
       198,
       199,
       200,
       201,
       202,
       203,
       204,
       205,
       206,
       207,
       208,
       209,
       210,
       211,
       212,
       213,
       214,
       215,
       216,
       217,
       218,
       219,
       220,
       221,
       222,
       223,
       224,
       225,
       226,
       227,
       228,
       229,
       230,
       231,
       232,
       233,
       234,
       235,
       236,
       237;
       1.000000,
       1.000000,
       1.000000,
       1.000000,
       1.000000,
       1.000000,
       1.000000,
       1.000000,
       1.000000,
       1.000000,
       1.000000,
       1.000000,
       1.000000,
       1.000000,
       1.000000,
       1.000000,
       1.000000,
       1.000000,
       1.000000,
       1.000000,
       1.000000,
       1.000000,
       1.000000,
       1.000000,
       1.000000,
       1.000000,
       1.000000,
       1.000000,
       1.000000,
       1.000000,
       1.000000,
       1.000000,
       1.000000,
       1.000000,
       1.000000,
       1.000000,
       1.000000,
       1.000000,
       1.000000,
       1.000000,
       1.000000,
       1.000000,
       1.000000,
       1.000000,
       1.000000,
       1.000000,
       1.000000,
       1.000000,
       1.000000,
       1.000000,
       1.000000,
       1.000000,
       1.000000,
       1.000000,
       1.000000,
       1.000000,
       1.000000,
       1.000000,
       1.000000,
       1.000000,
       1.000000,
       1.000000,
       1.000000,
       1.000000,
       1.000000,
       1.000000,
       1.000000,
       1.000000,
       1.000000,
       1.000000,
       1.000000,
       1.000000,
       1.000000,
       1.000000,
       1.000000,
       1.000000,
       1.000000,
       1.000000,
       1.000000,
       1.000000,
       1.000000,
       1.000000,
       1.000000,
       1.000000,
       1.000000,
       1.000000,
       1.000000,
       1.000000,
       1.000000,
       1.000000,
       1.000000,
       1.000000,
       1.000000,
       1.000000,
       1.000000,
       1.000000,
       1.000000,
       1.000000,
       1.000000,
       1.000000,
       1.000000,
       1.000000,
       1.000000,
       1.000000,
       1.000000,
       1.000000,
       1.000000,
       1.000000,
       1.000000,
       1.000000,
       1.000000,
       1.000000,
       1.000000,
       1.000000,
       1.000000,
       1.000000,
       1.000000,
       1.000000,
       1.000000,
       1.000000,
       1.000000,
       1.000000,
       1.000000,
       1.000000,
       1.000000,
       1.000000,
       1.000000,
       1.000000,
       1.000000,
       1.000000,
       1.000000,
       1.000000,
       1.000000,
       1.000000,
       1.000000,
       1.000000,
       1.000000,
       1.000000,
       1.000000,
       1.000000,
       1.000000,
       1.000000,
       1.000000,
       1.000000,
       1.000000,
       1.000000,
       1.000000,
       1.000000,
       1.000000,
       1.000000,
       1.000000,
       1.000000,
       1.000000,
       1.000000,
       1.000000,
       1.000000,
       1.000000,
       1.000000,
       1.000000,
       1.000000,
       1.000000,
       1.000000,
       1.000000,
       1.000000,
       1.000000,
       1.000000,
       1.000000,
       1.000000,
       1.000000,
       1.000000,
       1.000000,
       1.000000,
       1.000000,
       1.000000,
       1.000000,
       1.000000,
       1.000000,
       1.000000,
       1.000000,
       1.000000,
       1.000000,
       1.000000,
       1.000000,
       1.000000,
       1.000000,
       1.000000,
       1.000000,
       1.000000,
       1.000000,
       1.000000,
       1.000000,
       1.000000,
       1.000000,
       1.000000,
       1.000000,
       1.000000,
       1.000000,
       1.000000,
       1.000000,
       1.000000,
       1.000000,
       1.000000,
       1.000000,
       1.000000,
       1.000000,
       1.000000,
       1.000000,
       1.000000,
       1.000000,
       1.000000,
       1.000000,
       1.000000,
       1.000000,
       1.000000,
       1.000000,
       1.000000,
       1.000000,
       1.000000,
       1.000000,
       1.000000,
       1.000000,
       1.000000,
       1.000000,
       1.000000,
       1.000000,
       1.000000,
       1.000000,
       1.000000,
       1.000000,
       1.000000,
       1.000000,
       1.000000,
       1.000000,
       1.000000,
       1.000000,
       1.000000,
       1.000000,
       1.000000;
          1.000000, -0.000000, 0.000000, 0.000000,
          -0.000000, 1.000000, -0.000000, 0.000000,
          0.000000, -0.000000, 1.000000, 0.000000,
          -0.000000, -0.000000, -0.000000, 1.000000;;
      }


     }
   }

// Start of Animation

AnimationSet Untitled {
}
