xof 0303txt 0032

// DirectX 9.0 file
// Creator: Ultimate Unwrap3D Pro v3.19
// Website: http://www.unwrap3d.com
// Time: Thu Dec 10 22:03:31 2009

// Start of Templates

template VertexDuplicationIndices {
 <b8d65549-d7c9-4995-89cf-53a9a8b031e3>
 DWORD nIndices;
 DWORD nOriginalVertices;
 array DWORD indices[nIndices];
}

template FVFData {
 <b6e70a0e-8ef9-4e83-94ad-ecc8b0c04897>
 DWORD dwFVF;
 DWORD nDWords;
 array DWORD data[nDWords];
}

template Header {
 <3D82AB43-62DA-11cf-AB39-0020AF71E433>
 WORD major;
 WORD minor;
 DWORD flags;
}

template Vector {
 <3D82AB5E-62DA-11cf-AB39-0020AF71E433>
 FLOAT x;
 FLOAT y;
 FLOAT z;
}

template Coords2d {
 <F6F23F44-7686-11cf-8F52-0040333594A3>
 FLOAT u;
 FLOAT v;
}

template Matrix4x4 {
 <F6F23F45-7686-11cf-8F52-0040333594A3>
 array FLOAT matrix[16];
}

template ColorRGBA {
 <35FF44E0-6C7C-11cf-8F52-0040333594A3>
 FLOAT red;
 FLOAT green;
 FLOAT blue;
 FLOAT alpha;
}

template ColorRGB {
 <D3E16E81-7835-11cf-8F52-0040333594A3>
 FLOAT red;
 FLOAT green;
 FLOAT blue;
}

template IndexedColor {
 <1630B820-7842-11cf-8F52-0040333594A3>
 DWORD index;
 ColorRGBA indexColor;
}

template Material {
 <3D82AB4D-62DA-11cf-AB39-0020AF71E433>
 ColorRGBA faceColor;
 FLOAT power;
 ColorRGB specularColor;
 ColorRGB emissiveColor;
 [...]
}

template TextureFilename {
 <A42790E1-7810-11cf-8F52-0040333594A3>
 STRING filename;
}

template MeshFace {
 <3D82AB5F-62DA-11cf-AB39-0020AF71E433>
 DWORD nFaceVertexIndices;
 array DWORD faceVertexIndices[nFaceVertexIndices];
}

template MeshTextureCoords {
 <F6F23F40-7686-11cf-8F52-0040333594A3>
 DWORD nTextureCoords;
 array Coords2d textureCoords[nTextureCoords];
}

template MeshMaterialList {
 <F6F23F42-7686-11cf-8F52-0040333594A3>
 DWORD nMaterials;
 DWORD nFaceIndexes;
 array DWORD faceIndexes[nFaceIndexes];
 [Material]
}

template MeshNormals {
 <F6F23F43-7686-11cf-8F52-0040333594A3>
 DWORD nNormals;
 array Vector normals[nNormals];
 DWORD nFaceNormals;
 array MeshFace faceNormals[nFaceNormals];
}

template MeshVertexColors {
 <1630B821-7842-11cf-8F52-0040333594A3>
 DWORD nVertexColors;
 array IndexedColor vertexColors[nVertexColors];
}

template Mesh {
 <3D82AB44-62DA-11cf-AB39-0020AF71E433>
 DWORD nVertices;
 array Vector vertices[nVertices];
 DWORD nFaces;
 array MeshFace faces[nFaces];
 [...]
}

template FrameTransformMatrix {
 <F6F23F41-7686-11cf-8F52-0040333594A3>
 Matrix4x4 frameMatrix;
}

template Frame {
 <3D82AB46-62DA-11cf-AB39-0020AF71E433>
 [...]
}

template FloatKeys {
 <10DD46A9-775B-11cf-8F52-0040333594A3>
 DWORD nValues;
 array FLOAT values[nValues];
}

template TimedFloatKeys {
 <F406B180-7B3B-11cf-8F52-0040333594A3>
 DWORD time;
 FloatKeys tfkeys;
}

template AnimationKey {
 <10DD46A8-775B-11cf-8F52-0040333594A3>
 DWORD keyType;
 DWORD nKeys;
 array TimedFloatKeys keys[nKeys];
}

template AnimationOptions {
 <E2BF56C0-840F-11cf-8F52-0040333594A3>
 DWORD openclosed;
 DWORD positionquality;
}

template Animation {
 <3D82AB4F-62DA-11cf-AB39-0020AF71E433>
 [...]
}

template AnimationSet {
 <3D82AB50-62DA-11cf-AB39-0020AF71E433>
 [Animation]
}

template XSkinMeshHeader {
 <3CF169CE-FF7C-44ab-93C0-F78F62D172E2>
 WORD nMaxSkinWeightsPerVertex;
 WORD nMaxSkinWeightsPerFace;
 WORD nBones;
}

template SkinWeights {
 <6F0D123B-BAD2-4167-A0D0-80224F25FABB>
 STRING transformNodeName;
 DWORD nWeights;
 array DWORD vertexIndices[nWeights];
 array FLOAT weights[nWeights];
 Matrix4x4 matrixOffset;
}

template AnimTicksPerSecond {
 <9E415A43-7BA6-4a73-8743-B73D47E88476>
 DWORD AnimTicksPerSecond;
}

AnimTicksPerSecond {
 30;
}

// Start of Frames

   Frame Body {
      FrameTransformMatrix {
       1.000000, 0.000000, 0.000000, 0.000000,
       0.000000, 1.000000, 0.000000, 0.000000,
       0.000000, 0.000000, 1.000000, 0.000000,
       0.000000, 0.000000, 0.000000, 1.000000;;
      }

   }
   Frame def_surf_mat {
      FrameTransformMatrix {
       1.000000, 0.000000, 0.000000, 0.000000,
       0.000000, 1.000000, 0.000000, 0.000000,
       0.000000, 0.000000, 1.000000, 0.000000,
       0.000000, 0.000000, 0.000000, 1.000000;;
      }

   }

   Frame Body0 {
      FrameTransformMatrix {
       1.000000, 0.000000, 0.000000, 0.000000,
       0.000000, 1.000000, 0.000000, 0.000000,
       0.000000, 0.000000, 1.000000, 0.000000,
       0.000000, 0.000000, 0.000000, 1.000000;;
      }

      Mesh skinnedMesh {
       40;
       2.870410; 0.121002; -2.085396;,
       3.374370; 0.000000; -1.096397;,
       2.870410; 0.000000; -2.085396;,
       3.374370; 0.121002; -1.096397;,
       2.085480; 0.121002; -2.870399;,
       2.085480; 0.000000; -2.870399;,
       1.096400; 0.121002; -3.374298;,
       1.096400; 0.000000; -3.374298;,
       0.000000; 0.121002; -3.547997;,
       0.000000; 0.000000; -3.547997;,
       -1.096390; 0.121002; -3.374298;,
       -1.096390; 0.000000; -3.374298;,
       -2.085470; 0.121002; -2.870399;,
       -2.085470; 0.000000; -2.870399;,
       -2.870410; 0.121002; -2.085396;,
       -2.870410; 0.000000; -2.085396;,
       -3.374370; 0.121002; -1.096397;,
       -3.374370; 0.000000; -1.096397;,
       -3.548020; 0.121002; 0.000000;,
       -3.548020; 0.000000; 0.000000;,
       -3.374370; 0.121002; 1.096405;,
       -3.374370; 0.000000; 1.096405;,
       -2.870410; 0.121002; 2.085503;,
       -2.870410; 0.000000; 2.085503;,
       -2.085470; 0.121002; 2.870399;,
       -2.085470; 0.000000; 2.870399;,
       -1.096400; 0.121002; 3.374405;,
       -1.096400; 0.000000; 3.374405;,
       0.000000; 0.121002; 3.548004;,
       0.000000; 0.000000; 3.548004;,
       1.096400; 0.121002; 3.374405;,
       1.096400; 0.000000; 3.374405;,
       2.085480; 0.121002; 2.870399;,
       2.085480; 0.000000; 2.870399;,
       2.870410; 0.121002; 2.085503;,
       2.870410; 0.000000; 2.085503;,
       3.374370; 0.121002; 1.096405;,
       3.374370; 0.000000; 1.096405;,
       3.548020; 0.121002; 0.000000;,
       3.548020; 0.000000; 0.000000;;
       76;
       3;0, 1, 2;,
       3;0, 3, 1;,
       3;4, 2, 5;,
       3;4, 0, 2;,
       3;6, 5, 7;,
       3;6, 4, 5;,
       3;8, 7, 9;,
       3;8, 6, 7;,
       3;10, 9, 11;,
       3;10, 8, 9;,
       3;12, 11, 13;,
       3;12, 10, 11;,
       3;14, 13, 15;,
       3;14, 12, 13;,
       3;16, 15, 17;,
       3;16, 14, 15;,
       3;18, 17, 19;,
       3;18, 16, 17;,
       3;20, 19, 21;,
       3;20, 18, 19;,
       3;22, 21, 23;,
       3;22, 20, 21;,
       3;24, 23, 25;,
       3;24, 22, 23;,
       3;26, 25, 27;,
       3;26, 24, 25;,
       3;28, 27, 29;,
       3;28, 26, 27;,
       3;30, 29, 31;,
       3;30, 28, 29;,
       3;32, 31, 33;,
       3;32, 30, 31;,
       3;34, 33, 35;,
       3;34, 32, 33;,
       3;36, 35, 37;,
       3;36, 34, 35;,
       3;38, 37, 39;,
       3;38, 36, 37;,
       3;3, 39, 1;,
       3;3, 38, 39;,
       3;0, 38, 3;,
       3;0, 36, 38;,
       3;4, 36, 0;,
       3;4, 34, 36;,
       3;6, 34, 4;,
       3;6, 32, 34;,
       3;8, 32, 6;,
       3;8, 30, 32;,
       3;10, 30, 8;,
       3;10, 28, 30;,
       3;12, 28, 10;,
       3;12, 26, 28;,
       3;14, 26, 12;,
       3;14, 24, 26;,
       3;16, 24, 14;,
       3;16, 22, 24;,
       3;18, 22, 16;,
       3;18, 20, 22;,
       3;37, 1, 39;,
       3;37, 2, 1;,
       3;35, 2, 37;,
       3;35, 5, 2;,
       3;33, 5, 35;,
       3;33, 7, 5;,
       3;31, 7, 33;,
       3;31, 9, 7;,
       3;29, 9, 31;,
       3;29, 11, 9;,
       3;27, 11, 29;,
       3;27, 13, 11;,
       3;25, 13, 27;,
       3;25, 15, 13;,
       3;23, 15, 25;,
       3;23, 17, 15;,
       3;21, 17, 23;,
       3;21, 19, 17;;

      MeshNormals {
       40;
       0.589907; 0.710982; -0.382772;,
       0.774021; -0.558926; -0.297480;,
       0.546335; -0.710982; -0.442744;,
       0.915433; 0.319370; -0.244920;,
       0.442761; 0.710986; -0.546316;,
       0.382755; -0.710986; -0.589913;,
       0.252248; 0.710981; -0.656411;,
       0.181750; -0.710982; -0.679318;,
       0.037084; 0.710986; -0.702228;,
       -0.037085; -0.710986; -0.702228;,
       -0.181750; 0.710981; -0.679317;,
       -0.252249; -0.710981; -0.656411;,
       -0.382754; 0.710986; -0.589914;,
       -0.442758; -0.710986; -0.546318;,
       -0.546333; 0.710982; -0.442747;,
       -0.589906; -0.710982; -0.382773;,
       -0.656398; 0.710985; -0.252274;,
       -0.679315; -0.710985; -0.181747;,
       -0.828065; 0.558925; -0.043717;,
       -0.946312; -0.319369; 0.049959;,
       -0.915436; 0.319369; 0.244907;,
       -0.774029; -0.558925; 0.297459;,
       -0.589906; 0.710985; 0.382769;,
       -0.546317; -0.710985; 0.442762;,
       -0.442752; 0.710982; 0.546329;,
       -0.382778; -0.710982; 0.589903;,
       -0.252267; 0.710986; 0.656399;,
       -0.181728; -0.710986; 0.679319;,
       -0.037063; 0.710981; 0.702233;,
       0.037063; -0.710981; 0.702233;,
       0.181727; 0.710986; 0.679319;,
       0.252265; -0.710986; 0.656400;,
       0.382778; 0.710982; 0.589903;,
       0.442754; -0.710982; 0.546327;,
       0.546319; 0.710985; 0.442760;,
       0.589907; -0.710985; 0.382768;,
       0.656406; 0.710984; 0.252256;,
       0.679318; -0.710984; 0.181738;,
       0.828065; 0.558925; 0.043716;,
       0.946312; -0.319369; -0.049960;;
       76;
       3;0, 1, 2;,
       3;0, 3, 1;,
       3;4, 2, 5;,
       3;4, 0, 2;,
       3;6, 5, 7;,
       3;6, 4, 5;,
       3;8, 7, 9;,
       3;8, 6, 7;,
       3;10, 9, 11;,
       3;10, 8, 9;,
       3;12, 11, 13;,
       3;12, 10, 11;,
       3;14, 13, 15;,
       3;14, 12, 13;,
       3;16, 15, 17;,
       3;16, 14, 15;,
       3;18, 17, 19;,
       3;18, 16, 17;,
       3;20, 19, 21;,
       3;20, 18, 19;,
       3;22, 21, 23;,
       3;22, 20, 21;,
       3;24, 23, 25;,
       3;24, 22, 23;,
       3;26, 25, 27;,
       3;26, 24, 25;,
       3;28, 27, 29;,
       3;28, 26, 27;,
       3;30, 29, 31;,
       3;30, 28, 29;,
       3;32, 31, 33;,
       3;32, 30, 31;,
       3;34, 33, 35;,
       3;34, 32, 33;,
       3;36, 35, 37;,
       3;36, 34, 35;,
       3;38, 37, 39;,
       3;38, 36, 37;,
       3;3, 39, 1;,
       3;3, 38, 39;,
       3;0, 38, 3;,
       3;0, 36, 38;,
       3;4, 36, 0;,
       3;4, 34, 36;,
       3;6, 34, 4;,
       3;6, 32, 34;,
       3;8, 32, 6;,
       3;8, 30, 32;,
       3;10, 30, 8;,
       3;10, 28, 30;,
       3;12, 28, 10;,
       3;12, 26, 28;,
       3;14, 26, 12;,
       3;14, 24, 26;,
       3;16, 24, 14;,
       3;16, 22, 24;,
       3;18, 22, 16;,
       3;18, 20, 22;,
       3;37, 1, 39;,
       3;37, 2, 1;,
       3;35, 2, 37;,
       3;35, 5, 2;,
       3;33, 5, 35;,
       3;33, 7, 5;,
       3;31, 7, 33;,
       3;31, 9, 7;,
       3;29, 9, 31;,
       3;29, 11, 9;,
       3;27, 11, 29;,
       3;27, 13, 11;,
       3;25, 13, 27;,
       3;25, 15, 13;,
       3;23, 15, 25;,
       3;23, 17, 15;,
       3;21, 17, 23;,
       3;21, 19, 17;;
      }

      MeshTextureCoords {
       40;
       0.784480; 0.659430;,
       0.839875; 0.588349;,
       0.784480; 0.659430;,
       0.839875; 0.588349;,
       0.698200; 0.715849;,
       0.698200; 0.715849;,
       0.589480; 0.752065;,
       0.589480; 0.752065;,
       0.468963; 0.764549;,
       0.468963; 0.764549;,
       0.348448; 0.752065;,
       0.348448; 0.752065;,
       0.239728; 0.715849;,
       0.239728; 0.715849;,
       0.153446; 0.659430;,
       0.153446; 0.659430;,
       0.098051; 0.588349;,
       0.098051; 0.588349;,
       0.078963; 0.509550;,
       0.078963; 0.509550;,
       0.098051; 0.430750;,
       0.098051; 0.430750;,
       0.153446; 0.359663;,
       0.153446; 0.359663;,
       0.239728; 0.303251;,
       0.239728; 0.303251;,
       0.348447; 0.267028;,
       0.348447; 0.267028;,
       0.468963; 0.254551;,
       0.468963; 0.254551;,
       0.589480; 0.267028;,
       0.589480; 0.267028;,
       0.698200; 0.303251;,
       0.698200; 0.303251;,
       0.784480; 0.359663;,
       0.784480; 0.359663;,
       0.839875; 0.430750;,
       0.839875; 0.430750;,
       0.858963; 0.509550;,
       0.858963; 0.509550;;
      }

      MeshVertexColors {
       40;
       0; 1.000000; 1.000000; 1.000000; 1.000000;,
       1; 1.000000; 1.000000; 1.000000; 1.000000;,
       2; 1.000000; 1.000000; 1.000000; 1.000000;,
       3; 1.000000; 1.000000; 1.000000; 1.000000;,
       4; 1.000000; 1.000000; 1.000000; 1.000000;,
       5; 1.000000; 1.000000; 1.000000; 1.000000;,
       6; 1.000000; 1.000000; 1.000000; 1.000000;,
       7; 1.000000; 1.000000; 1.000000; 1.000000;,
       8; 1.000000; 1.000000; 1.000000; 1.000000;,
       9; 1.000000; 1.000000; 1.000000; 1.000000;,
       10; 1.000000; 1.000000; 1.000000; 1.000000;,
       11; 1.000000; 1.000000; 1.000000; 1.000000;,
       12; 1.000000; 1.000000; 1.000000; 1.000000;,
       13; 1.000000; 1.000000; 1.000000; 1.000000;,
       14; 1.000000; 1.000000; 1.000000; 1.000000;,
       15; 1.000000; 1.000000; 1.000000; 1.000000;,
       16; 1.000000; 1.000000; 1.000000; 1.000000;,
       17; 1.000000; 1.000000; 1.000000; 1.000000;,
       18; 1.000000; 1.000000; 1.000000; 1.000000;,
       19; 1.000000; 1.000000; 1.000000; 1.000000;,
       20; 1.000000; 1.000000; 1.000000; 1.000000;,
       21; 1.000000; 1.000000; 1.000000; 1.000000;,
       22; 1.000000; 1.000000; 1.000000; 1.000000;,
       23; 1.000000; 1.000000; 1.000000; 1.000000;,
       24; 1.000000; 1.000000; 1.000000; 1.000000;,
       25; 1.000000; 1.000000; 1.000000; 1.000000;,
       26; 1.000000; 1.000000; 1.000000; 1.000000;,
       27; 1.000000; 1.000000; 1.000000; 1.000000;,
       28; 1.000000; 1.000000; 1.000000; 1.000000;,
       29; 1.000000; 1.000000; 1.000000; 1.000000;,
       30; 1.000000; 1.000000; 1.000000; 1.000000;,
       31; 1.000000; 1.000000; 1.000000; 1.000000;,
       32; 1.000000; 1.000000; 1.000000; 1.000000;,
       33; 1.000000; 1.000000; 1.000000; 1.000000;,
       34; 1.000000; 1.000000; 1.000000; 1.000000;,
       35; 1.000000; 1.000000; 1.000000; 1.000000;,
       36; 1.000000; 1.000000; 1.000000; 1.000000;,
       37; 1.000000; 1.000000; 1.000000; 1.000000;,
       38; 1.000000; 1.000000; 1.000000; 1.000000;,
       39; 1.000000; 1.000000; 1.000000; 1.000000;;
      }

      MeshMaterialList {
       1;
       76;
       0,
       0,
       0,
       0,
       0,
       0,
       0,
       0,
       0,
       0,
       0,
       0,
       0,
       0,
       0,
       0,
       0,
       0,
       0,
       0,
       0,
       0,
       0,
       0,
       0,
       0,
       0,
       0,
       0,
       0,
       0,
       0,
       0,
       0,
       0,
       0,
       0,
       0,
       0,
       0,
       0,
       0,
       0,
       0,
       0,
       0,
       0,
       0,
       0,
       0,
       0,
       0,
       0,
       0,
       0,
       0,
       0,
       0,
       0,
       0,
       0,
       0,
       0,
       0,
       0,
       0,
       0,
       0,
       0,
       0,
       0,
       0,
       0,
       0,
       0,
       0;

       Material def_surf_mat {
        0.992157; 0.992157; 0.992157; 1.000000;;
        1.000000;
        0.150000; 0.150000; 0.150000;;
        0.000000; 0.000000; 0.000000;;

        TextureFilename {
         "smoked_meat.dds";
        }
       }

      }

      XSkinMeshHeader {
       1;
       1;
       1;
      }

      SkinWeights {
       "Body";
       40;
       0,
       1,
       2,
       3,
       4,
       5,
       6,
       7,
       8,
       9,
       10,
       11,
       12,
       13,
       14,
       15,
       16,
       17,
       18,
       19,
       20,
       21,
       22,
       23,
       24,
       25,
       26,
       27,
       28,
       29,
       30,
       31,
       32,
       33,
       34,
       35,
       36,
       37,
       38,
       39;
       1.000000,
       1.000000,
       1.000000,
       1.000000,
       1.000000,
       1.000000,
       1.000000,
       1.000000,
       1.000000,
       1.000000,
       1.000000,
       1.000000,
       1.000000,
       1.000000,
       1.000000,
       1.000000,
       1.000000,
       1.000000,
       1.000000,
       1.000000,
       1.000000,
       1.000000,
       1.000000,
       1.000000,
       1.000000,
       1.000000,
       1.000000,
       1.000000,
       1.000000,
       1.000000,
       1.000000,
       1.000000,
       1.000000,
       1.000000,
       1.000000,
       1.000000,
       1.000000,
       1.000000,
       1.000000,
       1.000000;
          1.000000, -0.000000, 0.000000, 0.000000,
          -0.000000, 1.000000, -0.000000, 0.000000,
          0.000000, -0.000000, 1.000000, 0.000000,
          -0.000000, -0.000000, -0.000000, 1.000000;;
      }


     }
   }

// Start of Animation

AnimationSet Untitled {
}
