# Wavefront OBJ file
# Creator: Ultimate Unwrap3D Pro v3.19
# Website: http://www.unwrap3d.com
# Time: Thu Dec 10 22:03:46 2009
# num_vertices: 48
# num_vertex_normals: 48
# num_uvs: 180
# num_faces: 60
# num_groups: 1

mtllib stove_plate.mtl

v 12.351801 0.671600 -5.116251
v 13.369499 0.671600 -0.000048
v 12.351801 0.000000 -5.116251
v 13.369499 0.000000 -0.000048
v 9.453699 0.671600 -9.453650
v 9.453699 0.000000 -9.453650
v 5.116280 0.671600 -12.351751
v 5.116280 0.000000 -12.351751
v 0.000000 0.671600 -13.369452
v 0.000000 0.000000 -13.369452
v -5.116280 0.671600 -12.351751
v -5.116280 0.000000 -12.351751
v -9.453659 0.671600 -9.453650
v -9.453659 0.000000 -9.453650
v -12.351799 0.671600 -5.116251
v -12.351799 0.000000 -5.116251
v -13.369499 0.671600 -0.000048
v -13.369499 0.000000 -0.000048
v -12.351789 0.671600 5.116247
v -12.351789 0.000000 5.116247
v -9.453650 0.671600 9.453650
v -9.453650 0.000000 9.453650
v -5.116280 0.671600 12.351751
v -5.116280 0.000000 12.351751
v 0.000000 0.671600 13.369452
v 0.000000 0.000000 13.369452
v 5.116280 0.671600 12.351751
v 5.116280 0.000000 12.351751
v 9.453699 0.671600 9.453650
v 9.453699 0.000000 9.453650
v 12.351801 0.671600 5.116247
v 12.351801 0.000000 5.116247
v 13.369499 0.000000 -0.000048
v 12.351801 0.000000 5.116247
v 12.351801 0.000000 -5.116251
v 9.453699 0.000000 9.453650
v 9.453699 0.000000 -9.453650
v 5.116280 0.000000 12.351751
v 5.116280 0.000000 -12.351751
v 0.000000 0.000000 13.369452
v 0.000000 0.000000 -13.369452
v -5.116280 0.000000 12.351751
v -5.116280 0.000000 -12.351751
v -9.453650 0.000000 9.453650
v -9.453659 0.000000 -9.453650
v -12.351789 0.000000 5.116247
v -12.351799 0.000000 -5.116251
v -13.369499 0.000000 -0.000048
# num_vertices: 48

vn 0.628472 0.713164 -0.310516
vn 0.825790 0.561313 -0.054755
vn 0.947173 0.000000 -0.320722
vn 0.997809 0.000000 0.066158
vn 0.461797 0.713165 -0.527389
vn 0.752340 0.000000 -0.658774
vn 0.224824 0.713164 -0.663966
vn 0.442962 0.000000 -0.896541
vn -0.046378 0.713164 -0.699461
vn 0.066159 0.000000 -0.997809
vn -0.310517 0.713164 -0.628471
vn -0.320721 0.000000 -0.947174
vn -0.527387 0.713165 -0.461800
vn -0.658773 0.000000 -0.752341
vn -0.896998 0.321155 -0.303734
vn -0.896538 0.000000 -0.442967
vn -0.825790 0.561313 0.054754
vn -0.997809 0.000000 -0.066161
vn -0.628471 0.713164 0.310518
vn -0.947173 0.000000 0.320723
vn -0.461798 0.713165 0.527388
vn -0.752339 0.000000 0.658776
vn -0.224825 0.713164 0.663966
vn -0.442965 0.000000 0.896539
vn 0.046378 0.713164 0.699461
vn -0.066159 0.000000 0.997809
vn 0.310515 0.713164 0.628472
vn 0.320720 0.000000 0.947174
vn 0.527388 0.713165 0.461798
vn 0.658773 0.000000 0.752342
vn 0.896999 0.321155 0.303730
vn 0.896540 0.000000 0.442962
vn 0.000000 -1.000000 0.000000
vn 0.000000 -1.000000 0.000000
vn 0.000000 -1.000000 0.000000
vn 0.000000 -1.000000 0.000000
vn 0.000000 -1.000000 0.000000
vn 0.000000 -1.000000 0.000000
vn 0.000000 -1.000000 0.000000
vn 0.000000 -1.000000 0.000000
vn 0.000000 -1.000000 0.000000
vn 0.000000 -1.000000 0.000000
vn 0.000000 -1.000000 0.000000
vn 0.000000 -1.000000 0.000000
vn 0.000000 -1.000000 0.000000
vn 0.000000 -1.000000 0.000000
vn 0.000000 -1.000000 0.000000
vn 0.000000 -1.000000 0.000000
# num_vertex_normals: 48

vt 0.408774 0.305703
vt 0.399563 0.343116
vt 0.403098 0.303622
vt 0.399563 0.343116
vt 0.389530 0.343116
vt 0.403098 0.303622
vt 0.435044 0.274172
vt 0.408774 0.305703
vt 0.430750 0.270692
vt 0.408774 0.305703
vt 0.403098 0.303622
vt 0.430750 0.270692
vt 0.474323 0.253069
vt 0.435044 0.274172
vt 0.471990 0.248530
vt 0.435044 0.274172
vt 0.430750 0.270692
vt 0.471990 0.248530
vt 0.520655 0.245659
vt 0.474323 0.253069
vt 0.520656 0.240745
vt 0.474323 0.253069
vt 0.471990 0.248530
vt 0.520656 0.240745
vt 0.566986 0.253081
vt 0.520655 0.245659
vt 0.569323 0.248541
vt 0.520655 0.245659
vt 0.520656 0.240745
vt 0.569323 0.248541
vt 0.606264 0.274207
vt 0.566986 0.253081
vt 0.610582 0.270733
vt 0.566986 0.253081
vt 0.569323 0.248541
vt 0.610582 0.270733
vt 0.632509 0.305824
vt 0.606264 0.274207
vt 0.638150 0.303943
vt 0.606264 0.274207
vt 0.610582 0.270733
vt 0.638150 0.303943
vt 0.641725 0.343116
vt 0.632509 0.305824
vt 0.647830 0.343116
vt 0.632509 0.305824
vt 0.638150 0.303943
vt 0.647830 0.343116
vt 0.632508 0.380410
vt 0.641725 0.343116
vt 0.638149 0.382290
vt 0.641725 0.343116
vt 0.647830 0.343116
vt 0.638149 0.382290
vt 0.606264 0.412026
vt 0.632508 0.380410
vt 0.610581 0.415501
vt 0.632508 0.380410
vt 0.638149 0.382290
vt 0.610581 0.415501
vt 0.566986 0.433152
vt 0.606264 0.412026
vt 0.569323 0.437692
vt 0.606264 0.412026
vt 0.610581 0.415501
vt 0.569323 0.437692
vt 0.520654 0.440574
vt 0.566986 0.433152
vt 0.520655 0.445488
vt 0.566986 0.433152
vt 0.569323 0.437692
vt 0.520655 0.445488
vt 0.474323 0.433164
vt 0.520654 0.440574
vt 0.471989 0.437703
vt 0.520654 0.440574
vt 0.520655 0.445488
vt 0.471989 0.437703
vt 0.435044 0.412061
vt 0.474323 0.433164
vt 0.430750 0.415541
vt 0.474323 0.433164
vt 0.471989 0.437703
vt 0.430750 0.415541
vt 0.408774 0.380530
vt 0.435044 0.412061
vt 0.403098 0.382611
vt 0.435044 0.412061
vt 0.430750 0.415541
vt 0.403098 0.382611
vt 0.399563 0.343116
vt 0.408774 0.380530
vt 0.389530 0.343116
vt 0.408774 0.380530
vt 0.403098 0.382611
vt 0.389530 0.343116
vt 0.251990 0.339603
vt 0.245048 0.309601
vt 0.245048 0.369605
vt 0.245048 0.309601
vt 0.225278 0.284166
vt 0.245048 0.369605
vt 0.245048 0.369605
vt 0.225278 0.284166
vt 0.225278 0.395040
vt 0.225278 0.284166
vt 0.195691 0.267171
vt 0.225278 0.395040
vt 0.225278 0.395040
vt 0.195691 0.267171
vt 0.195691 0.412035
vt 0.195691 0.267171
vt 0.160790 0.261203
vt 0.195691 0.412035
vt 0.195691 0.412035
vt 0.160790 0.261203
vt 0.160790 0.418003
vt 0.160790 0.261203
vt 0.125889 0.267171
vt 0.160790 0.418003
vt 0.160790 0.418003
vt 0.125889 0.267171
vt 0.125889 0.412035
vt 0.125889 0.267171
vt 0.096302 0.284166
vt 0.125889 0.412035
vt 0.125889 0.412035
vt 0.096302 0.284166
vt 0.096302 0.395040
vt 0.096302 0.284166
vt 0.076532 0.309601
vt 0.096302 0.395040
vt 0.096302 0.395040
vt 0.076532 0.309601
vt 0.076532 0.369605
vt 0.076532 0.309601
vt 0.069590 0.339603
vt 0.076532 0.369605
vt 0.408774 0.380530
vt 0.399563 0.343116
vt 0.435044 0.412061
vt 0.399563 0.343116
vt 0.408774 0.305703
vt 0.435044 0.412061
vt 0.435044 0.412061
vt 0.408774 0.305703
vt 0.474323 0.433164
vt 0.408774 0.305703
vt 0.435044 0.274172
vt 0.474323 0.433164
vt 0.474323 0.433164
vt 0.435044 0.274172
vt 0.520654 0.440574
vt 0.435044 0.274172
vt 0.474323 0.253069
vt 0.520654 0.440574
vt 0.520654 0.440574
vt 0.474323 0.253069
vt 0.566986 0.433152
vt 0.474323 0.253069
vt 0.520655 0.245659
vt 0.566986 0.433152
vt 0.566986 0.433152
vt 0.520655 0.245659
vt 0.606264 0.412026
vt 0.520655 0.245659
vt 0.566986 0.253081
vt 0.606264 0.412026
vt 0.606264 0.412026
vt 0.566986 0.253081
vt 0.632508 0.380410
vt 0.566986 0.253081
vt 0.606264 0.274207
vt 0.632508 0.380410
vt 0.632508 0.380410
vt 0.606264 0.274207
vt 0.641725 0.343116
vt 0.606264 0.274207
vt 0.632509 0.305824
vt 0.641725 0.343116
# num_uvs: 180

g def_surf_mat
s 1

usemtl def_surf_mat
f 1/1/1 2/2/2 3/3/3 
f 2/4/2 4/5/4 3/6/3 
f 5/7/5 1/8/1 6/9/6 
f 1/10/1 3/11/3 6/12/6 
f 7/13/7 5/14/5 8/15/8 
f 5/16/5 6/17/6 8/18/8 
f 9/19/9 7/20/7 10/21/10 
f 7/22/7 8/23/8 10/24/10 
f 11/25/11 9/26/9 12/27/12 
f 9/28/9 10/29/10 12/30/12 
f 13/31/13 11/32/11 14/33/14 
f 11/34/11 12/35/12 14/36/14 
f 15/37/15 13/38/13 16/39/16 
f 13/40/13 14/41/14 16/42/16 
f 17/43/17 15/44/15 18/45/18 
f 15/46/15 16/47/16 18/48/18 
f 19/49/19 17/50/17 20/51/20 
f 17/52/17 18/53/18 20/54/20 
f 21/55/21 19/56/19 22/57/22 
f 19/58/19 20/59/20 22/60/22 
f 23/61/23 21/62/21 24/63/24 
f 21/64/21 22/65/22 24/66/24 
f 25/67/25 23/68/23 26/69/26 
f 23/70/23 24/71/24 26/72/26 
f 27/73/27 25/74/25 28/75/28 
f 25/76/25 26/77/26 28/78/28 
f 29/79/29 27/80/27 30/81/30 
f 27/82/27 28/83/28 30/84/30 
f 31/85/31 29/86/29 32/87/32 
f 29/88/29 30/89/30 32/90/32 
f 2/91/2 31/92/31 4/93/4 
f 31/94/31 32/95/32 4/96/4 
f 33/97/33 34/98/34 35/99/35 
f 34/100/34 36/101/36 35/102/35 
f 35/103/35 36/104/36 37/105/37 
f 36/106/36 38/107/38 37/108/37 
f 37/109/37 38/110/38 39/111/39 
f 38/112/38 40/113/40 39/114/39 
f 39/115/39 40/116/40 41/117/41 
f 40/118/40 42/119/42 41/120/41 
f 41/121/41 42/122/42 43/123/43 
f 42/124/42 44/125/44 43/126/43 
f 43/127/43 44/128/44 45/129/45 
f 44/130/44 46/131/46 45/132/45 
f 45/133/45 46/134/46 47/135/47 
f 46/136/46 48/137/48 47/138/47 
f 31/139/31 2/140/2 29/141/29 
f 2/142/2 1/143/1 29/144/29 
f 29/145/29 1/146/1 27/147/27 
f 1/148/1 5/149/5 27/150/27 
f 27/151/27 5/152/5 25/153/25 
f 5/154/5 7/155/7 25/156/25 
f 25/157/25 7/158/7 23/159/23 
f 7/160/7 9/161/9 23/162/23 
f 23/163/23 9/164/9 21/165/21 
f 9/166/9 11/167/11 21/168/21 
f 21/169/21 11/170/11 19/171/19 
f 11/172/11 13/173/13 19/174/19 
f 19/175/19 13/176/13 17/177/17 
f 13/178/13 15/179/15 17/180/17 
# num_faces: 60

