xof 0303txt 0032

// DirectX 9.0 file
// Creator: Ultimate Unwrap3D Pro v3.19
// Website: http://www.unwrap3d.com
// Time: Thu Dec 10 22:04:42 2009

// Start of Templates

template VertexDuplicationIndices {
 <b8d65549-d7c9-4995-89cf-53a9a8b031e3>
 DWORD nIndices;
 DWORD nOriginalVertices;
 array DWORD indices[nIndices];
}

template FVFData {
 <b6e70a0e-8ef9-4e83-94ad-ecc8b0c04897>
 DWORD dwFVF;
 DWORD nDWords;
 array DWORD data[nDWords];
}

template Header {
 <3D82AB43-62DA-11cf-AB39-0020AF71E433>
 WORD major;
 WORD minor;
 DWORD flags;
}

template Vector {
 <3D82AB5E-62DA-11cf-AB39-0020AF71E433>
 FLOAT x;
 FLOAT y;
 FLOAT z;
}

template Coords2d {
 <F6F23F44-7686-11cf-8F52-0040333594A3>
 FLOAT u;
 FLOAT v;
}

template Matrix4x4 {
 <F6F23F45-7686-11cf-8F52-0040333594A3>
 array FLOAT matrix[16];
}

template ColorRGBA {
 <35FF44E0-6C7C-11cf-8F52-0040333594A3>
 FLOAT red;
 FLOAT green;
 FLOAT blue;
 FLOAT alpha;
}

template ColorRGB {
 <D3E16E81-7835-11cf-8F52-0040333594A3>
 FLOAT red;
 FLOAT green;
 FLOAT blue;
}

template IndexedColor {
 <1630B820-7842-11cf-8F52-0040333594A3>
 DWORD index;
 ColorRGBA indexColor;
}

template Material {
 <3D82AB4D-62DA-11cf-AB39-0020AF71E433>
 ColorRGBA faceColor;
 FLOAT power;
 ColorRGB specularColor;
 ColorRGB emissiveColor;
 [...]
}

template TextureFilename {
 <A42790E1-7810-11cf-8F52-0040333594A3>
 STRING filename;
}

template MeshFace {
 <3D82AB5F-62DA-11cf-AB39-0020AF71E433>
 DWORD nFaceVertexIndices;
 array DWORD faceVertexIndices[nFaceVertexIndices];
}

template MeshTextureCoords {
 <F6F23F40-7686-11cf-8F52-0040333594A3>
 DWORD nTextureCoords;
 array Coords2d textureCoords[nTextureCoords];
}

template MeshMaterialList {
 <F6F23F42-7686-11cf-8F52-0040333594A3>
 DWORD nMaterials;
 DWORD nFaceIndexes;
 array DWORD faceIndexes[nFaceIndexes];
 [Material]
}

template MeshNormals {
 <F6F23F43-7686-11cf-8F52-0040333594A3>
 DWORD nNormals;
 array Vector normals[nNormals];
 DWORD nFaceNormals;
 array MeshFace faceNormals[nFaceNormals];
}

template MeshVertexColors {
 <1630B821-7842-11cf-8F52-0040333594A3>
 DWORD nVertexColors;
 array IndexedColor vertexColors[nVertexColors];
}

template Mesh {
 <3D82AB44-62DA-11cf-AB39-0020AF71E433>
 DWORD nVertices;
 array Vector vertices[nVertices];
 DWORD nFaces;
 array MeshFace faces[nFaces];
 [...]
}

template FrameTransformMatrix {
 <F6F23F41-7686-11cf-8F52-0040333594A3>
 Matrix4x4 frameMatrix;
}

template Frame {
 <3D82AB46-62DA-11cf-AB39-0020AF71E433>
 [...]
}

template FloatKeys {
 <10DD46A9-775B-11cf-8F52-0040333594A3>
 DWORD nValues;
 array FLOAT values[nValues];
}

template TimedFloatKeys {
 <F406B180-7B3B-11cf-8F52-0040333594A3>
 DWORD time;
 FloatKeys tfkeys;
}

template AnimationKey {
 <10DD46A8-775B-11cf-8F52-0040333594A3>
 DWORD keyType;
 DWORD nKeys;
 array TimedFloatKeys keys[nKeys];
}

template AnimationOptions {
 <E2BF56C0-840F-11cf-8F52-0040333594A3>
 DWORD openclosed;
 DWORD positionquality;
}

template Animation {
 <3D82AB4F-62DA-11cf-AB39-0020AF71E433>
 [...]
}

template AnimationSet {
 <3D82AB50-62DA-11cf-AB39-0020AF71E433>
 [Animation]
}

template XSkinMeshHeader {
 <3CF169CE-FF7C-44ab-93C0-F78F62D172E2>
 WORD nMaxSkinWeightsPerVertex;
 WORD nMaxSkinWeightsPerFace;
 WORD nBones;
}

template SkinWeights {
 <6F0D123B-BAD2-4167-A0D0-80224F25FABB>
 STRING transformNodeName;
 DWORD nWeights;
 array DWORD vertexIndices[nWeights];
 array FLOAT weights[nWeights];
 Matrix4x4 matrixOffset;
}

template AnimTicksPerSecond {
 <9E415A43-7BA6-4a73-8743-B73D47E88476>
 DWORD AnimTicksPerSecond;
}

AnimTicksPerSecond {
 30;
}

// Start of Frames

   Frame Body {
      FrameTransformMatrix {
       1.000000, 0.000000, 0.000000, 0.000000,
       0.000000, 1.000000, 0.000000, 0.000000,
       0.000000, 0.000000, 1.000000, 0.000000,
       0.000000, 0.000000, 0.000000, 1.000000;;
      }

   }
   Frame def_surf_mat {
      FrameTransformMatrix {
       1.000000, 0.000000, 0.000000, 0.000000,
       0.000000, 1.000000, 0.000000, 0.000000,
       0.000000, 0.000000, 1.000000, 0.000000,
       0.000000, 0.000000, 0.000000, 1.000000;;
      }

   }

   Frame Body0 {
      FrameTransformMatrix {
       1.000000, 0.000000, 0.000000, 0.000000,
       0.000000, 1.000000, 0.000000, 0.000000,
       0.000000, 0.000000, 1.000000, 0.000000,
       0.000000, 0.000000, 0.000000, 1.000000;;
      }

      Mesh skinnedMesh {
       134;
       1.287222; 3.366001; -2.270149;,
       1.381672; 3.430599; -2.245552;,
       0.000012; 3.424801; -2.230247;,
       0.877412; 3.239799; -2.103653;,
       1.287222; 3.366001; -2.270149;,
       0.000012; 3.424801; -2.230247;,
       0.474862; 3.203201; -2.117653;,
       0.000012; 3.190399; -2.122551;,
       -0.474828; 3.203201; -2.117653;,
       -0.877388; 3.239799; -2.103653;,
       -1.146368; 3.294502; -2.082748;,
       -1.240828; 3.359100; -2.058151;,
       -1.146368; 3.030602; -2.183449;,
       -1.240828; 3.359100; -2.058151;,
       -0.877388; 2.726601; -2.299454;,
       -0.474828; 2.523502; -2.376953;,
       0.000012; 2.452202; -2.404152;,
       0.474862; 2.523502; -2.376953;,
       0.877412; 2.726601; -2.299454;,
       1.287222; 3.102100; -2.370850;,
       2.259072; 3.124302; -1.800949;,
       1.381672; 3.430599; -2.245552;,
       2.433582; 3.243603; -1.755447;,
       1.762052; 2.902599; -1.885551;,
       0.877412; 2.763500; -1.723953;,
       0.000012; 2.739799; -1.733047;,
       -0.877388; 2.763500; -1.723953;,
       -1.621208; 2.831100; -1.698151;,
       -2.118228; 3.052799; -1.613548;,
       -2.292748; 3.172100; -1.568054;,
       -2.118228; 2.539600; -1.809349;,
       -2.292748; 3.172100; -1.568054;,
       -1.621208; 1.978001; -2.023651;,
       -0.877388; 1.602699; -2.166847;,
       0.000012; 1.470901; -2.217148;,
       0.877412; 1.602699; -2.166847;,
       1.762052; 2.049500; -2.211052;,
       2.259072; 2.611099; -1.996750;,
       2.433582; 3.243603; -1.755447;,
       2.767593; 2.736301; -0.894051;,
       2.995635; 2.892200; -0.834549;,
       2.118232; 2.483601; -0.990448;,
       1.146372; 2.395302; -1.024147;,
       0.000012; 2.364300; -1.035950;,
       -1.146368; 2.395302; -1.024147;,
       -2.118228; 2.483601; -0.990448;,
       -2.767588; 2.736301; -0.894051;,
       -2.995628; 2.892200; -0.834549;,
       -2.767588; 2.056702; -1.153351;,
       -2.995628; 2.892200; -0.834549;,
       -2.118228; 1.322800; -1.433350;,
       -1.146368; 0.832500; -1.620453;,
       0.000012; 0.660301; -1.686150;,
       1.146372; 0.832500; -1.620453;,
       2.118232; 1.322800; -1.433350;,
       2.767593; 2.056702; -1.153351;,
       2.995635; 2.892200; -0.834549;,
       2.995635; 2.393402; -0.033653;,
       3.242438; 2.562099; 0.030647;,
       2.292752; 2.129700; -0.134247;,
       1.240832; 2.034203; -0.170753;,
       0.000012; 2.000603; -0.183548;,
       -1.240828; 2.034203; -0.170753;,
       -2.292748; 2.129700; -0.134247;,
       -2.995628; 2.393402; -0.033653;,
       -3.242438; 2.562099; 0.030647;,
       -2.995628; 1.655201; -0.315353;,
       -3.242438; 2.562099; 0.030647;,
       -2.292748; 0.860901; -0.618347;,
       -1.240828; 0.330200; -0.820953;,
       0.000012; 0.143803; -0.892052;,
       1.240832; 0.330200; -0.820953;,
       2.292752; 0.860901; -0.618347;,
       2.995635; 1.655201; -0.315353;,
       3.242438; 2.562099; 0.030647;,
       2.767593; 2.076099; 0.836449;,
       2.995635; 2.231899; 0.895950;,
       2.118232; 1.823299; 0.740051;,
       1.146372; 1.735001; 0.706352;,
       0.000012; 1.704002; 0.694450;,
       -1.146368; 1.735001; 0.706352;,
       -2.118228; 1.823299; 0.740051;,
       -2.767588; 2.076099; 0.836449;,
       -2.995628; 2.231899; 0.895950;,
       -2.767588; 1.396400; 0.577148;,
       -2.995628; 2.231899; 0.895950;,
       -2.118228; 0.662601; 0.297150;,
       -1.146368; 0.172199; 0.110046;,
       0.000012; 0.000000; 0.044350;,
       1.146372; 0.172199; 0.110046;,
       2.118232; 0.662601; 0.297150;,
       2.767593; 1.396400; 0.577148;,
       2.995635; 2.231899; 0.895950;,
       2.461592; 1.724201; 1.868446;,
       2.636132; 1.843502; 1.914047;,
       1.964592; 1.502399; 1.783852;,
       1.220772; 1.434902; 1.758148;,
       0.000012; 1.519699; 1.464447;,
       -0.877388; 1.543400; 1.473549;,
       -1.621208; 1.611000; 1.499352;,
       -2.118228; 1.832802; 1.583946;,
       -2.292748; 1.952103; 1.629448;,
       -2.118228; 1.319599; 1.388153;,
       -2.292748; 1.952103; 1.629448;,
       -1.621208; 0.757900; 1.173851;,
       -0.877388; 0.382702; 1.030647;,
       0.000012; 0.250900; 0.980347;,
       1.220772; 0.274101; 1.315247;,
       1.964592; 0.649403; 1.458351;,
       2.461592; 1.211002; 1.672646;,
       2.636132; 1.843502; 1.914047;,
       1.489752; 1.591900; 2.379448;,
       1.584192; 1.656502; 2.404152;,
       1.220772; 1.537201; 2.358650;,
       0.818212; 1.500603; 2.344650;,
       0.040542; 1.596302; 2.055351;,
       -0.434298; 1.609100; 2.060249;,
       -0.836858; 1.645702; 2.074150;,
       -1.105828; 1.700401; 2.095047;,
       -1.240828; 1.765102; 2.119553;,
       -1.105828; 1.436501; 1.994347;,
       -1.240828; 1.765102; 2.119553;,
       -0.836858; 1.132500; 1.878349;,
       -0.434298; 0.929401; 1.800850;,
       0.040542; 0.858101; 1.773651;,
       0.818212; 0.820900; 2.085350;,
       1.220772; 1.024002; 2.162849;,
       1.489752; 1.327999; 2.278748;,
       1.584192; 1.656502; 2.404152;,
       0.040542; 1.699303; 2.291847;,
       1.220772; 1.537201; 2.358650;,
       0.040542; 1.699303; 2.291847;,
       1.489752; 1.591900; 2.379448;,
       0.818212; 1.500603; 2.344650;;
       224;
       3;0, 1, 2;,
       3;3, 4, 5;,
       3;6, 3, 5;,
       3;7, 6, 5;,
       3;8, 7, 5;,
       3;9, 8, 5;,
       3;10, 9, 5;,
       3;11, 10, 5;,
       3;12, 13, 2;,
       3;14, 12, 2;,
       3;15, 14, 2;,
       3;16, 15, 2;,
       3;17, 16, 2;,
       3;18, 17, 2;,
       3;19, 18, 2;,
       3;1, 19, 2;,
       3;20, 21, 4;,
       3;20, 22, 21;,
       3;23, 4, 3;,
       3;23, 20, 4;,
       3;24, 3, 6;,
       3;24, 23, 3;,
       3;25, 6, 7;,
       3;25, 24, 6;,
       3;26, 7, 8;,
       3;26, 25, 7;,
       3;27, 8, 9;,
       3;27, 26, 8;,
       3;28, 9, 10;,
       3;28, 27, 9;,
       3;29, 10, 11;,
       3;29, 28, 10;,
       3;30, 13, 12;,
       3;30, 31, 13;,
       3;32, 12, 14;,
       3;32, 30, 12;,
       3;33, 14, 15;,
       3;33, 32, 14;,
       3;34, 15, 16;,
       3;34, 33, 15;,
       3;35, 16, 17;,
       3;35, 34, 16;,
       3;36, 17, 18;,
       3;36, 35, 17;,
       3;37, 18, 19;,
       3;37, 36, 18;,
       3;38, 19, 1;,
       3;38, 37, 19;,
       3;39, 22, 20;,
       3;39, 40, 22;,
       3;41, 20, 23;,
       3;41, 39, 20;,
       3;42, 23, 24;,
       3;42, 41, 23;,
       3;43, 24, 25;,
       3;43, 42, 24;,
       3;44, 25, 26;,
       3;44, 43, 25;,
       3;45, 26, 27;,
       3;45, 44, 26;,
       3;46, 27, 28;,
       3;46, 45, 27;,
       3;47, 28, 29;,
       3;47, 46, 28;,
       3;48, 31, 30;,
       3;48, 49, 31;,
       3;50, 30, 32;,
       3;50, 48, 30;,
       3;51, 32, 33;,
       3;51, 50, 32;,
       3;52, 33, 34;,
       3;52, 51, 33;,
       3;53, 34, 35;,
       3;53, 52, 34;,
       3;54, 35, 36;,
       3;54, 53, 35;,
       3;55, 36, 37;,
       3;55, 54, 36;,
       3;56, 37, 38;,
       3;56, 55, 37;,
       3;57, 40, 39;,
       3;57, 58, 40;,
       3;59, 39, 41;,
       3;59, 57, 39;,
       3;60, 41, 42;,
       3;60, 59, 41;,
       3;61, 42, 43;,
       3;61, 60, 42;,
       3;62, 43, 44;,
       3;62, 61, 43;,
       3;63, 44, 45;,
       3;63, 62, 44;,
       3;64, 45, 46;,
       3;64, 63, 45;,
       3;65, 46, 47;,
       3;65, 64, 46;,
       3;66, 49, 48;,
       3;66, 67, 49;,
       3;68, 48, 50;,
       3;68, 66, 48;,
       3;69, 50, 51;,
       3;69, 68, 50;,
       3;70, 51, 52;,
       3;70, 69, 51;,
       3;71, 52, 53;,
       3;71, 70, 52;,
       3;72, 53, 54;,
       3;72, 71, 53;,
       3;73, 54, 55;,
       3;73, 72, 54;,
       3;74, 55, 56;,
       3;74, 73, 55;,
       3;75, 58, 57;,
       3;75, 76, 58;,
       3;77, 57, 59;,
       3;77, 75, 57;,
       3;78, 59, 60;,
       3;78, 77, 59;,
       3;79, 60, 61;,
       3;79, 78, 60;,
       3;80, 61, 62;,
       3;80, 79, 61;,
       3;81, 62, 63;,
       3;81, 80, 62;,
       3;82, 63, 64;,
       3;82, 81, 63;,
       3;83, 64, 65;,
       3;83, 82, 64;,
       3;84, 67, 66;,
       3;84, 85, 67;,
       3;86, 66, 68;,
       3;86, 84, 66;,
       3;87, 68, 69;,
       3;87, 86, 68;,
       3;88, 69, 70;,
       3;88, 87, 69;,
       3;89, 70, 71;,
       3;89, 88, 70;,
       3;90, 71, 72;,
       3;90, 89, 71;,
       3;91, 72, 73;,
       3;91, 90, 72;,
       3;92, 73, 74;,
       3;92, 91, 73;,
       3;93, 76, 75;,
       3;93, 94, 76;,
       3;95, 75, 77;,
       3;95, 93, 75;,
       3;96, 77, 78;,
       3;96, 95, 77;,
       3;97, 78, 79;,
       3;97, 96, 78;,
       3;98, 79, 80;,
       3;98, 97, 79;,
       3;99, 80, 81;,
       3;99, 98, 80;,
       3;100, 81, 82;,
       3;100, 99, 81;,
       3;101, 82, 83;,
       3;101, 100, 82;,
       3;102, 85, 84;,
       3;102, 103, 85;,
       3;104, 84, 86;,
       3;104, 102, 84;,
       3;105, 86, 87;,
       3;105, 104, 86;,
       3;106, 87, 88;,
       3;106, 105, 87;,
       3;107, 88, 89;,
       3;107, 106, 88;,
       3;108, 89, 90;,
       3;108, 107, 89;,
       3;109, 90, 91;,
       3;109, 108, 90;,
       3;110, 91, 92;,
       3;110, 109, 91;,
       3;111, 94, 93;,
       3;111, 112, 94;,
       3;113, 93, 95;,
       3;113, 111, 93;,
       3;114, 95, 96;,
       3;114, 113, 95;,
       3;115, 96, 97;,
       3;115, 114, 96;,
       3;116, 97, 98;,
       3;116, 115, 97;,
       3;117, 98, 99;,
       3;117, 116, 98;,
       3;118, 99, 100;,
       3;118, 117, 99;,
       3;119, 100, 101;,
       3;119, 118, 100;,
       3;120, 103, 102;,
       3;120, 121, 103;,
       3;122, 102, 104;,
       3;122, 120, 102;,
       3;123, 104, 105;,
       3;123, 122, 104;,
       3;124, 105, 106;,
       3;124, 123, 105;,
       3;125, 106, 107;,
       3;125, 124, 106;,
       3;126, 107, 108;,
       3;126, 125, 107;,
       3;127, 108, 109;,
       3;127, 126, 108;,
       3;128, 109, 110;,
       3;128, 127, 109;,
       3;111, 129, 112;,
       3;130, 131, 132;,
       3;133, 131, 130;,
       3;115, 129, 114;,
       3;116, 129, 115;,
       3;117, 129, 116;,
       3;118, 129, 117;,
       3;119, 129, 118;,
       3;120, 131, 121;,
       3;122, 131, 120;,
       3;123, 131, 122;,
       3;124, 131, 123;,
       3;125, 131, 124;,
       3;126, 131, 125;,
       3;127, 131, 126;,
       3;128, 131, 127;;

      MeshNormals {
       134;
       0.011843; -0.370897; 0.928599;,
       0.442356; 0.193552; -0.875705;,
       -0.056978; 0.181857; -0.981673;,
       0.007093; 0.608572; 0.793467;,
       -0.148435; 0.530348; 0.834684;,
       0.045599; 0.332822; 0.941887;,
       -0.044282; 0.543970; 0.837935;,
       0.005151; 0.564758; 0.825240;,
       0.055971; 0.536881; 0.841799;,
       0.153527; 0.433556; 0.887952;,
       0.252426; 0.226473; 0.940740;,
       0.269359; 0.027328; 0.962652;,
       -0.295733; 0.168369; -0.940316;,
       -0.347558; 0.246849; -0.904582;,
       -0.217324; 0.052204; -0.974703;,
       -0.107141; -0.021845; -0.994004;,
       0.017138; -0.042324; -0.998957;,
       0.082308; 0.013095; -0.996521;,
       0.105345; 0.005630; -0.994420;,
       0.196532; 0.076649; -0.977497;,
       -0.425280; 0.509971; 0.747708;,
       -0.380934; 0.214339; 0.899415;,
       -0.516971; 0.487895; 0.703349;,
       -0.132568; 0.733776; 0.666332;,
       -0.029185; 0.770667; 0.636570;,
       0.000551; 0.780053; 0.625713;,
       0.060097; 0.769574; 0.635723;,
       0.228688; 0.653812; 0.721272;,
       0.395939; 0.487956; 0.777902;,
       0.434999; 0.314728; 0.843636;,
       -0.545567; 0.004720; -0.838054;,
       -0.645579; 0.110885; -0.755601;,
       -0.401430; -0.203027; -0.893104;,
       -0.206741; -0.332669; -0.920103;,
       0.007705; -0.374286; -0.927281;,
       0.173985; -0.376559; -0.909908;,
       0.376244; -0.236884; -0.895727;,
       0.583502; -0.072416; -0.808877;,
       0.600694; 0.133200; -0.788305;,
       -0.477117; 0.724514; 0.497432;,
       -0.577234; 0.662010; 0.478062;,
       -0.248257; 0.852716; 0.459613;,
       -0.054988; 0.900178; 0.432036;,
       0.000042; 0.901019; 0.433780;,
       0.062652; 0.896567; 0.438454;,
       0.237776; 0.845195; 0.478653;,
       0.479952; 0.686376; 0.546383;,
       0.549098; 0.570002; 0.611219;,
       -0.784791; -0.216923; -0.580558;,
       -0.890394; -0.071227; -0.449583;,
       -0.564123; -0.496189; -0.659972;,
       -0.286883; -0.657271; -0.696917;,
       0.004490; -0.707968; -0.706230;,
       0.296489; -0.655899; -0.694184;,
       0.570569; -0.543116; -0.616016;,
       0.828789; -0.257742; -0.496666;,
       0.884047; -0.065565; -0.462777;,
       -0.486805; 0.812616; 0.320432;,
       -0.589554; 0.771740; 0.238420;,
       -0.238875; 0.903496; 0.355857;,
       -0.062888; 0.932042; 0.356851;,
       0.000004; 0.934292; 0.356508;,
       0.062883; 0.932849; 0.354738;,
       0.238897; 0.910901; 0.336435;,
       0.486739; 0.819576; 0.302293;,
       0.589629; 0.734352; 0.336252;,
       -0.891348; -0.422610; -0.164007;,
       -0.965517; -0.260240; -0.007288;,
       -0.634337; -0.721191; -0.278388;,
       -0.321283; -0.884134; -0.339242;,
       0.000002; -0.934293; -0.356507;,
       0.321295; -0.885385; -0.335952;,
       0.634320; -0.723360; -0.272743;,
       0.891353; -0.424436; -0.159200;,
       0.965515; -0.198933; -0.167946;,
       -0.492546; 0.853821; 0.168487;,
       -0.580786; 0.805811; 0.115571;,
       -0.240109; 0.934600; 0.262431;,
       -0.057849; 0.955653; 0.288757;,
       -0.000045; 0.960954; 0.276707;,
       0.062562; 0.961450; 0.267767;,
       0.244813; 0.953004; 0.178465;,
       0.466602; 0.883588; 0.039413;,
       0.569613; 0.821275; 0.032368;,
       -0.793235; -0.534818; 0.291113;,
       -0.819678; -0.385961; 0.423276;,
       -0.574666; -0.802386; 0.161045;,
       -0.296499; -0.951605; 0.080849;,
       -0.033042; -0.999167; 0.023958;,
       0.305758; -0.951304; -0.039148;,
       0.607565; -0.794262; 0.003490;,
       0.854594; -0.507756; 0.108874;,
       0.933459; -0.317906; 0.166101;,
       -0.432005; 0.893569; -0.122091;,
       -0.470819; 0.816459; -0.334252;,
       -0.240138; 0.970578; -0.017669;,
       -0.007590; 0.996176; 0.087032;,
       0.025899; 0.997949; 0.058538;,
       0.058620; 0.997707; 0.033833;,
       0.201572; 0.976321; -0.078519;,
       0.395295; 0.878924; -0.266898;,
       0.482810; 0.821826; -0.302484;,
       -0.550835; -0.534184; 0.641271;,
       -0.542555; -0.442169; 0.714227;,
       -0.413397; -0.733063; 0.540112;,
       -0.221452; -0.854960; 0.469044;,
       -0.135558; -0.894871; 0.425240;,
       0.157377; -0.908137; 0.387969;,
       0.465825; -0.787760; 0.403040;,
       0.661511; -0.571489; 0.485596;,
       0.817702; -0.387214; 0.425944;,
       -0.243968; 0.766838; -0.593665;,
       -0.166040; 0.554547; -0.815419;,
       -0.195027; 0.950119; -0.243389;,
       0.055127; 0.980332; -0.189500;,
       0.107694; 0.969997; -0.217962;,
       0.044180; 0.963454; -0.264206;,
       0.103586; 0.929662; -0.353551;,
       0.217405; 0.824216; -0.522879;,
       0.288305; 0.747558; -0.598362;,
       -0.304234; -0.475047; 0.825695;,
       -0.295271; -0.443707; 0.846132;,
       -0.238398; -0.580291; 0.778736;,
       -0.137630; -0.662037; 0.736726;,
       -0.166857; -0.686011; 0.708200;,
       -0.117304; -0.653918; 0.747416;,
       0.155045; -0.550568; 0.820266;,
       0.216008; -0.472006; 0.854722;,
       0.278231; -0.409820; 0.868697;,
       0.116291; 0.757505; -0.642389;,
       0.054133; -0.017310; -0.998384;,
       -0.131798; -0.534888; 0.834580;,
       0.064699; 0.060576; -0.996065;,
       0.043232; -0.095088; -0.994530;;
       224;
       3;0, 1, 2;,
       3;3, 4, 5;,
       3;6, 3, 5;,
       3;7, 6, 5;,
       3;8, 7, 5;,
       3;9, 8, 5;,
       3;10, 9, 5;,
       3;11, 10, 5;,
       3;12, 13, 2;,
       3;14, 12, 2;,
       3;15, 14, 2;,
       3;16, 15, 2;,
       3;17, 16, 2;,
       3;18, 17, 2;,
       3;19, 18, 2;,
       3;1, 19, 2;,
       3;20, 21, 4;,
       3;20, 22, 21;,
       3;23, 4, 3;,
       3;23, 20, 4;,
       3;24, 3, 6;,
       3;24, 23, 3;,
       3;25, 6, 7;,
       3;25, 24, 6;,
       3;26, 7, 8;,
       3;26, 25, 7;,
       3;27, 8, 9;,
       3;27, 26, 8;,
       3;28, 9, 10;,
       3;28, 27, 9;,
       3;29, 10, 11;,
       3;29, 28, 10;,
       3;30, 13, 12;,
       3;30, 31, 13;,
       3;32, 12, 14;,
       3;32, 30, 12;,
       3;33, 14, 15;,
       3;33, 32, 14;,
       3;34, 15, 16;,
       3;34, 33, 15;,
       3;35, 16, 17;,
       3;35, 34, 16;,
       3;36, 17, 18;,
       3;36, 35, 17;,
       3;37, 18, 19;,
       3;37, 36, 18;,
       3;38, 19, 1;,
       3;38, 37, 19;,
       3;39, 22, 20;,
       3;39, 40, 22;,
       3;41, 20, 23;,
       3;41, 39, 20;,
       3;42, 23, 24;,
       3;42, 41, 23;,
       3;43, 24, 25;,
       3;43, 42, 24;,
       3;44, 25, 26;,
       3;44, 43, 25;,
       3;45, 26, 27;,
       3;45, 44, 26;,
       3;46, 27, 28;,
       3;46, 45, 27;,
       3;47, 28, 29;,
       3;47, 46, 28;,
       3;48, 31, 30;,
       3;48, 49, 31;,
       3;50, 30, 32;,
       3;50, 48, 30;,
       3;51, 32, 33;,
       3;51, 50, 32;,
       3;52, 33, 34;,
       3;52, 51, 33;,
       3;53, 34, 35;,
       3;53, 52, 34;,
       3;54, 35, 36;,
       3;54, 53, 35;,
       3;55, 36, 37;,
       3;55, 54, 36;,
       3;56, 37, 38;,
       3;56, 55, 37;,
       3;57, 40, 39;,
       3;57, 58, 40;,
       3;59, 39, 41;,
       3;59, 57, 39;,
       3;60, 41, 42;,
       3;60, 59, 41;,
       3;61, 42, 43;,
       3;61, 60, 42;,
       3;62, 43, 44;,
       3;62, 61, 43;,
       3;63, 44, 45;,
       3;63, 62, 44;,
       3;64, 45, 46;,
       3;64, 63, 45;,
       3;65, 46, 47;,
       3;65, 64, 46;,
       3;66, 49, 48;,
       3;66, 67, 49;,
       3;68, 48, 50;,
       3;68, 66, 48;,
       3;69, 50, 51;,
       3;69, 68, 50;,
       3;70, 51, 52;,
       3;70, 69, 51;,
       3;71, 52, 53;,
       3;71, 70, 52;,
       3;72, 53, 54;,
       3;72, 71, 53;,
       3;73, 54, 55;,
       3;73, 72, 54;,
       3;74, 55, 56;,
       3;74, 73, 55;,
       3;75, 58, 57;,
       3;75, 76, 58;,
       3;77, 57, 59;,
       3;77, 75, 57;,
       3;78, 59, 60;,
       3;78, 77, 59;,
       3;79, 60, 61;,
       3;79, 78, 60;,
       3;80, 61, 62;,
       3;80, 79, 61;,
       3;81, 62, 63;,
       3;81, 80, 62;,
       3;82, 63, 64;,
       3;82, 81, 63;,
       3;83, 64, 65;,
       3;83, 82, 64;,
       3;84, 67, 66;,
       3;84, 85, 67;,
       3;86, 66, 68;,
       3;86, 84, 66;,
       3;87, 68, 69;,
       3;87, 86, 68;,
       3;88, 69, 70;,
       3;88, 87, 69;,
       3;89, 70, 71;,
       3;89, 88, 70;,
       3;90, 71, 72;,
       3;90, 89, 71;,
       3;91, 72, 73;,
       3;91, 90, 72;,
       3;92, 73, 74;,
       3;92, 91, 73;,
       3;93, 76, 75;,
       3;93, 94, 76;,
       3;95, 75, 77;,
       3;95, 93, 75;,
       3;96, 77, 78;,
       3;96, 95, 77;,
       3;97, 78, 79;,
       3;97, 96, 78;,
       3;98, 79, 80;,
       3;98, 97, 79;,
       3;99, 80, 81;,
       3;99, 98, 80;,
       3;100, 81, 82;,
       3;100, 99, 81;,
       3;101, 82, 83;,
       3;101, 100, 82;,
       3;102, 85, 84;,
       3;102, 103, 85;,
       3;104, 84, 86;,
       3;104, 102, 84;,
       3;105, 86, 87;,
       3;105, 104, 86;,
       3;106, 87, 88;,
       3;106, 105, 87;,
       3;107, 88, 89;,
       3;107, 106, 88;,
       3;108, 89, 90;,
       3;108, 107, 89;,
       3;109, 90, 91;,
       3;109, 108, 90;,
       3;110, 91, 92;,
       3;110, 109, 91;,
       3;111, 94, 93;,
       3;111, 112, 94;,
       3;113, 93, 95;,
       3;113, 111, 93;,
       3;114, 95, 96;,
       3;114, 113, 95;,
       3;115, 96, 97;,
       3;115, 114, 96;,
       3;116, 97, 98;,
       3;116, 115, 97;,
       3;117, 98, 99;,
       3;117, 116, 98;,
       3;118, 99, 100;,
       3;118, 117, 99;,
       3;119, 100, 101;,
       3;119, 118, 100;,
       3;120, 103, 102;,
       3;120, 121, 103;,
       3;122, 102, 104;,
       3;122, 120, 102;,
       3;123, 104, 105;,
       3;123, 122, 104;,
       3;124, 105, 106;,
       3;124, 123, 105;,
       3;125, 106, 107;,
       3;125, 124, 106;,
       3;126, 107, 108;,
       3;126, 125, 107;,
       3;127, 108, 109;,
       3;127, 126, 108;,
       3;128, 109, 110;,
       3;128, 127, 109;,
       3;111, 129, 112;,
       3;130, 131, 132;,
       3;133, 131, 130;,
       3;115, 129, 114;,
       3;116, 129, 115;,
       3;117, 129, 116;,
       3;118, 129, 117;,
       3;119, 129, 118;,
       3;120, 131, 121;,
       3;122, 131, 120;,
       3;123, 131, 122;,
       3;124, 131, 123;,
       3;125, 131, 124;,
       3;126, 131, 125;,
       3;127, 131, 126;,
       3;128, 131, 127;;
      }

      MeshTextureCoords {
       134;
       0.236112; 0.422513;,
       0.240491; 0.422513;,
       0.176418; 0.423317;,
       0.541456; 0.379444;,
       0.557420; 0.370195;,
       0.507278; 0.370950;,
       0.525775; 0.379444;,
       0.507278; 0.379444;,
       0.488780; 0.379444;,
       0.473099; 0.379444;,
       0.462621; 0.379444;,
       0.458941; 0.379444;,
       0.123255; 0.432353;,
       0.118874; 0.432353;,
       0.135729; 0.432353;,
       0.154397; 0.432353;,
       0.176418; 0.432353;,
       0.198438; 0.432353;,
       0.217107; 0.432353;,
       0.236112; 0.422513;,
       0.595278; 0.394380;,
       0.561099; 0.370195;,
       0.602076; 0.394380;,
       0.575917; 0.394380;,
       0.541456; 0.403629;,
       0.507278; 0.403629;,
       0.473099; 0.403629;,
       0.444124; 0.403629;,
       0.424763; 0.403629;,
       0.417964; 0.403629;,
       0.078185; 0.458082;,
       0.070092; 0.458082;,
       0.101234; 0.458082;,
       0.135729; 0.458082;,
       0.176418; 0.458082;,
       0.217107; 0.458082;,
       0.258131; 0.448243;,
       0.281180; 0.448243;,
       0.289273; 0.448243;,
       0.615087; 0.439828;,
       0.623971; 0.439828;,
       0.589792; 0.439828;,
       0.551933; 0.439828;,
       0.507278; 0.439828;,
       0.462621; 0.439828;,
       0.424763; 0.439828;,
       0.399467; 0.439828;,
       0.390584; 0.439828;,
       0.048071; 0.496591;,
       0.037496; 0.496591;,
       0.078185; 0.496591;,
       0.123255; 0.496591;,
       0.176418; 0.496591;,
       0.229579; 0.496591;,
       0.274649; 0.496591;,
       0.304763; 0.496591;,
       0.315338; 0.496591;,
       0.623971; 0.482526;,
       0.633585; 0.482526;,
       0.596590; 0.482526;,
       0.555613; 0.482526;,
       0.507278; 0.482526;,
       0.458941; 0.482526;,
       0.417964; 0.482526;,
       0.390584; 0.482526;,
       0.380970; 0.482526;,
       0.037496; 0.542014;,
       0.026051; 0.542014;,
       0.070092; 0.542014;,
       0.118874; 0.542014;,
       0.176418; 0.542014;,
       0.233960; 0.542014;,
       0.282742; 0.542014;,
       0.315338; 0.542014;,
       0.326784; 0.542014;,
       0.615087; 0.525225;,
       0.623971; 0.525225;,
       0.589792; 0.525225;,
       0.551933; 0.525225;,
       0.507278; 0.525225;,
       0.462621; 0.525225;,
       0.424763; 0.525225;,
       0.399467; 0.525225;,
       0.390584; 0.525225;,
       0.048071; 0.587438;,
       0.037496; 0.587438;,
       0.078185; 0.587438;,
       0.123255; 0.587438;,
       0.176418; 0.587438;,
       0.229579; 0.587438;,
       0.274649; 0.587438;,
       0.304763; 0.587438;,
       0.315338; 0.587438;,
       0.603167; 0.575467;,
       0.609966; 0.575467;,
       0.583807; 0.575467;,
       0.554832; 0.575467;,
       0.507278; 0.561423;,
       0.473099; 0.561423;,
       0.444124; 0.561423;,
       0.424763; 0.561423;,
       0.417964; 0.561423;,
       0.078185; 0.625947;,
       0.070092; 0.625947;,
       0.101234; 0.625947;,
       0.135729; 0.625947;,
       0.176418; 0.625947;,
       0.233030; 0.640887;,
       0.267524; 0.640887;,
       0.290572; 0.640887;,
       0.298666; 0.640887;,
       0.565309; 0.599654;,
       0.568988; 0.599654;,
       0.554832; 0.599654;,
       0.539150; 0.599654;,
       0.508857; 0.585617;,
       0.490359; 0.585617;,
       0.474678; 0.585617;,
       0.464200; 0.585617;,
       0.458941; 0.585610;,
       0.125135; 0.651686;,
       0.118874; 0.651677;,
       0.137608; 0.651686;,
       0.156277; 0.651686;,
       0.178297; 0.651686;,
       0.214361; 0.666618;,
       0.233030; 0.666618;,
       0.245503; 0.666618;,
       0.249883; 0.666618;,
       0.508857; 0.594111;,
       0.233030; 0.666618;,
       0.178297; 0.660721;,
       0.245503; 0.666618;,
       0.214361; 0.666618;;
      }

      MeshVertexColors {
       134;
       0; 1.000000; 1.000000; 1.000000; 1.000000;,
       1; 1.000000; 1.000000; 1.000000; 1.000000;,
       2; 1.000000; 1.000000; 1.000000; 1.000000;,
       3; 1.000000; 1.000000; 1.000000; 1.000000;,
       4; 1.000000; 1.000000; 1.000000; 1.000000;,
       5; 1.000000; 1.000000; 1.000000; 1.000000;,
       6; 1.000000; 1.000000; 1.000000; 1.000000;,
       7; 1.000000; 1.000000; 1.000000; 1.000000;,
       8; 1.000000; 1.000000; 1.000000; 1.000000;,
       9; 1.000000; 1.000000; 1.000000; 1.000000;,
       10; 1.000000; 1.000000; 1.000000; 1.000000;,
       11; 1.000000; 1.000000; 1.000000; 1.000000;,
       12; 1.000000; 1.000000; 1.000000; 1.000000;,
       13; 1.000000; 1.000000; 1.000000; 1.000000;,
       14; 1.000000; 1.000000; 1.000000; 1.000000;,
       15; 1.000000; 1.000000; 1.000000; 1.000000;,
       16; 1.000000; 1.000000; 1.000000; 1.000000;,
       17; 1.000000; 1.000000; 1.000000; 1.000000;,
       18; 1.000000; 1.000000; 1.000000; 1.000000;,
       19; 1.000000; 1.000000; 1.000000; 1.000000;,
       20; 1.000000; 1.000000; 1.000000; 1.000000;,
       21; 1.000000; 1.000000; 1.000000; 1.000000;,
       22; 1.000000; 1.000000; 1.000000; 1.000000;,
       23; 1.000000; 1.000000; 1.000000; 1.000000;,
       24; 1.000000; 1.000000; 1.000000; 1.000000;,
       25; 1.000000; 1.000000; 1.000000; 1.000000;,
       26; 1.000000; 1.000000; 1.000000; 1.000000;,
       27; 1.000000; 1.000000; 1.000000; 1.000000;,
       28; 1.000000; 1.000000; 1.000000; 1.000000;,
       29; 1.000000; 1.000000; 1.000000; 1.000000;,
       30; 1.000000; 1.000000; 1.000000; 1.000000;,
       31; 1.000000; 1.000000; 1.000000; 1.000000;,
       32; 1.000000; 1.000000; 1.000000; 1.000000;,
       33; 1.000000; 1.000000; 1.000000; 1.000000;,
       34; 1.000000; 1.000000; 1.000000; 1.000000;,
       35; 1.000000; 1.000000; 1.000000; 1.000000;,
       36; 1.000000; 1.000000; 1.000000; 1.000000;,
       37; 1.000000; 1.000000; 1.000000; 1.000000;,
       38; 1.000000; 1.000000; 1.000000; 1.000000;,
       39; 1.000000; 1.000000; 1.000000; 1.000000;,
       40; 1.000000; 1.000000; 1.000000; 1.000000;,
       41; 1.000000; 1.000000; 1.000000; 1.000000;,
       42; 1.000000; 1.000000; 1.000000; 1.000000;,
       43; 1.000000; 1.000000; 1.000000; 1.000000;,
       44; 1.000000; 1.000000; 1.000000; 1.000000;,
       45; 1.000000; 1.000000; 1.000000; 1.000000;,
       46; 1.000000; 1.000000; 1.000000; 1.000000;,
       47; 1.000000; 1.000000; 1.000000; 1.000000;,
       48; 1.000000; 1.000000; 1.000000; 1.000000;,
       49; 1.000000; 1.000000; 1.000000; 1.000000;,
       50; 1.000000; 1.000000; 1.000000; 1.000000;,
       51; 1.000000; 1.000000; 1.000000; 1.000000;,
       52; 1.000000; 1.000000; 1.000000; 1.000000;,
       53; 1.000000; 1.000000; 1.000000; 1.000000;,
       54; 1.000000; 1.000000; 1.000000; 1.000000;,
       55; 1.000000; 1.000000; 1.000000; 1.000000;,
       56; 1.000000; 1.000000; 1.000000; 1.000000;,
       57; 1.000000; 1.000000; 1.000000; 1.000000;,
       58; 1.000000; 1.000000; 1.000000; 1.000000;,
       59; 1.000000; 1.000000; 1.000000; 1.000000;,
       60; 1.000000; 1.000000; 1.000000; 1.000000;,
       61; 1.000000; 1.000000; 1.000000; 1.000000;,
       62; 1.000000; 1.000000; 1.000000; 1.000000;,
       63; 1.000000; 1.000000; 1.000000; 1.000000;,
       64; 1.000000; 1.000000; 1.000000; 1.000000;,
       65; 1.000000; 1.000000; 1.000000; 1.000000;,
       66; 1.000000; 1.000000; 1.000000; 1.000000;,
       67; 1.000000; 1.000000; 1.000000; 1.000000;,
       68; 1.000000; 1.000000; 1.000000; 1.000000;,
       69; 1.000000; 1.000000; 1.000000; 1.000000;,
       70; 1.000000; 1.000000; 1.000000; 1.000000;,
       71; 1.000000; 1.000000; 1.000000; 1.000000;,
       72; 1.000000; 1.000000; 1.000000; 1.000000;,
       73; 1.000000; 1.000000; 1.000000; 1.000000;,
       74; 1.000000; 1.000000; 1.000000; 1.000000;,
       75; 1.000000; 1.000000; 1.000000; 1.000000;,
       76; 1.000000; 1.000000; 1.000000; 1.000000;,
       77; 1.000000; 1.000000; 1.000000; 1.000000;,
       78; 1.000000; 1.000000; 1.000000; 1.000000;,
       79; 1.000000; 1.000000; 1.000000; 1.000000;,
       80; 1.000000; 1.000000; 1.000000; 1.000000;,
       81; 1.000000; 1.000000; 1.000000; 1.000000;,
       82; 1.000000; 1.000000; 1.000000; 1.000000;,
       83; 1.000000; 1.000000; 1.000000; 1.000000;,
       84; 1.000000; 1.000000; 1.000000; 1.000000;,
       85; 1.000000; 1.000000; 1.000000; 1.000000;,
       86; 1.000000; 1.000000; 1.000000; 1.000000;,
       87; 1.000000; 1.000000; 1.000000; 1.000000;,
       88; 1.000000; 1.000000; 1.000000; 1.000000;,
       89; 1.000000; 1.000000; 1.000000; 1.000000;,
       90; 1.000000; 1.000000; 1.000000; 1.000000;,
       91; 1.000000; 1.000000; 1.000000; 1.000000;,
       92; 1.000000; 1.000000; 1.000000; 1.000000;,
       93; 1.000000; 1.000000; 1.000000; 1.000000;,
       94; 1.000000; 1.000000; 1.000000; 1.000000;,
       95; 1.000000; 1.000000; 1.000000; 1.000000;,
       96; 1.000000; 1.000000; 1.000000; 1.000000;,
       97; 1.000000; 1.000000; 1.000000; 1.000000;,
       98; 1.000000; 1.000000; 1.000000; 1.000000;,
       99; 1.000000; 1.000000; 1.000000; 1.000000;,
       100; 1.000000; 1.000000; 1.000000; 1.000000;,
       101; 1.000000; 1.000000; 1.000000; 1.000000;,
       102; 1.000000; 1.000000; 1.000000; 1.000000;,
       103; 1.000000; 1.000000; 1.000000; 1.000000;,
       104; 1.000000; 1.000000; 1.000000; 1.000000;,
       105; 1.000000; 1.000000; 1.000000; 1.000000;,
       106; 1.000000; 1.000000; 1.000000; 1.000000;,
       107; 1.000000; 1.000000; 1.000000; 1.000000;,
       108; 1.000000; 1.000000; 1.000000; 1.000000;,
       109; 1.000000; 1.000000; 1.000000; 1.000000;,
       110; 1.000000; 1.000000; 1.000000; 1.000000;,
       111; 1.000000; 1.000000; 1.000000; 1.000000;,
       112; 1.000000; 1.000000; 1.000000; 1.000000;,
       113; 1.000000; 1.000000; 1.000000; 1.000000;,
       114; 1.000000; 1.000000; 1.000000; 1.000000;,
       115; 1.000000; 1.000000; 1.000000; 1.000000;,
       116; 1.000000; 1.000000; 1.000000; 1.000000;,
       117; 1.000000; 1.000000; 1.000000; 1.000000;,
       118; 1.000000; 1.000000; 1.000000; 1.000000;,
       119; 1.000000; 1.000000; 1.000000; 1.000000;,
       120; 1.000000; 1.000000; 1.000000; 1.000000;,
       121; 1.000000; 1.000000; 1.000000; 1.000000;,
       122; 1.000000; 1.000000; 1.000000; 1.000000;,
       123; 1.000000; 1.000000; 1.000000; 1.000000;,
       124; 1.000000; 1.000000; 1.000000; 1.000000;,
       125; 1.000000; 1.000000; 1.000000; 1.000000;,
       126; 1.000000; 1.000000; 1.000000; 1.000000;,
       127; 1.000000; 1.000000; 1.000000; 1.000000;,
       128; 1.000000; 1.000000; 1.000000; 1.000000;,
       129; 1.000000; 1.000000; 1.000000; 1.000000;,
       130; 1.000000; 1.000000; 1.000000; 1.000000;,
       131; 1.000000; 1.000000; 1.000000; 1.000000;,
       132; 1.000000; 1.000000; 1.000000; 1.000000;,
       133; 1.000000; 1.000000; 1.000000; 1.000000;;
      }

      MeshMaterialList {
       1;
       224;
       0,
       0,
       0,
       0,
       0,
       0,
       0,
       0,
       0,
       0,
       0,
       0,
       0,
       0,
       0,
       0,
       0,
       0,
       0,
       0,
       0,
       0,
       0,
       0,
       0,
       0,
       0,
       0,
       0,
       0,
       0,
       0,
       0,
       0,
       0,
       0,
       0,
       0,
       0,
       0,
       0,
       0,
       0,
       0,
       0,
       0,
       0,
       0,
       0,
       0,
       0,
       0,
       0,
       0,
       0,
       0,
       0,
       0,
       0,
       0,
       0,
       0,
       0,
       0,
       0,
       0,
       0,
       0,
       0,
       0,
       0,
       0,
       0,
       0,
       0,
       0,
       0,
       0,
       0,
       0,
       0,
       0,
       0,
       0,
       0,
       0,
       0,
       0,
       0,
       0,
       0,
       0,
       0,
       0,
       0,
       0,
       0,
       0,
       0,
       0,
       0,
       0,
       0,
       0,
       0,
       0,
       0,
       0,
       0,
       0,
       0,
       0,
       0,
       0,
       0,
       0,
       0,
       0,
       0,
       0,
       0,
       0,
       0,
       0,
       0,
       0,
       0,
       0,
       0,
       0,
       0,
       0,
       0,
       0,
       0,
       0,
       0,
       0,
       0,
       0,
       0,
       0,
       0,
       0,
       0,
       0,
       0,
       0,
       0,
       0,
       0,
       0,
       0,
       0,
       0,
       0,
       0,
       0,
       0,
       0,
       0,
       0,
       0,
       0,
       0,
       0,
       0,
       0,
       0,
       0,
       0,
       0,
       0,
       0,
       0,
       0,
       0,
       0,
       0,
       0,
       0,
       0,
       0,
       0,
       0,
       0,
       0,
       0,
       0,
       0,
       0,
       0,
       0,
       0,
       0,
       0,
       0,
       0,
       0,
       0,
       0,
       0,
       0,
       0,
       0,
       0,
       0,
       0,
       0,
       0,
       0,
       0,
       0,
       0,
       0,
       0,
       0,
       0,
       0,
       0,
       0,
       0,
       0,
       0;

       Material def_surf_mat {
        0.992157; 0.992157; 0.992157; 1.000000;;
        1.000000;
        0.150000; 0.150000; 0.150000;;
        0.000000; 0.000000; 0.000000;;

        TextureFilename {
         "more_veg.dds";
        }
       }

      }

      XSkinMeshHeader {
       1;
       1;
       1;
      }

      SkinWeights {
       "Body";
       134;
       0,
       1,
       2,
       3,
       4,
       5,
       6,
       7,
       8,
       9,
       10,
       11,
       12,
       13,
       14,
       15,
       16,
       17,
       18,
       19,
       20,
       21,
       22,
       23,
       24,
       25,
       26,
       27,
       28,
       29,
       30,
       31,
       32,
       33,
       34,
       35,
       36,
       37,
       38,
       39,
       40,
       41,
       42,
       43,
       44,
       45,
       46,
       47,
       48,
       49,
       50,
       51,
       52,
       53,
       54,
       55,
       56,
       57,
       58,
       59,
       60,
       61,
       62,
       63,
       64,
       65,
       66,
       67,
       68,
       69,
       70,
       71,
       72,
       73,
       74,
       75,
       76,
       77,
       78,
       79,
       80,
       81,
       82,
       83,
       84,
       85,
       86,
       87,
       88,
       89,
       90,
       91,
       92,
       93,
       94,
       95,
       96,
       97,
       98,
       99,
       100,
       101,
       102,
       103,
       104,
       105,
       106,
       107,
       108,
       109,
       110,
       111,
       112,
       113,
       114,
       115,
       116,
       117,
       118,
       119,
       120,
       121,
       122,
       123,
       124,
       125,
       126,
       127,
       128,
       129,
       130,
       131,
       132,
       133;
       1.000000,
       1.000000,
       1.000000,
       1.000000,
       1.000000,
       1.000000,
       1.000000,
       1.000000,
       1.000000,
       1.000000,
       1.000000,
       1.000000,
       1.000000,
       1.000000,
       1.000000,
       1.000000,
       1.000000,
       1.000000,
       1.000000,
       1.000000,
       1.000000,
       1.000000,
       1.000000,
       1.000000,
       1.000000,
       1.000000,
       1.000000,
       1.000000,
       1.000000,
       1.000000,
       1.000000,
       1.000000,
       1.000000,
       1.000000,
       1.000000,
       1.000000,
       1.000000,
       1.000000,
       1.000000,
       1.000000,
       1.000000,
       1.000000,
       1.000000,
       1.000000,
       1.000000,
       1.000000,
       1.000000,
       1.000000,
       1.000000,
       1.000000,
       1.000000,
       1.000000,
       1.000000,
       1.000000,
       1.000000,
       1.000000,
       1.000000,
       1.000000,
       1.000000,
       1.000000,
       1.000000,
       1.000000,
       1.000000,
       1.000000,
       1.000000,
       1.000000,
       1.000000,
       1.000000,
       1.000000,
       1.000000,
       1.000000,
       1.000000,
       1.000000,
       1.000000,
       1.000000,
       1.000000,
       1.000000,
       1.000000,
       1.000000,
       1.000000,
       1.000000,
       1.000000,
       1.000000,
       1.000000,
       1.000000,
       1.000000,
       1.000000,
       1.000000,
       1.000000,
       1.000000,
       1.000000,
       1.000000,
       1.000000,
       1.000000,
       1.000000,
       1.000000,
       1.000000,
       1.000000,
       1.000000,
       1.000000,
       1.000000,
       1.000000,
       1.000000,
       1.000000,
       1.000000,
       1.000000,
       1.000000,
       1.000000,
       1.000000,
       1.000000,
       1.000000,
       1.000000,
       1.000000,
       1.000000,
       1.000000,
       1.000000,
       1.000000,
       1.000000,
       1.000000,
       1.000000,
       1.000000,
       1.000000,
       1.000000,
       1.000000,
       1.000000,
       1.000000,
       1.000000,
       1.000000,
       1.000000,
       1.000000,
       1.000000,
       1.000000,
       1.000000,
       1.000000;
          1.000000, -0.000000, 0.000000, 0.000000,
          -0.000000, 1.000000, -0.000000, 0.000000,
          0.000000, -0.000000, 1.000000, 0.000000,
          -0.000000, -0.000000, -0.000000, 1.000000;;
      }


     }
   }

// Start of Animation

AnimationSet Untitled {
}
