xof 0303txt 0032

// DirectX 9.0 file
// Creator: Ultimate Unwrap3D Pro v3.19
// Website: http://www.unwrap3d.com
// Time: Thu Dec 10 22:05:01 2009

// Start of Templates

template VertexDuplicationIndices {
 <b8d65549-d7c9-4995-89cf-53a9a8b031e3>
 DWORD nIndices;
 DWORD nOriginalVertices;
 array DWORD indices[nIndices];
}

template FVFData {
 <b6e70a0e-8ef9-4e83-94ad-ecc8b0c04897>
 DWORD dwFVF;
 DWORD nDWords;
 array DWORD data[nDWords];
}

template Header {
 <3D82AB43-62DA-11cf-AB39-0020AF71E433>
 WORD major;
 WORD minor;
 DWORD flags;
}

template Vector {
 <3D82AB5E-62DA-11cf-AB39-0020AF71E433>
 FLOAT x;
 FLOAT y;
 FLOAT z;
}

template Coords2d {
 <F6F23F44-7686-11cf-8F52-0040333594A3>
 FLOAT u;
 FLOAT v;
}

template Matrix4x4 {
 <F6F23F45-7686-11cf-8F52-0040333594A3>
 array FLOAT matrix[16];
}

template ColorRGBA {
 <35FF44E0-6C7C-11cf-8F52-0040333594A3>
 FLOAT red;
 FLOAT green;
 FLOAT blue;
 FLOAT alpha;
}

template ColorRGB {
 <D3E16E81-7835-11cf-8F52-0040333594A3>
 FLOAT red;
 FLOAT green;
 FLOAT blue;
}

template IndexedColor {
 <1630B820-7842-11cf-8F52-0040333594A3>
 DWORD index;
 ColorRGBA indexColor;
}

template Material {
 <3D82AB4D-62DA-11cf-AB39-0020AF71E433>
 ColorRGBA faceColor;
 FLOAT power;
 ColorRGB specularColor;
 ColorRGB emissiveColor;
 [...]
}

template TextureFilename {
 <A42790E1-7810-11cf-8F52-0040333594A3>
 STRING filename;
}

template MeshFace {
 <3D82AB5F-62DA-11cf-AB39-0020AF71E433>
 DWORD nFaceVertexIndices;
 array DWORD faceVertexIndices[nFaceVertexIndices];
}

template MeshTextureCoords {
 <F6F23F40-7686-11cf-8F52-0040333594A3>
 DWORD nTextureCoords;
 array Coords2d textureCoords[nTextureCoords];
}

template MeshMaterialList {
 <F6F23F42-7686-11cf-8F52-0040333594A3>
 DWORD nMaterials;
 DWORD nFaceIndexes;
 array DWORD faceIndexes[nFaceIndexes];
 [Material]
}

template MeshNormals {
 <F6F23F43-7686-11cf-8F52-0040333594A3>
 DWORD nNormals;
 array Vector normals[nNormals];
 DWORD nFaceNormals;
 array MeshFace faceNormals[nFaceNormals];
}

template MeshVertexColors {
 <1630B821-7842-11cf-8F52-0040333594A3>
 DWORD nVertexColors;
 array IndexedColor vertexColors[nVertexColors];
}

template Mesh {
 <3D82AB44-62DA-11cf-AB39-0020AF71E433>
 DWORD nVertices;
 array Vector vertices[nVertices];
 DWORD nFaces;
 array MeshFace faces[nFaces];
 [...]
}

template FrameTransformMatrix {
 <F6F23F41-7686-11cf-8F52-0040333594A3>
 Matrix4x4 frameMatrix;
}

template Frame {
 <3D82AB46-62DA-11cf-AB39-0020AF71E433>
 [...]
}

template FloatKeys {
 <10DD46A9-775B-11cf-8F52-0040333594A3>
 DWORD nValues;
 array FLOAT values[nValues];
}

template TimedFloatKeys {
 <F406B180-7B3B-11cf-8F52-0040333594A3>
 DWORD time;
 FloatKeys tfkeys;
}

template AnimationKey {
 <10DD46A8-775B-11cf-8F52-0040333594A3>
 DWORD keyType;
 DWORD nKeys;
 array TimedFloatKeys keys[nKeys];
}

template AnimationOptions {
 <E2BF56C0-840F-11cf-8F52-0040333594A3>
 DWORD openclosed;
 DWORD positionquality;
}

template Animation {
 <3D82AB4F-62DA-11cf-AB39-0020AF71E433>
 [...]
}

template AnimationSet {
 <3D82AB50-62DA-11cf-AB39-0020AF71E433>
 [Animation]
}

template XSkinMeshHeader {
 <3CF169CE-FF7C-44ab-93C0-F78F62D172E2>
 WORD nMaxSkinWeightsPerVertex;
 WORD nMaxSkinWeightsPerFace;
 WORD nBones;
}

template SkinWeights {
 <6F0D123B-BAD2-4167-A0D0-80224F25FABB>
 STRING transformNodeName;
 DWORD nWeights;
 array DWORD vertexIndices[nWeights];
 array FLOAT weights[nWeights];
 Matrix4x4 matrixOffset;
}

template AnimTicksPerSecond {
 <9E415A43-7BA6-4a73-8743-B73D47E88476>
 DWORD AnimTicksPerSecond;
}

AnimTicksPerSecond {
 30;
}

// Start of Frames

   Frame Body {
      FrameTransformMatrix {
       1.000000, 0.000000, 0.000000, 0.000000,
       0.000000, 1.000000, 0.000000, 0.000000,
       0.000000, 0.000000, 1.000000, 0.000000,
       0.000000, 0.000000, 0.000000, 1.000000;;
      }

   }
   Frame def_surf_mat {
      FrameTransformMatrix {
       1.000000, 0.000000, 0.000000, 0.000000,
       0.000000, 1.000000, 0.000000, 0.000000,
       0.000000, 0.000000, 1.000000, 0.000000,
       0.000000, 0.000000, 0.000000, 1.000000;;
      }

   }

   Frame Body0 {
      FrameTransformMatrix {
       1.000000, 0.000000, 0.000000, 0.000000,
       0.000000, 1.000000, 0.000000, 0.000000,
       0.000000, 0.000000, 1.000000, 0.000000,
       0.000000, 0.000000, 0.000000, 1.000000;;
      }

      Mesh skinnedMesh {
       214;
       0.823151; 0.639500; -11.975601;,
       -0.726450; 1.147299; -11.975601;,
       0.823151; 1.147299; -11.975601;,
       -0.726450; 0.639500; -11.975601;,
       0.823151; 0.639500; -10.504402;,
       0.823151; 1.147299; -11.479599;,
       0.823151; 1.147299; -10.504402;,
       0.823151; 0.639500; -11.479599;,
       -0.104149; 0.650499; 16.155701;,
       0.200951; 1.136200; 16.155701;,
       -0.104149; 1.136200; 16.155701;,
       0.200951; 0.650499; 16.155701;,
       -0.726450; 0.639500; -11.479599;,
       -0.726450; 1.147299; -10.504402;,
       -0.726450; 1.147299; -11.479599;,
       -0.726450; 0.639500; -10.504402;,
       0.789351; 1.136200; 7.433098;,
       -0.692650; 1.136200; 7.433098;,
       0.789351; 0.650499; 7.433098;,
       -0.692650; 0.650499; 7.433098;,
       0.767450; 1.136200; 9.917297;,
       -0.670750; 1.136200; 9.917297;,
       0.767450; 0.650499; 9.917297;,
       -0.670750; 0.650499; 9.917297;,
       0.704451; 1.136200; 12.648895;,
       -0.607649; 1.136200; 12.648895;,
       0.704451; 0.650499; 12.648895;,
       -0.607649; 0.650499; 12.648895;,
       0.561050; 1.136200; 15.201500;,
       -0.464251; 1.136200; 15.201500;,
       0.561050; 0.650499; 15.201500;,
       -0.464251; 0.650499; 15.201500;,
       0.425350; 1.136200; 15.783096;,
       -0.328550; 1.136200; 15.783096;,
       0.425350; 0.650499; 15.783096;,
       -0.328550; 0.650499; 15.783096;,
       -0.726450; 1.419300; -11.975601;,
       0.823151; 1.419300; -11.479599;,
       0.823151; 1.419300; -11.975601;,
       -0.726450; 1.419300; -11.479599;,
       -3.185150; 0.727400; -11.889206;,
       -3.185150; 1.043200; -11.566002;,
       -3.185150; 1.043200; -11.889206;,
       -3.185150; 0.727400; -11.566002;,
       3.185150; 1.058001; -11.896706;,
       3.185150; 0.714899; -11.558502;,
       3.185150; 0.714899; -11.896706;,
       3.185150; 1.058001; -11.558502;,
       0.823151; 0.324800; -11.975601;,
       -0.726450; 0.324800; -11.479599;,
       -0.726450; 0.324800; -11.975601;,
       0.823151; 0.324800; -11.479599;,
       -3.185150; 0.727400; -11.566002;,
       -0.726450; 1.147299; -11.479599;,
       -3.185150; 1.043200; -11.566002;,
       -0.726450; 0.639500; -11.479599;,
       -3.185150; 1.212400; -11.566002;,
       -3.185150; 1.212400; -11.889206;,
       -3.185150; 0.531700; -11.889206;,
       -3.185150; 0.531700; -11.566002;,
       -3.185150; 1.043200; -11.889206;,
       -3.185150; 0.727400; -11.889206;,
       3.185150; 1.058001; -11.558502;,
       0.823151; 0.639500; -11.479599;,
       3.185150; 0.714899; -11.558502;,
       0.823151; 1.147299; -11.479599;,
       3.185150; 1.241800; -11.896706;,
       3.185150; 1.241800; -11.558502;,
       3.185150; 0.502399; -11.558502;,
       3.185150; 0.502399; -11.896706;,
       3.185150; 0.714899; -11.896706;,
       3.185150; 1.058001; -11.896706;,
       0.823151; 0.324800; -11.479599;,
       -0.726450; 0.324800; -11.479599;,
       -3.185150; 0.531700; -11.566002;,
       3.185150; 0.502399; -11.558502;,
       -0.726450; 0.324800; -11.975601;,
       0.823151; 0.324800; -11.975601;,
       -3.185150; 0.531700; -11.889206;,
       3.185150; 0.502399; -11.896706;,
       -0.726450; 1.419300; -11.479599;,
       0.823151; 1.419300; -11.479599;,
       -3.185150; 1.212400; -11.566002;,
       3.185150; 1.241800; -11.558502;,
       0.823151; 1.419300; -11.975601;,
       -0.726450; 1.419300; -11.975601;,
       -3.185150; 1.212400; -11.889206;,
       3.185150; 1.241800; -11.896706;,
       0.401150; 0.409000; -12.222504;,
       0.567051; 0.617001; -11.960403;,
       0.401150; 0.409000; -11.960403;,
       0.567051; 0.617001; -12.222504;,
       0.161449; 0.293600; -12.222504;,
       0.161449; 0.293600; -11.960403;,
       -0.104549; 0.293600; -12.222504;,
       -0.104549; 0.293600; -11.960403;,
       -0.344250; 0.409000; -12.222504;,
       -0.344250; 0.409000; -11.960403;,
       -0.510149; 0.617001; -12.222504;,
       -0.510149; 0.617001; -11.960403;,
       -0.569349; 0.876400; -12.222504;,
       -0.569349; 0.876400; -11.960403;,
       -0.510149; 1.135799; -12.222504;,
       -0.510149; 1.135799; -11.960403;,
       -0.344250; 1.343800; -12.222504;,
       -0.344250; 1.343800; -11.960403;,
       -0.104549; 1.459200; -12.222504;,
       -0.104549; 1.459200; -11.960403;,
       0.161449; 1.459200; -12.222504;,
       0.161449; 1.459200; -11.960403;,
       0.401150; 1.343800; -12.222504;,
       0.401150; 1.343800; -11.960403;,
       0.567051; 1.135799; -12.222504;,
       0.567051; 1.135799; -11.960403;,
       0.626251; 0.876400; -12.222504;,
       0.626251; 0.876400; -11.960403;,
       0.296150; 0.540800; -16.155701;,
       0.457750; 0.876400; -16.155701;,
       0.415251; 0.690100; -16.155701;,
       0.415251; 1.062700; -16.155701;,
       0.123951; 0.457800; -16.155701;,
       0.296150; 1.212099; -16.155701;,
       -0.067049; 0.457800; -16.155701;,
       0.123951; 1.295000; -16.155701;,
       -0.239250; 0.540699; -16.155701;,
       -0.067049; 1.295000; -16.155701;,
       -0.358349; 0.690100; -16.155701;,
       -0.239250; 1.212099; -16.155701;,
       -0.400850; 0.876400; -16.155701;,
       -0.358349; 1.062700; -16.155701;,
       -0.104349; 0.294399; -14.101906;,
       0.161251; 0.294399; -14.101906;,
       -0.343750; 0.409700; -14.101906;,
       -0.509350; 0.617399; -14.101906;,
       -0.568550; 0.876400; -14.101906;,
       -0.509350; 1.135399; -14.101906;,
       -0.343750; 1.343100; -14.101906;,
       -0.104349; 1.458399; -14.101906;,
       0.161251; 1.458399; -14.101906;,
       0.400650; 1.343100; -14.101906;,
       0.566250; 1.135399; -14.101906;,
       0.625351; 0.876400; -14.101906;,
       0.566250; 0.617399; -14.101906;,
       0.400650; 0.409700; -14.101906;,
       -0.086950; 0.371000; -14.871704;,
       0.143751; 0.371000; -14.871704;,
       -0.294750; 0.471100; -14.871704;,
       -0.438650; 0.651499; -14.871704;,
       -0.489950; 0.876400; -14.871704;,
       -0.438650; 1.101299; -14.871704;,
       -0.294750; 1.281700; -14.871704;,
       -0.086950; 1.381800; -14.871704;,
       0.143751; 1.381800; -14.871704;,
       0.351650; 1.281700; -14.871704;,
       0.495550; 1.101299; -14.871704;,
       0.546850; 0.876400; -14.871704;,
       0.495550; 0.651499; -14.871704;,
       0.351650; 0.471100; -14.871704;,
       -0.147049; 0.107399; -15.042702;,
       0.203951; 0.107399; -15.042702;,
       -0.463350; 0.259699; -15.042702;,
       -0.682249; 0.534199; -15.042702;,
       -0.760349; 0.876400; -15.042702;,
       -0.682249; 1.218700; -15.042702;,
       -0.463350; 1.493099; -15.042702;,
       -0.147049; 1.645399; -15.042702;,
       0.203951; 1.645399; -15.042702;,
       0.520250; 1.493099; -15.042702;,
       0.739151; 1.218700; -15.042702;,
       0.817251; 0.876400; -15.042702;,
       0.739151; 0.534199; -15.042702;,
       0.520250; 0.259699; -15.042702;,
       -0.171549; 0.000000; -15.463699;,
       0.228451; 0.000000; -15.463699;,
       -0.532049; 0.173599; -15.463699;,
       -0.781450; 0.486401; -15.463699;,
       -0.870449; 0.876400; -15.463699;,
       -0.781450; 1.266399; -15.463699;,
       -0.532049; 1.579199; -15.463699;,
       -0.171549; 1.752800; -15.463699;,
       0.228451; 1.752800; -15.463699;,
       0.588850; 1.579199; -15.463699;,
       0.838350; 1.266399; -15.463699;,
       0.927351; 0.876400; -15.463699;,
       0.838350; 0.486401; -15.463699;,
       0.588850; 0.173599; -15.463699;,
       -0.167450; 0.018099; -15.758705;,
       0.224350; 0.018099; -15.758705;,
       -0.520451; 0.188099; -15.758705;,
       -0.764750; 0.494400; -15.758705;,
       -0.851950; 0.876400; -15.758705;,
       -0.764750; 1.258400; -15.758705;,
       -0.520451; 1.564699; -15.758705;,
       -0.167450; 1.734699; -15.758705;,
       0.224350; 1.734699; -15.758705;,
       0.577351; 1.564699; -15.758705;,
       0.821650; 1.258400; -15.758705;,
       0.908850; 0.876400; -15.758705;,
       0.821650; 0.494400; -15.758705;,
       0.577351; 0.188099; -15.758705;,
       -0.137249; 0.150400; -15.964699;,
       0.194151; 0.150400; -15.964699;,
       -0.435850; 0.294199; -15.964699;,
       -0.642550; 0.553299; -15.964699;,
       -0.716249; 0.876400; -15.964699;,
       -0.642550; 1.199499; -15.964699;,
       -0.435850; 1.458599; -15.964699;,
       -0.137249; 1.602499; -15.964699;,
       0.194151; 1.602499; -15.964699;,
       0.492750; 1.458599; -15.964699;,
       0.699450; 1.199499; -15.964699;,
       0.773149; 0.876400; -15.964699;,
       0.699450; 0.553299; -15.964699;,
       0.492750; 0.294199; -15.964699;;
       364;
       3;0, 1, 2;,
       3;0, 3, 1;,
       3;4, 5, 6;,
       3;4, 7, 5;,
       3;8, 9, 10;,
       3;8, 11, 9;,
       3;12, 13, 14;,
       3;12, 15, 13;,
       3;5, 13, 6;,
       3;5, 14, 13;,
       3;12, 4, 15;,
       3;12, 7, 4;,
       3;16, 13, 17;,
       3;16, 6, 13;,
       3;18, 6, 16;,
       3;18, 4, 6;,
       3;17, 15, 19;,
       3;17, 13, 15;,
       3;19, 4, 18;,
       3;19, 15, 4;,
       3;20, 17, 21;,
       3;20, 16, 17;,
       3;22, 16, 20;,
       3;22, 18, 16;,
       3;21, 19, 23;,
       3;21, 17, 19;,
       3;23, 18, 22;,
       3;23, 19, 18;,
       3;24, 21, 25;,
       3;24, 20, 21;,
       3;26, 20, 24;,
       3;26, 22, 20;,
       3;25, 23, 27;,
       3;25, 21, 23;,
       3;27, 22, 26;,
       3;27, 23, 22;,
       3;28, 25, 29;,
       3;28, 24, 25;,
       3;30, 24, 28;,
       3;30, 26, 24;,
       3;29, 27, 31;,
       3;29, 25, 27;,
       3;31, 26, 30;,
       3;31, 27, 26;,
       3;32, 29, 33;,
       3;32, 28, 29;,
       3;34, 28, 32;,
       3;34, 30, 28;,
       3;33, 31, 35;,
       3;33, 29, 31;,
       3;35, 30, 34;,
       3;35, 31, 30;,
       3;9, 33, 10;,
       3;9, 32, 33;,
       3;11, 32, 9;,
       3;11, 34, 32;,
       3;10, 35, 8;,
       3;10, 33, 35;,
       3;8, 34, 11;,
       3;8, 35, 34;,
       3;36, 37, 38;,
       3;36, 39, 37;,
       3;40, 41, 42;,
       3;40, 43, 41;,
       3;44, 45, 46;,
       3;44, 47, 45;,
       3;48, 49, 50;,
       3;48, 51, 49;,
       3;52, 53, 54;,
       3;52, 55, 53;,
       3;56, 36, 57;,
       3;56, 39, 36;,
       3;58, 49, 59;,
       3;58, 50, 49;,
       3;60, 3, 61;,
       3;60, 1, 3;,
       3;62, 63, 64;,
       3;62, 65, 63;,
       3;66, 37, 67;,
       3;66, 38, 37;,
       3;68, 48, 69;,
       3;68, 51, 48;,
       3;70, 2, 71;,
       3;70, 0, 2;,
       3;72, 55, 73;,
       3;72, 63, 55;,
       3;73, 52, 74;,
       3;73, 55, 52;,
       3;75, 63, 72;,
       3;75, 64, 63;,
       3;76, 0, 77;,
       3;76, 3, 0;,
       3;78, 3, 76;,
       3;78, 61, 3;,
       3;77, 70, 79;,
       3;77, 0, 70;,
       3;59, 40, 58;,
       3;59, 43, 40;,
       3;69, 45, 68;,
       3;69, 46, 45;,
       3;80, 65, 81;,
       3;80, 53, 65;,
       3;82, 53, 80;,
       3;82, 54, 53;,
       3;81, 62, 83;,
       3;81, 65, 62;,
       3;84, 1, 85;,
       3;84, 2, 1;,
       3;85, 60, 86;,
       3;85, 1, 60;,
       3;87, 2, 84;,
       3;87, 71, 2;,
       3;57, 41, 56;,
       3;57, 42, 41;,
       3;67, 44, 66;,
       3;67, 47, 44;,
       3;88, 89, 90;,
       3;88, 91, 89;,
       3;92, 90, 93;,
       3;92, 88, 90;,
       3;94, 93, 95;,
       3;94, 92, 93;,
       3;96, 95, 97;,
       3;96, 94, 95;,
       3;98, 97, 99;,
       3;98, 96, 97;,
       3;100, 99, 101;,
       3;100, 98, 99;,
       3;102, 101, 103;,
       3;102, 100, 101;,
       3;104, 103, 105;,
       3;104, 102, 103;,
       3;106, 105, 107;,
       3;106, 104, 105;,
       3;108, 107, 109;,
       3;108, 106, 107;,
       3;110, 109, 111;,
       3;110, 108, 109;,
       3;112, 111, 113;,
       3;112, 110, 111;,
       3;114, 113, 115;,
       3;114, 112, 113;,
       3;91, 115, 89;,
       3;91, 114, 115;,
       3;116, 117, 118;,
       3;116, 119, 117;,
       3;120, 119, 116;,
       3;120, 121, 119;,
       3;122, 121, 120;,
       3;122, 123, 121;,
       3;124, 123, 122;,
       3;124, 125, 123;,
       3;126, 125, 124;,
       3;126, 127, 125;,
       3;128, 127, 126;,
       3;128, 129, 127;,
       3;113, 89, 115;,
       3;113, 90, 89;,
       3;111, 90, 113;,
       3;111, 93, 90;,
       3;109, 93, 111;,
       3;109, 95, 93;,
       3;107, 95, 109;,
       3;107, 97, 95;,
       3;105, 97, 107;,
       3;105, 99, 97;,
       3;103, 99, 105;,
       3;103, 101, 99;,
       3;130, 92, 94;,
       3;130, 131, 92;,
       3;132, 94, 96;,
       3;132, 130, 94;,
       3;133, 96, 98;,
       3;133, 132, 96;,
       3;134, 98, 100;,
       3;134, 133, 98;,
       3;135, 100, 102;,
       3;135, 134, 100;,
       3;136, 102, 104;,
       3;136, 135, 102;,
       3;137, 104, 106;,
       3;137, 136, 104;,
       3;138, 106, 108;,
       3;138, 137, 106;,
       3;139, 108, 110;,
       3;139, 138, 108;,
       3;140, 110, 112;,
       3;140, 139, 110;,
       3;141, 112, 114;,
       3;141, 140, 112;,
       3;142, 114, 91;,
       3;142, 141, 114;,
       3;143, 91, 88;,
       3;143, 142, 91;,
       3;131, 88, 92;,
       3;131, 143, 88;,
       3;144, 131, 130;,
       3;144, 145, 131;,
       3;146, 130, 132;,
       3;146, 144, 130;,
       3;147, 132, 133;,
       3;147, 146, 132;,
       3;148, 133, 134;,
       3;148, 147, 133;,
       3;149, 134, 135;,
       3;149, 148, 134;,
       3;150, 135, 136;,
       3;150, 149, 135;,
       3;151, 136, 137;,
       3;151, 150, 136;,
       3;152, 137, 138;,
       3;152, 151, 137;,
       3;153, 138, 139;,
       3;153, 152, 138;,
       3;154, 139, 140;,
       3;154, 153, 139;,
       3;155, 140, 141;,
       3;155, 154, 140;,
       3;156, 141, 142;,
       3;156, 155, 141;,
       3;157, 142, 143;,
       3;157, 156, 142;,
       3;145, 143, 131;,
       3;145, 157, 143;,
       3;158, 145, 144;,
       3;158, 159, 145;,
       3;160, 144, 146;,
       3;160, 158, 144;,
       3;161, 146, 147;,
       3;161, 160, 146;,
       3;162, 147, 148;,
       3;162, 161, 147;,
       3;163, 148, 149;,
       3;163, 162, 148;,
       3;164, 149, 150;,
       3;164, 163, 149;,
       3;165, 150, 151;,
       3;165, 164, 150;,
       3;166, 151, 152;,
       3;166, 165, 151;,
       3;167, 152, 153;,
       3;167, 166, 152;,
       3;168, 153, 154;,
       3;168, 167, 153;,
       3;169, 154, 155;,
       3;169, 168, 154;,
       3;170, 155, 156;,
       3;170, 169, 155;,
       3;171, 156, 157;,
       3;171, 170, 156;,
       3;159, 157, 145;,
       3;159, 171, 157;,
       3;172, 159, 158;,
       3;172, 173, 159;,
       3;174, 158, 160;,
       3;174, 172, 158;,
       3;175, 160, 161;,
       3;175, 174, 160;,
       3;176, 161, 162;,
       3;176, 175, 161;,
       3;177, 162, 163;,
       3;177, 176, 162;,
       3;178, 163, 164;,
       3;178, 177, 163;,
       3;179, 164, 165;,
       3;179, 178, 164;,
       3;180, 165, 166;,
       3;180, 179, 165;,
       3;181, 166, 167;,
       3;181, 180, 166;,
       3;182, 167, 168;,
       3;182, 181, 167;,
       3;183, 168, 169;,
       3;183, 182, 168;,
       3;184, 169, 170;,
       3;184, 183, 169;,
       3;185, 170, 171;,
       3;185, 184, 170;,
       3;173, 171, 159;,
       3;173, 185, 171;,
       3;186, 173, 172;,
       3;186, 187, 173;,
       3;188, 172, 174;,
       3;188, 186, 172;,
       3;189, 174, 175;,
       3;189, 188, 174;,
       3;190, 175, 176;,
       3;190, 189, 175;,
       3;191, 176, 177;,
       3;191, 190, 176;,
       3;192, 177, 178;,
       3;192, 191, 177;,
       3;193, 178, 179;,
       3;193, 192, 178;,
       3;194, 179, 180;,
       3;194, 193, 179;,
       3;195, 180, 181;,
       3;195, 194, 180;,
       3;196, 181, 182;,
       3;196, 195, 181;,
       3;197, 182, 183;,
       3;197, 196, 182;,
       3;198, 183, 184;,
       3;198, 197, 183;,
       3;199, 184, 185;,
       3;199, 198, 184;,
       3;187, 185, 173;,
       3;187, 199, 185;,
       3;200, 187, 186;,
       3;200, 201, 187;,
       3;202, 186, 188;,
       3;202, 200, 186;,
       3;203, 188, 189;,
       3;203, 202, 188;,
       3;204, 189, 190;,
       3;204, 203, 189;,
       3;205, 190, 191;,
       3;205, 204, 190;,
       3;206, 191, 192;,
       3;206, 205, 191;,
       3;207, 192, 193;,
       3;207, 206, 192;,
       3;208, 193, 194;,
       3;208, 207, 193;,
       3;209, 194, 195;,
       3;209, 208, 194;,
       3;210, 195, 196;,
       3;210, 209, 195;,
       3;211, 196, 197;,
       3;211, 210, 196;,
       3;212, 197, 198;,
       3;212, 211, 197;,
       3;213, 198, 199;,
       3;213, 212, 198;,
       3;201, 199, 187;,
       3;201, 213, 199;,
       3;122, 201, 200;,
       3;122, 120, 201;,
       3;124, 200, 202;,
       3;124, 122, 200;,
       3;126, 202, 203;,
       3;126, 124, 202;,
       3;128, 203, 204;,
       3;128, 126, 203;,
       3;129, 204, 205;,
       3;129, 128, 204;,
       3;127, 205, 206;,
       3;127, 129, 205;,
       3;125, 206, 207;,
       3;125, 127, 206;,
       3;123, 207, 208;,
       3;123, 125, 207;,
       3;121, 208, 209;,
       3;121, 123, 208;,
       3;119, 209, 210;,
       3;119, 121, 209;,
       3;117, 210, 211;,
       3;117, 119, 210;,
       3;118, 211, 212;,
       3;118, 117, 211;,
       3;116, 212, 213;,
       3;116, 118, 212;,
       3;120, 213, 201;,
       3;120, 116, 213;;

      MeshNormals {
       214;
       0.011129; 0.000000; -0.999938;,
       -0.011707; 0.000000; -0.999931;,
       0.022258; 0.000000; -0.999752;,
       -0.023414; 0.000000; -0.999726;,
       0.600000; -0.800000; 0.000622;,
       0.707107; 0.707107; 0.000000;,
       0.832049; 0.554700; 0.001217;,
       0.707107; -0.707107; 0.000000;,
       -0.257543; -0.601286; 0.756391;,
       0.257544; 0.601286; 0.756390;,
       -0.603342; 0.352155; 0.715518;,
       0.603343; -0.352156; 0.715516;,
       -0.707107; -0.707107; 0.000000;,
       -0.600000; 0.800000; 0.000624;,
       -0.707107; 0.707107; 0.000000;,
       -0.832049; -0.554700; 0.001215;,
       0.707089; 0.707108; 0.004892;,
       -0.707098; 0.707108; 0.003112;,
       0.707098; -0.707108; 0.003111;,
       -0.707089; -0.707108; 0.004889;,
       0.706980; 0.707115; 0.012947;,
       -0.707034; 0.707115; 0.009599;,
       0.707034; -0.707115; 0.009590;,
       -0.706980; -0.707115; 0.012965;,
       0.706345; 0.707150; 0.031878;,
       -0.706653; 0.707150; 0.024108;,
       0.706653; -0.707150; 0.024091;,
       -0.706345; -0.707150; 0.031886;,
       0.695561; 0.708284; 0.120534;,
       -0.701365; 0.708284; 0.080130;,
       0.701365; -0.708284; 0.080131;,
       -0.695561; -0.708284; 0.120534;,
       0.636806; 0.710951; 0.298372;,
       -0.664580; 0.710952; 0.229959;,
       0.664581; -0.710951; 0.229957;,
       -0.636805; -0.710952; 0.298374;,
       -0.041964; 0.999119; 0.000000;,
       0.037495; 0.999297; 0.000000;,
       0.037495; 0.999297; 0.000000;,
       -0.041964; 0.999119; 0.000000;,
       -1.000000; 0.000000; 0.000000;,
       -1.000000; 0.000000; 0.000000;,
       -1.000000; 0.000000; 0.000000;,
       -1.000000; 0.000000; 0.000000;,
       1.000000; 0.000000; 0.000000;,
       1.000000; 0.000000; 0.000000;,
       1.000000; 0.000000; 0.000000;,
       1.000000; 0.000000; 0.000000;,
       0.037516; -0.999296; 0.000000;,
       -0.041964; -0.999119; 0.000000;,
       -0.041964; -0.999119; 0.000000;,
       0.037516; -0.999296; 0.000000;,
       -0.035120; 0.000000; 0.999383;,
       -0.028099; 0.000000; 0.999605;,
       -0.035120; 0.000000; 0.999383;,
       -0.017563; 0.000000; 0.999846;,
       -0.505534; 0.862807; 0.000000;,
       -0.902159; 0.431403; 0.000000;,
       -0.505534; -0.862807; 0.000000;,
       -0.902159; -0.431403; 0.000000;,
       -0.035117; 0.000000; -0.999383;,
       -0.035117; 0.000000; -0.999383;,
       0.033387; 0.000000; 0.999443;,
       0.026712; 0.000000; 0.999643;,
       0.033387; 0.000000; 0.999443;,
       0.016696; 0.000000; 0.999861;,
       0.499485; 0.866323; 0.000000;,
       0.901316; 0.433161; 0.000000;,
       0.499513; -0.866306; 0.000000;,
       0.901320; -0.433153; 0.000000;,
       0.033383; 0.000000; -0.999443;,
       0.033383; 0.000000; -0.999443;,
       0.011130; 0.000000; 0.999938;,
       -0.023417; 0.000000; 0.999726;,
       -0.035120; 0.000000; 0.999383;,
       0.033387; 0.000000; 0.999443;,
       -0.011707; 0.000000; -0.999931;,
       0.022258; 0.000000; -0.999752;,
       -0.035117; 0.000000; -0.999383;,
       0.033383; 0.000000; -0.999443;,
       -0.011708; 0.000000; 0.999931;,
       0.022261; 0.000000; 0.999752;,
       -0.035120; 0.000000; 0.999383;,
       0.033387; 0.000000; 0.999443;,
       0.011129; 0.000000; -0.999938;,
       -0.023414; 0.000000; -0.999726;,
       -0.035117; 0.000000; -0.999383;,
       0.033383; 0.000000; -0.999443;,
       0.623436; -0.781874; -0.000226;,
       0.715037; -0.413951; 0.563353;,
       0.393105; -0.578114; 0.715020;,
       0.900970; -0.433881; -0.000234;,
       0.222465; -0.974941; -0.000219;,
       0.103386; -0.691423; 0.715014;,
       -0.222490; -0.974935; -0.000223;,
       -0.206773; -0.667832; 0.715014;,
       -0.623440; -0.781871; -0.000232;,
       -0.476050; -0.511980; 0.715020;,
       -0.900935; -0.433955; -0.000229;,
       -0.651064; -0.254677; 0.715021;,
       -1.000000; 0.000056; -0.000221;,
       -0.943780; 0.071796; 0.322682;,
       -0.900971; 0.433879; -0.000234;,
       -0.715038; 0.413949; 0.563353;,
       -0.623437; 0.781874; -0.000226;,
       -0.393106; 0.578113; 0.715020;,
       -0.222465; 0.974941; -0.000219;,
       -0.103386; 0.691423; 0.715014;,
       0.222490; 0.974935; -0.000223;,
       0.206773; 0.667832; 0.715014;,
       0.623439; 0.781872; -0.000232;,
       0.476048; 0.511982; 0.715020;,
       0.900959; 0.433904; -0.000239;,
       0.651063; 0.254678; 0.715022;,
       1.000000; 0.000005; -0.000239;,
       0.943780; -0.071796; 0.322682;,
       0.182994; -0.196769; -0.963221;,
       0.321213; 0.024423; -0.946692;,
       0.372323; -0.145626; -0.916607;,
       0.232563; 0.134617; -0.963220;,
       0.079526; -0.256687; -0.963217;,
       0.151156; 0.222186; -0.963216;,
       -0.039741; -0.265799; -0.963209;,
       0.039733; 0.265734; -0.963227;,
       -0.151144; -0.222220; -0.963210;,
       -0.079514; 0.256683; -0.963219;,
       -0.232563; -0.134617; -0.963220;,
       -0.182995; 0.196797; -0.963215;,
       -0.321211; -0.024422; -0.946693;,
       -0.372342; 0.145587; -0.916605;,
       -0.222080; -0.973691; -0.051048;,
       0.222408; -0.973615; -0.051066;,
       -0.622536; -0.780924; -0.051048;,
       -0.899688; -0.433540; -0.051046;,
       -0.998696; -0.000205; -0.051058;,
       -0.899839; 0.433226; -0.051035;,
       -0.622864; 0.780662; -0.051058;,
       -0.222405; 0.973617; -0.051056;,
       0.222048; 0.973698; -0.051057;,
       0.622537; 0.780923; -0.051048;,
       0.899741; 0.433431; -0.051028;,
       0.998697; 0.000206; -0.051031;,
       0.899890; -0.433119; -0.051044;,
       0.622841; -0.780680; -0.051068;,
       -0.180085; -0.878682; 0.442140;,
       0.219007; -0.869799; 0.442137;,
       -0.543480; -0.713540; 0.442143;,
       -0.799248; -0.407052; 0.442166;,
       -0.896718; -0.020051; 0.442148;,
       -0.816546; 0.371125; 0.442176;,
       -0.574726; 0.688619; 0.442146;,
       -0.219063; 0.869787; 0.442134;,
       0.180029; 0.878696; 0.442134;,
       0.543413; 0.713585; 0.442153;,
       0.799243; 0.407037; 0.442189;,
       0.896707; 0.019973; 0.442174;,
       0.816579; -0.371045; 0.442182;,
       0.574678; -0.688645; 0.442168;,
       -0.195917; -0.781171; 0.592780;,
       0.162379; -0.788811; 0.592799;,
       -0.515477; -0.618783; 0.592782;,
       -0.732925; -0.333867; 0.592751;,
       -0.805209; 0.017186; 0.592742;,
       -0.717994; 0.364847; 0.592766;,
       -0.488507; 0.640271; 0.592802;,
       -0.162401; 0.788814; 0.592788;,
       0.195936; 0.781168; 0.592778;,
       0.515427; 0.618875; 0.592730;,
       0.732911; 0.333894; 0.592753;,
       0.805199; -0.017222; 0.592754;,
       0.718006; -0.364858; 0.592744;,
       0.488582; -0.640255; 0.592758;,
       -0.222572; -0.970127; 0.096518;,
       0.220410; -0.970623; 0.096495;,
       -0.621460; -0.777477; 0.096526;,
       -0.897264; -0.430805; 0.096563;,
       -0.995328; 0.001129; 0.096541;,
       -0.896299; 0.432829; 0.096472;,
       -0.619706; 0.778883; 0.096469;,
       -0.220374; 0.970629; 0.096508;,
       0.222608; 0.970116; 0.096542;,
       0.621438; 0.777492; 0.096549;,
       0.897226; 0.430897; 0.096502;,
       0.995329; -0.001138; 0.096530;,
       0.896260; -0.432893; 0.096546;,
       0.619704; -0.778879; 0.096512;,
       -0.204975; -0.925655; -0.318038;,
       0.216974; -0.922924; -0.318014;,
       -0.586271; -0.745086; -0.318015;,
       -0.851538; -0.416889; -0.317942;,
       -0.948097; -0.006155; -0.317922;,
       -0.856857; 0.405873; -0.317906;,
       -0.595949; 0.737389; -0.317968;,
       -0.216958; 0.922976; -0.317876;,
       0.205022; 0.925681; -0.317933;,
       0.586299; 0.745091; -0.317951;,
       0.851534; 0.416926; -0.317903;,
       0.948096; 0.006156; -0.317924;,
       0.856857; -0.405873; -0.317906;,
       0.595902; -0.737434; -0.317948;,
       -0.142348; -0.677976; -0.721169;,
       0.165900; -0.672600; -0.721170;,
       -0.422401; -0.549078; -0.721174;,
       -0.618800; -0.311412; -0.721185;,
       -0.692637; -0.012095; -0.721185;,
       -0.629297; 0.289650; -0.721171;,
       -0.441317; 0.534019; -0.721154;,
       -0.165971; 0.672605; -0.721149;,
       0.142422; 0.678043; -0.721092;,
       0.422474; 0.549079; -0.721130;,
       0.618801; 0.311412; -0.721185;,
       0.692637; 0.012096; -0.721185;,
       0.629277; -0.289671; -0.721181;,
       0.441289; -0.534018; -0.721172;;
       364;
       3;0, 1, 2;,
       3;0, 3, 1;,
       3;4, 5, 6;,
       3;4, 7, 5;,
       3;8, 9, 10;,
       3;8, 11, 9;,
       3;12, 13, 14;,
       3;12, 15, 13;,
       3;5, 13, 6;,
       3;5, 14, 13;,
       3;12, 4, 15;,
       3;12, 7, 4;,
       3;16, 13, 17;,
       3;16, 6, 13;,
       3;18, 6, 16;,
       3;18, 4, 6;,
       3;17, 15, 19;,
       3;17, 13, 15;,
       3;19, 4, 18;,
       3;19, 15, 4;,
       3;20, 17, 21;,
       3;20, 16, 17;,
       3;22, 16, 20;,
       3;22, 18, 16;,
       3;21, 19, 23;,
       3;21, 17, 19;,
       3;23, 18, 22;,
       3;23, 19, 18;,
       3;24, 21, 25;,
       3;24, 20, 21;,
       3;26, 20, 24;,
       3;26, 22, 20;,
       3;25, 23, 27;,
       3;25, 21, 23;,
       3;27, 22, 26;,
       3;27, 23, 22;,
       3;28, 25, 29;,
       3;28, 24, 25;,
       3;30, 24, 28;,
       3;30, 26, 24;,
       3;29, 27, 31;,
       3;29, 25, 27;,
       3;31, 26, 30;,
       3;31, 27, 26;,
       3;32, 29, 33;,
       3;32, 28, 29;,
       3;34, 28, 32;,
       3;34, 30, 28;,
       3;33, 31, 35;,
       3;33, 29, 31;,
       3;35, 30, 34;,
       3;35, 31, 30;,
       3;9, 33, 10;,
       3;9, 32, 33;,
       3;11, 32, 9;,
       3;11, 34, 32;,
       3;10, 35, 8;,
       3;10, 33, 35;,
       3;8, 34, 11;,
       3;8, 35, 34;,
       3;36, 37, 38;,
       3;36, 39, 37;,
       3;40, 41, 42;,
       3;40, 43, 41;,
       3;44, 45, 46;,
       3;44, 47, 45;,
       3;48, 49, 50;,
       3;48, 51, 49;,
       3;52, 53, 54;,
       3;52, 55, 53;,
       3;56, 36, 57;,
       3;56, 39, 36;,
       3;58, 49, 59;,
       3;58, 50, 49;,
       3;60, 3, 61;,
       3;60, 1, 3;,
       3;62, 63, 64;,
       3;62, 65, 63;,
       3;66, 37, 67;,
       3;66, 38, 37;,
       3;68, 48, 69;,
       3;68, 51, 48;,
       3;70, 2, 71;,
       3;70, 0, 2;,
       3;72, 55, 73;,
       3;72, 63, 55;,
       3;73, 52, 74;,
       3;73, 55, 52;,
       3;75, 63, 72;,
       3;75, 64, 63;,
       3;76, 0, 77;,
       3;76, 3, 0;,
       3;78, 3, 76;,
       3;78, 61, 3;,
       3;77, 70, 79;,
       3;77, 0, 70;,
       3;59, 40, 58;,
       3;59, 43, 40;,
       3;69, 45, 68;,
       3;69, 46, 45;,
       3;80, 65, 81;,
       3;80, 53, 65;,
       3;82, 53, 80;,
       3;82, 54, 53;,
       3;81, 62, 83;,
       3;81, 65, 62;,
       3;84, 1, 85;,
       3;84, 2, 1;,
       3;85, 60, 86;,
       3;85, 1, 60;,
       3;87, 2, 84;,
       3;87, 71, 2;,
       3;57, 41, 56;,
       3;57, 42, 41;,
       3;67, 44, 66;,
       3;67, 47, 44;,
       3;88, 89, 90;,
       3;88, 91, 89;,
       3;92, 90, 93;,
       3;92, 88, 90;,
       3;94, 93, 95;,
       3;94, 92, 93;,
       3;96, 95, 97;,
       3;96, 94, 95;,
       3;98, 97, 99;,
       3;98, 96, 97;,
       3;100, 99, 101;,
       3;100, 98, 99;,
       3;102, 101, 103;,
       3;102, 100, 101;,
       3;104, 103, 105;,
       3;104, 102, 103;,
       3;106, 105, 107;,
       3;106, 104, 105;,
       3;108, 107, 109;,
       3;108, 106, 107;,
       3;110, 109, 111;,
       3;110, 108, 109;,
       3;112, 111, 113;,
       3;112, 110, 111;,
       3;114, 113, 115;,
       3;114, 112, 113;,
       3;91, 115, 89;,
       3;91, 114, 115;,
       3;116, 117, 118;,
       3;116, 119, 117;,
       3;120, 119, 116;,
       3;120, 121, 119;,
       3;122, 121, 120;,
       3;122, 123, 121;,
       3;124, 123, 122;,
       3;124, 125, 123;,
       3;126, 125, 124;,
       3;126, 127, 125;,
       3;128, 127, 126;,
       3;128, 129, 127;,
       3;113, 89, 115;,
       3;113, 90, 89;,
       3;111, 90, 113;,
       3;111, 93, 90;,
       3;109, 93, 111;,
       3;109, 95, 93;,
       3;107, 95, 109;,
       3;107, 97, 95;,
       3;105, 97, 107;,
       3;105, 99, 97;,
       3;103, 99, 105;,
       3;103, 101, 99;,
       3;130, 92, 94;,
       3;130, 131, 92;,
       3;132, 94, 96;,
       3;132, 130, 94;,
       3;133, 96, 98;,
       3;133, 132, 96;,
       3;134, 98, 100;,
       3;134, 133, 98;,
       3;135, 100, 102;,
       3;135, 134, 100;,
       3;136, 102, 104;,
       3;136, 135, 102;,
       3;137, 104, 106;,
       3;137, 136, 104;,
       3;138, 106, 108;,
       3;138, 137, 106;,
       3;139, 108, 110;,
       3;139, 138, 108;,
       3;140, 110, 112;,
       3;140, 139, 110;,
       3;141, 112, 114;,
       3;141, 140, 112;,
       3;142, 114, 91;,
       3;142, 141, 114;,
       3;143, 91, 88;,
       3;143, 142, 91;,
       3;131, 88, 92;,
       3;131, 143, 88;,
       3;144, 131, 130;,
       3;144, 145, 131;,
       3;146, 130, 132;,
       3;146, 144, 130;,
       3;147, 132, 133;,
       3;147, 146, 132;,
       3;148, 133, 134;,
       3;148, 147, 133;,
       3;149, 134, 135;,
       3;149, 148, 134;,
       3;150, 135, 136;,
       3;150, 149, 135;,
       3;151, 136, 137;,
       3;151, 150, 136;,
       3;152, 137, 138;,
       3;152, 151, 137;,
       3;153, 138, 139;,
       3;153, 152, 138;,
       3;154, 139, 140;,
       3;154, 153, 139;,
       3;155, 140, 141;,
       3;155, 154, 140;,
       3;156, 141, 142;,
       3;156, 155, 141;,
       3;157, 142, 143;,
       3;157, 156, 142;,
       3;145, 143, 131;,
       3;145, 157, 143;,
       3;158, 145, 144;,
       3;158, 159, 145;,
       3;160, 144, 146;,
       3;160, 158, 144;,
       3;161, 146, 147;,
       3;161, 160, 146;,
       3;162, 147, 148;,
       3;162, 161, 147;,
       3;163, 148, 149;,
       3;163, 162, 148;,
       3;164, 149, 150;,
       3;164, 163, 149;,
       3;165, 150, 151;,
       3;165, 164, 150;,
       3;166, 151, 152;,
       3;166, 165, 151;,
       3;167, 152, 153;,
       3;167, 166, 152;,
       3;168, 153, 154;,
       3;168, 167, 153;,
       3;169, 154, 155;,
       3;169, 168, 154;,
       3;170, 155, 156;,
       3;170, 169, 155;,
       3;171, 156, 157;,
       3;171, 170, 156;,
       3;159, 157, 145;,
       3;159, 171, 157;,
       3;172, 159, 158;,
       3;172, 173, 159;,
       3;174, 158, 160;,
       3;174, 172, 158;,
       3;175, 160, 161;,
       3;175, 174, 160;,
       3;176, 161, 162;,
       3;176, 175, 161;,
       3;177, 162, 163;,
       3;177, 176, 162;,
       3;178, 163, 164;,
       3;178, 177, 163;,
       3;179, 164, 165;,
       3;179, 178, 164;,
       3;180, 165, 166;,
       3;180, 179, 165;,
       3;181, 166, 167;,
       3;181, 180, 166;,
       3;182, 167, 168;,
       3;182, 181, 167;,
       3;183, 168, 169;,
       3;183, 182, 168;,
       3;184, 169, 170;,
       3;184, 183, 169;,
       3;185, 170, 171;,
       3;185, 184, 170;,
       3;173, 171, 159;,
       3;173, 185, 171;,
       3;186, 173, 172;,
       3;186, 187, 173;,
       3;188, 172, 174;,
       3;188, 186, 172;,
       3;189, 174, 175;,
       3;189, 188, 174;,
       3;190, 175, 176;,
       3;190, 189, 175;,
       3;191, 176, 177;,
       3;191, 190, 176;,
       3;192, 177, 178;,
       3;192, 191, 177;,
       3;193, 178, 179;,
       3;193, 192, 178;,
       3;194, 179, 180;,
       3;194, 193, 179;,
       3;195, 180, 181;,
       3;195, 194, 180;,
       3;196, 181, 182;,
       3;196, 195, 181;,
       3;197, 182, 183;,
       3;197, 196, 182;,
       3;198, 183, 184;,
       3;198, 197, 183;,
       3;199, 184, 185;,
       3;199, 198, 184;,
       3;187, 185, 173;,
       3;187, 199, 185;,
       3;200, 187, 186;,
       3;200, 201, 187;,
       3;202, 186, 188;,
       3;202, 200, 186;,
       3;203, 188, 189;,
       3;203, 202, 188;,
       3;204, 189, 190;,
       3;204, 203, 189;,
       3;205, 190, 191;,
       3;205, 204, 190;,
       3;206, 191, 192;,
       3;206, 205, 191;,
       3;207, 192, 193;,
       3;207, 206, 192;,
       3;208, 193, 194;,
       3;208, 207, 193;,
       3;209, 194, 195;,
       3;209, 208, 194;,
       3;210, 195, 196;,
       3;210, 209, 195;,
       3;211, 196, 197;,
       3;211, 210, 196;,
       3;212, 197, 198;,
       3;212, 211, 197;,
       3;213, 198, 199;,
       3;213, 212, 198;,
       3;201, 199, 187;,
       3;201, 213, 199;,
       3;122, 201, 200;,
       3;122, 120, 201;,
       3;124, 200, 202;,
       3;124, 122, 200;,
       3;126, 202, 203;,
       3;126, 124, 202;,
       3;128, 203, 204;,
       3;128, 126, 203;,
       3;129, 204, 205;,
       3;129, 128, 204;,
       3;127, 205, 206;,
       3;127, 129, 205;,
       3;125, 206, 207;,
       3;125, 127, 206;,
       3;123, 207, 208;,
       3;123, 125, 207;,
       3;121, 208, 209;,
       3;121, 123, 208;,
       3;119, 209, 210;,
       3;119, 121, 209;,
       3;117, 210, 211;,
       3;117, 119, 210;,
       3;118, 211, 212;,
       3;118, 117, 211;,
       3;116, 212, 213;,
       3;116, 118, 212;,
       3;120, 213, 201;,
       3;120, 116, 213;;
      }

      MeshTextureCoords {
       214;
       0.501926; 0.246118;,
       0.529029; 0.215712;,
       0.529029; 0.246118;,
       0.501926; 0.215712;,
       0.471123; 0.177944;,
       0.471123; 0.156342;,
       0.471123; 0.177944;,
       0.471123; 0.156342;,
       0.508792; 0.967326;,
       0.493620; 0.967326;,
       0.508792; 0.967326;,
       0.493620; 0.967326;,
       0.548182; 0.156342;,
       0.548182; 0.177944;,
       0.548182; 0.156342;,
       0.548182; 0.177944;,
       0.464359; 0.728200;,
       0.538057; 0.728200;,
       0.464359; 0.728200;,
       0.538057; 0.728200;,
       0.465449; 0.796303;,
       0.536968; 0.796303;,
       0.465449; 0.796303;,
       0.536968; 0.796303;,
       0.468581; 0.871189;,
       0.533830; 0.871189;,
       0.468581; 0.871189;,
       0.533830; 0.871189;,
       0.475713; 0.941167;,
       0.526699; 0.941167;,
       0.475713; 0.941167;,
       0.526699; 0.941167;,
       0.482461; 0.957111;,
       0.519951; 0.957111;,
       0.482461; 0.957111;,
       0.519951; 0.957111;,
       0.548182; 0.140565;,
       0.471123; 0.154162;,
       0.471123; 0.140565;,
       0.548182; 0.154162;,
       0.670450; 0.142933;,
       0.670450; 0.151794;,
       0.670450; 0.142933;,
       0.670450; 0.151794;,
       0.353664; 0.142727;,
       0.353664; 0.151999;,
       0.353664; 0.142727;,
       0.353664; 0.151999;,
       0.471123; 0.140565;,
       0.548182; 0.154162;,
       0.548182; 0.140565;,
       0.471123; 0.154162;,
       0.506618; 0.167466;,
       0.529029; 0.215712;,
       0.523473; 0.167466;,
       0.501926; 0.215712;,
       0.670450; 0.151794;,
       0.670450; 0.142933;,
       0.670450; 0.142933;,
       0.670450; 0.151794;,
       0.523473; 0.167466;,
       0.506618; 0.167466;,
       0.524263; 0.292467;,
       0.501926; 0.246118;,
       0.505951; 0.292467;,
       0.529029; 0.246118;,
       0.353664; 0.142727;,
       0.353664; 0.151999;,
       0.353664; 0.151999;,
       0.353664; 0.142727;,
       0.505951; 0.292467;,
       0.524263; 0.292467;,
       0.485130; 0.246118;,
       0.485130; 0.215712;,
       0.496173; 0.167466;,
       0.494609; 0.292467;,
       0.485130; 0.215712;,
       0.485130; 0.246118;,
       0.496173; 0.167466;,
       0.494609; 0.292467;,
       0.543546; 0.215712;,
       0.543546; 0.246118;,
       0.532504; 0.167466;,
       0.534073; 0.292467;,
       0.543546; 0.246118;,
       0.543546; 0.215712;,
       0.532504; 0.167466;,
       0.534073; 0.292467;,
       0.492108; 0.135976;,
       0.483858; 0.143162;,
       0.492108; 0.143162;,
       0.483858; 0.135976;,
       0.504028; 0.135976;,
       0.504028; 0.143162;,
       0.517256; 0.135976;,
       0.517256; 0.143162;,
       0.529176; 0.135976;,
       0.529176; 0.143162;,
       0.537426; 0.135976;,
       0.537426; 0.143162;,
       0.540370; 0.135976;,
       0.540370; 0.143162;,
       0.537426; 0.135976;,
       0.537426; 0.143162;,
       0.529176; 0.135976;,
       0.529176; 0.143162;,
       0.517256; 0.135976;,
       0.517256; 0.143162;,
       0.504028; 0.135976;,
       0.504028; 0.143162;,
       0.492108; 0.135976;,
       0.492108; 0.143162;,
       0.483858; 0.135976;,
       0.483858; 0.143162;,
       0.480914; 0.135976;,
       0.480914; 0.143162;,
       0.497329; 0.015031;,
       0.489293; 0.015031;,
       0.491407; 0.015031;,
       0.491407; 0.015031;,
       0.505893; 0.015031;,
       0.497329; 0.015031;,
       0.515391; 0.015031;,
       0.505893; 0.015031;,
       0.523954; 0.015031;,
       0.515391; 0.015031;,
       0.529877; 0.015031;,
       0.523954; 0.015031;,
       0.531990; 0.015031;,
       0.529877; 0.015031;,
       0.517246; 0.071335;,
       0.504038; 0.071335;,
       0.529151; 0.071335;,
       0.537386; 0.071335;,
       0.540330; 0.071335;,
       0.537386; 0.071335;,
       0.529151; 0.071335;,
       0.517246; 0.071335;,
       0.504038; 0.071335;,
       0.492133; 0.071335;,
       0.483898; 0.071335;,
       0.480959; 0.071335;,
       0.483898; 0.071335;,
       0.492133; 0.071335;,
       0.516381; 0.050231;,
       0.504908; 0.050231;,
       0.526714; 0.050231;,
       0.533870; 0.050231;,
       0.536421; 0.050231;,
       0.533870; 0.050231;,
       0.526714; 0.050231;,
       0.516381; 0.050231;,
       0.504908; 0.050231;,
       0.494570; 0.050231;,
       0.487414; 0.050231;,
       0.484863; 0.050231;,
       0.487414; 0.050231;,
       0.494570; 0.050231;,
       0.519369; 0.045543;,
       0.501914; 0.045543;,
       0.535099; 0.045543;,
       0.545984; 0.045543;,
       0.549868; 0.045543;,
       0.545984; 0.045543;,
       0.535099; 0.045543;,
       0.519369; 0.045543;,
       0.501914; 0.045543;,
       0.486185; 0.045543;,
       0.475300; 0.045543;,
       0.471416; 0.045543;,
       0.475300; 0.045543;,
       0.486185; 0.045543;,
       0.520588; 0.034002;,
       0.500696; 0.034002;,
       0.538515; 0.034002;,
       0.550917; 0.034002;,
       0.555343; 0.034002;,
       0.550917; 0.034002;,
       0.538515; 0.034002;,
       0.520588; 0.034002;,
       0.500696; 0.034002;,
       0.482774; 0.034002;,
       0.470367; 0.034002;,
       0.465941; 0.034002;,
       0.470367; 0.034002;,
       0.482774; 0.034002;,
       0.520384; 0.025914;,
       0.500900; 0.025914;,
       0.537938; 0.025914;,
       0.550087; 0.025914;,
       0.554423; 0.025914;,
       0.550087; 0.025914;,
       0.537938; 0.025914;,
       0.520384; 0.025914;,
       0.500900; 0.025914;,
       0.483346; 0.025914;,
       0.471197; 0.025914;,
       0.466861; 0.025914;,
       0.471197; 0.025914;,
       0.483346; 0.025914;,
       0.518882; 0.020267;,
       0.502402; 0.020267;,
       0.533731; 0.020267;,
       0.544010; 0.020267;,
       0.547675; 0.020267;,
       0.544010; 0.020267;,
       0.533731; 0.020267;,
       0.518882; 0.020267;,
       0.502402; 0.020267;,
       0.487553; 0.020267;,
       0.477274; 0.020267;,
       0.473609; 0.020267;,
       0.477274; 0.020267;,
       0.487553; 0.020267;;
      }

      MeshVertexColors {
       214;
       0; 1.000000; 1.000000; 1.000000; 1.000000;,
       1; 1.000000; 1.000000; 1.000000; 1.000000;,
       2; 1.000000; 1.000000; 1.000000; 1.000000;,
       3; 1.000000; 1.000000; 1.000000; 1.000000;,
       4; 1.000000; 1.000000; 1.000000; 1.000000;,
       5; 1.000000; 1.000000; 1.000000; 1.000000;,
       6; 1.000000; 1.000000; 1.000000; 1.000000;,
       7; 1.000000; 1.000000; 1.000000; 1.000000;,
       8; 1.000000; 1.000000; 1.000000; 1.000000;,
       9; 1.000000; 1.000000; 1.000000; 1.000000;,
       10; 1.000000; 1.000000; 1.000000; 1.000000;,
       11; 1.000000; 1.000000; 1.000000; 1.000000;,
       12; 1.000000; 1.000000; 1.000000; 1.000000;,
       13; 1.000000; 1.000000; 1.000000; 1.000000;,
       14; 1.000000; 1.000000; 1.000000; 1.000000;,
       15; 1.000000; 1.000000; 1.000000; 1.000000;,
       16; 1.000000; 1.000000; 1.000000; 1.000000;,
       17; 1.000000; 1.000000; 1.000000; 1.000000;,
       18; 1.000000; 1.000000; 1.000000; 1.000000;,
       19; 1.000000; 1.000000; 1.000000; 1.000000;,
       20; 1.000000; 1.000000; 1.000000; 1.000000;,
       21; 1.000000; 1.000000; 1.000000; 1.000000;,
       22; 1.000000; 1.000000; 1.000000; 1.000000;,
       23; 1.000000; 1.000000; 1.000000; 1.000000;,
       24; 1.000000; 1.000000; 1.000000; 1.000000;,
       25; 1.000000; 1.000000; 1.000000; 1.000000;,
       26; 1.000000; 1.000000; 1.000000; 1.000000;,
       27; 1.000000; 1.000000; 1.000000; 1.000000;,
       28; 1.000000; 1.000000; 1.000000; 1.000000;,
       29; 1.000000; 1.000000; 1.000000; 1.000000;,
       30; 1.000000; 1.000000; 1.000000; 1.000000;,
       31; 1.000000; 1.000000; 1.000000; 1.000000;,
       32; 1.000000; 1.000000; 1.000000; 1.000000;,
       33; 1.000000; 1.000000; 1.000000; 1.000000;,
       34; 1.000000; 1.000000; 1.000000; 1.000000;,
       35; 1.000000; 1.000000; 1.000000; 1.000000;,
       36; 1.000000; 1.000000; 1.000000; 1.000000;,
       37; 1.000000; 1.000000; 1.000000; 1.000000;,
       38; 1.000000; 1.000000; 1.000000; 1.000000;,
       39; 1.000000; 1.000000; 1.000000; 1.000000;,
       40; 1.000000; 1.000000; 1.000000; 1.000000;,
       41; 1.000000; 1.000000; 1.000000; 1.000000;,
       42; 1.000000; 1.000000; 1.000000; 1.000000;,
       43; 1.000000; 1.000000; 1.000000; 1.000000;,
       44; 1.000000; 1.000000; 1.000000; 1.000000;,
       45; 1.000000; 1.000000; 1.000000; 1.000000;,
       46; 1.000000; 1.000000; 1.000000; 1.000000;,
       47; 1.000000; 1.000000; 1.000000; 1.000000;,
       48; 1.000000; 1.000000; 1.000000; 1.000000;,
       49; 1.000000; 1.000000; 1.000000; 1.000000;,
       50; 1.000000; 1.000000; 1.000000; 1.000000;,
       51; 1.000000; 1.000000; 1.000000; 1.000000;,
       52; 1.000000; 1.000000; 1.000000; 1.000000;,
       53; 1.000000; 1.000000; 1.000000; 1.000000;,
       54; 1.000000; 1.000000; 1.000000; 1.000000;,
       55; 1.000000; 1.000000; 1.000000; 1.000000;,
       56; 1.000000; 1.000000; 1.000000; 1.000000;,
       57; 1.000000; 1.000000; 1.000000; 1.000000;,
       58; 1.000000; 1.000000; 1.000000; 1.000000;,
       59; 1.000000; 1.000000; 1.000000; 1.000000;,
       60; 1.000000; 1.000000; 1.000000; 1.000000;,
       61; 1.000000; 1.000000; 1.000000; 1.000000;,
       62; 1.000000; 1.000000; 1.000000; 1.000000;,
       63; 1.000000; 1.000000; 1.000000; 1.000000;,
       64; 1.000000; 1.000000; 1.000000; 1.000000;,
       65; 1.000000; 1.000000; 1.000000; 1.000000;,
       66; 1.000000; 1.000000; 1.000000; 1.000000;,
       67; 1.000000; 1.000000; 1.000000; 1.000000;,
       68; 1.000000; 1.000000; 1.000000; 1.000000;,
       69; 1.000000; 1.000000; 1.000000; 1.000000;,
       70; 1.000000; 1.000000; 1.000000; 1.000000;,
       71; 1.000000; 1.000000; 1.000000; 1.000000;,
       72; 1.000000; 1.000000; 1.000000; 1.000000;,
       73; 1.000000; 1.000000; 1.000000; 1.000000;,
       74; 1.000000; 1.000000; 1.000000; 1.000000;,
       75; 1.000000; 1.000000; 1.000000; 1.000000;,
       76; 1.000000; 1.000000; 1.000000; 1.000000;,
       77; 1.000000; 1.000000; 1.000000; 1.000000;,
       78; 1.000000; 1.000000; 1.000000; 1.000000;,
       79; 1.000000; 1.000000; 1.000000; 1.000000;,
       80; 1.000000; 1.000000; 1.000000; 1.000000;,
       81; 1.000000; 1.000000; 1.000000; 1.000000;,
       82; 1.000000; 1.000000; 1.000000; 1.000000;,
       83; 1.000000; 1.000000; 1.000000; 1.000000;,
       84; 1.000000; 1.000000; 1.000000; 1.000000;,
       85; 1.000000; 1.000000; 1.000000; 1.000000;,
       86; 1.000000; 1.000000; 1.000000; 1.000000;,
       87; 1.000000; 1.000000; 1.000000; 1.000000;,
       88; 1.000000; 1.000000; 1.000000; 1.000000;,
       89; 1.000000; 1.000000; 1.000000; 1.000000;,
       90; 1.000000; 1.000000; 1.000000; 1.000000;,
       91; 1.000000; 1.000000; 1.000000; 1.000000;,
       92; 1.000000; 1.000000; 1.000000; 1.000000;,
       93; 1.000000; 1.000000; 1.000000; 1.000000;,
       94; 1.000000; 1.000000; 1.000000; 1.000000;,
       95; 1.000000; 1.000000; 1.000000; 1.000000;,
       96; 1.000000; 1.000000; 1.000000; 1.000000;,
       97; 1.000000; 1.000000; 1.000000; 1.000000;,
       98; 1.000000; 1.000000; 1.000000; 1.000000;,
       99; 1.000000; 1.000000; 1.000000; 1.000000;,
       100; 1.000000; 1.000000; 1.000000; 1.000000;,
       101; 1.000000; 1.000000; 1.000000; 1.000000;,
       102; 1.000000; 1.000000; 1.000000; 1.000000;,
       103; 1.000000; 1.000000; 1.000000; 1.000000;,
       104; 1.000000; 1.000000; 1.000000; 1.000000;,
       105; 1.000000; 1.000000; 1.000000; 1.000000;,
       106; 1.000000; 1.000000; 1.000000; 1.000000;,
       107; 1.000000; 1.000000; 1.000000; 1.000000;,
       108; 1.000000; 1.000000; 1.000000; 1.000000;,
       109; 1.000000; 1.000000; 1.000000; 1.000000;,
       110; 1.000000; 1.000000; 1.000000; 1.000000;,
       111; 1.000000; 1.000000; 1.000000; 1.000000;,
       112; 1.000000; 1.000000; 1.000000; 1.000000;,
       113; 1.000000; 1.000000; 1.000000; 1.000000;,
       114; 1.000000; 1.000000; 1.000000; 1.000000;,
       115; 1.000000; 1.000000; 1.000000; 1.000000;,
       116; 1.000000; 1.000000; 1.000000; 1.000000;,
       117; 1.000000; 1.000000; 1.000000; 1.000000;,
       118; 1.000000; 1.000000; 1.000000; 1.000000;,
       119; 1.000000; 1.000000; 1.000000; 1.000000;,
       120; 1.000000; 1.000000; 1.000000; 1.000000;,
       121; 1.000000; 1.000000; 1.000000; 1.000000;,
       122; 1.000000; 1.000000; 1.000000; 1.000000;,
       123; 1.000000; 1.000000; 1.000000; 1.000000;,
       124; 1.000000; 1.000000; 1.000000; 1.000000;,
       125; 1.000000; 1.000000; 1.000000; 1.000000;,
       126; 1.000000; 1.000000; 1.000000; 1.000000;,
       127; 1.000000; 1.000000; 1.000000; 1.000000;,
       128; 1.000000; 1.000000; 1.000000; 1.000000;,
       129; 1.000000; 1.000000; 1.000000; 1.000000;,
       130; 1.000000; 1.000000; 1.000000; 1.000000;,
       131; 1.000000; 1.000000; 1.000000; 1.000000;,
       132; 1.000000; 1.000000; 1.000000; 1.000000;,
       133; 1.000000; 1.000000; 1.000000; 1.000000;,
       134; 1.000000; 1.000000; 1.000000; 1.000000;,
       135; 1.000000; 1.000000; 1.000000; 1.000000;,
       136; 1.000000; 1.000000; 1.000000; 1.000000;,
       137; 1.000000; 1.000000; 1.000000; 1.000000;,
       138; 1.000000; 1.000000; 1.000000; 1.000000;,
       139; 1.000000; 1.000000; 1.000000; 1.000000;,
       140; 1.000000; 1.000000; 1.000000; 1.000000;,
       141; 1.000000; 1.000000; 1.000000; 1.000000;,
       142; 1.000000; 1.000000; 1.000000; 1.000000;,
       143; 1.000000; 1.000000; 1.000000; 1.000000;,
       144; 1.000000; 1.000000; 1.000000; 1.000000;,
       145; 1.000000; 1.000000; 1.000000; 1.000000;,
       146; 1.000000; 1.000000; 1.000000; 1.000000;,
       147; 1.000000; 1.000000; 1.000000; 1.000000;,
       148; 1.000000; 1.000000; 1.000000; 1.000000;,
       149; 1.000000; 1.000000; 1.000000; 1.000000;,
       150; 1.000000; 1.000000; 1.000000; 1.000000;,
       151; 1.000000; 1.000000; 1.000000; 1.000000;,
       152; 1.000000; 1.000000; 1.000000; 1.000000;,
       153; 1.000000; 1.000000; 1.000000; 1.000000;,
       154; 1.000000; 1.000000; 1.000000; 1.000000;,
       155; 1.000000; 1.000000; 1.000000; 1.000000;,
       156; 1.000000; 1.000000; 1.000000; 1.000000;,
       157; 1.000000; 1.000000; 1.000000; 1.000000;,
       158; 1.000000; 1.000000; 1.000000; 1.000000;,
       159; 1.000000; 1.000000; 1.000000; 1.000000;,
       160; 1.000000; 1.000000; 1.000000; 1.000000;,
       161; 1.000000; 1.000000; 1.000000; 1.000000;,
       162; 1.000000; 1.000000; 1.000000; 1.000000;,
       163; 1.000000; 1.000000; 1.000000; 1.000000;,
       164; 1.000000; 1.000000; 1.000000; 1.000000;,
       165; 1.000000; 1.000000; 1.000000; 1.000000;,
       166; 1.000000; 1.000000; 1.000000; 1.000000;,
       167; 1.000000; 1.000000; 1.000000; 1.000000;,
       168; 1.000000; 1.000000; 1.000000; 1.000000;,
       169; 1.000000; 1.000000; 1.000000; 1.000000;,
       170; 1.000000; 1.000000; 1.000000; 1.000000;,
       171; 1.000000; 1.000000; 1.000000; 1.000000;,
       172; 1.000000; 1.000000; 1.000000; 1.000000;,
       173; 1.000000; 1.000000; 1.000000; 1.000000;,
       174; 1.000000; 1.000000; 1.000000; 1.000000;,
       175; 1.000000; 1.000000; 1.000000; 1.000000;,
       176; 1.000000; 1.000000; 1.000000; 1.000000;,
       177; 1.000000; 1.000000; 1.000000; 1.000000;,
       178; 1.000000; 1.000000; 1.000000; 1.000000;,
       179; 1.000000; 1.000000; 1.000000; 1.000000;,
       180; 1.000000; 1.000000; 1.000000; 1.000000;,
       181; 1.000000; 1.000000; 1.000000; 1.000000;,
       182; 1.000000; 1.000000; 1.000000; 1.000000;,
       183; 1.000000; 1.000000; 1.000000; 1.000000;,
       184; 1.000000; 1.000000; 1.000000; 1.000000;,
       185; 1.000000; 1.000000; 1.000000; 1.000000;,
       186; 1.000000; 1.000000; 1.000000; 1.000000;,
       187; 1.000000; 1.000000; 1.000000; 1.000000;,
       188; 1.000000; 1.000000; 1.000000; 1.000000;,
       189; 1.000000; 1.000000; 1.000000; 1.000000;,
       190; 1.000000; 1.000000; 1.000000; 1.000000;,
       191; 1.000000; 1.000000; 1.000000; 1.000000;,
       192; 1.000000; 1.000000; 1.000000; 1.000000;,
       193; 1.000000; 1.000000; 1.000000; 1.000000;,
       194; 1.000000; 1.000000; 1.000000; 1.000000;,
       195; 1.000000; 1.000000; 1.000000; 1.000000;,
       196; 1.000000; 1.000000; 1.000000; 1.000000;,
       197; 1.000000; 1.000000; 1.000000; 1.000000;,
       198; 1.000000; 1.000000; 1.000000; 1.000000;,
       199; 1.000000; 1.000000; 1.000000; 1.000000;,
       200; 1.000000; 1.000000; 1.000000; 1.000000;,
       201; 1.000000; 1.000000; 1.000000; 1.000000;,
       202; 1.000000; 1.000000; 1.000000; 1.000000;,
       203; 1.000000; 1.000000; 1.000000; 1.000000;,
       204; 1.000000; 1.000000; 1.000000; 1.000000;,
       205; 1.000000; 1.000000; 1.000000; 1.000000;,
       206; 1.000000; 1.000000; 1.000000; 1.000000;,
       207; 1.000000; 1.000000; 1.000000; 1.000000;,
       208; 1.000000; 1.000000; 1.000000; 1.000000;,
       209; 1.000000; 1.000000; 1.000000; 1.000000;,
       210; 1.000000; 1.000000; 1.000000; 1.000000;,
       211; 1.000000; 1.000000; 1.000000; 1.000000;,
       212; 1.000000; 1.000000; 1.000000; 1.000000;,
       213; 1.000000; 1.000000; 1.000000; 1.000000;;
      }

      MeshMaterialList {
       1;
       364;
       0,
       0,
       0,
       0,
       0,
       0,
       0,
       0,
       0,
       0,
       0,
       0,
       0,
       0,
       0,
       0,
       0,
       0,
       0,
       0,
       0,
       0,
       0,
       0,
       0,
       0,
       0,
       0,
       0,
       0,
       0,
       0,
       0,
       0,
       0,
       0,
       0,
       0,
       0,
       0,
       0,
       0,
       0,
       0,
       0,
       0,
       0,
       0,
       0,
       0,
       0,
       0,
       0,
       0,
       0,
       0,
       0,
       0,
       0,
       0,
       0,
       0,
       0,
       0,
       0,
       0,
       0,
       0,
       0,
       0,
       0,
       0,
       0,
       0,
       0,
       0,
       0,
       0,
       0,
       0,
       0,
       0,
       0,
       0,
       0,
       0,
       0,
       0,
       0,
       0,
       0,
       0,
       0,
       0,
       0,
       0,
       0,
       0,
       0,
       0,
       0,
       0,
       0,
       0,
       0,
       0,
       0,
       0,
       0,
       0,
       0,
       0,
       0,
       0,
       0,
       0,
       0,
       0,
       0,
       0,
       0,
       0,
       0,
       0,
       0,
       0,
       0,
       0,
       0,
       0,
       0,
       0,
       0,
       0,
       0,
       0,
       0,
       0,
       0,
       0,
       0,
       0,
       0,
       0,
       0,
       0,
       0,
       0,
       0,
       0,
       0,
       0,
       0,
       0,
       0,
       0,
       0,
       0,
       0,
       0,
       0,
       0,
       0,
       0,
       0,
       0,
       0,
       0,
       0,
       0,
       0,
       0,
       0,
       0,
       0,
       0,
       0,
       0,
       0,
       0,
       0,
       0,
       0,
       0,
       0,
       0,
       0,
       0,
       0,
       0,
       0,
       0,
       0,
       0,
       0,
       0,
       0,
       0,
       0,
       0,
       0,
       0,
       0,
       0,
       0,
       0,
       0,
       0,
       0,
       0,
       0,
       0,
       0,
       0,
       0,
       0,
       0,
       0,
       0,
       0,
       0,
       0,
       0,
       0,
       0,
       0,
       0,
       0,
       0,
       0,
       0,
       0,
       0,
       0,
       0,
       0,
       0,
       0,
       0,
       0,
       0,
       0,
       0,
       0,
       0,
       0,
       0,
       0,
       0,
       0,
       0,
       0,
       0,
       0,
       0,
       0,
       0,
       0,
       0,
       0,
       0,
       0,
       0,
       0,
       0,
       0,
       0,
       0,
       0,
       0,
       0,
       0,
       0,
       0,
       0,
       0,
       0,
       0,
       0,
       0,
       0,
       0,
       0,
       0,
       0,
       0,
       0,
       0,
       0,
       0,
       0,
       0,
       0,
       0,
       0,
       0,
       0,
       0,
       0,
       0,
       0,
       0,
       0,
       0,
       0,
       0,
       0,
       0,
       0,
       0,
       0,
       0,
       0,
       0,
       0,
       0,
       0,
       0,
       0,
       0,
       0,
       0,
       0,
       0,
       0,
       0,
       0,
       0,
       0,
       0,
       0,
       0,
       0,
       0,
       0,
       0,
       0,
       0,
       0,
       0,
       0,
       0,
       0,
       0,
       0,
       0,
       0,
       0,
       0,
       0,
       0,
       0,
       0,
       0,
       0,
       0,
       0,
       0,
       0,
       0,
       0,
       0,
       0,
       0;

       Material def_surf_mat {
        0.992157; 0.992157; 0.992157; 1.000000;;
        1.000000;
        0.150000; 0.150000; 0.150000;;
        0.000000; 0.000000; 0.000000;;

        TextureFilename {
         "sword.dds";
        }
       }

      }

      XSkinMeshHeader {
       1;
       1;
       1;
      }

      SkinWeights {
       "Body";
       214;
       0,
       1,
       2,
       3,
       4,
       5,
       6,
       7,
       8,
       9,
       10,
       11,
       12,
       13,
       14,
       15,
       16,
       17,
       18,
       19,
       20,
       21,
       22,
       23,
       24,
       25,
       26,
       27,
       28,
       29,
       30,
       31,
       32,
       33,
       34,
       35,
       36,
       37,
       38,
       39,
       40,
       41,
       42,
       43,
       44,
       45,
       46,
       47,
       48,
       49,
       50,
       51,
       52,
       53,
       54,
       55,
       56,
       57,
       58,
       59,
       60,
       61,
       62,
       63,
       64,
       65,
       66,
       67,
       68,
       69,
       70,
       71,
       72,
       73,
       74,
       75,
       76,
       77,
       78,
       79,
       80,
       81,
       82,
       83,
       84,
       85,
       86,
       87,
       88,
       89,
       90,
       91,
       92,
       93,
       94,
       95,
       96,
       97,
       98,
       99,
       100,
       101,
       102,
       103,
       104,
       105,
       106,
       107,
       108,
       109,
       110,
       111,
       112,
       113,
       114,
       115,
       116,
       117,
       118,
       119,
       120,
       121,
       122,
       123,
       124,
       125,
       126,
       127,
       128,
       129,
       130,
       131,
       132,
       133,
       134,
       135,
       136,
       137,
       138,
       139,
       140,
       141,
       142,
       143,
       144,
       145,
       146,
       147,
       148,
       149,
       150,
       151,
       152,
       153,
       154,
       155,
       156,
       157,
       158,
       159,
       160,
       161,
       162,
       163,
       164,
       165,
       166,
       167,
       168,
       169,
       170,
       171,
       172,
       173,
       174,
       175,
       176,
       177,
       178,
       179,
       180,
       181,
       182,
       183,
       184,
       185,
       186,
       187,
       188,
       189,
       190,
       191,
       192,
       193,
       194,
       195,
       196,
       197,
       198,
       199,
       200,
       201,
       202,
       203,
       204,
       205,
       206,
       207,
       208,
       209,
       210,
       211,
       212,
       213;
       1.000000,
       1.000000,
       1.000000,
       1.000000,
       1.000000,
       1.000000,
       1.000000,
       1.000000,
       1.000000,
       1.000000,
       1.000000,
       1.000000,
       1.000000,
       1.000000,
       1.000000,
       1.000000,
       1.000000,
       1.000000,
       1.000000,
       1.000000,
       1.000000,
       1.000000,
       1.000000,
       1.000000,
       1.000000,
       1.000000,
       1.000000,
       1.000000,
       1.000000,
       1.000000,
       1.000000,
       1.000000,
       1.000000,
       1.000000,
       1.000000,
       1.000000,
       1.000000,
       1.000000,
       1.000000,
       1.000000,
       1.000000,
       1.000000,
       1.000000,
       1.000000,
       1.000000,
       1.000000,
       1.000000,
       1.000000,
       1.000000,
       1.000000,
       1.000000,
       1.000000,
       1.000000,
       1.000000,
       1.000000,
       1.000000,
       1.000000,
       1.000000,
       1.000000,
       1.000000,
       1.000000,
       1.000000,
       1.000000,
       1.000000,
       1.000000,
       1.000000,
       1.000000,
       1.000000,
       1.000000,
       1.000000,
       1.000000,
       1.000000,
       1.000000,
       1.000000,
       1.000000,
       1.000000,
       1.000000,
       1.000000,
       1.000000,
       1.000000,
       1.000000,
       1.000000,
       1.000000,
       1.000000,
       1.000000,
       1.000000,
       1.000000,
       1.000000,
       1.000000,
       1.000000,
       1.000000,
       1.000000,
       1.000000,
       1.000000,
       1.000000,
       1.000000,
       1.000000,
       1.000000,
       1.000000,
       1.000000,
       1.000000,
       1.000000,
       1.000000,
       1.000000,
       1.000000,
       1.000000,
       1.000000,
       1.000000,
       1.000000,
       1.000000,
       1.000000,
       1.000000,
       1.000000,
       1.000000,
       1.000000,
       1.000000,
       1.000000,
       1.000000,
       1.000000,
       1.000000,
       1.000000,
       1.000000,
       1.000000,
       1.000000,
       1.000000,
       1.000000,
       1.000000,
       1.000000,
       1.000000,
       1.000000,
       1.000000,
       1.000000,
       1.000000,
       1.000000,
       1.000000,
       1.000000,
       1.000000,
       1.000000,
       1.000000,
       1.000000,
       1.000000,
       1.000000,
       1.000000,
       1.000000,
       1.000000,
       1.000000,
       1.000000,
       1.000000,
       1.000000,
       1.000000,
       1.000000,
       1.000000,
       1.000000,
       1.000000,
       1.000000,
       1.000000,
       1.000000,
       1.000000,
       1.000000,
       1.000000,
       1.000000,
       1.000000,
       1.000000,
       1.000000,
       1.000000,
       1.000000,
       1.000000,
       1.000000,
       1.000000,
       1.000000,
       1.000000,
       1.000000,
       1.000000,
       1.000000,
       1.000000,
       1.000000,
       1.000000,
       1.000000,
       1.000000,
       1.000000,
       1.000000,
       1.000000,
       1.000000,
       1.000000,
       1.000000,
       1.000000,
       1.000000,
       1.000000,
       1.000000,
       1.000000,
       1.000000,
       1.000000,
       1.000000,
       1.000000,
       1.000000,
       1.000000,
       1.000000,
       1.000000,
       1.000000,
       1.000000,
       1.000000,
       1.000000,
       1.000000,
       1.000000,
       1.000000,
       1.000000,
       1.000000,
       1.000000,
       1.000000,
       1.000000,
       1.000000,
       1.000000,
       1.000000,
       1.000000;
          1.000000, -0.000000, 0.000000, 0.000000,
          -0.000000, 1.000000, -0.000000, 0.000000,
          0.000000, -0.000000, 1.000000, 0.000000,
          -0.000000, -0.000000, -0.000000, 1.000000;;
      }


     }
   }

// Start of Animation

AnimationSet Untitled {
}
