<?xml version="1.0" encoding="utf-8"?>
<COLLADA xmlns="http://www.collada.org/2005/11/COLLADASchema" version="1.4.1">
  <asset>
    <contributor>
      <author>Ultimate Unwrap3D Pro</author>
      <authoring_tool>Ultimate Unwrap3D Pro v3.19</authoring_tool>
      <comments>Exported from Ultimate Unwrap3D Pro on Thu Dec 10 22:05:36 2009</comments>
      <source_data>file:///C:/Users/Public/Documents/Unity%20Projects/Island%20Demo/Assets/new/castle_props/table.dae</source_data>
    </contributor>
    <created>2009-12-10T22:05:36Z</created>
    <modified>2009-12-10T22:05:36Z</modified>
    <unit meter="1" name="meter"/>
    <up_axis>Y_UP</up_axis>
  </asset>
  <library_images>
    <image id="Image" name="table">
      <init_from>./table.dds</init_from>
    </image>
  </library_images>
  <library_materials>
    <material id="VisualMaterial1" name="Unassigned">
      <instance_effect url="#Effect"/>
    </material>
    <material id="VisualMaterial" name="def_surf_mat">
      <instance_effect url="#Effect1"/>
    </material>
  </library_materials>
  <library_effects>
    <effect id="Effect" name="Unassigned_eff">
      <profile_COMMON>
        <technique sid="common">
          <phong>
            <ambient>
              <color>0 0 0 1</color>
            </ambient>
            <diffuse>
              <color>1 1 1 1</color>
            </diffuse>
            <specular>
              <color>0 0 0 1</color>
            </specular>
            <shininess>
              <float>100</float>
            </shininess>
            <reflective>
              <color>0 0 0 1</color>
            </reflective>
            <reflectivity>
              <float>1</float>
            </reflectivity>
            <transparent opaque="A_ONE">
              <color>1 1 1 1</color>
            </transparent>
            <transparency>
              <float>0</float>
            </transparency>
            <index_of_refraction>
              <float>0</float>
            </index_of_refraction>
          </phong>
          <extra>
            <technique profile="FCOLLADA">
              <spec_level>
                <float>0</float>
              </spec_level>
              <emission_level>
                <float>0</float>
              </emission_level>
            </technique>
          </extra>
        </technique>
      </profile_COMMON>
      <extra>
        <technique profile="MAX3D">
          <faceted>0</faceted>
          <double_sided>0</double_sided>
          <wireframe>0</wireframe>
          <face_map>0</face_map>
        </technique>
      </extra>
    </effect>
    <effect id="Effect1" name="def_surf_mat_eff">
      <profile_COMMON>
        <newparam sid="Image-surface">
          <surface type="2D">
            <init_from>Image</init_from>
            <format>A8R8G8B8</format>
          </surface>
        </newparam>
        <newparam sid="Image-sampler">
          <sampler2D>
            <source>Image-surface</source>
            <minfilter>LINEAR_MIPMAP_LINEAR</minfilter>
            <magfilter>LINEAR</magfilter>
          </sampler2D>
        </newparam>
        <technique sid="common">
          <phong>
            <ambient>
              <color>0 0 0 1</color>
            </ambient>
            <diffuse>
              <texture texture="Image-sampler" texcoord="UVSET0">
                <extra>
                  <technique profile="MAX3D">
                    <amount>1</amount>
                  </technique>
                </extra>
              </texture>
            </diffuse>
            <specular>
              <color>0.15 0.15 0.15 1</color>
            </specular>
            <shininess>
              <float>0.78125</float>
            </shininess>
            <reflective>
              <color>0 0 0 1</color>
            </reflective>
            <reflectivity>
              <float>1</float>
            </reflectivity>
            <transparent opaque="A_ONE">
              <color>1 1 1 1</color>
            </transparent>
            <transparency>
              <float>0</float>
            </transparency>
            <index_of_refraction>
              <float>0</float>
            </index_of_refraction>
          </phong>
          <extra>
            <technique profile="FCOLLADA">
              <spec_level>
                <float>0</float>
              </spec_level>
              <emission_level>
                <float>0</float>
              </emission_level>
            </technique>
          </extra>
        </technique>
      </profile_COMMON>
      <extra>
        <technique profile="MAX3D">
          <faceted>0</faceted>
          <double_sided>0</double_sided>
          <wireframe>0</wireframe>
          <face_map>0</face_map>
        </technique>
      </extra>
    </effect>
  </library_effects>
  <library_geometries>
    <geometry id="geomU3D_id" name="geomU3D">
      <mesh>
        <source id="PositionSrc_id" name="PositionSrc">
          <float_array id="PositionSrc_id-array" count="792">39.2138 31.1211 -15.2101 -39.2138 31.1211 -15.2101 39.2138 31.1211 14.964 -39.2138 31.1211 14.964 39.2138 28.2527 -15.2101 39.2138 31.1211 -15.2101 39.2138 28.2527 14.964 39.2138 31.1211 14.964 -39.2138 28.2527 -15.2101 39.2138 28.2527 -15.2101 -39.2138 28.2527 14.964 39.2138 28.2527 14.964 -39.2138 31.1211 -15.2101 -39.2138 28.2527 -15.2101 -39.2138 31.1211 14.964 -39.2138 28.2527 14.964 39.2138 28.2527 -15.2101 -39.2138 28.2527 -15.2101 39.2138 31.1211 -15.2101 -39.2138 31.1211 -15.2101 -39.2138 28.2527 14.964 39.2138 28.2527 14.964 -39.2138 31.1211 14.964 39.2138 31.1211 14.964 32.7115 28.3068 -15.2101 26.8608 28.3068 -15.2101 32.7115 28.3068 14.964 26.8608 28.3068 14.964 32.7115 25.4384 -15.2101 32.7115 28.3068 -15.2101 32.7115 25.4384 14.964 32.7115 28.3068 14.964 26.8608 25.4384 -15.2101 32.7115 25.4384 -15.2101 26.8608 25.4384 14.964 32.7115 25.4384 14.964 26.8608 28.3068 -15.2101 26.8608 25.4384 -15.2101 26.8608 28.3068 14.964 26.8608 25.4384 14.964 32.7115 25.4384 -15.2101 26.8608 25.4384 -15.2101 32.7115 28.3068 -15.2101 26.8608 28.3068 -15.2101 26.8608 25.4384 14.964 32.7115 25.4384 14.964 26.8608 28.3068 14.964 32.7115 28.3068 14.964 31.7869 25.6293 -1.96619 27.7854 25.6293 -1.96619 31.7869 25.6293 1.72 27.7854 25.6293 1.72 31.7869 4.30079 -1.96619 31.7869 25.6293 -1.96619 31.7869 4.30079 1.72 31.7869 25.6293 1.72 27.7854 4.30079 -1.96619 31.7869 4.30079 -1.96619 27.7854 4.30079 1.72 31.7869 4.30079 1.72 27.7854 25.6293 -1.96619 27.7854 4.30079 -1.96619 27.7854 25.6293 1.72 27.7854 4.30079 1.72 31.7869 4.30079 -1.96619 27.7854 4.30079 -1.96619 31.7869 25.6293 -1.96619 27.7854 25.6293 -1.96619 27.7854 4.30079 1.72 31.7869 4.30079 1.72 27.7854 25.6293 1.72 31.7869 25.6293 1.72 -27.7513 28.3068 -15.2101 -33.602 28.3068 -15.2101 -27.7513 28.3068 14.964 -33.602 28.3068 14.964 -27.7513 25.4384 -15.2101 -27.7513 28.3068 -15.2101 -27.7513 25.4384 14.964 -27.7513 28.3068 14.964 -33.602 25.4384 -15.2101 -27.7513 25.4384 -15.2101 -33.602 25.4384 14.964 -27.7513 25.4384 14.964 -33.602 28.3068 -15.2101 -33.602 25.4384 -15.2101 -33.602 28.3068 14.964 -33.602 25.4384 14.964 -27.7513 25.4384 -15.2101 -33.602 25.4384 -15.2101 -27.7513 28.3068 -15.2101 -33.602 28.3068 -15.2101 -33.602 25.4384 14.964 -27.7513 25.4384 14.964 -33.602 28.3068 14.964 -27.7513 28.3068 14.964 -28.6759 25.6293 -1.96619 -32.6774 25.6293 -1.96619 -28.6759 25.6293 1.72 -32.6774 25.6293 1.72 -32.6774 4.30079 -1.96619 -28.6759 4.30079 -1.96619 -32.6774 4.30079 1.72 -28.6759 4.30079 1.72 -32.6774 25.6293 -1.96619 -32.6774 4.30079 -1.96619 -32.6774 25.6293 1.72 -32.6774 4.30079 1.72 -28.6759 7.57322 -1.96619 -28.6759 25.6293 -1.96619 -28.6759 7.57322 1.72 -28.6759 25.6293 1.72 -28.6759 4.30079 -1.96619 -32.6774 4.30079 -1.96619 -28.6759 7.57322 -1.96619 -32.6774 25.6293 -1.96619 -28.6759 25.6293 -1.96619 -32.6774 4.30079 1.72 -28.6759 4.30079 1.72 -32.6774 25.6293 1.72 -28.6759 7.57322 1.72 -28.6759 25.6293 1.72 -28.6759 6.90784 -1.1928 -28.6759 4.96617 -1.1928 -28.6759 4.30079 -1.96619 -28.6759 6.90784 0.946602 -28.6759 4.96617 0.946602 -28.6759 4.30079 1.72 27.6557 4.96617 0.946602 27.6557 4.96617 -1.1928 27.6557 6.90784 0.946602 27.6557 6.90784 -1.1928 27.6557 4.96617 -1.1928 -28.6759 4.96617 -1.1928 27.6557 6.90784 -1.1928 -28.6759 6.90784 -1.1928 27.6557 4.96617 0.946602 -28.6759 4.96617 0.946602 27.6557 4.96617 -1.1928 -28.6759 4.96617 -1.1928 27.6557 6.90784 -1.1928 -28.6759 6.90784 -1.1928 27.6557 6.90784 0.946602 -28.6759 6.90784 0.946602 27.6557 6.90784 0.946602 -28.6759 6.90784 0.946602 27.6557 4.96617 0.946602 -28.6759 4.96617 0.946602 32.2403 4.27997 0 27.3319 4.27997 0 32.2403 4.27997 1.72 27.3319 4.27997 1.72 32.2403 0.000068 0 32.2403 4.27997 0 32.2403 0.000068 1.72 32.2403 4.27997 1.72 27.3319 0.000068 0 32.2403 0.000068 0 27.3319 0.000068 1.72 32.2403 0.000068 1.72 27.3319 4.27997 0 27.3319 0.000068 0 27.3319 4.27997 1.72 27.3319 0.000068 1.72 32.2403 4.27994 6.79121 27.3319 4.27994 6.79121 27.3319 4.27994 6.79121 27.3319 0.000039 6.79121 32.2403 0.000039 6.79121 32.2403 4.27994 6.79121 27.3319 0.000039 6.79121 32.2403 0.000039 6.79121 32.2403 -0.000000 15.7472 27.3319 -0.000000 15.7472 27.3319 -0.000000 15.7472 32.2403 -0.000000 15.7472 27.3319 -0.000000 15.7472 32.2403 -0.000000 15.7472 27.3319 4.27997 0 32.2403 4.27997 0 27.3319 4.27997 -1.71999 32.2403 4.27997 -1.71999 32.2403 4.27997 0 32.2403 0.000068 0 32.2403 4.27997 -1.71999 32.2403 0.000068 -1.71999 32.2403 0.000068 -1.71999 27.3319 0.000068 -1.71999 27.3319 0.000068 0 27.3319 4.27997 0 27.3319 0.000068 -1.71999 27.3319 4.27997 -1.71999 32.2403 4.27994 -6.7912 27.3319 4.27994 -6.7912 27.3319 4.27994 -6.7912 27.3319 0.000039 -6.7912 32.2403 0.000039 -6.7912 32.2403 4.27994 -6.7912 27.3319 0.000039 -6.7912 32.2403 0.000039 -6.7912 32.2403 -0.000000 -15.7472 27.3319 -0.000000 -15.7472 27.3319 -0.000000 -15.7472 32.2403 -0.000000 -15.7472 27.3319 -0.000000 -15.7472 32.2403 -0.000000 -15.7472 -28.2225 4.27997 0 -33.1308 4.27997 0 -28.2225 4.27997 1.72 -33.1308 4.27997 1.72 -28.2224 0.000068 0 -28.2225 4.27997 0 -28.2224 0.000068 1.72 -28.2225 4.27997 1.72 -33.1308 0.000068 0 -28.2224 0.000068 0 -33.1308 0.000068 1.72 -28.2224 0.000068 1.72 -33.1308 4.27997 0 -33.1308 0.000068 0 -33.1308 4.27997 1.72 -33.1308 0.000068 1.72 -28.2225 4.27994 6.79121 -33.1308 4.27994 6.79121 -33.1308 4.27994 6.79121 -33.1308 0.000039 6.79121 -28.2224 0.000039 6.79121 -28.2225 4.27994 6.79121 -33.1308 0.000039 6.79121 -28.2224 0.000039 6.79121 -28.2224 -0.000000 15.7472 -33.1308 -0.000000 15.7472 -33.1308 -0.000000 15.7472 -28.2224 -0.000000 15.7472 -33.1308 -0.000000 15.7472 -28.2224 -0.000000 15.7472 -33.1308 4.27997 0 -28.2225 4.27997 0 -33.1308 4.27997 -1.71999 -28.2225 4.27997 -1.71999 -28.2225 4.27997 0 -28.2224 0.000068 0 -28.2225 4.27997 -1.71999 -28.2224 0.000068 -1.71999 -28.2224 0.000068 -1.71999 -33.1308 0.000068 -1.71999 -33.1308 0.000068 0 -33.1308 4.27997 0 -33.1308 0.000068 -1.71999 -33.1308 4.27997 -1.71999 -28.2225 4.27994 -6.7912 -33.1308 4.27994 -6.7912 -33.1308 4.27994 -6.7912 -33.1308 0.000039 -6.7912 -28.2224 0.000039 -6.7912 -28.2225 4.27994 -6.7912 -33.1308 0.000039 -6.7912 -28.2224 0.000039 -6.7912 -28.2224 -0.000000 -15.7472 -33.1308 -0.000000 -15.7472 -33.1308 -0.000000 -15.7472 -28.2224 -0.000000 -15.7472 -33.1308 -0.000000 -15.7472 -28.2224 -0.000000 -15.7472</float_array>
          <technique_common>
            <accessor source="#PositionSrc_id-array" count="264" stride="3">
              <param name="X" type="float"/>
              <param name="Y" type="float"/>
              <param name="Z" type="float"/>
            </accessor>
          </technique_common>
        </source>
        <source id="NormalSrc_id" name="NormalSrc">
          <float_array id="NormalSrc_id-array" count="792">0 1 0 0 1 0 0 1 0 0 1 0 1 0 0 1 0 0 1 0 0 1 0 0 0 -1 0 0 -1 0 0 -1 0 0 -1 0 -1 0 0 -1 0 0 -1 0 0 -1 0 0 0 0 -1 0 0 -1 0 0 -1 0 0 -1 0 0 1 0 0 1 0 0 1 0 0 1 0 1 0 0 1 0 0 1 0 0 1 0 1 0 0 1 0 0 1 0 0 1 0 0 0 -1 0 0 -1 0 0 -1 0 0 -1 0 -1 0 0 -1 0 0 -1 0 0 -1 0 0 0 0 -1 0 0 -1 0 0 -1 0 0 -1 0 0 1 0 0 1 0 0 1 0 0 1 0 1 0 0 1 0 0 1 0 0 1 0 1 0 0 1 0 0 1 0 0 1 0 0 0 -1 0 0 -1 0 0 -1 0 0 -1 0 -1 0 0 -1 0 0 -1 0 0 -1 0 0 0 0 -1 0 0 -1 0 0 -1 0 0 -1 0 0 1 0 0 1 0 0 1 0 0 1 0 1 0 0 1 0 0 1 0 0 1 0 1 0 0 1 0 0 1 0 0 1 0 0 0 -1 0 0 -1 0 0 -1 0 0 -1 0 -1 0 0 -1 0 0 -1 0 0 -1 0 0 0 0 -1 0 0 -1 0 0 -1 0 0 -1 0 0 1 0 0 1 0 0 1 0 0 1 0 1 0 0 1 0 0 1 0 0 1 0 0 -1 0 0 -1 0 0 -1 0 0 -1 0 -1 0 0 -1 0 0 -1 0 0 -1 0 0 1 0 0 1 0 0 1 0 0 1 0 0 0 0 -1 0 0 -1 0 0 -1 0 0 -1 0 0 -1 0 0 1 0 0 1 0 0 1 0 0 1 0 0 1 1 0 0 1 0 0 1 0 0 1 0 0 1 0 0 1 0 0 1 0 0 1 0 0 1 0 0 1 0 0 0 0 -1 0 0 -1 0 0 -1 0 0 -1 0 -1 0 0 -1 0 0 -1 0 0 -1 0 0 1 0 0 1 0 0 1 0 0 1 0 0 0 1 0 0 1 0 0 1 0 0 1 0 1 0 0 1 0 0 1 0.000002 0 1 0.000002 1 0 0 1 0 0 1 0 0 1 0 0 0 -1 0 0 -1 0 0 -1 -0.000002 0 -1 -0.000002 -1 0 0 -1 0 0 -1 0 0 -1 0 0 0 0.955833 0.293909 0 0.989143 0.146958 -1 0 0 -1 0 0 1 0 0 1 0 0 0 -1 -0.000004 0 -1 -0.000005 0 0.902266 0.43118 0 0.902266 0.43118 -1 0 0 1 0 0 0 -1 -0.000004 0 -1 -0.000004 0 1 0 0 1 0 0 1 -0.000002 0 1 -0.000002 1 0 0 1 0 0 1 0 0 1 0 0 0 -1 0.000002 0 -1 0.000002 -1 0 0 -1 0 0 -1 0 0 -1 0 0 0 0.989143 -0.146957 0 0.955833 -0.293909 -1 0 0 -1 0 0 1 0 0 1 0 0 0 -1 0.000005 0 -1 0.000004 0 0.902266 -0.43118 0 0.902266 -0.43118 -1 0 0 1 0 0 0 -1 0.000004 0 -1 0.000004 0 1 0 0 1 0 0 1 0.000002 0 1 0.000002 1 0.000002 0 1 0.000002 0 1 0.000002 0 1 0.000002 0 0 -1 0 0 -1 0 0 -1 -0.000002 0 -1 -0.000002 -1 -0.000001 0 -1 -0.000001 0 -1 -0.000001 0.000000 -1 -0.000001 0 0 0.955833 0.293909 0 0.989143 0.146958 -1 0 0.000000 -1 -0.000000 0.000000 1 0.000002 0 1 0.000002 0 0 -1 -0.000004 0 -1 -0.000005 0 0.902266 0.43118 0 0.902266 0.43118 -1 0 0 1 0.000002 0 0 -1 -0.000004 0 -1 -0.000004 0 1 0 0 1 0 0 1 -0.000002 0 1 -0.000002 1 0.000002 0 1 0.000002 0 1 0.000002 0 1 0.000002 0 0 -1 0.000002 0 -1 0.000002 -1 -0.000001 0 -1 -0.000001 0 -1 -0.000001 -0.000000 -1 -0.000001 -0.000000 0 0.989143 -0.146957 0 0.955833 -0.293909 -1 -0.000000 -0.000000 -1 0 0 1 0.000002 0 1 0.000002 0 0 -1 0.000005 0 -1 0.000004 0 0.902266 -0.43118 0 0.902266 -0.43118 -1 0 0 1 0.000002 0 0 -1 0.000004 0 -1 0.000004</float_array>
          <technique_common>
            <accessor source="#NormalSrc_id-array" count="264" stride="3">
              <param name="X" type="float"/>
              <param name="Y" type="float"/>
              <param name="Z" type="float"/>
            </accessor>
          </technique_common>
        </source>
        <source id="ColorSrc_id" name="ColorSrc">
          <float_array id="ColorSrc_id-array" count="1056">1 1 1 1 1 1 1 1 1 1 1 1 1 1 1 1 1 1 1 1 1 1 1 1 1 1 1 1 1 1 1 1 1 1 1 1 1 1 1 1 1 1 1 1 1 1 1 1 1 1 1 1 1 1 1 1 1 1 1 1 1 1 1 1 1 1 1 1 1 1 1 1 1 1 1 1 1 1 1 1 1 1 1 1 1 1 1 1 1 1 1 1 1 1 1 1 1 1 1 1 1 1 1 1 1 1 1 1 1 1 1 1 1 1 1 1 1 1 1 1 1 1 1 1 1 1 1 1 1 1 1 1 1 1 1 1 1 1 1 1 1 1 1 1 1 1 1 1 1 1 1 1 1 1 1 1 1 1 1 1 1 1 1 1 1 1 1 1 1 1 1 1 1 1 1 1 1 1 1 1 1 1 1 1 1 1 1 1 1 1 1 1 1 1 1 1 1 1 1 1 1 1 1 1 1 1 1 1 1 1 1 1 1 1 1 1 1 1 1 1 1 1 1 1 1 1 1 1 1 1 1 1 1 1 1 1 1 1 1 1 1 1 1 1 1 1 1 1 1 1 1 1 1 1 1 1 1 1 1 1 1 1 1 1 1 1 1 1 1 1 1 1 1 1 1 1 1 1 1 1 1 1 1 1 1 1 1 1 1 1 1 1 1 1 1 1 1 1 1 1 1 1 1 1 1 1 1 1 1 1 1 1 1 1 1 1 1 1 1 1 1 1 1 1 1 1 1 1 1 1 1 1 1 1 1 1 1 1 1 1 1 1 1 1 1 1 1 1 1 1 1 1 1 1 1 1 1 1 1 1 1 1 1 1 1 1 1 1 1 1 1 1 1 1 1 1 1 1 1 1 1 1 1 1 1 1 1 1 1 1 1 1 1 1 1 1 1 1 1 1 1 1 1 1 1 1 1 1 1 1 1 1 1 1 1 1 1 1 1 1 1 1 1 1 1 1 1 1 1 1 1 1 1 1 1 1 1 1 1 1 1 1 1 1 1 1 1 1 1 1 1 1 1 1 1 1 1 1 1 1 1 1 1 1 1 1 1 1 1 1 1 1 1 1 1 1 1 1 1 1 1 1 1 1 1 1 1 1 1 1 1 1 1 1 1 1 1 1 1 1 1 1 1 1 1 1 1 1 1 1 1 1 1 1 1 1 1 1 1 1 1 1 1 1 1 1 1 1 1 1 1 1 1 1 1 1 1 1 1 1 1 1 1 1 1 1 1 1 1 1 1 1 1 1 1 1 1 1 1 1 1 1 1 1 1 1 1 1 1 1 1 1 1 1 1 1 1 1 1 1 1 1 1 1 1 1 1 1 1 1 1 1 1 1 1 1 1 1 1 1 1 1 1 1 1 1 1 1 1 1 1 1 1 1 1 1 1 1 1 1 1 1 1 1 1 1 1 1 1 1 1 1 1 1 1 1 1 1 1 1 1 1 1 1 1 1 1 1 1 1 1 1 1 1 1 1 1 1 1 1 1 1 1 1 1 1 1 1 1 1 1 1 1 1 1 1 1 1 1 1 1 1 1 1 1 1 1 1 1 1 1 1 1 1 1 1 1 1 1 1 1 1 1 1 1 1 1 1 1 1 1 1 1 1 1 1 1 1 1 1 1 1 1 1 1 1 1 1 1 1 1 1 1 1 1 1 1 1 1 1 1 1 1 1 1 1 1 1 1 1 1 1 1 1 1 1 1 1 1 1 1 1 1 1 1 1 1 1 1 1 1 1 1 1 1 1 1 1 1 1 1 1 1 1 1 1 1 1 1 1 1 1 1 1 1 1 1 1 1 1 1 1 1 1 1 1 1 1 1 1 1 1 1 1 1 1 1 1 1 1 1 1 1 1 1 1 1 1 1 1 1 1 1 1 1 1 1 1 1 1 1 1 1 1 1 1 1 1 1 1 1 1 1 1 1 1 1 1 1 1 1 1 1 1 1 1 1 1 1 1 1 1 1 1 1 1 1 1 1 1 1 1 1 1 1 1 1 1 1 1 1 1 1 1 1 1 1 1 1 1 1 1 1 1 1 1 1 1 1 1 1 1 1 1 1 1 1 1 1 1 1 1 1 1 1 1 1 1 1 1 1 1 1 1 1 1 1 1 1 1 1 1 1 1 1 1 1 1 1 1 1 1 1 1 1 1 1 1 1 1 1 1 1 1 1 1 1 1 1 1 1 1 1 1 1 1 1 1 1 1 1 1 1 1 1 1 1 1 1 1 1 1 1 1 1 1 1 1 1 1 1 1 1 1 1 1 1 1 1 1 1 1 1 1 1 1 1 1 1 1 1 1 1 1 1 1 1 1 1 1 1 1 1 1 1 1 1 1 1 1 1 1 1 1 1 1 1 1 1 1 1 1 1 1 1 1</float_array>
          <technique_common>
            <accessor source="#ColorSrc_id-array" count="264" stride="4">
              <param name="R" type="float"/>
              <param name="G" type="float"/>
              <param name="B" type="float"/>
              <param name="A" type="float"/>
            </accessor>
          </technique_common>
        </source>
        <source id="Tex1Src_id" name="Tex1Src">
          <float_array id="Tex1Src_id-array" count="1008">0.806326 0.064675 0.806326 0.990398 0.196974 0.064675 0.806326 0.990398 0.196974 0.990398 0.196974 0.064675 0.381163 0.227317 0.520807 0.227317 0.381163 0.715576 0.520807 0.227317 0.520807 0.715576 0.381163 0.715576 0.205285 0.973799 0.205285 0.048078 0.814637 0.973799 0.205285 0.048078 0.814637 0.048078 0.814637 0.973799 0.66434 0.61851 0.538271 0.61851 0.66434 0.139463 0.538271 0.61851 0.538271 0.139463 0.66434 0.139463 0.413993 0.975971 0.413993 0.105984 0.538121 0.975971 0.413993 0.105984 0.538121 0.105984 0.538121 0.975971 0.548844 0.97198 0.548844 0.109975 0.665862 0.97198 0.548844 0.109975 0.665862 0.109975 0.665862 0.97198 0.551679 0.837006 0.467477 0.837006 0.551679 0.27284 0.467477 0.837006 0.467477 0.27284 0.551679 0.27284 0.447866 0.138499 0.556874 0.138499 0.447866 0.54676 0.556874 0.138499 0.556874 0.54676 0.447866 0.54676 0.556717 0.27284 0.640918 0.27284 0.556717 0.837006 0.640918 0.27284 0.640918 0.837006 0.556717 0.837006 0.526409 0.831106 0.437082 0.831106 0.526409 0.38433 0.437082 0.831106 0.437082 0.38433 0.526409 0.38433 0.459255 0.230315 0.459255 0.180528 0.509722 0.230315 0.459255 0.180528 0.509722 0.180528 0.509722 0.230315 0.459255 0.28308 0.459255 0.233293 0.509722 0.28308 0.459255 0.233293 0.509722 0.233293 0.509722 0.28308 0.580735 0.821286 0.580735 0.855337 0.51588 0.821286 0.580735 0.855337 0.51588 0.855337 0.51588 0.821286 0.471157 0.266567 0.471157 0.665346 0.418107 0.266567 0.471157 0.665346 0.418107 0.665346 0.418107 0.266567 0.622272 0.964024 0.591442 0.964024 0.622272 0.903408 0.591442 0.964024 0.591442 0.903408 0.622272 0.903408 0.534282 0.665346 0.534282 0.266567 0.587333 0.665346 0.534282 0.266567 0.587333 0.266567 0.587333 0.665346 0.426678 0.196518 0.59023 0.196518 0.426678 0.826589 0.59023 0.196518 0.59023 0.826589 0.426678 0.826589 0.542285 0.312164 0.599874 0.312164 0.542285 0.710943 0.599874 0.312164 0.599874 0.710943 0.542285 0.710943 0.46244 0.837006 0.378238 0.837006 0.46244 0.27284 0.378238 0.837006 0.378238 0.27284 0.46244 0.27284 0.459255 0.286058 0.509722 0.286058 0.459255 0.542826 0.509722 0.286058 0.509722 0.542826 0.459255 0.542826 0.582925 0.389975 0.653905 0.389975 0.582925 0.714405 0.653905 0.389975 0.653905 0.714405 0.582925 0.714405 0.580735 0.74425 0.530269 0.74425 0.580735 0.487483 0.530269 0.74425 0.530269 0.487483 0.580735 0.487483 0.530269 0.224759 0.530269 0.174972 0.580735 0.224759 0.530269 0.174972 0.580735 0.174972 0.580735 0.224759 0.459255 0.595591 0.459255 0.545804 0.509722 0.595591 0.459255 0.545804 0.509722 0.545804 0.509722 0.595591 0.580735 0.784257 0.580735 0.818308 0.51588 0.784257 0.580735 0.818308 0.51588 0.818308 0.51588 0.784257 0.51588 0.781279 0.51588 0.747229 0.580735 0.781279 0.51588 0.747229 0.580735 0.747229 0.580735 0.781279 0.476194 0.665346 0.476194 0.266567 0.529245 0.665346 0.476194 0.266567 0.529245 0.266567 0.529245 0.665346 0.657962 0.373349 0.657962 0.710943 0.604911 0.373349 0.657962 0.710943 0.604911 0.710943 0.604911 0.373349 0.620701 0.186176 0.701324 0.186176 0.620701 0.285295 0.701324 0.186176 0.701324 0.832198 0.620701 0.285295 0.620701 0.285295 0.701324 0.832198 0.620701 0.832198 0.355482 0.266567 0.41307 0.266567 0.355482 0.665346 0.41307 0.266567 0.41307 0.327751 0.355482 0.665346 0.355482 0.665346 0.41307 0.327751 0.41307 0.665346 0.646831 0.360908 0.646831 0.324605 0.657962 0.373349 0.646831 0.324605 0.657962 0.312164 0.657962 0.373349 0.616041 0.360908 0.646831 0.360908 0.604911 0.373349 0.646831 0.360908 0.657962 0.373349 0.604911 0.373349 0.616041 0.324605 0.616041 0.360908 0.604911 0.312164 0.616041 0.360908 0.604911 0.373349 0.604911 0.312164 0.646831 0.324605 0.616041 0.324605 0.657962 0.312164 0.616041 0.324605 0.604911 0.312164 0.657962 0.312164 0.581779 0.645641 0.59408 0.645641 0.581779 0.656805 0.59408 0.645641 0.59408 0.656805 0.581779 0.656805 0.31739 0.952643 0.317389 0.100847 0.394428 0.952643 0.317389 0.100847 0.394428 0.100847 0.394428 0.952643 0.434225 0.170275 0.434225 0.886069 0.395108 0.170275 0.434225 0.886069 0.395109 0.886069 0.395108 0.170275 0.419176 0.168848 0.419176 0.884643 0.380059 0.168848 0.419176 0.884643 0.380059 0.884643 0.380059 0.168848 0.388709 0.170275 0.388709 0.886069 0.353207 0.170275 0.388709 0.886069 0.353207 0.886069 0.353207 0.170275 0.437706 0.67071 0.367066 0.67071 0.437706 0.638551 0.367066 0.67071 0.367066 0.638551 0.437706 0.638551 0.595502 0.965227 0.595502 0.894848 0.608754 0.965227 0.595502 0.894848 0.608754 0.894848 0.608754 0.965227 0.455337 0.545092 0.514885 0.545092 0.455337 0.563585 0.514885 0.545092 0.514885 0.563585 0.455337 0.563585 0.695824 0.898761 0.695824 0.96914 0.682572 0.898761 0.695824 0.96914 0.682572 0.96914 0.682572 0.898761 0.437706 0.543735 0.437706 0.638551 0.367066 0.543735 0.437706 0.638551 0.367066 0.638551 0.367066 0.543735 0.643501 0.898761 0.682572 0.898761 0.643501 0.96914 0.682572 0.898761 0.682572 0.96914 0.643501 0.96914 0.647826 0.965228 0.608754 0.965227 0.647826 0.894849 0.608754 0.965227 0.608754 0.894848 0.647826 0.894849 0.455337 0.618111 0.455337 0.563585 0.514885 0.618111 0.455337 0.563585 0.514885 0.563585 0.514885 0.618111 0.437706 0.376285 0.437706 0.543735 0.367066 0.376285 0.437706 0.543735 0.367066 0.543735 0.367066 0.376285 0.643501 0.898761 0.643501 0.96914 0.574499 0.969141 0.647826 0.965228 0.647826 0.894849 0.716828 0.965229 0.455337 0.714405 0.455337 0.618111 0.514885 0.714405 0.455337 0.618111 0.514885 0.618111 0.514885 0.714405 0.594098 0.376285 0.664739 0.376285 0.594098 0.408444 0.664739 0.376285 0.664739 0.408444 0.594098 0.408444 0.709124 0.898761 0.709124 0.96914 0.695872 0.898761 0.709124 0.96914 0.695872 0.96914 0.695872 0.898761 0.514885 0.545092 0.455337 0.545092 0.514885 0.526599 0.455337 0.545092 0.455337 0.526599 0.514885 0.526599 0.635539 0.936612 0.635539 0.866233 0.648791 0.936612 0.635539 0.866233 0.648791 0.866233 0.648791 0.936612 0.664739 0.408444 0.664739 0.50326 0.594098 0.408444 0.664739 0.50326 0.594098 0.50326 0.594098 0.408444 0.648791 0.866233 0.687863 0.866233 0.648791 0.936612 0.687863 0.866233 0.687863 0.936613 0.648791 0.936612 0.695872 0.96914 0.656801 0.969141 0.695872 0.898761 0.656801 0.969141 0.656801 0.898762 0.695872 0.898761 0.455337 0.526599 0.455337 0.472074 0.514885 0.526599 0.455337 0.472074 0.514885 0.472074 0.514885 0.526599 0.664739 0.50326 0.664739 0.67071 0.594098 0.50326 0.664739 0.67071 0.594098 0.67071 0.594098 0.50326 0.756865 0.936614 0.687863 0.936613 0.687863 0.866233 0.587798 0.969141 0.656801 0.898762 0.656801 0.969141 0.455337 0.472074 0.455337 0.37578 0.514885 0.472074 0.455337 0.37578 0.514885 0.37578 0.514885 0.472074 0.513384 0.67071 0.442744 0.67071 0.513384 0.638551 0.442744 0.67071 0.442744 0.638551 0.513384 0.638551 0.624969 0.973787 0.624969 0.903408 0.638221 0.973787 0.624969 0.903408 0.638221 0.903408 0.638221 0.973787 0.519131 0.545092 0.578679 0.545092 0.519131 0.563585 0.578679 0.545092 0.578679 0.563585 0.519131 0.563585 0.689608 0.903408 0.689608 0.973787 0.676356 0.903408 0.689608 0.973787 0.676356 0.973787 0.676356 0.903408 0.513384 0.543735 0.513384 0.638551 0.442744 0.543735 0.513384 0.638551 0.442744 0.638551 0.442744 0.543735 0.637285 0.903409 0.676356 0.903408 0.637285 0.973788 0.676356 0.903408 0.676356 0.973787 0.637285 0.973788 0.677292 0.973788 0.638221 0.973787 0.677292 0.903409 0.638221 0.973787 0.638221 0.903408 0.677292 0.903409 0.519131 0.618111 0.519131 0.563585 0.578679 0.618111 0.519131 0.563585 0.578679 0.563585 0.578679 0.618111 0.513384 0.376285 0.513384 0.543735 0.442744 0.376285 0.513384 0.543735 0.442744 0.543735 0.442744 0.376285 0.637285 0.903409 0.637285 0.973788 0.568282 0.973788 0.677292 0.973788 0.677292 0.903409 0.746294 0.973789 0.519131 0.714405 0.519131 0.618111 0.578679 0.714405 0.519131 0.618111 0.578679 0.618111 0.578679 0.714405 0.518421 0.376285 0.589061 0.376285 0.518421 0.408444 0.589061 0.376285 0.589061 0.408444 0.518421 0.408444 0.632843 0.866233 0.632843 0.936612 0.619591 0.866233 0.632843 0.936612 0.619591 0.936612 0.619591 0.866233 0.578679 0.545092 0.519131 0.545092 0.578679 0.526599 0.519131 0.545092 0.519131 0.526599 0.578679 0.526599 0.47148 0.965227 0.47148 0.894848 0.484732 0.965227 0.47148 0.894848 0.484732 0.894848 0.484732 0.965227 0.589061 0.408444 0.589061 0.50326 0.518421 0.408444 0.589061 0.50326 0.518421 0.50326 0.518421 0.408444 0.484732 0.894848 0.523804 0.894849 0.484732 0.965227 0.523804 0.894849 0.523804 0.965228 0.484732 0.965227 0.619591 0.936612 0.580519 0.936613 0.619591 0.866233 0.580519 0.936613 0.580519 0.866233 0.619591 0.866233 0.519131 0.526599 0.519131 0.472074 0.578679 0.526599 0.519131 0.472074 0.578679 0.472074 0.578679 0.526599 0.589061 0.50326 0.589061 0.67071 0.518421 0.50326 0.589061 0.67071 0.518421 0.67071 0.518421 0.50326 0.592806 0.965229 0.523804 0.965228 0.523804 0.894849 0.511517 0.936614 0.580519 0.866233 0.580519 0.936613 0.519131 0.472074 0.519131 0.37578 0.578679 0.472074 0.519131 0.37578 0.578679 0.37578 0.578679 0.472074</float_array>
          <technique_common>
            <accessor source="#Tex1Src_id-array" count="504" stride="2">
              <param name="S" type="float"/>
              <param name="T" type="float"/>
            </accessor>
          </technique_common>
        </source>
        <source id="Tex2Src_id" name="Tex2Src">
          <float_array id="Tex2Src_id-array" count="1008">0 1 0 1 0 1 0 1 0 1 0 1 0 1 0 1 0 1 0 1 0 1 0 1 0 1 0 1 0 1 0 1 0 1 0 1 0 1 0 1 0 1 0 1 0 1 0 1 0 1 0 1 0 1 0 1 0 1 0 1 0 1 0 1 0 1 0 1 0 1 0 1 0 1 0 1 0 1 0 1 0 1 0 1 0 1 0 1 0 1 0 1 0 1 0 1 0 1 0 1 0 1 0 1 0 1 0 1 0 1 0 1 0 1 0 1 0 1 0 1 0 1 0 1 0 1 0 1 0 1 0 1 0 1 0 1 0 1 0 1 0 1 0 1 0 1 0 1 0 1 0 1 0 1 0 1 0 1 0 1 0 1 0 1 0 1 0 1 0 1 0 1 0 1 0 1 0 1 0 1 0 1 0 1 0 1 0 1 0 1 0 1 0 1 0 1 0 1 0 1 0 1 0 1 0 1 0 1 0 1 0 1 0 1 0 1 0 1 0 1 0 1 0 1 0 1 0 1 0 1 0 1 0 1 0 1 0 1 0 1 0 1 0 1 0 1 0 1 0 1 0 1 0 1 0 1 0 1 0 1 0 1 0 1 0 1 0 1 0 1 0 1 0 1 0 1 0 1 0 1 0 1 0 1 0 1 0 1 0 1 0 1 0 1 0 1 0 1 0 1 0 1 0 1 0 1 0 1 0 1 0 1 0 1 0 1 0 1 0 1 0 1 0 1 0 1 0 1 0 1 0 1 0 1 0 1 0 1 0 1 0 1 0 1 0 1 0 1 0 1 0 1 0 1 0 1 0 1 0 1 0 1 0 1 0 1 0 1 0 1 0 1 0 1 0 1 0 1 0 1 0 1 0 1 0 1 0 1 0 1 0 1 0 1 0 1 0 1 0 1 0 1 0 1 0 1 0 1 0 1 0 1 0 1 0 1 0 1 0 1 0 1 0 1 0 1 0 1 0 1 0 1 0 1 0 1 0 1 0 1 0 1 0 1 0 1 0 1 0 1 0 1 0 1 0 1 0 1 0 1 0 1 0 1 0 1 0 1 0 1 0 1 0 1 0 1 0 1 0 1 0 1 0 1 0 1 0 1 0 1 0 1 0 1 0 1 0 1 0 1 0 1 0 1 0 1 0 1 0 1 0 1 0 1 0 1 0 1 0 1 0 1 0 1 0 1 0 1 0 1 0 1 0 1 0 1 0 1 0 1 0 1 0 1 0 1 0 1 0 1 0 1 0 1 0 1 0 1 0 1 0 1 0 1 0 1 0 1 0 1 0 1 0 1 0 1 0 1 0 1 0 1 0 1 0 1 0 1 0 1 0 1 0 1 0 1 0 1 0 1 0 1 0 1 0 1 0 1 0 1 0 1 0 1 0 1 0 1 0 1 0 1 0 1 0 1 0 1 0 1 0 1 0 1 0 1 0 1 0 1 0 1 0 1 0 1 0 1 0 1 0 1 0 1 0 1 0 1 0 1 0 1 0 1 0 1 0 1 0 1 0 1 0 1 0 1 0 1 0 1 0 1 0 1 0 1 0 1 0 1 0 1 0 1 0 1 0 1 0 1 0 1 0 1 0 1 0 1 0 1 0 1 0 1 0 1 0 1 0 1 0 1 0 1 0 1 0 1 0 1 0 1 0 1 0 1 0 1 0 1 0 1 0 1 0 1 0 1 0 1 0 1 0 1 0 1 0 1 0 1 0 1 0 1 0 1 0 1 0 1 0 1 0 1 0 1 0 1 0 1 0 1 0 1 0 1 0 1 0 1 0 1 0 1 0 1 0 1 0 1 0 1 0 1 0 1 0 1 0 1 0 1 0 1 0 1 0 1 0 1 0 1 0 1 0 1 0 1 0 1 0 1 0 1 0 1 0 1 0 1 0 1 0 1 0 1 0 1 0 1 0 1 0 1 0 1 0 1 0 1 0 1 0 1 0 1 0 1 0 1 0 1 0 1 0 1 0 1 0 1 0 1 0 1 0 1 0 1 0 1 0 1 0 1 0 1 0 1 0 1 0 1 0 1 0 1 0 1 0 1 0 1 0 1 0 1 0 1 0 1 0 1 0 1 0 1 0 1 0 1 0 1 0 1 0 1 0 1 0 1 0 1 0 1 0 1 0 1 0 1 0 1 0 1 0 1 0 1 0 1 0 1 0 1 0 1 0 1 0 1 0 1 0 1 0 1 0 1 0 1 0 1 0 1 0 1 0 1 0 1 0 1 0 1 0 1 0 1 0 1 0 1 0 1 0 1 0 1</float_array>
          <technique_common>
            <accessor source="#Tex2Src_id-array" count="504" stride="2">
              <param name="S" type="float"/>
              <param name="T" type="float"/>
            </accessor>
          </technique_common>
        </source>
        <vertices id="geomU3D_id-vertices">
          <input semantic="POSITION" source="#PositionSrc_id"/>
        </vertices>
        <triangles count="0">
          <input semantic="VERTEX" source="#geomU3D_id-vertices" offset="0"/>
          <input semantic="NORMAL" source="#NormalSrc_id" offset="1"/>
          <input semantic="COLOR" source="#ColorSrc_id" offset="2" set="0"/>
          <input semantic="TEXCOORD" source="#Tex1Src_id" offset="3" set="0"/>
          <input semantic="TEXCOORD" source="#Tex2Src_id" offset="4" set="1"/>
          <p/>
        </triangles>
        <triangles material="VisualMaterialVisualMaterial" count="168">
          <input semantic="VERTEX" source="#geomU3D_id-vertices" offset="0"/>
          <input semantic="NORMAL" source="#NormalSrc_id" offset="1"/>
          <input semantic="COLOR" source="#ColorSrc_id" offset="2" set="0"/>
          <input semantic="TEXCOORD" source="#Tex1Src_id" offset="3" set="0"/>
          <input semantic="TEXCOORD" source="#Tex2Src_id" offset="4" set="1"/>
          <p>0 0 0 0 0 1 1 1 1 1 2 2 2 2 2 1 1 1 3 3 3 3 3 4 4 2 2 2 5 5 4 4 4 6 6 5 5 5 7 7 6 6 6 8 8 5 5 5 9 9 7 7 7 10 10 6 6 6 11 11 8 8 8 12 12 9 9 9 13 13 10 10 10 14 14 9 9 9 15 15 11 11 11 16 16 10 10 10 17 17 12 12 12 18 18 13 13 13 19 19 14 14 14 20 20 13 13 13 21 21 15 15 15 22 22 14 14 14 23 23 16 16 16 24 24 17 17 17 25 25 18 18 18 26 26 17 17 17 27 27 19 19 19 28 28 18 18 18 29 29 20 20 20 30 30 21 21 21 31 31 22 22 22 32 32 21 21 21 33 33 23 23 23 34 34 22 22 22 35 35 24 24 24 36 36 25 25 25 37 37 26 26 26 38 38 25 25 25 39 39 27 27 27 40 40 26 26 26 41 41 28 28 28 42 42 29 29 29 43 43 30 30 30 44 44 29 29 29 45 45 31 31 31 46 46 30 30 30 47 47 32 32 32 48 48 33 33 33 49 49 34 34 34 50 50 33 33 33 51 51 35 35 35 52 52 34 34 34 53 53 36 36 36 54 54 37 37 37 55 55 38 38 38 56 56 37 37 37 57 57 39 39 39 58 58 38 38 38 59 59 40 40 40 60 60 41 41 41 61 61 42 42 42 62 62 41 41 41 63 63 43 43 43 64 64 42 42 42 65 65 44 44 44 66 66 45 45 45 67 67 46 46 46 68 68 45 45 45 69 69 47 47 47 70 70 46 46 46 71 71 48 48 48 72 72 49 49 49 73 73 50 50 50 74 74 49 49 49 75 75 51 51 51 76 76 50 50 50 77 77 52 52 52 78 78 53 53 53 79 79 54 54 54 80 80 53 53 53 81 81 55 55 55 82 82 54 54 54 83 83 56 56 56 84 84 57 57 57 85 85 58 58 58 86 86 57 57 57 87 87 59 59 59 88 88 58 58 58 89 89 60 60 60 90 90 61 61 61 91 91 62 62 62 92 92 61 61 61 93 93 63 63 63 94 94 62 62 62 95 95 64 64 64 96 96 65 65 65 97 97 66 66 66 98 98 65 65 65 99 99 67 67 67 100 100 66 66 66 101 101 68 68 68 102 102 69 69 69 103 103 70 70 70 104 104 69 69 69 105 105 71 71 71 106 106 70 70 70 107 107 72 72 72 108 108 73 73 73 109 109 74 74 74 110 110 73 73 73 111 111 75 75 75 112 112 74 74 74 113 113 76 76 76 114 114 77 77 77 115 115 78 78 78 116 116 77 77 77 117 117 79 79 79 118 118 78 78 78 119 119 80 80 80 120 120 81 81 81 121 121 82 82 82 122 122 81 81 81 123 123 83 83 83 124 124 82 82 82 125 125 84 84 84 126 126 85 85 85 127 127 86 86 86 128 128 85 85 85 129 129 87 87 87 130 130 86 86 86 131 131 88 88 88 132 132 89 89 89 133 133 90 90 90 134 134 89 89 89 135 135 91 91 91 136 136 90 90 90 137 137 92 92 92 138 138 93 93 93 139 139 94 94 94 140 140 93 93 93 141 141 95 95 95 142 142 94 94 94 143 143 96 96 96 144 144 97 97 97 145 145 98 98 98 146 146 97 97 97 147 147 99 99 99 148 148 98 98 98 149 149 100 100 100 150 150 101 101 101 151 151 102 102 102 152 152 101 101 101 153 153 103 103 103 154 154 102 102 102 155 155 104 104 104 156 156 105 105 105 157 157 106 106 106 158 158 105 105 105 159 159 107 107 107 160 160 106 106 106 161 161 108 108 108 162 162 109 109 109 163 163 110 110 110 164 164 109 109 109 165 165 111 111 111 166 166 110 110 110 167 167 112 112 112 168 168 113 113 113 169 169 114 114 114 170 170 113 113 113 171 171 115 115 115 172 172 114 114 114 173 173 114 114 114 174 174 115 115 115 175 175 116 116 116 176 176 117 117 117 177 177 118 118 118 178 178 119 119 119 179 179 118 118 118 180 180 120 120 120 181 181 119 119 119 182 182 119 119 119 183 183 120 120 120 184 184 121 121 121 185 185 122 122 122 186 186 123 123 123 187 187 108 108 108 188 188 123 123 123 189 189 124 124 124 190 190 108 108 108 191 191 125 125 125 192 192 122 122 122 193 193 110 110 110 194 194 122 122 122 195 195 108 108 108 196 196 110 110 110 197 197 126 126 126 198 198 125 125 125 199 199 127 127 127 200 200 125 125 125 201 201 110 110 110 202 202 127 127 127 203 203 123 123 123 204 204 126 126 126 205 205 124 124 124 206 206 126 126 126 207 207 127 127 127 208 208 124 124 124 209 209 128 128 128 210 210 129 129 129 211 211 130 130 130 212 212 129 129 129 213 213 131 131 131 214 214 130 130 130 215 215 132 132 132 216 216 133 133 133 217 217 134 134 134 218 218 133 133 133 219 219 135 135 135 220 220 134 134 134 221 221 136 136 136 222 222 137 137 137 223 223 138 138 138 224 224 137 137 137 225 225 139 139 139 226 226 138 138 138 227 227 140 140 140 228 228 141 141 141 229 229 142 142 142 230 230 141 141 141 231 231 143 143 143 232 232 142 142 142 233 233 144 144 144 234 234 145 145 145 235 235 146 146 146 236 236 145 145 145 237 237 147 147 147 238 238 146 146 146 239 239 148 148 148 240 240 149 149 149 241 241 150 150 150 242 242 149 149 149 243 243 151 151 151 244 244 150 150 150 245 245 152 152 152 246 246 153 153 153 247 247 154 154 154 248 248 153 153 153 249 249 155 155 155 250 250 154 154 154 251 251 156 156 156 252 252 157 157 157 253 253 158 158 158 254 254 157 157 157 255 255 159 159 159 256 256 158 158 158 257 257 160 160 160 258 258 161 161 161 259 259 162 162 162 260 260 161 161 161 261 261 163 163 163 262 262 162 162 162 263 263 164 164 164 264 264 150 150 150 265 265 165 165 165 266 266 150 150 150 267 267 151 151 151 268 268 165 165 165 269 269 166 166 166 270 270 162 162 162 271 271 167 167 167 272 272 162 162 162 273 273 163 163 163 274 274 167 167 167 275 275 168 168 168 276 276 154 154 154 277 277 169 169 169 278 278 154 154 154 279 279 155 155 155 280 280 169 169 169 281 281 170 170 170 282 282 158 158 158 283 283 171 171 171 284 284 158 158 158 285 285 159 159 159 286 286 171 171 171 287 287 172 172 172 288 288 164 164 164 289 289 173 173 173 290 290 164 164 164 291 291 165 165 165 292 292 173 173 173 293 293 166 166 166 294 294 167 167 167 295 295 174 174 174 296 296 168 168 168 297 297 169 169 169 298 298 175 175 175 299 299 176 176 176 300 300 170 170 170 301 301 177 177 177 302 302 170 170 170 303 303 171 171 171 304 304 177 177 177 305 305 178 178 178 306 306 179 179 179 307 307 180 180 180 308 308 179 179 179 309 309 181 181 181 310 310 180 180 180 311 311 182 182 182 312 312 183 183 183 313 313 184 184 184 314 314 183 183 183 315 315 185 185 185 316 316 184 184 184 317 317 157 157 157 318 318 156 156 156 319 319 186 186 186 320 320 156 156 156 321 321 187 187 187 322 322 186 186 186 323 323 188 188 188 324 324 189 189 189 325 325 190 190 190 326 326 189 189 189 327 327 191 191 191 328 328 190 190 190 329 329 181 181 181 330 330 192 192 192 331 331 180 180 180 332 332 192 192 192 333 333 193 193 193 334 334 180 180 180 335 335 191 191 191 336 336 194 194 194 337 337 190 190 190 338 338 194 194 194 339 339 195 195 195 340 340 190 190 190 341 341 185 185 185 342 342 196 196 196 343 343 184 184 184 344 344 196 196 196 345 345 197 197 197 346 346 184 184 184 347 347 187 187 187 348 348 198 198 198 349 349 186 186 186 350 350 198 198 198 351 351 199 199 199 352 352 186 186 186 353 353 192 192 192 354 354 200 200 200 355 355 193 193 193 356 356 200 200 200 357 357 201 201 201 358 358 193 193 193 359 359 202 202 202 360 360 195 195 195 361 361 194 194 194 362 362 203 203 203 363 363 197 197 197 364 364 196 196 196 365 365 198 198 198 366 366 204 204 204 367 367 199 199 199 368 368 204 204 204 369 369 205 205 205 370 370 199 199 199 371 371 206 206 206 372 372 207 207 207 373 373 208 208 208 374 374 207 207 207 375 375 209 209 209 376 376 208 208 208 377 377 210 210 210 378 378 211 211 211 379 379 212 212 212 380 380 211 211 211 381 381 213 213 213 382 382 212 212 212 383 383 214 214 214 384 384 215 215 215 385 385 216 216 216 386 386 215 215 215 387 387 217 217 217 388 388 216 216 216 389 389 218 218 218 390 390 219 219 219 391 391 220 220 220 392 392 219 219 219 393 393 221 221 221 394 394 220 220 220 395 395 222 222 222 396 396 208 208 208 397 397 223 223 223 398 398 208 208 208 399 399 209 209 209 400 400 223 223 223 401 401 224 224 224 402 402 220 220 220 403 403 225 225 225 404 404 220 220 220 405 405 221 221 221 406 406 225 225 225 407 407 226 226 226 408 408 212 212 212 409 409 227 227 227 410 410 212 212 212 411 411 213 213 213 412 412 227 227 227 413 413 228 228 228 414 414 216 216 216 415 415 229 229 229 416 416 216 216 216 417 417 217 217 217 418 418 229 229 229 419 419 230 230 230 420 420 222 222 222 421 421 231 231 231 422 422 222 222 222 423 423 223 223 223 424 424 231 231 231 425 425 224 224 224 426 426 225 225 225 427 427 232 232 232 428 428 226 226 226 429 429 227 227 227 430 430 233 233 233 431 431 234 234 234 432 432 228 228 228 433 433 235 235 235 434 434 228 228 228 435 435 229 229 229 436 436 235 235 235 437 437 236 236 236 438 438 237 237 237 439 439 238 238 238 440 440 237 237 237 441 441 239 239 239 442 442 238 238 238 443 443 240 240 240 444 444 241 241 241 445 445 242 242 242 446 446 241 241 241 447 447 243 243 243 448 448 242 242 242 449 449 215 215 215 450 450 214 214 214 451 451 244 244 244 452 452 214 214 214 453 453 245 245 245 454 454 244 244 244 455 455 246 246 246 456 456 247 247 247 457 457 248 248 248 458 458 247 247 247 459 459 249 249 249 460 460 248 248 248 461 461 239 239 239 462 462 250 250 250 463 463 238 238 238 464 464 250 250 250 465 465 251 251 251 466 466 238 238 238 467 467 249 249 249 468 468 252 252 252 469 469 248 248 248 470 470 252 252 252 471 471 253 253 253 472 472 248 248 248 473 473 243 243 243 474 474 254 254 254 475 475 242 242 242 476 476 254 254 254 477 477 255 255 255 478 478 242 242 242 479 479 245 245 245 480 480 256 256 256 481 481 244 244 244 482 482 256 256 256 483 483 257 257 257 484 484 244 244 244 485 485 250 250 250 486 486 258 258 258 487 487 251 251 251 488 488 258 258 258 489 489 259 259 259 490 490 251 251 251 491 491 260 260 260 492 492 253 253 253 493 493 252 252 252 494 494 261 261 261 495 495 255 255 255 496 496 254 254 254 497 497 256 256 256 498 498 262 262 262 499 499 257 257 257 500 500 262 262 262 501 501 263 263 263 502 502 257 257 257 503 503</p>
        </triangles>
      </mesh>
    </geometry>
  </library_geometries>
  <library_controllers>
    <controller id="skinU3D_id" name="skinU3D">
      <skin source="#geomU3D_id">
        <bind_shape_matrix>1 0 0 0 0 1 0 0 0 0 1 0 0 0 0 1</bind_shape_matrix>
        <source id="skinU3D_id-joints">
          <Name_array id="skinU3D_id-joints-array" count="1">Body_id</Name_array>
          <technique_common>
            <accessor source="#skinU3D_id-joints-array" count="1" stride="1">
              <param name="JOINT" type="Name"/>
            </accessor>
          </technique_common>
        </source>
        <source id="skinU3D_id-bind_poses">
          <float_array id="skinU3D_id-bind_poses-array" count="16">1 0 0 0 0 1 0 0 0 0 1 0 0 0 0 1</float_array>
          <technique_common>
            <accessor source="#skinU3D_id-bind_poses-array" count="1" stride="16">
              <param name="TRANSFORM" type="float4x4"/>
            </accessor>
          </technique_common>
        </source>
        <source id="skinU3D_id-weights">
          <float_array id="skinU3D_id-weights-array" count="1">1</float_array>
          <technique_common>
            <accessor source="#skinU3D_id-weights-array" count="1" stride="1">
              <param name="WEIGHT" type="float"/>
            </accessor>
          </technique_common>
        </source>
        <joints>
          <input semantic="JOINT" source="#skinU3D_id-joints"/>
          <input semantic="INV_BIND_MATRIX" source="#skinU3D_id-bind_poses"/>
        </joints>
        <vertex_weights count="264">
          <input semantic="JOINT" source="#skinU3D_id-joints" offset="0"/>
          <input semantic="WEIGHT" source="#skinU3D_id-weights" offset="1"/>
          <vcount>1 1 1 1 1 1 1 1 1 1 1 1 1 1 1 1 1 1 1 1 1 1 1 1 1 1 1 1 1 1 1 1 1 1 1 1 1 1 1 1 1 1 1 1 1 1 1 1 1 1 1 1 1 1 1 1 1 1 1 1 1 1 1 1 1 1 1 1 1 1 1 1 1 1 1 1 1 1 1 1 1 1 1 1 1 1 1 1 1 1 1 1 1 1 1 1 1 1 1 1 1 1 1 1 1 1 1 1 1 1 1 1 1 1 1 1 1 1 1 1 1 1 1 1 1 1 1 1 1 1 1 1 1 1 1 1 1 1 1 1 1 1 1 1 1 1 1 1 1 1 1 1 1 1 1 1 1 1 1 1 1 1 1 1 1 1 1 1 1 1 1 1 1 1 1 1 1 1 1 1 1 1 1 1 1 1 1 1 1 1 1 1 1 1 1 1 1 1 1 1 1 1 1 1 1 1 1 1 1 1 1 1 1 1 1 1 1 1 1 1 1 1 1 1 1 1 1 1 1 1 1 1 1 1 1 1 1 1 1 1 1 1 1 1 1 1 1 1 1 1 1 1 1 1 1 1 1 1 1 1 1 1 1 1 </vcount>
          <v>0 0 0 0 0 0 0 0 0 0 0 0 0 0 0 0 0 0 0 0 0 0 0 0 0 0 0 0 0 0 0 0 0 0 0 0 0 0 0 0 0 0 0 0 0 0 0 0 0 0 0 0 0 0 0 0 0 0 0 0 0 0 0 0 0 0 0 0 0 0 0 0 0 0 0 0 0 0 0 0 0 0 0 0 0 0 0 0 0 0 0 0 0 0 0 0 0 0 0 0 0 0 0 0 0 0 0 0 0 0 0 0 0 0 0 0 0 0 0 0 0 0 0 0 0 0 0 0 0 0 0 0 0 0 0 0 0 0 0 0 0 0 0 0 0 0 0 0 0 0 0 0 0 0 0 0 0 0 0 0 0 0 0 0 0 0 0 0 0 0 0 0 0 0 0 0 0 0 0 0 0 0 0 0 0 0 0 0 0 0 0 0 0 0 0 0 0 0 0 0 0 0 0 0 0 0 0 0 0 0 0 0 0 0 0 0 0 0 0 0 0 0 0 0 0 0 0 0 0 0 0 0 0 0 0 0 0 0 0 0 0 0 0 0 0 0 0 0 0 0 0 0 0 0 0 0 0 0 0 0 0 0 0 0 0 0 0 0 0 0 0 0 0 0 0 0 0 0 0 0 0 0 0 0 0 0 0 0 0 0 0 0 0 0 0 0 0 0 0 0 0 0 0 0 0 0 0 0 0 0 0 0 0 0 0 0 0 0 0 0 0 0 0 0 0 0 0 0 0 0 0 0 0 0 0 0 0 0 0 0 0 0 0 0 0 0 0 0 0 0 0 0 0 0 0 0 0 0 0 0 0 0 0 0 0 0 0 0 0 0 0 0 0 0 0 0 0 0 0 0 0 0 0 0 0 0 0 0 0 0 0 0 0 0 0 0 0 0 0 0 0 0 0 0 0 0 0 0 0 0 0 0 0 0 0 0 0 0 0 0 0 0 0 0 0 0 0 0 0 0 0 0 0 0 0 0 0 0 0 0 0 0 0 0 0 0 0 0 0 0 0 0 0 0 0 0 0 0 0 0 0 0 0 0 0 0 0 0 0 0 0 0 0 0 0 0 0 0 0 0 0 0 0 0 0 0 0 0 0 0 0 0 0 0 0 0 0 0 0 0 0 0 0 0 0 0 0 0 0 0 0 0 0 0 0 0 0 0 0 0 0 0 0 0 0 0 0 0</v>
        </vertex_weights>
      </skin>
    </controller>
  </library_controllers>
  <library_visual_scenes>
    <visual_scene id="VisualSceneNode" name="rootU3D">
      <node id="Body_id" name="Body" sid="Body_id" type="JOINT">
        <translate>0 0 0</translate>
        <rotate sid="rotateZ">0 0 1 0</rotate>
        <rotate sid="rotateY">0 1 0 0</rotate>
        <rotate sid="rotateX">1 0 0 0</rotate>
        <scale>1 1 1</scale>
      </node>
      <node id="def_surf_mat_id" name="def_surf_mat" type="JOINT">
        <translate>0 0 0</translate>
        <rotate sid="rotateZ">0 0 1 0</rotate>
        <rotate sid="rotateY">0 1 0 0</rotate>
        <rotate sid="rotateX">1 0 0 0</rotate>
        <scale>1 1 1</scale>
      </node>
      <node id="meshU3D_id" name="meshU3D" type="NODE">
        <translate>0 0 0</translate>
        <rotate>1 0 0 0</rotate>
        <scale>1 1 1</scale>
        <instance_controller url="#skinU3D_id">
          <skeleton>#Body_id</skeleton>
          <bind_material>
            <technique_common>
              <instance_material symbol="VisualMaterialVisualMaterial" target="#VisualMaterial">
                <bind_vertex_input semantic="UVSET0" input_semantic="TEXCOORD" input_set="0"/>
              </instance_material>
            </technique_common>
          </bind_material>
        </instance_controller>
      </node>
      <extra>
        <technique profile="MAX3D">
          <frame_rate>30</frame_rate>
        </technique>
        <technique profile="MAYA">
          <start_time>0</start_time>
          <end_time>1</end_time>
        </technique>
      </extra>
    </visual_scene>
  </library_visual_scenes>
  <scene>
    <instance_visual_scene url="#VisualSceneNode"/>
  </scene>
</COLLADA>
