xof 0303txt 0032

// DirectX 9.0 file
// Creator: Ultimate Unwrap3D Pro v3.19
// Website: http://www.unwrap3d.com
// Time: Thu Dec 10 22:05:50 2009

// Start of Templates

template VertexDuplicationIndices {
 <b8d65549-d7c9-4995-89cf-53a9a8b031e3>
 DWORD nIndices;
 DWORD nOriginalVertices;
 array DWORD indices[nIndices];
}

template FVFData {
 <b6e70a0e-8ef9-4e83-94ad-ecc8b0c04897>
 DWORD dwFVF;
 DWORD nDWords;
 array DWORD data[nDWords];
}

template Header {
 <3D82AB43-62DA-11cf-AB39-0020AF71E433>
 WORD major;
 WORD minor;
 DWORD flags;
}

template Vector {
 <3D82AB5E-62DA-11cf-AB39-0020AF71E433>
 FLOAT x;
 FLOAT y;
 FLOAT z;
}

template Coords2d {
 <F6F23F44-7686-11cf-8F52-0040333594A3>
 FLOAT u;
 FLOAT v;
}

template Matrix4x4 {
 <F6F23F45-7686-11cf-8F52-0040333594A3>
 array FLOAT matrix[16];
}

template ColorRGBA {
 <35FF44E0-6C7C-11cf-8F52-0040333594A3>
 FLOAT red;
 FLOAT green;
 FLOAT blue;
 FLOAT alpha;
}

template ColorRGB {
 <D3E16E81-7835-11cf-8F52-0040333594A3>
 FLOAT red;
 FLOAT green;
 FLOAT blue;
}

template IndexedColor {
 <1630B820-7842-11cf-8F52-0040333594A3>
 DWORD index;
 ColorRGBA indexColor;
}

template Material {
 <3D82AB4D-62DA-11cf-AB39-0020AF71E433>
 ColorRGBA faceColor;
 FLOAT power;
 ColorRGB specularColor;
 ColorRGB emissiveColor;
 [...]
}

template TextureFilename {
 <A42790E1-7810-11cf-8F52-0040333594A3>
 STRING filename;
}

template MeshFace {
 <3D82AB5F-62DA-11cf-AB39-0020AF71E433>
 DWORD nFaceVertexIndices;
 array DWORD faceVertexIndices[nFaceVertexIndices];
}

template MeshTextureCoords {
 <F6F23F40-7686-11cf-8F52-0040333594A3>
 DWORD nTextureCoords;
 array Coords2d textureCoords[nTextureCoords];
}

template MeshMaterialList {
 <F6F23F42-7686-11cf-8F52-0040333594A3>
 DWORD nMaterials;
 DWORD nFaceIndexes;
 array DWORD faceIndexes[nFaceIndexes];
 [Material]
}

template MeshNormals {
 <F6F23F43-7686-11cf-8F52-0040333594A3>
 DWORD nNormals;
 array Vector normals[nNormals];
 DWORD nFaceNormals;
 array MeshFace faceNormals[nFaceNormals];
}

template MeshVertexColors {
 <1630B821-7842-11cf-8F52-0040333594A3>
 DWORD nVertexColors;
 array IndexedColor vertexColors[nVertexColors];
}

template Mesh {
 <3D82AB44-62DA-11cf-AB39-0020AF71E433>
 DWORD nVertices;
 array Vector vertices[nVertices];
 DWORD nFaces;
 array MeshFace faces[nFaces];
 [...]
}

template FrameTransformMatrix {
 <F6F23F41-7686-11cf-8F52-0040333594A3>
 Matrix4x4 frameMatrix;
}

template Frame {
 <3D82AB46-62DA-11cf-AB39-0020AF71E433>
 [...]
}

template FloatKeys {
 <10DD46A9-775B-11cf-8F52-0040333594A3>
 DWORD nValues;
 array FLOAT values[nValues];
}

template TimedFloatKeys {
 <F406B180-7B3B-11cf-8F52-0040333594A3>
 DWORD time;
 FloatKeys tfkeys;
}

template AnimationKey {
 <10DD46A8-775B-11cf-8F52-0040333594A3>
 DWORD keyType;
 DWORD nKeys;
 array TimedFloatKeys keys[nKeys];
}

template AnimationOptions {
 <E2BF56C0-840F-11cf-8F52-0040333594A3>
 DWORD openclosed;
 DWORD positionquality;
}

template Animation {
 <3D82AB4F-62DA-11cf-AB39-0020AF71E433>
 [...]
}

template AnimationSet {
 <3D82AB50-62DA-11cf-AB39-0020AF71E433>
 [Animation]
}

template XSkinMeshHeader {
 <3CF169CE-FF7C-44ab-93C0-F78F62D172E2>
 WORD nMaxSkinWeightsPerVertex;
 WORD nMaxSkinWeightsPerFace;
 WORD nBones;
}

template SkinWeights {
 <6F0D123B-BAD2-4167-A0D0-80224F25FABB>
 STRING transformNodeName;
 DWORD nWeights;
 array DWORD vertexIndices[nWeights];
 array FLOAT weights[nWeights];
 Matrix4x4 matrixOffset;
}

template AnimTicksPerSecond {
 <9E415A43-7BA6-4a73-8743-B73D47E88476>
 DWORD AnimTicksPerSecond;
}

AnimTicksPerSecond {
 30;
}

// Start of Frames

   Frame Body {
      FrameTransformMatrix {
       1.000000, 0.000000, 0.000000, 0.000000,
       0.000000, 1.000000, 0.000000, 0.000000,
       0.000000, 0.000000, 1.000000, 0.000000,
       0.000000, 0.000000, 0.000000, 1.000000;;
      }

   }
   Frame def_surf_mat {
      FrameTransformMatrix {
       1.000000, 0.000000, 0.000000, 0.000000,
       0.000000, 1.000000, 0.000000, 0.000000,
       0.000000, 0.000000, 1.000000, 0.000000,
       0.000000, 0.000000, 0.000000, 1.000000;;
      }

   }

   Frame Body0 {
      FrameTransformMatrix {
       1.000000, 0.000000, 0.000000, 0.000000,
       0.000000, 1.000000, 0.000000, 0.000000,
       0.000000, 0.000000, 1.000000, 0.000000,
       0.000000, 0.000000, 0.000000, 1.000000;;
      }

      Mesh skinnedMesh {
       264;
       39.213776; 31.121098; -15.210098;,
       -39.213776; 31.121098; -15.210098;,
       39.213776; 31.121098; 14.964005;,
       -39.213776; 31.121098; 14.964005;,
       39.213776; 28.252699; -15.210098;,
       39.213776; 31.121098; -15.210098;,
       39.213776; 28.252699; 14.964005;,
       39.213776; 31.121098; 14.964005;,
       -39.213776; 28.252699; -15.210098;,
       39.213776; 28.252699; -15.210098;,
       -39.213776; 28.252699; 14.964005;,
       39.213776; 28.252699; 14.964005;,
       -39.213776; 31.121098; -15.210098;,
       -39.213776; 28.252699; -15.210098;,
       -39.213776; 31.121098; 14.964005;,
       -39.213776; 28.252699; 14.964005;,
       39.213776; 28.252699; -15.210098;,
       -39.213776; 28.252699; -15.210098;,
       39.213776; 31.121098; -15.210098;,
       -39.213776; 31.121098; -15.210098;,
       -39.213776; 28.252699; 14.964005;,
       39.213776; 28.252699; 14.964005;,
       -39.213776; 31.121098; 14.964005;,
       39.213776; 31.121098; 14.964005;,
       32.711472; 28.306799; -15.210098;,
       26.860775; 28.306799; -15.210098;,
       32.711472; 28.306799; 14.964005;,
       26.860775; 28.306799; 14.964005;,
       32.711472; 25.438398; -15.210098;,
       32.711472; 28.306799; -15.210098;,
       32.711472; 25.438398; 14.964005;,
       32.711472; 28.306799; 14.964005;,
       26.860775; 25.438398; -15.210098;,
       32.711472; 25.438398; -15.210098;,
       26.860775; 25.438398; 14.964005;,
       32.711472; 25.438398; 14.964005;,
       26.860775; 28.306799; -15.210098;,
       26.860775; 25.438398; -15.210098;,
       26.860775; 28.306799; 14.964005;,
       26.860775; 25.438398; 14.964005;,
       32.711472; 25.438398; -15.210098;,
       26.860775; 25.438398; -15.210098;,
       32.711472; 28.306799; -15.210098;,
       26.860775; 28.306799; -15.210098;,
       26.860775; 25.438398; 14.964005;,
       32.711472; 25.438398; 14.964005;,
       26.860775; 28.306799; 14.964005;,
       32.711472; 28.306799; 14.964005;,
       31.786873; 25.629299; -1.966194;,
       27.785374; 25.629299; -1.966194;,
       31.786873; 25.629299; 1.720001;,
       27.785374; 25.629299; 1.720001;,
       31.786873; 4.300789; -1.966194;,
       31.786873; 25.629299; -1.966194;,
       31.786873; 4.300789; 1.720001;,
       31.786873; 25.629299; 1.720001;,
       27.785374; 4.300789; -1.966194;,
       31.786873; 4.300789; -1.966194;,
       27.785374; 4.300789; 1.720001;,
       31.786873; 4.300789; 1.720001;,
       27.785374; 25.629299; -1.966194;,
       27.785374; 4.300789; -1.966194;,
       27.785374; 25.629299; 1.720001;,
       27.785374; 4.300789; 1.720001;,
       31.786873; 4.300789; -1.966194;,
       27.785374; 4.300789; -1.966194;,
       31.786873; 25.629299; -1.966194;,
       27.785374; 25.629299; -1.966194;,
       27.785374; 4.300789; 1.720001;,
       31.786873; 4.300789; 1.720001;,
       27.785374; 25.629299; 1.720001;,
       31.786873; 25.629299; 1.720001;,
       -27.751266; 28.306799; -15.210098;,
       -33.602001; 28.306799; -15.210098;,
       -27.751266; 28.306799; 14.964005;,
       -33.602001; 28.306799; 14.964005;,
       -27.751266; 25.438398; -15.210098;,
       -27.751266; 28.306799; -15.210098;,
       -27.751266; 25.438398; 14.964005;,
       -27.751266; 28.306799; 14.964005;,
       -33.602001; 25.438398; -15.210098;,
       -27.751266; 25.438398; -15.210098;,
       -33.602001; 25.438398; 14.964005;,
       -27.751266; 25.438398; 14.964005;,
       -33.602001; 28.306799; -15.210098;,
       -33.602001; 25.438398; -15.210098;,
       -33.602001; 28.306799; 14.964005;,
       -33.602001; 25.438398; 14.964005;,
       -27.751266; 25.438398; -15.210098;,
       -33.602001; 25.438398; -15.210098;,
       -27.751266; 28.306799; -15.210098;,
       -33.602001; 28.306799; -15.210098;,
       -33.602001; 25.438398; 14.964005;,
       -27.751266; 25.438398; 14.964005;,
       -33.602001; 28.306799; 14.964005;,
       -27.751266; 28.306799; 14.964005;,
       -28.675907; 25.629299; -1.966194;,
       -32.677357; 25.629299; -1.966194;,
       -28.675907; 25.629299; 1.720001;,
       -32.677357; 25.629299; 1.720001;,
       -32.677357; 4.300789; -1.966194;,
       -28.675907; 4.300789; -1.966194;,
       -32.677357; 4.300789; 1.720001;,
       -28.675907; 4.300789; 1.720001;,
       -32.677357; 25.629299; -1.966194;,
       -32.677357; 4.300789; -1.966194;,
       -32.677357; 25.629299; 1.720001;,
       -32.677357; 4.300789; 1.720001;,
       -28.675907; 7.573219; -1.966194;,
       -28.675907; 25.629299; -1.966194;,
       -28.675907; 7.573219; 1.720001;,
       -28.675907; 25.629299; 1.720001;,
       -28.675907; 4.300789; -1.966194;,
       -32.677357; 4.300789; -1.966194;,
       -28.675907; 7.573219; -1.966194;,
       -32.677357; 25.629299; -1.966194;,
       -28.675907; 25.629299; -1.966194;,
       -32.677357; 4.300789; 1.720001;,
       -28.675907; 4.300789; 1.720001;,
       -32.677357; 25.629299; 1.720001;,
       -28.675907; 7.573219; 1.720001;,
       -28.675907; 25.629299; 1.720001;,
       -28.675907; 6.907839; -1.192795;,
       -28.675907; 4.966168; -1.192795;,
       -28.675907; 4.300789; -1.966194;,
       -28.675907; 6.907839; 0.946602;,
       -28.675907; 4.966168; 0.946602;,
       -28.675907; 4.300789; 1.720001;,
       27.655674; 4.966168; 0.946602;,
       27.655674; 4.966168; -1.192795;,
       27.655674; 6.907839; 0.946602;,
       27.655674; 6.907839; -1.192795;,
       27.655674; 4.966168; -1.192795;,
       -28.675907; 4.966168; -1.192795;,
       27.655674; 6.907839; -1.192795;,
       -28.675907; 6.907839; -1.192795;,
       27.655674; 4.966168; 0.946602;,
       -28.675907; 4.966168; 0.946602;,
       27.655674; 4.966168; -1.192795;,
       -28.675907; 4.966168; -1.192795;,
       27.655674; 6.907839; -1.192795;,
       -28.675907; 6.907839; -1.192795;,
       27.655674; 6.907839; 0.946602;,
       -28.675907; 6.907839; 0.946602;,
       27.655674; 6.907839; 0.946602;,
       -28.675907; 6.907839; 0.946602;,
       27.655674; 4.966168; 0.946602;,
       -28.675907; 4.966168; 0.946602;,
       32.240273; 4.279969; 0.000000;,
       27.331875; 4.279969; 0.000000;,
       32.240273; 4.279969; 1.720001;,
       27.331875; 4.279969; 1.720001;,
       32.240273; 0.000069; 0.000000;,
       32.240273; 4.279969; 0.000000;,
       32.240273; 0.000069; 1.720001;,
       32.240273; 4.279969; 1.720001;,
       27.331875; 0.000069; 0.000000;,
       32.240273; 0.000069; 0.000000;,
       27.331875; 0.000069; 1.720001;,
       32.240273; 0.000069; 1.720001;,
       27.331875; 4.279969; 0.000000;,
       27.331875; 0.000069; 0.000000;,
       27.331875; 4.279969; 1.720001;,
       27.331875; 0.000069; 1.720001;,
       32.240273; 4.279941; 6.791206;,
       27.331875; 4.279941; 6.791206;,
       27.331875; 4.279941; 6.791206;,
       27.331875; 0.000039; 6.791206;,
       32.240273; 0.000039; 6.791206;,
       32.240273; 4.279941; 6.791206;,
       27.331875; 0.000039; 6.791206;,
       32.240273; 0.000039; 6.791206;,
       32.240273; -0.000001; 15.747200;,
       27.331875; -0.000001; 15.747200;,
       27.331875; -0.000001; 15.747200;,
       32.240273; -0.000001; 15.747200;,
       27.331875; -0.000001; 15.747200;,
       32.240273; -0.000001; 15.747200;,
       27.331875; 4.279969; 0.000000;,
       32.240273; 4.279969; 0.000000;,
       27.331875; 4.279969; -1.719994;,
       32.240273; 4.279969; -1.719994;,
       32.240273; 4.279969; 0.000000;,
       32.240273; 0.000069; 0.000000;,
       32.240273; 4.279969; -1.719994;,
       32.240273; 0.000069; -1.719994;,
       32.240273; 0.000069; -1.719994;,
       27.331875; 0.000069; -1.719994;,
       27.331875; 0.000069; 0.000000;,
       27.331875; 4.279969; 0.000000;,
       27.331875; 0.000069; -1.719994;,
       27.331875; 4.279969; -1.719994;,
       32.240273; 4.279941; -6.791199;,
       27.331875; 4.279941; -6.791199;,
       27.331875; 4.279941; -6.791199;,
       27.331875; 0.000039; -6.791199;,
       32.240273; 0.000039; -6.791199;,
       32.240273; 4.279941; -6.791199;,
       27.331875; 0.000039; -6.791199;,
       32.240273; 0.000039; -6.791199;,
       32.240273; -0.000001; -15.747196;,
       27.331875; -0.000001; -15.747196;,
       27.331875; -0.000001; -15.747196;,
       32.240273; -0.000001; -15.747196;,
       27.331875; -0.000001; -15.747196;,
       32.240273; -0.000001; -15.747196;,
       -28.222456; 4.279969; 0.000000;,
       -33.130829; 4.279969; 0.000000;,
       -28.222456; 4.279969; 1.720001;,
       -33.130829; 4.279969; 1.720001;,
       -28.222446; 0.000069; 0.000000;,
       -28.222456; 4.279969; 0.000000;,
       -28.222446; 0.000069; 1.720001;,
       -28.222456; 4.279969; 1.720001;,
       -33.130821; 0.000069; 0.000000;,
       -28.222446; 0.000069; 0.000000;,
       -33.130821; 0.000069; 1.720001;,
       -28.222446; 0.000069; 1.720001;,
       -33.130829; 4.279969; 0.000000;,
       -33.130821; 0.000069; 0.000000;,
       -33.130829; 4.279969; 1.720001;,
       -33.130821; 0.000069; 1.720001;,
       -28.222456; 4.279941; 6.791206;,
       -33.130821; 4.279941; 6.791206;,
       -33.130821; 4.279941; 6.791206;,
       -33.130821; 0.000039; 6.791206;,
       -28.222446; 0.000039; 6.791206;,
       -28.222456; 4.279941; 6.791206;,
       -33.130821; 0.000039; 6.791206;,
       -28.222446; 0.000039; 6.791206;,
       -28.222446; -0.000001; 15.747200;,
       -33.130821; -0.000001; 15.747200;,
       -33.130821; -0.000001; 15.747200;,
       -28.222446; -0.000001; 15.747200;,
       -33.130821; -0.000001; 15.747200;,
       -28.222446; -0.000001; 15.747200;,
       -33.130829; 4.279969; 0.000000;,
       -28.222456; 4.279969; 0.000000;,
       -33.130829; 4.279969; -1.719994;,
       -28.222456; 4.279969; -1.719994;,
       -28.222456; 4.279969; 0.000000;,
       -28.222446; 0.000069; 0.000000;,
       -28.222456; 4.279969; -1.719994;,
       -28.222446; 0.000069; -1.719994;,
       -28.222446; 0.000069; -1.719994;,
       -33.130821; 0.000069; -1.719994;,
       -33.130821; 0.000069; 0.000000;,
       -33.130829; 4.279969; 0.000000;,
       -33.130821; 0.000069; -1.719994;,
       -33.130829; 4.279969; -1.719994;,
       -28.222456; 4.279941; -6.791199;,
       -33.130821; 4.279941; -6.791199;,
       -33.130821; 4.279941; -6.791199;,
       -33.130821; 0.000039; -6.791199;,
       -28.222446; 0.000039; -6.791199;,
       -28.222456; 4.279941; -6.791199;,
       -33.130821; 0.000039; -6.791199;,
       -28.222446; 0.000039; -6.791199;,
       -28.222446; -0.000001; -15.747196;,
       -33.130821; -0.000001; -15.747196;,
       -33.130821; -0.000001; -15.747196;,
       -28.222446; -0.000001; -15.747196;,
       -33.130821; -0.000001; -15.747196;,
       -28.222446; -0.000001; -15.747196;;
       168;
       3;0, 1, 2;,
       3;1, 3, 2;,
       3;4, 5, 6;,
       3;5, 7, 6;,
       3;8, 9, 10;,
       3;9, 11, 10;,
       3;12, 13, 14;,
       3;13, 15, 14;,
       3;16, 17, 18;,
       3;17, 19, 18;,
       3;20, 21, 22;,
       3;21, 23, 22;,
       3;24, 25, 26;,
       3;25, 27, 26;,
       3;28, 29, 30;,
       3;29, 31, 30;,
       3;32, 33, 34;,
       3;33, 35, 34;,
       3;36, 37, 38;,
       3;37, 39, 38;,
       3;40, 41, 42;,
       3;41, 43, 42;,
       3;44, 45, 46;,
       3;45, 47, 46;,
       3;48, 49, 50;,
       3;49, 51, 50;,
       3;52, 53, 54;,
       3;53, 55, 54;,
       3;56, 57, 58;,
       3;57, 59, 58;,
       3;60, 61, 62;,
       3;61, 63, 62;,
       3;64, 65, 66;,
       3;65, 67, 66;,
       3;68, 69, 70;,
       3;69, 71, 70;,
       3;72, 73, 74;,
       3;73, 75, 74;,
       3;76, 77, 78;,
       3;77, 79, 78;,
       3;80, 81, 82;,
       3;81, 83, 82;,
       3;84, 85, 86;,
       3;85, 87, 86;,
       3;88, 89, 90;,
       3;89, 91, 90;,
       3;92, 93, 94;,
       3;93, 95, 94;,
       3;96, 97, 98;,
       3;97, 99, 98;,
       3;100, 101, 102;,
       3;101, 103, 102;,
       3;104, 105, 106;,
       3;105, 107, 106;,
       3;108, 109, 110;,
       3;109, 111, 110;,
       3;112, 113, 114;,
       3;113, 115, 114;,
       3;114, 115, 116;,
       3;117, 118, 119;,
       3;118, 120, 119;,
       3;119, 120, 121;,
       3;122, 123, 108;,
       3;123, 124, 108;,
       3;125, 122, 110;,
       3;122, 108, 110;,
       3;126, 125, 127;,
       3;125, 110, 127;,
       3;123, 126, 124;,
       3;126, 127, 124;,
       3;128, 129, 130;,
       3;129, 131, 130;,
       3;132, 133, 134;,
       3;133, 135, 134;,
       3;136, 137, 138;,
       3;137, 139, 138;,
       3;140, 141, 142;,
       3;141, 143, 142;,
       3;144, 145, 146;,
       3;145, 147, 146;,
       3;148, 149, 150;,
       3;149, 151, 150;,
       3;152, 153, 154;,
       3;153, 155, 154;,
       3;156, 157, 158;,
       3;157, 159, 158;,
       3;160, 161, 162;,
       3;161, 163, 162;,
       3;164, 150, 165;,
       3;150, 151, 165;,
       3;166, 162, 167;,
       3;162, 163, 167;,
       3;168, 154, 169;,
       3;154, 155, 169;,
       3;170, 158, 171;,
       3;158, 159, 171;,
       3;172, 164, 173;,
       3;164, 165, 173;,
       3;166, 167, 174;,
       3;168, 169, 175;,
       3;176, 170, 177;,
       3;170, 171, 177;,
       3;178, 179, 180;,
       3;179, 181, 180;,
       3;182, 183, 184;,
       3;183, 185, 184;,
       3;157, 156, 186;,
       3;156, 187, 186;,
       3;188, 189, 190;,
       3;189, 191, 190;,
       3;181, 192, 180;,
       3;192, 193, 180;,
       3;191, 194, 190;,
       3;194, 195, 190;,
       3;185, 196, 184;,
       3;196, 197, 184;,
       3;187, 198, 186;,
       3;198, 199, 186;,
       3;192, 200, 193;,
       3;200, 201, 193;,
       3;202, 195, 194;,
       3;203, 197, 196;,
       3;198, 204, 199;,
       3;204, 205, 199;,
       3;206, 207, 208;,
       3;207, 209, 208;,
       3;210, 211, 212;,
       3;211, 213, 212;,
       3;214, 215, 216;,
       3;215, 217, 216;,
       3;218, 219, 220;,
       3;219, 221, 220;,
       3;222, 208, 223;,
       3;208, 209, 223;,
       3;224, 220, 225;,
       3;220, 221, 225;,
       3;226, 212, 227;,
       3;212, 213, 227;,
       3;228, 216, 229;,
       3;216, 217, 229;,
       3;230, 222, 231;,
       3;222, 223, 231;,
       3;224, 225, 232;,
       3;226, 227, 233;,
       3;234, 228, 235;,
       3;228, 229, 235;,
       3;236, 237, 238;,
       3;237, 239, 238;,
       3;240, 241, 242;,
       3;241, 243, 242;,
       3;215, 214, 244;,
       3;214, 245, 244;,
       3;246, 247, 248;,
       3;247, 249, 248;,
       3;239, 250, 238;,
       3;250, 251, 238;,
       3;249, 252, 248;,
       3;252, 253, 248;,
       3;243, 254, 242;,
       3;254, 255, 242;,
       3;245, 256, 244;,
       3;256, 257, 244;,
       3;250, 258, 251;,
       3;258, 259, 251;,
       3;260, 253, 252;,
       3;261, 255, 254;,
       3;256, 262, 257;,
       3;262, 263, 257;;

      MeshNormals {
       264;
       0.000000; 1.000000; 0.000000;,
       0.000000; 1.000000; 0.000000;,
       0.000000; 1.000000; 0.000000;,
       0.000000; 1.000000; 0.000000;,
       1.000000; 0.000000; 0.000000;,
       1.000000; 0.000000; 0.000000;,
       1.000000; 0.000000; 0.000000;,
       1.000000; 0.000000; 0.000000;,
       0.000000; -1.000000; 0.000000;,
       0.000000; -1.000000; 0.000000;,
       0.000000; -1.000000; 0.000000;,
       0.000000; -1.000000; 0.000000;,
       -1.000000; 0.000000; 0.000000;,
       -1.000000; 0.000000; 0.000000;,
       -1.000000; 0.000000; 0.000000;,
       -1.000000; 0.000000; 0.000000;,
       0.000000; 0.000000; -1.000000;,
       0.000000; 0.000000; -1.000000;,
       0.000000; 0.000000; -1.000000;,
       0.000000; 0.000000; -1.000000;,
       0.000000; 0.000000; 1.000000;,
       0.000000; 0.000000; 1.000000;,
       0.000000; 0.000000; 1.000000;,
       0.000000; 0.000000; 1.000000;,
       0.000000; 1.000000; 0.000000;,
       0.000000; 1.000000; 0.000000;,
       0.000000; 1.000000; 0.000000;,
       0.000000; 1.000000; 0.000000;,
       1.000000; 0.000000; 0.000000;,
       1.000000; 0.000000; 0.000000;,
       1.000000; 0.000000; 0.000000;,
       1.000000; 0.000000; 0.000000;,
       0.000000; -1.000000; 0.000000;,
       0.000000; -1.000000; 0.000000;,
       0.000000; -1.000000; 0.000000;,
       0.000000; -1.000000; 0.000000;,
       -1.000000; 0.000000; 0.000000;,
       -1.000000; 0.000000; 0.000000;,
       -1.000000; 0.000000; 0.000000;,
       -1.000000; 0.000000; 0.000000;,
       0.000000; 0.000000; -1.000000;,
       0.000000; 0.000000; -1.000000;,
       0.000000; 0.000000; -1.000000;,
       0.000000; 0.000000; -1.000000;,
       0.000000; 0.000000; 1.000000;,
       0.000000; 0.000000; 1.000000;,
       0.000000; 0.000000; 1.000000;,
       0.000000; 0.000000; 1.000000;,
       0.000000; 1.000000; 0.000000;,
       0.000000; 1.000000; 0.000000;,
       0.000000; 1.000000; 0.000000;,
       0.000000; 1.000000; 0.000000;,
       1.000000; 0.000000; 0.000000;,
       1.000000; 0.000000; 0.000000;,
       1.000000; 0.000000; 0.000000;,
       1.000000; 0.000000; 0.000000;,
       0.000000; -1.000000; 0.000000;,
       0.000000; -1.000000; 0.000000;,
       0.000000; -1.000000; 0.000000;,
       0.000000; -1.000000; 0.000000;,
       -1.000000; 0.000000; 0.000000;,
       -1.000000; 0.000000; 0.000000;,
       -1.000000; 0.000000; 0.000000;,
       -1.000000; 0.000000; 0.000000;,
       0.000000; 0.000000; -1.000000;,
       0.000000; 0.000000; -1.000000;,
       0.000000; 0.000000; -1.000000;,
       0.000000; 0.000000; -1.000000;,
       0.000000; 0.000000; 1.000000;,
       0.000000; 0.000000; 1.000000;,
       0.000000; 0.000000; 1.000000;,
       0.000000; 0.000000; 1.000000;,
       0.000000; 1.000000; 0.000000;,
       0.000000; 1.000000; 0.000000;,
       0.000000; 1.000000; 0.000000;,
       0.000000; 1.000000; 0.000000;,
       1.000000; 0.000000; 0.000000;,
       1.000000; 0.000000; 0.000000;,
       1.000000; 0.000000; 0.000000;,
       1.000000; 0.000000; 0.000000;,
       0.000000; -1.000000; 0.000000;,
       0.000000; -1.000000; 0.000000;,
       0.000000; -1.000000; 0.000000;,
       0.000000; -1.000000; 0.000000;,
       -1.000000; 0.000000; 0.000000;,
       -1.000000; 0.000000; 0.000000;,
       -1.000000; 0.000000; 0.000000;,
       -1.000000; 0.000000; 0.000000;,
       0.000000; 0.000000; -1.000000;,
       0.000000; 0.000000; -1.000000;,
       0.000000; 0.000000; -1.000000;,
       0.000000; 0.000000; -1.000000;,
       0.000000; 0.000000; 1.000000;,
       0.000000; 0.000000; 1.000000;,
       0.000000; 0.000000; 1.000000;,
       0.000000; 0.000000; 1.000000;,
       0.000000; 1.000000; 0.000000;,
       0.000000; 1.000000; 0.000000;,
       0.000000; 1.000000; 0.000000;,
       0.000000; 1.000000; 0.000000;,
       0.000000; -1.000000; 0.000000;,
       0.000000; -1.000000; 0.000000;,
       0.000000; -1.000000; 0.000000;,
       0.000000; -1.000000; 0.000000;,
       -1.000000; 0.000000; 0.000000;,
       -1.000000; 0.000000; 0.000000;,
       -1.000000; 0.000000; 0.000000;,
       -1.000000; 0.000000; 0.000000;,
       1.000000; 0.000000; 0.000000;,
       1.000000; 0.000000; 0.000000;,
       1.000000; 0.000000; 0.000000;,
       1.000000; 0.000000; 0.000000;,
       0.000000; 0.000000; -1.000000;,
       0.000000; 0.000000; -1.000000;,
       0.000000; 0.000000; -1.000000;,
       0.000000; 0.000000; -1.000000;,
       0.000000; 0.000000; -1.000000;,
       0.000000; 0.000000; 1.000000;,
       0.000000; 0.000000; 1.000000;,
       0.000000; 0.000000; 1.000000;,
       0.000000; 0.000000; 1.000000;,
       0.000000; 0.000000; 1.000000;,
       1.000000; 0.000000; 0.000000;,
       1.000000; 0.000000; 0.000000;,
       1.000000; 0.000000; 0.000000;,
       1.000000; 0.000000; 0.000000;,
       1.000000; 0.000000; 0.000000;,
       1.000000; 0.000000; 0.000000;,
       1.000000; 0.000000; 0.000000;,
       1.000000; 0.000000; 0.000000;,
       1.000000; 0.000000; 0.000000;,
       1.000000; 0.000000; 0.000000;,
       0.000000; 0.000000; -1.000000;,
       0.000000; 0.000000; -1.000000;,
       0.000000; 0.000000; -1.000000;,
       0.000000; 0.000000; -1.000000;,
       0.000000; -1.000000; 0.000000;,
       0.000000; -1.000000; 0.000000;,
       0.000000; -1.000000; 0.000000;,
       0.000000; -1.000000; 0.000000;,
       0.000000; 1.000000; 0.000000;,
       0.000000; 1.000000; 0.000000;,
       0.000000; 1.000000; 0.000000;,
       0.000000; 1.000000; 0.000000;,
       0.000000; 0.000000; 1.000000;,
       0.000000; 0.000000; 1.000000;,
       0.000000; 0.000000; 1.000000;,
       0.000000; 0.000000; 1.000000;,
       0.000000; 1.000000; 0.000000;,
       0.000000; 1.000000; 0.000000;,
       0.000000; 1.000000; 0.000003;,
       0.000000; 1.000000; 0.000003;,
       1.000000; 0.000000; 0.000000;,
       1.000000; 0.000000; 0.000000;,
       1.000000; 0.000000; 0.000000;,
       1.000000; 0.000000; 0.000000;,
       0.000000; -1.000000; 0.000000;,
       0.000000; -1.000000; 0.000000;,
       0.000000; -1.000000; -0.000003;,
       0.000000; -1.000000; -0.000003;,
       -1.000000; 0.000000; 0.000000;,
       -1.000000; 0.000000; 0.000000;,
       -1.000000; 0.000000; 0.000000;,
       -1.000000; 0.000000; 0.000000;,
       0.000000; 0.955833; 0.293909;,
       0.000000; 0.989143; 0.146958;,
       -1.000000; 0.000000; 0.000000;,
       -1.000000; 0.000000; 0.000000;,
       1.000000; 0.000000; 0.000000;,
       1.000000; 0.000000; 0.000000;,
       0.000000; -1.000000; -0.000005;,
       0.000000; -1.000000; -0.000005;,
       0.000000; 0.902266; 0.431180;,
       0.000000; 0.902266; 0.431180;,
       -1.000000; 0.000000; 0.000000;,
       1.000000; 0.000000; 0.000000;,
       0.000000; -1.000000; -0.000004;,
       0.000000; -1.000000; -0.000004;,
       0.000000; 1.000000; 0.000000;,
       0.000000; 1.000000; 0.000000;,
       0.000000; 1.000000; -0.000003;,
       0.000000; 1.000000; -0.000003;,
       1.000000; 0.000000; 0.000000;,
       1.000000; 0.000000; 0.000000;,
       1.000000; 0.000000; 0.000000;,
       1.000000; 0.000000; 0.000000;,
       0.000000; -1.000000; 0.000003;,
       0.000000; -1.000000; 0.000003;,
       -1.000000; 0.000000; 0.000000;,
       -1.000000; 0.000000; 0.000000;,
       -1.000000; 0.000000; 0.000000;,
       -1.000000; 0.000000; 0.000000;,
       0.000000; 0.989143; -0.146957;,
       0.000000; 0.955833; -0.293909;,
       -1.000000; 0.000000; 0.000000;,
       -1.000000; 0.000000; 0.000000;,
       1.000000; 0.000000; 0.000000;,
       1.000000; 0.000000; 0.000000;,
       0.000000; -1.000000; 0.000005;,
       0.000000; -1.000000; 0.000005;,
       0.000000; 0.902266; -0.431180;,
       0.000000; 0.902266; -0.431180;,
       -1.000000; 0.000000; 0.000000;,
       1.000000; 0.000000; 0.000000;,
       0.000000; -1.000000; 0.000004;,
       0.000000; -1.000000; 0.000004;,
       0.000000; 1.000000; 0.000000;,
       0.000000; 1.000000; 0.000000;,
       0.000000; 1.000000; 0.000003;,
       0.000000; 1.000000; 0.000003;,
       1.000000; 0.000002; 0.000000;,
       1.000000; 0.000002; 0.000000;,
       1.000000; 0.000002; 0.000000;,
       1.000000; 0.000002; 0.000000;,
       0.000000; -1.000000; 0.000000;,
       0.000000; -1.000000; 0.000000;,
       0.000000; -1.000000; -0.000003;,
       0.000000; -1.000000; -0.000003;,
       -1.000000; -0.000002; 0.000000;,
       -1.000000; -0.000002; 0.000000;,
       -1.000000; -0.000001; 0.000000;,
       -1.000000; -0.000002; -0.000000;,
       0.000000; 0.955833; 0.293909;,
       0.000000; 0.989143; 0.146958;,
       -1.000000; 0.000000; 0.000001;,
       -1.000000; -0.000001; 0.000001;,
       1.000000; 0.000002; 0.000000;,
       1.000000; 0.000002; 0.000000;,
       0.000000; -1.000000; -0.000005;,
       0.000000; -1.000000; -0.000005;,
       0.000000; 0.902266; 0.431180;,
       0.000000; 0.902266; 0.431180;,
       -1.000000; 0.000000; 0.000000;,
       1.000000; 0.000002; 0.000000;,
       0.000000; -1.000000; -0.000004;,
       0.000000; -1.000000; -0.000004;,
       0.000000; 1.000000; 0.000000;,
       0.000000; 1.000000; 0.000000;,
       0.000000; 1.000000; -0.000003;,
       0.000000; 1.000000; -0.000003;,
       1.000000; 0.000002; 0.000000;,
       1.000000; 0.000002; 0.000000;,
       1.000000; 0.000002; -0.000000;,
       1.000000; 0.000002; -0.000000;,
       0.000000; -1.000000; 0.000003;,
       0.000000; -1.000000; 0.000003;,
       -1.000000; -0.000002; 0.000000;,
       -1.000000; -0.000002; 0.000000;,
       -1.000000; -0.000001; -0.000000;,
       -1.000000; -0.000002; -0.000001;,
       0.000000; 0.989143; -0.146957;,
       0.000000; 0.955833; -0.293909;,
       -1.000000; -0.000001; -0.000001;,
       -1.000000; 0.000000; 0.000000;,
       1.000000; 0.000002; -0.000000;,
       1.000000; 0.000002; -0.000000;,
       0.000000; -1.000000; 0.000005;,
       0.000000; -1.000000; 0.000005;,
       0.000000; 0.902266; -0.431180;,
       0.000000; 0.902266; -0.431180;,
       -1.000000; 0.000000; 0.000000;,
       1.000000; 0.000002; -0.000000;,
       0.000000; -1.000000; 0.000004;,
       0.000000; -1.000000; 0.000004;;
       168;
       3;0, 1, 2;,
       3;1, 3, 2;,
       3;4, 5, 6;,
       3;5, 7, 6;,
       3;8, 9, 10;,
       3;9, 11, 10;,
       3;12, 13, 14;,
       3;13, 15, 14;,
       3;16, 17, 18;,
       3;17, 19, 18;,
       3;20, 21, 22;,
       3;21, 23, 22;,
       3;24, 25, 26;,
       3;25, 27, 26;,
       3;28, 29, 30;,
       3;29, 31, 30;,
       3;32, 33, 34;,
       3;33, 35, 34;,
       3;36, 37, 38;,
       3;37, 39, 38;,
       3;40, 41, 42;,
       3;41, 43, 42;,
       3;44, 45, 46;,
       3;45, 47, 46;,
       3;48, 49, 50;,
       3;49, 51, 50;,
       3;52, 53, 54;,
       3;53, 55, 54;,
       3;56, 57, 58;,
       3;57, 59, 58;,
       3;60, 61, 62;,
       3;61, 63, 62;,
       3;64, 65, 66;,
       3;65, 67, 66;,
       3;68, 69, 70;,
       3;69, 71, 70;,
       3;72, 73, 74;,
       3;73, 75, 74;,
       3;76, 77, 78;,
       3;77, 79, 78;,
       3;80, 81, 82;,
       3;81, 83, 82;,
       3;84, 85, 86;,
       3;85, 87, 86;,
       3;88, 89, 90;,
       3;89, 91, 90;,
       3;92, 93, 94;,
       3;93, 95, 94;,
       3;96, 97, 98;,
       3;97, 99, 98;,
       3;100, 101, 102;,
       3;101, 103, 102;,
       3;104, 105, 106;,
       3;105, 107, 106;,
       3;108, 109, 110;,
       3;109, 111, 110;,
       3;112, 113, 114;,
       3;113, 115, 114;,
       3;114, 115, 116;,
       3;117, 118, 119;,
       3;118, 120, 119;,
       3;119, 120, 121;,
       3;122, 123, 108;,
       3;123, 124, 108;,
       3;125, 122, 110;,
       3;122, 108, 110;,
       3;126, 125, 127;,
       3;125, 110, 127;,
       3;123, 126, 124;,
       3;126, 127, 124;,
       3;128, 129, 130;,
       3;129, 131, 130;,
       3;132, 133, 134;,
       3;133, 135, 134;,
       3;136, 137, 138;,
       3;137, 139, 138;,
       3;140, 141, 142;,
       3;141, 143, 142;,
       3;144, 145, 146;,
       3;145, 147, 146;,
       3;148, 149, 150;,
       3;149, 151, 150;,
       3;152, 153, 154;,
       3;153, 155, 154;,
       3;156, 157, 158;,
       3;157, 159, 158;,
       3;160, 161, 162;,
       3;161, 163, 162;,
       3;164, 150, 165;,
       3;150, 151, 165;,
       3;166, 162, 167;,
       3;162, 163, 167;,
       3;168, 154, 169;,
       3;154, 155, 169;,
       3;170, 158, 171;,
       3;158, 159, 171;,
       3;172, 164, 173;,
       3;164, 165, 173;,
       3;166, 167, 174;,
       3;168, 169, 175;,
       3;176, 170, 177;,
       3;170, 171, 177;,
       3;178, 179, 180;,
       3;179, 181, 180;,
       3;182, 183, 184;,
       3;183, 185, 184;,
       3;157, 156, 186;,
       3;156, 187, 186;,
       3;188, 189, 190;,
       3;189, 191, 190;,
       3;181, 192, 180;,
       3;192, 193, 180;,
       3;191, 194, 190;,
       3;194, 195, 190;,
       3;185, 196, 184;,
       3;196, 197, 184;,
       3;187, 198, 186;,
       3;198, 199, 186;,
       3;192, 200, 193;,
       3;200, 201, 193;,
       3;202, 195, 194;,
       3;203, 197, 196;,
       3;198, 204, 199;,
       3;204, 205, 199;,
       3;206, 207, 208;,
       3;207, 209, 208;,
       3;210, 211, 212;,
       3;211, 213, 212;,
       3;214, 215, 216;,
       3;215, 217, 216;,
       3;218, 219, 220;,
       3;219, 221, 220;,
       3;222, 208, 223;,
       3;208, 209, 223;,
       3;224, 220, 225;,
       3;220, 221, 225;,
       3;226, 212, 227;,
       3;212, 213, 227;,
       3;228, 216, 229;,
       3;216, 217, 229;,
       3;230, 222, 231;,
       3;222, 223, 231;,
       3;224, 225, 232;,
       3;226, 227, 233;,
       3;234, 228, 235;,
       3;228, 229, 235;,
       3;236, 237, 238;,
       3;237, 239, 238;,
       3;240, 241, 242;,
       3;241, 243, 242;,
       3;215, 214, 244;,
       3;214, 245, 244;,
       3;246, 247, 248;,
       3;247, 249, 248;,
       3;239, 250, 238;,
       3;250, 251, 238;,
       3;249, 252, 248;,
       3;252, 253, 248;,
       3;243, 254, 242;,
       3;254, 255, 242;,
       3;245, 256, 244;,
       3;256, 257, 244;,
       3;250, 258, 251;,
       3;258, 259, 251;,
       3;260, 253, 252;,
       3;261, 255, 254;,
       3;256, 262, 257;,
       3;262, 263, 257;;
      }

      MeshTextureCoords {
       264;
       0.806326; 0.935325;,
       0.806326; 0.009602;,
       0.196974; 0.935325;,
       0.196974; 0.009602;,
       0.381163; 0.772683;,
       0.520807; 0.772683;,
       0.381163; 0.284424;,
       0.520807; 0.284424;,
       0.205285; 0.026201;,
       0.205285; 0.951922;,
       0.814637; 0.026201;,
       0.814637; 0.951922;,
       0.664340; 0.381490;,
       0.538271; 0.381490;,
       0.664340; 0.860537;,
       0.538271; 0.860537;,
       0.413993; 0.024029;,
       0.413993; 0.894016;,
       0.538121; 0.024029;,
       0.538121; 0.894016;,
       0.548844; 0.028020;,
       0.548844; 0.890025;,
       0.665862; 0.028020;,
       0.665862; 0.890025;,
       0.551679; 0.162994;,
       0.467477; 0.162994;,
       0.551679; 0.727160;,
       0.467477; 0.727160;,
       0.447866; 0.861501;,
       0.556874; 0.861501;,
       0.447866; 0.453240;,
       0.556874; 0.453240;,
       0.556717; 0.727160;,
       0.640918; 0.727160;,
       0.556717; 0.162994;,
       0.640918; 0.162994;,
       0.526409; 0.168894;,
       0.437082; 0.168894;,
       0.526409; 0.615670;,
       0.437082; 0.615670;,
       0.459255; 0.769685;,
       0.459255; 0.819472;,
       0.509722; 0.769685;,
       0.509722; 0.819472;,
       0.459255; 0.716920;,
       0.459255; 0.766707;,
       0.509722; 0.716920;,
       0.509722; 0.766707;,
       0.580735; 0.178714;,
       0.580735; 0.144663;,
       0.515880; 0.178714;,
       0.515880; 0.144663;,
       0.471157; 0.733433;,
       0.471157; 0.334654;,
       0.418107; 0.733433;,
       0.418107; 0.334654;,
       0.622272; 0.035976;,
       0.591442; 0.035976;,
       0.622272; 0.096592;,
       0.591442; 0.096592;,
       0.534282; 0.334654;,
       0.534282; 0.733433;,
       0.587333; 0.334654;,
       0.587333; 0.733433;,
       0.426678; 0.803482;,
       0.590230; 0.803482;,
       0.426678; 0.173411;,
       0.590230; 0.173411;,
       0.542285; 0.687836;,
       0.599874; 0.687836;,
       0.542285; 0.289057;,
       0.599874; 0.289057;,
       0.462440; 0.162994;,
       0.378238; 0.162994;,
       0.462440; 0.727160;,
       0.378238; 0.727160;,
       0.459255; 0.713942;,
       0.509722; 0.713942;,
       0.459255; 0.457174;,
       0.509722; 0.457174;,
       0.582925; 0.610025;,
       0.653905; 0.610025;,
       0.582925; 0.285595;,
       0.653905; 0.285595;,
       0.580735; 0.255750;,
       0.530269; 0.255750;,
       0.580735; 0.512517;,
       0.530269; 0.512517;,
       0.530269; 0.775241;,
       0.530269; 0.825028;,
       0.580735; 0.775241;,
       0.580735; 0.825028;,
       0.459255; 0.404409;,
       0.459255; 0.454196;,
       0.509722; 0.404409;,
       0.509722; 0.454196;,
       0.580735; 0.215743;,
       0.580735; 0.181692;,
       0.515880; 0.215743;,
       0.515880; 0.181692;,
       0.515880; 0.218721;,
       0.515880; 0.252771;,
       0.580735; 0.218721;,
       0.580735; 0.252771;,
       0.476194; 0.334654;,
       0.476194; 0.733433;,
       0.529245; 0.334654;,
       0.529245; 0.733433;,
       0.657962; 0.626651;,
       0.657962; 0.289057;,
       0.604911; 0.626651;,
       0.604911; 0.289057;,
       0.620701; 0.813824;,
       0.701324; 0.813824;,
       0.620701; 0.714705;,
       0.701324; 0.167802;,
       0.620701; 0.167802;,
       0.355482; 0.733433;,
       0.413070; 0.733433;,
       0.355482; 0.334654;,
       0.413070; 0.672249;,
       0.413070; 0.334654;,
       0.646831; 0.639092;,
       0.646831; 0.675395;,
       0.657962; 0.687836;,
       0.616041; 0.639092;,
       0.616041; 0.675395;,
       0.604911; 0.687836;,
       0.581779; 0.354359;,
       0.594080; 0.354359;,
       0.581779; 0.343195;,
       0.594080; 0.343195;,
       0.317390; 0.047357;,
       0.317389; 0.899153;,
       0.394428; 0.047357;,
       0.394428; 0.899153;,
       0.434225; 0.829725;,
       0.434225; 0.113931;,
       0.395108; 0.829725;,
       0.395109; 0.113931;,
       0.419176; 0.831152;,
       0.419176; 0.115357;,
       0.380059; 0.831152;,
       0.380059; 0.115357;,
       0.388709; 0.829725;,
       0.388709; 0.113931;,
       0.353207; 0.829725;,
       0.353207; 0.113931;,
       0.437706; 0.329290;,
       0.367066; 0.329290;,
       0.437706; 0.361449;,
       0.367066; 0.361449;,
       0.595502; 0.034773;,
       0.595502; 0.105152;,
       0.608754; 0.034773;,
       0.608754; 0.105152;,
       0.455337; 0.454908;,
       0.514885; 0.454908;,
       0.455337; 0.436415;,
       0.514885; 0.436415;,
       0.695824; 0.101239;,
       0.695824; 0.030860;,
       0.682572; 0.101239;,
       0.682572; 0.030860;,
       0.437706; 0.456265;,
       0.367066; 0.456265;,
       0.643501; 0.101239;,
       0.643501; 0.030860;,
       0.647826; 0.034772;,
       0.647826; 0.105151;,
       0.455337; 0.381889;,
       0.514885; 0.381889;,
       0.437706; 0.623715;,
       0.367066; 0.623715;,
       0.574499; 0.030859;,
       0.716828; 0.034771;,
       0.455337; 0.285595;,
       0.514885; 0.285595;,
       0.594098; 0.623715;,
       0.664739; 0.623715;,
       0.594098; 0.591556;,
       0.664739; 0.591556;,
       0.709124; 0.101239;,
       0.709124; 0.030860;,
       0.695872; 0.101239;,
       0.695872; 0.030860;,
       0.514885; 0.473401;,
       0.455337; 0.473401;,
       0.635539; 0.063388;,
       0.635539; 0.133767;,
       0.648791; 0.063388;,
       0.648791; 0.133767;,
       0.664739; 0.496740;,
       0.594098; 0.496740;,
       0.687863; 0.133767;,
       0.687863; 0.063387;,
       0.656801; 0.030859;,
       0.656801; 0.101238;,
       0.455337; 0.527926;,
       0.514885; 0.527926;,
       0.664739; 0.329290;,
       0.594098; 0.329290;,
       0.756865; 0.063386;,
       0.587798; 0.030859;,
       0.455337; 0.624220;,
       0.514885; 0.624220;,
       0.513384; 0.329290;,
       0.442744; 0.329290;,
       0.513384; 0.361449;,
       0.442744; 0.361449;,
       0.624969; 0.026213;,
       0.624969; 0.096592;,
       0.638221; 0.026213;,
       0.638221; 0.096592;,
       0.519131; 0.454908;,
       0.578679; 0.454908;,
       0.519131; 0.436415;,
       0.578679; 0.436415;,
       0.689608; 0.096592;,
       0.689608; 0.026213;,
       0.676356; 0.096592;,
       0.676356; 0.026213;,
       0.513384; 0.456265;,
       0.442744; 0.456265;,
       0.637285; 0.096591;,
       0.637285; 0.026212;,
       0.677292; 0.026212;,
       0.677292; 0.096591;,
       0.519131; 0.381889;,
       0.578679; 0.381889;,
       0.513384; 0.623715;,
       0.442744; 0.623715;,
       0.568282; 0.026212;,
       0.746294; 0.026211;,
       0.519131; 0.285595;,
       0.578679; 0.285595;,
       0.518421; 0.623715;,
       0.589061; 0.623715;,
       0.518421; 0.591556;,
       0.589061; 0.591556;,
       0.632843; 0.133767;,
       0.632843; 0.063388;,
       0.619591; 0.133767;,
       0.619591; 0.063388;,
       0.578679; 0.473401;,
       0.519131; 0.473401;,
       0.471480; 0.034773;,
       0.471480; 0.105152;,
       0.484732; 0.034773;,
       0.484732; 0.105152;,
       0.589061; 0.496740;,
       0.518421; 0.496740;,
       0.523804; 0.105151;,
       0.523804; 0.034772;,
       0.580519; 0.063387;,
       0.580519; 0.133767;,
       0.519131; 0.527926;,
       0.578679; 0.527926;,
       0.589061; 0.329290;,
       0.518421; 0.329290;,
       0.592806; 0.034771;,
       0.511517; 0.063386;,
       0.519131; 0.624220;,
       0.578679; 0.624220;;
      }

      MeshVertexColors {
       264;
       0; 1.000000; 1.000000; 1.000000; 1.000000;,
       1; 1.000000; 1.000000; 1.000000; 1.000000;,
       2; 1.000000; 1.000000; 1.000000; 1.000000;,
       3; 1.000000; 1.000000; 1.000000; 1.000000;,
       4; 1.000000; 1.000000; 1.000000; 1.000000;,
       5; 1.000000; 1.000000; 1.000000; 1.000000;,
       6; 1.000000; 1.000000; 1.000000; 1.000000;,
       7; 1.000000; 1.000000; 1.000000; 1.000000;,
       8; 1.000000; 1.000000; 1.000000; 1.000000;,
       9; 1.000000; 1.000000; 1.000000; 1.000000;,
       10; 1.000000; 1.000000; 1.000000; 1.000000;,
       11; 1.000000; 1.000000; 1.000000; 1.000000;,
       12; 1.000000; 1.000000; 1.000000; 1.000000;,
       13; 1.000000; 1.000000; 1.000000; 1.000000;,
       14; 1.000000; 1.000000; 1.000000; 1.000000;,
       15; 1.000000; 1.000000; 1.000000; 1.000000;,
       16; 1.000000; 1.000000; 1.000000; 1.000000;,
       17; 1.000000; 1.000000; 1.000000; 1.000000;,
       18; 1.000000; 1.000000; 1.000000; 1.000000;,
       19; 1.000000; 1.000000; 1.000000; 1.000000;,
       20; 1.000000; 1.000000; 1.000000; 1.000000;,
       21; 1.000000; 1.000000; 1.000000; 1.000000;,
       22; 1.000000; 1.000000; 1.000000; 1.000000;,
       23; 1.000000; 1.000000; 1.000000; 1.000000;,
       24; 1.000000; 1.000000; 1.000000; 1.000000;,
       25; 1.000000; 1.000000; 1.000000; 1.000000;,
       26; 1.000000; 1.000000; 1.000000; 1.000000;,
       27; 1.000000; 1.000000; 1.000000; 1.000000;,
       28; 1.000000; 1.000000; 1.000000; 1.000000;,
       29; 1.000000; 1.000000; 1.000000; 1.000000;,
       30; 1.000000; 1.000000; 1.000000; 1.000000;,
       31; 1.000000; 1.000000; 1.000000; 1.000000;,
       32; 1.000000; 1.000000; 1.000000; 1.000000;,
       33; 1.000000; 1.000000; 1.000000; 1.000000;,
       34; 1.000000; 1.000000; 1.000000; 1.000000;,
       35; 1.000000; 1.000000; 1.000000; 1.000000;,
       36; 1.000000; 1.000000; 1.000000; 1.000000;,
       37; 1.000000; 1.000000; 1.000000; 1.000000;,
       38; 1.000000; 1.000000; 1.000000; 1.000000;,
       39; 1.000000; 1.000000; 1.000000; 1.000000;,
       40; 1.000000; 1.000000; 1.000000; 1.000000;,
       41; 1.000000; 1.000000; 1.000000; 1.000000;,
       42; 1.000000; 1.000000; 1.000000; 1.000000;,
       43; 1.000000; 1.000000; 1.000000; 1.000000;,
       44; 1.000000; 1.000000; 1.000000; 1.000000;,
       45; 1.000000; 1.000000; 1.000000; 1.000000;,
       46; 1.000000; 1.000000; 1.000000; 1.000000;,
       47; 1.000000; 1.000000; 1.000000; 1.000000;,
       48; 1.000000; 1.000000; 1.000000; 1.000000;,
       49; 1.000000; 1.000000; 1.000000; 1.000000;,
       50; 1.000000; 1.000000; 1.000000; 1.000000;,
       51; 1.000000; 1.000000; 1.000000; 1.000000;,
       52; 1.000000; 1.000000; 1.000000; 1.000000;,
       53; 1.000000; 1.000000; 1.000000; 1.000000;,
       54; 1.000000; 1.000000; 1.000000; 1.000000;,
       55; 1.000000; 1.000000; 1.000000; 1.000000;,
       56; 1.000000; 1.000000; 1.000000; 1.000000;,
       57; 1.000000; 1.000000; 1.000000; 1.000000;,
       58; 1.000000; 1.000000; 1.000000; 1.000000;,
       59; 1.000000; 1.000000; 1.000000; 1.000000;,
       60; 1.000000; 1.000000; 1.000000; 1.000000;,
       61; 1.000000; 1.000000; 1.000000; 1.000000;,
       62; 1.000000; 1.000000; 1.000000; 1.000000;,
       63; 1.000000; 1.000000; 1.000000; 1.000000;,
       64; 1.000000; 1.000000; 1.000000; 1.000000;,
       65; 1.000000; 1.000000; 1.000000; 1.000000;,
       66; 1.000000; 1.000000; 1.000000; 1.000000;,
       67; 1.000000; 1.000000; 1.000000; 1.000000;,
       68; 1.000000; 1.000000; 1.000000; 1.000000;,
       69; 1.000000; 1.000000; 1.000000; 1.000000;,
       70; 1.000000; 1.000000; 1.000000; 1.000000;,
       71; 1.000000; 1.000000; 1.000000; 1.000000;,
       72; 1.000000; 1.000000; 1.000000; 1.000000;,
       73; 1.000000; 1.000000; 1.000000; 1.000000;,
       74; 1.000000; 1.000000; 1.000000; 1.000000;,
       75; 1.000000; 1.000000; 1.000000; 1.000000;,
       76; 1.000000; 1.000000; 1.000000; 1.000000;,
       77; 1.000000; 1.000000; 1.000000; 1.000000;,
       78; 1.000000; 1.000000; 1.000000; 1.000000;,
       79; 1.000000; 1.000000; 1.000000; 1.000000;,
       80; 1.000000; 1.000000; 1.000000; 1.000000;,
       81; 1.000000; 1.000000; 1.000000; 1.000000;,
       82; 1.000000; 1.000000; 1.000000; 1.000000;,
       83; 1.000000; 1.000000; 1.000000; 1.000000;,
       84; 1.000000; 1.000000; 1.000000; 1.000000;,
       85; 1.000000; 1.000000; 1.000000; 1.000000;,
       86; 1.000000; 1.000000; 1.000000; 1.000000;,
       87; 1.000000; 1.000000; 1.000000; 1.000000;,
       88; 1.000000; 1.000000; 1.000000; 1.000000;,
       89; 1.000000; 1.000000; 1.000000; 1.000000;,
       90; 1.000000; 1.000000; 1.000000; 1.000000;,
       91; 1.000000; 1.000000; 1.000000; 1.000000;,
       92; 1.000000; 1.000000; 1.000000; 1.000000;,
       93; 1.000000; 1.000000; 1.000000; 1.000000;,
       94; 1.000000; 1.000000; 1.000000; 1.000000;,
       95; 1.000000; 1.000000; 1.000000; 1.000000;,
       96; 1.000000; 1.000000; 1.000000; 1.000000;,
       97; 1.000000; 1.000000; 1.000000; 1.000000;,
       98; 1.000000; 1.000000; 1.000000; 1.000000;,
       99; 1.000000; 1.000000; 1.000000; 1.000000;,
       100; 1.000000; 1.000000; 1.000000; 1.000000;,
       101; 1.000000; 1.000000; 1.000000; 1.000000;,
       102; 1.000000; 1.000000; 1.000000; 1.000000;,
       103; 1.000000; 1.000000; 1.000000; 1.000000;,
       104; 1.000000; 1.000000; 1.000000; 1.000000;,
       105; 1.000000; 1.000000; 1.000000; 1.000000;,
       106; 1.000000; 1.000000; 1.000000; 1.000000;,
       107; 1.000000; 1.000000; 1.000000; 1.000000;,
       108; 1.000000; 1.000000; 1.000000; 1.000000;,
       109; 1.000000; 1.000000; 1.000000; 1.000000;,
       110; 1.000000; 1.000000; 1.000000; 1.000000;,
       111; 1.000000; 1.000000; 1.000000; 1.000000;,
       112; 1.000000; 1.000000; 1.000000; 1.000000;,
       113; 1.000000; 1.000000; 1.000000; 1.000000;,
       114; 1.000000; 1.000000; 1.000000; 1.000000;,
       115; 1.000000; 1.000000; 1.000000; 1.000000;,
       116; 1.000000; 1.000000; 1.000000; 1.000000;,
       117; 1.000000; 1.000000; 1.000000; 1.000000;,
       118; 1.000000; 1.000000; 1.000000; 1.000000;,
       119; 1.000000; 1.000000; 1.000000; 1.000000;,
       120; 1.000000; 1.000000; 1.000000; 1.000000;,
       121; 1.000000; 1.000000; 1.000000; 1.000000;,
       122; 1.000000; 1.000000; 1.000000; 1.000000;,
       123; 1.000000; 1.000000; 1.000000; 1.000000;,
       124; 1.000000; 1.000000; 1.000000; 1.000000;,
       125; 1.000000; 1.000000; 1.000000; 1.000000;,
       126; 1.000000; 1.000000; 1.000000; 1.000000;,
       127; 1.000000; 1.000000; 1.000000; 1.000000;,
       128; 1.000000; 1.000000; 1.000000; 1.000000;,
       129; 1.000000; 1.000000; 1.000000; 1.000000;,
       130; 1.000000; 1.000000; 1.000000; 1.000000;,
       131; 1.000000; 1.000000; 1.000000; 1.000000;,
       132; 1.000000; 1.000000; 1.000000; 1.000000;,
       133; 1.000000; 1.000000; 1.000000; 1.000000;,
       134; 1.000000; 1.000000; 1.000000; 1.000000;,
       135; 1.000000; 1.000000; 1.000000; 1.000000;,
       136; 1.000000; 1.000000; 1.000000; 1.000000;,
       137; 1.000000; 1.000000; 1.000000; 1.000000;,
       138; 1.000000; 1.000000; 1.000000; 1.000000;,
       139; 1.000000; 1.000000; 1.000000; 1.000000;,
       140; 1.000000; 1.000000; 1.000000; 1.000000;,
       141; 1.000000; 1.000000; 1.000000; 1.000000;,
       142; 1.000000; 1.000000; 1.000000; 1.000000;,
       143; 1.000000; 1.000000; 1.000000; 1.000000;,
       144; 1.000000; 1.000000; 1.000000; 1.000000;,
       145; 1.000000; 1.000000; 1.000000; 1.000000;,
       146; 1.000000; 1.000000; 1.000000; 1.000000;,
       147; 1.000000; 1.000000; 1.000000; 1.000000;,
       148; 1.000000; 1.000000; 1.000000; 1.000000;,
       149; 1.000000; 1.000000; 1.000000; 1.000000;,
       150; 1.000000; 1.000000; 1.000000; 1.000000;,
       151; 1.000000; 1.000000; 1.000000; 1.000000;,
       152; 1.000000; 1.000000; 1.000000; 1.000000;,
       153; 1.000000; 1.000000; 1.000000; 1.000000;,
       154; 1.000000; 1.000000; 1.000000; 1.000000;,
       155; 1.000000; 1.000000; 1.000000; 1.000000;,
       156; 1.000000; 1.000000; 1.000000; 1.000000;,
       157; 1.000000; 1.000000; 1.000000; 1.000000;,
       158; 1.000000; 1.000000; 1.000000; 1.000000;,
       159; 1.000000; 1.000000; 1.000000; 1.000000;,
       160; 1.000000; 1.000000; 1.000000; 1.000000;,
       161; 1.000000; 1.000000; 1.000000; 1.000000;,
       162; 1.000000; 1.000000; 1.000000; 1.000000;,
       163; 1.000000; 1.000000; 1.000000; 1.000000;,
       164; 1.000000; 1.000000; 1.000000; 1.000000;,
       165; 1.000000; 1.000000; 1.000000; 1.000000;,
       166; 1.000000; 1.000000; 1.000000; 1.000000;,
       167; 1.000000; 1.000000; 1.000000; 1.000000;,
       168; 1.000000; 1.000000; 1.000000; 1.000000;,
       169; 1.000000; 1.000000; 1.000000; 1.000000;,
       170; 1.000000; 1.000000; 1.000000; 1.000000;,
       171; 1.000000; 1.000000; 1.000000; 1.000000;,
       172; 1.000000; 1.000000; 1.000000; 1.000000;,
       173; 1.000000; 1.000000; 1.000000; 1.000000;,
       174; 1.000000; 1.000000; 1.000000; 1.000000;,
       175; 1.000000; 1.000000; 1.000000; 1.000000;,
       176; 1.000000; 1.000000; 1.000000; 1.000000;,
       177; 1.000000; 1.000000; 1.000000; 1.000000;,
       178; 1.000000; 1.000000; 1.000000; 1.000000;,
       179; 1.000000; 1.000000; 1.000000; 1.000000;,
       180; 1.000000; 1.000000; 1.000000; 1.000000;,
       181; 1.000000; 1.000000; 1.000000; 1.000000;,
       182; 1.000000; 1.000000; 1.000000; 1.000000;,
       183; 1.000000; 1.000000; 1.000000; 1.000000;,
       184; 1.000000; 1.000000; 1.000000; 1.000000;,
       185; 1.000000; 1.000000; 1.000000; 1.000000;,
       186; 1.000000; 1.000000; 1.000000; 1.000000;,
       187; 1.000000; 1.000000; 1.000000; 1.000000;,
       188; 1.000000; 1.000000; 1.000000; 1.000000;,
       189; 1.000000; 1.000000; 1.000000; 1.000000;,
       190; 1.000000; 1.000000; 1.000000; 1.000000;,
       191; 1.000000; 1.000000; 1.000000; 1.000000;,
       192; 1.000000; 1.000000; 1.000000; 1.000000;,
       193; 1.000000; 1.000000; 1.000000; 1.000000;,
       194; 1.000000; 1.000000; 1.000000; 1.000000;,
       195; 1.000000; 1.000000; 1.000000; 1.000000;,
       196; 1.000000; 1.000000; 1.000000; 1.000000;,
       197; 1.000000; 1.000000; 1.000000; 1.000000;,
       198; 1.000000; 1.000000; 1.000000; 1.000000;,
       199; 1.000000; 1.000000; 1.000000; 1.000000;,
       200; 1.000000; 1.000000; 1.000000; 1.000000;,
       201; 1.000000; 1.000000; 1.000000; 1.000000;,
       202; 1.000000; 1.000000; 1.000000; 1.000000;,
       203; 1.000000; 1.000000; 1.000000; 1.000000;,
       204; 1.000000; 1.000000; 1.000000; 1.000000;,
       205; 1.000000; 1.000000; 1.000000; 1.000000;,
       206; 1.000000; 1.000000; 1.000000; 1.000000;,
       207; 1.000000; 1.000000; 1.000000; 1.000000;,
       208; 1.000000; 1.000000; 1.000000; 1.000000;,
       209; 1.000000; 1.000000; 1.000000; 1.000000;,
       210; 1.000000; 1.000000; 1.000000; 1.000000;,
       211; 1.000000; 1.000000; 1.000000; 1.000000;,
       212; 1.000000; 1.000000; 1.000000; 1.000000;,
       213; 1.000000; 1.000000; 1.000000; 1.000000;,
       214; 1.000000; 1.000000; 1.000000; 1.000000;,
       215; 1.000000; 1.000000; 1.000000; 1.000000;,
       216; 1.000000; 1.000000; 1.000000; 1.000000;,
       217; 1.000000; 1.000000; 1.000000; 1.000000;,
       218; 1.000000; 1.000000; 1.000000; 1.000000;,
       219; 1.000000; 1.000000; 1.000000; 1.000000;,
       220; 1.000000; 1.000000; 1.000000; 1.000000;,
       221; 1.000000; 1.000000; 1.000000; 1.000000;,
       222; 1.000000; 1.000000; 1.000000; 1.000000;,
       223; 1.000000; 1.000000; 1.000000; 1.000000;,
       224; 1.000000; 1.000000; 1.000000; 1.000000;,
       225; 1.000000; 1.000000; 1.000000; 1.000000;,
       226; 1.000000; 1.000000; 1.000000; 1.000000;,
       227; 1.000000; 1.000000; 1.000000; 1.000000;,
       228; 1.000000; 1.000000; 1.000000; 1.000000;,
       229; 1.000000; 1.000000; 1.000000; 1.000000;,
       230; 1.000000; 1.000000; 1.000000; 1.000000;,
       231; 1.000000; 1.000000; 1.000000; 1.000000;,
       232; 1.000000; 1.000000; 1.000000; 1.000000;,
       233; 1.000000; 1.000000; 1.000000; 1.000000;,
       234; 1.000000; 1.000000; 1.000000; 1.000000;,
       235; 1.000000; 1.000000; 1.000000; 1.000000;,
       236; 1.000000; 1.000000; 1.000000; 1.000000;,
       237; 1.000000; 1.000000; 1.000000; 1.000000;,
       238; 1.000000; 1.000000; 1.000000; 1.000000;,
       239; 1.000000; 1.000000; 1.000000; 1.000000;,
       240; 1.000000; 1.000000; 1.000000; 1.000000;,
       241; 1.000000; 1.000000; 1.000000; 1.000000;,
       242; 1.000000; 1.000000; 1.000000; 1.000000;,
       243; 1.000000; 1.000000; 1.000000; 1.000000;,
       244; 1.000000; 1.000000; 1.000000; 1.000000;,
       245; 1.000000; 1.000000; 1.000000; 1.000000;,
       246; 1.000000; 1.000000; 1.000000; 1.000000;,
       247; 1.000000; 1.000000; 1.000000; 1.000000;,
       248; 1.000000; 1.000000; 1.000000; 1.000000;,
       249; 1.000000; 1.000000; 1.000000; 1.000000;,
       250; 1.000000; 1.000000; 1.000000; 1.000000;,
       251; 1.000000; 1.000000; 1.000000; 1.000000;,
       252; 1.000000; 1.000000; 1.000000; 1.000000;,
       253; 1.000000; 1.000000; 1.000000; 1.000000;,
       254; 1.000000; 1.000000; 1.000000; 1.000000;,
       255; 1.000000; 1.000000; 1.000000; 1.000000;,
       256; 1.000000; 1.000000; 1.000000; 1.000000;,
       257; 1.000000; 1.000000; 1.000000; 1.000000;,
       258; 1.000000; 1.000000; 1.000000; 1.000000;,
       259; 1.000000; 1.000000; 1.000000; 1.000000;,
       260; 1.000000; 1.000000; 1.000000; 1.000000;,
       261; 1.000000; 1.000000; 1.000000; 1.000000;,
       262; 1.000000; 1.000000; 1.000000; 1.000000;,
       263; 1.000000; 1.000000; 1.000000; 1.000000;;
      }

      MeshMaterialList {
       1;
       168;
       0,
       0,
       0,
       0,
       0,
       0,
       0,
       0,
       0,
       0,
       0,
       0,
       0,
       0,
       0,
       0,
       0,
       0,
       0,
       0,
       0,
       0,
       0,
       0,
       0,
       0,
       0,
       0,
       0,
       0,
       0,
       0,
       0,
       0,
       0,
       0,
       0,
       0,
       0,
       0,
       0,
       0,
       0,
       0,
       0,
       0,
       0,
       0,
       0,
       0,
       0,
       0,
       0,
       0,
       0,
       0,
       0,
       0,
       0,
       0,
       0,
       0,
       0,
       0,
       0,
       0,
       0,
       0,
       0,
       0,
       0,
       0,
       0,
       0,
       0,
       0,
       0,
       0,
       0,
       0,
       0,
       0,
       0,
       0,
       0,
       0,
       0,
       0,
       0,
       0,
       0,
       0,
       0,
       0,
       0,
       0,
       0,
       0,
       0,
       0,
       0,
       0,
       0,
       0,
       0,
       0,
       0,
       0,
       0,
       0,
       0,
       0,
       0,
       0,
       0,
       0,
       0,
       0,
       0,
       0,
       0,
       0,
       0,
       0,
       0,
       0,
       0,
       0,
       0,
       0,
       0,
       0,
       0,
       0,
       0,
       0,
       0,
       0,
       0,
       0,
       0,
       0,
       0,
       0,
       0,
       0,
       0,
       0,
       0,
       0,
       0,
       0,
       0,
       0,
       0,
       0,
       0,
       0,
       0,
       0,
       0,
       0,
       0,
       0,
       0,
       0,
       0,
       0;

       Material def_surf_mat {
        0.992157; 0.992157; 0.992157; 1.000000;;
        1.000000;
        0.150000; 0.150000; 0.150000;;
        0.000000; 0.000000; 0.000000;;

        TextureFilename {
         "table.dds";
        }
       }

      }

      XSkinMeshHeader {
       1;
       1;
       1;
      }

      SkinWeights {
       "Body";
       264;
       0,
       1,
       2,
       3,
       4,
       5,
       6,
       7,
       8,
       9,
       10,
       11,
       12,
       13,
       14,
       15,
       16,
       17,
       18,
       19,
       20,
       21,
       22,
       23,
       24,
       25,
       26,
       27,
       28,
       29,
       30,
       31,
       32,
       33,
       34,
       35,
       36,
       37,
       38,
       39,
       40,
       41,
       42,
       43,
       44,
       45,
       46,
       47,
       48,
       49,
       50,
       51,
       52,
       53,
       54,
       55,
       56,
       57,
       58,
       59,
       60,
       61,
       62,
       63,
       64,
       65,
       66,
       67,
       68,
       69,
       70,
       71,
       72,
       73,
       74,
       75,
       76,
       77,
       78,
       79,
       80,
       81,
       82,
       83,
       84,
       85,
       86,
       87,
       88,
       89,
       90,
       91,
       92,
       93,
       94,
       95,
       96,
       97,
       98,
       99,
       100,
       101,
       102,
       103,
       104,
       105,
       106,
       107,
       108,
       109,
       110,
       111,
       112,
       113,
       114,
       115,
       116,
       117,
       118,
       119,
       120,
       121,
       122,
       123,
       124,
       125,
       126,
       127,
       128,
       129,
       130,
       131,
       132,
       133,
       134,
       135,
       136,
       137,
       138,
       139,
       140,
       141,
       142,
       143,
       144,
       145,
       146,
       147,
       148,
       149,
       150,
       151,
       152,
       153,
       154,
       155,
       156,
       157,
       158,
       159,
       160,
       161,
       162,
       163,
       164,
       165,
       166,
       167,
       168,
       169,
       170,
       171,
       172,
       173,
       174,
       175,
       176,
       177,
       178,
       179,
       180,
       181,
       182,
       183,
       184,
       185,
       186,
       187,
       188,
       189,
       190,
       191,
       192,
       193,
       194,
       195,
       196,
       197,
       198,
       199,
       200,
       201,
       202,
       203,
       204,
       205,
       206,
       207,
       208,
       209,
       210,
       211,
       212,
       213,
       214,
       215,
       216,
       217,
       218,
       219,
       220,
       221,
       222,
       223,
       224,
       225,
       226,
       227,
       228,
       229,
       230,
       231,
       232,
       233,
       234,
       235,
       236,
       237,
       238,
       239,
       240,
       241,
       242,
       243,
       244,
       245,
       246,
       247,
       248,
       249,
       250,
       251,
       252,
       253,
       254,
       255,
       256,
       257,
       258,
       259,
       260,
       261,
       262,
       263;
       1.000000,
       1.000000,
       1.000000,
       1.000000,
       1.000000,
       1.000000,
       1.000000,
       1.000000,
       1.000000,
       1.000000,
       1.000000,
       1.000000,
       1.000000,
       1.000000,
       1.000000,
       1.000000,
       1.000000,
       1.000000,
       1.000000,
       1.000000,
       1.000000,
       1.000000,
       1.000000,
       1.000000,
       1.000000,
       1.000000,
       1.000000,
       1.000000,
       1.000000,
       1.000000,
       1.000000,
       1.000000,
       1.000000,
       1.000000,
       1.000000,
       1.000000,
       1.000000,
       1.000000,
       1.000000,
       1.000000,
       1.000000,
       1.000000,
       1.000000,
       1.000000,
       1.000000,
       1.000000,
       1.000000,
       1.000000,
       1.000000,
       1.000000,
       1.000000,
       1.000000,
       1.000000,
       1.000000,
       1.000000,
       1.000000,
       1.000000,
       1.000000,
       1.000000,
       1.000000,
       1.000000,
       1.000000,
       1.000000,
       1.000000,
       1.000000,
       1.000000,
       1.000000,
       1.000000,
       1.000000,
       1.000000,
       1.000000,
       1.000000,
       1.000000,
       1.000000,
       1.000000,
       1.000000,
       1.000000,
       1.000000,
       1.000000,
       1.000000,
       1.000000,
       1.000000,
       1.000000,
       1.000000,
       1.000000,
       1.000000,
       1.000000,
       1.000000,
       1.000000,
       1.000000,
       1.000000,
       1.000000,
       1.000000,
       1.000000,
       1.000000,
       1.000000,
       1.000000,
       1.000000,
       1.000000,
       1.000000,
       1.000000,
       1.000000,
       1.000000,
       1.000000,
       1.000000,
       1.000000,
       1.000000,
       1.000000,
       1.000000,
       1.000000,
       1.000000,
       1.000000,
       1.000000,
       1.000000,
       1.000000,
       1.000000,
       1.000000,
       1.000000,
       1.000000,
       1.000000,
       1.000000,
       1.000000,
       1.000000,
       1.000000,
       1.000000,
       1.000000,
       1.000000,
       1.000000,
       1.000000,
       1.000000,
       1.000000,
       1.000000,
       1.000000,
       1.000000,
       1.000000,
       1.000000,
       1.000000,
       1.000000,
       1.000000,
       1.000000,
       1.000000,
       1.000000,
       1.000000,
       1.000000,
       1.000000,
       1.000000,
       1.000000,
       1.000000,
       1.000000,
       1.000000,
       1.000000,
       1.000000,
       1.000000,
       1.000000,
       1.000000,
       1.000000,
       1.000000,
       1.000000,
       1.000000,
       1.000000,
       1.000000,
       1.000000,
       1.000000,
       1.000000,
       1.000000,
       1.000000,
       1.000000,
       1.000000,
       1.000000,
       1.000000,
       1.000000,
       1.000000,
       1.000000,
       1.000000,
       1.000000,
       1.000000,
       1.000000,
       1.000000,
       1.000000,
       1.000000,
       1.000000,
       1.000000,
       1.000000,
       1.000000,
       1.000000,
       1.000000,
       1.000000,
       1.000000,
       1.000000,
       1.000000,
       1.000000,
       1.000000,
       1.000000,
       1.000000,
       1.000000,
       1.000000,
       1.000000,
       1.000000,
       1.000000,
       1.000000,
       1.000000,
       1.000000,
       1.000000,
       1.000000,
       1.000000,
       1.000000,
       1.000000,
       1.000000,
       1.000000,
       1.000000,
       1.000000,
       1.000000,
       1.000000,
       1.000000,
       1.000000,
       1.000000,
       1.000000,
       1.000000,
       1.000000,
       1.000000,
       1.000000,
       1.000000,
       1.000000,
       1.000000,
       1.000000,
       1.000000,
       1.000000,
       1.000000,
       1.000000,
       1.000000,
       1.000000,
       1.000000,
       1.000000,
       1.000000,
       1.000000,
       1.000000,
       1.000000,
       1.000000,
       1.000000,
       1.000000,
       1.000000,
       1.000000,
       1.000000,
       1.000000,
       1.000000,
       1.000000,
       1.000000,
       1.000000,
       1.000000,
       1.000000,
       1.000000,
       1.000000,
       1.000000,
       1.000000,
       1.000000,
       1.000000,
       1.000000,
       1.000000,
       1.000000,
       1.000000,
       1.000000,
       1.000000,
       1.000000,
       1.000000;
          1.000000, -0.000000, 0.000000, 0.000000,
          -0.000000, 1.000000, -0.000000, 0.000000,
          0.000000, -0.000000, 1.000000, 0.000000,
          -0.000000, -0.000000, -0.000000, 1.000000;;
      }


     }
   }

// Start of Animation

AnimationSet Untitled {
}
