xof 0303txt 0032

// DirectX 9.0 file
// Creator: Ultimate Unwrap3D Pro v3.19
// Website: http://www.unwrap3d.com
// Time: Thu Dec 10 22:06:08 2009

// Start of Templates

template VertexDuplicationIndices {
 <b8d65549-d7c9-4995-89cf-53a9a8b031e3>
 DWORD nIndices;
 DWORD nOriginalVertices;
 array DWORD indices[nIndices];
}

template FVFData {
 <b6e70a0e-8ef9-4e83-94ad-ecc8b0c04897>
 DWORD dwFVF;
 DWORD nDWords;
 array DWORD data[nDWords];
}

template Header {
 <3D82AB43-62DA-11cf-AB39-0020AF71E433>
 WORD major;
 WORD minor;
 DWORD flags;
}

template Vector {
 <3D82AB5E-62DA-11cf-AB39-0020AF71E433>
 FLOAT x;
 FLOAT y;
 FLOAT z;
}

template Coords2d {
 <F6F23F44-7686-11cf-8F52-0040333594A3>
 FLOAT u;
 FLOAT v;
}

template Matrix4x4 {
 <F6F23F45-7686-11cf-8F52-0040333594A3>
 array FLOAT matrix[16];
}

template ColorRGBA {
 <35FF44E0-6C7C-11cf-8F52-0040333594A3>
 FLOAT red;
 FLOAT green;
 FLOAT blue;
 FLOAT alpha;
}

template ColorRGB {
 <D3E16E81-7835-11cf-8F52-0040333594A3>
 FLOAT red;
 FLOAT green;
 FLOAT blue;
}

template IndexedColor {
 <1630B820-7842-11cf-8F52-0040333594A3>
 DWORD index;
 ColorRGBA indexColor;
}

template Material {
 <3D82AB4D-62DA-11cf-AB39-0020AF71E433>
 ColorRGBA faceColor;
 FLOAT power;
 ColorRGB specularColor;
 ColorRGB emissiveColor;
 [...]
}

template TextureFilename {
 <A42790E1-7810-11cf-8F52-0040333594A3>
 STRING filename;
}

template MeshFace {
 <3D82AB5F-62DA-11cf-AB39-0020AF71E433>
 DWORD nFaceVertexIndices;
 array DWORD faceVertexIndices[nFaceVertexIndices];
}

template MeshTextureCoords {
 <F6F23F40-7686-11cf-8F52-0040333594A3>
 DWORD nTextureCoords;
 array Coords2d textureCoords[nTextureCoords];
}

template MeshMaterialList {
 <F6F23F42-7686-11cf-8F52-0040333594A3>
 DWORD nMaterials;
 DWORD nFaceIndexes;
 array DWORD faceIndexes[nFaceIndexes];
 [Material]
}

template MeshNormals {
 <F6F23F43-7686-11cf-8F52-0040333594A3>
 DWORD nNormals;
 array Vector normals[nNormals];
 DWORD nFaceNormals;
 array MeshFace faceNormals[nFaceNormals];
}

template MeshVertexColors {
 <1630B821-7842-11cf-8F52-0040333594A3>
 DWORD nVertexColors;
 array IndexedColor vertexColors[nVertexColors];
}

template Mesh {
 <3D82AB44-62DA-11cf-AB39-0020AF71E433>
 DWORD nVertices;
 array Vector vertices[nVertices];
 DWORD nFaces;
 array MeshFace faces[nFaces];
 [...]
}

template FrameTransformMatrix {
 <F6F23F41-7686-11cf-8F52-0040333594A3>
 Matrix4x4 frameMatrix;
}

template Frame {
 <3D82AB46-62DA-11cf-AB39-0020AF71E433>
 [...]
}

template FloatKeys {
 <10DD46A9-775B-11cf-8F52-0040333594A3>
 DWORD nValues;
 array FLOAT values[nValues];
}

template TimedFloatKeys {
 <F406B180-7B3B-11cf-8F52-0040333594A3>
 DWORD time;
 FloatKeys tfkeys;
}

template AnimationKey {
 <10DD46A8-775B-11cf-8F52-0040333594A3>
 DWORD keyType;
 DWORD nKeys;
 array TimedFloatKeys keys[nKeys];
}

template AnimationOptions {
 <E2BF56C0-840F-11cf-8F52-0040333594A3>
 DWORD openclosed;
 DWORD positionquality;
}

template Animation {
 <3D82AB4F-62DA-11cf-AB39-0020AF71E433>
 [...]
}

template AnimationSet {
 <3D82AB50-62DA-11cf-AB39-0020AF71E433>
 [Animation]
}

template XSkinMeshHeader {
 <3CF169CE-FF7C-44ab-93C0-F78F62D172E2>
 WORD nMaxSkinWeightsPerVertex;
 WORD nMaxSkinWeightsPerFace;
 WORD nBones;
}

template SkinWeights {
 <6F0D123B-BAD2-4167-A0D0-80224F25FABB>
 STRING transformNodeName;
 DWORD nWeights;
 array DWORD vertexIndices[nWeights];
 array FLOAT weights[nWeights];
 Matrix4x4 matrixOffset;
}

template AnimTicksPerSecond {
 <9E415A43-7BA6-4a73-8743-B73D47E88476>
 DWORD AnimTicksPerSecond;
}

AnimTicksPerSecond {
 30;
}

// Start of Frames

   Frame Body {
      FrameTransformMatrix {
       1.000000, 0.000000, 0.000000, 0.000000,
       0.000000, 1.000000, 0.000000, 0.000000,
       0.000000, 0.000000, 1.000000, 0.000000,
       0.000000, 0.000000, 0.000000, 1.000000;;
      }

   }
   Frame def_surf_mat {
      FrameTransformMatrix {
       1.000000, 0.000000, 0.000000, 0.000000,
       0.000000, 1.000000, 0.000000, 0.000000,
       0.000000, 0.000000, 1.000000, 0.000000,
       0.000000, 0.000000, 0.000000, 1.000000;;
      }

   }

   Frame Body0 {
      FrameTransformMatrix {
       1.000000, 0.000000, 0.000000, 0.000000,
       0.000000, 1.000000, 0.000000, 0.000000,
       0.000000, 0.000000, 1.000000, 0.000000,
       0.000000, 0.000000, 0.000000, 1.000000;;
      }

      Mesh skinnedMesh {
       118;
       0.495000; 2.693699; 0.205055;,
       0.535800; 2.693699; -0.000046;,
       0.000000; 2.800301; -0.000046;,
       0.378900; 2.693699; 0.378853;,
       0.205000; 2.693699; 0.494957;,
       0.000000; 2.693699; 0.535759;,
       -0.205100; 2.693699; 0.494957;,
       -0.378901; 2.693699; 0.378853;,
       -0.495000; 2.693699; 0.205055;,
       -0.535800; 2.693699; -0.000046;,
       -0.495000; 2.693699; -0.205040;,
       -0.378901; 2.693699; -0.378845;,
       -0.205100; 2.693699; -0.495041;,
       0.000000; 2.693699; -0.535843;,
       0.205000; 2.693699; -0.495041;,
       0.378900; 2.693699; -0.378845;,
       0.495000; 2.693699; -0.205040;,
       1.012800; 2.487801; 0.378853;,
       1.088200; 2.487801; -0.000046;,
       0.700100; 2.390202; 0.700058;,
       0.378900; 2.390202; 0.914658;,
       0.000000; 2.390202; 0.990059;,
       -0.378901; 2.390202; 0.914658;,
       -0.769200; 2.611198; 0.700058;,
       -0.983900; 2.611198; 0.378853;,
       -1.059200; 2.611198; -0.000046;,
       -0.983900; 2.611198; -0.378845;,
       -0.700100; 2.390202; -0.700043;,
       -0.378901; 2.390202; -0.914742;,
       0.000000; 2.390202; -0.990044;,
       0.378900; 2.390202; -0.914742;,
       0.798200; 2.487801; -0.700043;,
       1.012800; 2.487801; -0.378845;,
       1.293300; 2.033600; 0.494957;,
       1.391700; 2.033600; -0.000046;,
       0.914700; 1.936001; 0.914658;,
       0.495000; 1.936001; 1.195053;,
       0.000000; 1.936001; 1.293556;,
       -0.495000; 1.936001; 1.195053;,
       -0.983900; 2.157001; 0.914658;,
       -1.264300; 2.157001; 0.494957;,
       -1.362700; 2.157001; -0.000046;,
       -1.264300; 2.157001; -0.495041;,
       -0.914701; 1.936001; -0.914742;,
       -0.495000; 1.936001; -1.195145;,
       0.000000; 1.936001; -1.293541;,
       0.495000; 1.936001; -1.195145;,
       1.012800; 2.033600; -0.914742;,
       1.293300; 2.033600; -0.495041;,
       1.293500; 1.400200; 0.535759;,
       1.400100; 1.400200; -0.000046;,
       0.990000; 1.400200; 0.990059;,
       0.535800; 1.400200; 1.293556;,
       0.000000; 1.400200; 1.400154;,
       -0.535800; 1.400200; 1.293556;,
       -0.990000; 1.400200; 0.990059;,
       -1.293600; 1.400200; 0.535759;,
       -1.400100; 1.400200; -0.000046;,
       -1.293600; 1.400200; -0.535843;,
       -0.990000; 1.400200; -0.990044;,
       -0.535800; 1.400200; -1.293541;,
       0.000000; 1.400200; -1.400146;,
       0.535800; 1.400200; -1.293541;,
       0.990000; 1.400200; -0.990044;,
       1.293500; 1.400200; -0.535843;,
       1.195100; 0.864399; 0.494957;,
       1.293500; 0.864399; -0.000046;,
       0.914700; 0.864399; 0.914658;,
       0.495000; 0.864399; 1.195053;,
       0.000000; 0.864399; 1.293556;,
       -0.495000; 0.864399; 1.195053;,
       -0.914701; 0.864399; 0.914658;,
       -1.195100; 0.864399; 0.494957;,
       -1.293600; 0.864399; -0.000046;,
       -1.195100; 0.864399; -0.495041;,
       -0.914701; 0.864399; -0.914742;,
       -0.495000; 0.864399; -1.195145;,
       0.000000; 0.864399; -1.293541;,
       0.495000; 0.864399; -1.195145;,
       0.914700; 0.864399; -0.914742;,
       1.195100; 0.864399; -0.495041;,
       0.914700; 0.410099; 0.378853;,
       0.990000; 0.410099; -0.000046;,
       0.700100; 0.410099; 0.700058;,
       0.378900; 0.410099; 0.914658;,
       0.000000; 0.410099; 0.990059;,
       -0.378901; 0.410099; 0.914658;,
       -0.700100; 0.410099; 0.700058;,
       -0.914701; 0.410099; 0.378853;,
       -0.990000; 0.410099; -0.000046;,
       -0.914701; 0.410099; -0.378845;,
       -0.700100; 0.410099; -0.700043;,
       -0.378901; 0.410099; -0.914742;,
       0.000000; 0.410099; -0.990044;,
       0.378900; 0.410099; -0.914742;,
       0.700100; 0.410099; -0.700043;,
       0.914700; 0.410099; -0.378845;,
       0.495000; 0.106602; 0.205055;,
       0.535800; 0.106602; -0.000046;,
       0.378900; 0.106602; 0.378853;,
       0.205000; 0.106602; 0.494957;,
       0.000000; 0.106602; 0.535759;,
       -0.205100; 0.106602; 0.494957;,
       -0.378901; 0.106602; 0.378853;,
       -0.495000; 0.106602; 0.205055;,
       -0.535800; 0.106602; -0.000046;,
       -0.495000; 0.106602; -0.205040;,
       -0.378901; 0.106602; -0.378845;,
       -0.205100; 0.106602; -0.495041;,
       0.000000; 0.106602; -0.535843;,
       0.205000; 0.106602; -0.495041;,
       0.378900; 0.106602; -0.378845;,
       0.495000; 0.106602; -0.205040;,
       0.000000; 0.000000; -0.000046;,
       -0.446000; 3.979401; -0.042343;,
       0.494699; 2.593201; -0.042343;,
       -0.446000; 2.593201; -0.042343;,
       0.494699; 3.979401; -0.042343;;
       226;
       3;0, 1, 2;,
       3;3, 0, 2;,
       3;4, 3, 2;,
       3;5, 4, 2;,
       3;6, 5, 2;,
       3;7, 6, 2;,
       3;8, 7, 2;,
       3;9, 8, 2;,
       3;10, 9, 2;,
       3;11, 10, 2;,
       3;12, 11, 2;,
       3;13, 12, 2;,
       3;14, 13, 2;,
       3;15, 14, 2;,
       3;16, 15, 2;,
       3;1, 16, 2;,
       3;17, 1, 0;,
       3;17, 18, 1;,
       3;19, 0, 3;,
       3;19, 17, 0;,
       3;20, 3, 4;,
       3;20, 19, 3;,
       3;21, 4, 5;,
       3;21, 20, 4;,
       3;22, 5, 6;,
       3;22, 21, 5;,
       3;23, 6, 7;,
       3;23, 22, 6;,
       3;24, 7, 8;,
       3;24, 23, 7;,
       3;25, 8, 9;,
       3;25, 24, 8;,
       3;26, 9, 10;,
       3;26, 25, 9;,
       3;27, 10, 11;,
       3;27, 26, 10;,
       3;28, 11, 12;,
       3;28, 27, 11;,
       3;29, 12, 13;,
       3;29, 28, 12;,
       3;30, 13, 14;,
       3;30, 29, 13;,
       3;31, 14, 15;,
       3;31, 30, 14;,
       3;32, 15, 16;,
       3;32, 31, 15;,
       3;18, 16, 1;,
       3;18, 32, 16;,
       3;33, 18, 17;,
       3;33, 34, 18;,
       3;35, 17, 19;,
       3;35, 33, 17;,
       3;36, 19, 20;,
       3;36, 35, 19;,
       3;37, 20, 21;,
       3;37, 36, 20;,
       3;38, 21, 22;,
       3;38, 37, 21;,
       3;39, 22, 23;,
       3;39, 38, 22;,
       3;40, 23, 24;,
       3;40, 39, 23;,
       3;41, 24, 25;,
       3;41, 40, 24;,
       3;42, 25, 26;,
       3;42, 41, 25;,
       3;43, 26, 27;,
       3;43, 42, 26;,
       3;44, 27, 28;,
       3;44, 43, 27;,
       3;45, 28, 29;,
       3;45, 44, 28;,
       3;46, 29, 30;,
       3;46, 45, 29;,
       3;47, 30, 31;,
       3;47, 46, 30;,
       3;48, 31, 32;,
       3;48, 47, 31;,
       3;34, 32, 18;,
       3;34, 48, 32;,
       3;49, 34, 33;,
       3;49, 50, 34;,
       3;51, 33, 35;,
       3;51, 49, 33;,
       3;52, 35, 36;,
       3;52, 51, 35;,
       3;53, 36, 37;,
       3;53, 52, 36;,
       3;54, 37, 38;,
       3;54, 53, 37;,
       3;55, 38, 39;,
       3;55, 54, 38;,
       3;56, 39, 40;,
       3;56, 55, 39;,
       3;57, 40, 41;,
       3;57, 56, 40;,
       3;58, 41, 42;,
       3;58, 57, 41;,
       3;59, 42, 43;,
       3;59, 58, 42;,
       3;60, 43, 44;,
       3;60, 59, 43;,
       3;61, 44, 45;,
       3;61, 60, 44;,
       3;62, 45, 46;,
       3;62, 61, 45;,
       3;63, 46, 47;,
       3;63, 62, 46;,
       3;64, 47, 48;,
       3;64, 63, 47;,
       3;50, 48, 34;,
       3;50, 64, 48;,
       3;65, 50, 49;,
       3;65, 66, 50;,
       3;67, 49, 51;,
       3;67, 65, 49;,
       3;68, 51, 52;,
       3;68, 67, 51;,
       3;69, 52, 53;,
       3;69, 68, 52;,
       3;70, 53, 54;,
       3;70, 69, 53;,
       3;71, 54, 55;,
       3;71, 70, 54;,
       3;72, 55, 56;,
       3;72, 71, 55;,
       3;73, 56, 57;,
       3;73, 72, 56;,
       3;74, 57, 58;,
       3;74, 73, 57;,
       3;75, 58, 59;,
       3;75, 74, 58;,
       3;76, 59, 60;,
       3;76, 75, 59;,
       3;77, 60, 61;,
       3;77, 76, 60;,
       3;78, 61, 62;,
       3;78, 77, 61;,
       3;79, 62, 63;,
       3;79, 78, 62;,
       3;80, 63, 64;,
       3;80, 79, 63;,
       3;66, 64, 50;,
       3;66, 80, 64;,
       3;81, 66, 65;,
       3;81, 82, 66;,
       3;83, 65, 67;,
       3;83, 81, 65;,
       3;84, 67, 68;,
       3;84, 83, 67;,
       3;85, 68, 69;,
       3;85, 84, 68;,
       3;86, 69, 70;,
       3;86, 85, 69;,
       3;87, 70, 71;,
       3;87, 86, 70;,
       3;88, 71, 72;,
       3;88, 87, 71;,
       3;89, 72, 73;,
       3;89, 88, 72;,
       3;90, 73, 74;,
       3;90, 89, 73;,
       3;91, 74, 75;,
       3;91, 90, 74;,
       3;92, 75, 76;,
       3;92, 91, 75;,
       3;93, 76, 77;,
       3;93, 92, 76;,
       3;94, 77, 78;,
       3;94, 93, 77;,
       3;95, 78, 79;,
       3;95, 94, 78;,
       3;96, 79, 80;,
       3;96, 95, 79;,
       3;82, 80, 66;,
       3;82, 96, 80;,
       3;97, 82, 81;,
       3;97, 98, 82;,
       3;99, 81, 83;,
       3;99, 97, 81;,
       3;100, 83, 84;,
       3;100, 99, 83;,
       3;101, 84, 85;,
       3;101, 100, 84;,
       3;102, 85, 86;,
       3;102, 101, 85;,
       3;103, 86, 87;,
       3;103, 102, 86;,
       3;104, 87, 88;,
       3;104, 103, 87;,
       3;105, 88, 89;,
       3;105, 104, 88;,
       3;106, 89, 90;,
       3;106, 105, 89;,
       3;107, 90, 91;,
       3;107, 106, 90;,
       3;108, 91, 92;,
       3;108, 107, 91;,
       3;109, 92, 93;,
       3;109, 108, 92;,
       3;110, 93, 94;,
       3;110, 109, 93;,
       3;111, 94, 95;,
       3;111, 110, 94;,
       3;112, 95, 96;,
       3;112, 111, 95;,
       3;98, 96, 82;,
       3;98, 112, 96;,
       3;97, 113, 98;,
       3;99, 113, 97;,
       3;100, 113, 99;,
       3;101, 113, 100;,
       3;102, 113, 101;,
       3;103, 113, 102;,
       3;104, 113, 103;,
       3;105, 113, 104;,
       3;106, 113, 105;,
       3;107, 113, 106;,
       3;108, 113, 107;,
       3;109, 113, 108;,
       3;110, 113, 109;,
       3;111, 113, 110;,
       3;112, 113, 111;,
       3;98, 113, 112;,
       3;114, 115, 116;,
       3;114, 117, 115;;

      MeshNormals {
       118;
       0.280224; 0.938604; 0.201239;,
       0.288414; 0.957405; 0.013922;,
       -0.000002; 1.000000; -0.000001;,
       0.280017; 0.907935; 0.311841;,
       0.139380; 0.907931; 0.395266;,
       -0.022457; 0.907933; 0.418513;,
       -0.050395; 0.938146; 0.342553;,
       -0.127740; 0.984624; 0.119153;,
       -0.161343; 0.985058; 0.060244;,
       -0.171497; 0.985165; -0.006198;,
       -0.194026; 0.957471; -0.213549;,
       -0.280134; 0.907917; -0.311787;,
       -0.139438; 0.907921; -0.395268;,
       0.022456; 0.907919; -0.418544;,
       0.114973; 0.924255; -0.364051;,
       0.219687; 0.954763; -0.200414;,
       0.273273; 0.956881; -0.098489;,
       0.501380; 0.782656; 0.368874;,
       0.618892; 0.785302; 0.016530;,
       0.413436; 0.715223; 0.563495;,
       0.261910; 0.707621; 0.656259;,
       -0.009154; 0.707636; 0.706518;,
       -0.115733; 0.688193; 0.716237;,
       -0.317783; 0.811859; 0.489795;,
       -0.505446; 0.843146; 0.183385;,
       -0.536259; 0.843706; -0.024207;,
       -0.378578; 0.828715; -0.412201;,
       -0.359452; 0.716974; -0.597279;,
       -0.261931; 0.707624; -0.656247;,
       0.009132; 0.707599; -0.706555;,
       0.184070; 0.698598; -0.691433;,
       0.407391; 0.764235; -0.499978;,
       0.580100; 0.783425; -0.223001;,
       0.842043; 0.330528; 0.426279;,
       0.954717; 0.297463; 0.005626;,
       0.568453; 0.373514; 0.733041;,
       0.348959; 0.383178; 0.855220;,
       -0.004882; 0.383186; 0.923658;,
       -0.300141; 0.366181; 0.880810;,
       -0.582866; 0.326968; 0.743881;,
       -0.878439; 0.316801; 0.357745;,
       -0.949211; 0.314592; -0.005572;,
       -0.832693; 0.338762; -0.438021;,
       -0.541683; 0.368198; -0.755652;,
       -0.348936; 0.383151; -0.855242;,
       0.004921; 0.383154; -0.923671;,
       0.316801; 0.366168; -0.874962;,
       0.613171; 0.319288; -0.722549;,
       0.883111; 0.301243; -0.359676;,
       0.920591; -0.087544; 0.380589;,
       0.995807; -0.091471; -0.000614;,
       0.685757; -0.026121; 0.727362;,
       0.382702; -0.000006; 0.923872;,
       0.000000; 0.000000; 1.000000;,
       -0.382702; 0.000006; 0.923872;,
       -0.694187; -0.039653; 0.718702;,
       -0.921493; -0.068856; 0.382244;,
       -0.997301; -0.073422; 0.000545;,
       -0.921776; -0.071148; -0.381139;,
       -0.684909; -0.021631; -0.728307;,
       -0.382677; -0.000032; -0.923882;,
       0.000000; 0.000000; -1.000000;,
       0.382677; 0.000032; -0.923882;,
       0.693713; -0.044615; -0.718868;,
       0.920414; -0.083646; -0.381892;,
       0.855278; -0.383085; 0.348919;,
       0.923691; -0.383107; -0.004919;,
       0.656613; -0.383088; 0.649694;,
       0.358011; -0.383127; 0.851494;,
       0.004880; -0.383139; 0.923678;,
       -0.348968; -0.383131; 0.855238;,
       -0.649697; -0.383112; 0.656596;,
       -0.851497; -0.383144; 0.357985;,
       -0.923678; -0.383138; 0.004880;,
       -0.855248; -0.383137; -0.348938;,
       -0.656603; -0.383106; -0.649694;,
       -0.357934; -0.383058; -0.851557;,
       -0.004919; -0.383108; -0.923691;,
       0.348945; -0.383104; -0.855260;,
       0.649703; -0.383094; -0.656601;,
       0.851547; -0.383077; -0.357938;,
       0.656318; -0.707584; 0.261862;,
       0.706586; -0.707568; -0.009148;,
       0.506076; -0.707585; 0.493164;,
       0.278860; -0.707590; 0.649272;,
       0.009164; -0.707599; 0.706555;,
       -0.261950; -0.707576; 0.656291;,
       -0.493154; -0.707577; 0.506097;,
       -0.649313; -0.707577; 0.278798;,
       -0.706553; -0.707601; 0.009142;,
       -0.656276; -0.707613; -0.261890;,
       -0.506136; -0.707606; -0.493072;,
       -0.278839; -0.707597; -0.649273;,
       -0.009125; -0.707566; -0.706588;,
       0.261914; -0.707598; -0.656282;,
       0.493177; -0.707597; -0.506045;,
       0.649284; -0.707599; -0.278810;,
       0.395291; -0.907919; 0.139382;,
       0.418548; -0.907917; -0.022463;,
       0.311802; -0.907928; 0.280084;,
       0.180880; -0.907924; 0.378096;,
       0.022485; -0.907936; 0.418506;,
       -0.139408; -0.907929; 0.395260;,
       -0.280058; -0.907927; 0.311828;,
       -0.378088; -0.907923; 0.180901;,
       -0.418551; -0.907916; 0.022426;,
       -0.395292; -0.907916; -0.139401;,
       -0.311879; -0.907921; -0.280020;,
       -0.180974; -0.907927; -0.378044;,
       -0.022428; -0.907916; -0.418551;,
       0.139410; -0.907923; -0.395273;,
       0.280093; -0.907925; -0.311800;,
       0.378088; -0.907920; -0.180917;,
       -0.000002; -1.000000; -0.000001;,
       0.000000; 0.000000; -1.000000;,
       0.000000; 0.000000; -1.000000;,
       0.000000; 0.000000; -1.000000;,
       0.000000; 0.000000; -1.000000;;
       226;
       3;0, 1, 2;,
       3;3, 0, 2;,
       3;4, 3, 2;,
       3;5, 4, 2;,
       3;6, 5, 2;,
       3;7, 6, 2;,
       3;8, 7, 2;,
       3;9, 8, 2;,
       3;10, 9, 2;,
       3;11, 10, 2;,
       3;12, 11, 2;,
       3;13, 12, 2;,
       3;14, 13, 2;,
       3;15, 14, 2;,
       3;16, 15, 2;,
       3;1, 16, 2;,
       3;17, 1, 0;,
       3;17, 18, 1;,
       3;19, 0, 3;,
       3;19, 17, 0;,
       3;20, 3, 4;,
       3;20, 19, 3;,
       3;21, 4, 5;,
       3;21, 20, 4;,
       3;22, 5, 6;,
       3;22, 21, 5;,
       3;23, 6, 7;,
       3;23, 22, 6;,
       3;24, 7, 8;,
       3;24, 23, 7;,
       3;25, 8, 9;,
       3;25, 24, 8;,
       3;26, 9, 10;,
       3;26, 25, 9;,
       3;27, 10, 11;,
       3;27, 26, 10;,
       3;28, 11, 12;,
       3;28, 27, 11;,
       3;29, 12, 13;,
       3;29, 28, 12;,
       3;30, 13, 14;,
       3;30, 29, 13;,
       3;31, 14, 15;,
       3;31, 30, 14;,
       3;32, 15, 16;,
       3;32, 31, 15;,
       3;18, 16, 1;,
       3;18, 32, 16;,
       3;33, 18, 17;,
       3;33, 34, 18;,
       3;35, 17, 19;,
       3;35, 33, 17;,
       3;36, 19, 20;,
       3;36, 35, 19;,
       3;37, 20, 21;,
       3;37, 36, 20;,
       3;38, 21, 22;,
       3;38, 37, 21;,
       3;39, 22, 23;,
       3;39, 38, 22;,
       3;40, 23, 24;,
       3;40, 39, 23;,
       3;41, 24, 25;,
       3;41, 40, 24;,
       3;42, 25, 26;,
       3;42, 41, 25;,
       3;43, 26, 27;,
       3;43, 42, 26;,
       3;44, 27, 28;,
       3;44, 43, 27;,
       3;45, 28, 29;,
       3;45, 44, 28;,
       3;46, 29, 30;,
       3;46, 45, 29;,
       3;47, 30, 31;,
       3;47, 46, 30;,
       3;48, 31, 32;,
       3;48, 47, 31;,
       3;34, 32, 18;,
       3;34, 48, 32;,
       3;49, 34, 33;,
       3;49, 50, 34;,
       3;51, 33, 35;,
       3;51, 49, 33;,
       3;52, 35, 36;,
       3;52, 51, 35;,
       3;53, 36, 37;,
       3;53, 52, 36;,
       3;54, 37, 38;,
       3;54, 53, 37;,
       3;55, 38, 39;,
       3;55, 54, 38;,
       3;56, 39, 40;,
       3;56, 55, 39;,
       3;57, 40, 41;,
       3;57, 56, 40;,
       3;58, 41, 42;,
       3;58, 57, 41;,
       3;59, 42, 43;,
       3;59, 58, 42;,
       3;60, 43, 44;,
       3;60, 59, 43;,
       3;61, 44, 45;,
       3;61, 60, 44;,
       3;62, 45, 46;,
       3;62, 61, 45;,
       3;63, 46, 47;,
       3;63, 62, 46;,
       3;64, 47, 48;,
       3;64, 63, 47;,
       3;50, 48, 34;,
       3;50, 64, 48;,
       3;65, 50, 49;,
       3;65, 66, 50;,
       3;67, 49, 51;,
       3;67, 65, 49;,
       3;68, 51, 52;,
       3;68, 67, 51;,
       3;69, 52, 53;,
       3;69, 68, 52;,
       3;70, 53, 54;,
       3;70, 69, 53;,
       3;71, 54, 55;,
       3;71, 70, 54;,
       3;72, 55, 56;,
       3;72, 71, 55;,
       3;73, 56, 57;,
       3;73, 72, 56;,
       3;74, 57, 58;,
       3;74, 73, 57;,
       3;75, 58, 59;,
       3;75, 74, 58;,
       3;76, 59, 60;,
       3;76, 75, 59;,
       3;77, 60, 61;,
       3;77, 76, 60;,
       3;78, 61, 62;,
       3;78, 77, 61;,
       3;79, 62, 63;,
       3;79, 78, 62;,
       3;80, 63, 64;,
       3;80, 79, 63;,
       3;66, 64, 50;,
       3;66, 80, 64;,
       3;81, 66, 65;,
       3;81, 82, 66;,
       3;83, 65, 67;,
       3;83, 81, 65;,
       3;84, 67, 68;,
       3;84, 83, 67;,
       3;85, 68, 69;,
       3;85, 84, 68;,
       3;86, 69, 70;,
       3;86, 85, 69;,
       3;87, 70, 71;,
       3;87, 86, 70;,
       3;88, 71, 72;,
       3;88, 87, 71;,
       3;89, 72, 73;,
       3;89, 88, 72;,
       3;90, 73, 74;,
       3;90, 89, 73;,
       3;91, 74, 75;,
       3;91, 90, 74;,
       3;92, 75, 76;,
       3;92, 91, 75;,
       3;93, 76, 77;,
       3;93, 92, 76;,
       3;94, 77, 78;,
       3;94, 93, 77;,
       3;95, 78, 79;,
       3;95, 94, 78;,
       3;96, 79, 80;,
       3;96, 95, 79;,
       3;82, 80, 66;,
       3;82, 96, 80;,
       3;97, 82, 81;,
       3;97, 98, 82;,
       3;99, 81, 83;,
       3;99, 97, 81;,
       3;100, 83, 84;,
       3;100, 99, 83;,
       3;101, 84, 85;,
       3;101, 100, 84;,
       3;102, 85, 86;,
       3;102, 101, 85;,
       3;103, 86, 87;,
       3;103, 102, 86;,
       3;104, 87, 88;,
       3;104, 103, 87;,
       3;105, 88, 89;,
       3;105, 104, 88;,
       3;106, 89, 90;,
       3;106, 105, 89;,
       3;107, 90, 91;,
       3;107, 106, 90;,
       3;108, 91, 92;,
       3;108, 107, 91;,
       3;109, 92, 93;,
       3;109, 108, 92;,
       3;110, 93, 94;,
       3;110, 109, 93;,
       3;111, 94, 95;,
       3;111, 110, 94;,
       3;112, 95, 96;,
       3;112, 111, 95;,
       3;98, 96, 82;,
       3;98, 112, 96;,
       3;97, 113, 98;,
       3;99, 113, 97;,
       3;100, 113, 99;,
       3;101, 113, 100;,
       3;102, 113, 101;,
       3;103, 113, 102;,
       3;104, 113, 103;,
       3;105, 113, 104;,
       3;106, 113, 105;,
       3;107, 113, 106;,
       3;108, 113, 107;,
       3;109, 113, 108;,
       3;110, 113, 109;,
       3;111, 113, 110;,
       3;112, 113, 111;,
       3;98, 113, 112;,
       3;114, 115, 116;,
       3;114, 117, 115;;
      }

      MeshTextureCoords {
       118;
       0.405088; 0.761756;,
       0.408623; 0.761756;,
       0.362181; 0.753618;,
       0.395020; 0.761756;,
       0.379954; 0.761756;,
       0.362181; 0.761756;,
       0.344408; 0.761756;,
       0.329340; 0.761756;,
       0.319273; 0.761756;,
       0.315738; 0.761756;,
       0.319273; 0.761756;,
       0.329340; 0.761756;,
       0.344408; 0.761756;,
       0.362181; 0.761756;,
       0.379954; 0.761756;,
       0.395020; 0.761756;,
       0.405088; 0.761756;,
       0.449972; 0.777478;,
       0.456504; 0.777478;,
       0.422860; 0.784934;,
       0.395020; 0.784934;,
       0.362181; 0.784934;,
       0.329340; 0.784934;,
       0.295506; 0.768057;,
       0.276903; 0.768057;,
       0.270371; 0.768057;,
       0.276903; 0.768057;,
       0.301500; 0.784934;,
       0.329340; 0.784934;,
       0.362181; 0.784934;,
       0.395020; 0.784934;,
       0.431370; 0.777478;,
       0.449972; 0.777478;,
       0.474277; 0.812164;,
       0.482812; 0.812164;,
       0.441463; 0.819620;,
       0.405088; 0.819620;,
       0.362181; 0.819620;,
       0.319273; 0.819620;,
       0.276903; 0.802745;,
       0.252598; 0.802745;,
       0.244064; 0.802745;,
       0.252598; 0.802745;,
       0.282898; 0.819620;,
       0.319273; 0.819620;,
       0.362181; 0.819620;,
       0.405088; 0.819620;,
       0.449972; 0.812164;,
       0.474277; 0.812164;,
       0.474303; 0.860535;,
       0.483541; 0.860535;,
       0.447995; 0.860535;,
       0.408623; 0.860535;,
       0.362181; 0.860535;,
       0.315738; 0.860535;,
       0.276366; 0.860535;,
       0.250058; 0.860535;,
       0.240820; 0.860535;,
       0.250058; 0.860535;,
       0.276366; 0.860535;,
       0.315738; 0.860535;,
       0.362181; 0.860535;,
       0.408623; 0.860535;,
       0.447995; 0.860535;,
       0.474303; 0.860535;,
       0.465768; 0.901450;,
       0.474303; 0.901450;,
       0.441463; 0.901450;,
       0.405088; 0.901450;,
       0.362181; 0.901450;,
       0.319273; 0.901450;,
       0.282898; 0.901450;,
       0.258593; 0.901450;,
       0.250058; 0.901450;,
       0.258593; 0.901450;,
       0.282898; 0.901450;,
       0.319273; 0.901450;,
       0.362181; 0.901450;,
       0.405088; 0.901450;,
       0.441463; 0.901450;,
       0.465768; 0.901450;,
       0.441463; 0.936136;,
       0.447995; 0.936136;,
       0.422860; 0.936136;,
       0.395020; 0.936136;,
       0.362181; 0.936136;,
       0.329340; 0.936136;,
       0.301500; 0.936136;,
       0.282898; 0.936136;,
       0.276366; 0.936136;,
       0.282898; 0.936136;,
       0.301500; 0.936136;,
       0.329340; 0.936136;,
       0.362181; 0.936136;,
       0.395020; 0.936136;,
       0.422860; 0.936136;,
       0.441463; 0.936136;,
       0.405088; 0.959313;,
       0.408623; 0.959313;,
       0.395020; 0.959313;,
       0.379954; 0.959313;,
       0.362181; 0.959313;,
       0.344408; 0.959313;,
       0.329340; 0.959313;,
       0.319273; 0.959313;,
       0.315738; 0.959313;,
       0.319273; 0.959313;,
       0.329340; 0.959313;,
       0.344408; 0.959313;,
       0.362181; 0.959313;,
       0.379954; 0.959313;,
       0.395020; 0.959313;,
       0.405088; 0.959313;,
       0.362181; 0.967452;,
       0.609921; 0.710559;,
       0.785213; 0.950451;,
       0.609921; 0.950451;,
       0.785213; 0.710559;;
      }

      MeshVertexColors {
       118;
       0; 1.000000; 1.000000; 1.000000; 1.000000;,
       1; 1.000000; 1.000000; 1.000000; 1.000000;,
       2; 1.000000; 1.000000; 1.000000; 1.000000;,
       3; 1.000000; 1.000000; 1.000000; 1.000000;,
       4; 1.000000; 1.000000; 1.000000; 1.000000;,
       5; 1.000000; 1.000000; 1.000000; 1.000000;,
       6; 1.000000; 1.000000; 1.000000; 1.000000;,
       7; 1.000000; 1.000000; 1.000000; 1.000000;,
       8; 1.000000; 1.000000; 1.000000; 1.000000;,
       9; 1.000000; 1.000000; 1.000000; 1.000000;,
       10; 1.000000; 1.000000; 1.000000; 1.000000;,
       11; 1.000000; 1.000000; 1.000000; 1.000000;,
       12; 1.000000; 1.000000; 1.000000; 1.000000;,
       13; 1.000000; 1.000000; 1.000000; 1.000000;,
       14; 1.000000; 1.000000; 1.000000; 1.000000;,
       15; 1.000000; 1.000000; 1.000000; 1.000000;,
       16; 1.000000; 1.000000; 1.000000; 1.000000;,
       17; 1.000000; 1.000000; 1.000000; 1.000000;,
       18; 1.000000; 1.000000; 1.000000; 1.000000;,
       19; 1.000000; 1.000000; 1.000000; 1.000000;,
       20; 1.000000; 1.000000; 1.000000; 1.000000;,
       21; 1.000000; 1.000000; 1.000000; 1.000000;,
       22; 1.000000; 1.000000; 1.000000; 1.000000;,
       23; 1.000000; 1.000000; 1.000000; 1.000000;,
       24; 1.000000; 1.000000; 1.000000; 1.000000;,
       25; 1.000000; 1.000000; 1.000000; 1.000000;,
       26; 1.000000; 1.000000; 1.000000; 1.000000;,
       27; 1.000000; 1.000000; 1.000000; 1.000000;,
       28; 1.000000; 1.000000; 1.000000; 1.000000;,
       29; 1.000000; 1.000000; 1.000000; 1.000000;,
       30; 1.000000; 1.000000; 1.000000; 1.000000;,
       31; 1.000000; 1.000000; 1.000000; 1.000000;,
       32; 1.000000; 1.000000; 1.000000; 1.000000;,
       33; 1.000000; 1.000000; 1.000000; 1.000000;,
       34; 1.000000; 1.000000; 1.000000; 1.000000;,
       35; 1.000000; 1.000000; 1.000000; 1.000000;,
       36; 1.000000; 1.000000; 1.000000; 1.000000;,
       37; 1.000000; 1.000000; 1.000000; 1.000000;,
       38; 1.000000; 1.000000; 1.000000; 1.000000;,
       39; 1.000000; 1.000000; 1.000000; 1.000000;,
       40; 1.000000; 1.000000; 1.000000; 1.000000;,
       41; 1.000000; 1.000000; 1.000000; 1.000000;,
       42; 1.000000; 1.000000; 1.000000; 1.000000;,
       43; 1.000000; 1.000000; 1.000000; 1.000000;,
       44; 1.000000; 1.000000; 1.000000; 1.000000;,
       45; 1.000000; 1.000000; 1.000000; 1.000000;,
       46; 1.000000; 1.000000; 1.000000; 1.000000;,
       47; 1.000000; 1.000000; 1.000000; 1.000000;,
       48; 1.000000; 1.000000; 1.000000; 1.000000;,
       49; 1.000000; 1.000000; 1.000000; 1.000000;,
       50; 1.000000; 1.000000; 1.000000; 1.000000;,
       51; 1.000000; 1.000000; 1.000000; 1.000000;,
       52; 1.000000; 1.000000; 1.000000; 1.000000;,
       53; 1.000000; 1.000000; 1.000000; 1.000000;,
       54; 1.000000; 1.000000; 1.000000; 1.000000;,
       55; 1.000000; 1.000000; 1.000000; 1.000000;,
       56; 1.000000; 1.000000; 1.000000; 1.000000;,
       57; 1.000000; 1.000000; 1.000000; 1.000000;,
       58; 1.000000; 1.000000; 1.000000; 1.000000;,
       59; 1.000000; 1.000000; 1.000000; 1.000000;,
       60; 1.000000; 1.000000; 1.000000; 1.000000;,
       61; 1.000000; 1.000000; 1.000000; 1.000000;,
       62; 1.000000; 1.000000; 1.000000; 1.000000;,
       63; 1.000000; 1.000000; 1.000000; 1.000000;,
       64; 1.000000; 1.000000; 1.000000; 1.000000;,
       65; 1.000000; 1.000000; 1.000000; 1.000000;,
       66; 1.000000; 1.000000; 1.000000; 1.000000;,
       67; 1.000000; 1.000000; 1.000000; 1.000000;,
       68; 1.000000; 1.000000; 1.000000; 1.000000;,
       69; 1.000000; 1.000000; 1.000000; 1.000000;,
       70; 1.000000; 1.000000; 1.000000; 1.000000;,
       71; 1.000000; 1.000000; 1.000000; 1.000000;,
       72; 1.000000; 1.000000; 1.000000; 1.000000;,
       73; 1.000000; 1.000000; 1.000000; 1.000000;,
       74; 1.000000; 1.000000; 1.000000; 1.000000;,
       75; 1.000000; 1.000000; 1.000000; 1.000000;,
       76; 1.000000; 1.000000; 1.000000; 1.000000;,
       77; 1.000000; 1.000000; 1.000000; 1.000000;,
       78; 1.000000; 1.000000; 1.000000; 1.000000;,
       79; 1.000000; 1.000000; 1.000000; 1.000000;,
       80; 1.000000; 1.000000; 1.000000; 1.000000;,
       81; 1.000000; 1.000000; 1.000000; 1.000000;,
       82; 1.000000; 1.000000; 1.000000; 1.000000;,
       83; 1.000000; 1.000000; 1.000000; 1.000000;,
       84; 1.000000; 1.000000; 1.000000; 1.000000;,
       85; 1.000000; 1.000000; 1.000000; 1.000000;,
       86; 1.000000; 1.000000; 1.000000; 1.000000;,
       87; 1.000000; 1.000000; 1.000000; 1.000000;,
       88; 1.000000; 1.000000; 1.000000; 1.000000;,
       89; 1.000000; 1.000000; 1.000000; 1.000000;,
       90; 1.000000; 1.000000; 1.000000; 1.000000;,
       91; 1.000000; 1.000000; 1.000000; 1.000000;,
       92; 1.000000; 1.000000; 1.000000; 1.000000;,
       93; 1.000000; 1.000000; 1.000000; 1.000000;,
       94; 1.000000; 1.000000; 1.000000; 1.000000;,
       95; 1.000000; 1.000000; 1.000000; 1.000000;,
       96; 1.000000; 1.000000; 1.000000; 1.000000;,
       97; 1.000000; 1.000000; 1.000000; 1.000000;,
       98; 1.000000; 1.000000; 1.000000; 1.000000;,
       99; 1.000000; 1.000000; 1.000000; 1.000000;,
       100; 1.000000; 1.000000; 1.000000; 1.000000;,
       101; 1.000000; 1.000000; 1.000000; 1.000000;,
       102; 1.000000; 1.000000; 1.000000; 1.000000;,
       103; 1.000000; 1.000000; 1.000000; 1.000000;,
       104; 1.000000; 1.000000; 1.000000; 1.000000;,
       105; 1.000000; 1.000000; 1.000000; 1.000000;,
       106; 1.000000; 1.000000; 1.000000; 1.000000;,
       107; 1.000000; 1.000000; 1.000000; 1.000000;,
       108; 1.000000; 1.000000; 1.000000; 1.000000;,
       109; 1.000000; 1.000000; 1.000000; 1.000000;,
       110; 1.000000; 1.000000; 1.000000; 1.000000;,
       111; 1.000000; 1.000000; 1.000000; 1.000000;,
       112; 1.000000; 1.000000; 1.000000; 1.000000;,
       113; 1.000000; 1.000000; 1.000000; 1.000000;,
       114; 1.000000; 1.000000; 1.000000; 1.000000;,
       115; 1.000000; 1.000000; 1.000000; 1.000000;,
       116; 1.000000; 1.000000; 1.000000; 1.000000;,
       117; 1.000000; 1.000000; 1.000000; 1.000000;;
      }

      MeshMaterialList {
       1;
       226;
       0,
       0,
       0,
       0,
       0,
       0,
       0,
       0,
       0,
       0,
       0,
       0,
       0,
       0,
       0,
       0,
       0,
       0,
       0,
       0,
       0,
       0,
       0,
       0,
       0,
       0,
       0,
       0,
       0,
       0,
       0,
       0,
       0,
       0,
       0,
       0,
       0,
       0,
       0,
       0,
       0,
       0,
       0,
       0,
       0,
       0,
       0,
       0,
       0,
       0,
       0,
       0,
       0,
       0,
       0,
       0,
       0,
       0,
       0,
       0,
       0,
       0,
       0,
       0,
       0,
       0,
       0,
       0,
       0,
       0,
       0,
       0,
       0,
       0,
       0,
       0,
       0,
       0,
       0,
       0,
       0,
       0,
       0,
       0,
       0,
       0,
       0,
       0,
       0,
       0,
       0,
       0,
       0,
       0,
       0,
       0,
       0,
       0,
       0,
       0,
       0,
       0,
       0,
       0,
       0,
       0,
       0,
       0,
       0,
       0,
       0,
       0,
       0,
       0,
       0,
       0,
       0,
       0,
       0,
       0,
       0,
       0,
       0,
       0,
       0,
       0,
       0,
       0,
       0,
       0,
       0,
       0,
       0,
       0,
       0,
       0,
       0,
       0,
       0,
       0,
       0,
       0,
       0,
       0,
       0,
       0,
       0,
       0,
       0,
       0,
       0,
       0,
       0,
       0,
       0,
       0,
       0,
       0,
       0,
       0,
       0,
       0,
       0,
       0,
       0,
       0,
       0,
       0,
       0,
       0,
       0,
       0,
       0,
       0,
       0,
       0,
       0,
       0,
       0,
       0,
       0,
       0,
       0,
       0,
       0,
       0,
       0,
       0,
       0,
       0,
       0,
       0,
       0,
       0,
       0,
       0,
       0,
       0,
       0,
       0,
       0,
       0,
       0,
       0,
       0,
       0,
       0,
       0,
       0,
       0,
       0,
       0,
       0,
       0,
       0,
       0,
       0,
       0,
       0,
       0,
       0,
       0,
       0,
       0,
       0,
       0;

       Material def_surf_mat {
        0.992157; 0.992157; 0.992157; 1.000000;;
        1.000000;
        0.150000; 0.150000; 0.150000;;
        0.000000; 0.000000; 0.000000;;

        TextureFilename {
         "more_veg.dds";
        }
       }

      }

      XSkinMeshHeader {
       1;
       1;
       1;
      }

      SkinWeights {
       "Body";
       118;
       0,
       1,
       2,
       3,
       4,
       5,
       6,
       7,
       8,
       9,
       10,
       11,
       12,
       13,
       14,
       15,
       16,
       17,
       18,
       19,
       20,
       21,
       22,
       23,
       24,
       25,
       26,
       27,
       28,
       29,
       30,
       31,
       32,
       33,
       34,
       35,
       36,
       37,
       38,
       39,
       40,
       41,
       42,
       43,
       44,
       45,
       46,
       47,
       48,
       49,
       50,
       51,
       52,
       53,
       54,
       55,
       56,
       57,
       58,
       59,
       60,
       61,
       62,
       63,
       64,
       65,
       66,
       67,
       68,
       69,
       70,
       71,
       72,
       73,
       74,
       75,
       76,
       77,
       78,
       79,
       80,
       81,
       82,
       83,
       84,
       85,
       86,
       87,
       88,
       89,
       90,
       91,
       92,
       93,
       94,
       95,
       96,
       97,
       98,
       99,
       100,
       101,
       102,
       103,
       104,
       105,
       106,
       107,
       108,
       109,
       110,
       111,
       112,
       113,
       114,
       115,
       116,
       117;
       1.000000,
       1.000000,
       1.000000,
       1.000000,
       1.000000,
       1.000000,
       1.000000,
       1.000000,
       1.000000,
       1.000000,
       1.000000,
       1.000000,
       1.000000,
       1.000000,
       1.000000,
       1.000000,
       1.000000,
       1.000000,
       1.000000,
       1.000000,
       1.000000,
       1.000000,
       1.000000,
       1.000000,
       1.000000,
       1.000000,
       1.000000,
       1.000000,
       1.000000,
       1.000000,
       1.000000,
       1.000000,
       1.000000,
       1.000000,
       1.000000,
       1.000000,
       1.000000,
       1.000000,
       1.000000,
       1.000000,
       1.000000,
       1.000000,
       1.000000,
       1.000000,
       1.000000,
       1.000000,
       1.000000,
       1.000000,
       1.000000,
       1.000000,
       1.000000,
       1.000000,
       1.000000,
       1.000000,
       1.000000,
       1.000000,
       1.000000,
       1.000000,
       1.000000,
       1.000000,
       1.000000,
       1.000000,
       1.000000,
       1.000000,
       1.000000,
       1.000000,
       1.000000,
       1.000000,
       1.000000,
       1.000000,
       1.000000,
       1.000000,
       1.000000,
       1.000000,
       1.000000,
       1.000000,
       1.000000,
       1.000000,
       1.000000,
       1.000000,
       1.000000,
       1.000000,
       1.000000,
       1.000000,
       1.000000,
       1.000000,
       1.000000,
       1.000000,
       1.000000,
       1.000000,
       1.000000,
       1.000000,
       1.000000,
       1.000000,
       1.000000,
       1.000000,
       1.000000,
       1.000000,
       1.000000,
       1.000000,
       1.000000,
       1.000000,
       1.000000,
       1.000000,
       1.000000,
       1.000000,
       1.000000,
       1.000000,
       1.000000,
       1.000000,
       1.000000,
       1.000000,
       1.000000,
       1.000000,
       1.000000,
       1.000000,
       1.000000,
       1.000000;
          1.000000, -0.000000, 0.000000, 0.000000,
          -0.000000, 1.000000, -0.000000, 0.000000,
          0.000000, -0.000000, 1.000000, 0.000000,
          -0.000000, -0.000000, -0.000000, 1.000000;;
      }


     }
   }

// Start of Animation

AnimationSet Untitled {
}
