xof 0303txt 0032

// DirectX 9.0 file
// Creator: Ultimate Unwrap3D Pro v3.19
// Website: http://www.unwrap3d.com
// Time: Thu Dec 10 22:07:19 2009

// Start of Templates

template VertexDuplicationIndices {
 <b8d65549-d7c9-4995-89cf-53a9a8b031e3>
 DWORD nIndices;
 DWORD nOriginalVertices;
 array DWORD indices[nIndices];
}

template FVFData {
 <b6e70a0e-8ef9-4e83-94ad-ecc8b0c04897>
 DWORD dwFVF;
 DWORD nDWords;
 array DWORD data[nDWords];
}

template Header {
 <3D82AB43-62DA-11cf-AB39-0020AF71E433>
 WORD major;
 WORD minor;
 DWORD flags;
}

template Vector {
 <3D82AB5E-62DA-11cf-AB39-0020AF71E433>
 FLOAT x;
 FLOAT y;
 FLOAT z;
}

template Coords2d {
 <F6F23F44-7686-11cf-8F52-0040333594A3>
 FLOAT u;
 FLOAT v;
}

template Matrix4x4 {
 <F6F23F45-7686-11cf-8F52-0040333594A3>
 array FLOAT matrix[16];
}

template ColorRGBA {
 <35FF44E0-6C7C-11cf-8F52-0040333594A3>
 FLOAT red;
 FLOAT green;
 FLOAT blue;
 FLOAT alpha;
}

template ColorRGB {
 <D3E16E81-7835-11cf-8F52-0040333594A3>
 FLOAT red;
 FLOAT green;
 FLOAT blue;
}

template IndexedColor {
 <1630B820-7842-11cf-8F52-0040333594A3>
 DWORD index;
 ColorRGBA indexColor;
}

template Material {
 <3D82AB4D-62DA-11cf-AB39-0020AF71E433>
 ColorRGBA faceColor;
 FLOAT power;
 ColorRGB specularColor;
 ColorRGB emissiveColor;
 [...]
}

template TextureFilename {
 <A42790E1-7810-11cf-8F52-0040333594A3>
 STRING filename;
}

template MeshFace {
 <3D82AB5F-62DA-11cf-AB39-0020AF71E433>
 DWORD nFaceVertexIndices;
 array DWORD faceVertexIndices[nFaceVertexIndices];
}

template MeshTextureCoords {
 <F6F23F40-7686-11cf-8F52-0040333594A3>
 DWORD nTextureCoords;
 array Coords2d textureCoords[nTextureCoords];
}

template MeshMaterialList {
 <F6F23F42-7686-11cf-8F52-0040333594A3>
 DWORD nMaterials;
 DWORD nFaceIndexes;
 array DWORD faceIndexes[nFaceIndexes];
 [Material]
}

template MeshNormals {
 <F6F23F43-7686-11cf-8F52-0040333594A3>
 DWORD nNormals;
 array Vector normals[nNormals];
 DWORD nFaceNormals;
 array MeshFace faceNormals[nFaceNormals];
}

template MeshVertexColors {
 <1630B821-7842-11cf-8F52-0040333594A3>
 DWORD nVertexColors;
 array IndexedColor vertexColors[nVertexColors];
}

template Mesh {
 <3D82AB44-62DA-11cf-AB39-0020AF71E433>
 DWORD nVertices;
 array Vector vertices[nVertices];
 DWORD nFaces;
 array MeshFace faces[nFaces];
 [...]
}

template FrameTransformMatrix {
 <F6F23F41-7686-11cf-8F52-0040333594A3>
 Matrix4x4 frameMatrix;
}

template Frame {
 <3D82AB46-62DA-11cf-AB39-0020AF71E433>
 [...]
}

template FloatKeys {
 <10DD46A9-775B-11cf-8F52-0040333594A3>
 DWORD nValues;
 array FLOAT values[nValues];
}

template TimedFloatKeys {
 <F406B180-7B3B-11cf-8F52-0040333594A3>
 DWORD time;
 FloatKeys tfkeys;
}

template AnimationKey {
 <10DD46A8-775B-11cf-8F52-0040333594A3>
 DWORD keyType;
 DWORD nKeys;
 array TimedFloatKeys keys[nKeys];
}

template AnimationOptions {
 <E2BF56C0-840F-11cf-8F52-0040333594A3>
 DWORD openclosed;
 DWORD positionquality;
}

template Animation {
 <3D82AB4F-62DA-11cf-AB39-0020AF71E433>
 [...]
}

template AnimationSet {
 <3D82AB50-62DA-11cf-AB39-0020AF71E433>
 [Animation]
}

template XSkinMeshHeader {
 <3CF169CE-FF7C-44ab-93C0-F78F62D172E2>
 WORD nMaxSkinWeightsPerVertex;
 WORD nMaxSkinWeightsPerFace;
 WORD nBones;
}

template SkinWeights {
 <6F0D123B-BAD2-4167-A0D0-80224F25FABB>
 STRING transformNodeName;
 DWORD nWeights;
 array DWORD vertexIndices[nWeights];
 array FLOAT weights[nWeights];
 Matrix4x4 matrixOffset;
}

template AnimTicksPerSecond {
 <9E415A43-7BA6-4a73-8743-B73D47E88476>
 DWORD AnimTicksPerSecond;
}

AnimTicksPerSecond {
 30;
}

// Start of Frames

   Frame Body {
      FrameTransformMatrix {
       1.000000, 0.000000, 0.000000, 0.000000,
       0.000000, 1.000000, 0.000000, 0.000000,
       0.000000, 0.000000, 1.000000, 0.000000,
       0.000000, 0.000000, 0.000000, 1.000000;;
      }

   }
   Frame def_surf_mat {
      FrameTransformMatrix {
       1.000000, 0.000000, 0.000000, 0.000000,
       0.000000, 1.000000, 0.000000, 0.000000,
       0.000000, 0.000000, 1.000000, 0.000000,
       0.000000, 0.000000, 0.000000, 1.000000;;
      }

   }

   Frame Body0 {
      FrameTransformMatrix {
       1.000000, 0.000000, 0.000000, 0.000000,
       0.000000, 1.000000, 0.000000, 0.000000,
       0.000000, 0.000000, 1.000000, 0.000000,
       0.000000, 0.000000, 0.000000, 1.000000;;
      }

      Mesh skinnedMesh {
       144;
       1.199905; 5.593601; 0.388245;,
       1.280315; 5.593601; -0.000053;,
       0.968375; 5.593601; 0.729744;,
       1.199905; 5.593601; -0.388252;,
       0.613645; 5.593601; 0.983246;,
       0.968375; 5.593601; -0.729759;,
       0.178515; 5.593601; 1.118042;,
       0.613645; 5.593601; -0.983253;,
       -0.284545; 5.593601; 1.118042;,
       0.178515; 5.593601; -1.118057;,
       -0.719685; 5.593601; 0.983246;,
       -0.284545; 5.593601; -1.118057;,
       -1.074405; 5.593601; 0.729744;,
       -0.719685; 5.593601; -0.983253;,
       -1.305944; 5.593601; 0.388245;,
       -1.074405; 5.593601; -0.729759;,
       -1.386345; 5.593601; -0.000053;,
       -1.305944; 5.593601; -0.388252;,
       3.210225; 0.000000; -0.000053;,
       3.016625; 0.000000; 0.934845;,
       3.016625; 0.000000; -0.934853;,
       2.459175; 0.000000; 1.757042;,
       2.459175; 0.000000; -1.757057;,
       1.605115; 0.000000; 2.367241;,
       1.605115; 0.000000; -2.367256;,
       0.557446; 0.000000; 2.691948;,
       0.557446; 0.000000; -2.691956;,
       -0.557455; 0.000000; 2.691948;,
       -0.557445; 0.000000; -2.691956;,
       -1.605115; 0.000000; 2.367241;,
       -1.605115; 0.000000; -2.367256;,
       -2.459175; 0.000000; 1.757042;,
       -2.459175; 0.000000; -1.757057;,
       -3.016624; 0.000000; 0.934845;,
       -3.016624; 0.000000; -0.934853;,
       -3.210225; 0.000000; -0.000053;,
       2.882695; 1.177200; 2.059647;,
       3.536145; 1.177200; 1.095848;,
       3.018555; 2.570400; 2.156647;,
       3.702805; 2.570400; 1.147545;,
       2.858995; 3.471703; 2.042648;,
       3.507075; 3.471703; 1.086845;,
       2.671385; 4.572403; 1.908646;,
       3.276935; 4.572403; 1.015541;,
       1.881545; 1.177200; 2.774948;,
       1.970225; 2.570400; 2.905647;,
       1.866076; 3.471703; 2.752045;,
       1.743625; 4.572403; 2.571541;,
       0.653455; 1.177200; 3.155548;,
       0.684255; 2.570400; 3.304245;,
       0.648085; 3.471703; 3.129547;,
       0.605555; 4.572403; 2.924141;,
       -0.653455; 1.177200; 3.155548;,
       -0.684255; 2.570400; 3.304245;,
       -0.648085; 3.471703; 3.129547;,
       -0.605555; 4.572403; 2.924141;,
       -1.881545; 1.177200; 2.774948;,
       -1.970224; 2.570400; 2.905647;,
       -1.866075; 3.471703; 2.752045;,
       -1.743625; 4.572403; 2.571541;,
       -2.882694; 1.177200; 2.059647;,
       -3.018555; 2.570400; 2.156647;,
       -2.858994; 3.471703; 2.042648;,
       -2.671385; 4.572403; 1.908646;,
       -3.536144; 1.177200; 1.095848;,
       -3.702845; 2.570400; 1.147545;,
       -3.507045; 3.471703; 1.086845;,
       -3.276945; 4.572403; 1.015541;,
       -3.763044; 1.177200; -0.000053;,
       -3.940445; 2.570400; -0.000053;,
       -3.732144; 3.471703; -0.000053;,
       -3.487245; 4.572403; -0.000053;,
       -3.536144; 1.177200; -1.095856;,
       -3.702845; 2.570400; -1.147552;,
       -3.507045; 3.471703; -1.086853;,
       -3.276945; 4.572403; -1.015556;,
       -2.882694; 1.177200; -2.059654;,
       -3.018555; 2.570400; -2.156654;,
       -2.858994; 3.471703; -2.042656;,
       -2.671385; 4.572403; -1.908653;,
       -1.881545; 1.177200; -2.774956;,
       -1.970224; 2.570400; -2.905655;,
       -1.866075; 3.471703; -2.752159;,
       -1.743625; 4.572403; -2.571556;,
       -0.653455; 1.177200; -3.155556;,
       -0.684255; 2.570400; -3.304253;,
       -0.648085; 3.471703; -3.129555;,
       -0.605555; 4.572403; -2.924255;,
       0.653455; 1.177200; -3.155556;,
       0.684255; 2.570400; -3.304253;,
       0.648085; 3.471703; -3.129555;,
       0.605555; 4.572403; -2.924255;,
       1.881545; 1.177200; -2.774956;,
       1.970225; 2.570400; -2.905655;,
       1.866076; 3.471703; -2.752159;,
       1.743625; 4.572403; -2.571556;,
       2.882695; 1.177200; -2.059654;,
       3.018555; 2.570400; -2.156654;,
       2.858995; 3.471703; -2.042656;,
       2.671385; 4.572403; -1.908653;,
       3.536145; 1.177200; -1.095856;,
       3.702805; 2.570400; -1.147552;,
       3.507075; 3.471703; -1.086853;,
       3.276935; 4.572403; -1.015556;,
       3.763085; 1.177200; -0.000053;,
       3.940445; 2.570400; -0.000053;,
       3.732155; 3.471703; -0.000053;,
       3.487245; 4.572403; -0.000053;,
       2.044555; 5.136600; 1.460747;,
       2.508015; 5.136600; 0.777245;,
       2.668975; 5.136600; -0.000053;,
       1.334485; 5.136600; 1.968147;,
       0.463465; 5.136600; 2.238045;,
       -0.463465; 5.136600; 2.238045;,
       -1.334485; 5.136600; 1.968147;,
       -2.044555; 5.136600; 1.460747;,
       -2.508015; 5.136600; 0.777245;,
       -2.668975; 5.136600; -0.000053;,
       -2.508015; 5.136600; -0.777252;,
       -2.044555; 5.136600; -1.460754;,
       -1.334485; 5.136600; -1.968155;,
       -0.463465; 5.136600; -2.238052;,
       0.463465; 5.136600; -2.238052;,
       1.334485; 5.136600; -1.968155;,
       2.044555; 5.136600; -1.460754;,
       2.508015; 5.136600; -0.777252;,
       2.044555; 5.136600; 1.460747;,
       2.508015; 5.136600; 0.777245;,
       2.668975; 5.136600; -0.000053;,
       1.334485; 5.136600; 1.968147;,
       2.508015; 5.136600; -0.777252;,
       0.463465; 5.136600; 2.238045;,
       -0.463465; 5.136600; 2.238045;,
       -1.334485; 5.136600; 1.968147;,
       -2.044555; 5.136600; 1.460747;,
       -2.508015; 5.136600; 0.777245;,
       -2.668975; 5.136600; -0.000053;,
       -2.508015; 5.136600; -0.777252;,
       -2.044555; 5.136600; -1.460754;,
       -1.334485; 5.136600; -1.968155;,
       -0.463465; 5.136600; -2.238052;,
       0.463465; 5.136600; -2.238052;,
       1.334485; 5.136600; -1.968155;,
       2.044555; 5.136600; -1.460754;;
       248;
       3;0, 1, 2;,
       3;1, 3, 2;,
       3;2, 3, 4;,
       3;3, 5, 4;,
       3;4, 5, 6;,
       3;5, 7, 6;,
       3;6, 7, 8;,
       3;7, 9, 8;,
       3;8, 9, 10;,
       3;9, 11, 10;,
       3;10, 11, 12;,
       3;11, 13, 12;,
       3;12, 13, 14;,
       3;13, 15, 14;,
       3;14, 15, 16;,
       3;15, 17, 16;,
       3;18, 19, 20;,
       3;19, 21, 20;,
       3;20, 21, 22;,
       3;21, 23, 22;,
       3;22, 23, 24;,
       3;23, 25, 24;,
       3;24, 25, 26;,
       3;25, 27, 26;,
       3;26, 27, 28;,
       3;27, 29, 28;,
       3;28, 29, 30;,
       3;29, 31, 30;,
       3;30, 31, 32;,
       3;31, 33, 32;,
       3;32, 33, 34;,
       3;33, 35, 34;,
       3;21, 19, 36;,
       3;19, 37, 36;,
       3;36, 37, 38;,
       3;37, 39, 38;,
       3;38, 39, 40;,
       3;39, 41, 40;,
       3;40, 41, 42;,
       3;41, 43, 42;,
       3;23, 21, 44;,
       3;21, 36, 44;,
       3;44, 36, 45;,
       3;36, 38, 45;,
       3;45, 38, 46;,
       3;38, 40, 46;,
       3;46, 40, 47;,
       3;40, 42, 47;,
       3;25, 23, 48;,
       3;23, 44, 48;,
       3;48, 44, 49;,
       3;44, 45, 49;,
       3;49, 45, 50;,
       3;45, 46, 50;,
       3;50, 46, 51;,
       3;46, 47, 51;,
       3;27, 25, 52;,
       3;25, 48, 52;,
       3;52, 48, 53;,
       3;48, 49, 53;,
       3;53, 49, 54;,
       3;49, 50, 54;,
       3;54, 50, 55;,
       3;50, 51, 55;,
       3;29, 27, 56;,
       3;27, 52, 56;,
       3;56, 52, 57;,
       3;52, 53, 57;,
       3;57, 53, 58;,
       3;53, 54, 58;,
       3;58, 54, 59;,
       3;54, 55, 59;,
       3;31, 29, 60;,
       3;29, 56, 60;,
       3;60, 56, 61;,
       3;56, 57, 61;,
       3;61, 57, 62;,
       3;57, 58, 62;,
       3;62, 58, 63;,
       3;58, 59, 63;,
       3;33, 31, 64;,
       3;31, 60, 64;,
       3;64, 60, 65;,
       3;60, 61, 65;,
       3;65, 61, 66;,
       3;61, 62, 66;,
       3;66, 62, 67;,
       3;62, 63, 67;,
       3;35, 33, 68;,
       3;33, 64, 68;,
       3;68, 64, 69;,
       3;64, 65, 69;,
       3;69, 65, 70;,
       3;65, 66, 70;,
       3;70, 66, 71;,
       3;66, 67, 71;,
       3;34, 35, 72;,
       3;35, 68, 72;,
       3;72, 68, 73;,
       3;68, 69, 73;,
       3;73, 69, 74;,
       3;69, 70, 74;,
       3;74, 70, 75;,
       3;70, 71, 75;,
       3;32, 34, 76;,
       3;34, 72, 76;,
       3;76, 72, 77;,
       3;72, 73, 77;,
       3;77, 73, 78;,
       3;73, 74, 78;,
       3;78, 74, 79;,
       3;74, 75, 79;,
       3;30, 32, 80;,
       3;32, 76, 80;,
       3;80, 76, 81;,
       3;76, 77, 81;,
       3;81, 77, 82;,
       3;77, 78, 82;,
       3;82, 78, 83;,
       3;78, 79, 83;,
       3;28, 30, 84;,
       3;30, 80, 84;,
       3;84, 80, 85;,
       3;80, 81, 85;,
       3;85, 81, 86;,
       3;81, 82, 86;,
       3;86, 82, 87;,
       3;82, 83, 87;,
       3;26, 28, 88;,
       3;28, 84, 88;,
       3;88, 84, 89;,
       3;84, 85, 89;,
       3;89, 85, 90;,
       3;85, 86, 90;,
       3;90, 86, 91;,
       3;86, 87, 91;,
       3;24, 26, 92;,
       3;26, 88, 92;,
       3;92, 88, 93;,
       3;88, 89, 93;,
       3;93, 89, 94;,
       3;89, 90, 94;,
       3;94, 90, 95;,
       3;90, 91, 95;,
       3;22, 24, 96;,
       3;24, 92, 96;,
       3;96, 92, 97;,
       3;92, 93, 97;,
       3;97, 93, 98;,
       3;93, 94, 98;,
       3;98, 94, 99;,
       3;94, 95, 99;,
       3;20, 22, 100;,
       3;22, 96, 100;,
       3;100, 96, 101;,
       3;96, 97, 101;,
       3;101, 97, 102;,
       3;97, 98, 102;,
       3;102, 98, 103;,
       3;98, 99, 103;,
       3;18, 20, 104;,
       3;20, 100, 104;,
       3;104, 100, 105;,
       3;100, 101, 105;,
       3;105, 101, 106;,
       3;101, 102, 106;,
       3;106, 102, 107;,
       3;102, 103, 107;,
       3;19, 18, 37;,
       3;18, 104, 37;,
       3;37, 104, 39;,
       3;104, 105, 39;,
       3;39, 105, 41;,
       3;105, 106, 41;,
       3;41, 106, 43;,
       3;106, 107, 43;,
       3;108, 42, 109;,
       3;42, 43, 109;,
       3;109, 43, 110;,
       3;43, 107, 110;,
       3;111, 47, 108;,
       3;47, 42, 108;,
       3;112, 51, 111;,
       3;51, 47, 111;,
       3;113, 55, 112;,
       3;55, 51, 112;,
       3;114, 59, 113;,
       3;59, 55, 113;,
       3;115, 63, 114;,
       3;63, 59, 114;,
       3;116, 67, 115;,
       3;67, 63, 115;,
       3;117, 71, 116;,
       3;71, 67, 116;,
       3;118, 75, 117;,
       3;75, 71, 117;,
       3;119, 79, 118;,
       3;79, 75, 118;,
       3;120, 83, 119;,
       3;83, 79, 119;,
       3;121, 87, 120;,
       3;87, 83, 120;,
       3;122, 91, 121;,
       3;91, 87, 121;,
       3;123, 95, 122;,
       3;95, 91, 122;,
       3;124, 99, 123;,
       3;99, 95, 123;,
       3;125, 103, 124;,
       3;103, 99, 124;,
       3;110, 107, 125;,
       3;107, 103, 125;,
       3;2, 126, 0;,
       3;126, 127, 0;,
       3;0, 127, 1;,
       3;127, 128, 1;,
       3;4, 129, 2;,
       3;129, 126, 2;,
       3;1, 128, 3;,
       3;128, 130, 3;,
       3;6, 131, 4;,
       3;131, 129, 4;,
       3;8, 132, 6;,
       3;132, 131, 6;,
       3;10, 133, 8;,
       3;133, 132, 8;,
       3;12, 134, 10;,
       3;134, 133, 10;,
       3;14, 135, 12;,
       3;135, 134, 12;,
       3;16, 136, 14;,
       3;136, 135, 14;,
       3;17, 137, 16;,
       3;137, 136, 16;,
       3;15, 138, 17;,
       3;138, 137, 17;,
       3;13, 139, 15;,
       3;139, 138, 15;,
       3;11, 140, 13;,
       3;140, 139, 13;,
       3;9, 141, 11;,
       3;141, 140, 11;,
       3;7, 142, 9;,
       3;142, 141, 9;,
       3;5, 143, 7;,
       3;143, 142, 7;,
       3;3, 130, 5;,
       3;130, 143, 5;;

      MeshNormals {
       144;
       0.217623; 0.969769; 0.110403;,
       0.189684; 0.981758; 0.013090;,
       0.115511; 0.985007; 0.128131;,
       0.151817; 0.986972; -0.053275;,
       0.071554; 0.983236; 0.167712;,
       0.127359; 0.985599; -0.111243;,
       0.018503; 0.981982; 0.188064;,
       0.087605; 0.983806; -0.156369;,
       -0.037911; 0.981714; 0.186551;,
       0.037000; 0.982311; -0.183566;,
       -0.091371; 0.982469; 0.162498;,
       -0.018954; 0.981686; -0.189560;,
       -0.135117; 0.983814; 0.117702;,
       -0.074128; 0.982125; -0.173018;,
       -0.162846; 0.985004; 0.056994;,
       -0.121873; 0.983344; -0.134839;,
       -0.204027; 0.978864; -0.014088;,
       -0.232617; 0.965410; -0.117783;,
       0.763018; -0.644229; 0.052663;,
       0.572096; -0.767897; 0.288167;,
       0.505377; -0.844823; -0.175695;,
       0.367064; -0.837808; 0.404155;,
       0.410437; -0.839634; -0.355747;,
       0.218947; -0.832510; 0.508910;,
       0.271196; -0.833935; -0.480630;,
       0.055557; -0.829706; 0.555429;,
       0.111039; -0.830230; -0.546249;,
       -0.111040; -0.830231; 0.546248;,
       -0.055556; -0.829706; -0.555429;,
       -0.271196; -0.833936; 0.480627;,
       -0.218946; -0.832509; -0.508912;,
       -0.410436; -0.839635; 0.355747;,
       -0.367065; -0.837807; -0.404156;,
       -0.505383; -0.844821; 0.175684;,
       -0.572095; -0.767896; -0.288171;,
       -0.763027; -0.644217; -0.052670;,
       0.688675; -0.263101; 0.675652;,
       0.884374; -0.274935; 0.377218;,
       0.715203; 0.045501; 0.697434;,
       0.920150; 0.048171; 0.388593;,
       0.700126; 0.206500; 0.683506;,
       0.899068; 0.216759; 0.380385;,
       0.634830; 0.541862; 0.550797;,
       0.785110; 0.555815; 0.273262;,
       0.428266; -0.250745; 0.868168;,
       0.444196; 0.043591; 0.894869;,
       0.435544; 0.196321; 0.878498;,
       0.417637; 0.526071; 0.740830;,
       0.143493; -0.243106; 0.959328;,
       0.149868; 0.042972; 0.987772;,
       0.146898; 0.190426; 0.970649;,
       0.170553; 0.515527; 0.839729;,
       -0.146785; -0.242465; 0.958992;,
       -0.149220; 0.043772; 0.987835;,
       -0.146945; 0.190394; 0.970648;,
       -0.085238; 0.513952; 0.853574;,
       -0.431788; -0.249012; 0.866921;,
       -0.443482; 0.045827; 0.895111;,
       -0.435639; 0.196269; 0.878463;,
       -0.336825; 0.521814; 0.783747;,
       -0.692242; -0.260887; 0.672859;,
       -0.714463; 0.048489; 0.697991;,
       -0.700205; 0.206440; 0.683444;,
       -0.567059; 0.536532; 0.624962;,
       -0.886919; -0.273314; 0.372390;,
       -0.919621; 0.050423; 0.389556;,
       -0.899115; 0.216725; 0.380293;,
       -0.744561; 0.552006; 0.375392;,
       -0.960185; -0.279349; -0.002923;,
       -0.998734; 0.050289; 0.000577;,
       -0.975231; 0.221189; -0.000074;,
       -0.826453; 0.560108; 0.057046;,
       -0.884372; -0.274939; -0.377220;,
       -0.920150; 0.048181; -0.388590;,
       -0.899064; 0.216771; -0.380388;,
       -0.785111; 0.555805; -0.273277;,
       -0.688676; -0.263099; -0.675651;,
       -0.715205; 0.045482; -0.697433;,
       -0.700142; 0.206522; -0.683484;,
       -0.634833; 0.541858; -0.550797;,
       -0.428266; -0.250743; -0.868168;,
       -0.444185; 0.043556; -0.894876;,
       -0.435555; 0.196300; -0.878498;,
       -0.417662; 0.526094; -0.740799;,
       -0.143492; -0.243105; -0.959328;,
       -0.149868; 0.042973; -0.987772;,
       -0.146874; 0.190361; -0.970665;,
       -0.170560; 0.515537; -0.839721;,
       0.146784; -0.242465; -0.958992;,
       0.149207; 0.043754; -0.987837;,
       0.146932; 0.190377; -0.970653;,
       0.085261; 0.513946; -0.853575;,
       0.431787; -0.249010; -0.866922;,
       0.443494; 0.045793; -0.895107;,
       0.435638; 0.196263; -0.878465;,
       0.336830; 0.521833; -0.783732;,
       0.692246; -0.260881; -0.672857;,
       0.714468; 0.048478; -0.697987;,
       0.700218; 0.206428; -0.683434;,
       0.567066; 0.536543; -0.624947;,
       0.886913; -0.273300; -0.372415;,
       0.919619; 0.050407; -0.389564;,
       0.899114; 0.216714; -0.380301;,
       0.744552; 0.552012; -0.375399;,
       0.960186; -0.279345; 0.002912;,
       0.998734; 0.050288; -0.000603;,
       0.975233; 0.221182; 0.000052;,
       0.826447; 0.560115; -0.057058;,
       0.402341; 0.800143; 0.444852;,
       0.516994; 0.815059; 0.261526;,
       0.567212; 0.822641; 0.039148;,
       0.243801; 0.785344; 0.569031;,
       0.062301; 0.777176; 0.626192;,
       -0.124591; 0.778877; 0.614677;,
       -0.300626; 0.789803; 0.534636;,
       -0.446985; 0.805488; 0.389093;,
       -0.542018; 0.818728; 0.189476;,
       -0.567209; 0.822643; -0.039159;,
       -0.516988; 0.815061; -0.261531;,
       -0.402342; 0.800143; -0.444850;,
       -0.243809; 0.785362; -0.569002;,
       -0.062295; 0.777223; -0.626134;,
       0.124601; 0.778909; -0.614635;,
       0.300626; 0.789805; -0.534633;,
       0.446986; 0.805488; -0.389092;,
       0.542017; 0.818726; -0.189486;,
       0.251251; 0.942714; 0.219462;,
       0.299940; 0.948134; 0.105254;,
       0.312529; 0.949663; -0.021581;,
       0.172506; 0.935652; 0.307892;,
       0.287373; 0.946659; -0.145789;,
       0.072737; 0.929772; 0.360878;,
       -0.037247; 0.927314; 0.372427;,
       -0.145711; 0.929027; 0.340114;,
       -0.239893; 0.933811; 0.265420;,
       -0.306742; 0.939035; 0.155312;,
       -0.335543; 0.941740; 0.023156;,
       -0.321124; 0.940343; -0.112403;,
       -0.266092; 0.935662; -0.231803;,
       -0.179683; 0.930381; -0.319539;,
       -0.074488; 0.927421; -0.366527;,
       0.036373; 0.928478; -0.369601;,
       0.140810; 0.933404; -0.330045;,
       0.227737; 0.940380; -0.252629;;
       248;
       3;0, 1, 2;,
       3;1, 3, 2;,
       3;2, 3, 4;,
       3;3, 5, 4;,
       3;4, 5, 6;,
       3;5, 7, 6;,
       3;6, 7, 8;,
       3;7, 9, 8;,
       3;8, 9, 10;,
       3;9, 11, 10;,
       3;10, 11, 12;,
       3;11, 13, 12;,
       3;12, 13, 14;,
       3;13, 15, 14;,
       3;14, 15, 16;,
       3;15, 17, 16;,
       3;18, 19, 20;,
       3;19, 21, 20;,
       3;20, 21, 22;,
       3;21, 23, 22;,
       3;22, 23, 24;,
       3;23, 25, 24;,
       3;24, 25, 26;,
       3;25, 27, 26;,
       3;26, 27, 28;,
       3;27, 29, 28;,
       3;28, 29, 30;,
       3;29, 31, 30;,
       3;30, 31, 32;,
       3;31, 33, 32;,
       3;32, 33, 34;,
       3;33, 35, 34;,
       3;21, 19, 36;,
       3;19, 37, 36;,
       3;36, 37, 38;,
       3;37, 39, 38;,
       3;38, 39, 40;,
       3;39, 41, 40;,
       3;40, 41, 42;,
       3;41, 43, 42;,
       3;23, 21, 44;,
       3;21, 36, 44;,
       3;44, 36, 45;,
       3;36, 38, 45;,
       3;45, 38, 46;,
       3;38, 40, 46;,
       3;46, 40, 47;,
       3;40, 42, 47;,
       3;25, 23, 48;,
       3;23, 44, 48;,
       3;48, 44, 49;,
       3;44, 45, 49;,
       3;49, 45, 50;,
       3;45, 46, 50;,
       3;50, 46, 51;,
       3;46, 47, 51;,
       3;27, 25, 52;,
       3;25, 48, 52;,
       3;52, 48, 53;,
       3;48, 49, 53;,
       3;53, 49, 54;,
       3;49, 50, 54;,
       3;54, 50, 55;,
       3;50, 51, 55;,
       3;29, 27, 56;,
       3;27, 52, 56;,
       3;56, 52, 57;,
       3;52, 53, 57;,
       3;57, 53, 58;,
       3;53, 54, 58;,
       3;58, 54, 59;,
       3;54, 55, 59;,
       3;31, 29, 60;,
       3;29, 56, 60;,
       3;60, 56, 61;,
       3;56, 57, 61;,
       3;61, 57, 62;,
       3;57, 58, 62;,
       3;62, 58, 63;,
       3;58, 59, 63;,
       3;33, 31, 64;,
       3;31, 60, 64;,
       3;64, 60, 65;,
       3;60, 61, 65;,
       3;65, 61, 66;,
       3;61, 62, 66;,
       3;66, 62, 67;,
       3;62, 63, 67;,
       3;35, 33, 68;,
       3;33, 64, 68;,
       3;68, 64, 69;,
       3;64, 65, 69;,
       3;69, 65, 70;,
       3;65, 66, 70;,
       3;70, 66, 71;,
       3;66, 67, 71;,
       3;34, 35, 72;,
       3;35, 68, 72;,
       3;72, 68, 73;,
       3;68, 69, 73;,
       3;73, 69, 74;,
       3;69, 70, 74;,
       3;74, 70, 75;,
       3;70, 71, 75;,
       3;32, 34, 76;,
       3;34, 72, 76;,
       3;76, 72, 77;,
       3;72, 73, 77;,
       3;77, 73, 78;,
       3;73, 74, 78;,
       3;78, 74, 79;,
       3;74, 75, 79;,
       3;30, 32, 80;,
       3;32, 76, 80;,
       3;80, 76, 81;,
       3;76, 77, 81;,
       3;81, 77, 82;,
       3;77, 78, 82;,
       3;82, 78, 83;,
       3;78, 79, 83;,
       3;28, 30, 84;,
       3;30, 80, 84;,
       3;84, 80, 85;,
       3;80, 81, 85;,
       3;85, 81, 86;,
       3;81, 82, 86;,
       3;86, 82, 87;,
       3;82, 83, 87;,
       3;26, 28, 88;,
       3;28, 84, 88;,
       3;88, 84, 89;,
       3;84, 85, 89;,
       3;89, 85, 90;,
       3;85, 86, 90;,
       3;90, 86, 91;,
       3;86, 87, 91;,
       3;24, 26, 92;,
       3;26, 88, 92;,
       3;92, 88, 93;,
       3;88, 89, 93;,
       3;93, 89, 94;,
       3;89, 90, 94;,
       3;94, 90, 95;,
       3;90, 91, 95;,
       3;22, 24, 96;,
       3;24, 92, 96;,
       3;96, 92, 97;,
       3;92, 93, 97;,
       3;97, 93, 98;,
       3;93, 94, 98;,
       3;98, 94, 99;,
       3;94, 95, 99;,
       3;20, 22, 100;,
       3;22, 96, 100;,
       3;100, 96, 101;,
       3;96, 97, 101;,
       3;101, 97, 102;,
       3;97, 98, 102;,
       3;102, 98, 103;,
       3;98, 99, 103;,
       3;18, 20, 104;,
       3;20, 100, 104;,
       3;104, 100, 105;,
       3;100, 101, 105;,
       3;105, 101, 106;,
       3;101, 102, 106;,
       3;106, 102, 107;,
       3;102, 103, 107;,
       3;19, 18, 37;,
       3;18, 104, 37;,
       3;37, 104, 39;,
       3;104, 105, 39;,
       3;39, 105, 41;,
       3;105, 106, 41;,
       3;41, 106, 43;,
       3;106, 107, 43;,
       3;108, 42, 109;,
       3;42, 43, 109;,
       3;109, 43, 110;,
       3;43, 107, 110;,
       3;111, 47, 108;,
       3;47, 42, 108;,
       3;112, 51, 111;,
       3;51, 47, 111;,
       3;113, 55, 112;,
       3;55, 51, 112;,
       3;114, 59, 113;,
       3;59, 55, 113;,
       3;115, 63, 114;,
       3;63, 59, 114;,
       3;116, 67, 115;,
       3;67, 63, 115;,
       3;117, 71, 116;,
       3;71, 67, 116;,
       3;118, 75, 117;,
       3;75, 71, 117;,
       3;119, 79, 118;,
       3;79, 75, 118;,
       3;120, 83, 119;,
       3;83, 79, 119;,
       3;121, 87, 120;,
       3;87, 83, 120;,
       3;122, 91, 121;,
       3;91, 87, 121;,
       3;123, 95, 122;,
       3;95, 91, 122;,
       3;124, 99, 123;,
       3;99, 95, 123;,
       3;125, 103, 124;,
       3;103, 99, 124;,
       3;110, 107, 125;,
       3;107, 103, 125;,
       3;2, 126, 0;,
       3;126, 127, 0;,
       3;0, 127, 1;,
       3;127, 128, 1;,
       3;4, 129, 2;,
       3;129, 126, 2;,
       3;1, 128, 3;,
       3;128, 130, 3;,
       3;6, 131, 4;,
       3;131, 129, 4;,
       3;8, 132, 6;,
       3;132, 131, 6;,
       3;10, 133, 8;,
       3;133, 132, 8;,
       3;12, 134, 10;,
       3;134, 133, 10;,
       3;14, 135, 12;,
       3;135, 134, 12;,
       3;16, 136, 14;,
       3;136, 135, 14;,
       3;17, 137, 16;,
       3;137, 136, 16;,
       3;15, 138, 17;,
       3;138, 137, 17;,
       3;13, 139, 15;,
       3;139, 138, 15;,
       3;11, 140, 13;,
       3;140, 139, 13;,
       3;9, 141, 11;,
       3;141, 140, 11;,
       3;7, 142, 9;,
       3;142, 141, 9;,
       3;5, 143, 7;,
       3;143, 142, 7;,
       3;3, 130, 5;,
       3;130, 143, 5;;
      }

      MeshTextureCoords {
       144;
       0.677965; 0.873263;,
       0.701263; 0.882951;,
       0.658553; 0.855138;,
       0.725723; 0.882806;,
       0.645495; 0.830582;,
       0.748403; 0.872877;,
       0.640318; 0.802573;,
       0.766533; 0.854380;,
       0.643631; 0.774482;,
       0.777893; 0.829569;,
       0.655046; 0.749715;,
       0.781130; 0.801470;,
       0.673185; 0.731280;,
       0.775896; 0.773480;,
       0.695834; 0.721393;,
       0.762834; 0.748946;,
       0.720258; 0.721232;,
       0.743515; 0.730802;,
       0.583753; 0.559660;,
       0.674101; 0.559660;,
       0.674101; 0.559660;,
       0.627755; 0.559660;,
       0.627755; 0.559660;,
       0.556751; 0.559660;,
       0.556751; 0.559660;,
       0.469649; 0.559660;,
       0.469649; 0.559660;,
       0.376959; 0.559660;,
       0.376960; 0.559660;,
       0.289859; 0.559660;,
       0.289859; 0.559660;,
       0.218854; 0.559660;,
       0.218854; 0.559660;,
       0.172509; 0.559660;,
       0.172509; 0.559660;,
       0.257945; 0.559660;,
       0.662966; 0.459102;,
       0.717292; 0.459102;,
       0.674261; 0.340092;,
       0.731148; 0.340092;,
       0.660996; 0.263101;,
       0.714876; 0.263101;,
       0.645398; 0.169077;,
       0.695742; 0.169077;,
       0.579732; 0.459102;,
       0.587105; 0.340092;,
       0.578446; 0.263101;,
       0.568266; 0.169077;,
       0.477632; 0.459102;,
       0.480192; 0.340092;,
       0.477185; 0.263101;,
       0.473649; 0.169077;,
       0.368978; 0.459102;,
       0.366417; 0.340092;,
       0.369424; 0.263101;,
       0.372960; 0.169077;,
       0.266877; 0.459102;,
       0.259504; 0.340092;,
       0.268163; 0.263101;,
       0.278343; 0.169077;,
       0.183644; 0.459102;,
       0.172348; 0.340092;,
       0.185614; 0.263101;,
       0.201211; 0.169077;,
       0.129317; 0.459102;,
       0.115458; 0.340092;,
       0.131736; 0.263101;,
       0.150866; 0.169077;,
       0.211985; 0.459102;,
       0.197236; 0.340092;,
       0.214554; 0.263101;,
       0.234914; 0.169077;,
       0.129317; 0.459102;,
       0.115458; 0.340092;,
       0.131736; 0.263101;,
       0.150866; 0.169077;,
       0.183644; 0.459102;,
       0.172348; 0.340092;,
       0.185614; 0.263101;,
       0.201211; 0.169077;,
       0.266877; 0.459102;,
       0.259504; 0.340092;,
       0.268163; 0.263101;,
       0.278343; 0.169077;,
       0.368978; 0.459102;,
       0.366417; 0.340092;,
       0.369424; 0.263101;,
       0.372960; 0.169077;,
       0.477632; 0.459102;,
       0.480192; 0.340092;,
       0.477185; 0.263101;,
       0.473649; 0.169077;,
       0.579732; 0.459102;,
       0.587105; 0.340092;,
       0.578446; 0.263101;,
       0.568266; 0.169077;,
       0.662966; 0.459102;,
       0.674261; 0.340092;,
       0.660996; 0.263101;,
       0.645398; 0.169077;,
       0.717292; 0.459102;,
       0.731148; 0.340092;,
       0.714876; 0.263101;,
       0.695742; 0.169077;,
       0.629716; 0.459102;,
       0.644461; 0.340092;,
       0.627145; 0.263101;,
       0.606783; 0.169077;,
       0.593285; 0.073392;,
       0.631816; 0.073392;,
       0.538754; 0.073392;,
       0.534251; 0.073392;,
       0.461836; 0.073392;,
       0.384773; 0.073392;,
       0.312358; 0.073392;,
       0.253325; 0.073392;,
       0.214794; 0.073392;,
       0.302943; 0.073392;,
       0.214794; 0.073392;,
       0.253325; 0.073392;,
       0.312358; 0.073392;,
       0.384773; 0.073392;,
       0.461836; 0.073392;,
       0.534251; 0.073392;,
       0.593285; 0.073392;,
       0.631816; 0.073392;,
       0.600113; 0.916739;,
       0.641176; 0.954985;,
       0.690389; 0.974863;,
       0.572272; 0.864909;,
       0.741730; 0.974467;,
       0.561240; 0.805728;,
       0.568487; 0.746551;,
       0.592996; 0.694731;,
       0.631530; 0.656476;,
       0.679294; 0.636160;,
       0.730653; 0.636041;,
       0.779649; 0.656138;,
       0.820538; 0.694232;,
       0.848275; 0.745936;,
       0.859224; 0.804969;,
       0.851980; 0.863958;,
       0.827623; 0.915650;,
       0.789319; 0.953947;;
      }

      MeshVertexColors {
       144;
       0; 1.000000; 1.000000; 1.000000; 1.000000;,
       1; 1.000000; 1.000000; 1.000000; 1.000000;,
       2; 1.000000; 1.000000; 1.000000; 1.000000;,
       3; 1.000000; 1.000000; 1.000000; 1.000000;,
       4; 1.000000; 1.000000; 1.000000; 1.000000;,
       5; 1.000000; 1.000000; 1.000000; 1.000000;,
       6; 1.000000; 1.000000; 1.000000; 1.000000;,
       7; 1.000000; 1.000000; 1.000000; 1.000000;,
       8; 1.000000; 1.000000; 1.000000; 1.000000;,
       9; 1.000000; 1.000000; 1.000000; 1.000000;,
       10; 1.000000; 1.000000; 1.000000; 1.000000;,
       11; 1.000000; 1.000000; 1.000000; 1.000000;,
       12; 1.000000; 1.000000; 1.000000; 1.000000;,
       13; 1.000000; 1.000000; 1.000000; 1.000000;,
       14; 1.000000; 1.000000; 1.000000; 1.000000;,
       15; 1.000000; 1.000000; 1.000000; 1.000000;,
       16; 1.000000; 1.000000; 1.000000; 1.000000;,
       17; 1.000000; 1.000000; 1.000000; 1.000000;,
       18; 1.000000; 1.000000; 1.000000; 1.000000;,
       19; 1.000000; 1.000000; 1.000000; 1.000000;,
       20; 1.000000; 1.000000; 1.000000; 1.000000;,
       21; 1.000000; 1.000000; 1.000000; 1.000000;,
       22; 1.000000; 1.000000; 1.000000; 1.000000;,
       23; 1.000000; 1.000000; 1.000000; 1.000000;,
       24; 1.000000; 1.000000; 1.000000; 1.000000;,
       25; 1.000000; 1.000000; 1.000000; 1.000000;,
       26; 1.000000; 1.000000; 1.000000; 1.000000;,
       27; 1.000000; 1.000000; 1.000000; 1.000000;,
       28; 1.000000; 1.000000; 1.000000; 1.000000;,
       29; 1.000000; 1.000000; 1.000000; 1.000000;,
       30; 1.000000; 1.000000; 1.000000; 1.000000;,
       31; 1.000000; 1.000000; 1.000000; 1.000000;,
       32; 1.000000; 1.000000; 1.000000; 1.000000;,
       33; 1.000000; 1.000000; 1.000000; 1.000000;,
       34; 1.000000; 1.000000; 1.000000; 1.000000;,
       35; 1.000000; 1.000000; 1.000000; 1.000000;,
       36; 1.000000; 1.000000; 1.000000; 1.000000;,
       37; 1.000000; 1.000000; 1.000000; 1.000000;,
       38; 1.000000; 1.000000; 1.000000; 1.000000;,
       39; 1.000000; 1.000000; 1.000000; 1.000000;,
       40; 1.000000; 1.000000; 1.000000; 1.000000;,
       41; 1.000000; 1.000000; 1.000000; 1.000000;,
       42; 1.000000; 1.000000; 1.000000; 1.000000;,
       43; 1.000000; 1.000000; 1.000000; 1.000000;,
       44; 1.000000; 1.000000; 1.000000; 1.000000;,
       45; 1.000000; 1.000000; 1.000000; 1.000000;,
       46; 1.000000; 1.000000; 1.000000; 1.000000;,
       47; 1.000000; 1.000000; 1.000000; 1.000000;,
       48; 1.000000; 1.000000; 1.000000; 1.000000;,
       49; 1.000000; 1.000000; 1.000000; 1.000000;,
       50; 1.000000; 1.000000; 1.000000; 1.000000;,
       51; 1.000000; 1.000000; 1.000000; 1.000000;,
       52; 1.000000; 1.000000; 1.000000; 1.000000;,
       53; 1.000000; 1.000000; 1.000000; 1.000000;,
       54; 1.000000; 1.000000; 1.000000; 1.000000;,
       55; 1.000000; 1.000000; 1.000000; 1.000000;,
       56; 1.000000; 1.000000; 1.000000; 1.000000;,
       57; 1.000000; 1.000000; 1.000000; 1.000000;,
       58; 1.000000; 1.000000; 1.000000; 1.000000;,
       59; 1.000000; 1.000000; 1.000000; 1.000000;,
       60; 1.000000; 1.000000; 1.000000; 1.000000;,
       61; 1.000000; 1.000000; 1.000000; 1.000000;,
       62; 1.000000; 1.000000; 1.000000; 1.000000;,
       63; 1.000000; 1.000000; 1.000000; 1.000000;,
       64; 1.000000; 1.000000; 1.000000; 1.000000;,
       65; 1.000000; 1.000000; 1.000000; 1.000000;,
       66; 1.000000; 1.000000; 1.000000; 1.000000;,
       67; 1.000000; 1.000000; 1.000000; 1.000000;,
       68; 1.000000; 1.000000; 1.000000; 1.000000;,
       69; 1.000000; 1.000000; 1.000000; 1.000000;,
       70; 1.000000; 1.000000; 1.000000; 1.000000;,
       71; 1.000000; 1.000000; 1.000000; 1.000000;,
       72; 1.000000; 1.000000; 1.000000; 1.000000;,
       73; 1.000000; 1.000000; 1.000000; 1.000000;,
       74; 1.000000; 1.000000; 1.000000; 1.000000;,
       75; 1.000000; 1.000000; 1.000000; 1.000000;,
       76; 1.000000; 1.000000; 1.000000; 1.000000;,
       77; 1.000000; 1.000000; 1.000000; 1.000000;,
       78; 1.000000; 1.000000; 1.000000; 1.000000;,
       79; 1.000000; 1.000000; 1.000000; 1.000000;,
       80; 1.000000; 1.000000; 1.000000; 1.000000;,
       81; 1.000000; 1.000000; 1.000000; 1.000000;,
       82; 1.000000; 1.000000; 1.000000; 1.000000;,
       83; 1.000000; 1.000000; 1.000000; 1.000000;,
       84; 1.000000; 1.000000; 1.000000; 1.000000;,
       85; 1.000000; 1.000000; 1.000000; 1.000000;,
       86; 1.000000; 1.000000; 1.000000; 1.000000;,
       87; 1.000000; 1.000000; 1.000000; 1.000000;,
       88; 1.000000; 1.000000; 1.000000; 1.000000;,
       89; 1.000000; 1.000000; 1.000000; 1.000000;,
       90; 1.000000; 1.000000; 1.000000; 1.000000;,
       91; 1.000000; 1.000000; 1.000000; 1.000000;,
       92; 1.000000; 1.000000; 1.000000; 1.000000;,
       93; 1.000000; 1.000000; 1.000000; 1.000000;,
       94; 1.000000; 1.000000; 1.000000; 1.000000;,
       95; 1.000000; 1.000000; 1.000000; 1.000000;,
       96; 1.000000; 1.000000; 1.000000; 1.000000;,
       97; 1.000000; 1.000000; 1.000000; 1.000000;,
       98; 1.000000; 1.000000; 1.000000; 1.000000;,
       99; 1.000000; 1.000000; 1.000000; 1.000000;,
       100; 1.000000; 1.000000; 1.000000; 1.000000;,
       101; 1.000000; 1.000000; 1.000000; 1.000000;,
       102; 1.000000; 1.000000; 1.000000; 1.000000;,
       103; 1.000000; 1.000000; 1.000000; 1.000000;,
       104; 1.000000; 1.000000; 1.000000; 1.000000;,
       105; 1.000000; 1.000000; 1.000000; 1.000000;,
       106; 1.000000; 1.000000; 1.000000; 1.000000;,
       107; 1.000000; 1.000000; 1.000000; 1.000000;,
       108; 1.000000; 1.000000; 1.000000; 1.000000;,
       109; 1.000000; 1.000000; 1.000000; 1.000000;,
       110; 1.000000; 1.000000; 1.000000; 1.000000;,
       111; 1.000000; 1.000000; 1.000000; 1.000000;,
       112; 1.000000; 1.000000; 1.000000; 1.000000;,
       113; 1.000000; 1.000000; 1.000000; 1.000000;,
       114; 1.000000; 1.000000; 1.000000; 1.000000;,
       115; 1.000000; 1.000000; 1.000000; 1.000000;,
       116; 1.000000; 1.000000; 1.000000; 1.000000;,
       117; 1.000000; 1.000000; 1.000000; 1.000000;,
       118; 1.000000; 1.000000; 1.000000; 1.000000;,
       119; 1.000000; 1.000000; 1.000000; 1.000000;,
       120; 1.000000; 1.000000; 1.000000; 1.000000;,
       121; 1.000000; 1.000000; 1.000000; 1.000000;,
       122; 1.000000; 1.000000; 1.000000; 1.000000;,
       123; 1.000000; 1.000000; 1.000000; 1.000000;,
       124; 1.000000; 1.000000; 1.000000; 1.000000;,
       125; 1.000000; 1.000000; 1.000000; 1.000000;,
       126; 1.000000; 1.000000; 1.000000; 1.000000;,
       127; 1.000000; 1.000000; 1.000000; 1.000000;,
       128; 1.000000; 1.000000; 1.000000; 1.000000;,
       129; 1.000000; 1.000000; 1.000000; 1.000000;,
       130; 1.000000; 1.000000; 1.000000; 1.000000;,
       131; 1.000000; 1.000000; 1.000000; 1.000000;,
       132; 1.000000; 1.000000; 1.000000; 1.000000;,
       133; 1.000000; 1.000000; 1.000000; 1.000000;,
       134; 1.000000; 1.000000; 1.000000; 1.000000;,
       135; 1.000000; 1.000000; 1.000000; 1.000000;,
       136; 1.000000; 1.000000; 1.000000; 1.000000;,
       137; 1.000000; 1.000000; 1.000000; 1.000000;,
       138; 1.000000; 1.000000; 1.000000; 1.000000;,
       139; 1.000000; 1.000000; 1.000000; 1.000000;,
       140; 1.000000; 1.000000; 1.000000; 1.000000;,
       141; 1.000000; 1.000000; 1.000000; 1.000000;,
       142; 1.000000; 1.000000; 1.000000; 1.000000;,
       143; 1.000000; 1.000000; 1.000000; 1.000000;;
      }

      MeshMaterialList {
       1;
       248;
       0,
       0,
       0,
       0,
       0,
       0,
       0,
       0,
       0,
       0,
       0,
       0,
       0,
       0,
       0,
       0,
       0,
       0,
       0,
       0,
       0,
       0,
       0,
       0,
       0,
       0,
       0,
       0,
       0,
       0,
       0,
       0,
       0,
       0,
       0,
       0,
       0,
       0,
       0,
       0,
       0,
       0,
       0,
       0,
       0,
       0,
       0,
       0,
       0,
       0,
       0,
       0,
       0,
       0,
       0,
       0,
       0,
       0,
       0,
       0,
       0,
       0,
       0,
       0,
       0,
       0,
       0,
       0,
       0,
       0,
       0,
       0,
       0,
       0,
       0,
       0,
       0,
       0,
       0,
       0,
       0,
       0,
       0,
       0,
       0,
       0,
       0,
       0,
       0,
       0,
       0,
       0,
       0,
       0,
       0,
       0,
       0,
       0,
       0,
       0,
       0,
       0,
       0,
       0,
       0,
       0,
       0,
       0,
       0,
       0,
       0,
       0,
       0,
       0,
       0,
       0,
       0,
       0,
       0,
       0,
       0,
       0,
       0,
       0,
       0,
       0,
       0,
       0,
       0,
       0,
       0,
       0,
       0,
       0,
       0,
       0,
       0,
       0,
       0,
       0,
       0,
       0,
       0,
       0,
       0,
       0,
       0,
       0,
       0,
       0,
       0,
       0,
       0,
       0,
       0,
       0,
       0,
       0,
       0,
       0,
       0,
       0,
       0,
       0,
       0,
       0,
       0,
       0,
       0,
       0,
       0,
       0,
       0,
       0,
       0,
       0,
       0,
       0,
       0,
       0,
       0,
       0,
       0,
       0,
       0,
       0,
       0,
       0,
       0,
       0,
       0,
       0,
       0,
       0,
       0,
       0,
       0,
       0,
       0,
       0,
       0,
       0,
       0,
       0,
       0,
       0,
       0,
       0,
       0,
       0,
       0,
       0,
       0,
       0,
       0,
       0,
       0,
       0,
       0,
       0,
       0,
       0,
       0,
       0,
       0,
       0,
       0,
       0,
       0,
       0,
       0,
       0,
       0,
       0,
       0,
       0,
       0,
       0,
       0,
       0,
       0,
       0,
       0,
       0,
       0,
       0,
       0,
       0;

       Material def_surf_mat {
        0.992157; 0.992157; 0.992157; 1.000000;;
        1.000000;
        0.150000; 0.150000; 0.150000;;
        0.000000; 0.000000; 0.000000;;

        TextureFilename {
         "turnip.dds";
        }
       }

      }

      XSkinMeshHeader {
       1;
       1;
       1;
      }

      SkinWeights {
       "Body";
       144;
       0,
       1,
       2,
       3,
       4,
       5,
       6,
       7,
       8,
       9,
       10,
       11,
       12,
       13,
       14,
       15,
       16,
       17,
       18,
       19,
       20,
       21,
       22,
       23,
       24,
       25,
       26,
       27,
       28,
       29,
       30,
       31,
       32,
       33,
       34,
       35,
       36,
       37,
       38,
       39,
       40,
       41,
       42,
       43,
       44,
       45,
       46,
       47,
       48,
       49,
       50,
       51,
       52,
       53,
       54,
       55,
       56,
       57,
       58,
       59,
       60,
       61,
       62,
       63,
       64,
       65,
       66,
       67,
       68,
       69,
       70,
       71,
       72,
       73,
       74,
       75,
       76,
       77,
       78,
       79,
       80,
       81,
       82,
       83,
       84,
       85,
       86,
       87,
       88,
       89,
       90,
       91,
       92,
       93,
       94,
       95,
       96,
       97,
       98,
       99,
       100,
       101,
       102,
       103,
       104,
       105,
       106,
       107,
       108,
       109,
       110,
       111,
       112,
       113,
       114,
       115,
       116,
       117,
       118,
       119,
       120,
       121,
       122,
       123,
       124,
       125,
       126,
       127,
       128,
       129,
       130,
       131,
       132,
       133,
       134,
       135,
       136,
       137,
       138,
       139,
       140,
       141,
       142,
       143;
       1.000000,
       1.000000,
       1.000000,
       1.000000,
       1.000000,
       1.000000,
       1.000000,
       1.000000,
       1.000000,
       1.000000,
       1.000000,
       1.000000,
       1.000000,
       1.000000,
       1.000000,
       1.000000,
       1.000000,
       1.000000,
       1.000000,
       1.000000,
       1.000000,
       1.000000,
       1.000000,
       1.000000,
       1.000000,
       1.000000,
       1.000000,
       1.000000,
       1.000000,
       1.000000,
       1.000000,
       1.000000,
       1.000000,
       1.000000,
       1.000000,
       1.000000,
       1.000000,
       1.000000,
       1.000000,
       1.000000,
       1.000000,
       1.000000,
       1.000000,
       1.000000,
       1.000000,
       1.000000,
       1.000000,
       1.000000,
       1.000000,
       1.000000,
       1.000000,
       1.000000,
       1.000000,
       1.000000,
       1.000000,
       1.000000,
       1.000000,
       1.000000,
       1.000000,
       1.000000,
       1.000000,
       1.000000,
       1.000000,
       1.000000,
       1.000000,
       1.000000,
       1.000000,
       1.000000,
       1.000000,
       1.000000,
       1.000000,
       1.000000,
       1.000000,
       1.000000,
       1.000000,
       1.000000,
       1.000000,
       1.000000,
       1.000000,
       1.000000,
       1.000000,
       1.000000,
       1.000000,
       1.000000,
       1.000000,
       1.000000,
       1.000000,
       1.000000,
       1.000000,
       1.000000,
       1.000000,
       1.000000,
       1.000000,
       1.000000,
       1.000000,
       1.000000,
       1.000000,
       1.000000,
       1.000000,
       1.000000,
       1.000000,
       1.000000,
       1.000000,
       1.000000,
       1.000000,
       1.000000,
       1.000000,
       1.000000,
       1.000000,
       1.000000,
       1.000000,
       1.000000,
       1.000000,
       1.000000,
       1.000000,
       1.000000,
       1.000000,
       1.000000,
       1.000000,
       1.000000,
       1.000000,
       1.000000,
       1.000000,
       1.000000,
       1.000000,
       1.000000,
       1.000000,
       1.000000,
       1.000000,
       1.000000,
       1.000000,
       1.000000,
       1.000000,
       1.000000,
       1.000000,
       1.000000,
       1.000000,
       1.000000,
       1.000000,
       1.000000,
       1.000000,
       1.000000,
       1.000000,
       1.000000;
          1.000000, -0.000000, 0.000000, 0.000000,
          -0.000000, 1.000000, -0.000000, 0.000000,
          0.000000, -0.000000, 1.000000, 0.000000,
          -0.000000, -0.000000, -0.000000, 1.000000;;
      }


     }
   }

// Start of Animation

AnimationSet Untitled {
}
