# Wavefront MTL file
# Creator: Ultimate Unwrap3D Pro v3.09
# Time: Sun Oct 12 22:26:23 2008
# num_materials: 2

newmtl dungeon4
Ka 0.200000 0.200000 0.200000
Kd 1.000000 1.000000 1.000000
Ks 1.000000 1.000000 1.000000
d 1.000000
illum 2
Ns 1.000000
map_Kd dungeon4.jpg

newmtl dungeon3
Ka 0.000000 0.000000 0.000000
Kd 0.820000 0.830000 0.870000
Ks 0.820000 0.830000 0.870000
d 1.000000
illum 2
Ns 0.000000
map_Kd dungeon3.jpg

# num_materials: 2
