# Wavefront OBJ file
# Creator: Ultimate Unwrap3D Pro v3.09
# Time: Sun Oct 12 23:06:30 2008
# num_vertices: 8
# num_vertex_normals: 8
# num_uvs: 24
# num_faces: 6
# num_groups: 1

mtllib dungeon_close_section.mtl

v -134.125488 0.000000 -12.452454
v -134.125488 0.000000 12.452515
v -134.125488 216.525604 -12.452454
v -134.125488 216.525604 12.452515
v 134.125549 0.000000 -12.452454
v 134.125549 0.000000 12.452515
v 134.125549 216.525604 -12.452454
v 134.125549 216.525604 12.452515
# num_vertices: 8

vn -0.577350 -0.577350 -0.577350
vn -0.577350 -0.577350 0.577350
vn -0.577350 0.577350 -0.577350
vn -0.577350 0.577350 0.577350
vn 0.577350 -0.577350 -0.577350
vn 0.577350 -0.577350 0.577350
vn 0.577350 0.577350 -0.577350
vn 0.577350 0.577350 0.577350
# num_vertex_normals: 8

vt 0.447953 0.557244
vt 0.447953 0.533121
vt 0.887665 0.533121
vt 0.887665 0.557244
vt 0.929063 0.769475
vt 0.888239 0.769475
vt 0.888239 0.559747
vt 0.929063 0.559747
vt 0.911408 0.528342
vt 0.911408 0.552465
vt 0.471695 0.552465
vt 0.471695 0.528342
vt 0.888239 0.557583
vt 0.929063 0.557583
vt 0.929063 0.767312
vt 0.888239 0.767312
vt 0.887665 0.559747
vt 0.887665 0.769475
vt 0.447953 0.769475
vt 0.447953 0.559747
vt 0.887665 0.557583
vt 0.887665 0.767312
vt 0.447953 0.767312
vt 0.447953 0.557583
# num_uvs: 24

g dungeonpiece_close_section
s 1

usemtl dungeon3
f 3/1/3 4/2/4 8/3/8 7/4/7 
f 7/5/7 8/6/8 6/7/6 5/8/5 
f 5/9/5 6/10/6 2/11/2 1/12/1 
f 1/13/1 2/14/2 4/15/4 3/16/3 
f 1/17/1 3/18/3 7/19/7 5/20/5 
f 6/21/6 8/22/8 4/23/4 2/24/2 
# num_faces: 6

