xof 0303txt 0032

// DirectX 9.0 file
// Creator: Ultimate Unwrap3D Pro v3.32
// Website: http://www.unwrap3d.com
// Time: Wed Sep 07 20:03:20 2011

// Start of Templates

template VertexDuplicationIndices {
 <b8d65549-d7c9-4995-89cf-53a9a8b031e3>
 DWORD nIndices;
 DWORD nOriginalVertices;
 array DWORD indices[nIndices];
}

template FVFData {
 <b6e70a0e-8ef9-4e83-94ad-ecc8b0c04897>
 DWORD dwFVF;
 DWORD nDWords;
 array DWORD data[nDWords];
}

template Header {
 <3D82AB43-62DA-11cf-AB39-0020AF71E433>
 WORD major;
 WORD minor;
 DWORD flags;
}

template Vector {
 <3D82AB5E-62DA-11cf-AB39-0020AF71E433>
 FLOAT x;
 FLOAT y;
 FLOAT z;
}

template Coords2d {
 <F6F23F44-7686-11cf-8F52-0040333594A3>
 FLOAT u;
 FLOAT v;
}

template Matrix4x4 {
 <F6F23F45-7686-11cf-8F52-0040333594A3>
 array FLOAT matrix[16];
}

template ColorRGBA {
 <35FF44E0-6C7C-11cf-8F52-0040333594A3>
 FLOAT red;
 FLOAT green;
 FLOAT blue;
 FLOAT alpha;
}

template ColorRGB {
 <D3E16E81-7835-11cf-8F52-0040333594A3>
 FLOAT red;
 FLOAT green;
 FLOAT blue;
}

template IndexedColor {
 <1630B820-7842-11cf-8F52-0040333594A3>
 DWORD index;
 ColorRGBA indexColor;
}

template Material {
 <3D82AB4D-62DA-11cf-AB39-0020AF71E433>
 ColorRGBA faceColor;
 FLOAT power;
 ColorRGB specularColor;
 ColorRGB emissiveColor;
 [...]
}

template TextureFilename {
 <A42790E1-7810-11cf-8F52-0040333594A3>
 STRING filename;
}

template MeshFace {
 <3D82AB5F-62DA-11cf-AB39-0020AF71E433>
 DWORD nFaceVertexIndices;
 array DWORD faceVertexIndices[nFaceVertexIndices];
}

template MeshTextureCoords {
 <F6F23F40-7686-11cf-8F52-0040333594A3>
 DWORD nTextureCoords;
 array Coords2d textureCoords[nTextureCoords];
}

template MeshMaterialList {
 <F6F23F42-7686-11cf-8F52-0040333594A3>
 DWORD nMaterials;
 DWORD nFaceIndexes;
 array DWORD faceIndexes[nFaceIndexes];
 [Material]
}

template MeshNormals {
 <F6F23F43-7686-11cf-8F52-0040333594A3>
 DWORD nNormals;
 array Vector normals[nNormals];
 DWORD nFaceNormals;
 array MeshFace faceNormals[nFaceNormals];
}

template MeshVertexColors {
 <1630B821-7842-11cf-8F52-0040333594A3>
 DWORD nVertexColors;
 array IndexedColor vertexColors[nVertexColors];
}

template Mesh {
 <3D82AB44-62DA-11cf-AB39-0020AF71E433>
 DWORD nVertices;
 array Vector vertices[nVertices];
 DWORD nFaces;
 array MeshFace faces[nFaces];
 [...]
}

template FrameTransformMatrix {
 <F6F23F41-7686-11cf-8F52-0040333594A3>
 Matrix4x4 frameMatrix;
}

template Frame {
 <3D82AB46-62DA-11cf-AB39-0020AF71E433>
 [...]
}

template FloatKeys {
 <10DD46A9-775B-11cf-8F52-0040333594A3>
 DWORD nValues;
 array FLOAT values[nValues];
}

template TimedFloatKeys {
 <F406B180-7B3B-11cf-8F52-0040333594A3>
 DWORD time;
 FloatKeys tfkeys;
}

template AnimationKey {
 <10DD46A8-775B-11cf-8F52-0040333594A3>
 DWORD keyType;
 DWORD nKeys;
 array TimedFloatKeys keys[nKeys];
}

template AnimationOptions {
 <E2BF56C0-840F-11cf-8F52-0040333594A3>
 DWORD openclosed;
 DWORD positionquality;
}

template Animation {
 <3D82AB4F-62DA-11cf-AB39-0020AF71E433>
 [...]
}

template AnimationSet {
 <3D82AB50-62DA-11cf-AB39-0020AF71E433>
 [Animation]
}

template XSkinMeshHeader {
 <3CF169CE-FF7C-44ab-93C0-F78F62D172E2>
 WORD nMaxSkinWeightsPerVertex;
 WORD nMaxSkinWeightsPerFace;
 WORD nBones;
}

template SkinWeights {
 <6F0D123B-BAD2-4167-A0D0-80224F25FABB>
 STRING transformNodeName;
 DWORD nWeights;
 array DWORD vertexIndices[nWeights];
 array FLOAT weights[nWeights];
 Matrix4x4 matrixOffset;
}

template AnimTicksPerSecond {
 <9E415A43-7BA6-4a73-8743-B73D47E88476>
 DWORD AnimTicksPerSecond;
}

AnimTicksPerSecond {
 4800;
}

// Start of Frames

Frame Body {
   FrameTransformMatrix {
    1.000000, 0.000000, 0.000000, 0.000000,
    0.000000, 1.000000, 0.000000, 0.000000,
    0.000000, 0.000000, 1.000000, 0.000000,
    0.000000, 0.000000, 0.000000, 1.000000;;
   }

   Mesh staticMesh {
    152;
    -47.680054; 0.029999; 146.750000;,
    58.280029; 0.040009; 146.750000;,
    -58.280029; 255.079987; 146.760010;,
    58.280029; 255.110016; 146.750000;,
    -58.280029; 255.079987; -146.760010;,
    58.280029; 255.110016; -146.760010;,
    -47.680054; 0.029999; -146.760010;,
    58.280029; 0.040009; -146.760010;,
    -58.280029; 275.500031; -143.429932;,
    58.280029; 275.519989; -143.429932;,
    -58.280029; 306.019989; -135.099854;,
    58.280029; 306.040009; -135.099854;,
    -58.280029; 328.310028; -121.659912;,
    58.280029; 328.339996; -121.659912;,
    -58.280029; 356.839996; -99.709961;,
    58.280029; 356.870026; -99.709961;,
    -58.280029; 380.740021; -73.050049;,
    58.280029; 380.760040; -73.050049;,
    -58.280029; 401.540009; -43.050049;,
    58.280029; 401.570038; -43.050049;,
    -58.280029; 423.000031; -0.010010;,
    58.280029; 423.019989; -0.010010;,
    -58.280029; 401.540009; 43.040039;,
    58.280029; 401.570038; 43.040039;,
    -58.280029; 423.000031; -0.010010;,
    58.280029; 423.019989; -0.010010;,
    -58.280029; 380.740021; 73.040039;,
    58.280029; 380.760040; 73.040039;,
    -58.280029; 356.839996; 99.709961;,
    58.280029; 356.870026; 99.709961;,
    -58.280029; 328.310028; 121.660156;,
    58.280029; 328.339996; 121.660156;,
    -58.280029; 306.019989; 135.090088;,
    58.280029; 306.040009; 135.090088;,
    -58.280029; 275.500031; 143.420166;,
    58.280029; 275.519989; 143.420166;,
    57.670044; 0.010010; 116.989990;,
    -47.180054; 0.000000; 116.989990;,
    57.680054; 252.370026; 116.989990;,
    -57.670044; 252.339996; 116.989990;,
    57.680054; 252.370026; -117.000000;,
    -57.670044; 252.339996; -117.000000;,
    57.670044; 0.010010; -117.000000;,
    -47.180054; 0.000000; -117.000000;,
    57.690063; 268.850006; -114.310059;,
    -57.650024; 268.829987; -114.310059;,
    57.709961; 293.850006; -107.489990;,
    -57.650024; 293.930023; -107.739990;,
    57.729980; 311.209991; -97.079834;,
    -57.640015; 311.149994; -97.040039;,
    57.729980; 336.070038; -77.889893;,
    -57.619995; 336.130035; -77.979980;,
    57.729980; 356.839996; -54.790039;,
    -57.619995; 356.820038; -54.790039;,
    57.729980; 375.290009; -28.229980;,
    -57.619995; 375.260040; -28.229980;,
    57.739990; 392.589996; -0.010010;,
    -57.599976; 392.570038; -0.010010;,
    57.729980; 375.290009; 28.219971;,
    -57.619995; 375.260040; 28.219971;,
    57.739990; 392.589996; -0.010010;,
    -57.599976; 392.570038; -0.010010;,
    57.729980; 356.839996; 54.780029;,
    -57.619995; 356.820038; 54.780029;,
    57.729980; 336.160004; 77.969971;,
    -57.619995; 336.040009; 77.880127;,
    57.729980; 311.180023; 97.040039;,
    -57.640015; 311.180023; 97.070068;,
    57.709961; 293.950043; 107.729980;,
    -57.650024; 293.829987; 107.479980;,
    57.690063; 268.850006; 114.300049;,
    -57.650024; 268.829987; 114.300049;,
    58.280029; 0.040009; 146.750000;,
    57.670044; 0.010010; 116.989990;,
    58.280029; 255.110016; 146.750000;,
    57.680054; 252.370026; 116.989990;,
    58.280029; 275.519989; 143.420166;,
    57.690063; 268.850006; 114.300049;,
    -58.280029; 255.079987; 146.760010;,
    -57.670044; 252.339996; 116.989990;,
    -47.680054; 0.029999; 146.750000;,
    -47.180054; 0.000000; 116.989990;,
    -58.280029; 275.500031; 143.420166;,
    -57.650024; 268.829987; 114.300049;,
    58.280029; 255.110016; -146.760010;,
    57.680054; 252.370026; -117.000000;,
    58.280029; 0.040009; -146.760010;,
    57.670044; 0.010010; -117.000000;,
    58.280029; 275.519989; -143.429932;,
    57.690063; 268.850006; -114.310059;,
    -47.680054; 0.029999; -146.760010;,
    -47.180054; 0.000000; -117.000000;,
    -58.280029; 255.079987; -146.760010;,
    -57.670044; 252.339996; -117.000000;,
    -58.280029; 275.500031; -143.429932;,
    -57.650024; 268.829987; -114.310059;,
    58.280029; 306.040009; -135.099854;,
    57.709961; 293.850006; -107.489990;,
    -58.280029; 306.019989; -135.099854;,
    -57.650024; 293.930023; -107.739990;,
    58.280029; 328.339996; -121.659912;,
    57.729980; 311.209991; -97.079834;,
    -58.280029; 328.310028; -121.659912;,
    -57.640015; 311.149994; -97.040039;,
    58.280029; 356.870026; -99.709961;,
    57.729980; 336.070038; -77.889893;,
    -58.280029; 356.839996; -99.709961;,
    -57.619995; 336.130035; -77.979980;,
    58.280029; 380.760040; -73.050049;,
    57.729980; 356.839996; -54.790039;,
    -58.280029; 380.740021; -73.050049;,
    -57.619995; 356.820038; -54.790039;,
    58.280029; 401.570038; -43.050049;,
    57.729980; 375.290009; -28.229980;,
    -58.280029; 401.540009; -43.050049;,
    -57.619995; 375.260040; -28.229980;,
    58.280029; 423.019989; -0.010010;,
    57.739990; 392.589996; -0.010010;,
    -58.280029; 423.000031; -0.010010;,
    -57.599976; 392.570038; -0.010010;,
    58.280029; 401.570038; 43.040039;,
    57.729980; 375.290009; 28.219971;,
    58.280029; 423.019989; -0.010010;,
    57.739990; 392.589996; -0.010010;,
    -58.280029; 423.000031; -0.010010;,
    -57.599976; 392.570038; -0.010010;,
    -58.280029; 401.540009; 43.040039;,
    -57.619995; 375.260040; 28.219971;,
    58.280029; 380.760040; 73.040039;,
    57.729980; 356.839996; 54.780029;,
    -58.280029; 380.740021; 73.040039;,
    -57.619995; 356.820038; 54.780029;,
    58.280029; 356.870026; 99.709961;,
    57.729980; 336.160004; 77.969971;,
    -58.280029; 356.839996; 99.709961;,
    -57.619995; 336.040009; 77.880127;,
    58.280029; 328.339996; 121.660156;,
    57.729980; 311.180023; 97.040039;,
    -58.280029; 328.310028; 121.660156;,
    -57.640015; 311.180023; 97.070068;,
    58.280029; 306.040009; 135.090088;,
    57.709961; 293.950043; 107.729980;,
    -58.280029; 306.019989; 135.090088;,
    -57.650024; 293.829987; 107.479980;,
    -47.180054; 0.000000; 116.989990;,
    -47.680054; 0.029999; 146.750000;,
    57.670044; 0.010010; 116.989990;,
    58.280029; 0.040009; 146.750000;,
    57.670044; 0.010010; -117.000000;,
    58.280029; 0.040009; -146.760010;,
    -47.180054; 0.000000; -117.000000;,
    -47.680054; 0.029999; -146.760010;;
    132;
    3;0, 1, 2;,
    3;1, 3, 2;,
    3;4, 5, 6;,
    3;5, 7, 6;,
    3;8, 9, 4;,
    3;9, 5, 4;,
    3;10, 11, 8;,
    3;11, 9, 8;,
    3;12, 13, 10;,
    3;13, 11, 10;,
    3;14, 15, 12;,
    3;15, 13, 12;,
    3;16, 17, 14;,
    3;17, 15, 14;,
    3;18, 19, 16;,
    3;19, 17, 16;,
    3;20, 21, 18;,
    3;21, 19, 18;,
    3;22, 23, 24;,
    3;23, 25, 24;,
    3;26, 27, 22;,
    3;27, 23, 22;,
    3;28, 29, 26;,
    3;29, 27, 26;,
    3;30, 31, 28;,
    3;31, 29, 28;,
    3;32, 33, 30;,
    3;33, 31, 30;,
    3;34, 35, 32;,
    3;35, 33, 32;,
    3;2, 3, 34;,
    3;3, 35, 34;,
    3;36, 37, 38;,
    3;37, 39, 38;,
    3;40, 41, 42;,
    3;41, 43, 42;,
    3;44, 45, 40;,
    3;45, 41, 40;,
    3;46, 47, 44;,
    3;47, 45, 44;,
    3;48, 49, 46;,
    3;49, 47, 46;,
    3;50, 51, 48;,
    3;51, 49, 48;,
    3;52, 53, 50;,
    3;53, 51, 50;,
    3;54, 55, 52;,
    3;55, 53, 52;,
    3;56, 57, 54;,
    3;57, 55, 54;,
    3;58, 59, 60;,
    3;59, 61, 60;,
    3;62, 63, 58;,
    3;63, 59, 58;,
    3;64, 65, 62;,
    3;65, 63, 62;,
    3;66, 67, 64;,
    3;67, 65, 64;,
    3;68, 69, 66;,
    3;69, 67, 66;,
    3;70, 71, 68;,
    3;71, 69, 68;,
    3;38, 39, 70;,
    3;39, 71, 70;,
    3;72, 73, 74;,
    3;73, 75, 74;,
    3;74, 75, 76;,
    3;75, 77, 76;,
    3;78, 79, 80;,
    3;79, 81, 80;,
    3;82, 83, 78;,
    3;83, 79, 78;,
    3;84, 85, 86;,
    3;85, 87, 86;,
    3;88, 89, 84;,
    3;89, 85, 84;,
    3;90, 91, 92;,
    3;91, 93, 92;,
    3;92, 93, 94;,
    3;93, 95, 94;,
    3;96, 97, 88;,
    3;97, 89, 88;,
    3;94, 95, 98;,
    3;95, 99, 98;,
    3;100, 101, 96;,
    3;101, 97, 96;,
    3;98, 99, 102;,
    3;99, 103, 102;,
    3;104, 105, 100;,
    3;105, 101, 100;,
    3;102, 103, 106;,
    3;103, 107, 106;,
    3;108, 109, 104;,
    3;109, 105, 104;,
    3;106, 107, 110;,
    3;107, 111, 110;,
    3;112, 113, 108;,
    3;113, 109, 108;,
    3;110, 111, 114;,
    3;111, 115, 114;,
    3;116, 117, 112;,
    3;117, 113, 112;,
    3;114, 115, 118;,
    3;115, 119, 118;,
    3;120, 121, 122;,
    3;121, 123, 122;,
    3;124, 125, 126;,
    3;125, 127, 126;,
    3;128, 129, 120;,
    3;129, 121, 120;,
    3;126, 127, 130;,
    3;127, 131, 130;,
    3;132, 133, 128;,
    3;133, 129, 128;,
    3;130, 131, 134;,
    3;131, 135, 134;,
    3;136, 137, 132;,
    3;137, 133, 132;,
    3;134, 135, 138;,
    3;135, 139, 138;,
    3;140, 141, 136;,
    3;141, 137, 136;,
    3;138, 139, 142;,
    3;139, 143, 142;,
    3;76, 77, 140;,
    3;77, 141, 140;,
    3;142, 143, 82;,
    3;143, 83, 82;,
    3;144, 145, 146;,
    3;145, 147, 146;,
    3;148, 149, 150;,
    3;149, 151, 150;;

   MeshNormals {
    152;
    0.000000; 0.000000; 1.000000;,
    0.000000; 0.000000; 1.000000;,
    0.000022; 0.080773; 0.996733;,
    0.000022; 0.080773; 0.996733;,
    -0.000014; 0.080779; -0.996732;,
    -0.000014; 0.080779; -0.996732;,
    0.000000; 0.000000; -1.000000;,
    0.000000; 0.000000; -1.000000;,
    -0.000036; 0.212460; -0.977170;,
    -0.000036; 0.212460; -0.977170;,
    -0.000090; 0.393487; -0.919330;,
    -0.000090; 0.393487; -0.919330;,
    -0.000145; 0.563888; -0.825851;,
    -0.000145; 0.563888; -0.825851;,
    -0.000143; 0.680144; -0.733079;,
    -0.000143; 0.680144; -0.733079;,
    -0.000170; 0.784715; -0.619857;,
    -0.000170; 0.784715; -0.619857;,
    -0.000183; 0.860573; -0.509328;,
    -0.000183; 0.860573; -0.509328;,
    -0.000153; 0.895009; -0.446048;,
    -0.000153; 0.895009; -0.446048;,
    -0.000186; 0.860596; 0.509288;,
    -0.000186; 0.860596; 0.509288;,
    -0.000231; 0.895051; 0.445964;,
    -0.000231; 0.895051; 0.445964;,
    -0.000167; 0.784773; 0.619784;,
    -0.000167; 0.784773; 0.619784;,
    -0.000175; 0.680214; 0.733013;,
    -0.000175; 0.680214; 0.733013;,
    -0.000123; 0.563754; 0.825942;,
    -0.000123; 0.563754; 0.825942;,
    -0.000067; 0.393335; 0.919395;,
    -0.000067; 0.393335; 0.919395;,
    -0.000001; 0.212454; 0.977171;,
    -0.000001; 0.212454; 0.977171;,
    0.000000; 0.000000; -1.000000;,
    0.000000; 0.000000; -1.000000;,
    0.000021; -0.080763; -0.996733;,
    0.000021; -0.080763; -0.996733;,
    0.000014; -0.080763; 0.996733;,
    0.000014; -0.080763; 0.996733;,
    0.000000; 0.000000; 1.000000;,
    0.000000; 0.000000; 1.000000;,
    -0.001123; -0.207341; 0.978268;,
    -0.001123; -0.207341; 0.978268;,
    -0.000862; -0.394936; 0.918708;,
    -0.000862; -0.394936; 0.918708;,
    -0.000185; -0.567841; 0.823139;,
    -0.000185; -0.567841; 0.823139;,
    -0.000405; -0.679472; 0.733702;,
    -0.000405; -0.679472; 0.733702;,
    0.000172; -0.785260; 0.619166;,
    0.000172; -0.785260; 0.619166;,
    0.000181; -0.837261; 0.546804;,
    0.000181; -0.837261; 0.546804;,
    0.000148; -0.852414; 0.522867;,
    0.000148; -0.852414; 0.522867;,
    0.000182; -0.837304; -0.546738;,
    0.000182; -0.837304; -0.546738;,
    0.000221; -0.852497; -0.522732;,
    0.000221; -0.852497; -0.522732;,
    0.000720; -0.783993; -0.620770;,
    0.000720; -0.783993; -0.620770;,
    0.000546; -0.680029; -0.733185;,
    0.000546; -0.680029; -0.733185;,
    0.001096; -0.563734; -0.825956;,
    0.001096; -0.563734; -0.825956;,
    0.001231; -0.392519; -0.919743;,
    0.001231; -0.392519; -0.919743;,
    0.000044; -0.212382; -0.977187;,
    0.000044; -0.212382; -0.977187;,
    0.999790; -0.000040; -0.020492;,
    0.999790; -0.000040; -0.020492;,
    0.999795; -0.001940; -0.020148;,
    0.999795; -0.001940; -0.020148;,
    0.999801; -0.004795; -0.019371;,
    0.999801; -0.004795; -0.019371;,
    -0.999582; -0.021885; -0.018887;,
    -0.999582; -0.021885; -0.018887;,
    -0.998999; -0.041529; -0.016647;,
    -0.998999; -0.041529; -0.016647;,
    -0.999777; -0.003893; -0.020740;,
    -0.999777; -0.003893; -0.020740;,
    0.999803; -0.001906; 0.019772;,
    0.999803; -0.001906; 0.019772;,
    0.999797; -0.000040; 0.020153;,
    0.999797; -0.000040; 0.020153;,
    0.999813; -0.004754; 0.018751;,
    0.999813; -0.004754; 0.018751;,
    -0.998997; -0.041529; 0.016742;,
    -0.998997; -0.041529; 0.016742;,
    -0.999590; -0.021818; 0.018525;,
    -0.999590; -0.021818; 0.018525;,
    -0.999786; -0.003720; 0.020353;,
    -0.999786; -0.003720; 0.020353;,
    0.999829; -0.008006; 0.016662;,
    0.999829; -0.008006; 0.016662;,
    -0.999781; -0.008054; 0.019335;,
    -0.999781; -0.008054; 0.019335;,
    0.999832; -0.010742; 0.014866;,
    0.999832; -0.010742; 0.014866;,
    -0.999774; -0.011595; 0.017797;,
    -0.999774; -0.011595; 0.017797;,
    0.999833; -0.012421; 0.013389;,
    0.999833; -0.012421; 0.013389;,
    -0.999768; -0.014440; 0.016007;,
    -0.999768; -0.014440; 0.016007;,
    0.999833; -0.014335; 0.011352;,
    0.999833; -0.014335; 0.011352;,
    -0.999759; -0.017244; 0.013600;,
    -0.999759; -0.017244; 0.013600;,
    0.999811; -0.016390; 0.010484;,
    0.999811; -0.016390; 0.010484;,
    -0.999760; -0.018195; 0.012244;,
    -0.999760; -0.018195; 0.012244;,
    0.999787; -0.017743; 0.010523;,
    0.999787; -0.017743; 0.010523;,
    -0.999760; -0.018359; 0.011971;,
    -0.999760; -0.018359; 0.011971;,
    0.999833; -0.015363; -0.009852;,
    0.999833; -0.015363; -0.009852;,
    0.999834; -0.015701; -0.009267;,
    0.999834; -0.015701; -0.009267;,
    -0.999647; -0.022340; -0.014407;,
    -0.999647; -0.022340; -0.014407;,
    -0.999705; -0.020192; -0.013468;,
    -0.999705; -0.020192; -0.013468;,
    0.999833; -0.014370; -0.011334;,
    0.999833; -0.014370; -0.011334;,
    -0.999759; -0.017200; -0.013620;,
    -0.999759; -0.017200; -0.013620;,
    0.999833; -0.012423; -0.013406;,
    0.999833; -0.012423; -0.013406;,
    -0.999760; -0.014668; -0.016286;,
    -0.999760; -0.014668; -0.016286;,
    0.999822; -0.011093; -0.015263;,
    0.999822; -0.011093; -0.015263;,
    -0.999764; -0.011792; -0.018247;,
    -0.999764; -0.011792; -0.018247;,
    0.999813; -0.008403; -0.017443;,
    0.999813; -0.008403; -0.017443;,
    -0.999777; -0.008079; -0.019498;,
    -0.999777; -0.008079; -0.019498;,
    -0.000094; 1.000000; -0.001010;,
    -0.000094; 1.000000; -0.001010;,
    -0.000094; 1.000000; -0.001010;,
    -0.000094; 1.000000; -0.001010;,
    -0.000094; 1.000000; 0.001006;,
    -0.000094; 1.000000; 0.001006;,
    -0.000094; 1.000000; 0.001006;,
    -0.000094; 1.000000; 0.001006;;
    132;
    3;0, 1, 2;,
    3;1, 3, 2;,
    3;4, 5, 6;,
    3;5, 7, 6;,
    3;8, 9, 4;,
    3;9, 5, 4;,
    3;10, 11, 8;,
    3;11, 9, 8;,
    3;12, 13, 10;,
    3;13, 11, 10;,
    3;14, 15, 12;,
    3;15, 13, 12;,
    3;16, 17, 14;,
    3;17, 15, 14;,
    3;18, 19, 16;,
    3;19, 17, 16;,
    3;20, 21, 18;,
    3;21, 19, 18;,
    3;22, 23, 24;,
    3;23, 25, 24;,
    3;26, 27, 22;,
    3;27, 23, 22;,
    3;28, 29, 26;,
    3;29, 27, 26;,
    3;30, 31, 28;,
    3;31, 29, 28;,
    3;32, 33, 30;,
    3;33, 31, 30;,
    3;34, 35, 32;,
    3;35, 33, 32;,
    3;2, 3, 34;,
    3;3, 35, 34;,
    3;36, 37, 38;,
    3;37, 39, 38;,
    3;40, 41, 42;,
    3;41, 43, 42;,
    3;44, 45, 40;,
    3;45, 41, 40;,
    3;46, 47, 44;,
    3;47, 45, 44;,
    3;48, 49, 46;,
    3;49, 47, 46;,
    3;50, 51, 48;,
    3;51, 49, 48;,
    3;52, 53, 50;,
    3;53, 51, 50;,
    3;54, 55, 52;,
    3;55, 53, 52;,
    3;56, 57, 54;,
    3;57, 55, 54;,
    3;58, 59, 60;,
    3;59, 61, 60;,
    3;62, 63, 58;,
    3;63, 59, 58;,
    3;64, 65, 62;,
    3;65, 63, 62;,
    3;66, 67, 64;,
    3;67, 65, 64;,
    3;68, 69, 66;,
    3;69, 67, 66;,
    3;70, 71, 68;,
    3;71, 69, 68;,
    3;38, 39, 70;,
    3;39, 71, 70;,
    3;72, 73, 74;,
    3;73, 75, 74;,
    3;74, 75, 76;,
    3;75, 77, 76;,
    3;78, 79, 80;,
    3;79, 81, 80;,
    3;82, 83, 78;,
    3;83, 79, 78;,
    3;84, 85, 86;,
    3;85, 87, 86;,
    3;88, 89, 84;,
    3;89, 85, 84;,
    3;90, 91, 92;,
    3;91, 93, 92;,
    3;92, 93, 94;,
    3;93, 95, 94;,
    3;96, 97, 88;,
    3;97, 89, 88;,
    3;94, 95, 98;,
    3;95, 99, 98;,
    3;100, 101, 96;,
    3;101, 97, 96;,
    3;98, 99, 102;,
    3;99, 103, 102;,
    3;104, 105, 100;,
    3;105, 101, 100;,
    3;102, 103, 106;,
    3;103, 107, 106;,
    3;108, 109, 104;,
    3;109, 105, 104;,
    3;106, 107, 110;,
    3;107, 111, 110;,
    3;112, 113, 108;,
    3;113, 109, 108;,
    3;110, 111, 114;,
    3;111, 115, 114;,
    3;116, 117, 112;,
    3;117, 113, 112;,
    3;114, 115, 118;,
    3;115, 119, 118;,
    3;120, 121, 122;,
    3;121, 123, 122;,
    3;124, 125, 126;,
    3;125, 127, 126;,
    3;128, 129, 120;,
    3;129, 121, 120;,
    3;126, 127, 130;,
    3;127, 131, 130;,
    3;132, 133, 128;,
    3;133, 129, 128;,
    3;130, 131, 134;,
    3;131, 135, 134;,
    3;136, 137, 132;,
    3;137, 133, 132;,
    3;134, 135, 138;,
    3;135, 139, 138;,
    3;140, 141, 136;,
    3;141, 137, 136;,
    3;138, 139, 142;,
    3;139, 143, 142;,
    3;76, 77, 140;,
    3;77, 141, 140;,
    3;142, 143, 82;,
    3;143, 83, 82;,
    3;144, 145, 146;,
    3;145, 147, 146;,
    3;148, 149, 150;,
    3;149, 151, 150;;
   }

   MeshTextureCoords {
    152;
    0.262057; 0.522988;,
    0.228661; 0.522989;,
    0.262057; 0.240233;,
    0.228661; 0.240234;,
    0.211970; 0.239825;,
    0.178220; 0.239825;,
    0.211970; 0.525578;,
    0.178220; 0.525578;,
    0.211970; 0.206076;,
    0.178220; 0.206076;,
    0.211970; 0.172326;,
    0.178220; 0.172326;,
    0.211970; 0.138576;,
    0.178220; 0.138576;,
    0.211970; 0.104826;,
    0.178220; 0.104826;,
    0.211970; 0.071076;,
    0.178220; 0.071076;,
    0.211970; 0.037326;,
    0.178220; 0.037326;,
    0.211970; 0.003576;,
    0.178220; 0.003576;,
    0.262056; 0.039858;,
    0.228660; 0.039858;,
    0.262056; 0.006462;,
    0.228660; 0.006462;,
    0.262056; 0.073253;,
    0.228660; 0.073254;,
    0.262056; 0.106649;,
    0.228661; 0.106650;,
    0.262056; 0.140045;,
    0.228661; 0.140046;,
    0.262056; 0.173441;,
    0.228661; 0.173441;,
    0.262056; 0.206837;,
    0.228661; 0.206837;,
    0.365442; 0.522534;,
    0.296771; 0.522534;,
    0.365442; 0.239779;,
    0.296771; 0.239779;,
    0.316452; 0.240285;,
    0.247053; 0.240285;,
    0.316452; 0.526038;,
    0.247053; 0.526038;,
    0.316452; 0.206535;,
    0.247053; 0.206535;,
    0.316452; 0.172785;,
    0.247053; 0.172785;,
    0.316452; 0.139035;,
    0.247053; 0.139035;,
    0.316452; 0.105285;,
    0.247053; 0.105285;,
    0.316452; 0.071536;,
    0.247053; 0.071535;,
    0.316452; 0.037786;,
    0.247053; 0.037786;,
    0.316452; 0.004036;,
    0.247053; 0.004035;,
    0.365442; 0.039403;,
    0.296771; 0.039403;,
    0.365442; 0.006007;,
    0.296771; 0.006007;,
    0.365442; 0.072799;,
    0.296771; 0.072799;,
    0.365442; 0.106195;,
    0.296771; 0.106195;,
    0.365442; 0.139591;,
    0.296771; 0.139591;,
    0.365442; 0.172987;,
    0.296771; 0.172987;,
    0.365442; 0.206383;,
    0.296771; 0.206383;,
    0.228267; 0.523736;,
    0.194871; 0.523736;,
    0.228267; 0.240981;,
    0.194871; 0.240981;,
    0.228267; 0.207585;,
    0.194871; 0.207585;,
    0.261786; 0.240145;,
    0.295182; 0.240145;,
    0.261786; 0.522900;,
    0.295182; 0.522900;,
    0.261786; 0.206749;,
    0.295182; 0.206749;,
    0.177822; 0.239070;,
    0.144072; 0.239070;,
    0.177822; 0.524823;,
    0.144072; 0.524823;,
    0.177822; 0.205320;,
    0.144072; 0.205320;,
    0.211696; 0.525668;,
    0.245446; 0.525668;,
    0.211696; 0.239915;,
    0.245446; 0.239915;,
    0.211696; 0.206165;,
    0.245446; 0.206165;,
    0.177822; 0.171570;,
    0.144072; 0.171570;,
    0.211696; 0.172415;,
    0.245446; 0.172415;,
    0.177822; 0.137821;,
    0.144072; 0.137821;,
    0.211696; 0.138665;,
    0.245446; 0.138665;,
    0.177822; 0.104071;,
    0.144072; 0.104071;,
    0.211696; 0.104915;,
    0.245446; 0.104915;,
    0.177822; 0.070321;,
    0.144072; 0.070321;,
    0.211696; 0.071165;,
    0.245446; 0.071165;,
    0.177822; 0.036571;,
    0.144072; 0.036571;,
    0.211696; 0.037416;,
    0.245446; 0.037416;,
    0.177822; 0.002821;,
    0.144072; 0.002821;,
    0.211696; 0.003666;,
    0.245446; 0.003666;,
    0.228267; 0.040605;,
    0.194871; 0.040605;,
    0.228267; 0.007209;,
    0.194871; 0.007209;,
    0.261785; 0.006373;,
    0.295181; 0.006373;,
    0.261785; 0.039769;,
    0.295181; 0.039769;,
    0.228267; 0.074001;,
    0.194871; 0.074001;,
    0.261785; 0.073165;,
    0.295181; 0.073165;,
    0.228267; 0.107397;,
    0.194871; 0.107397;,
    0.261785; 0.106561;,
    0.295181; 0.106561;,
    0.228267; 0.140793;,
    0.194871; 0.140793;,
    0.261785; 0.139957;,
    0.295182; 0.139957;,
    0.228267; 0.174189;,
    0.194871; 0.174189;,
    0.261786; 0.173353;,
    0.295182; 0.173353;,
    0.359507; 0.520841;,
    0.392440; 0.520841;,
    0.359507; 0.521775;,
    0.392440; 0.521775;,
    0.668854; 0.303449;,
    0.635921; 0.303449;,
    0.668854; 0.302515;,
    0.635921; 0.302515;;
   }

   MeshVertexColors {
    152;
    0; 1.000000; 1.000000; 1.000000; 1.000000;,
    1; 1.000000; 1.000000; 1.000000; 1.000000;,
    2; 1.000000; 1.000000; 1.000000; 1.000000;,
    3; 1.000000; 1.000000; 1.000000; 1.000000;,
    4; 1.000000; 1.000000; 1.000000; 1.000000;,
    5; 1.000000; 1.000000; 1.000000; 1.000000;,
    6; 1.000000; 1.000000; 1.000000; 1.000000;,
    7; 1.000000; 1.000000; 1.000000; 1.000000;,
    8; 1.000000; 1.000000; 1.000000; 1.000000;,
    9; 1.000000; 1.000000; 1.000000; 1.000000;,
    10; 1.000000; 1.000000; 1.000000; 1.000000;,
    11; 1.000000; 1.000000; 1.000000; 1.000000;,
    12; 1.000000; 1.000000; 1.000000; 1.000000;,
    13; 1.000000; 1.000000; 1.000000; 1.000000;,
    14; 1.000000; 1.000000; 1.000000; 1.000000;,
    15; 1.000000; 1.000000; 1.000000; 1.000000;,
    16; 1.000000; 1.000000; 1.000000; 1.000000;,
    17; 1.000000; 1.000000; 1.000000; 1.000000;,
    18; 1.000000; 1.000000; 1.000000; 1.000000;,
    19; 1.000000; 1.000000; 1.000000; 1.000000;,
    20; 1.000000; 1.000000; 1.000000; 1.000000;,
    21; 1.000000; 1.000000; 1.000000; 1.000000;,
    22; 1.000000; 1.000000; 1.000000; 1.000000;,
    23; 1.000000; 1.000000; 1.000000; 1.000000;,
    24; 1.000000; 1.000000; 1.000000; 1.000000;,
    25; 1.000000; 1.000000; 1.000000; 1.000000;,
    26; 1.000000; 1.000000; 1.000000; 1.000000;,
    27; 1.000000; 1.000000; 1.000000; 1.000000;,
    28; 1.000000; 1.000000; 1.000000; 1.000000;,
    29; 1.000000; 1.000000; 1.000000; 1.000000;,
    30; 1.000000; 1.000000; 1.000000; 1.000000;,
    31; 1.000000; 1.000000; 1.000000; 1.000000;,
    32; 1.000000; 1.000000; 1.000000; 1.000000;,
    33; 1.000000; 1.000000; 1.000000; 1.000000;,
    34; 1.000000; 1.000000; 1.000000; 1.000000;,
    35; 1.000000; 1.000000; 1.000000; 1.000000;,
    36; 1.000000; 1.000000; 1.000000; 1.000000;,
    37; 1.000000; 1.000000; 1.000000; 1.000000;,
    38; 1.000000; 1.000000; 1.000000; 1.000000;,
    39; 1.000000; 1.000000; 1.000000; 1.000000;,
    40; 1.000000; 1.000000; 1.000000; 1.000000;,
    41; 1.000000; 1.000000; 1.000000; 1.000000;,
    42; 1.000000; 1.000000; 1.000000; 1.000000;,
    43; 1.000000; 1.000000; 1.000000; 1.000000;,
    44; 1.000000; 1.000000; 1.000000; 1.000000;,
    45; 1.000000; 1.000000; 1.000000; 1.000000;,
    46; 1.000000; 1.000000; 1.000000; 1.000000;,
    47; 1.000000; 1.000000; 1.000000; 1.000000;,
    48; 1.000000; 1.000000; 1.000000; 1.000000;,
    49; 1.000000; 1.000000; 1.000000; 1.000000;,
    50; 1.000000; 1.000000; 1.000000; 1.000000;,
    51; 1.000000; 1.000000; 1.000000; 1.000000;,
    52; 1.000000; 1.000000; 1.000000; 1.000000;,
    53; 1.000000; 1.000000; 1.000000; 1.000000;,
    54; 1.000000; 1.000000; 1.000000; 1.000000;,
    55; 1.000000; 1.000000; 1.000000; 1.000000;,
    56; 1.000000; 1.000000; 1.000000; 1.000000;,
    57; 1.000000; 1.000000; 1.000000; 1.000000;,
    58; 1.000000; 1.000000; 1.000000; 1.000000;,
    59; 1.000000; 1.000000; 1.000000; 1.000000;,
    60; 1.000000; 1.000000; 1.000000; 1.000000;,
    61; 1.000000; 1.000000; 1.000000; 1.000000;,
    62; 1.000000; 1.000000; 1.000000; 1.000000;,
    63; 1.000000; 1.000000; 1.000000; 1.000000;,
    64; 1.000000; 1.000000; 1.000000; 1.000000;,
    65; 1.000000; 1.000000; 1.000000; 1.000000;,
    66; 1.000000; 1.000000; 1.000000; 1.000000;,
    67; 1.000000; 1.000000; 1.000000; 1.000000;,
    68; 1.000000; 1.000000; 1.000000; 1.000000;,
    69; 1.000000; 1.000000; 1.000000; 1.000000;,
    70; 1.000000; 1.000000; 1.000000; 1.000000;,
    71; 1.000000; 1.000000; 1.000000; 1.000000;,
    72; 1.000000; 1.000000; 1.000000; 1.000000;,
    73; 1.000000; 1.000000; 1.000000; 1.000000;,
    74; 1.000000; 1.000000; 1.000000; 1.000000;,
    75; 1.000000; 1.000000; 1.000000; 1.000000;,
    76; 1.000000; 1.000000; 1.000000; 1.000000;,
    77; 1.000000; 1.000000; 1.000000; 1.000000;,
    78; 1.000000; 1.000000; 1.000000; 1.000000;,
    79; 1.000000; 1.000000; 1.000000; 1.000000;,
    80; 1.000000; 1.000000; 1.000000; 1.000000;,
    81; 1.000000; 1.000000; 1.000000; 1.000000;,
    82; 1.000000; 1.000000; 1.000000; 1.000000;,
    83; 1.000000; 1.000000; 1.000000; 1.000000;,
    84; 1.000000; 1.000000; 1.000000; 1.000000;,
    85; 1.000000; 1.000000; 1.000000; 1.000000;,
    86; 1.000000; 1.000000; 1.000000; 1.000000;,
    87; 1.000000; 1.000000; 1.000000; 1.000000;,
    88; 1.000000; 1.000000; 1.000000; 1.000000;,
    89; 1.000000; 1.000000; 1.000000; 1.000000;,
    90; 1.000000; 1.000000; 1.000000; 1.000000;,
    91; 1.000000; 1.000000; 1.000000; 1.000000;,
    92; 1.000000; 1.000000; 1.000000; 1.000000;,
    93; 1.000000; 1.000000; 1.000000; 1.000000;,
    94; 1.000000; 1.000000; 1.000000; 1.000000;,
    95; 1.000000; 1.000000; 1.000000; 1.000000;,
    96; 1.000000; 1.000000; 1.000000; 1.000000;,
    97; 1.000000; 1.000000; 1.000000; 1.000000;,
    98; 1.000000; 1.000000; 1.000000; 1.000000;,
    99; 1.000000; 1.000000; 1.000000; 1.000000;,
    100; 1.000000; 1.000000; 1.000000; 1.000000;,
    101; 1.000000; 1.000000; 1.000000; 1.000000;,
    102; 1.000000; 1.000000; 1.000000; 1.000000;,
    103; 1.000000; 1.000000; 1.000000; 1.000000;,
    104; 1.000000; 1.000000; 1.000000; 1.000000;,
    105; 1.000000; 1.000000; 1.000000; 1.000000;,
    106; 1.000000; 1.000000; 1.000000; 1.000000;,
    107; 1.000000; 1.000000; 1.000000; 1.000000;,
    108; 1.000000; 1.000000; 1.000000; 1.000000;,
    109; 1.000000; 1.000000; 1.000000; 1.000000;,
    110; 1.000000; 1.000000; 1.000000; 1.000000;,
    111; 1.000000; 1.000000; 1.000000; 1.000000;,
    112; 1.000000; 1.000000; 1.000000; 1.000000;,
    113; 1.000000; 1.000000; 1.000000; 1.000000;,
    114; 1.000000; 1.000000; 1.000000; 1.000000;,
    115; 1.000000; 1.000000; 1.000000; 1.000000;,
    116; 1.000000; 1.000000; 1.000000; 1.000000;,
    117; 1.000000; 1.000000; 1.000000; 1.000000;,
    118; 1.000000; 1.000000; 1.000000; 1.000000;,
    119; 1.000000; 1.000000; 1.000000; 1.000000;,
    120; 1.000000; 1.000000; 1.000000; 1.000000;,
    121; 1.000000; 1.000000; 1.000000; 1.000000;,
    122; 1.000000; 1.000000; 1.000000; 1.000000;,
    123; 1.000000; 1.000000; 1.000000; 1.000000;,
    124; 1.000000; 1.000000; 1.000000; 1.000000;,
    125; 1.000000; 1.000000; 1.000000; 1.000000;,
    126; 1.000000; 1.000000; 1.000000; 1.000000;,
    127; 1.000000; 1.000000; 1.000000; 1.000000;,
    128; 1.000000; 1.000000; 1.000000; 1.000000;,
    129; 1.000000; 1.000000; 1.000000; 1.000000;,
    130; 1.000000; 1.000000; 1.000000; 1.000000;,
    131; 1.000000; 1.000000; 1.000000; 1.000000;,
    132; 1.000000; 1.000000; 1.000000; 1.000000;,
    133; 1.000000; 1.000000; 1.000000; 1.000000;,
    134; 1.000000; 1.000000; 1.000000; 1.000000;,
    135; 1.000000; 1.000000; 1.000000; 1.000000;,
    136; 1.000000; 1.000000; 1.000000; 1.000000;,
    137; 1.000000; 1.000000; 1.000000; 1.000000;,
    138; 1.000000; 1.000000; 1.000000; 1.000000;,
    139; 1.000000; 1.000000; 1.000000; 1.000000;,
    140; 1.000000; 1.000000; 1.000000; 1.000000;,
    141; 1.000000; 1.000000; 1.000000; 1.000000;,
    142; 1.000000; 1.000000; 1.000000; 1.000000;,
    143; 1.000000; 1.000000; 1.000000; 1.000000;,
    144; 1.000000; 1.000000; 1.000000; 1.000000;,
    145; 1.000000; 1.000000; 1.000000; 1.000000;,
    146; 1.000000; 1.000000; 1.000000; 1.000000;,
    147; 1.000000; 1.000000; 1.000000; 1.000000;,
    148; 1.000000; 1.000000; 1.000000; 1.000000;,
    149; 1.000000; 1.000000; 1.000000; 1.000000;,
    150; 1.000000; 1.000000; 1.000000; 1.000000;,
    151; 1.000000; 1.000000; 1.000000; 1.000000;;
   }

   MeshMaterialList {
    1;
    132;
    0,
    0,
    0,
    0,
    0,
    0,
    0,
    0,
    0,
    0,
    0,
    0,
    0,
    0,
    0,
    0,
    0,
    0,
    0,
    0,
    0,
    0,
    0,
    0,
    0,
    0,
    0,
    0,
    0,
    0,
    0,
    0,
    0,
    0,
    0,
    0,
    0,
    0,
    0,
    0,
    0,
    0,
    0,
    0,
    0,
    0,
    0,
    0,
    0,
    0,
    0,
    0,
    0,
    0,
    0,
    0,
    0,
    0,
    0,
    0,
    0,
    0,
    0,
    0,
    0,
    0,
    0,
    0,
    0,
    0,
    0,
    0,
    0,
    0,
    0,
    0,
    0,
    0,
    0,
    0,
    0,
    0,
    0,
    0,
    0,
    0,
    0,
    0,
    0,
    0,
    0,
    0,
    0,
    0,
    0,
    0,
    0,
    0,
    0,
    0,
    0,
    0,
    0,
    0,
    0,
    0,
    0,
    0,
    0,
    0,
    0,
    0,
    0,
    0,
    0,
    0,
    0,
    0,
    0,
    0,
    0,
    0,
    0,
    0,
    0,
    0,
    0,
    0,
    0,
    0,
    0,
    0;

    Material DungNewA {
     1.000000; 1.000000; 1.000000; 1.000000;;
     128.000000;
     1.000000; 1.000000; 1.000000;;
     0.000000; 0.000000; 0.000000;;

     TextureFilename {
      "DungNewA.dds";
     }
    }

   }
  }
}
