xof 0303txt 0032

// DirectX 9.0 file
// Creator: Ultimate Unwrap3D Pro v3.32
// Website: http://www.unwrap3d.com
// Time: Wed Sep 07 20:08:14 2011

// Start of Templates

template VertexDuplicationIndices {
 <b8d65549-d7c9-4995-89cf-53a9a8b031e3>
 DWORD nIndices;
 DWORD nOriginalVertices;
 array DWORD indices[nIndices];
}

template FVFData {
 <b6e70a0e-8ef9-4e83-94ad-ecc8b0c04897>
 DWORD dwFVF;
 DWORD nDWords;
 array DWORD data[nDWords];
}

template Header {
 <3D82AB43-62DA-11cf-AB39-0020AF71E433>
 WORD major;
 WORD minor;
 DWORD flags;
}

template Vector {
 <3D82AB5E-62DA-11cf-AB39-0020AF71E433>
 FLOAT x;
 FLOAT y;
 FLOAT z;
}

template Coords2d {
 <F6F23F44-7686-11cf-8F52-0040333594A3>
 FLOAT u;
 FLOAT v;
}

template Matrix4x4 {
 <F6F23F45-7686-11cf-8F52-0040333594A3>
 array FLOAT matrix[16];
}

template ColorRGBA {
 <35FF44E0-6C7C-11cf-8F52-0040333594A3>
 FLOAT red;
 FLOAT green;
 FLOAT blue;
 FLOAT alpha;
}

template ColorRGB {
 <D3E16E81-7835-11cf-8F52-0040333594A3>
 FLOAT red;
 FLOAT green;
 FLOAT blue;
}

template IndexedColor {
 <1630B820-7842-11cf-8F52-0040333594A3>
 DWORD index;
 ColorRGBA indexColor;
}

template Material {
 <3D82AB4D-62DA-11cf-AB39-0020AF71E433>
 ColorRGBA faceColor;
 FLOAT power;
 ColorRGB specularColor;
 ColorRGB emissiveColor;
 [...]
}

template TextureFilename {
 <A42790E1-7810-11cf-8F52-0040333594A3>
 STRING filename;
}

template MeshFace {
 <3D82AB5F-62DA-11cf-AB39-0020AF71E433>
 DWORD nFaceVertexIndices;
 array DWORD faceVertexIndices[nFaceVertexIndices];
}

template MeshTextureCoords {
 <F6F23F40-7686-11cf-8F52-0040333594A3>
 DWORD nTextureCoords;
 array Coords2d textureCoords[nTextureCoords];
}

template MeshMaterialList {
 <F6F23F42-7686-11cf-8F52-0040333594A3>
 DWORD nMaterials;
 DWORD nFaceIndexes;
 array DWORD faceIndexes[nFaceIndexes];
 [Material]
}

template MeshNormals {
 <F6F23F43-7686-11cf-8F52-0040333594A3>
 DWORD nNormals;
 array Vector normals[nNormals];
 DWORD nFaceNormals;
 array MeshFace faceNormals[nFaceNormals];
}

template MeshVertexColors {
 <1630B821-7842-11cf-8F52-0040333594A3>
 DWORD nVertexColors;
 array IndexedColor vertexColors[nVertexColors];
}

template Mesh {
 <3D82AB44-62DA-11cf-AB39-0020AF71E433>
 DWORD nVertices;
 array Vector vertices[nVertices];
 DWORD nFaces;
 array MeshFace faces[nFaces];
 [...]
}

template FrameTransformMatrix {
 <F6F23F41-7686-11cf-8F52-0040333594A3>
 Matrix4x4 frameMatrix;
}

template Frame {
 <3D82AB46-62DA-11cf-AB39-0020AF71E433>
 [...]
}

template FloatKeys {
 <10DD46A9-775B-11cf-8F52-0040333594A3>
 DWORD nValues;
 array FLOAT values[nValues];
}

template TimedFloatKeys {
 <F406B180-7B3B-11cf-8F52-0040333594A3>
 DWORD time;
 FloatKeys tfkeys;
}

template AnimationKey {
 <10DD46A8-775B-11cf-8F52-0040333594A3>
 DWORD keyType;
 DWORD nKeys;
 array TimedFloatKeys keys[nKeys];
}

template AnimationOptions {
 <E2BF56C0-840F-11cf-8F52-0040333594A3>
 DWORD openclosed;
 DWORD positionquality;
}

template Animation {
 <3D82AB4F-62DA-11cf-AB39-0020AF71E433>
 [...]
}

template AnimationSet {
 <3D82AB50-62DA-11cf-AB39-0020AF71E433>
 [Animation]
}

template XSkinMeshHeader {
 <3CF169CE-FF7C-44ab-93C0-F78F62D172E2>
 WORD nMaxSkinWeightsPerVertex;
 WORD nMaxSkinWeightsPerFace;
 WORD nBones;
}

template SkinWeights {
 <6F0D123B-BAD2-4167-A0D0-80224F25FABB>
 STRING transformNodeName;
 DWORD nWeights;
 array DWORD vertexIndices[nWeights];
 array FLOAT weights[nWeights];
 Matrix4x4 matrixOffset;
}

template AnimTicksPerSecond {
 <9E415A43-7BA6-4a73-8743-B73D47E88476>
 DWORD AnimTicksPerSecond;
}

AnimTicksPerSecond {
 4800;
}

// Start of Frames

Frame Body {
   FrameTransformMatrix {
    1.000000, 0.000000, 0.000000, 0.000000,
    0.000000, 1.000000, 0.000000, 0.000000,
    0.000000, 0.000000, 1.000000, 0.000000,
    0.000000, 0.000000, 0.000000, 1.000000;;
   }

   Mesh staticMesh {
    264;
    105.319824; 236.639679; -24.700195;,
    127.790039; 254.849686; -24.700195;,
    112.290039; 226.189682; -24.700195;,
    142.790039; 226.039688; -24.700195;,
    55.540039; 271.039673; -24.700195;,
    71.370117; 297.329681; -24.700195;,
    87.799805; 251.459686; -24.700195;,
    107.649902; 275.059692; -24.700195;,
    110.299805; 38.339890; -24.700195;,
    142.790039; 38.339890; -24.700195;,
    25.370117; 281.489685; -24.700195;,
    36.879883; 309.279694; -24.700195;,
    0.000000; 284.639679; -24.700195;,
    0.000000; 312.729675; -24.700195;,
    142.790039; -0.000015; -24.700195;,
    110.299805; -0.000015; -24.700195;,
    91.180176; 38.339890; -24.700195;,
    91.180176; -0.000015; -24.700195;,
    37.490234; 38.339890; -24.700195;,
    37.490234; -0.000015; -24.700195;,
    0.149902; 38.339890; -24.700195;,
    0.149902; -0.000015; -24.700195;,
    67.950195; 38.339890; -24.700195;,
    67.950195; -0.000015; -24.700195;,
    0.000000; 340.969696; -24.700195;,
    36.879883; 340.969696; -24.700195;,
    127.790039; 340.969696; -24.700195;,
    142.790039; 340.969696; -24.700195;,
    107.649902; 340.969696; -24.700195;,
    71.370117; 340.969696; -24.700195;,
    354.669922; 226.039688; -24.700195;,
    354.669922; 38.339890; -24.700195;,
    354.669922; 340.969696; -24.700195;,
    354.669922; -0.000015; -24.700195;,
    127.790039; 254.849686; 24.699951;,
    105.319824; 236.639679; 24.699951;,
    142.790039; 226.039688; 24.699951;,
    112.290039; 226.189682; 24.699951;,
    71.370117; 297.329681; 24.699951;,
    55.540039; 271.039673; 24.699951;,
    107.649902; 275.059692; 24.699951;,
    87.799805; 251.459686; 24.699951;,
    142.790039; 38.339890; 24.699951;,
    110.299805; 38.339890; 24.699951;,
    36.879883; 309.279694; 24.699951;,
    25.370117; 281.489685; 24.699951;,
    0.000000; 312.729675; 24.699951;,
    0.000000; 284.639679; 24.699951;,
    142.790039; -0.000015; 24.699951;,
    110.299805; -0.000015; 24.699951;,
    91.180176; -0.000015; 24.699951;,
    91.180176; 38.339890; 24.699951;,
    37.490234; -0.000015; 24.699951;,
    37.490234; 38.339890; 24.699951;,
    -0.149902; -0.000015; 24.699951;,
    0.149902; 38.339890; 24.699951;,
    67.950195; -0.000015; 24.699951;,
    67.950195; 38.339890; 24.699951;,
    0.000000; 340.969696; 24.699951;,
    36.879883; 340.969696; 24.699951;,
    127.790039; 340.969696; 24.699951;,
    142.790039; 340.969696; 24.699951;,
    107.649902; 340.969696; 24.699951;,
    71.370117; 340.969696; 24.699951;,
    354.669922; 226.039688; 24.699951;,
    354.669922; 38.339890; 24.699951;,
    354.669922; 340.969696; 24.699951;,
    354.669922; -0.000015; 24.699951;,
    0.000000; 284.639679; 24.699951;,
    0.000000; 284.639679; -24.700195;,
    25.370117; 281.489685; 24.699951;,
    25.370117; 281.489685; -24.700195;,
    105.319824; 236.639679; 24.699951;,
    105.319824; 236.639679; -24.700195;,
    112.290039; 226.189682; 24.699951;,
    112.290039; 226.189682; -24.700195;,
    87.799805; 251.459686; 24.699951;,
    87.799805; 251.459686; -24.700195;,
    110.299805; 38.339890; 24.699951;,
    110.299805; 38.339890; -24.700195;,
    55.540039; 271.039673; 24.699951;,
    55.540039; 271.039673; -24.700195;,
    87.799805; 251.459686; 24.699951;,
    25.370117; 281.489685; 24.699951;,
    110.299805; 38.339890; 24.699951;,
    110.299805; 38.339890; -24.700195;,
    91.180176; 38.339890; 24.699951;,
    91.180176; 38.339890; -24.700195;,
    37.490234; 38.339890; 24.699951;,
    37.490234; 38.339890; -24.700195;,
    0.149902; 38.339890; 24.699951;,
    0.149902; 38.339890; -24.700195;,
    67.950195; 38.339890; 24.699951;,
    67.950195; 38.339890; -24.700195;,
    -0.149902; -0.000015; 24.699951;,
    0.149902; -0.000015; -24.700195;,
    37.490234; -0.000015; 24.699951;,
    37.490234; -0.000015; -24.700195;,
    36.879883; 442.159698; 24.699951;,
    36.879883; 442.159698; -24.700195;,
    0.000000; 442.159698; 24.699951;,
    0.000000; 442.159698; -24.700195;,
    71.370117; 442.159698; 24.699951;,
    71.370117; 442.159698; -24.700195;,
    142.790039; 442.169678; 24.699951;,
    142.790039; 442.169678; -24.700195;,
    127.790039; 442.159698; 24.699951;,
    127.790039; 442.159698; -24.700195;,
    354.669922; 340.969696; 24.699951;,
    354.669922; 340.969696; -24.700195;,
    142.790039; 340.969696; 24.699951;,
    142.790039; 340.969696; -24.700195;,
    107.649902; 442.159698; 24.699951;,
    107.649902; 442.159698; -24.700195;,
    354.669922; 38.339890; 24.699951;,
    354.669922; 38.339890; -24.700195;,
    354.669922; 226.039688; 24.699951;,
    354.669922; 226.039688; -24.700195;,
    354.669922; 340.969696; 24.699951;,
    354.669922; 340.969696; -24.700195;,
    -127.790039; 254.849686; -24.700195;,
    -105.319824; 236.639679; -24.700195;,
    -142.790039; 226.039688; -24.700195;,
    -112.290039; 226.189682; -24.700195;,
    -71.370117; 297.329681; -24.700195;,
    -55.540039; 271.039673; -24.700195;,
    -107.649902; 275.059692; -24.700195;,
    -87.799805; 251.459686; -24.700195;,
    -142.790039; 38.339890; -24.700195;,
    -110.299805; 38.339890; -24.700195;,
    -36.879883; 309.279694; -24.700195;,
    -25.370117; 281.489685; -24.700195;,
    -142.790039; -0.000015; -24.700195;,
    -110.299805; -0.000015; -24.700195;,
    -91.189941; -0.000015; -24.700195;,
    -91.189941; 38.339890; -24.700195;,
    -37.490234; -0.000015; -24.700195;,
    -37.490234; 38.339890; -24.700195;,
    -67.950195; -0.000015; -24.700195;,
    -67.950195; 38.339890; -24.700195;,
    -36.879883; 340.969696; -24.700195;,
    -127.790039; 340.969696; -24.700195;,
    -142.790039; 340.969696; -24.700195;,
    -107.649902; 340.969696; -24.700195;,
    -71.370117; 340.969696; -24.700195;,
    -354.669922; 226.039688; -24.700195;,
    -354.669922; 38.339890; -24.700195;,
    -354.669922; 340.969696; -24.700195;,
    -354.669922; -0.000015; -24.700195;,
    -105.319824; 236.639679; 24.699951;,
    -127.790039; 254.849686; 24.699951;,
    -112.290039; 226.189682; 24.699951;,
    -142.790039; 226.039688; 24.699951;,
    -55.540039; 271.039673; 24.699951;,
    -71.370117; 297.329681; 24.699951;,
    -87.799805; 251.459686; 24.699951;,
    -107.649902; 275.059692; 24.699951;,
    -110.299805; 38.339890; 24.699951;,
    -142.790039; 38.339890; 24.699951;,
    -25.370117; 281.489685; 24.699951;,
    -36.879883; 309.279694; 24.699951;,
    -142.790039; -0.000015; 24.699951;,
    -110.299805; -0.000015; 24.699951;,
    -91.189941; 38.339890; 24.699951;,
    -91.189941; -0.000015; 24.699951;,
    -37.490234; 38.339890; 24.699951;,
    -37.490234; -0.000015; 24.699951;,
    -67.950195; 38.339890; 24.699951;,
    -67.950195; -0.000015; 24.699951;,
    -36.879883; 340.969696; 24.699951;,
    -127.790039; 340.969696; 24.699951;,
    -142.790039; 340.969696; 24.699951;,
    -107.649902; 340.969696; 24.699951;,
    -71.370117; 340.969696; 24.699951;,
    -354.669922; 226.039688; 24.699951;,
    -354.669922; 38.339890; 24.699951;,
    -354.669922; 340.969696; 24.699951;,
    -354.669922; -0.000015; 24.699951;,
    0.000000; 284.639679; -24.700195;,
    0.000000; 284.639679; 24.699951;,
    -25.370117; 281.489685; -24.700195;,
    -25.370117; 281.489685; 24.699951;,
    -105.319824; 236.639679; -24.700195;,
    -105.319824; 236.639679; 24.699951;,
    -112.290039; 226.189682; -24.700195;,
    -112.290039; 226.189682; 24.699951;,
    -87.799805; 251.459686; -24.700195;,
    -87.799805; 251.459686; 24.699951;,
    -110.299805; 38.339890; -24.700195;,
    -110.299805; 38.339890; 24.699951;,
    -55.540039; 271.039673; -24.700195;,
    -55.540039; 271.039673; 24.699951;,
    -110.299805; 38.339890; -24.700195;,
    -110.299805; 38.339890; 24.699951;,
    -91.189941; 38.339890; -24.700195;,
    -91.189941; 38.339890; 24.699951;,
    -37.490234; 38.339890; -24.700195;,
    -37.490234; 38.339890; 24.699951;,
    -67.950195; 38.339890; -24.700195;,
    -67.950195; 38.339890; 24.699951;,
    -110.299805; -0.000015; -24.700195;,
    -110.299805; -0.000015; 24.699951;,
    -142.790039; -0.000015; -24.700195;,
    -142.790039; -0.000015; 24.699951;,
    -91.189941; -0.000015; -24.700195;,
    -91.189941; -0.000015; 24.699951;,
    -354.669922; -0.000015; -24.700195;,
    -354.669922; -0.000015; 24.699951;,
    -67.950195; -0.000015; -24.700195;,
    -67.950195; -0.000015; 24.699951;,
    -37.490234; -0.000015; -24.700195;,
    -37.490234; -0.000015; 24.699951;,
    -36.879883; 442.159698; -24.700195;,
    -36.879883; 442.159698; 24.699951;,
    -71.370117; 442.159698; -24.700195;,
    -71.370117; 442.159698; 24.699951;,
    -142.790039; 442.169678; -24.700195;,
    -142.790039; 442.169678; 24.699951;,
    -127.790039; 442.159698; -24.700195;,
    -127.790039; 442.159698; 24.699951;,
    -354.669922; 340.969696; -24.700195;,
    -354.669922; 340.969696; 24.699951;,
    -142.790039; 340.969696; -24.700195;,
    -142.790039; 340.969696; 24.699951;,
    -107.649902; 442.159698; -24.700195;,
    -107.649902; 442.159698; 24.699951;,
    -354.669922; 38.339890; -24.700195;,
    -354.669922; 38.339890; 24.699951;,
    -354.669922; 226.039688; -24.700195;,
    -354.669922; 226.039688; 24.699951;,
    -354.669922; -0.000015; -24.700195;,
    -354.669922; -0.000015; 24.699951;,
    -354.669922; 340.969696; -24.700195;,
    -354.669922; 340.969696; 24.699951;,
    -36.879883; 442.159698; 24.699951;,
    0.000000; 442.159698; 24.699951;,
    36.879883; 442.159698; 24.699951;,
    -71.370117; 442.159698; 24.699951;,
    71.370117; 442.159698; 24.699951;,
    -107.649902; 442.159698; 24.699951;,
    107.649902; 442.159698; 24.699951;,
    -127.790039; 442.159698; 24.699951;,
    127.790039; 442.159698; 24.699951;,
    -142.790039; 442.169678; 24.699951;,
    142.790039; 442.169678; 24.699951;,
    -142.790039; 442.169678; -24.700195;,
    -142.790039; 340.969696; -24.700195;,
    -142.790039; 442.169678; 24.699951;,
    -142.790039; 340.969696; 24.699951;,
    142.790039; 442.169678; 24.699951;,
    142.790039; 340.969696; 24.699951;,
    142.790039; 442.169678; -24.700195;,
    142.790039; 340.969696; -24.700195;,
    0.000000; 442.159698; -24.700195;,
    -36.879883; 442.159698; -24.700195;,
    36.879883; 442.159698; -24.700195;,
    -71.370117; 442.159698; -24.700195;,
    71.370117; 442.159698; -24.700195;,
    -107.649902; 442.159698; -24.700195;,
    107.649902; 442.159698; -24.700195;,
    -127.790039; 442.159698; -24.700195;,
    127.790039; 442.159698; -24.700195;,
    -142.790039; 442.169678; -24.700195;,
    142.790039; 442.169678; -24.700195;;
    284;
    3;0, 1, 2;,
    3;1, 3, 2;,
    3;4, 5, 6;,
    3;5, 7, 6;,
    3;6, 7, 0;,
    3;7, 1, 0;,
    3;2, 3, 8;,
    3;3, 9, 8;,
    3;10, 11, 4;,
    3;11, 5, 4;,
    3;12, 13, 10;,
    3;13, 11, 10;,
    3;9, 14, 8;,
    3;14, 15, 8;,
    3;8, 15, 16;,
    3;15, 17, 16;,
    3;18, 19, 20;,
    3;19, 21, 20;,
    3;16, 17, 22;,
    3;17, 23, 22;,
    3;22, 23, 18;,
    3;23, 19, 18;,
    3;13, 24, 11;,
    3;24, 25, 11;,
    3;1, 26, 3;,
    3;26, 27, 3;,
    3;7, 28, 1;,
    3;28, 26, 1;,
    3;5, 29, 7;,
    3;29, 28, 7;,
    3;11, 25, 5;,
    3;25, 29, 5;,
    3;3, 30, 9;,
    3;30, 31, 9;,
    3;27, 32, 3;,
    3;32, 30, 3;,
    3;9, 31, 14;,
    3;31, 33, 14;,
    3;34, 35, 36;,
    3;35, 37, 36;,
    3;38, 39, 40;,
    3;39, 41, 40;,
    3;40, 41, 34;,
    3;41, 35, 34;,
    3;36, 37, 42;,
    3;37, 43, 42;,
    3;44, 45, 38;,
    3;45, 39, 38;,
    3;46, 47, 44;,
    3;47, 45, 44;,
    3;48, 42, 49;,
    3;42, 43, 49;,
    3;49, 43, 50;,
    3;43, 51, 50;,
    3;52, 53, 54;,
    3;53, 55, 54;,
    3;50, 51, 56;,
    3;51, 57, 56;,
    3;56, 57, 52;,
    3;57, 53, 52;,
    3;58, 46, 59;,
    3;46, 44, 59;,
    3;60, 34, 61;,
    3;34, 36, 61;,
    3;62, 40, 60;,
    3;40, 34, 60;,
    3;63, 38, 62;,
    3;38, 40, 62;,
    3;59, 44, 63;,
    3;44, 38, 63;,
    3;64, 36, 65;,
    3;36, 42, 65;,
    3;66, 61, 64;,
    3;61, 36, 64;,
    3;65, 42, 67;,
    3;42, 48, 67;,
    3;68, 69, 70;,
    3;69, 71, 70;,
    3;72, 73, 74;,
    3;73, 75, 74;,
    3;76, 77, 72;,
    3;77, 73, 72;,
    3;74, 75, 78;,
    3;75, 79, 78;,
    3;80, 81, 82;,
    3;81, 77, 82;,
    3;83, 71, 80;,
    3;71, 81, 80;,
    3;84, 85, 86;,
    3;85, 87, 86;,
    3;88, 89, 90;,
    3;89, 91, 90;,
    3;86, 87, 92;,
    3;87, 93, 92;,
    3;92, 93, 88;,
    3;93, 89, 88;,
    3;94, 95, 96;,
    3;95, 97, 96;,
    3;98, 99, 100;,
    3;99, 101, 100;,
    3;102, 103, 98;,
    3;103, 99, 98;,
    3;104, 105, 106;,
    3;105, 107, 106;,
    3;108, 109, 110;,
    3;109, 111, 110;,
    3;106, 107, 112;,
    3;107, 113, 112;,
    3;112, 113, 102;,
    3;113, 103, 102;,
    3;114, 115, 116;,
    3;115, 117, 116;,
    3;116, 117, 118;,
    3;117, 119, 118;,
    3;120, 121, 122;,
    3;121, 123, 122;,
    3;124, 125, 126;,
    3;125, 127, 126;,
    3;126, 127, 120;,
    3;127, 121, 120;,
    3;122, 123, 128;,
    3;123, 129, 128;,
    3;130, 131, 124;,
    3;131, 125, 124;,
    3;13, 12, 130;,
    3;12, 131, 130;,
    3;132, 128, 133;,
    3;128, 129, 133;,
    3;133, 129, 134;,
    3;129, 135, 134;,
    3;136, 137, 21;,
    3;137, 20, 21;,
    3;134, 135, 138;,
    3;135, 139, 138;,
    3;138, 139, 136;,
    3;139, 137, 136;,
    3;24, 13, 140;,
    3;13, 130, 140;,
    3;141, 120, 142;,
    3;120, 122, 142;,
    3;143, 126, 141;,
    3;126, 120, 141;,
    3;144, 124, 143;,
    3;124, 126, 143;,
    3;140, 130, 144;,
    3;130, 124, 144;,
    3;145, 122, 146;,
    3;122, 128, 146;,
    3;147, 142, 145;,
    3;142, 122, 145;,
    3;146, 128, 148;,
    3;128, 132, 148;,
    3;149, 150, 151;,
    3;150, 152, 151;,
    3;153, 154, 155;,
    3;154, 156, 155;,
    3;155, 156, 149;,
    3;156, 150, 149;,
    3;151, 152, 157;,
    3;152, 158, 157;,
    3;159, 160, 153;,
    3;160, 154, 153;,
    3;47, 46, 159;,
    3;46, 160, 159;,
    3;158, 161, 157;,
    3;161, 162, 157;,
    3;157, 162, 163;,
    3;162, 164, 163;,
    3;165, 166, 55;,
    3;166, 54, 55;,
    3;163, 164, 167;,
    3;164, 168, 167;,
    3;167, 168, 165;,
    3;168, 166, 165;,
    3;46, 58, 160;,
    3;58, 169, 160;,
    3;150, 170, 152;,
    3;170, 171, 152;,
    3;156, 172, 150;,
    3;172, 170, 150;,
    3;154, 173, 156;,
    3;173, 172, 156;,
    3;160, 169, 154;,
    3;169, 173, 154;,
    3;152, 174, 158;,
    3;174, 175, 158;,
    3;171, 176, 152;,
    3;176, 174, 152;,
    3;158, 175, 161;,
    3;175, 177, 161;,
    3;178, 179, 180;,
    3;179, 181, 180;,
    3;182, 183, 184;,
    3;183, 185, 184;,
    3;186, 187, 182;,
    3;187, 183, 182;,
    3;184, 185, 188;,
    3;185, 189, 188;,
    3;190, 191, 186;,
    3;191, 187, 186;,
    3;180, 181, 190;,
    3;181, 191, 190;,
    3;192, 193, 194;,
    3;193, 195, 194;,
    3;196, 197, 91;,
    3;197, 90, 91;,
    3;194, 195, 198;,
    3;195, 199, 198;,
    3;198, 199, 196;,
    3;199, 197, 196;,
    3;200, 201, 202;,
    3;201, 203, 202;,
    3;204, 205, 200;,
    3;205, 201, 200;,
    3;202, 203, 206;,
    3;203, 207, 206;,
    3;208, 209, 204;,
    3;209, 205, 204;,
    3;95, 94, 210;,
    3;94, 211, 210;,
    3;210, 211, 208;,
    3;211, 209, 208;,
    3;212, 213, 101;,
    3;213, 100, 101;,
    3;214, 215, 212;,
    3;215, 213, 212;,
    3;216, 217, 218;,
    3;217, 219, 218;,
    3;220, 221, 222;,
    3;221, 223, 222;,
    3;218, 219, 224;,
    3;219, 225, 224;,
    3;224, 225, 214;,
    3;225, 215, 214;,
    3;226, 227, 228;,
    3;227, 229, 228;,
    3;230, 231, 226;,
    3;231, 227, 226;,
    3;228, 229, 232;,
    3;229, 233, 232;,
    3;234, 169, 235;,
    3;169, 58, 235;,
    3;235, 58, 236;,
    3;58, 59, 236;,
    3;237, 173, 234;,
    3;173, 169, 234;,
    3;236, 59, 238;,
    3;59, 63, 238;,
    3;239, 172, 237;,
    3;172, 173, 237;,
    3;238, 63, 240;,
    3;63, 62, 240;,
    3;241, 170, 239;,
    3;170, 172, 239;,
    3;240, 62, 242;,
    3;62, 60, 242;,
    3;243, 171, 241;,
    3;171, 170, 241;,
    3;242, 60, 244;,
    3;60, 61, 244;,
    3;245, 246, 247;,
    3;246, 248, 247;,
    3;249, 250, 251;,
    3;250, 252, 251;,
    3;253, 24, 254;,
    3;24, 140, 254;,
    3;255, 25, 253;,
    3;25, 24, 253;,
    3;254, 140, 256;,
    3;140, 144, 256;,
    3;257, 29, 255;,
    3;29, 25, 255;,
    3;256, 144, 258;,
    3;144, 143, 258;,
    3;259, 28, 257;,
    3;28, 29, 257;,
    3;258, 143, 260;,
    3;143, 141, 260;,
    3;261, 26, 259;,
    3;26, 28, 259;,
    3;260, 141, 262;,
    3;141, 142, 262;,
    3;263, 27, 261;,
    3;27, 26, 261;;

   MeshNormals {
    264;
    0.000000; 0.000000; -1.000000;,
    0.000000; 0.000000; -1.000000;,
    0.000000; 0.000000; -1.000000;,
    0.000000; 0.000000; -1.000000;,
    0.000000; 0.000000; -1.000000;,
    0.000000; 0.000000; -1.000000;,
    0.000000; 0.000000; -1.000000;,
    0.000000; 0.000000; -1.000000;,
    0.000000; 0.000000; -1.000000;,
    0.000000; 0.000000; -1.000000;,
    0.000000; 0.000000; -1.000000;,
    0.000000; 0.000000; -1.000000;,
    0.000000; 0.000000; -1.000000;,
    0.000000; 0.000000; -1.000000;,
    0.000000; 0.000000; -1.000000;,
    0.000000; 0.000000; -1.000000;,
    0.000000; 0.000000; -1.000000;,
    0.000000; 0.000000; -1.000000;,
    0.000000; 0.000000; -1.000000;,
    0.000000; 0.000000; -1.000000;,
    0.000000; 0.000000; -1.000000;,
    0.000000; 0.000000; -1.000000;,
    0.000000; 0.000000; -1.000000;,
    0.000000; 0.000000; -1.000000;,
    0.000000; 0.000000; -1.000000;,
    0.000000; 0.000000; -1.000000;,
    0.000000; 0.000000; -1.000000;,
    0.000000; 0.000000; -1.000000;,
    0.000000; 0.000000; -1.000000;,
    0.000000; 0.000000; -1.000000;,
    0.000000; 0.000000; -1.000000;,
    0.000000; 0.000000; -1.000000;,
    0.000000; 0.000000; -1.000000;,
    0.000000; 0.000000; -1.000000;,
    0.000000; 0.000000; 1.000000;,
    0.000000; 0.000000; 1.000000;,
    0.000000; 0.000000; 1.000000;,
    0.000000; 0.000000; 1.000000;,
    0.000000; 0.000000; 1.000000;,
    0.000000; 0.000000; 1.000000;,
    0.000000; 0.000000; 1.000000;,
    0.000000; 0.000000; 1.000000;,
    0.000000; 0.000000; 1.000000;,
    0.000000; 0.000000; 1.000000;,
    0.000000; 0.000000; 1.000000;,
    0.000000; 0.000000; 1.000000;,
    0.000000; 0.000000; 1.000000;,
    0.000000; 0.000000; 1.000000;,
    0.000000; 0.000000; 1.000000;,
    0.000000; 0.000000; 1.000000;,
    0.000000; 0.000000; 1.000000;,
    0.000000; 0.000000; 1.000000;,
    0.000000; 0.000000; 1.000000;,
    0.000000; 0.000000; 1.000000;,
    0.000000; 0.000000; 1.000000;,
    0.000000; 0.000000; 1.000000;,
    0.000000; 0.000000; 1.000000;,
    0.000000; 0.000000; 1.000000;,
    0.000000; 0.000000; 1.000000;,
    0.000000; 0.000000; 1.000000;,
    0.000000; 0.000000; 1.000000;,
    0.000000; 0.000000; 1.000000;,
    0.000000; 0.000000; 1.000000;,
    0.000000; 0.000000; 1.000000;,
    0.000000; 0.000000; 1.000000;,
    0.000000; 0.000000; 1.000000;,
    0.000000; 0.000000; 1.000000;,
    0.000000; 0.000000; 1.000000;,
    -0.123215; -0.992380; 0.000000;,
    -0.123215; -0.992380; 0.000000;,
    -0.123215; -0.992380; 0.000000;,
    -0.226501; -0.974011; 0.000000;,
    -0.746197; -0.665725; 0.000000;,
    -0.746197; -0.665725; 0.000000;,
    -0.958580; -0.284823; 0.000000;,
    -0.958580; -0.284823; 0.000000;,
    -0.645825; -0.763486; 0.000000;,
    -0.584130; -0.811660; 0.000000;,
    -0.999944; 0.010594; 0.000000;,
    -0.999944; 0.010594; 0.000000;,
    -0.425465; -0.904975; 0.000000;,
    -0.425465; -0.904975; 0.000000;,
    -0.518856; -0.854862; 0.000000;,
    -0.327295; -0.944922; 0.000000;,
    0.000000; 1.000000; 0.000000;,
    0.000000; 1.000000; 0.000000;,
    0.000000; 1.000000; 0.000000;,
    0.000000; 1.000000; 0.000000;,
    0.000000; 1.000000; 0.000000;,
    0.000000; 1.000000; 0.000000;,
    0.000000; 1.000000; 0.000000;,
    0.000000; 1.000000; 0.000000;,
    0.000000; 1.000000; 0.000000;,
    0.000000; 1.000000; 0.000000;,
    0.000000; -1.000000; 0.000000;,
    0.000000; -1.000000; 0.000000;,
    0.000000; -1.000000; 0.000000;,
    0.000000; -1.000000; 0.000000;,
    0.000000; 1.000000; 0.000000;,
    0.000000; 1.000000; 0.000000;,
    0.000000; 1.000000; 0.000000;,
    0.000000; 1.000000; 0.000000;,
    0.000000; 1.000000; 0.000000;,
    0.000000; 1.000000; 0.000000;,
    -0.000665; 1.000000; 0.000000;,
    -0.000665; 1.000000; 0.000000;,
    -0.000333; 1.000000; 0.000000;,
    -0.000333; 1.000000; 0.000000;,
    0.000000; 1.000000; 0.000000;,
    0.000000; 1.000000; 0.000000;,
    0.000000; 1.000000; 0.000000;,
    0.000000; 1.000000; 0.000000;,
    0.000000; 1.000000; 0.000000;,
    0.000000; 1.000000; 0.000000;,
    1.000000; 0.000000; 0.000000;,
    1.000000; 0.000000; 0.000000;,
    1.000000; 0.000000; 0.000000;,
    1.000000; 0.000000; 0.000000;,
    1.000000; 0.000000; 0.000000;,
    1.000000; 0.000000; 0.000000;,
    0.000000; 0.000000; -1.000000;,
    0.000000; 0.000000; -1.000000;,
    0.000000; 0.000000; -1.000000;,
    0.000000; 0.000000; -1.000000;,
    0.000000; 0.000000; -1.000000;,
    0.000000; 0.000000; -1.000000;,
    0.000000; 0.000000; -1.000000;,
    0.000000; 0.000000; -1.000000;,
    0.000000; 0.000000; -1.000000;,
    0.000000; 0.000000; -1.000000;,
    0.000000; 0.000000; -1.000000;,
    0.000000; 0.000000; -1.000000;,
    0.000000; 0.000000; -1.000000;,
    0.000000; 0.000000; -1.000000;,
    0.000000; 0.000000; -1.000000;,
    0.000000; 0.000000; -1.000000;,
    0.000000; 0.000000; -1.000000;,
    0.000000; 0.000000; -1.000000;,
    0.000000; 0.000000; -1.000000;,
    0.000000; 0.000000; -1.000000;,
    0.000000; 0.000000; -1.000000;,
    0.000000; 0.000000; -1.000000;,
    0.000000; 0.000000; -1.000000;,
    0.000000; 0.000000; -1.000000;,
    0.000000; 0.000000; -1.000000;,
    0.000000; 0.000000; -1.000000;,
    0.000000; 0.000000; -1.000000;,
    0.000000; 0.000000; -1.000000;,
    0.000000; 0.000000; -1.000000;,
    0.000000; 0.000000; 1.000000;,
    0.000000; 0.000000; 1.000000;,
    0.000000; 0.000000; 1.000000;,
    0.000000; 0.000000; 1.000000;,
    0.000000; 0.000000; 1.000000;,
    0.000000; 0.000000; 1.000000;,
    0.000000; 0.000000; 1.000000;,
    0.000000; 0.000000; 1.000000;,
    0.000000; 0.000000; 1.000000;,
    0.000000; 0.000000; 1.000000;,
    0.000000; 0.000000; 1.000000;,
    0.000000; 0.000000; 1.000000;,
    0.000000; 0.000000; 1.000000;,
    0.000000; 0.000000; 1.000000;,
    0.000000; 0.000000; 1.000000;,
    0.000000; 0.000000; 1.000000;,
    0.000000; 0.000000; 1.000000;,
    0.000000; 0.000000; 1.000000;,
    0.000000; 0.000000; 1.000000;,
    0.000000; 0.000000; 1.000000;,
    0.000000; 0.000000; 1.000000;,
    0.000000; 0.000000; 1.000000;,
    0.000000; 0.000000; 1.000000;,
    0.000000; 0.000000; 1.000000;,
    0.000000; 0.000000; 1.000000;,
    0.000000; 0.000000; 1.000000;,
    0.000000; 0.000000; 1.000000;,
    0.000000; 0.000000; 1.000000;,
    0.000000; 0.000000; 1.000000;,
    0.123215; -0.992380; 0.000000;,
    0.123215; -0.992380; 0.000000;,
    0.226501; -0.974011; 0.000000;,
    0.226501; -0.974011; 0.000000;,
    0.746197; -0.665725; 0.000000;,
    0.746197; -0.665725; 0.000000;,
    0.958580; -0.284823; 0.000000;,
    0.958580; -0.284823; 0.000000;,
    0.584130; -0.811660; 0.000000;,
    0.584130; -0.811660; 0.000000;,
    0.999944; 0.010594; 0.000000;,
    0.999944; 0.010594; 0.000000;,
    0.425465; -0.904975; 0.000000;,
    0.425465; -0.904975; 0.000000;,
    0.000000; 1.000000; 0.000000;,
    0.000000; 1.000000; 0.000000;,
    0.000000; 1.000000; 0.000000;,
    0.000000; 1.000000; 0.000000;,
    0.000000; 1.000000; 0.000000;,
    0.000000; 1.000000; 0.000000;,
    0.000000; 1.000000; 0.000000;,
    0.000000; 1.000000; 0.000000;,
    0.000000; -1.000000; 0.000000;,
    0.000000; -1.000000; 0.000000;,
    0.000000; -1.000000; 0.000000;,
    0.000000; -1.000000; 0.000000;,
    0.000000; -1.000000; 0.000000;,
    0.000000; -1.000000; 0.000000;,
    0.000000; -1.000000; 0.000000;,
    0.000000; -1.000000; 0.000000;,
    0.000000; -1.000000; 0.000000;,
    0.000000; -1.000000; 0.000000;,
    0.000000; -1.000000; 0.000000;,
    0.000000; -1.000000; 0.000000;,
    0.000000; 1.000000; 0.000000;,
    0.000000; 1.000000; 0.000000;,
    0.000000; 1.000000; 0.000000;,
    0.000000; 1.000000; 0.000000;,
    0.000665; 1.000000; 0.000000;,
    0.000665; 1.000000; 0.000000;,
    0.000333; 1.000000; 0.000000;,
    0.000333; 1.000000; 0.000000;,
    0.000000; 1.000000; 0.000000;,
    0.000000; 1.000000; 0.000000;,
    0.000000; 1.000000; 0.000000;,
    0.000000; 1.000000; 0.000000;,
    0.000000; 1.000000; 0.000000;,
    0.000000; 1.000000; 0.000000;,
    -1.000000; 0.000000; 0.000000;,
    -1.000000; 0.000000; 0.000000;,
    -1.000000; 0.000000; 0.000000;,
    -1.000000; 0.000000; 0.000000;,
    -1.000000; 0.000000; 0.000000;,
    -1.000000; 0.000000; 0.000000;,
    -1.000000; 0.000000; 0.000000;,
    -1.000000; 0.000000; 0.000000;,
    0.000000; 0.000000; 1.000000;,
    0.000000; 0.000000; 1.000000;,
    0.000000; 0.000000; 1.000000;,
    0.000000; 0.000000; 1.000000;,
    0.000000; 0.000000; 1.000000;,
    0.000000; 0.000000; 1.000000;,
    0.000000; 0.000000; 1.000000;,
    0.000000; 0.000000; 1.000000;,
    0.000000; 0.000000; 1.000000;,
    0.000000; 0.000000; 1.000000;,
    0.000000; 0.000000; 1.000000;,
    -1.000000; 0.000000; 0.000000;,
    -1.000000; 0.000000; 0.000000;,
    -1.000000; 0.000000; 0.000000;,
    -1.000000; 0.000000; 0.000000;,
    1.000000; 0.000000; 0.000000;,
    1.000000; 0.000000; 0.000000;,
    1.000000; 0.000000; 0.000000;,
    1.000000; 0.000000; 0.000000;,
    0.000000; 0.000000; -1.000000;,
    0.000000; 0.000000; -1.000000;,
    0.000000; 0.000000; -1.000000;,
    0.000000; 0.000000; -1.000000;,
    0.000000; 0.000000; -1.000000;,
    0.000000; 0.000000; -1.000000;,
    0.000000; 0.000000; -1.000000;,
    0.000000; 0.000000; -1.000000;,
    0.000000; 0.000000; -1.000000;,
    0.000000; 0.000000; -1.000000;,
    0.000000; 0.000000; -1.000000;;
    284;
    3;0, 1, 2;,
    3;1, 3, 2;,
    3;4, 5, 6;,
    3;5, 7, 6;,
    3;6, 7, 0;,
    3;7, 1, 0;,
    3;2, 3, 8;,
    3;3, 9, 8;,
    3;10, 11, 4;,
    3;11, 5, 4;,
    3;12, 13, 10;,
    3;13, 11, 10;,
    3;9, 14, 8;,
    3;14, 15, 8;,
    3;8, 15, 16;,
    3;15, 17, 16;,
    3;18, 19, 20;,
    3;19, 21, 20;,
    3;16, 17, 22;,
    3;17, 23, 22;,
    3;22, 23, 18;,
    3;23, 19, 18;,
    3;13, 24, 11;,
    3;24, 25, 11;,
    3;1, 26, 3;,
    3;26, 27, 3;,
    3;7, 28, 1;,
    3;28, 26, 1;,
    3;5, 29, 7;,
    3;29, 28, 7;,
    3;11, 25, 5;,
    3;25, 29, 5;,
    3;3, 30, 9;,
    3;30, 31, 9;,
    3;27, 32, 3;,
    3;32, 30, 3;,
    3;9, 31, 14;,
    3;31, 33, 14;,
    3;34, 35, 36;,
    3;35, 37, 36;,
    3;38, 39, 40;,
    3;39, 41, 40;,
    3;40, 41, 34;,
    3;41, 35, 34;,
    3;36, 37, 42;,
    3;37, 43, 42;,
    3;44, 45, 38;,
    3;45, 39, 38;,
    3;46, 47, 44;,
    3;47, 45, 44;,
    3;48, 42, 49;,
    3;42, 43, 49;,
    3;49, 43, 50;,
    3;43, 51, 50;,
    3;52, 53, 54;,
    3;53, 55, 54;,
    3;50, 51, 56;,
    3;51, 57, 56;,
    3;56, 57, 52;,
    3;57, 53, 52;,
    3;58, 46, 59;,
    3;46, 44, 59;,
    3;60, 34, 61;,
    3;34, 36, 61;,
    3;62, 40, 60;,
    3;40, 34, 60;,
    3;63, 38, 62;,
    3;38, 40, 62;,
    3;59, 44, 63;,
    3;44, 38, 63;,
    3;64, 36, 65;,
    3;36, 42, 65;,
    3;66, 61, 64;,
    3;61, 36, 64;,
    3;65, 42, 67;,
    3;42, 48, 67;,
    3;68, 69, 70;,
    3;69, 71, 70;,
    3;72, 73, 74;,
    3;73, 75, 74;,
    3;76, 77, 72;,
    3;77, 73, 72;,
    3;74, 75, 78;,
    3;75, 79, 78;,
    3;80, 81, 82;,
    3;81, 77, 82;,
    3;83, 71, 80;,
    3;71, 81, 80;,
    3;84, 85, 86;,
    3;85, 87, 86;,
    3;88, 89, 90;,
    3;89, 91, 90;,
    3;86, 87, 92;,
    3;87, 93, 92;,
    3;92, 93, 88;,
    3;93, 89, 88;,
    3;94, 95, 96;,
    3;95, 97, 96;,
    3;98, 99, 100;,
    3;99, 101, 100;,
    3;102, 103, 98;,
    3;103, 99, 98;,
    3;104, 105, 106;,
    3;105, 107, 106;,
    3;108, 109, 110;,
    3;109, 111, 110;,
    3;106, 107, 112;,
    3;107, 113, 112;,
    3;112, 113, 102;,
    3;113, 103, 102;,
    3;114, 115, 116;,
    3;115, 117, 116;,
    3;116, 117, 118;,
    3;117, 119, 118;,
    3;120, 121, 122;,
    3;121, 123, 122;,
    3;124, 125, 126;,
    3;125, 127, 126;,
    3;126, 127, 120;,
    3;127, 121, 120;,
    3;122, 123, 128;,
    3;123, 129, 128;,
    3;130, 131, 124;,
    3;131, 125, 124;,
    3;13, 12, 130;,
    3;12, 131, 130;,
    3;132, 128, 133;,
    3;128, 129, 133;,
    3;133, 129, 134;,
    3;129, 135, 134;,
    3;136, 137, 21;,
    3;137, 20, 21;,
    3;134, 135, 138;,
    3;135, 139, 138;,
    3;138, 139, 136;,
    3;139, 137, 136;,
    3;24, 13, 140;,
    3;13, 130, 140;,
    3;141, 120, 142;,
    3;120, 122, 142;,
    3;143, 126, 141;,
    3;126, 120, 141;,
    3;144, 124, 143;,
    3;124, 126, 143;,
    3;140, 130, 144;,
    3;130, 124, 144;,
    3;145, 122, 146;,
    3;122, 128, 146;,
    3;147, 142, 145;,
    3;142, 122, 145;,
    3;146, 128, 148;,
    3;128, 132, 148;,
    3;149, 150, 151;,
    3;150, 152, 151;,
    3;153, 154, 155;,
    3;154, 156, 155;,
    3;155, 156, 149;,
    3;156, 150, 149;,
    3;151, 152, 157;,
    3;152, 158, 157;,
    3;159, 160, 153;,
    3;160, 154, 153;,
    3;47, 46, 159;,
    3;46, 160, 159;,
    3;158, 161, 157;,
    3;161, 162, 157;,
    3;157, 162, 163;,
    3;162, 164, 163;,
    3;165, 166, 55;,
    3;166, 54, 55;,
    3;163, 164, 167;,
    3;164, 168, 167;,
    3;167, 168, 165;,
    3;168, 166, 165;,
    3;46, 58, 160;,
    3;58, 169, 160;,
    3;150, 170, 152;,
    3;170, 171, 152;,
    3;156, 172, 150;,
    3;172, 170, 150;,
    3;154, 173, 156;,
    3;173, 172, 156;,
    3;160, 169, 154;,
    3;169, 173, 154;,
    3;152, 174, 158;,
    3;174, 175, 158;,
    3;171, 176, 152;,
    3;176, 174, 152;,
    3;158, 175, 161;,
    3;175, 177, 161;,
    3;178, 179, 180;,
    3;179, 181, 180;,
    3;182, 183, 184;,
    3;183, 185, 184;,
    3;186, 187, 182;,
    3;187, 183, 182;,
    3;184, 185, 188;,
    3;185, 189, 188;,
    3;190, 191, 186;,
    3;191, 187, 186;,
    3;180, 181, 190;,
    3;181, 191, 190;,
    3;192, 193, 194;,
    3;193, 195, 194;,
    3;196, 197, 91;,
    3;197, 90, 91;,
    3;194, 195, 198;,
    3;195, 199, 198;,
    3;198, 199, 196;,
    3;199, 197, 196;,
    3;200, 201, 202;,
    3;201, 203, 202;,
    3;204, 205, 200;,
    3;205, 201, 200;,
    3;202, 203, 206;,
    3;203, 207, 206;,
    3;208, 209, 204;,
    3;209, 205, 204;,
    3;95, 94, 210;,
    3;94, 211, 210;,
    3;210, 211, 208;,
    3;211, 209, 208;,
    3;212, 213, 101;,
    3;213, 100, 101;,
    3;214, 215, 212;,
    3;215, 213, 212;,
    3;216, 217, 218;,
    3;217, 219, 218;,
    3;220, 221, 222;,
    3;221, 223, 222;,
    3;218, 219, 224;,
    3;219, 225, 224;,
    3;224, 225, 214;,
    3;225, 215, 214;,
    3;226, 227, 228;,
    3;227, 229, 228;,
    3;230, 231, 226;,
    3;231, 227, 226;,
    3;228, 229, 232;,
    3;229, 233, 232;,
    3;234, 169, 235;,
    3;169, 58, 235;,
    3;235, 58, 236;,
    3;58, 59, 236;,
    3;237, 173, 234;,
    3;173, 169, 234;,
    3;236, 59, 238;,
    3;59, 63, 238;,
    3;239, 172, 237;,
    3;172, 173, 237;,
    3;238, 63, 240;,
    3;63, 62, 240;,
    3;241, 170, 239;,
    3;170, 172, 239;,
    3;240, 62, 242;,
    3;62, 60, 242;,
    3;243, 171, 241;,
    3;171, 170, 241;,
    3;242, 60, 244;,
    3;60, 61, 244;,
    3;245, 246, 247;,
    3;246, 248, 247;,
    3;249, 250, 251;,
    3;250, 252, 251;,
    3;253, 24, 254;,
    3;24, 140, 254;,
    3;255, 25, 253;,
    3;25, 24, 253;,
    3;254, 140, 256;,
    3;140, 144, 256;,
    3;257, 29, 255;,
    3;29, 25, 255;,
    3;256, 144, 258;,
    3;144, 143, 258;,
    3;259, 28, 257;,
    3;28, 29, 257;,
    3;258, 143, 260;,
    3;143, 141, 260;,
    3;261, 26, 259;,
    3;26, 28, 259;,
    3;260, 141, 262;,
    3;141, 142, 262;,
    3;263, 27, 261;,
    3;27, 26, 261;;
   }

   MeshTextureCoords {
    264;
    0.440215; 0.738446;,
    0.420859; 0.719340;,
    0.434211; 0.749403;,
    0.407937; 0.749562;,
    0.483099; 0.702357;,
    0.469462; 0.674777;,
    0.455308; 0.722893;,
    0.437186; 0.697463;,
    0.435925; 0.960763;,
    0.407937; 0.960763;,
    0.509089; 0.691394;,
    0.499173; 0.662248;,
    0.530944; 0.688091;,
    0.530944; 0.658627;,
    0.407937; 0.995398;,
    0.435925; 0.995398;,
    0.452397; 0.960763;,
    0.452397; 0.995398;,
    0.498648; 0.960763;,
    0.498648; 0.995398;,
    0.530815; 0.960763;,
    0.530815; 0.995398;,
    0.472408; 0.960763;,
    0.472408; 0.995398;,
    0.530944; 0.629006;,
    0.499173; 0.629006;,
    0.420859; 0.629004;,
    0.407937; 0.629003;,
    0.438208; 0.629005;,
    0.469462; 0.629006;,
    0.225412; 0.749562;,
    0.225412; 0.960763;,
    0.225412; 0.629003;,
    0.225412; 0.995398;,
    0.420859; 0.719340;,
    0.440215; 0.738446;,
    0.407937; 0.749562;,
    0.434211; 0.749403;,
    0.469462; 0.674777;,
    0.483099; 0.702357;,
    0.437186; 0.697463;,
    0.455308; 0.722893;,
    0.407937; 0.960763;,
    0.435925; 0.960763;,
    0.499173; 0.662248;,
    0.509089; 0.691394;,
    0.530944; 0.658627;,
    0.530944; 0.688091;,
    0.407937; 0.995398;,
    0.435925; 0.995398;,
    0.452397; 0.995398;,
    0.452397; 0.960763;,
    0.498648; 0.995398;,
    0.498648; 0.960763;,
    0.531074; 0.995398;,
    0.530815; 0.960763;,
    0.472408; 0.995398;,
    0.472408; 0.960763;,
    0.530944; 0.629006;,
    0.499173; 0.629006;,
    0.420859; 0.629004;,
    0.407937; 0.629003;,
    0.438208; 0.629005;,
    0.469462; 0.629006;,
    0.225412; 0.749562;,
    0.225412; 0.960763;,
    0.225412; 0.629003;,
    0.225412; 0.995398;,
    0.529816; 0.749350;,
    0.529745; 0.769808;,
    0.509680; 0.750598;,
    0.516001; 0.771981;,
    0.460287; 0.789844;,
    0.472703; 0.801668;,
    0.452245; 0.812245;,
    0.469348; 0.811847;,
    0.466975; 0.781120;,
    0.481751; 0.791758;,
    0.452490; 0.949765;,
    0.470535; 0.949449;,
    0.489620; 0.757132;,
    0.499500; 0.778883;,
    0.466949; 0.781120;,
    0.509806; 0.750724;,
    0.626149; 0.158789;,
    0.626149; 0.117228;,
    0.596680; 0.158789;,
    0.596680; 0.117228;,
    0.513931; 0.158789;,
    0.513931; 0.117228;,
    0.456380; 0.158789;,
    0.456380; 0.117228;,
    0.560877; 0.158789;,
    0.560877; 0.117228;,
    0.538197; 0.193942;,
    0.538489; 0.228060;,
    0.574867; 0.193942;,
    0.574867; 0.228060;,
    0.708836; 0.297021;,
    0.708836; 0.331139;,
    0.744766; 0.297021;,
    0.744766; 0.331139;,
    0.675234; 0.297021;,
    0.675234; 0.331139;,
    0.605654; 0.297021;,
    0.605654; 0.331139;,
    0.620268; 0.297021;,
    0.620268; 0.331139;,
    0.677455; 0.331380;,
    0.677455; 0.365498;,
    0.883879; 0.331380;,
    0.883879; 0.365498;,
    0.639889; 0.297021;,
    0.639889; 0.331139;,
    0.589040; 0.262661;,
    0.589040; 0.296779;,
    0.771907; 0.262662;,
    0.771907; 0.296779;,
    0.883879; 0.262661;,
    0.883879; 0.296779;,
    0.641030; 0.719340;,
    0.621673; 0.738446;,
    0.653952; 0.749562;,
    0.629868; 0.749403;,
    0.592426; 0.674777;,
    0.580697; 0.700722;,
    0.623680; 0.698144;,
    0.608487; 0.721258;,
    0.653952; 0.961758;,
    0.628154; 0.961758;,
    0.562715; 0.662248;,
    0.552799; 0.691394;,
    0.653952; 0.995398;,
    0.628154; 0.995398;,
    0.609501; 0.995398;,
    0.609501; 0.960763;,
    0.563240; 0.995398;,
    0.563240; 0.960763;,
    0.589480; 0.995398;,
    0.589480; 0.960763;,
    0.562715; 0.629006;,
    0.641030; 0.629004;,
    0.653952; 0.629003;,
    0.623680; 0.629005;,
    0.592426; 0.629006;,
    0.836477; 0.749562;,
    0.836477; 0.960763;,
    0.836477; 0.629003;,
    0.836477; 0.995398;,
    0.621673; 0.738446;,
    0.641030; 0.719340;,
    0.629868; 0.749403;,
    0.653952; 0.749562;,
    0.580697; 0.700722;,
    0.592426; 0.674777;,
    0.608487; 0.721258;,
    0.623680; 0.698144;,
    0.628154; 0.961758;,
    0.653952; 0.961758;,
    0.552799; 0.691394;,
    0.562715; 0.662248;,
    0.653952; 0.995398;,
    0.628154; 0.995398;,
    0.609501; 0.960763;,
    0.609501; 0.995398;,
    0.563240; 0.960763;,
    0.563240; 0.995398;,
    0.589480; 0.960763;,
    0.589480; 0.995398;,
    0.562715; 0.629006;,
    0.641030; 0.629004;,
    0.653952; 0.629003;,
    0.623680; 0.629005;,
    0.592426; 0.629006;,
    0.836477; 0.749562;,
    0.836477; 0.960763;,
    0.836477; 0.629003;,
    0.836477; 0.995398;,
    0.530581; 0.643998;,
    0.530552; 0.687970;,
    0.567986; 0.652731;,
    0.552973; 0.690982;,
    0.662196; 0.723230;,
    0.621301; 0.738324;,
    0.672104; 0.740190;,
    0.629586; 0.749563;,
    0.646908; 0.692930;,
    0.608465; 0.720828;,
    0.672041; 0.961008;,
    0.627484; 0.961713;,
    0.617349; 0.672159;,
    0.580541; 0.700603;,
    0.286149; 0.117228;,
    0.286149; 0.158789;,
    0.315602; 0.117228;,
    0.315602; 0.158789;,
    0.398367; 0.117228;,
    0.398367; 0.158789;,
    0.351421; 0.117228;,
    0.351421; 0.158789;,
    0.430884; 0.228060;,
    0.430884; 0.193942;,
    0.399230; 0.228060;,
    0.399230; 0.193942;,
    0.449501; 0.228060;,
    0.449501; 0.193942;,
    0.192807; 0.228060;,
    0.192807; 0.193942;,
    0.472143; 0.228060;,
    0.472143; 0.193942;,
    0.501819; 0.228060;,
    0.501819; 0.193942;,
    0.780697; 0.331139;,
    0.780697; 0.297021;,
    0.814298; 0.331139;,
    0.814298; 0.297021;,
    0.883879; 0.331139;,
    0.883879; 0.297021;,
    0.869265; 0.331139;,
    0.869265; 0.297021;,
    0.883879; 0.399858;,
    0.883879; 0.365740;,
    0.677456; 0.399858;,
    0.677456; 0.365740;,
    0.849644; 0.331139;,
    0.849644; 0.297021;,
    0.589040; 0.228301;,
    0.589040; 0.262419;,
    0.771907; 0.228301;,
    0.771907; 0.262419;,
    0.551690; 0.228301;,
    0.551690; 0.262419;,
    0.883879; 0.228301;,
    0.883879; 0.262419;,
    0.562715; 0.522857;,
    0.530944; 0.522857;,
    0.499173; 0.522857;,
    0.592426; 0.522857;,
    0.469462; 0.522857;,
    0.623680; 0.522856;,
    0.438208; 0.522856;,
    0.641030; 0.522855;,
    0.420859; 0.522855;,
    0.653952; 0.522853;,
    0.407937; 0.522853;,
    0.883879; 0.400100;,
    0.785291; 0.400100;,
    0.883879; 0.434217;,
    0.785291; 0.434217;,
    0.192466; 0.193942;,
    0.093879; 0.193942;,
    0.192466; 0.228060;,
    0.093879; 0.228060;,
    0.530944; 0.522857;,
    0.562715; 0.522857;,
    0.499173; 0.522857;,
    0.592426; 0.522857;,
    0.469462; 0.522857;,
    0.623680; 0.522856;,
    0.438208; 0.522856;,
    0.641030; 0.522855;,
    0.420859; 0.522855;,
    0.653952; 0.522853;,
    0.407937; 0.522853;;
   }

   MeshVertexColors {
    264;
    0; 1.000000; 1.000000; 1.000000; 1.000000;,
    1; 1.000000; 1.000000; 1.000000; 1.000000;,
    2; 1.000000; 1.000000; 1.000000; 1.000000;,
    3; 1.000000; 1.000000; 1.000000; 1.000000;,
    4; 1.000000; 1.000000; 1.000000; 1.000000;,
    5; 1.000000; 1.000000; 1.000000; 1.000000;,
    6; 1.000000; 1.000000; 1.000000; 1.000000;,
    7; 1.000000; 1.000000; 1.000000; 1.000000;,
    8; 1.000000; 1.000000; 1.000000; 1.000000;,
    9; 1.000000; 1.000000; 1.000000; 1.000000;,
    10; 1.000000; 1.000000; 1.000000; 1.000000;,
    11; 1.000000; 1.000000; 1.000000; 1.000000;,
    12; 1.000000; 1.000000; 1.000000; 1.000000;,
    13; 1.000000; 1.000000; 1.000000; 1.000000;,
    14; 1.000000; 1.000000; 1.000000; 1.000000;,
    15; 1.000000; 1.000000; 1.000000; 1.000000;,
    16; 1.000000; 1.000000; 1.000000; 1.000000;,
    17; 1.000000; 1.000000; 1.000000; 1.000000;,
    18; 1.000000; 1.000000; 1.000000; 1.000000;,
    19; 1.000000; 1.000000; 1.000000; 1.000000;,
    20; 1.000000; 1.000000; 1.000000; 1.000000;,
    21; 1.000000; 1.000000; 1.000000; 1.000000;,
    22; 1.000000; 1.000000; 1.000000; 1.000000;,
    23; 1.000000; 1.000000; 1.000000; 1.000000;,
    24; 1.000000; 1.000000; 1.000000; 1.000000;,
    25; 1.000000; 1.000000; 1.000000; 1.000000;,
    26; 1.000000; 1.000000; 1.000000; 1.000000;,
    27; 1.000000; 1.000000; 1.000000; 1.000000;,
    28; 1.000000; 1.000000; 1.000000; 1.000000;,
    29; 1.000000; 1.000000; 1.000000; 1.000000;,
    30; 1.000000; 1.000000; 1.000000; 1.000000;,
    31; 1.000000; 1.000000; 1.000000; 1.000000;,
    32; 1.000000; 1.000000; 1.000000; 1.000000;,
    33; 1.000000; 1.000000; 1.000000; 1.000000;,
    34; 1.000000; 1.000000; 1.000000; 1.000000;,
    35; 1.000000; 1.000000; 1.000000; 1.000000;,
    36; 1.000000; 1.000000; 1.000000; 1.000000;,
    37; 1.000000; 1.000000; 1.000000; 1.000000;,
    38; 1.000000; 1.000000; 1.000000; 1.000000;,
    39; 1.000000; 1.000000; 1.000000; 1.000000;,
    40; 1.000000; 1.000000; 1.000000; 1.000000;,
    41; 1.000000; 1.000000; 1.000000; 1.000000;,
    42; 1.000000; 1.000000; 1.000000; 1.000000;,
    43; 1.000000; 1.000000; 1.000000; 1.000000;,
    44; 1.000000; 1.000000; 1.000000; 1.000000;,
    45; 1.000000; 1.000000; 1.000000; 1.000000;,
    46; 1.000000; 1.000000; 1.000000; 1.000000;,
    47; 1.000000; 1.000000; 1.000000; 1.000000;,
    48; 1.000000; 1.000000; 1.000000; 1.000000;,
    49; 1.000000; 1.000000; 1.000000; 1.000000;,
    50; 1.000000; 1.000000; 1.000000; 1.000000;,
    51; 1.000000; 1.000000; 1.000000; 1.000000;,
    52; 1.000000; 1.000000; 1.000000; 1.000000;,
    53; 1.000000; 1.000000; 1.000000; 1.000000;,
    54; 1.000000; 1.000000; 1.000000; 1.000000;,
    55; 1.000000; 1.000000; 1.000000; 1.000000;,
    56; 1.000000; 1.000000; 1.000000; 1.000000;,
    57; 1.000000; 1.000000; 1.000000; 1.000000;,
    58; 1.000000; 1.000000; 1.000000; 1.000000;,
    59; 1.000000; 1.000000; 1.000000; 1.000000;,
    60; 1.000000; 1.000000; 1.000000; 1.000000;,
    61; 1.000000; 1.000000; 1.000000; 1.000000;,
    62; 1.000000; 1.000000; 1.000000; 1.000000;,
    63; 1.000000; 1.000000; 1.000000; 1.000000;,
    64; 1.000000; 1.000000; 1.000000; 1.000000;,
    65; 1.000000; 1.000000; 1.000000; 1.000000;,
    66; 1.000000; 1.000000; 1.000000; 1.000000;,
    67; 1.000000; 1.000000; 1.000000; 1.000000;,
    68; 1.000000; 1.000000; 1.000000; 1.000000;,
    69; 1.000000; 1.000000; 1.000000; 1.000000;,
    70; 1.000000; 1.000000; 1.000000; 1.000000;,
    71; 1.000000; 1.000000; 1.000000; 1.000000;,
    72; 1.000000; 1.000000; 1.000000; 1.000000;,
    73; 1.000000; 1.000000; 1.000000; 1.000000;,
    74; 1.000000; 1.000000; 1.000000; 1.000000;,
    75; 1.000000; 1.000000; 1.000000; 1.000000;,
    76; 1.000000; 1.000000; 1.000000; 1.000000;,
    77; 1.000000; 1.000000; 1.000000; 1.000000;,
    78; 1.000000; 1.000000; 1.000000; 1.000000;,
    79; 1.000000; 1.000000; 1.000000; 1.000000;,
    80; 1.000000; 1.000000; 1.000000; 1.000000;,
    81; 1.000000; 1.000000; 1.000000; 1.000000;,
    82; 1.000000; 1.000000; 1.000000; 1.000000;,
    83; 1.000000; 1.000000; 1.000000; 1.000000;,
    84; 1.000000; 1.000000; 1.000000; 1.000000;,
    85; 1.000000; 1.000000; 1.000000; 1.000000;,
    86; 1.000000; 1.000000; 1.000000; 1.000000;,
    87; 1.000000; 1.000000; 1.000000; 1.000000;,
    88; 1.000000; 1.000000; 1.000000; 1.000000;,
    89; 1.000000; 1.000000; 1.000000; 1.000000;,
    90; 1.000000; 1.000000; 1.000000; 1.000000;,
    91; 1.000000; 1.000000; 1.000000; 1.000000;,
    92; 1.000000; 1.000000; 1.000000; 1.000000;,
    93; 1.000000; 1.000000; 1.000000; 1.000000;,
    94; 1.000000; 1.000000; 1.000000; 1.000000;,
    95; 1.000000; 1.000000; 1.000000; 1.000000;,
    96; 1.000000; 1.000000; 1.000000; 1.000000;,
    97; 1.000000; 1.000000; 1.000000; 1.000000;,
    98; 1.000000; 1.000000; 1.000000; 1.000000;,
    99; 1.000000; 1.000000; 1.000000; 1.000000;,
    100; 1.000000; 1.000000; 1.000000; 1.000000;,
    101; 1.000000; 1.000000; 1.000000; 1.000000;,
    102; 1.000000; 1.000000; 1.000000; 1.000000;,
    103; 1.000000; 1.000000; 1.000000; 1.000000;,
    104; 1.000000; 1.000000; 1.000000; 1.000000;,
    105; 1.000000; 1.000000; 1.000000; 1.000000;,
    106; 1.000000; 1.000000; 1.000000; 1.000000;,
    107; 1.000000; 1.000000; 1.000000; 1.000000;,
    108; 1.000000; 1.000000; 1.000000; 1.000000;,
    109; 1.000000; 1.000000; 1.000000; 1.000000;,
    110; 1.000000; 1.000000; 1.000000; 1.000000;,
    111; 1.000000; 1.000000; 1.000000; 1.000000;,
    112; 1.000000; 1.000000; 1.000000; 1.000000;,
    113; 1.000000; 1.000000; 1.000000; 1.000000;,
    114; 1.000000; 1.000000; 1.000000; 1.000000;,
    115; 1.000000; 1.000000; 1.000000; 1.000000;,
    116; 1.000000; 1.000000; 1.000000; 1.000000;,
    117; 1.000000; 1.000000; 1.000000; 1.000000;,
    118; 1.000000; 1.000000; 1.000000; 1.000000;,
    119; 1.000000; 1.000000; 1.000000; 1.000000;,
    120; 1.000000; 1.000000; 1.000000; 1.000000;,
    121; 1.000000; 1.000000; 1.000000; 1.000000;,
    122; 1.000000; 1.000000; 1.000000; 1.000000;,
    123; 1.000000; 1.000000; 1.000000; 1.000000;,
    124; 1.000000; 1.000000; 1.000000; 1.000000;,
    125; 1.000000; 1.000000; 1.000000; 1.000000;,
    126; 1.000000; 1.000000; 1.000000; 1.000000;,
    127; 1.000000; 1.000000; 1.000000; 1.000000;,
    128; 1.000000; 1.000000; 1.000000; 1.000000;,
    129; 1.000000; 1.000000; 1.000000; 1.000000;,
    130; 1.000000; 1.000000; 1.000000; 1.000000;,
    131; 1.000000; 1.000000; 1.000000; 1.000000;,
    132; 1.000000; 1.000000; 1.000000; 1.000000;,
    133; 1.000000; 1.000000; 1.000000; 1.000000;,
    134; 1.000000; 1.000000; 1.000000; 1.000000;,
    135; 1.000000; 1.000000; 1.000000; 1.000000;,
    136; 1.000000; 1.000000; 1.000000; 1.000000;,
    137; 1.000000; 1.000000; 1.000000; 1.000000;,
    138; 1.000000; 1.000000; 1.000000; 1.000000;,
    139; 1.000000; 1.000000; 1.000000; 1.000000;,
    140; 1.000000; 1.000000; 1.000000; 1.000000;,
    141; 1.000000; 1.000000; 1.000000; 1.000000;,
    142; 1.000000; 1.000000; 1.000000; 1.000000;,
    143; 1.000000; 1.000000; 1.000000; 1.000000;,
    144; 1.000000; 1.000000; 1.000000; 1.000000;,
    145; 1.000000; 1.000000; 1.000000; 1.000000;,
    146; 1.000000; 1.000000; 1.000000; 1.000000;,
    147; 1.000000; 1.000000; 1.000000; 1.000000;,
    148; 1.000000; 1.000000; 1.000000; 1.000000;,
    149; 1.000000; 1.000000; 1.000000; 1.000000;,
    150; 1.000000; 1.000000; 1.000000; 1.000000;,
    151; 1.000000; 1.000000; 1.000000; 1.000000;,
    152; 1.000000; 1.000000; 1.000000; 1.000000;,
    153; 1.000000; 1.000000; 1.000000; 1.000000;,
    154; 1.000000; 1.000000; 1.000000; 1.000000;,
    155; 1.000000; 1.000000; 1.000000; 1.000000;,
    156; 1.000000; 1.000000; 1.000000; 1.000000;,
    157; 1.000000; 1.000000; 1.000000; 1.000000;,
    158; 1.000000; 1.000000; 1.000000; 1.000000;,
    159; 1.000000; 1.000000; 1.000000; 1.000000;,
    160; 1.000000; 1.000000; 1.000000; 1.000000;,
    161; 1.000000; 1.000000; 1.000000; 1.000000;,
    162; 1.000000; 1.000000; 1.000000; 1.000000;,
    163; 1.000000; 1.000000; 1.000000; 1.000000;,
    164; 1.000000; 1.000000; 1.000000; 1.000000;,
    165; 1.000000; 1.000000; 1.000000; 1.000000;,
    166; 1.000000; 1.000000; 1.000000; 1.000000;,
    167; 1.000000; 1.000000; 1.000000; 1.000000;,
    168; 1.000000; 1.000000; 1.000000; 1.000000;,
    169; 1.000000; 1.000000; 1.000000; 1.000000;,
    170; 1.000000; 1.000000; 1.000000; 1.000000;,
    171; 1.000000; 1.000000; 1.000000; 1.000000;,
    172; 1.000000; 1.000000; 1.000000; 1.000000;,
    173; 1.000000; 1.000000; 1.000000; 1.000000;,
    174; 1.000000; 1.000000; 1.000000; 1.000000;,
    175; 1.000000; 1.000000; 1.000000; 1.000000;,
    176; 1.000000; 1.000000; 1.000000; 1.000000;,
    177; 1.000000; 1.000000; 1.000000; 1.000000;,
    178; 1.000000; 1.000000; 1.000000; 1.000000;,
    179; 1.000000; 1.000000; 1.000000; 1.000000;,
    180; 1.000000; 1.000000; 1.000000; 1.000000;,
    181; 1.000000; 1.000000; 1.000000; 1.000000;,
    182; 1.000000; 1.000000; 1.000000; 1.000000;,
    183; 1.000000; 1.000000; 1.000000; 1.000000;,
    184; 1.000000; 1.000000; 1.000000; 1.000000;,
    185; 1.000000; 1.000000; 1.000000; 1.000000;,
    186; 1.000000; 1.000000; 1.000000; 1.000000;,
    187; 1.000000; 1.000000; 1.000000; 1.000000;,
    188; 1.000000; 1.000000; 1.000000; 1.000000;,
    189; 1.000000; 1.000000; 1.000000; 1.000000;,
    190; 1.000000; 1.000000; 1.000000; 1.000000;,
    191; 1.000000; 1.000000; 1.000000; 1.000000;,
    192; 1.000000; 1.000000; 1.000000; 1.000000;,
    193; 1.000000; 1.000000; 1.000000; 1.000000;,
    194; 1.000000; 1.000000; 1.000000; 1.000000;,
    195; 1.000000; 1.000000; 1.000000; 1.000000;,
    196; 1.000000; 1.000000; 1.000000; 1.000000;,
    197; 1.000000; 1.000000; 1.000000; 1.000000;,
    198; 1.000000; 1.000000; 1.000000; 1.000000;,
    199; 1.000000; 1.000000; 1.000000; 1.000000;,
    200; 1.000000; 1.000000; 1.000000; 1.000000;,
    201; 1.000000; 1.000000; 1.000000; 1.000000;,
    202; 1.000000; 1.000000; 1.000000; 1.000000;,
    203; 1.000000; 1.000000; 1.000000; 1.000000;,
    204; 1.000000; 1.000000; 1.000000; 1.000000;,
    205; 1.000000; 1.000000; 1.000000; 1.000000;,
    206; 1.000000; 1.000000; 1.000000; 1.000000;,
    207; 1.000000; 1.000000; 1.000000; 1.000000;,
    208; 1.000000; 1.000000; 1.000000; 1.000000;,
    209; 1.000000; 1.000000; 1.000000; 1.000000;,
    210; 1.000000; 1.000000; 1.000000; 1.000000;,
    211; 1.000000; 1.000000; 1.000000; 1.000000;,
    212; 1.000000; 1.000000; 1.000000; 1.000000;,
    213; 1.000000; 1.000000; 1.000000; 1.000000;,
    214; 1.000000; 1.000000; 1.000000; 1.000000;,
    215; 1.000000; 1.000000; 1.000000; 1.000000;,
    216; 1.000000; 1.000000; 1.000000; 1.000000;,
    217; 1.000000; 1.000000; 1.000000; 1.000000;,
    218; 1.000000; 1.000000; 1.000000; 1.000000;,
    219; 1.000000; 1.000000; 1.000000; 1.000000;,
    220; 1.000000; 1.000000; 1.000000; 1.000000;,
    221; 1.000000; 1.000000; 1.000000; 1.000000;,
    222; 1.000000; 1.000000; 1.000000; 1.000000;,
    223; 1.000000; 1.000000; 1.000000; 1.000000;,
    224; 1.000000; 1.000000; 1.000000; 1.000000;,
    225; 1.000000; 1.000000; 1.000000; 1.000000;,
    226; 1.000000; 1.000000; 1.000000; 1.000000;,
    227; 1.000000; 1.000000; 1.000000; 1.000000;,
    228; 1.000000; 1.000000; 1.000000; 1.000000;,
    229; 1.000000; 1.000000; 1.000000; 1.000000;,
    230; 1.000000; 1.000000; 1.000000; 1.000000;,
    231; 1.000000; 1.000000; 1.000000; 1.000000;,
    232; 1.000000; 1.000000; 1.000000; 1.000000;,
    233; 1.000000; 1.000000; 1.000000; 1.000000;,
    234; 1.000000; 1.000000; 1.000000; 1.000000;,
    235; 1.000000; 1.000000; 1.000000; 1.000000;,
    236; 1.000000; 1.000000; 1.000000; 1.000000;,
    237; 1.000000; 1.000000; 1.000000; 1.000000;,
    238; 1.000000; 1.000000; 1.000000; 1.000000;,
    239; 1.000000; 1.000000; 1.000000; 1.000000;,
    240; 1.000000; 1.000000; 1.000000; 1.000000;,
    241; 1.000000; 1.000000; 1.000000; 1.000000;,
    242; 1.000000; 1.000000; 1.000000; 1.000000;,
    243; 1.000000; 1.000000; 1.000000; 1.000000;,
    244; 1.000000; 1.000000; 1.000000; 1.000000;,
    245; 1.000000; 1.000000; 1.000000; 1.000000;,
    246; 1.000000; 1.000000; 1.000000; 1.000000;,
    247; 1.000000; 1.000000; 1.000000; 1.000000;,
    248; 1.000000; 1.000000; 1.000000; 1.000000;,
    249; 1.000000; 1.000000; 1.000000; 1.000000;,
    250; 1.000000; 1.000000; 1.000000; 1.000000;,
    251; 1.000000; 1.000000; 1.000000; 1.000000;,
    252; 1.000000; 1.000000; 1.000000; 1.000000;,
    253; 1.000000; 1.000000; 1.000000; 1.000000;,
    254; 1.000000; 1.000000; 1.000000; 1.000000;,
    255; 1.000000; 1.000000; 1.000000; 1.000000;,
    256; 1.000000; 1.000000; 1.000000; 1.000000;,
    257; 1.000000; 1.000000; 1.000000; 1.000000;,
    258; 1.000000; 1.000000; 1.000000; 1.000000;,
    259; 1.000000; 1.000000; 1.000000; 1.000000;,
    260; 1.000000; 1.000000; 1.000000; 1.000000;,
    261; 1.000000; 1.000000; 1.000000; 1.000000;,
    262; 1.000000; 1.000000; 1.000000; 1.000000;,
    263; 1.000000; 1.000000; 1.000000; 1.000000;;
   }

   MeshMaterialList {
    1;
    284;
    0,
    0,
    0,
    0,
    0,
    0,
    0,
    0,
    0,
    0,
    0,
    0,
    0,
    0,
    0,
    0,
    0,
    0,
    0,
    0,
    0,
    0,
    0,
    0,
    0,
    0,
    0,
    0,
    0,
    0,
    0,
    0,
    0,
    0,
    0,
    0,
    0,
    0,
    0,
    0,
    0,
    0,
    0,
    0,
    0,
    0,
    0,
    0,
    0,
    0,
    0,
    0,
    0,
    0,
    0,
    0,
    0,
    0,
    0,
    0,
    0,
    0,
    0,
    0,
    0,
    0,
    0,
    0,
    0,
    0,
    0,
    0,
    0,
    0,
    0,
    0,
    0,
    0,
    0,
    0,
    0,
    0,
    0,
    0,
    0,
    0,
    0,
    0,
    0,
    0,
    0,
    0,
    0,
    0,
    0,
    0,
    0,
    0,
    0,
    0,
    0,
    0,
    0,
    0,
    0,
    0,
    0,
    0,
    0,
    0,
    0,
    0,
    0,
    0,
    0,
    0,
    0,
    0,
    0,
    0,
    0,
    0,
    0,
    0,
    0,
    0,
    0,
    0,
    0,
    0,
    0,
    0,
    0,
    0,
    0,
    0,
    0,
    0,
    0,
    0,
    0,
    0,
    0,
    0,
    0,
    0,
    0,
    0,
    0,
    0,
    0,
    0,
    0,
    0,
    0,
    0,
    0,
    0,
    0,
    0,
    0,
    0,
    0,
    0,
    0,
    0,
    0,
    0,
    0,
    0,
    0,
    0,
    0,
    0,
    0,
    0,
    0,
    0,
    0,
    0,
    0,
    0,
    0,
    0,
    0,
    0,
    0,
    0,
    0,
    0,
    0,
    0,
    0,
    0,
    0,
    0,
    0,
    0,
    0,
    0,
    0,
    0,
    0,
    0,
    0,
    0,
    0,
    0,
    0,
    0,
    0,
    0,
    0,
    0,
    0,
    0,
    0,
    0,
    0,
    0,
    0,
    0,
    0,
    0,
    0,
    0,
    0,
    0,
    0,
    0,
    0,
    0,
    0,
    0,
    0,
    0,
    0,
    0,
    0,
    0,
    0,
    0,
    0,
    0,
    0,
    0,
    0,
    0,
    0,
    0,
    0,
    0,
    0,
    0,
    0,
    0,
    0,
    0,
    0,
    0,
    0,
    0,
    0,
    0,
    0,
    0,
    0,
    0,
    0,
    0,
    0,
    0,
    0,
    0,
    0,
    0,
    0,
    0,
    0,
    0,
    0,
    0,
    0,
    0;

    Material DungNewE {
     1.000000; 1.000000; 1.000000; 1.000000;;
     128.000000;
     1.000000; 1.000000; 1.000000;;
     0.000000; 0.000000; 0.000000;;

     TextureFilename {
      "DungNewE.dds";
     }
    }

   }
  }
}
