xof 0303txt 0032

// DirectX 9.0 file
// Creator: Ultimate Unwrap3D Pro v3.32
// Website: http://www.unwrap3d.com
// Time: Wed Sep 07 20:10:44 2011

// Start of Templates

template VertexDuplicationIndices {
 <b8d65549-d7c9-4995-89cf-53a9a8b031e3>
 DWORD nIndices;
 DWORD nOriginalVertices;
 array DWORD indices[nIndices];
}

template FVFData {
 <b6e70a0e-8ef9-4e83-94ad-ecc8b0c04897>
 DWORD dwFVF;
 DWORD nDWords;
 array DWORD data[nDWords];
}

template Header {
 <3D82AB43-62DA-11cf-AB39-0020AF71E433>
 WORD major;
 WORD minor;
 DWORD flags;
}

template Vector {
 <3D82AB5E-62DA-11cf-AB39-0020AF71E433>
 FLOAT x;
 FLOAT y;
 FLOAT z;
}

template Coords2d {
 <F6F23F44-7686-11cf-8F52-0040333594A3>
 FLOAT u;
 FLOAT v;
}

template Matrix4x4 {
 <F6F23F45-7686-11cf-8F52-0040333594A3>
 array FLOAT matrix[16];
}

template ColorRGBA {
 <35FF44E0-6C7C-11cf-8F52-0040333594A3>
 FLOAT red;
 FLOAT green;
 FLOAT blue;
 FLOAT alpha;
}

template ColorRGB {
 <D3E16E81-7835-11cf-8F52-0040333594A3>
 FLOAT red;
 FLOAT green;
 FLOAT blue;
}

template IndexedColor {
 <1630B820-7842-11cf-8F52-0040333594A3>
 DWORD index;
 ColorRGBA indexColor;
}

template Material {
 <3D82AB4D-62DA-11cf-AB39-0020AF71E433>
 ColorRGBA faceColor;
 FLOAT power;
 ColorRGB specularColor;
 ColorRGB emissiveColor;
 [...]
}

template TextureFilename {
 <A42790E1-7810-11cf-8F52-0040333594A3>
 STRING filename;
}

template MeshFace {
 <3D82AB5F-62DA-11cf-AB39-0020AF71E433>
 DWORD nFaceVertexIndices;
 array DWORD faceVertexIndices[nFaceVertexIndices];
}

template MeshTextureCoords {
 <F6F23F40-7686-11cf-8F52-0040333594A3>
 DWORD nTextureCoords;
 array Coords2d textureCoords[nTextureCoords];
}

template MeshMaterialList {
 <F6F23F42-7686-11cf-8F52-0040333594A3>
 DWORD nMaterials;
 DWORD nFaceIndexes;
 array DWORD faceIndexes[nFaceIndexes];
 [Material]
}

template MeshNormals {
 <F6F23F43-7686-11cf-8F52-0040333594A3>
 DWORD nNormals;
 array Vector normals[nNormals];
 DWORD nFaceNormals;
 array MeshFace faceNormals[nFaceNormals];
}

template MeshVertexColors {
 <1630B821-7842-11cf-8F52-0040333594A3>
 DWORD nVertexColors;
 array IndexedColor vertexColors[nVertexColors];
}

template Mesh {
 <3D82AB44-62DA-11cf-AB39-0020AF71E433>
 DWORD nVertices;
 array Vector vertices[nVertices];
 DWORD nFaces;
 array MeshFace faces[nFaces];
 [...]
}

template FrameTransformMatrix {
 <F6F23F41-7686-11cf-8F52-0040333594A3>
 Matrix4x4 frameMatrix;
}

template Frame {
 <3D82AB46-62DA-11cf-AB39-0020AF71E433>
 [...]
}

template FloatKeys {
 <10DD46A9-775B-11cf-8F52-0040333594A3>
 DWORD nValues;
 array FLOAT values[nValues];
}

template TimedFloatKeys {
 <F406B180-7B3B-11cf-8F52-0040333594A3>
 DWORD time;
 FloatKeys tfkeys;
}

template AnimationKey {
 <10DD46A8-775B-11cf-8F52-0040333594A3>
 DWORD keyType;
 DWORD nKeys;
 array TimedFloatKeys keys[nKeys];
}

template AnimationOptions {
 <E2BF56C0-840F-11cf-8F52-0040333594A3>
 DWORD openclosed;
 DWORD positionquality;
}

template Animation {
 <3D82AB4F-62DA-11cf-AB39-0020AF71E433>
 [...]
}

template AnimationSet {
 <3D82AB50-62DA-11cf-AB39-0020AF71E433>
 [Animation]
}

template XSkinMeshHeader {
 <3CF169CE-FF7C-44ab-93C0-F78F62D172E2>
 WORD nMaxSkinWeightsPerVertex;
 WORD nMaxSkinWeightsPerFace;
 WORD nBones;
}

template SkinWeights {
 <6F0D123B-BAD2-4167-A0D0-80224F25FABB>
 STRING transformNodeName;
 DWORD nWeights;
 array DWORD vertexIndices[nWeights];
 array FLOAT weights[nWeights];
 Matrix4x4 matrixOffset;
}

template AnimTicksPerSecond {
 <9E415A43-7BA6-4a73-8743-B73D47E88476>
 DWORD AnimTicksPerSecond;
}

AnimTicksPerSecond {
 4800;
}

// Start of Frames

Frame Body {
   FrameTransformMatrix {
    1.000000, 0.000000, 0.000000, 0.000000,
    0.000000, 1.000000, 0.000000, 0.000000,
    0.000000, 0.000000, 1.000000, 0.000000,
    0.000000, 0.000000, 0.000000, 1.000000;;
   }

   Mesh staticMesh {
    194;
    85.100098; 307.772491; 39.085205;,
    85.100098; 307.679504; -35.874756;,
    87.410156; 27.264984; 25.245117;,
    87.410156; 27.264984; -24.154785;,
    -86.810059; 307.679504; -35.874756;,
    -86.810059; 307.772491; 39.085205;,
    -88.290039; 27.264984; -24.154785;,
    -88.290039; 27.264984; 25.245117;,
    -88.290039; 27.264984; -24.154785;,
    -88.290039; 27.264984; 25.245117;,
    87.410156; 27.264984; -24.154785;,
    87.410156; 27.264984; 25.245117;,
    -86.810059; 307.679504; -35.874756;,
    85.100098; 307.679504; -35.874756;,
    -86.810059; 307.772491; 39.085205;,
    85.100098; 307.772491; 39.085205;,
    -109.939941; 307.385498; -41.064941;,
    -109.959961; 26.897995; -41.064941;,
    -88.290039; 26.897995; -41.064941;,
    110.310059; 26.897995; -41.064941;,
    87.419922; 26.897995; -41.064941;,
    107.950195; 306.166504; -41.064941;,
    107.939941; 307.067505; 44.265137;,
    110.310059; 26.989990; 44.265137;,
    87.419922; 26.989990; 44.265137;,
    -109.969727; 26.989990; 44.265137;,
    -88.290039; 26.989990; 44.265137;,
    -109.939941; 306.450500; 44.265137;,
    -109.969727; 27.264984; 25.245117;,
    -109.939941; 306.725494; 25.245117;,
    107.939941; 307.342499; 25.245117;,
    110.300293; 27.264984; 25.245117;,
    -120.389648; 340.969482; 25.245117;,
    -120.389648; 340.484497; 52.195068;,
    120.110352; 341.074493; 25.245117;,
    120.120117; 340.589478; 52.195068;,
    -109.939941; 307.752502; -24.154785;,
    -109.969727; 27.264984; -24.154785;,
    110.300293; 27.264984; -24.154785;,
    107.950195; 306.534485; -24.154785;,
    107.950195; 306.166504; -41.064941;,
    125.340332; 306.072479; -50.144775;,
    107.950195; 306.534485; -24.154785;,
    125.330078; 306.680481; -24.154785;,
    -109.939941; 307.752502; -24.154785;,
    -122.409668; 307.753479; -24.164795;,
    -109.939941; 307.385498; -41.064941;,
    -122.409668; 307.145477; -50.154785;,
    -109.939941; 306.450500; 44.265137;,
    -120.399902; 306.241486; 52.195068;,
    -109.939941; 306.725494; 25.245117;,
    -120.399902; 306.726501; 25.245117;,
    107.939941; 307.342499; 25.245117;,
    120.399902; 307.447479; 25.245117;,
    107.939941; 307.067505; 44.265137;,
    120.399902; 306.962494; 52.195068;,
    125.040039; 340.507477; -50.144775;,
    125.180176; 324.630493; -54.034912;,
    -122.399902; 340.361481; -50.154785;,
    -122.399902; 324.483490; -54.044922;,
    -122.409668; 307.145477; -50.154785;,
    125.340332; 306.072479; -50.144775;,
    -122.409668; 340.969482; -24.164795;,
    -122.409668; 307.753479; -24.164795;,
    125.330078; 306.680481; -24.154785;,
    125.040039; 341.115479; -24.154785;,
    -120.389648; 340.484497; 52.195068;,
    -120.389648; 322.838501; 54.045166;,
    120.120117; 340.589478; 52.195068;,
    120.260254; 322.943481; 54.045166;,
    120.399902; 306.962494; 52.195068;,
    -120.399902; 306.241486; 52.195068;,
    -120.399902; 306.726501; 25.245117;,
    -120.389648; 340.969482; 25.245117;,
    120.110352; 341.074493; 25.245117;,
    120.399902; 307.447479; 25.245117;,
    -88.290039; 27.264984; 25.245117;,
    -88.290039; 26.989990; 44.265137;,
    -109.969727; 27.264984; 25.245117;,
    -109.969727; 26.989990; 44.265137;,
    110.300293; 27.264984; 25.245117;,
    110.310059; 26.989990; 44.265137;,
    87.410156; 27.264984; 25.245117;,
    87.419922; 26.989990; 44.265137;,
    -109.969727; 27.264984; -24.154785;,
    -109.959961; 26.897995; -41.064941;,
    -88.290039; 27.264984; -24.154785;,
    -88.290039; 26.897995; -41.064941;,
    87.410156; 27.264984; -24.154785;,
    87.419922; 26.897995; -41.064941;,
    110.300293; 27.264984; -24.154785;,
    110.310059; 26.897995; -41.064941;,
    125.040039; 341.115479; -24.154785;,
    125.040039; 340.507477; -50.144775;,
    -122.409668; 340.969482; -24.164795;,
    -122.399902; 340.361481; -50.154785;,
    125.330078; 306.680481; -24.154785;,
    125.040039; 341.115479; -24.154785;,
    107.950195; 306.534485; -24.154785;,
    -122.409668; 307.753479; -24.164795;,
    -109.939941; 307.752502; -24.154785;,
    -122.409668; 340.969482; -24.164795;,
    -120.399902; 306.726501; 25.245117;,
    -120.389648; 340.969482; 25.245117;,
    -109.939941; 306.725494; 25.245117;,
    120.399902; 307.447479; 25.245117;,
    107.939941; 307.342499; 25.245117;,
    120.110352; 341.074493; 25.245117;,
    354.669922; 27.264984; 25.245117;,
    110.300293; 27.264984; 25.245117;,
    354.669922; -0.000015; 25.245117;,
    87.410156; 27.264984; 25.245117;,
    142.790039; 340.970490; 25.245117;,
    354.669922; 226.038483; 25.245117;,
    354.669922; 340.970490; 25.245117;,
    354.669922; -0.000015; -24.154785;,
    110.300293; 27.264984; -24.154785;,
    142.790039; 27.264984; -24.154785;,
    87.410156; 27.264984; -24.154785;,
    354.669922; 340.970490; -24.154785;,
    354.669922; 226.038483; -24.154785;,
    142.790039; 340.970490; -24.154785;,
    354.669922; 27.264984; -24.154785;,
    142.790039; 442.164490; 25.245117;,
    142.790039; 442.164490; -24.154785;,
    -142.790039; 442.164490; 25.245117;,
    -142.790039; 442.164490; -24.154785;,
    354.669922; 340.970490; 25.245117;,
    354.669922; 340.970490; -24.154785;,
    142.790039; 340.970490; 25.245117;,
    142.790039; 340.970490; -24.154785;,
    354.669922; 27.264984; 25.245117;,
    354.669922; 27.264984; -24.154785;,
    354.669922; 226.038483; 25.245117;,
    354.669922; 226.038483; -24.154785;,
    354.669922; -0.000015; 25.245117;,
    354.669922; -0.000015; -24.154785;,
    354.669922; 340.970490; 25.245117;,
    354.669922; 340.970490; -24.154785;,
    -354.669922; -0.000015; 25.245117;,
    -109.969727; 27.264984; 25.245117;,
    -354.669922; 27.264984; 25.245117;,
    -88.290039; 27.264984; 25.245117;,
    -354.669922; 340.970490; 25.245117;,
    -354.669922; 226.038483; 25.245117;,
    -142.790039; 340.970490; 25.245117;,
    -142.790039; 27.264984; -24.154785;,
    -109.969727; 27.264984; -24.154785;,
    -142.790039; -0.000015; -24.154785;,
    -88.290039; 27.264984; -24.154785;,
    -142.790039; 340.970490; -24.154785;,
    -354.669922; 226.038483; -24.154785;,
    -354.669922; 340.970490; -24.154785;,
    -354.669922; 27.264984; -24.154785;,
    -354.669922; -0.000015; -24.154785;,
    -354.669922; -0.000015; 25.245117;,
    -354.669922; -0.000015; -24.154785;,
    -142.790039; -0.000015; -24.154785;,
    354.669922; -0.000015; -24.154785;,
    354.669922; -0.000015; 25.245117;,
    -354.669922; 340.970490; -24.154785;,
    -354.669922; 340.970490; 25.245117;,
    -142.790039; 340.970490; -24.154785;,
    -142.790039; 340.970490; 25.245117;,
    -354.669922; 27.264984; -24.154785;,
    -354.669922; 27.264984; 25.245117;,
    -354.669922; 226.038483; -24.154785;,
    -354.669922; 226.038483; 25.245117;,
    -354.669922; -0.000015; -24.154785;,
    -354.669922; -0.000015; 25.245117;,
    -354.669922; 340.970490; -24.154785;,
    -354.669922; 340.970490; 25.245117;,
    -122.409668; 340.969482; -24.164795;,
    -142.790039; 442.164490; -24.154785;,
    125.040039; 341.115479; -24.154785;,
    142.790039; 442.164490; -24.154785;,
    -142.790039; 340.970490; 25.245117;,
    -142.790039; 442.164490; 25.245117;,
    -142.790039; 340.970490; -24.154785;,
    -142.790039; 442.164490; -24.154785;,
    142.790039; 340.970490; -24.154785;,
    142.790039; 442.164490; -24.154785;,
    142.790039; 340.970490; 25.245117;,
    142.790039; 442.164490; 25.245117;,
    120.110352; 341.074493; 25.245117;,
    142.790039; 442.164490; 25.245117;,
    -120.389648; 340.969482; 25.245117;,
    -142.790039; 442.164490; 25.245117;,
    -142.790039; 308.193481; -24.154785;,
    -109.939941; 307.752502; -24.154785;,
    107.950195; 306.534485; -24.154785;,
    142.790039; 305.844482; -24.154785;,
    107.939941; 307.342499; 25.245117;,
    -109.939941; 306.725494; 25.245117;;
    154;
    3;0, 1, 2;,
    3;1, 3, 2;,
    3;4, 5, 6;,
    3;5, 7, 6;,
    3;8, 9, 10;,
    3;9, 11, 10;,
    3;12, 13, 14;,
    3;13, 15, 14;,
    3;16, 4, 17;,
    3;4, 18, 17;,
    3;19, 20, 21;,
    3;20, 1, 21;,
    3;22, 0, 23;,
    3;0, 24, 23;,
    3;25, 26, 27;,
    3;26, 5, 27;,
    3;28, 25, 29;,
    3;25, 27, 29;,
    3;26, 7, 5;,
    3;24, 0, 2;,
    3;30, 22, 31;,
    3;22, 23, 31;,
    3;32, 33, 34;,
    3;33, 35, 34;,
    3;36, 16, 37;,
    3;16, 17, 37;,
    3;18, 4, 6;,
    3;20, 3, 1;,
    3;38, 19, 39;,
    3;19, 21, 39;,
    3;40, 41, 42;,
    3;41, 43, 42;,
    3;44, 45, 46;,
    3;45, 47, 46;,
    3;47, 12, 46;,
    3;12, 47, 13;,
    3;47, 41, 13;,
    3;41, 40, 13;,
    3;48, 49, 50;,
    3;49, 51, 50;,
    3;52, 53, 54;,
    3;53, 55, 54;,
    3;49, 48, 14;,
    3;15, 55, 14;,
    3;55, 49, 14;,
    3;55, 15, 54;,
    3;56, 57, 58;,
    3;57, 59, 58;,
    3;59, 57, 60;,
    3;57, 61, 60;,
    3;58, 59, 62;,
    3;62, 59, 63;,
    3;59, 60, 63;,
    3;64, 61, 65;,
    3;61, 57, 65;,
    3;57, 56, 65;,
    3;66, 67, 68;,
    3;67, 69, 68;,
    3;69, 67, 70;,
    3;67, 71, 70;,
    3;72, 71, 73;,
    3;71, 67, 73;,
    3;67, 66, 73;,
    3;68, 69, 74;,
    3;74, 69, 75;,
    3;69, 70, 75;,
    3;76, 77, 78;,
    3;77, 79, 78;,
    3;80, 81, 82;,
    3;81, 83, 82;,
    3;84, 85, 86;,
    3;85, 87, 86;,
    3;88, 89, 90;,
    3;89, 91, 90;,
    3;92, 93, 94;,
    3;93, 95, 94;,
    3;96, 97, 98;,
    3;99, 100, 101;,
    3;102, 103, 104;,
    3;105, 106, 107;,
    3;108, 109, 110;,
    3;109, 111, 110;,
    3;112, 113, 114;,
    3;115, 116, 117;,
    3;115, 118, 116;,
    3;119, 120, 121;,
    3;122, 115, 117;,
    3;123, 124, 125;,
    3;124, 126, 125;,
    3;127, 128, 129;,
    3;128, 130, 129;,
    3;131, 132, 133;,
    3;132, 134, 133;,
    3;135, 136, 131;,
    3;136, 132, 131;,
    3;133, 134, 137;,
    3;134, 138, 137;,
    3;139, 140, 141;,
    3;139, 142, 140;,
    3;142, 139, 111;,
    3;139, 110, 111;,
    3;143, 144, 145;,
    3;146, 147, 148;,
    3;147, 149, 148;,
    3;148, 149, 115;,
    3;149, 118, 115;,
    3;150, 151, 152;,
    3;153, 146, 154;,
    3;146, 148, 154;,
    3;155, 156, 157;,
    3;158, 159, 157;,
    3;159, 155, 157;,
    3;160, 161, 162;,
    3;161, 163, 162;,
    3;164, 165, 166;,
    3;165, 167, 166;,
    3;168, 169, 164;,
    3;169, 165, 164;,
    3;166, 167, 170;,
    3;167, 171, 170;,
    3;172, 173, 174;,
    3;173, 175, 174;,
    3;173, 172, 150;,
    3;175, 121, 174;,
    3;176, 177, 178;,
    3;177, 179, 178;,
    3;180, 181, 182;,
    3;181, 183, 182;,
    3;184, 185, 186;,
    3;185, 187, 186;,
    3;185, 184, 112;,
    3;187, 145, 186;,
    3;150, 172, 188;,
    3;172, 189, 188;,
    3;188, 189, 146;,
    3;189, 147, 146;,
    3;150, 188, 151;,
    3;151, 188, 153;,
    3;188, 146, 153;,
    3;174, 121, 190;,
    3;121, 191, 190;,
    3;190, 191, 116;,
    3;191, 117, 116;,
    3;120, 191, 121;,
    3;191, 120, 117;,
    3;120, 122, 117;,
    3;184, 192, 112;,
    3;112, 192, 108;,
    3;192, 109, 108;,
    3;112, 108, 113;,
    3;145, 193, 186;,
    3;193, 145, 140;,
    3;145, 141, 140;,
    3;144, 141, 145;;

   MeshNormals {
    194;
    -0.915535; -0.000134; 0.402238;,
    -0.894382; 0.000890; -0.447303;,
    -0.999966; -0.008246; 0.000202;,
    -0.999966; -0.008246; -0.000194;,
    0.915418; 0.002613; -0.402496;,
    0.894462; 0.003532; 0.447130;,
    0.999986; -0.005275; 0.000060;,
    0.999986; -0.005274; -0.000035;,
    0.000000; 1.000000; 0.000000;,
    0.000000; 1.000000; 0.000000;,
    0.000000; 1.000000; 0.000000;,
    0.000000; 1.000000; 0.000000;,
    0.001825; -0.999782; 0.020784;,
    -0.038399; -0.997971; -0.050795;,
    0.025175; -0.999683; 0.000268;,
    -0.013420; -0.999899; -0.004605;,
    -0.625014; 0.013562; -0.780496;,
    -0.625014; 0.013562; -0.780496;,
    0.780669; 0.007436; -0.624900;,
    0.707166; 0.019046; -0.706791;,
    -0.706996; 0.007231; -0.707181;,
    0.707166; 0.019046; -0.706791;,
    0.624096; 0.019725; 0.781099;,
    0.624096; 0.019725; 0.781099;,
    -0.781141; 0.005064; 0.624335;,
    -0.707106; 0.013118; 0.706986;,
    0.707158; 0.009315; 0.706994;,
    -0.707106; 0.013118; 0.706986;,
    -1.000000; 0.000107; 0.000002;,
    -1.000000; 0.000107; 0.000002;,
    0.999964; 0.008462; 0.000122;,
    0.999964; 0.008462; 0.000122;,
    -0.000436; 0.999838; 0.017993;,
    -0.000436; 0.999838; 0.017993;,
    -0.000436; 0.999838; 0.017993;,
    -0.000436; 0.999838; 0.017993;,
    -1.000000; 0.000071; -0.000002;,
    -1.000000; 0.000071; -0.000002;,
    0.999964; 0.008450; 0.000394;,
    0.999964; 0.008450; 0.000394;,
    -0.052036; -0.994639; -0.089362;,
    -0.036133; -0.998405; -0.043381;,
    0.006807; -0.999703; 0.023389;,
    0.006807; -0.999703; 0.023389;,
    -0.000097; -0.999727; 0.023387;,
    -0.000097; -0.999727; 0.023387;,
    0.004853; -0.999823; 0.018171;,
    0.001793; -0.999602; 0.028165;,
    0.039415; -0.998893; 0.025661;,
    0.027292; -0.999609; -0.006157;,
    0.006337; -0.999818; -0.017994;,
    0.006337; -0.999818; -0.017994;,
    0.008424; -0.999803; -0.017992;,
    0.008424; -0.999803; -0.017992;,
    -0.017398; -0.999680; 0.018344;,
    -0.010608; -0.999883; -0.011026;,
    0.706226; 0.174360; -0.686180;,
    0.715878; 0.018027; -0.697993;,
    -0.707005; 0.168300; -0.686891;,
    -0.715770; 0.011934; -0.698234;,
    -0.706885; -0.144740; -0.692361;,
    0.707833; -0.139065; -0.692555;,
    -1.000000; 0.000264; -0.000473;,
    -1.000000; 0.000436; -0.000567;,
    0.999962; 0.008670; 0.000192;,
    0.999962; 0.008773; -0.000008;,
    -0.707123; 0.073731; 0.703236;,
    -0.709158; -0.002090; 0.705047;,
    0.706854; 0.079309; 0.702899;,
    0.709135; 0.003586; 0.705063;,
    0.707341; -0.072204; 0.703175;,
    -0.707110; -0.077905; 0.702799;,
    -1.000000; 0.000617; 0.000011;,
    -1.000000; 0.000308; 0.000006;,
    0.999966; 0.008312; 0.000028;,
    0.999962; 0.008706; 0.000276;,
    0.000000; -0.999896; -0.014457;,
    0.000000; -0.999896; -0.014457;,
    0.000000; -0.999896; -0.014457;,
    0.000000; -0.999896; -0.014457;,
    0.000000; -0.999896; -0.014457;,
    0.000000; -0.999896; -0.014457;,
    0.000000; -0.999896; -0.014457;,
    0.000000; -0.999896; -0.014457;,
    0.000000; -0.999765; 0.021697;,
    0.000000; -0.999765; 0.021697;,
    0.000000; -0.999765; 0.021697;,
    0.000000; -0.999765; 0.021697;,
    0.000000; -0.999765; 0.021697;,
    0.000000; -0.999765; 0.021697;,
    0.000000; -0.999765; 0.021697;,
    0.000000; -0.999765; 0.021697;,
    -0.000589; 0.999726; -0.023387;,
    -0.000589; 0.999726; -0.023387;,
    -0.000589; 0.999726; -0.023387;,
    -0.000589; 0.999726; -0.023387;,
    0.000000; 0.000000; 1.000000;,
    0.000000; 0.000000; 1.000000;,
    0.000000; 0.000000; 1.000000;,
    -0.000803; 0.000000; 1.000000;,
    -0.000803; 0.000000; 1.000000;,
    -0.000803; 0.000000; 1.000000;,
    0.000000; 0.000000; -1.000000;,
    0.000000; 0.000000; -1.000000;,
    0.000000; 0.000000; -1.000000;,
    0.000000; 0.000000; -1.000000;,
    0.000000; 0.000000; -1.000000;,
    0.000000; 0.000000; -1.000000;,
    0.000000; 0.000000; 1.000000;,
    0.000000; 0.000000; 1.000000;,
    0.000000; 0.000000; 1.000000;,
    0.000000; 0.000000; 1.000000;,
    0.000000; 0.000000; 1.000000;,
    0.000000; 0.000000; 1.000000;,
    0.000000; 0.000000; 1.000000;,
    0.000000; 0.000000; -1.000000;,
    0.000000; 0.000000; -1.000000;,
    0.000000; 0.000000; -1.000000;,
    0.000000; 0.000000; -1.000000;,
    0.000000; 0.000000; -1.000000;,
    0.000000; 0.000000; -1.000000;,
    0.000000; 0.000000; -1.000000;,
    0.000000; 0.000000; -1.000000;,
    0.000000; 1.000000; 0.000000;,
    0.000000; 1.000000; 0.000000;,
    0.000000; 1.000000; 0.000000;,
    0.000000; 1.000000; 0.000000;,
    0.000000; 1.000000; 0.000000;,
    0.000000; 1.000000; 0.000000;,
    0.000000; 1.000000; 0.000000;,
    0.000000; 1.000000; 0.000000;,
    1.000000; 0.000000; 0.000000;,
    1.000000; 0.000000; 0.000000;,
    1.000000; 0.000000; 0.000000;,
    1.000000; 0.000000; 0.000000;,
    1.000000; 0.000000; 0.000000;,
    1.000000; 0.000000; 0.000000;,
    1.000000; 0.000000; 0.000000;,
    1.000000; 0.000000; 0.000000;,
    0.000000; 0.000000; 1.000000;,
    0.000000; 0.000000; 1.000000;,
    0.000000; 0.000000; 1.000000;,
    0.000000; 0.000000; 1.000000;,
    0.000000; 0.000000; 1.000000;,
    0.000000; 0.000000; 1.000000;,
    0.000000; 0.000000; 1.000000;,
    0.000000; 0.000000; -1.000000;,
    0.000000; 0.000000; -1.000000;,
    0.000000; 0.000000; -1.000000;,
    0.000000; 0.000000; -1.000000;,
    -0.000246; -0.000121; -1.000000;,
    0.000000; 0.000000; -1.000000;,
    0.000000; 0.000000; -1.000000;,
    0.000000; 0.000000; -1.000000;,
    0.000000; 0.000000; -1.000000;,
    0.000000; -1.000000; 0.000000;,
    0.000000; -1.000000; 0.000000;,
    0.000000; -1.000000; 0.000000;,
    0.000000; -1.000000; 0.000000;,
    0.000000; -1.000000; 0.000000;,
    0.000000; 1.000000; 0.000000;,
    0.000000; 1.000000; 0.000000;,
    0.000000; 1.000000; 0.000000;,
    0.000000; 1.000000; 0.000000;,
    -1.000000; 0.000000; 0.000000;,
    -1.000000; 0.000000; 0.000000;,
    -1.000000; 0.000000; 0.000000;,
    -1.000000; 0.000000; 0.000000;,
    -1.000000; 0.000000; 0.000000;,
    -1.000000; 0.000000; 0.000000;,
    -1.000000; 0.000000; 0.000000;,
    -1.000000; 0.000000; 0.000000;,
    -0.000327; -0.000129; -1.000000;,
    -0.000246; 0.000049; -1.000000;,
    0.000000; 0.000033; -1.000000;,
    0.000000; 0.000049; -1.000000;,
    -1.000000; 0.000000; 0.000000;,
    -1.000000; 0.000000; 0.000000;,
    -1.000000; 0.000000; 0.000000;,
    -1.000000; 0.000000; 0.000000;,
    1.000000; 0.000000; 0.000000;,
    1.000000; 0.000000; 0.000000;,
    1.000000; 0.000000; 0.000000;,
    1.000000; 0.000000; 0.000000;,
    0.000000; 0.000000; 1.000000;,
    0.000000; 0.000000; 1.000000;,
    0.000000; 0.000000; 1.000000;,
    0.000000; 0.000000; 1.000000;,
    -0.000123; -0.000121; -1.000000;,
    -0.000246; -0.000243; -1.000000;,
    0.000000; 0.000000; -1.000000;,
    0.000000; 0.000000; -1.000000;,
    0.000000; 0.000000; 1.000000;,
    0.000000; 0.000000; 1.000000;;
    154;
    3;0, 1, 2;,
    3;1, 3, 2;,
    3;4, 5, 6;,
    3;5, 7, 6;,
    3;8, 9, 10;,
    3;9, 11, 10;,
    3;12, 13, 14;,
    3;13, 15, 14;,
    3;16, 4, 17;,
    3;4, 18, 17;,
    3;19, 20, 21;,
    3;20, 1, 21;,
    3;22, 0, 23;,
    3;0, 24, 23;,
    3;25, 26, 27;,
    3;26, 5, 27;,
    3;28, 25, 29;,
    3;25, 27, 29;,
    3;26, 7, 5;,
    3;24, 0, 2;,
    3;30, 22, 31;,
    3;22, 23, 31;,
    3;32, 33, 34;,
    3;33, 35, 34;,
    3;36, 16, 37;,
    3;16, 17, 37;,
    3;18, 4, 6;,
    3;20, 3, 1;,
    3;38, 19, 39;,
    3;19, 21, 39;,
    3;40, 41, 42;,
    3;41, 43, 42;,
    3;44, 45, 46;,
    3;45, 47, 46;,
    3;47, 12, 46;,
    3;12, 47, 13;,
    3;47, 41, 13;,
    3;41, 40, 13;,
    3;48, 49, 50;,
    3;49, 51, 50;,
    3;52, 53, 54;,
    3;53, 55, 54;,
    3;49, 48, 14;,
    3;15, 55, 14;,
    3;55, 49, 14;,
    3;55, 15, 54;,
    3;56, 57, 58;,
    3;57, 59, 58;,
    3;59, 57, 60;,
    3;57, 61, 60;,
    3;58, 59, 62;,
    3;62, 59, 63;,
    3;59, 60, 63;,
    3;64, 61, 65;,
    3;61, 57, 65;,
    3;57, 56, 65;,
    3;66, 67, 68;,
    3;67, 69, 68;,
    3;69, 67, 70;,
    3;67, 71, 70;,
    3;72, 71, 73;,
    3;71, 67, 73;,
    3;67, 66, 73;,
    3;68, 69, 74;,
    3;74, 69, 75;,
    3;69, 70, 75;,
    3;76, 77, 78;,
    3;77, 79, 78;,
    3;80, 81, 82;,
    3;81, 83, 82;,
    3;84, 85, 86;,
    3;85, 87, 86;,
    3;88, 89, 90;,
    3;89, 91, 90;,
    3;92, 93, 94;,
    3;93, 95, 94;,
    3;96, 97, 98;,
    3;99, 100, 101;,
    3;102, 103, 104;,
    3;105, 106, 107;,
    3;108, 109, 110;,
    3;109, 111, 110;,
    3;112, 113, 114;,
    3;115, 116, 117;,
    3;115, 118, 116;,
    3;119, 120, 121;,
    3;122, 115, 117;,
    3;123, 124, 125;,
    3;124, 126, 125;,
    3;127, 128, 129;,
    3;128, 130, 129;,
    3;131, 132, 133;,
    3;132, 134, 133;,
    3;135, 136, 131;,
    3;136, 132, 131;,
    3;133, 134, 137;,
    3;134, 138, 137;,
    3;139, 140, 141;,
    3;139, 142, 140;,
    3;142, 139, 111;,
    3;139, 110, 111;,
    3;143, 144, 145;,
    3;146, 147, 148;,
    3;147, 149, 148;,
    3;148, 149, 115;,
    3;149, 118, 115;,
    3;150, 151, 152;,
    3;153, 146, 154;,
    3;146, 148, 154;,
    3;155, 156, 157;,
    3;158, 159, 157;,
    3;159, 155, 157;,
    3;160, 161, 162;,
    3;161, 163, 162;,
    3;164, 165, 166;,
    3;165, 167, 166;,
    3;168, 169, 164;,
    3;169, 165, 164;,
    3;166, 167, 170;,
    3;167, 171, 170;,
    3;172, 173, 174;,
    3;173, 175, 174;,
    3;173, 172, 150;,
    3;175, 121, 174;,
    3;176, 177, 178;,
    3;177, 179, 178;,
    3;180, 181, 182;,
    3;181, 183, 182;,
    3;184, 185, 186;,
    3;185, 187, 186;,
    3;185, 184, 112;,
    3;187, 145, 186;,
    3;150, 172, 188;,
    3;172, 189, 188;,
    3;188, 189, 146;,
    3;189, 147, 146;,
    3;150, 188, 151;,
    3;151, 188, 153;,
    3;188, 146, 153;,
    3;174, 121, 190;,
    3;121, 191, 190;,
    3;190, 191, 116;,
    3;191, 117, 116;,
    3;120, 191, 121;,
    3;191, 120, 117;,
    3;120, 122, 117;,
    3;184, 192, 112;,
    3;112, 192, 108;,
    3;192, 109, 108;,
    3;112, 108, 113;,
    3;145, 193, 186;,
    3;193, 145, 140;,
    3;145, 141, 140;,
    3;144, 141, 145;;
   }

   MeshTextureCoords {
    194;
    0.033809; 0.902602;,
    0.033167; 0.818761;,
    0.635004; 0.885480;,
    0.634449; 0.830228;,
    0.116296; 0.880106;,
    0.115782; 0.798358;,
    0.589150; 0.866459;,
    0.588914; 0.812585;,
    0.233571; 0.904883;,
    0.233571; 0.863322;,
    0.514649; 0.904883;,
    0.514649; 0.863322;,
    0.512469; 0.794246;,
    0.129584; 0.794246;,
    0.512469; 0.891792;,
    0.129584; 0.891792;,
    0.118764; 0.904518;,
    0.591777; 0.907088;,
    0.592081; 0.883457;,
    0.634289; 0.785714;,
    0.635047; 0.811312;,
    0.035728; 0.792532;,
    0.035266; 0.928797;,
    0.635664; 0.932353;,
    0.635806; 0.906751;,
    0.588701; 0.768201;,
    0.589287; 0.791842;,
    0.117452; 0.772491;,
    0.587787; 0.747465;,
    0.116537; 0.751754;,
    0.034214; 0.950066;,
    0.634613; 0.953621;,
    0.619841; 0.912486;,
    0.619841; 0.980488;,
    0.012999; 0.912486;,
    0.012974; 0.980488;,
    0.117906; 0.922955;,
    0.590917; 0.925526;,
    0.632710; 0.766814;,
    0.034148; 0.773632;,
    0.078691; 0.787492;,
    0.039959; 0.775676;,
    0.078691; 0.809497;,
    0.039982; 0.809497;,
    0.563986; 0.809497;,
    0.591759; 0.809484;,
    0.563986; 0.787492;,
    0.591759; 0.775663;,
    0.563986; 0.898533;,
    0.587283; 0.908852;,
    0.563986; 0.873782;,
    0.587283; 0.873782;,
    0.078713; 0.873782;,
    0.050962; 0.873782;,
    0.078713; 0.898533;,
    0.050962; 0.908852;,
    0.582951; 0.843349;,
    0.582578; 0.876438;,
    0.081515; 0.835752;,
    0.081145; 0.868844;,
    0.080426; 0.904814;,
    0.582423; 0.914830;,
    0.021573; 0.835832;,
    0.025185; 0.906348;,
    0.639887; 0.914848;,
    0.641573; 0.843788;,
    0.080230; 0.983572;,
    0.080149; 0.947375;,
    0.571027; 0.981877;,
    0.571103; 0.945680;,
    0.571339; 0.912861;,
    0.079930; 0.913306;,
    0.021627; 0.914529;,
    0.022458; 0.985565;,
    0.629227; 0.983109;,
    0.627828; 0.912714;,
    0.330628; 0.793871;,
    0.330628; 0.754173;,
    0.285378; 0.793871;,
    0.285378; 0.754173;,
    0.379135; 0.793871;,
    0.379154; 0.754173;,
    0.331359; 0.793871;,
    0.331380; 0.754173;,
    0.428409; 0.754173;,
    0.428430; 0.789468;,
    0.473660; 0.754173;,
    0.473660; 0.789468;,
    0.379884; 0.754173;,
    0.379905; 0.789468;,
    0.427660; 0.754173;,
    0.427679; 0.789468;,
    0.648946; 0.753442;,
    0.648946; 0.699196;,
    0.132470; 0.753420;,
    0.132489; 0.699175;,
    0.223741; 0.253842;,
    0.223138; 0.181969;,
    0.187468; 0.254147;,
    0.386834; 0.251297;,
    0.412859; 0.251300;,
    0.386834; 0.181969;,
    0.283310; 0.253440;,
    0.283287; 0.181969;,
    0.261477; 0.253443;,
    0.333339; 0.252155;,
    0.359346; 0.252374;,
    0.333945; 0.181969;,
    0.031801; 0.932451;,
    0.359079; 0.932451;,
    0.031801; 0.971272;,
    0.389735; 0.932451;,
    0.315566; 0.485779;,
    0.031801; 0.649426;,
    0.031801; 0.485779;,
    0.031801; 0.971272;,
    0.359079; 0.932451;,
    0.315566; 0.932451;,
    0.389735; 0.932451;,
    0.031801; 0.485779;,
    0.031801; 0.649426;,
    0.315566; 0.485779;,
    0.031801; 0.932451;,
    0.387572; 0.388545;,
    0.387572; 0.458187;,
    -0.015027; 0.388545;,
    -0.015027; 0.458187;,
    0.283673; 0.248274;,
    0.283673; 0.317916;,
    -0.015027; 0.248274;,
    -0.015027; 0.317916;,
    0.427222; 0.458681;,
    0.427222; 0.528323;,
    0.146999; 0.458681;,
    0.146999; 0.528323;,
    0.465659; 0.458681;,
    0.465659; 0.528323;,
    -0.015027; 0.458681;,
    -0.015027; 0.528323;,
    0.981801; 0.971272;,
    0.654081; 0.932451;,
    0.981801; 0.932451;,
    0.625045; 0.932451;,
    0.981801; 0.485779;,
    0.981801; 0.649426;,
    0.698035; 0.485779;,
    0.698035; 0.932451;,
    0.654081; 0.932451;,
    0.698035; 0.971272;,
    0.625045; 0.932451;,
    0.698035; 0.485779;,
    0.981801; 0.649426;,
    0.981801; 0.485779;,
    0.981801; 0.932451;,
    0.981801; 0.971272;,
    0.984973; 0.598951;,
    0.984973; 0.668593;,
    0.686272; 0.668594;,
    -0.015027; 0.668594;,
    -0.015027; 0.598951;,
    -0.015027; 0.388052;,
    -0.015027; 0.318410;,
    0.283673; 0.388052;,
    0.283673; 0.318410;,
    0.427222; 0.528816;,
    0.427222; 0.598458;,
    0.146999; 0.528816;,
    0.146999; 0.598458;,
    0.465659; 0.528816;,
    0.465659; 0.598458;,
    -0.015027; 0.528816;,
    -0.015027; 0.598458;,
    0.670741; 0.485781;,
    0.698035; 0.341693;,
    0.339338; 0.485573;,
    0.315566; 0.341693;,
    0.127632; 0.247781;,
    -0.015027; 0.247781;,
    0.127632; 0.178139;,
    -0.015027; 0.178139;,
    0.127632; 0.177645;,
    -0.015027; 0.177645;,
    0.127632; 0.108003;,
    -0.015027; 0.108003;,
    0.345940; 0.485631;,
    0.315566; 0.341693;,
    0.668036; 0.485781;,
    0.698035; 0.341693;,
    0.698035; 0.532449;,
    0.654041; 0.533077;,
    0.362226; 0.534811;,
    0.315566; 0.535794;,
    0.362239; 0.533661;,
    0.654041; 0.534539;;
   }

   MeshVertexColors {
    194;
    0; 1.000000; 1.000000; 1.000000; 1.000000;,
    1; 1.000000; 1.000000; 1.000000; 1.000000;,
    2; 1.000000; 1.000000; 1.000000; 1.000000;,
    3; 1.000000; 1.000000; 1.000000; 1.000000;,
    4; 1.000000; 1.000000; 1.000000; 1.000000;,
    5; 1.000000; 1.000000; 1.000000; 1.000000;,
    6; 1.000000; 1.000000; 1.000000; 1.000000;,
    7; 1.000000; 1.000000; 1.000000; 1.000000;,
    8; 1.000000; 1.000000; 1.000000; 1.000000;,
    9; 1.000000; 1.000000; 1.000000; 1.000000;,
    10; 1.000000; 1.000000; 1.000000; 1.000000;,
    11; 1.000000; 1.000000; 1.000000; 1.000000;,
    12; 1.000000; 1.000000; 1.000000; 1.000000;,
    13; 1.000000; 1.000000; 1.000000; 1.000000;,
    14; 1.000000; 1.000000; 1.000000; 1.000000;,
    15; 1.000000; 1.000000; 1.000000; 1.000000;,
    16; 1.000000; 1.000000; 1.000000; 1.000000;,
    17; 1.000000; 1.000000; 1.000000; 1.000000;,
    18; 1.000000; 1.000000; 1.000000; 1.000000;,
    19; 1.000000; 1.000000; 1.000000; 1.000000;,
    20; 1.000000; 1.000000; 1.000000; 1.000000;,
    21; 1.000000; 1.000000; 1.000000; 1.000000;,
    22; 1.000000; 1.000000; 1.000000; 1.000000;,
    23; 1.000000; 1.000000; 1.000000; 1.000000;,
    24; 1.000000; 1.000000; 1.000000; 1.000000;,
    25; 1.000000; 1.000000; 1.000000; 1.000000;,
    26; 1.000000; 1.000000; 1.000000; 1.000000;,
    27; 1.000000; 1.000000; 1.000000; 1.000000;,
    28; 1.000000; 1.000000; 1.000000; 1.000000;,
    29; 1.000000; 1.000000; 1.000000; 1.000000;,
    30; 1.000000; 1.000000; 1.000000; 1.000000;,
    31; 1.000000; 1.000000; 1.000000; 1.000000;,
    32; 1.000000; 1.000000; 1.000000; 1.000000;,
    33; 1.000000; 1.000000; 1.000000; 1.000000;,
    34; 1.000000; 1.000000; 1.000000; 1.000000;,
    35; 1.000000; 1.000000; 1.000000; 1.000000;,
    36; 1.000000; 1.000000; 1.000000; 1.000000;,
    37; 1.000000; 1.000000; 1.000000; 1.000000;,
    38; 1.000000; 1.000000; 1.000000; 1.000000;,
    39; 1.000000; 1.000000; 1.000000; 1.000000;,
    40; 1.000000; 1.000000; 1.000000; 1.000000;,
    41; 1.000000; 1.000000; 1.000000; 1.000000;,
    42; 1.000000; 1.000000; 1.000000; 1.000000;,
    43; 1.000000; 1.000000; 1.000000; 1.000000;,
    44; 1.000000; 1.000000; 1.000000; 1.000000;,
    45; 1.000000; 1.000000; 1.000000; 1.000000;,
    46; 1.000000; 1.000000; 1.000000; 1.000000;,
    47; 1.000000; 1.000000; 1.000000; 1.000000;,
    48; 1.000000; 1.000000; 1.000000; 1.000000;,
    49; 1.000000; 1.000000; 1.000000; 1.000000;,
    50; 1.000000; 1.000000; 1.000000; 1.000000;,
    51; 1.000000; 1.000000; 1.000000; 1.000000;,
    52; 1.000000; 1.000000; 1.000000; 1.000000;,
    53; 1.000000; 1.000000; 1.000000; 1.000000;,
    54; 1.000000; 1.000000; 1.000000; 1.000000;,
    55; 1.000000; 1.000000; 1.000000; 1.000000;,
    56; 1.000000; 1.000000; 1.000000; 1.000000;,
    57; 1.000000; 1.000000; 1.000000; 1.000000;,
    58; 1.000000; 1.000000; 1.000000; 1.000000;,
    59; 1.000000; 1.000000; 1.000000; 1.000000;,
    60; 1.000000; 1.000000; 1.000000; 1.000000;,
    61; 1.000000; 1.000000; 1.000000; 1.000000;,
    62; 1.000000; 1.000000; 1.000000; 1.000000;,
    63; 1.000000; 1.000000; 1.000000; 1.000000;,
    64; 1.000000; 1.000000; 1.000000; 1.000000;,
    65; 1.000000; 1.000000; 1.000000; 1.000000;,
    66; 1.000000; 1.000000; 1.000000; 1.000000;,
    67; 1.000000; 1.000000; 1.000000; 1.000000;,
    68; 1.000000; 1.000000; 1.000000; 1.000000;,
    69; 1.000000; 1.000000; 1.000000; 1.000000;,
    70; 1.000000; 1.000000; 1.000000; 1.000000;,
    71; 1.000000; 1.000000; 1.000000; 1.000000;,
    72; 1.000000; 1.000000; 1.000000; 1.000000;,
    73; 1.000000; 1.000000; 1.000000; 1.000000;,
    74; 1.000000; 1.000000; 1.000000; 1.000000;,
    75; 1.000000; 1.000000; 1.000000; 1.000000;,
    76; 1.000000; 1.000000; 1.000000; 1.000000;,
    77; 1.000000; 1.000000; 1.000000; 1.000000;,
    78; 1.000000; 1.000000; 1.000000; 1.000000;,
    79; 1.000000; 1.000000; 1.000000; 1.000000;,
    80; 1.000000; 1.000000; 1.000000; 1.000000;,
    81; 1.000000; 1.000000; 1.000000; 1.000000;,
    82; 1.000000; 1.000000; 1.000000; 1.000000;,
    83; 1.000000; 1.000000; 1.000000; 1.000000;,
    84; 1.000000; 1.000000; 1.000000; 1.000000;,
    85; 1.000000; 1.000000; 1.000000; 1.000000;,
    86; 1.000000; 1.000000; 1.000000; 1.000000;,
    87; 1.000000; 1.000000; 1.000000; 1.000000;,
    88; 1.000000; 1.000000; 1.000000; 1.000000;,
    89; 1.000000; 1.000000; 1.000000; 1.000000;,
    90; 1.000000; 1.000000; 1.000000; 1.000000;,
    91; 1.000000; 1.000000; 1.000000; 1.000000;,
    92; 1.000000; 1.000000; 1.000000; 1.000000;,
    93; 1.000000; 1.000000; 1.000000; 1.000000;,
    94; 1.000000; 1.000000; 1.000000; 1.000000;,
    95; 1.000000; 1.000000; 1.000000; 1.000000;,
    96; 1.000000; 1.000000; 1.000000; 1.000000;,
    97; 1.000000; 1.000000; 1.000000; 1.000000;,
    98; 1.000000; 1.000000; 1.000000; 1.000000;,
    99; 1.000000; 1.000000; 1.000000; 1.000000;,
    100; 1.000000; 1.000000; 1.000000; 1.000000;,
    101; 1.000000; 1.000000; 1.000000; 1.000000;,
    102; 1.000000; 1.000000; 1.000000; 1.000000;,
    103; 1.000000; 1.000000; 1.000000; 1.000000;,
    104; 1.000000; 1.000000; 1.000000; 1.000000;,
    105; 1.000000; 1.000000; 1.000000; 1.000000;,
    106; 1.000000; 1.000000; 1.000000; 1.000000;,
    107; 1.000000; 1.000000; 1.000000; 1.000000;,
    108; 1.000000; 1.000000; 1.000000; 1.000000;,
    109; 1.000000; 1.000000; 1.000000; 1.000000;,
    110; 1.000000; 1.000000; 1.000000; 1.000000;,
    111; 1.000000; 1.000000; 1.000000; 1.000000;,
    112; 1.000000; 1.000000; 1.000000; 1.000000;,
    113; 1.000000; 1.000000; 1.000000; 1.000000;,
    114; 1.000000; 1.000000; 1.000000; 1.000000;,
    115; 1.000000; 1.000000; 1.000000; 1.000000;,
    116; 1.000000; 1.000000; 1.000000; 1.000000;,
    117; 1.000000; 1.000000; 1.000000; 1.000000;,
    118; 1.000000; 1.000000; 1.000000; 1.000000;,
    119; 1.000000; 1.000000; 1.000000; 1.000000;,
    120; 1.000000; 1.000000; 1.000000; 1.000000;,
    121; 1.000000; 1.000000; 1.000000; 1.000000;,
    122; 1.000000; 1.000000; 1.000000; 1.000000;,
    123; 1.000000; 1.000000; 1.000000; 1.000000;,
    124; 1.000000; 1.000000; 1.000000; 1.000000;,
    125; 1.000000; 1.000000; 1.000000; 1.000000;,
    126; 1.000000; 1.000000; 1.000000; 1.000000;,
    127; 1.000000; 1.000000; 1.000000; 1.000000;,
    128; 1.000000; 1.000000; 1.000000; 1.000000;,
    129; 1.000000; 1.000000; 1.000000; 1.000000;,
    130; 1.000000; 1.000000; 1.000000; 1.000000;,
    131; 1.000000; 1.000000; 1.000000; 1.000000;,
    132; 1.000000; 1.000000; 1.000000; 1.000000;,
    133; 1.000000; 1.000000; 1.000000; 1.000000;,
    134; 1.000000; 1.000000; 1.000000; 1.000000;,
    135; 1.000000; 1.000000; 1.000000; 1.000000;,
    136; 1.000000; 1.000000; 1.000000; 1.000000;,
    137; 1.000000; 1.000000; 1.000000; 1.000000;,
    138; 1.000000; 1.000000; 1.000000; 1.000000;,
    139; 1.000000; 1.000000; 1.000000; 1.000000;,
    140; 1.000000; 1.000000; 1.000000; 1.000000;,
    141; 1.000000; 1.000000; 1.000000; 1.000000;,
    142; 1.000000; 1.000000; 1.000000; 1.000000;,
    143; 1.000000; 1.000000; 1.000000; 1.000000;,
    144; 1.000000; 1.000000; 1.000000; 1.000000;,
    145; 1.000000; 1.000000; 1.000000; 1.000000;,
    146; 1.000000; 1.000000; 1.000000; 1.000000;,
    147; 1.000000; 1.000000; 1.000000; 1.000000;,
    148; 1.000000; 1.000000; 1.000000; 1.000000;,
    149; 1.000000; 1.000000; 1.000000; 1.000000;,
    150; 1.000000; 1.000000; 1.000000; 1.000000;,
    151; 1.000000; 1.000000; 1.000000; 1.000000;,
    152; 1.000000; 1.000000; 1.000000; 1.000000;,
    153; 1.000000; 1.000000; 1.000000; 1.000000;,
    154; 1.000000; 1.000000; 1.000000; 1.000000;,
    155; 1.000000; 1.000000; 1.000000; 1.000000;,
    156; 1.000000; 1.000000; 1.000000; 1.000000;,
    157; 1.000000; 1.000000; 1.000000; 1.000000;,
    158; 1.000000; 1.000000; 1.000000; 1.000000;,
    159; 1.000000; 1.000000; 1.000000; 1.000000;,
    160; 1.000000; 1.000000; 1.000000; 1.000000;,
    161; 1.000000; 1.000000; 1.000000; 1.000000;,
    162; 1.000000; 1.000000; 1.000000; 1.000000;,
    163; 1.000000; 1.000000; 1.000000; 1.000000;,
    164; 1.000000; 1.000000; 1.000000; 1.000000;,
    165; 1.000000; 1.000000; 1.000000; 1.000000;,
    166; 1.000000; 1.000000; 1.000000; 1.000000;,
    167; 1.000000; 1.000000; 1.000000; 1.000000;,
    168; 1.000000; 1.000000; 1.000000; 1.000000;,
    169; 1.000000; 1.000000; 1.000000; 1.000000;,
    170; 1.000000; 1.000000; 1.000000; 1.000000;,
    171; 1.000000; 1.000000; 1.000000; 1.000000;,
    172; 1.000000; 1.000000; 1.000000; 1.000000;,
    173; 1.000000; 1.000000; 1.000000; 1.000000;,
    174; 1.000000; 1.000000; 1.000000; 1.000000;,
    175; 1.000000; 1.000000; 1.000000; 1.000000;,
    176; 1.000000; 1.000000; 1.000000; 1.000000;,
    177; 1.000000; 1.000000; 1.000000; 1.000000;,
    178; 1.000000; 1.000000; 1.000000; 1.000000;,
    179; 1.000000; 1.000000; 1.000000; 1.000000;,
    180; 1.000000; 1.000000; 1.000000; 1.000000;,
    181; 1.000000; 1.000000; 1.000000; 1.000000;,
    182; 1.000000; 1.000000; 1.000000; 1.000000;,
    183; 1.000000; 1.000000; 1.000000; 1.000000;,
    184; 1.000000; 1.000000; 1.000000; 1.000000;,
    185; 1.000000; 1.000000; 1.000000; 1.000000;,
    186; 1.000000; 1.000000; 1.000000; 1.000000;,
    187; 1.000000; 1.000000; 1.000000; 1.000000;,
    188; 1.000000; 1.000000; 1.000000; 1.000000;,
    189; 1.000000; 1.000000; 1.000000; 1.000000;,
    190; 1.000000; 1.000000; 1.000000; 1.000000;,
    191; 1.000000; 1.000000; 1.000000; 1.000000;,
    192; 1.000000; 1.000000; 1.000000; 1.000000;,
    193; 1.000000; 1.000000; 1.000000; 1.000000;;
   }

   MeshMaterialList {
    2;
    154;
    0,
    0,
    0,
    0,
    0,
    0,
    0,
    0,
    0,
    0,
    0,
    0,
    0,
    0,
    0,
    0,
    0,
    0,
    0,
    0,
    0,
    0,
    0,
    0,
    0,
    0,
    0,
    0,
    0,
    0,
    0,
    0,
    0,
    0,
    0,
    0,
    0,
    0,
    0,
    0,
    0,
    0,
    0,
    0,
    0,
    0,
    0,
    0,
    0,
    0,
    0,
    0,
    0,
    0,
    0,
    0,
    0,
    0,
    0,
    0,
    0,
    0,
    0,
    0,
    0,
    0,
    0,
    0,
    0,
    0,
    0,
    0,
    0,
    0,
    0,
    0,
    0,
    0,
    0,
    0,
    1,
    1,
    1,
    1,
    1,
    1,
    1,
    1,
    1,
    1,
    1,
    1,
    1,
    1,
    1,
    1,
    1,
    1,
    1,
    1,
    1,
    1,
    1,
    1,
    1,
    1,
    1,
    1,
    1,
    1,
    1,
    1,
    1,
    1,
    1,
    1,
    1,
    1,
    1,
    1,
    1,
    1,
    1,
    1,
    1,
    1,
    1,
    1,
    1,
    1,
    1,
    1,
    1,
    1,
    1,
    1,
    1,
    1,
    1,
    1,
    1,
    1,
    1,
    1,
    1,
    1,
    1,
    1,
    1,
    1,
    1,
    1,
    1,
    1;

    Material DungNewA {
     1.000000; 1.000000; 1.000000; 1.000000;;
     128.000000;
     1.000000; 1.000000; 1.000000;;
     0.000000; 0.000000; 0.000000;;

     TextureFilename {
      "DungNewA.dds";
     }
    }

    Material DungNewD {
     1.000000; 1.000000; 1.000000; 1.000000;;
     128.000000;
     1.000000; 1.000000; 1.000000;;
     0.000000; 0.000000; 0.000000;;

     TextureFilename {
      "DungNewD.dds";
     }
    }

   }
  }
}
