xof 0303txt 0032

// DirectX 9.0 file
// Creator: Ultimate Unwrap3D Pro v3.32
// Website: http://www.unwrap3d.com
// Time: Wed Sep 07 19:53:39 2011

// Start of Templates

template VertexDuplicationIndices {
 <b8d65549-d7c9-4995-89cf-53a9a8b031e3>
 DWORD nIndices;
 DWORD nOriginalVertices;
 array DWORD indices[nIndices];
}

template FVFData {
 <b6e70a0e-8ef9-4e83-94ad-ecc8b0c04897>
 DWORD dwFVF;
 DWORD nDWords;
 array DWORD data[nDWords];
}

template Header {
 <3D82AB43-62DA-11cf-AB39-0020AF71E433>
 WORD major;
 WORD minor;
 DWORD flags;
}

template Vector {
 <3D82AB5E-62DA-11cf-AB39-0020AF71E433>
 FLOAT x;
 FLOAT y;
 FLOAT z;
}

template Coords2d {
 <F6F23F44-7686-11cf-8F52-0040333594A3>
 FLOAT u;
 FLOAT v;
}

template Matrix4x4 {
 <F6F23F45-7686-11cf-8F52-0040333594A3>
 array FLOAT matrix[16];
}

template ColorRGBA {
 <35FF44E0-6C7C-11cf-8F52-0040333594A3>
 FLOAT red;
 FLOAT green;
 FLOAT blue;
 FLOAT alpha;
}

template ColorRGB {
 <D3E16E81-7835-11cf-8F52-0040333594A3>
 FLOAT red;
 FLOAT green;
 FLOAT blue;
}

template IndexedColor {
 <1630B820-7842-11cf-8F52-0040333594A3>
 DWORD index;
 ColorRGBA indexColor;
}

template Material {
 <3D82AB4D-62DA-11cf-AB39-0020AF71E433>
 ColorRGBA faceColor;
 FLOAT power;
 ColorRGB specularColor;
 ColorRGB emissiveColor;
 [...]
}

template TextureFilename {
 <A42790E1-7810-11cf-8F52-0040333594A3>
 STRING filename;
}

template MeshFace {
 <3D82AB5F-62DA-11cf-AB39-0020AF71E433>
 DWORD nFaceVertexIndices;
 array DWORD faceVertexIndices[nFaceVertexIndices];
}

template MeshTextureCoords {
 <F6F23F40-7686-11cf-8F52-0040333594A3>
 DWORD nTextureCoords;
 array Coords2d textureCoords[nTextureCoords];
}

template MeshMaterialList {
 <F6F23F42-7686-11cf-8F52-0040333594A3>
 DWORD nMaterials;
 DWORD nFaceIndexes;
 array DWORD faceIndexes[nFaceIndexes];
 [Material]
}

template MeshNormals {
 <F6F23F43-7686-11cf-8F52-0040333594A3>
 DWORD nNormals;
 array Vector normals[nNormals];
 DWORD nFaceNormals;
 array MeshFace faceNormals[nFaceNormals];
}

template MeshVertexColors {
 <1630B821-7842-11cf-8F52-0040333594A3>
 DWORD nVertexColors;
 array IndexedColor vertexColors[nVertexColors];
}

template Mesh {
 <3D82AB44-62DA-11cf-AB39-0020AF71E433>
 DWORD nVertices;
 array Vector vertices[nVertices];
 DWORD nFaces;
 array MeshFace faces[nFaces];
 [...]
}

template FrameTransformMatrix {
 <F6F23F41-7686-11cf-8F52-0040333594A3>
 Matrix4x4 frameMatrix;
}

template Frame {
 <3D82AB46-62DA-11cf-AB39-0020AF71E433>
 [...]
}

template FloatKeys {
 <10DD46A9-775B-11cf-8F52-0040333594A3>
 DWORD nValues;
 array FLOAT values[nValues];
}

template TimedFloatKeys {
 <F406B180-7B3B-11cf-8F52-0040333594A3>
 DWORD time;
 FloatKeys tfkeys;
}

template AnimationKey {
 <10DD46A8-775B-11cf-8F52-0040333594A3>
 DWORD keyType;
 DWORD nKeys;
 array TimedFloatKeys keys[nKeys];
}

template AnimationOptions {
 <E2BF56C0-840F-11cf-8F52-0040333594A3>
 DWORD openclosed;
 DWORD positionquality;
}

template Animation {
 <3D82AB4F-62DA-11cf-AB39-0020AF71E433>
 [...]
}

template AnimationSet {
 <3D82AB50-62DA-11cf-AB39-0020AF71E433>
 [Animation]
}

template XSkinMeshHeader {
 <3CF169CE-FF7C-44ab-93C0-F78F62D172E2>
 WORD nMaxSkinWeightsPerVertex;
 WORD nMaxSkinWeightsPerFace;
 WORD nBones;
}

template SkinWeights {
 <6F0D123B-BAD2-4167-A0D0-80224F25FABB>
 STRING transformNodeName;
 DWORD nWeights;
 array DWORD vertexIndices[nWeights];
 array FLOAT weights[nWeights];
 Matrix4x4 matrixOffset;
}

template AnimTicksPerSecond {
 <9E415A43-7BA6-4a73-8743-B73D47E88476>
 DWORD AnimTicksPerSecond;
}

AnimTicksPerSecond {
 4800;
}

// Start of Frames

Frame Body {
   FrameTransformMatrix {
    1.000000, 0.000000, 0.000000, 0.000000,
    0.000000, 1.000000, 0.000000, 0.000000,
    0.000000, 0.000000, 1.000000, 0.000000,
    0.000000, 0.000000, 0.000000, 1.000000;;
   }

   Mesh staticMesh {
    342;
    -408.809570; 420.280029; -271.669922;,
    -408.809570; 420.280029; 122.589844;,
    -355.049805; 420.280029; -271.669922;,
    -355.049805; 420.280029; 122.589844;,
    -408.809570; 399.230042; 122.589844;,
    -408.809570; 399.230042; -271.669922;,
    -355.049805; 399.230042; 122.589844;,
    -355.049805; 399.230042; -271.669922;,
    -408.809570; 420.280029; 122.589844;,
    -355.049805; 420.280029; 122.589844;,
    -408.809570; 420.280029; -271.669922;,
    -355.049805; 420.280029; -271.669922;,
    327.379883; 420.280029; -271.669922;,
    327.379883; 420.280029; 122.589844;,
    401.180664; 420.280029; -271.669922;,
    401.180664; 420.280029; 122.589844;,
    327.379883; 399.230042; 122.589844;,
    327.379883; 399.230042; -271.669922;,
    401.180664; 399.230042; 122.589844;,
    401.180664; 399.230042; -271.669922;,
    327.379883; 420.280029; 122.589844;,
    401.180664; 420.280029; 122.589844;,
    327.379883; 420.280029; -271.669922;,
    401.180664; 420.280029; -271.669922;,
    74.760742; 420.280029; -271.669922;,
    74.760742; 420.280029; 122.589844;,
    148.560547; 420.280029; -271.669922;,
    148.560547; 420.280029; 122.589844;,
    74.760742; 399.230042; 122.589844;,
    74.760742; 399.230042; -271.669922;,
    148.560547; 399.230042; 122.589844;,
    148.560547; 399.230042; -271.669922;,
    74.760742; 420.280029; 122.589844;,
    148.560547; 420.280029; 122.589844;,
    74.760742; 420.280029; -271.669922;,
    148.560547; 420.280029; -271.669922;,
    -144.889648; 420.280029; -271.669922;,
    -144.889648; 420.280029; 122.589844;,
    -71.089844; 420.280029; -271.669922;,
    -71.089844; 420.280029; 122.589844;,
    -144.889648; 399.230042; 122.589844;,
    -144.889648; 399.230042; -271.669922;,
    -71.089844; 399.230042; 122.589844;,
    -71.089844; 399.230042; -271.669922;,
    -144.889648; 420.280029; 122.589844;,
    -71.089844; 420.280029; 122.589844;,
    -144.889648; 420.280029; -271.669922;,
    -71.089844; 420.280029; -271.669922;,
    -285.059570; 420.280029; -271.669922;,
    -285.059570; 420.280029; 122.589844;,
    -231.299805; 420.280029; -271.669922;,
    -231.299805; 420.280029; 122.589844;,
    -285.059570; 399.230042; 122.589844;,
    -285.059570; 399.230042; -271.669922;,
    -231.299805; 399.230042; 122.589844;,
    -231.299805; 399.230042; -271.669922;,
    -285.059570; 420.280029; 122.589844;,
    -231.299805; 420.280029; 122.589844;,
    -285.059570; 420.280029; -271.669922;,
    -231.299805; 420.280029; -271.669922;,
    361.370117; 74.390015; 606.060059;,
    361.370117; 74.390015; 156.029785;,
    -356.189453; 74.390015; 606.060059;,
    -356.189453; 74.390015; 156.029785;,
    -337.799805; 92.779999; -606.049805;,
    -337.799805; 92.779999; -238.229980;,
    342.980469; 92.779999; -606.049805;,
    342.980469; 92.779999; -238.229980;,
    -435.589844; 26.130020; -238.229980;,
    -435.589844; 26.130020; 156.029785;,
    409.730469; 26.030014; -238.229980;,
    409.730469; 26.030014; 156.029785;,
    -435.759766; 0.100006; 182.060059;,
    -435.759766; 0.100006; -264.260254;,
    435.760742; 0.000015; 182.060059;,
    435.760742; 0.000015; -264.260254;,
    435.760742; 0.000015; 182.060059;,
    435.760742; 0.000015; -264.260254;,
    435.760742; 446.320007; 182.060059;,
    435.760742; 446.320007; -264.260254;,
    -382.219727; 397.950012; 182.060059;,
    387.400391; 397.950012; 182.060059;,
    -432.909668; 446.359985; 182.060059;,
    435.760742; 446.320007; 182.060059;,
    387.400391; 48.360016; 182.060059;,
    435.760742; 0.000015; 182.060059;,
    -382.219727; 48.360016; 182.060059;,
    -435.759766; 0.100006; 182.060059;,
    -382.219727; 397.950012; 632.089844;,
    -382.219727; 48.360016; 632.089844;,
    387.400391; 397.950012; 632.089844;,
    387.400391; 48.360016; 632.089844;,
    -382.219727; 48.360016; 182.060059;,
    -382.219727; 48.360016; 632.089844;,
    -382.219727; 397.950012; 182.060059;,
    -382.219727; 397.950012; 632.089844;,
    387.400391; 397.950012; 182.060059;,
    387.400391; 397.950012; 632.089844;,
    387.400391; 48.360016; 182.060059;,
    387.400391; 48.360016; 632.089844;,
    387.400391; 48.360016; 182.060059;,
    387.400391; 48.360016; 632.089844;,
    -382.219727; 48.360016; 182.060059;,
    -382.219727; 48.360016; 632.089844;,
    -363.830078; 66.750015; -264.260254;,
    369.010742; 66.750015; -264.260254;,
    -435.759766; 0.100006; -264.260254;,
    435.760742; 0.000015; -264.260254;,
    369.010742; 379.559998; -264.260254;,
    435.760742; 446.320007; -264.260254;,
    -363.830078; 379.559998; -264.260254;,
    -432.909668; 446.359985; -264.260254;,
    -363.830078; 66.750015; -632.089844;,
    -363.830078; 379.559998; -632.089844;,
    369.010742; 66.750015; -632.089844;,
    369.010742; 379.559998; -632.089844;,
    -363.830078; 379.559998; -264.260254;,
    -363.830078; 379.559998; -632.089844;,
    -363.830078; 66.750015; -264.260254;,
    -363.830078; 66.750015; -632.089844;,
    369.010742; 66.750015; -264.260254;,
    369.010742; 66.750015; -632.089844;,
    369.010742; 379.559998; -264.260254;,
    369.010742; 379.559998; -632.089844;,
    -363.830078; 66.750015; -264.260254;,
    -363.830078; 66.750015; -632.089844;,
    369.010742; 66.750015; -264.260254;,
    369.010742; 66.750015; -632.089844;,
    -304.080078; 379.559998; -324.010254;,
    -304.080078; 379.559998; -572.339844;,
    -363.830078; 379.559998; -264.260254;,
    -363.830078; 379.559998; -632.089844;,
    309.260742; 379.559998; -572.339844;,
    369.010742; 379.559998; -632.089844;,
    309.260742; 379.559998; -324.010254;,
    369.010742; 379.559998; -264.260254;,
    -274.379883; 431.640015; -336.029785;,
    279.560547; 431.640015; -336.029785;,
    -274.379883; 431.640015; -560.310059;,
    279.560547; 431.640015; -560.310059;,
    -304.080078; 379.559998; -324.010254;,
    -274.379883; 431.640015; -336.029785;,
    -304.080078; 379.559998; -572.339844;,
    -274.379883; 431.640015; -560.310059;,
    309.260742; 379.559998; -324.010254;,
    279.560547; 431.640015; -336.029785;,
    309.260742; 379.559998; -572.339844;,
    279.560547; 431.640015; -560.310059;,
    309.260742; 379.559998; -572.339844;,
    279.560547; 431.640015; -560.310059;,
    327.250000; 397.950012; 242.209961;,
    327.250000; 397.950012; 571.939941;,
    387.400391; 397.950012; 182.060059;,
    387.400391; 397.950012; 632.089844;,
    -322.080078; 397.950012; 571.939941;,
    -382.219727; 397.950012; 632.089844;,
    -322.080078; 397.950012; 242.209961;,
    -382.219727; 397.950012; 182.060059;,
    301.459961; 436.080017; 255.310059;,
    -296.279297; 436.080017; 255.310059;,
    301.459961; 436.080017; 558.850098;,
    -296.290039; 436.080017; 558.850098;,
    -322.080078; 397.950012; 571.939941;,
    -296.290039; 436.080017; 558.850098;,
    -322.080078; 397.950012; 242.209961;,
    -296.279297; 436.080017; 255.310059;,
    327.250000; 397.950012; 242.209961;,
    301.459961; 436.080017; 255.310059;,
    327.250000; 397.950012; 571.939941;,
    301.459961; 436.080017; 558.850098;,
    327.250000; 397.950012; 242.209961;,
    301.459961; 436.080017; 255.310059;,
    -433.609863; 336.910034; 182.060059;,
    -433.619629; 334.540039; -264.260254;,
    409.730469; 26.030014; -238.229980;,
    409.730469; 26.030014; 156.029785;,
    409.730469; 420.280029; -238.229980;,
    409.730469; 420.280029; 156.029785;,
    361.370117; 371.919983; 156.029785;,
    -356.189453; 371.919983; 156.029785;,
    409.730469; 420.280029; 156.029785;,
    -404.549805; 420.280029; 156.029785;,
    361.370117; 74.390015; 156.029785;,
    361.370117; 371.919983; 156.029785;,
    -356.189453; 74.390015; 606.060059;,
    -356.189453; 371.919983; 606.060059;,
    361.370117; 74.390015; 606.060059;,
    361.370117; 371.919983; 606.060059;,
    -356.189453; 74.390015; 156.029785;,
    -356.189453; 371.919983; 156.029785;,
    342.980469; 353.530029; -238.229980;,
    342.980469; 92.779999; -238.229980;,
    -337.799805; 353.530029; -238.229980;,
    342.980469; 353.530029; -238.229980;,
    -404.549805; 420.280029; -238.229980;,
    409.730469; 420.280029; -238.229980;,
    -337.799805; 353.530029; -606.049805;,
    -337.799805; 92.779999; -606.049805;,
    342.980469; 353.530029; -606.049805;,
    342.980469; 92.779999; -606.049805;,
    -337.799805; 353.530029; -238.229980;,
    -337.799805; 92.779999; -238.229980;,
    -288.959961; 353.530029; -551.629883;,
    -288.959961; 353.530029; -344.720215;,
    -337.799805; 353.530029; -606.049805;,
    -337.799805; 353.530029; -238.229980;,
    294.140625; 353.530029; -551.629883;,
    -288.959961; 353.530029; -551.629883;,
    342.980469; 353.530029; -606.049805;,
    -337.799805; 353.530029; -606.049805;,
    294.140625; 353.530029; -344.720215;,
    294.140625; 353.530029; -551.629883;,
    342.980469; 353.530029; -238.229980;,
    342.980469; 353.530029; -606.049805;,
    -288.959961; 353.530029; -344.720215;,
    294.140625; 353.530029; -344.720215;,
    264.430664; 405.609985; -356.740234;,
    -259.259766; 405.609985; -356.740234;,
    264.430664; 405.609985; -539.600098;,
    -259.259766; 405.609985; -539.600098;,
    -259.259766; 405.609985; -356.740234;,
    -259.259766; 405.609985; -539.600098;,
    264.430664; 405.609985; -356.740234;,
    -259.259766; 405.609985; -356.740234;,
    -259.259766; 405.609985; -539.600098;,
    264.430664; 405.609985; -539.600098;,
    264.430664; 405.609985; -539.600098;,
    264.430664; 405.609985; -356.740234;,
    313.430664; 371.919983; 553.359863;,
    313.430664; 371.919983; 260.790039;,
    361.370117; 371.919983; 606.060059;,
    361.370117; 371.919983; 156.029785;,
    -308.259766; 371.919983; 553.359863;,
    313.430664; 371.919983; 553.359863;,
    -356.189453; 371.919983; 606.060059;,
    361.370117; 371.919983; 606.060059;,
    -308.259766; 371.919983; 260.790039;,
    -308.259766; 371.919983; 553.359863;,
    -356.189453; 371.919983; 156.029785;,
    -356.189453; 371.919983; 606.060059;,
    313.430664; 371.919983; 260.790039;,
    -308.259766; 371.919983; 260.790039;,
    -282.469727; 410.049988; 273.899902;,
    287.640625; 410.049988; 273.899902;,
    -282.469727; 410.049988; 540.259766;,
    287.640625; 410.049988; 540.259766;,
    -282.469727; 410.049988; 540.259766;,
    -282.469727; 410.049988; 273.899902;,
    -282.469727; 410.049988; 273.899902;,
    287.640625; 410.049988; 273.899902;,
    287.640625; 410.049988; 540.259766;,
    -282.469727; 410.049988; 540.259766;,
    287.640625; 410.049988; 273.899902;,
    287.640625; 410.049988; 540.259766;,
    -404.549805; 420.280029; 156.029785;,
    -404.549805; 420.280029; -238.229980;,
    409.730469; 420.280029; 156.029785;,
    409.730469; 420.280029; -238.229980;,
    -435.589844; 26.130020; 156.029785;,
    -435.759766; 0.100006; 182.060059;,
    -433.609863; 340.000000; 154.439941;,
    -433.609863; 336.910034; 182.060059;,
    -433.619629; 340.200012; -231.620117;,
    -433.619629; 334.540039; -264.260254;,
    -435.589844; 26.130020; -238.229980;,
    -435.759766; 0.100006; -264.260254;,
    -432.909668; 446.359985; -264.260254;,
    -432.909668; 446.359985; -229.029785;,
    -432.909668; 446.359985; 154.439941;,
    -432.909668; 446.359985; 182.060059;,
    -432.909668; 446.359985; -264.260254;,
    -432.909668; 446.359985; -229.029785;,
    435.760742; 446.320007; -264.260254;,
    -432.909668; 446.359985; 154.439941;,
    435.760742; 446.320007; 182.060059;,
    -432.909668; 446.359985; 182.060059;,
    -433.619629; 340.200012; -231.620117;,
    -414.049805; 339.820007; -232.970215;,
    -433.609863; 340.000000; 154.439941;,
    -416.179688; 339.210022; 154.799805;,
    -416.179688; 339.210022; 154.799805;,
    -414.049805; 339.820007; -232.970215;,
    -404.549805; 420.280029; 156.029785;,
    -404.549805; 420.280029; -238.229980;,
    -416.179688; 339.210022; 154.799805;,
    -404.549805; 420.280029; 156.029785;,
    -356.189453; 371.919983; 156.029785;,
    -416.179688; 339.210022; 154.799805;,
    -433.609863; 340.000000; 154.439941;,
    -435.589844; 26.130020; 156.029785;,
    -356.189453; 74.390015; 156.029785;,
    361.370117; 74.390015; 156.029785;,
    -435.589844; 26.130020; 156.029785;,
    409.730469; 26.030014; 156.029785;,
    342.980469; 92.779999; -238.229980;,
    -337.799805; 92.779999; -238.229980;,
    409.730469; 26.030014; -238.229980;,
    -435.589844; 26.130020; -238.229980;,
    -337.799805; 353.530029; -238.229980;,
    -414.049805; 339.820007; -232.970215;,
    -337.799805; 92.779999; -238.229980;,
    -414.049805; 339.820007; -232.970215;,
    -433.619629; 340.200012; -231.620117;,
    -414.049805; 339.820007; -232.970215;,
    -337.799805; 353.530029; -238.229980;,
    -404.549805; 420.280029; -238.229980;,
    -338.969727; 26.130020; -129.810059;,
    -338.969727; 26.130020; -238.229980;,
    409.730469; 26.030014; -129.810059;,
    409.730469; 26.030014; -238.229980;,
    -338.959961; 88.350006; -238.229980;,
    -338.969727; 26.130020; -129.810059;,
    409.740234; 88.260010; -238.229980;,
    409.730469; 26.030014; -129.810059;,
    -338.969727; 26.130020; -238.229980;,
    -338.959961; 88.350006; -238.229980;,
    409.730469; 26.030014; -238.229980;,
    409.740234; 88.260010; -238.229980;,
    -338.959961; 88.350006; -238.229980;,
    -338.969727; 26.130020; -238.229980;,
    -338.969727; 26.130020; -129.810059;,
    409.740234; 88.260010; -238.229980;,
    409.730469; 26.030014; -129.810059;,
    409.730469; 26.030014; -238.229980;,
    -338.969727; 26.130020; 156.509766;,
    -338.969727; 26.130020; 48.089844;,
    409.730469; 26.030014; 156.509766;,
    409.730469; 26.030014; 48.089844;,
    -338.969727; 26.130020; 48.089844;,
    -338.959961; 68.740021; 156.509766;,
    409.730469; 26.030014; 48.089844;,
    409.740234; 68.640015; 156.509766;,
    -338.959961; 68.740021; 156.509766;,
    -338.969727; 26.130020; 156.509766;,
    409.740234; 68.640015; 156.509766;,
    409.730469; 26.030014; 156.509766;,
    -338.969727; 26.130020; 48.089844;,
    -338.969727; 26.130020; 156.509766;,
    -338.959961; 68.740021; 156.509766;,
    409.730469; 26.030014; 156.509766;,
    409.730469; 26.030014; 48.089844;,
    409.740234; 68.640015; 156.509766;;
    248;
    3;0, 1, 2;,
    3;1, 3, 2;,
    3;4, 5, 6;,
    3;5, 7, 6;,
    3;8, 4, 9;,
    3;4, 6, 9;,
    3;10, 5, 8;,
    3;5, 4, 8;,
    3;9, 6, 11;,
    3;6, 7, 11;,
    3;11, 7, 10;,
    3;7, 5, 10;,
    3;12, 13, 14;,
    3;13, 15, 14;,
    3;16, 17, 18;,
    3;17, 19, 18;,
    3;20, 16, 21;,
    3;16, 18, 21;,
    3;22, 17, 20;,
    3;17, 16, 20;,
    3;21, 18, 23;,
    3;18, 19, 23;,
    3;23, 19, 22;,
    3;19, 17, 22;,
    3;24, 25, 26;,
    3;25, 27, 26;,
    3;28, 29, 30;,
    3;29, 31, 30;,
    3;32, 28, 33;,
    3;28, 30, 33;,
    3;34, 29, 32;,
    3;29, 28, 32;,
    3;33, 30, 35;,
    3;30, 31, 35;,
    3;35, 31, 34;,
    3;31, 29, 34;,
    3;36, 37, 38;,
    3;37, 39, 38;,
    3;40, 41, 42;,
    3;41, 43, 42;,
    3;44, 40, 45;,
    3;40, 42, 45;,
    3;46, 41, 44;,
    3;41, 40, 44;,
    3;45, 42, 47;,
    3;42, 43, 47;,
    3;47, 43, 46;,
    3;43, 41, 46;,
    3;48, 49, 50;,
    3;49, 51, 50;,
    3;52, 53, 54;,
    3;53, 55, 54;,
    3;56, 52, 57;,
    3;52, 54, 57;,
    3;58, 53, 56;,
    3;53, 52, 56;,
    3;57, 54, 59;,
    3;54, 55, 59;,
    3;59, 55, 58;,
    3;55, 53, 58;,
    3;60, 61, 62;,
    3;61, 63, 62;,
    3;64, 65, 66;,
    3;65, 67, 66;,
    3;68, 69, 70;,
    3;69, 71, 70;,
    3;72, 73, 74;,
    3;73, 75, 74;,
    3;76, 77, 78;,
    3;77, 79, 78;,
    3;80, 81, 82;,
    3;81, 83, 82;,
    3;81, 84, 83;,
    3;84, 85, 83;,
    3;84, 86, 85;,
    3;86, 87, 85;,
    3;88, 89, 90;,
    3;89, 91, 90;,
    3;92, 93, 94;,
    3;93, 95, 94;,
    3;96, 97, 98;,
    3;97, 99, 98;,
    3;100, 101, 102;,
    3;101, 103, 102;,
    3;104, 105, 106;,
    3;105, 107, 106;,
    3;105, 108, 107;,
    3;108, 109, 107;,
    3;108, 110, 109;,
    3;110, 111, 109;,
    3;112, 113, 114;,
    3;113, 115, 114;,
    3;116, 117, 118;,
    3;117, 119, 118;,
    3;120, 121, 122;,
    3;121, 123, 122;,
    3;124, 125, 126;,
    3;125, 127, 126;,
    3;128, 129, 130;,
    3;129, 131, 130;,
    3;129, 132, 131;,
    3;132, 133, 131;,
    3;132, 134, 133;,
    3;134, 135, 133;,
    3;134, 128, 135;,
    3;128, 130, 135;,
    3;136, 137, 138;,
    3;137, 139, 138;,
    3;140, 141, 142;,
    3;141, 143, 142;,
    3;144, 145, 140;,
    3;145, 141, 140;,
    3;142, 143, 146;,
    3;143, 147, 146;,
    3;148, 149, 144;,
    3;149, 145, 144;,
    3;150, 151, 152;,
    3;151, 153, 152;,
    3;151, 154, 153;,
    3;154, 155, 153;,
    3;154, 156, 155;,
    3;156, 157, 155;,
    3;156, 150, 157;,
    3;150, 152, 157;,
    3;158, 159, 160;,
    3;159, 161, 160;,
    3;162, 163, 164;,
    3;163, 165, 164;,
    3;164, 165, 166;,
    3;165, 167, 166;,
    3;168, 169, 162;,
    3;169, 163, 162;,
    3;170, 171, 168;,
    3;171, 169, 168;,
    3;86, 80, 87;,
    3;80, 172, 87;,
    3;80, 82, 172;,
    3;110, 104, 173;,
    3;104, 106, 173;,
    3;173, 111, 110;,
    3;174, 175, 176;,
    3;175, 177, 176;,
    3;178, 179, 180;,
    3;179, 181, 180;,
    3;182, 183, 175;,
    3;183, 177, 175;,
    3;184, 185, 186;,
    3;185, 187, 186;,
    3;184, 188, 185;,
    3;188, 189, 185;,
    3;187, 183, 186;,
    3;183, 182, 186;,
    3;190, 191, 176;,
    3;191, 174, 176;,
    3;192, 193, 194;,
    3;193, 195, 194;,
    3;196, 197, 198;,
    3;197, 199, 198;,
    3;196, 200, 197;,
    3;200, 201, 197;,
    3;199, 191, 198;,
    3;191, 190, 198;,
    3;202, 203, 204;,
    3;203, 205, 204;,
    3;206, 207, 208;,
    3;207, 209, 208;,
    3;210, 211, 212;,
    3;211, 213, 212;,
    3;214, 215, 192;,
    3;215, 193, 192;,
    3;216, 217, 218;,
    3;217, 219, 218;,
    3;220, 203, 221;,
    3;203, 202, 221;,
    3;222, 215, 223;,
    3;215, 214, 223;,
    3;224, 207, 225;,
    3;207, 206, 225;,
    3;226, 211, 227;,
    3;211, 210, 227;,
    3;228, 229, 230;,
    3;229, 231, 230;,
    3;232, 233, 234;,
    3;233, 235, 234;,
    3;236, 237, 238;,
    3;237, 239, 238;,
    3;240, 241, 178;,
    3;241, 179, 178;,
    3;242, 243, 244;,
    3;243, 245, 244;,
    3;246, 237, 247;,
    3;237, 236, 247;,
    3;248, 241, 249;,
    3;241, 240, 249;,
    3;250, 233, 251;,
    3;233, 232, 251;,
    3;252, 229, 253;,
    3;229, 228, 253;,
    3;254, 255, 256;,
    3;255, 257, 256;,
    3;258, 259, 260;,
    3;259, 261, 260;,
    3;262, 263, 264;,
    3;263, 265, 264;,
    3;266, 263, 267;,
    3;263, 262, 267;,
    3;267, 262, 268;,
    3;262, 260, 268;,
    3;268, 260, 269;,
    3;260, 261, 269;,
    3;270, 271, 272;,
    3;271, 273, 272;,
    3;272, 273, 274;,
    3;273, 275, 274;,
    3;276, 277, 278;,
    3;277, 279, 278;,
    3;280, 281, 282;,
    3;281, 283, 282;,
    3;284, 285, 286;,
    3;188, 287, 189;,
    3;287, 188, 288;,
    3;188, 289, 288;,
    3;290, 291, 292;,
    3;291, 293, 292;,
    3;264, 265, 258;,
    3;265, 259, 258;,
    3;294, 295, 296;,
    3;295, 297, 296;,
    3;298, 299, 300;,
    3;295, 301, 297;,
    3;301, 302, 297;,
    3;303, 304, 305;,
    3;306, 307, 308;,
    3;307, 309, 308;,
    3;310, 311, 312;,
    3;311, 313, 312;,
    3;314, 315, 316;,
    3;315, 317, 316;,
    3;318, 319, 320;,
    3;321, 322, 323;,
    3;324, 325, 326;,
    3;325, 327, 326;,
    3;328, 329, 330;,
    3;329, 331, 330;,
    3;332, 333, 334;,
    3;333, 335, 334;,
    3;336, 337, 338;,
    3;339, 340, 341;;

   MeshNormals {
    342;
    0.000000; 1.000000; 0.000000;,
    0.000000; 1.000000; 0.000000;,
    0.000000; 1.000000; 0.000000;,
    0.000000; 1.000000; 0.000000;,
    -0.577350; -0.577350; 0.577350;,
    -0.577350; -0.577350; -0.577350;,
    0.577350; -0.577350; 0.577350;,
    0.577350; -0.577350; -0.577350;,
    -0.707107; 0.000000; 0.707107;,
    0.707107; 0.000000; 0.707107;,
    -0.707107; 0.000000; -0.707107;,
    0.707107; 0.000000; -0.707107;,
    0.000000; 1.000000; 0.000000;,
    0.000000; 1.000000; 0.000000;,
    0.000000; 1.000000; 0.000000;,
    0.000000; 1.000000; 0.000000;,
    -0.577350; -0.577350; 0.577350;,
    -0.577350; -0.577350; -0.577350;,
    0.577350; -0.577350; 0.577350;,
    0.577350; -0.577350; -0.577350;,
    -0.707107; 0.000000; 0.707107;,
    0.707107; 0.000000; 0.707107;,
    -0.707107; 0.000000; -0.707107;,
    0.707107; 0.000000; -0.707107;,
    0.000000; 1.000000; 0.000000;,
    0.000000; 1.000000; 0.000000;,
    0.000000; 1.000000; 0.000000;,
    0.000000; 1.000000; 0.000000;,
    -0.577350; -0.577350; 0.577350;,
    -0.577350; -0.577350; -0.577350;,
    0.577350; -0.577350; 0.577350;,
    0.577350; -0.577350; -0.577350;,
    -0.707107; 0.000000; 0.707107;,
    0.707107; 0.000000; 0.707107;,
    -0.707107; 0.000000; -0.707107;,
    0.707107; 0.000000; -0.707107;,
    0.000000; 1.000000; 0.000000;,
    0.000000; 1.000000; 0.000000;,
    0.000000; 1.000000; 0.000000;,
    0.000000; 1.000000; 0.000000;,
    -0.577350; -0.577350; 0.577350;,
    -0.577350; -0.577350; -0.577350;,
    0.577350; -0.577350; 0.577350;,
    0.577350; -0.577350; -0.577350;,
    -0.707107; 0.000000; 0.707107;,
    0.707107; 0.000000; 0.707107;,
    -0.707107; 0.000000; -0.707107;,
    0.707107; 0.000000; -0.707107;,
    0.000000; 1.000000; 0.000000;,
    0.000000; 1.000000; 0.000000;,
    0.000000; 1.000000; 0.000000;,
    0.000000; 1.000000; 0.000000;,
    -0.577350; -0.577350; 0.577350;,
    -0.577350; -0.577350; -0.577350;,
    0.577350; -0.577350; 0.577350;,
    0.577350; -0.577350; -0.577350;,
    -0.707107; 0.000000; 0.707107;,
    0.707107; 0.000000; 0.707107;,
    -0.707107; 0.000000; -0.707107;,
    0.707107; 0.000000; -0.707107;,
    0.000000; 1.000000; 0.000000;,
    0.000000; 1.000000; 0.000000;,
    0.000000; 1.000000; 0.000000;,
    0.000000; 1.000000; 0.000000;,
    0.000000; 1.000000; 0.000000;,
    0.000000; 1.000000; 0.000000;,
    0.000000; 1.000000; 0.000000;,
    0.000000; 1.000000; 0.000000;,
    0.000118; 1.000000; 0.000000;,
    0.000118; 1.000000; 0.000000;,
    0.000118; 1.000000; 0.000000;,
    0.000118; 1.000000; 0.000000;,
    -0.000115; -1.000000; 0.000000;,
    -0.000115; -1.000000; 0.000000;,
    -0.000115; -1.000000; 0.000000;,
    -0.000115; -1.000000; 0.000000;,
    1.000000; 0.000000; 0.000000;,
    1.000000; 0.000000; 0.000000;,
    1.000000; 0.000000; 0.000000;,
    1.000000; 0.000000; 0.000000;,
    0.000000; 0.000000; 1.000000;,
    0.000000; 0.000000; 1.000000;,
    0.000000; 0.000000; 1.000000;,
    0.000000; 0.000000; 1.000000;,
    0.000000; 0.000000; 1.000000;,
    0.000000; 0.000000; 1.000000;,
    0.000000; 0.000000; 1.000000;,
    0.000000; 0.000000; 1.000000;,
    0.000000; 0.000000; 1.000000;,
    0.000000; 0.000000; 1.000000;,
    0.000000; 0.000000; 1.000000;,
    0.000000; 0.000000; 1.000000;,
    -1.000000; 0.000000; 0.000000;,
    -1.000000; 0.000000; 0.000000;,
    -1.000000; 0.000000; 0.000000;,
    -1.000000; 0.000000; 0.000000;,
    1.000000; 0.000000; 0.000000;,
    1.000000; 0.000000; 0.000000;,
    1.000000; 0.000000; 0.000000;,
    1.000000; 0.000000; 0.000000;,
    0.000000; -1.000000; 0.000000;,
    0.000000; -1.000000; 0.000000;,
    0.000000; -1.000000; 0.000000;,
    0.000000; -1.000000; 0.000000;,
    0.000000; 0.000000; -1.000000;,
    0.000000; 0.000000; -1.000000;,
    0.000000; 0.000000; -1.000000;,
    0.000000; 0.000000; -1.000000;,
    0.000000; 0.000000; -1.000000;,
    0.000000; 0.000000; -1.000000;,
    0.000000; 0.000000; -1.000000;,
    0.000000; 0.000000; -1.000000;,
    0.000000; 0.000000; -1.000000;,
    0.000000; 0.000000; -1.000000;,
    0.000000; 0.000000; -1.000000;,
    0.000000; 0.000000; -1.000000;,
    -1.000000; 0.000000; 0.000000;,
    -1.000000; 0.000000; 0.000000;,
    -1.000000; 0.000000; 0.000000;,
    -1.000000; 0.000000; 0.000000;,
    1.000000; 0.000000; 0.000000;,
    1.000000; 0.000000; 0.000000;,
    1.000000; 0.000000; 0.000000;,
    1.000000; 0.000000; 0.000000;,
    0.000000; -1.000000; 0.000000;,
    0.000000; -1.000000; 0.000000;,
    0.000000; -1.000000; 0.000000;,
    0.000000; -1.000000; 0.000000;,
    0.000000; 1.000000; 0.000000;,
    0.000000; 1.000000; 0.000000;,
    0.000000; 1.000000; 0.000000;,
    0.000000; 1.000000; 0.000000;,
    0.000000; 1.000000; 0.000000;,
    0.000000; 1.000000; 0.000000;,
    0.000000; 1.000000; 0.000000;,
    0.000000; 1.000000; 0.000000;,
    0.000000; 1.000000; 0.000000;,
    0.000000; 1.000000; 0.000000;,
    0.000000; 1.000000; 0.000000;,
    0.000000; 1.000000; 0.000000;,
    -0.582647; 0.483105; 0.653553;,
    -0.582647; 0.483105; 0.653553;,
    -0.582623; 0.483208; -0.653498;,
    -0.582623; 0.483208; -0.653498;,
    0.582647; 0.483105; 0.653553;,
    0.582647; 0.483105; 0.653553;,
    0.000000; 0.225061; -0.974345;,
    0.000000; 0.225061; -0.974345;,
    0.868673; 0.495387; 0.000000;,
    0.868673; 0.495387; 0.000000;,
    0.000000; 1.000000; 0.000000;,
    0.000000; 1.000000; 0.000000;,
    0.000000; 1.000000; 0.000000;,
    0.000000; 1.000000; 0.000000;,
    0.000000; 1.000000; 0.000000;,
    0.000000; 1.000000; 0.000000;,
    0.000000; 1.000000; 0.000000;,
    0.000000; 1.000000; 0.000000;,
    0.000000; 1.000000; 0.000000;,
    0.000000; 1.000000; 0.000000;,
    0.000000; 1.000000; 0.000000;,
    0.000000; 1.000000; 0.000000;,
    -0.538765; 0.575589; 0.615166;,
    -0.538765; 0.575589; 0.615166;,
    -0.538723; 0.575692; -0.615106;,
    -0.538723; 0.575692; -0.615106;,
    0.000000; 0.324922; -0.945741;,
    0.000000; 0.324922; -0.945741;,
    0.538755; 0.575586; 0.615178;,
    0.538755; 0.575586; 0.615178;,
    0.828322; 0.560253; 0.000000;,
    0.828322; 0.560253; 0.000000;,
    0.000000; 0.000000; 1.000000;,
    0.000000; 0.000000; -1.000000;,
    -0.707107; 0.000000; 0.707107;,
    -0.707107; 0.000000; -0.707107;,
    -0.707107; 0.000000; 0.707107;,
    -0.707107; 0.000000; -0.707107;,
    0.000000; -0.707107; -0.707107;,
    0.000000; -0.707107; -0.707107;,
    0.000000; 0.000000; -1.000000;,
    0.000000; 0.000000; -1.000000;,
    -0.707107; 0.000000; -0.707107;,
    -0.707107; 0.000000; -0.707107;,
    0.707107; 0.000000; -0.707107;,
    0.707107; 0.000000; -0.707107;,
    -0.707107; 0.000000; -0.707107;,
    -0.707107; 0.000000; -0.707107;,
    0.455418; -0.001817; -0.890276;,
    0.714317; 0.000000; -0.699822;,
    -0.707107; 0.000000; 0.707107;,
    -0.707107; 0.000000; 0.707107;,
    0.000000; -0.707107; 0.707107;,
    0.000000; -0.707107; 0.707107;,
    0.000000; 0.000000; 1.000000;,
    0.000000; 0.000000; 1.000000;,
    0.707107; 0.000000; 0.707107;,
    0.707107; 0.000000; 0.707107;,
    -0.707107; 0.000000; 0.707107;,
    -0.707107; 0.000000; 0.707107;,
    1.000000; 0.000000; 0.000000;,
    1.000000; 0.000000; 0.000000;,
    0.502301; -0.864693; 0.000000;,
    0.502301; -0.864693; 0.000000;,
    0.000000; -1.000000; 0.000000;,
    0.000000; -1.000000; 0.000000;,
    0.000000; -0.782643; 0.622470;,
    0.000000; -0.782643; 0.622470;,
    0.000000; -1.000000; 0.000000;,
    0.000000; -1.000000; 0.000000;,
    -0.502240; -0.864728; 0.000000;,
    -0.502240; -0.864728; 0.000000;,
    0.000000; -1.000000; 0.000000;,
    0.000000; -1.000000; 0.000000;,
    0.000000; -0.782588; -0.622540;,
    0.000000; -0.782588; -0.622540;,
    0.000000; -1.000000; 0.000000;,
    0.000000; -1.000000; 0.000000;,
    0.000000; -1.000000; 0.000000;,
    0.000000; -1.000000; 0.000000;,
    0.868672; -0.495387; 0.000000;,
    0.868672; -0.495387; 0.000000;,
    0.000000; -0.224887; -0.974385;,
    0.000000; -0.224887; -0.974385;,
    0.000000; -0.225061; 0.974345;,
    0.000000; -0.225061; 0.974345;,
    -0.868602; -0.495510; 0.000000;,
    -0.868602; -0.495510; 0.000000;,
    -0.468907; -0.883248; 0.000000;,
    -0.468907; -0.883248; 0.000000;,
    0.000000; -1.000000; 0.000000;,
    0.000000; -1.000000; 0.000000;,
    0.000000; -0.813917; -0.580981;,
    0.000000; -0.813917; -0.580981;,
    0.000000; -1.000000; 0.000000;,
    0.000000; -1.000000; 0.000000;,
    0.468907; -0.883248; 0.000000;,
    0.468907; -0.883248; 0.000000;,
    0.000000; -1.000000; 0.000000;,
    0.000000; -1.000000; 0.000000;,
    0.000000; -0.813984; 0.580888;,
    0.000000; -0.813984; 0.580888;,
    0.000000; -1.000000; 0.000000;,
    0.000000; -1.000000; 0.000000;,
    0.000000; -1.000000; 0.000000;,
    0.000000; -1.000000; 0.000000;,
    0.828322; -0.560253; 0.000000;,
    0.828322; -0.560253; 0.000000;,
    0.000000; -0.325139; 0.945666;,
    0.000000; -0.325139; 0.945666;,
    0.000000; -0.324922; -0.945741;,
    0.000000; -0.324922; -0.945741;,
    -0.828322; -0.560253; 0.000000;,
    -0.828322; -0.560253; 0.000000;,
    0.000000; -1.000000; 0.000000;,
    0.000000; -1.000000; 0.000000;,
    0.000000; -1.000000; 0.000000;,
    0.000000; -1.000000; 0.000000;,
    -0.999979; 0.006455; -0.000072;,
    -0.999979; 0.006455; -0.000072;,
    -0.999979; 0.006551; 0.000207;,
    -0.999979; 0.006483; 0.000296;,
    -0.999979; 0.006478; -0.000727;,
    -0.999979; 0.006374; -0.001105;,
    -0.999979; 0.006463; -0.000555;,
    -0.999979; 0.006463; -0.000555;,
    -0.999979; 0.006349; -0.001101;,
    -0.999979; 0.006518; -0.000536;,
    -0.999978; 0.006635; 0.000383;,
    -0.999978; 0.006583; 0.000736;,
    0.000000; 0.000000; 0.000000;,
    0.000000; 0.000000; 0.000000;,
    0.000000; 0.000000; 0.000000;,
    0.000000; 0.000000; 0.000000;,
    0.000000; 0.000000; 0.000000;,
    0.000000; 0.000000; 0.000000;,
    -0.019530; -0.999808; -0.001680;,
    -0.019530; -0.999808; -0.001680;,
    -0.019530; -0.999808; -0.001680;,
    -0.019530; -0.999808; -0.001680;,
    0.993128; -0.116915; 0.005271;,
    0.993128; -0.116915; 0.005271;,
    0.993128; -0.116915; 0.005271;,
    0.993128; -0.116915; 0.005271;,
    0.013266; 0.013266; -0.999824;,
    0.013266; 0.013266; -0.999824;,
    0.013266; 0.013266; -0.999824;,
    0.011491; -0.002041; -0.999932;,
    0.002481; -0.004082; -0.999989;,
    0.002481; -0.004082; -0.999989;,
    0.000000; 0.000000; -1.000000;,
    0.000000; 0.000000; -1.000000;,
    0.000000; 0.000000; -1.000000;,
    0.000000; 0.000000; -1.000000;,
    0.000000; 0.000000; 1.000000;,
    0.034433; 0.000001; 0.999407;,
    0.000000; 0.000000; 1.000000;,
    0.034433; 0.000001; 0.999407;,
    0.068817; 0.000000; 0.997629;,
    0.068817; 0.000000; 0.997629;,
    0.068817; 0.000000; 0.997629;,
    0.068825; 0.000003; 0.997629;,
    0.068825; 0.000003; 0.997629;,
    0.058269; 0.058269; 0.996599;,
    0.058269; 0.058269; 0.996599;,
    0.058269; 0.058269; 0.996599;,
    -0.000134; -1.000000; 0.000000;,
    -0.000134; -1.000000; 0.000000;,
    -0.000134; -1.000000; 0.000000;,
    -0.000134; -1.000000; 0.000000;,
    0.000116; 0.867326; 0.497741;,
    0.000116; 0.867326; 0.497741;,
    0.000116; 0.867326; 0.497741;,
    0.000116; 0.867326; 0.497741;,
    0.000000; 0.000000; -1.000000;,
    0.000000; 0.000000; -1.000000;,
    0.000000; 0.000000; -1.000000;,
    0.000000; 0.000000; -1.000000;,
    -1.000000; 0.000157; 0.000000;,
    -1.000000; 0.000157; 0.000000;,
    -1.000000; 0.000157; 0.000000;,
    1.000000; -0.000157; 0.000000;,
    1.000000; -0.000157; 0.000000;,
    1.000000; -0.000157; 0.000000;,
    -0.000134; -1.000000; 0.000000;,
    -0.000134; -1.000000; 0.000000;,
    -0.000134; -1.000000; 0.000000;,
    -0.000134; -1.000000; 0.000000;,
    0.000124; 0.930703; -0.365775;,
    0.000124; 0.930703; -0.365775;,
    0.000124; 0.930703; -0.365775;,
    0.000124; 0.930703; -0.365775;,
    0.000000; 0.000000; 1.000000;,
    0.000000; 0.000000; 1.000000;,
    0.000000; 0.000000; 1.000000;,
    0.000000; 0.000000; 1.000000;,
    -1.000000; 0.000229; 0.000000;,
    -1.000000; 0.000229; 0.000000;,
    -1.000000; 0.000229; 0.000000;,
    1.000000; -0.000229; 0.000000;,
    1.000000; -0.000229; 0.000000;,
    1.000000; -0.000229; 0.000000;;
    248;
    3;0, 1, 2;,
    3;1, 3, 2;,
    3;4, 5, 6;,
    3;5, 7, 6;,
    3;8, 4, 9;,
    3;4, 6, 9;,
    3;10, 5, 8;,
    3;5, 4, 8;,
    3;9, 6, 11;,
    3;6, 7, 11;,
    3;11, 7, 10;,
    3;7, 5, 10;,
    3;12, 13, 14;,
    3;13, 15, 14;,
    3;16, 17, 18;,
    3;17, 19, 18;,
    3;20, 16, 21;,
    3;16, 18, 21;,
    3;22, 17, 20;,
    3;17, 16, 20;,
    3;21, 18, 23;,
    3;18, 19, 23;,
    3;23, 19, 22;,
    3;19, 17, 22;,
    3;24, 25, 26;,
    3;25, 27, 26;,
    3;28, 29, 30;,
    3;29, 31, 30;,
    3;32, 28, 33;,
    3;28, 30, 33;,
    3;34, 29, 32;,
    3;29, 28, 32;,
    3;33, 30, 35;,
    3;30, 31, 35;,
    3;35, 31, 34;,
    3;31, 29, 34;,
    3;36, 37, 38;,
    3;37, 39, 38;,
    3;40, 41, 42;,
    3;41, 43, 42;,
    3;44, 40, 45;,
    3;40, 42, 45;,
    3;46, 41, 44;,
    3;41, 40, 44;,
    3;45, 42, 47;,
    3;42, 43, 47;,
    3;47, 43, 46;,
    3;43, 41, 46;,
    3;48, 49, 50;,
    3;49, 51, 50;,
    3;52, 53, 54;,
    3;53, 55, 54;,
    3;56, 52, 57;,
    3;52, 54, 57;,
    3;58, 53, 56;,
    3;53, 52, 56;,
    3;57, 54, 59;,
    3;54, 55, 59;,
    3;59, 55, 58;,
    3;55, 53, 58;,
    3;60, 61, 62;,
    3;61, 63, 62;,
    3;64, 65, 66;,
    3;65, 67, 66;,
    3;68, 69, 70;,
    3;69, 71, 70;,
    3;72, 73, 74;,
    3;73, 75, 74;,
    3;76, 77, 78;,
    3;77, 79, 78;,
    3;80, 81, 82;,
    3;81, 83, 82;,
    3;81, 84, 83;,
    3;84, 85, 83;,
    3;84, 86, 85;,
    3;86, 87, 85;,
    3;88, 89, 90;,
    3;89, 91, 90;,
    3;92, 93, 94;,
    3;93, 95, 94;,
    3;96, 97, 98;,
    3;97, 99, 98;,
    3;100, 101, 102;,
    3;101, 103, 102;,
    3;104, 105, 106;,
    3;105, 107, 106;,
    3;105, 108, 107;,
    3;108, 109, 107;,
    3;108, 110, 109;,
    3;110, 111, 109;,
    3;112, 113, 114;,
    3;113, 115, 114;,
    3;116, 117, 118;,
    3;117, 119, 118;,
    3;120, 121, 122;,
    3;121, 123, 122;,
    3;124, 125, 126;,
    3;125, 127, 126;,
    3;128, 129, 130;,
    3;129, 131, 130;,
    3;129, 132, 131;,
    3;132, 133, 131;,
    3;132, 134, 133;,
    3;134, 135, 133;,
    3;134, 128, 135;,
    3;128, 130, 135;,
    3;136, 137, 138;,
    3;137, 139, 138;,
    3;140, 141, 142;,
    3;141, 143, 142;,
    3;144, 145, 140;,
    3;145, 141, 140;,
    3;142, 143, 146;,
    3;143, 147, 146;,
    3;148, 149, 144;,
    3;149, 145, 144;,
    3;150, 151, 152;,
    3;151, 153, 152;,
    3;151, 154, 153;,
    3;154, 155, 153;,
    3;154, 156, 155;,
    3;156, 157, 155;,
    3;156, 150, 157;,
    3;150, 152, 157;,
    3;158, 159, 160;,
    3;159, 161, 160;,
    3;162, 163, 164;,
    3;163, 165, 164;,
    3;164, 165, 166;,
    3;165, 167, 166;,
    3;168, 169, 162;,
    3;169, 163, 162;,
    3;170, 171, 168;,
    3;171, 169, 168;,
    3;86, 80, 87;,
    3;80, 172, 87;,
    3;80, 82, 172;,
    3;110, 104, 173;,
    3;104, 106, 173;,
    3;173, 111, 110;,
    3;174, 175, 176;,
    3;175, 177, 176;,
    3;178, 179, 180;,
    3;179, 181, 180;,
    3;182, 183, 175;,
    3;183, 177, 175;,
    3;184, 185, 186;,
    3;185, 187, 186;,
    3;184, 188, 185;,
    3;188, 189, 185;,
    3;187, 183, 186;,
    3;183, 182, 186;,
    3;190, 191, 176;,
    3;191, 174, 176;,
    3;192, 193, 194;,
    3;193, 195, 194;,
    3;196, 197, 198;,
    3;197, 199, 198;,
    3;196, 200, 197;,
    3;200, 201, 197;,
    3;199, 191, 198;,
    3;191, 190, 198;,
    3;202, 203, 204;,
    3;203, 205, 204;,
    3;206, 207, 208;,
    3;207, 209, 208;,
    3;210, 211, 212;,
    3;211, 213, 212;,
    3;214, 215, 192;,
    3;215, 193, 192;,
    3;216, 217, 218;,
    3;217, 219, 218;,
    3;220, 203, 221;,
    3;203, 202, 221;,
    3;222, 215, 223;,
    3;215, 214, 223;,
    3;224, 207, 225;,
    3;207, 206, 225;,
    3;226, 211, 227;,
    3;211, 210, 227;,
    3;228, 229, 230;,
    3;229, 231, 230;,
    3;232, 233, 234;,
    3;233, 235, 234;,
    3;236, 237, 238;,
    3;237, 239, 238;,
    3;240, 241, 178;,
    3;241, 179, 178;,
    3;242, 243, 244;,
    3;243, 245, 244;,
    3;246, 237, 247;,
    3;237, 236, 247;,
    3;248, 241, 249;,
    3;241, 240, 249;,
    3;250, 233, 251;,
    3;233, 232, 251;,
    3;252, 229, 253;,
    3;229, 228, 253;,
    3;254, 255, 256;,
    3;255, 257, 256;,
    3;258, 259, 260;,
    3;259, 261, 260;,
    3;262, 263, 264;,
    3;263, 265, 264;,
    3;266, 263, 267;,
    3;263, 262, 267;,
    3;267, 262, 268;,
    3;262, 260, 268;,
    3;268, 260, 269;,
    3;260, 261, 269;,
    3;270, 271, 272;,
    3;271, 273, 272;,
    3;272, 273, 274;,
    3;273, 275, 274;,
    3;276, 277, 278;,
    3;277, 279, 278;,
    3;280, 281, 282;,
    3;281, 283, 282;,
    3;284, 285, 286;,
    3;188, 287, 189;,
    3;287, 188, 288;,
    3;188, 289, 288;,
    3;290, 291, 292;,
    3;291, 293, 292;,
    3;264, 265, 258;,
    3;265, 259, 258;,
    3;294, 295, 296;,
    3;295, 297, 296;,
    3;298, 299, 300;,
    3;295, 301, 297;,
    3;301, 302, 297;,
    3;303, 304, 305;,
    3;306, 307, 308;,
    3;307, 309, 308;,
    3;310, 311, 312;,
    3;311, 313, 312;,
    3;314, 315, 316;,
    3;315, 317, 316;,
    3;318, 319, 320;,
    3;321, 322, 323;,
    3;324, 325, 326;,
    3;325, 327, 326;,
    3;328, 329, 330;,
    3;329, 331, 330;,
    3;332, 333, 334;,
    3;333, 335, 334;,
    3;336, 337, 338;,
    3;339, 340, 341;;
   }

   MeshTextureCoords {
    342;
    1.089740; 2.504130;,
    1.089740; 2.504130;,
    1.023370; 2.504130;,
    1.023370; 2.504130;,
    0.302303; 0.818824;,
    0.030065; 0.819644;,
    0.302111; 0.781968;,
    0.029873; 0.782789;,
    0.302845; 0.832971;,
    0.302411; 0.767845;,
    0.029765; 0.833767;,
    0.029331; 0.768641;,
    0.180853; 2.504130;,
    0.180853; 2.504130;,
    0.089741; 2.504130;,
    0.089741; 2.504130;,
    0.311355; 0.816692;,
    0.031276; 0.819568;,
    0.310737; 0.764673;,
    0.030886; 0.767517;,
    0.312391; 0.836454;,
    0.311248; 0.750424;,
    0.030540; 0.833868;,
    0.030139; 0.753262;,
    0.492734; 2.504130;,
    0.492734; 2.504130;,
    0.401621; 2.504130;,
    0.401621; 2.504130;,
    0.597341; 0.887757;,
    0.317262; 0.890633;,
    0.596723; 0.835739;,
    0.316872; 0.838582;,
    0.598377; 0.907520;,
    0.597233; 0.821490;,
    0.316526; 0.904934;,
    0.316125; 0.824328;,
    0.763910; 2.504130;,
    0.763910; 2.504130;,
    0.672798; 2.504130;,
    0.672798; 2.504130;,
    0.401838; 0.955048;,
    0.121752; 0.953036;,
    0.402128; 0.903027;,
    0.122270; 0.900986;,
    0.402529; 0.974826;,
    0.402887; 0.888789;,
    0.120767; 0.967321;,
    0.121772; 0.886720;,
    0.936961; 2.504130;,
    0.936961; 2.504130;,
    0.870590; 2.504130;,
    0.870590; 2.504130;,
    0.499414; 0.935416;,
    0.229678; 0.937337;,
    0.499074; 0.898899;,
    0.229338; 0.900820;,
    0.500009; 0.949431;,
    0.499314; 0.884905;,
    0.229438; 0.951331;,
    0.228743; 0.886805;,
    0.282329; 0.739979;,
    0.282329; 0.368701;,
    0.874321; 0.739979;,
    0.874321; 0.368701;,
    1.373890; -1.602580;,
    1.373890; -1.299120;,
    0.812235; -1.602580;,
    0.812235; -1.299120;,
    0.095831; 0.788396;,
    0.097784; 0.057717;,
    0.758585; 0.800116;,
    0.733194; 0.096780;,
    0.163829; 0.327615;,
    0.163829; 0.326502;,
    0.166004; 0.327615;,
    0.166004; 0.326502;,
    0.359820; 0.393865;,
    0.200695; 0.393865;,
    0.359820; 0.234740;,
    0.200695; 0.234740;,
    -0.081848; -0.160250;,
    -0.356238; -0.160250;,
    -0.063775; -0.177510;,
    -0.373479; -0.177490;,
    -0.356238; -0.035610;,
    -0.373479; -0.018370;,
    -0.081848; -0.035610;,
    -0.062759; -0.018400;,
    0.061483; 0.141010;,
    0.061483; 0.265649;,
    -0.212907; 0.141010;,
    -0.212907; 0.265649;,
    0.222055; 0.265649;,
    0.061608; 0.265649;,
    0.222055; 0.141010;,
    0.061608; 0.141010;,
    -0.373479; 0.141010;,
    -0.213032; 0.141010;,
    -0.373479; 0.265649;,
    -0.213032; 0.265649;,
    0.166004; 0.328731;,
    0.166004; 0.329854;,
    0.164083; 0.328731;,
    0.164083; 0.329854;,
    0.201195; -0.202740;,
    0.462472; -0.202740;,
    0.175550; -0.178970;,
    0.486270; -0.178940;,
    0.462472; -0.314260;,
    0.486270; -0.338060;,
    0.201195; -0.314260;,
    0.176566; -0.338080;,
    0.353446; 0.252537;,
    0.353446; 0.141010;,
    0.614723; 0.252537;,
    0.614723; 0.141010;,
    0.222180; 0.141010;,
    0.353321; 0.141010;,
    0.222180; 0.252537;,
    0.353321; 0.252537;,
    -0.242338; 0.377302;,
    -0.373479; 0.377302;,
    -0.242338; 0.265774;,
    -0.373479; 0.265774;,
    0.160119; 0.327615;,
    0.160119; 0.326697;,
    0.161948; 0.327615;,
    0.161948; 0.326697;,
    0.485909; 0.280469;,
    0.485909; 0.191933;,
    0.507211; 0.301772;,
    0.507211; 0.170631;,
    0.267237; 0.191933;,
    0.245934; 0.170631;,
    0.267237; 0.280469;,
    0.245934; 0.301772;,
    0.564621; 0.391265;,
    0.367127; 0.391265;,
    0.564621; 0.311303;,
    0.367127; 0.311303;,
    0.494933; 0.146900;,
    0.494928; 0.089280;,
    0.737396; 0.146900;,
    0.737391; 0.089280;,
    -0.252603; 0.146900;,
    -0.252598; 0.089280;,
    1.484930; 0.146900;,
    1.484940; 0.089280;,
    -0.495066; 0.146900;,
    -0.495061; 0.089280;,
    -0.077519; -0.316630;,
    -0.077519; -0.199080;,
    -0.098965; -0.338080;,
    -0.098965; -0.177630;,
    0.153984; -0.199080;,
    0.175425; -0.177630;,
    0.153984; -0.316630;,
    0.175425; -0.338080;,
    -0.242213; 0.265774;,
    -0.029103; 0.265774;,
    -0.242213; 0.373994;,
    -0.029100; 0.373994;,
    0.568657; 0.099730;,
    0.568651; 0.042735;,
    0.888722; 0.099730;,
    0.888724; 0.042735;,
    1.638650; 0.099730;,
    1.638660; 0.042735;,
    -0.181276; 0.099730;,
    -0.181271; 0.042735;,
    -0.501342; 0.099730;,
    -0.501339; 0.042735;,
    -0.063526; -0.138480;,
    0.176313; -0.298210;,
    0.104637; 0.456052;,
    0.357476; 0.452335;,
    0.107122; 0.834081;,
    0.359962; 0.830364;,
    0.147605; 0.136564;,
    0.807585; 0.136553;,
    0.103127; 0.159454;,
    0.852066; 0.159442;,
    0.388794; 0.498251;,
    0.390670; 0.783536;,
    1.137570; 0.487244;,
    1.139450; 0.772528;,
    0.677399; 0.494008;,
    0.679275; 0.779293;,
    1.426180; 0.483001;,
    1.428050; 0.768285;,
    0.063895; 0.770706;,
    0.062251; 0.520685;,
    -0.143417; 0.133410;,
    0.447002; 0.133418;,
    -0.201309; 0.161617;,
    0.504891; 0.161628;,
    -0.608574; 0.780591;,
    -0.610218; 0.530571;,
    -0.171989; 0.774173;,
    -0.173633; 0.524153;,
    -0.844457; 0.784059;,
    -0.846101; 0.534039;,
    1.195140; 0.102851;,
    1.501350; 0.102705;,
    1.137610; 0.177147;,
    1.664460; 0.169145;,
    0.363735; 0.112177;,
    1.084680; 0.103978;,
    0.306488; 0.180395;,
    1.144130; 0.176746;,
    0.015846; 0.120844;,
    0.247601; 0.109065;,
    -0.101035; 0.169428;,
    0.296102; 0.183756;,
    -0.101057; 0.088410;,
    0.404647; 0.088417;,
    0.199690; 0.887766;,
    0.495516; 0.887766;,
    0.199690; 0.784471;,
    0.495516; 0.784471;,
    1.479790; 0.025774;,
    1.244970; 0.047307;,
    0.378882; 0.065830;,
    -0.075298; 0.065824;,
    1.041770; 0.042929;,
    0.402541; 0.050120;,
    0.199602; 0.053811;,
    0.024411; 0.062809;,
    1.007790; 0.063050;,
    1.310790; 0.070984;,
    0.955842; 0.118640;,
    1.418940; 0.121024;,
    0.230351; 0.068533;,
    0.903835; 0.061106;,
    0.181888; 0.128032;,
    0.953690; 0.118584;,
    -0.169611; 0.081937;,
    0.151215; 0.069341;,
    -0.281288; 0.134306;,
    0.197223; 0.130758;,
    0.191695; 0.086981;,
    0.763498; 0.086971;,
    0.479873; 0.697663;,
    0.157824; 0.697663;,
    0.479873; 0.848132;,
    0.157824; 0.848132;,
    0.119323; 0.029585;,
    -0.156795; 0.034004;,
    0.739776; 0.067891;,
    0.215414; 0.067899;,
    0.872511; 0.021995;,
    0.261211; 0.027970;,
    1.298160; 0.026654;,
    1.043420; 0.027809;,
    0.453943; 0.815031;,
    0.453943; 0.552230;,
    -0.006033; 0.815031;,
    -0.006033; 0.552230;,
    0.323329; 0.676648;,
    0.300000; 0.699976;,
    0.324754; 0.395353;,
    0.300000; 0.398118;,
    0.670748; 0.395172;,
    0.700000; 0.400240;,
    0.676672; 0.676648;,
    0.700000; 0.699976;,
    0.700000; 0.300024;,
    0.668426; 0.300024;,
    0.324754; 0.300024;,
    0.300000; 0.300024;,
    0.611199; 0.150301;,
    0.611199; 0.162861;,
    0.301495; 0.150301;,
    0.611199; 0.299579;,
    0.301495; 0.309426;,
    0.611199; 0.309426;,
    -0.055657; 0.119529;,
    -0.062635; 0.120010;,
    -0.055661; -0.018110;,
    -0.061875; -0.018240;,
    0.308770; 0.294678;,
    0.170519; 0.294462;,
    0.309208; 0.265774;,
    0.168644; 0.265774;,
    0.309333; 0.294678;,
    0.313480; 0.265774;,
    0.330721; 0.283017;,
    1.466330; 0.736358;,
    1.477510; 0.736945;,
    1.476790; 0.435972;,
    -0.345171; 0.401350;,
    -0.089342; 0.401350;,
    -0.373479; 0.418557;,
    -0.072100; 0.418592;,
    -1.480990; 0.734573;,
    -0.925292; 0.734573;,
    -1.535470; 0.789060;,
    -0.845470; 0.788980;,
    -0.925292; 0.531525;,
    -0.863053; 0.542719;,
    -0.925292; 0.744367;,
    -0.863053; 0.532926;,
    -0.847078; 0.532616;,
    0.358031; 0.294462;,
    0.330846; 0.289573;,
    0.354644; 0.265774;,
    0.334448; 0.797439;,
    0.334448; 0.809453;,
    0.251489; 0.797439;,
    0.251489; 0.809453;,
    0.630616; 0.843215;,
    0.630625; 0.913612;,
    0.012932; 0.843215;,
    0.012940; 0.913612;,
    0.251489; 0.828725;,
    0.251490; 0.821544;,
    0.334448; 0.828736;,
    0.334449; 0.821555;,
    0.630378; 0.841451;,
    0.630378; 0.912432;,
    0.511635; 0.912432;,
    0.287645; 0.836006;,
    0.299659; 0.843187;,
    0.287645; 0.843187;,
    0.334448; 0.809491;,
    0.334448; 0.821505;,
    0.251489; 0.809491;,
    0.251489; 0.821505;,
    0.628839; 0.895082;,
    0.628830; 0.984529;,
    0.011155; 0.895082;,
    0.011147; 0.984529;,
    0.334448; 0.828775;,
    0.334449; 0.835956;,
    0.251489; 0.828786;,
    0.251490; 0.835967;,
    0.483893; 0.983721;,
    0.628701; 0.983721;,
    0.628701; 0.897158;,
    0.287606; 0.843187;,
    0.275593; 0.843187;,
    0.287606; 0.836006;;
   }

   MeshVertexColors {
    342;
    0; 1.000000; 1.000000; 1.000000; 1.000000;,
    1; 1.000000; 1.000000; 1.000000; 1.000000;,
    2; 1.000000; 1.000000; 1.000000; 1.000000;,
    3; 1.000000; 1.000000; 1.000000; 1.000000;,
    4; 1.000000; 1.000000; 1.000000; 1.000000;,
    5; 1.000000; 1.000000; 1.000000; 1.000000;,
    6; 1.000000; 1.000000; 1.000000; 1.000000;,
    7; 1.000000; 1.000000; 1.000000; 1.000000;,
    8; 1.000000; 1.000000; 1.000000; 1.000000;,
    9; 1.000000; 1.000000; 1.000000; 1.000000;,
    10; 1.000000; 1.000000; 1.000000; 1.000000;,
    11; 1.000000; 1.000000; 1.000000; 1.000000;,
    12; 1.000000; 1.000000; 1.000000; 1.000000;,
    13; 1.000000; 1.000000; 1.000000; 1.000000;,
    14; 1.000000; 1.000000; 1.000000; 1.000000;,
    15; 1.000000; 1.000000; 1.000000; 1.000000;,
    16; 1.000000; 1.000000; 1.000000; 1.000000;,
    17; 1.000000; 1.000000; 1.000000; 1.000000;,
    18; 1.000000; 1.000000; 1.000000; 1.000000;,
    19; 1.000000; 1.000000; 1.000000; 1.000000;,
    20; 1.000000; 1.000000; 1.000000; 1.000000;,
    21; 1.000000; 1.000000; 1.000000; 1.000000;,
    22; 1.000000; 1.000000; 1.000000; 1.000000;,
    23; 1.000000; 1.000000; 1.000000; 1.000000;,
    24; 1.000000; 1.000000; 1.000000; 1.000000;,
    25; 1.000000; 1.000000; 1.000000; 1.000000;,
    26; 1.000000; 1.000000; 1.000000; 1.000000;,
    27; 1.000000; 1.000000; 1.000000; 1.000000;,
    28; 1.000000; 1.000000; 1.000000; 1.000000;,
    29; 1.000000; 1.000000; 1.000000; 1.000000;,
    30; 1.000000; 1.000000; 1.000000; 1.000000;,
    31; 1.000000; 1.000000; 1.000000; 1.000000;,
    32; 1.000000; 1.000000; 1.000000; 1.000000;,
    33; 1.000000; 1.000000; 1.000000; 1.000000;,
    34; 1.000000; 1.000000; 1.000000; 1.000000;,
    35; 1.000000; 1.000000; 1.000000; 1.000000;,
    36; 1.000000; 1.000000; 1.000000; 1.000000;,
    37; 1.000000; 1.000000; 1.000000; 1.000000;,
    38; 1.000000; 1.000000; 1.000000; 1.000000;,
    39; 1.000000; 1.000000; 1.000000; 1.000000;,
    40; 1.000000; 1.000000; 1.000000; 1.000000;,
    41; 1.000000; 1.000000; 1.000000; 1.000000;,
    42; 1.000000; 1.000000; 1.000000; 1.000000;,
    43; 1.000000; 1.000000; 1.000000; 1.000000;,
    44; 1.000000; 1.000000; 1.000000; 1.000000;,
    45; 1.000000; 1.000000; 1.000000; 1.000000;,
    46; 1.000000; 1.000000; 1.000000; 1.000000;,
    47; 1.000000; 1.000000; 1.000000; 1.000000;,
    48; 1.000000; 1.000000; 1.000000; 1.000000;,
    49; 1.000000; 1.000000; 1.000000; 1.000000;,
    50; 1.000000; 1.000000; 1.000000; 1.000000;,
    51; 1.000000; 1.000000; 1.000000; 1.000000;,
    52; 1.000000; 1.000000; 1.000000; 1.000000;,
    53; 1.000000; 1.000000; 1.000000; 1.000000;,
    54; 1.000000; 1.000000; 1.000000; 1.000000;,
    55; 1.000000; 1.000000; 1.000000; 1.000000;,
    56; 1.000000; 1.000000; 1.000000; 1.000000;,
    57; 1.000000; 1.000000; 1.000000; 1.000000;,
    58; 1.000000; 1.000000; 1.000000; 1.000000;,
    59; 1.000000; 1.000000; 1.000000; 1.000000;,
    60; 1.000000; 1.000000; 1.000000; 1.000000;,
    61; 1.000000; 1.000000; 1.000000; 1.000000;,
    62; 1.000000; 1.000000; 1.000000; 1.000000;,
    63; 1.000000; 1.000000; 1.000000; 1.000000;,
    64; 1.000000; 1.000000; 1.000000; 1.000000;,
    65; 1.000000; 1.000000; 1.000000; 1.000000;,
    66; 1.000000; 1.000000; 1.000000; 1.000000;,
    67; 1.000000; 1.000000; 1.000000; 1.000000;,
    68; 1.000000; 1.000000; 1.000000; 1.000000;,
    69; 1.000000; 1.000000; 1.000000; 1.000000;,
    70; 1.000000; 1.000000; 1.000000; 1.000000;,
    71; 1.000000; 1.000000; 1.000000; 1.000000;,
    72; 1.000000; 1.000000; 1.000000; 1.000000;,
    73; 1.000000; 1.000000; 1.000000; 1.000000;,
    74; 1.000000; 1.000000; 1.000000; 1.000000;,
    75; 1.000000; 1.000000; 1.000000; 1.000000;,
    76; 1.000000; 1.000000; 1.000000; 1.000000;,
    77; 1.000000; 1.000000; 1.000000; 1.000000;,
    78; 1.000000; 1.000000; 1.000000; 1.000000;,
    79; 1.000000; 1.000000; 1.000000; 1.000000;,
    80; 1.000000; 1.000000; 1.000000; 1.000000;,
    81; 1.000000; 1.000000; 1.000000; 1.000000;,
    82; 1.000000; 1.000000; 1.000000; 1.000000;,
    83; 1.000000; 1.000000; 1.000000; 1.000000;,
    84; 1.000000; 1.000000; 1.000000; 1.000000;,
    85; 1.000000; 1.000000; 1.000000; 1.000000;,
    86; 1.000000; 1.000000; 1.000000; 1.000000;,
    87; 1.000000; 1.000000; 1.000000; 1.000000;,
    88; 1.000000; 1.000000; 1.000000; 1.000000;,
    89; 1.000000; 1.000000; 1.000000; 1.000000;,
    90; 1.000000; 1.000000; 1.000000; 1.000000;,
    91; 1.000000; 1.000000; 1.000000; 1.000000;,
    92; 1.000000; 1.000000; 1.000000; 1.000000;,
    93; 1.000000; 1.000000; 1.000000; 1.000000;,
    94; 1.000000; 1.000000; 1.000000; 1.000000;,
    95; 1.000000; 1.000000; 1.000000; 1.000000;,
    96; 1.000000; 1.000000; 1.000000; 1.000000;,
    97; 1.000000; 1.000000; 1.000000; 1.000000;,
    98; 1.000000; 1.000000; 1.000000; 1.000000;,
    99; 1.000000; 1.000000; 1.000000; 1.000000;,
    100; 1.000000; 1.000000; 1.000000; 1.000000;,
    101; 1.000000; 1.000000; 1.000000; 1.000000;,
    102; 1.000000; 1.000000; 1.000000; 1.000000;,
    103; 1.000000; 1.000000; 1.000000; 1.000000;,
    104; 1.000000; 1.000000; 1.000000; 1.000000;,
    105; 1.000000; 1.000000; 1.000000; 1.000000;,
    106; 1.000000; 1.000000; 1.000000; 1.000000;,
    107; 1.000000; 1.000000; 1.000000; 1.000000;,
    108; 1.000000; 1.000000; 1.000000; 1.000000;,
    109; 1.000000; 1.000000; 1.000000; 1.000000;,
    110; 1.000000; 1.000000; 1.000000; 1.000000;,
    111; 1.000000; 1.000000; 1.000000; 1.000000;,
    112; 1.000000; 1.000000; 1.000000; 1.000000;,
    113; 1.000000; 1.000000; 1.000000; 1.000000;,
    114; 1.000000; 1.000000; 1.000000; 1.000000;,
    115; 1.000000; 1.000000; 1.000000; 1.000000;,
    116; 1.000000; 1.000000; 1.000000; 1.000000;,
    117; 1.000000; 1.000000; 1.000000; 1.000000;,
    118; 1.000000; 1.000000; 1.000000; 1.000000;,
    119; 1.000000; 1.000000; 1.000000; 1.000000;,
    120; 1.000000; 1.000000; 1.000000; 1.000000;,
    121; 1.000000; 1.000000; 1.000000; 1.000000;,
    122; 1.000000; 1.000000; 1.000000; 1.000000;,
    123; 1.000000; 1.000000; 1.000000; 1.000000;,
    124; 1.000000; 1.000000; 1.000000; 1.000000;,
    125; 1.000000; 1.000000; 1.000000; 1.000000;,
    126; 1.000000; 1.000000; 1.000000; 1.000000;,
    127; 1.000000; 1.000000; 1.000000; 1.000000;,
    128; 1.000000; 1.000000; 1.000000; 1.000000;,
    129; 1.000000; 1.000000; 1.000000; 1.000000;,
    130; 1.000000; 1.000000; 1.000000; 1.000000;,
    131; 1.000000; 1.000000; 1.000000; 1.000000;,
    132; 1.000000; 1.000000; 1.000000; 1.000000;,
    133; 1.000000; 1.000000; 1.000000; 1.000000;,
    134; 1.000000; 1.000000; 1.000000; 1.000000;,
    135; 1.000000; 1.000000; 1.000000; 1.000000;,
    136; 1.000000; 1.000000; 1.000000; 1.000000;,
    137; 1.000000; 1.000000; 1.000000; 1.000000;,
    138; 1.000000; 1.000000; 1.000000; 1.000000;,
    139; 1.000000; 1.000000; 1.000000; 1.000000;,
    140; 1.000000; 1.000000; 1.000000; 1.000000;,
    141; 1.000000; 1.000000; 1.000000; 1.000000;,
    142; 1.000000; 1.000000; 1.000000; 1.000000;,
    143; 1.000000; 1.000000; 1.000000; 1.000000;,
    144; 1.000000; 1.000000; 1.000000; 1.000000;,
    145; 1.000000; 1.000000; 1.000000; 1.000000;,
    146; 1.000000; 1.000000; 1.000000; 1.000000;,
    147; 1.000000; 1.000000; 1.000000; 1.000000;,
    148; 1.000000; 1.000000; 1.000000; 1.000000;,
    149; 1.000000; 1.000000; 1.000000; 1.000000;,
    150; 1.000000; 1.000000; 1.000000; 1.000000;,
    151; 1.000000; 1.000000; 1.000000; 1.000000;,
    152; 1.000000; 1.000000; 1.000000; 1.000000;,
    153; 1.000000; 1.000000; 1.000000; 1.000000;,
    154; 1.000000; 1.000000; 1.000000; 1.000000;,
    155; 1.000000; 1.000000; 1.000000; 1.000000;,
    156; 1.000000; 1.000000; 1.000000; 1.000000;,
    157; 1.000000; 1.000000; 1.000000; 1.000000;,
    158; 1.000000; 1.000000; 1.000000; 1.000000;,
    159; 1.000000; 1.000000; 1.000000; 1.000000;,
    160; 1.000000; 1.000000; 1.000000; 1.000000;,
    161; 1.000000; 1.000000; 1.000000; 1.000000;,
    162; 1.000000; 1.000000; 1.000000; 1.000000;,
    163; 1.000000; 1.000000; 1.000000; 1.000000;,
    164; 1.000000; 1.000000; 1.000000; 1.000000;,
    165; 1.000000; 1.000000; 1.000000; 1.000000;,
    166; 1.000000; 1.000000; 1.000000; 1.000000;,
    167; 1.000000; 1.000000; 1.000000; 1.000000;,
    168; 1.000000; 1.000000; 1.000000; 1.000000;,
    169; 1.000000; 1.000000; 1.000000; 1.000000;,
    170; 1.000000; 1.000000; 1.000000; 1.000000;,
    171; 1.000000; 1.000000; 1.000000; 1.000000;,
    172; 1.000000; 1.000000; 1.000000; 1.000000;,
    173; 1.000000; 1.000000; 1.000000; 1.000000;,
    174; 1.000000; 1.000000; 1.000000; 1.000000;,
    175; 1.000000; 1.000000; 1.000000; 1.000000;,
    176; 1.000000; 1.000000; 1.000000; 1.000000;,
    177; 1.000000; 1.000000; 1.000000; 1.000000;,
    178; 1.000000; 1.000000; 1.000000; 1.000000;,
    179; 1.000000; 1.000000; 1.000000; 1.000000;,
    180; 1.000000; 1.000000; 1.000000; 1.000000;,
    181; 1.000000; 1.000000; 1.000000; 1.000000;,
    182; 1.000000; 1.000000; 1.000000; 1.000000;,
    183; 1.000000; 1.000000; 1.000000; 1.000000;,
    184; 1.000000; 1.000000; 1.000000; 1.000000;,
    185; 1.000000; 1.000000; 1.000000; 1.000000;,
    186; 1.000000; 1.000000; 1.000000; 1.000000;,
    187; 1.000000; 1.000000; 1.000000; 1.000000;,
    188; 1.000000; 1.000000; 1.000000; 1.000000;,
    189; 1.000000; 1.000000; 1.000000; 1.000000;,
    190; 1.000000; 1.000000; 1.000000; 1.000000;,
    191; 1.000000; 1.000000; 1.000000; 1.000000;,
    192; 1.000000; 1.000000; 1.000000; 1.000000;,
    193; 1.000000; 1.000000; 1.000000; 1.000000;,
    194; 1.000000; 1.000000; 1.000000; 1.000000;,
    195; 1.000000; 1.000000; 1.000000; 1.000000;,
    196; 1.000000; 1.000000; 1.000000; 1.000000;,
    197; 1.000000; 1.000000; 1.000000; 1.000000;,
    198; 1.000000; 1.000000; 1.000000; 1.000000;,
    199; 1.000000; 1.000000; 1.000000; 1.000000;,
    200; 1.000000; 1.000000; 1.000000; 1.000000;,
    201; 1.000000; 1.000000; 1.000000; 1.000000;,
    202; 1.000000; 1.000000; 1.000000; 1.000000;,
    203; 1.000000; 1.000000; 1.000000; 1.000000;,
    204; 1.000000; 1.000000; 1.000000; 1.000000;,
    205; 1.000000; 1.000000; 1.000000; 1.000000;,
    206; 1.000000; 1.000000; 1.000000; 1.000000;,
    207; 1.000000; 1.000000; 1.000000; 1.000000;,
    208; 1.000000; 1.000000; 1.000000; 1.000000;,
    209; 1.000000; 1.000000; 1.000000; 1.000000;,
    210; 1.000000; 1.000000; 1.000000; 1.000000;,
    211; 1.000000; 1.000000; 1.000000; 1.000000;,
    212; 1.000000; 1.000000; 1.000000; 1.000000;,
    213; 1.000000; 1.000000; 1.000000; 1.000000;,
    214; 1.000000; 1.000000; 1.000000; 1.000000;,
    215; 1.000000; 1.000000; 1.000000; 1.000000;,
    216; 1.000000; 1.000000; 1.000000; 1.000000;,
    217; 1.000000; 1.000000; 1.000000; 1.000000;,
    218; 1.000000; 1.000000; 1.000000; 1.000000;,
    219; 1.000000; 1.000000; 1.000000; 1.000000;,
    220; 1.000000; 1.000000; 1.000000; 1.000000;,
    221; 1.000000; 1.000000; 1.000000; 1.000000;,
    222; 1.000000; 1.000000; 1.000000; 1.000000;,
    223; 1.000000; 1.000000; 1.000000; 1.000000;,
    224; 1.000000; 1.000000; 1.000000; 1.000000;,
    225; 1.000000; 1.000000; 1.000000; 1.000000;,
    226; 1.000000; 1.000000; 1.000000; 1.000000;,
    227; 1.000000; 1.000000; 1.000000; 1.000000;,
    228; 1.000000; 1.000000; 1.000000; 1.000000;,
    229; 1.000000; 1.000000; 1.000000; 1.000000;,
    230; 1.000000; 1.000000; 1.000000; 1.000000;,
    231; 1.000000; 1.000000; 1.000000; 1.000000;,
    232; 1.000000; 1.000000; 1.000000; 1.000000;,
    233; 1.000000; 1.000000; 1.000000; 1.000000;,
    234; 1.000000; 1.000000; 1.000000; 1.000000;,
    235; 1.000000; 1.000000; 1.000000; 1.000000;,
    236; 1.000000; 1.000000; 1.000000; 1.000000;,
    237; 1.000000; 1.000000; 1.000000; 1.000000;,
    238; 1.000000; 1.000000; 1.000000; 1.000000;,
    239; 1.000000; 1.000000; 1.000000; 1.000000;,
    240; 1.000000; 1.000000; 1.000000; 1.000000;,
    241; 1.000000; 1.000000; 1.000000; 1.000000;,
    242; 1.000000; 1.000000; 1.000000; 1.000000;,
    243; 1.000000; 1.000000; 1.000000; 1.000000;,
    244; 1.000000; 1.000000; 1.000000; 1.000000;,
    245; 1.000000; 1.000000; 1.000000; 1.000000;,
    246; 1.000000; 1.000000; 1.000000; 1.000000;,
    247; 1.000000; 1.000000; 1.000000; 1.000000;,
    248; 1.000000; 1.000000; 1.000000; 1.000000;,
    249; 1.000000; 1.000000; 1.000000; 1.000000;,
    250; 1.000000; 1.000000; 1.000000; 1.000000;,
    251; 1.000000; 1.000000; 1.000000; 1.000000;,
    252; 1.000000; 1.000000; 1.000000; 1.000000;,
    253; 1.000000; 1.000000; 1.000000; 1.000000;,
    254; 1.000000; 1.000000; 1.000000; 1.000000;,
    255; 1.000000; 1.000000; 1.000000; 1.000000;,
    256; 1.000000; 1.000000; 1.000000; 1.000000;,
    257; 1.000000; 1.000000; 1.000000; 1.000000;,
    258; 1.000000; 1.000000; 1.000000; 1.000000;,
    259; 1.000000; 1.000000; 1.000000; 1.000000;,
    260; 1.000000; 1.000000; 1.000000; 1.000000;,
    261; 1.000000; 1.000000; 1.000000; 1.000000;,
    262; 1.000000; 1.000000; 1.000000; 1.000000;,
    263; 1.000000; 1.000000; 1.000000; 1.000000;,
    264; 1.000000; 1.000000; 1.000000; 1.000000;,
    265; 1.000000; 1.000000; 1.000000; 1.000000;,
    266; 1.000000; 1.000000; 1.000000; 1.000000;,
    267; 1.000000; 1.000000; 1.000000; 1.000000;,
    268; 1.000000; 1.000000; 1.000000; 1.000000;,
    269; 1.000000; 1.000000; 1.000000; 1.000000;,
    270; 1.000000; 1.000000; 1.000000; 1.000000;,
    271; 1.000000; 1.000000; 1.000000; 1.000000;,
    272; 1.000000; 1.000000; 1.000000; 1.000000;,
    273; 1.000000; 1.000000; 1.000000; 1.000000;,
    274; 1.000000; 1.000000; 1.000000; 1.000000;,
    275; 1.000000; 1.000000; 1.000000; 1.000000;,
    276; 1.000000; 1.000000; 1.000000; 1.000000;,
    277; 1.000000; 1.000000; 1.000000; 1.000000;,
    278; 1.000000; 1.000000; 1.000000; 1.000000;,
    279; 1.000000; 1.000000; 1.000000; 1.000000;,
    280; 1.000000; 1.000000; 1.000000; 1.000000;,
    281; 1.000000; 1.000000; 1.000000; 1.000000;,
    282; 1.000000; 1.000000; 1.000000; 1.000000;,
    283; 1.000000; 1.000000; 1.000000; 1.000000;,
    284; 1.000000; 1.000000; 1.000000; 1.000000;,
    285; 1.000000; 1.000000; 1.000000; 1.000000;,
    286; 1.000000; 1.000000; 1.000000; 1.000000;,
    287; 1.000000; 1.000000; 1.000000; 1.000000;,
    288; 1.000000; 1.000000; 1.000000; 1.000000;,
    289; 1.000000; 1.000000; 1.000000; 1.000000;,
    290; 1.000000; 1.000000; 1.000000; 1.000000;,
    291; 1.000000; 1.000000; 1.000000; 1.000000;,
    292; 1.000000; 1.000000; 1.000000; 1.000000;,
    293; 1.000000; 1.000000; 1.000000; 1.000000;,
    294; 1.000000; 1.000000; 1.000000; 1.000000;,
    295; 1.000000; 1.000000; 1.000000; 1.000000;,
    296; 1.000000; 1.000000; 1.000000; 1.000000;,
    297; 1.000000; 1.000000; 1.000000; 1.000000;,
    298; 1.000000; 1.000000; 1.000000; 1.000000;,
    299; 1.000000; 1.000000; 1.000000; 1.000000;,
    300; 1.000000; 1.000000; 1.000000; 1.000000;,
    301; 1.000000; 1.000000; 1.000000; 1.000000;,
    302; 1.000000; 1.000000; 1.000000; 1.000000;,
    303; 1.000000; 1.000000; 1.000000; 1.000000;,
    304; 1.000000; 1.000000; 1.000000; 1.000000;,
    305; 1.000000; 1.000000; 1.000000; 1.000000;,
    306; 1.000000; 1.000000; 1.000000; 1.000000;,
    307; 1.000000; 1.000000; 1.000000; 1.000000;,
    308; 1.000000; 1.000000; 1.000000; 1.000000;,
    309; 1.000000; 1.000000; 1.000000; 1.000000;,
    310; 1.000000; 1.000000; 1.000000; 1.000000;,
    311; 1.000000; 1.000000; 1.000000; 1.000000;,
    312; 1.000000; 1.000000; 1.000000; 1.000000;,
    313; 1.000000; 1.000000; 1.000000; 1.000000;,
    314; 1.000000; 1.000000; 1.000000; 1.000000;,
    315; 1.000000; 1.000000; 1.000000; 1.000000;,
    316; 1.000000; 1.000000; 1.000000; 1.000000;,
    317; 1.000000; 1.000000; 1.000000; 1.000000;,
    318; 1.000000; 1.000000; 1.000000; 1.000000;,
    319; 1.000000; 1.000000; 1.000000; 1.000000;,
    320; 1.000000; 1.000000; 1.000000; 1.000000;,
    321; 1.000000; 1.000000; 1.000000; 1.000000;,
    322; 1.000000; 1.000000; 1.000000; 1.000000;,
    323; 1.000000; 1.000000; 1.000000; 1.000000;,
    324; 1.000000; 1.000000; 1.000000; 1.000000;,
    325; 1.000000; 1.000000; 1.000000; 1.000000;,
    326; 1.000000; 1.000000; 1.000000; 1.000000;,
    327; 1.000000; 1.000000; 1.000000; 1.000000;,
    328; 1.000000; 1.000000; 1.000000; 1.000000;,
    329; 1.000000; 1.000000; 1.000000; 1.000000;,
    330; 1.000000; 1.000000; 1.000000; 1.000000;,
    331; 1.000000; 1.000000; 1.000000; 1.000000;,
    332; 1.000000; 1.000000; 1.000000; 1.000000;,
    333; 1.000000; 1.000000; 1.000000; 1.000000;,
    334; 1.000000; 1.000000; 1.000000; 1.000000;,
    335; 1.000000; 1.000000; 1.000000; 1.000000;,
    336; 1.000000; 1.000000; 1.000000; 1.000000;,
    337; 1.000000; 1.000000; 1.000000; 1.000000;,
    338; 1.000000; 1.000000; 1.000000; 1.000000;,
    339; 1.000000; 1.000000; 1.000000; 1.000000;,
    340; 1.000000; 1.000000; 1.000000; 1.000000;,
    341; 1.000000; 1.000000; 1.000000; 1.000000;;
   }

   MeshMaterialList {
    4;
    248;
    0,
    0,
    0,
    0,
    0,
    0,
    0,
    0,
    0,
    0,
    0,
    0,
    0,
    0,
    0,
    0,
    0,
    0,
    0,
    0,
    0,
    0,
    0,
    0,
    0,
    0,
    0,
    0,
    0,
    0,
    0,
    0,
    0,
    0,
    0,
    0,
    0,
    0,
    0,
    0,
    0,
    0,
    0,
    0,
    0,
    0,
    0,
    0,
    0,
    0,
    0,
    0,
    0,
    0,
    0,
    0,
    0,
    0,
    0,
    0,
    2,
    2,
    2,
    2,
    2,
    2,
    3,
    3,
    3,
    3,
    3,
    3,
    3,
    3,
    3,
    3,
    3,
    3,
    3,
    3,
    3,
    3,
    3,
    3,
    3,
    3,
    3,
    3,
    3,
    3,
    3,
    3,
    3,
    3,
    3,
    3,
    3,
    3,
    3,
    3,
    3,
    3,
    3,
    3,
    3,
    3,
    3,
    3,
    3,
    3,
    3,
    3,
    3,
    3,
    3,
    3,
    3,
    3,
    3,
    3,
    3,
    3,
    3,
    3,
    3,
    3,
    3,
    3,
    3,
    3,
    3,
    3,
    3,
    3,
    3,
    3,
    3,
    3,
    3,
    3,
    3,
    3,
    3,
    3,
    3,
    3,
    3,
    3,
    3,
    3,
    3,
    3,
    3,
    3,
    3,
    3,
    3,
    3,
    3,
    3,
    3,
    3,
    3,
    3,
    3,
    3,
    3,
    3,
    3,
    3,
    3,
    3,
    3,
    3,
    3,
    3,
    3,
    3,
    3,
    3,
    3,
    3,
    3,
    3,
    3,
    3,
    3,
    3,
    3,
    3,
    3,
    3,
    3,
    3,
    3,
    3,
    3,
    3,
    3,
    3,
    3,
    3,
    3,
    3,
    3,
    3,
    3,
    3,
    3,
    3,
    3,
    3,
    3,
    3,
    3,
    3,
    3,
    3,
    3,
    3,
    3,
    3,
    3,
    3,
    3,
    3,
    3,
    3,
    3,
    3,
    3,
    3,
    0,
    0,
    0,
    0,
    0,
    0,
    0,
    0,
    0,
    0,
    0,
    0,
    0,
    0,
    0,
    0;

    Material DungNewA {
     1.000000; 1.000000; 1.000000; 1.000000;;
     128.000000;
     1.000000; 1.000000; 1.000000;;
     0.000000; 0.000000; 0.000000;;

     TextureFilename {
      "DungNewA.dds";
     }
    }

    Material DungNewE {
     1.000000; 1.000000; 1.000000; 1.000000;;
     128.000000;
     1.000000; 1.000000; 1.000000;;
     0.000000; 0.000000; 0.000000;;

     TextureFilename {
      "DungNewE.dds";
     }
    }

    Material DungFloorC {
     1.000000; 1.000000; 1.000000; 1.000000;;
     128.000000;
     1.000000; 1.000000; 1.000000;;
     0.000000; 0.000000; 0.000000;;

     TextureFilename {
      "DungFloorC.dds";
     }
    }

    Material DungNewD {
     1.000000; 1.000000; 1.000000; 1.000000;;
     128.000000;
     1.000000; 1.000000; 1.000000;;
     0.000000; 0.000000; 0.000000;;

     TextureFilename {
      "DungNewD.dds";
     }
    }

   }
  }
}
