xof 0303txt 0032

// DirectX 9.0 file
// Creator: Ultimate Unwrap3D Pro v3.32
// Website: http://www.unwrap3d.com
// Time: Wed Sep 07 18:20:00 2011

// Start of Templates

template VertexDuplicationIndices {
 <b8d65549-d7c9-4995-89cf-53a9a8b031e3>
 DWORD nIndices;
 DWORD nOriginalVertices;
 array DWORD indices[nIndices];
}

template FVFData {
 <b6e70a0e-8ef9-4e83-94ad-ecc8b0c04897>
 DWORD dwFVF;
 DWORD nDWords;
 array DWORD data[nDWords];
}

template Header {
 <3D82AB43-62DA-11cf-AB39-0020AF71E433>
 WORD major;
 WORD minor;
 DWORD flags;
}

template Vector {
 <3D82AB5E-62DA-11cf-AB39-0020AF71E433>
 FLOAT x;
 FLOAT y;
 FLOAT z;
}

template Coords2d {
 <F6F23F44-7686-11cf-8F52-0040333594A3>
 FLOAT u;
 FLOAT v;
}

template Matrix4x4 {
 <F6F23F45-7686-11cf-8F52-0040333594A3>
 array FLOAT matrix[16];
}

template ColorRGBA {
 <35FF44E0-6C7C-11cf-8F52-0040333594A3>
 FLOAT red;
 FLOAT green;
 FLOAT blue;
 FLOAT alpha;
}

template ColorRGB {
 <D3E16E81-7835-11cf-8F52-0040333594A3>
 FLOAT red;
 FLOAT green;
 FLOAT blue;
}

template IndexedColor {
 <1630B820-7842-11cf-8F52-0040333594A3>
 DWORD index;
 ColorRGBA indexColor;
}

template Material {
 <3D82AB4D-62DA-11cf-AB39-0020AF71E433>
 ColorRGBA faceColor;
 FLOAT power;
 ColorRGB specularColor;
 ColorRGB emissiveColor;
 [...]
}

template TextureFilename {
 <A42790E1-7810-11cf-8F52-0040333594A3>
 STRING filename;
}

template MeshFace {
 <3D82AB5F-62DA-11cf-AB39-0020AF71E433>
 DWORD nFaceVertexIndices;
 array DWORD faceVertexIndices[nFaceVertexIndices];
}

template MeshTextureCoords {
 <F6F23F40-7686-11cf-8F52-0040333594A3>
 DWORD nTextureCoords;
 array Coords2d textureCoords[nTextureCoords];
}

template MeshMaterialList {
 <F6F23F42-7686-11cf-8F52-0040333594A3>
 DWORD nMaterials;
 DWORD nFaceIndexes;
 array DWORD faceIndexes[nFaceIndexes];
 [Material]
}

template MeshNormals {
 <F6F23F43-7686-11cf-8F52-0040333594A3>
 DWORD nNormals;
 array Vector normals[nNormals];
 DWORD nFaceNormals;
 array MeshFace faceNormals[nFaceNormals];
}

template MeshVertexColors {
 <1630B821-7842-11cf-8F52-0040333594A3>
 DWORD nVertexColors;
 array IndexedColor vertexColors[nVertexColors];
}

template Mesh {
 <3D82AB44-62DA-11cf-AB39-0020AF71E433>
 DWORD nVertices;
 array Vector vertices[nVertices];
 DWORD nFaces;
 array MeshFace faces[nFaces];
 [...]
}

template FrameTransformMatrix {
 <F6F23F41-7686-11cf-8F52-0040333594A3>
 Matrix4x4 frameMatrix;
}

template Frame {
 <3D82AB46-62DA-11cf-AB39-0020AF71E433>
 [...]
}

template FloatKeys {
 <10DD46A9-775B-11cf-8F52-0040333594A3>
 DWORD nValues;
 array FLOAT values[nValues];
}

template TimedFloatKeys {
 <F406B180-7B3B-11cf-8F52-0040333594A3>
 DWORD time;
 FloatKeys tfkeys;
}

template AnimationKey {
 <10DD46A8-775B-11cf-8F52-0040333594A3>
 DWORD keyType;
 DWORD nKeys;
 array TimedFloatKeys keys[nKeys];
}

template AnimationOptions {
 <E2BF56C0-840F-11cf-8F52-0040333594A3>
 DWORD openclosed;
 DWORD positionquality;
}

template Animation {
 <3D82AB4F-62DA-11cf-AB39-0020AF71E433>
 [...]
}

template AnimationSet {
 <3D82AB50-62DA-11cf-AB39-0020AF71E433>
 [Animation]
}

template XSkinMeshHeader {
 <3CF169CE-FF7C-44ab-93C0-F78F62D172E2>
 WORD nMaxSkinWeightsPerVertex;
 WORD nMaxSkinWeightsPerFace;
 WORD nBones;
}

template SkinWeights {
 <6F0D123B-BAD2-4167-A0D0-80224F25FABB>
 STRING transformNodeName;
 DWORD nWeights;
 array DWORD vertexIndices[nWeights];
 array FLOAT weights[nWeights];
 Matrix4x4 matrixOffset;
}

template AnimTicksPerSecond {
 <9E415A43-7BA6-4a73-8743-B73D47E88476>
 DWORD AnimTicksPerSecond;
}

AnimTicksPerSecond {
 4800;
}

// Start of Frames

Frame Body {
   FrameTransformMatrix {
    1.000000, 0.000000, 0.000000, 0.000000,
    0.000000, 1.000000, 0.000000, 0.000000,
    0.000000, 0.000000, 1.000000, 0.000000,
    0.000000, 0.000000, 0.000000, 1.000000;;
   }

   Mesh staticMesh {
    425;
    -162.799805; 272.545013; 195.081543;,
    -164.799805; 272.545013; 195.081543;,
    -162.799805; 272.545013; -23.948486;,
    -164.799805; 272.545013; -23.948486;,
    -162.799805; 272.545013; 195.081543;,
    -162.799805; 272.545013; -23.948486;,
    -160.599609; 289.586029; 195.081543;,
    -160.599609; 289.586029; -23.948486;,
    -156.200195; 305.912018; 195.081543;,
    -156.200195; 305.912018; -23.948486;,
    -164.799805; 305.912018; 195.081543;,
    -164.799805; 289.922028; 195.081543;,
    -164.799805; 272.545013; 195.081543;,
    167.400391; 272.545013; 195.081543;,
    162.799805; 272.545013; 195.081543;,
    167.400391; 272.545013; -23.948486;,
    162.799805; 272.545013; -23.948486;,
    162.799805; 272.545013; -23.948486;,
    162.799805; 272.545013; 195.081543;,
    160.500000; 289.586029; -23.948486;,
    160.500000; 289.586029; 195.081543;,
    156.100586; 305.912018; -23.948486;,
    156.100586; 305.912018; 195.081543;,
    167.400391; 305.912018; 195.081543;,
    167.400391; 289.922028; 195.081543;,
    167.400391; 272.545013; 195.081543;,
    -145.899414; 375.100006; 385.188477;,
    -96.599609; 406.511993; 385.188477;,
    -145.899414; 375.100006; -385.188477;,
    -96.599609; 406.511993; -385.188477;,
    -49.899414; 423.355988; 385.188477;,
    -49.899414; 423.355988; -385.188477;,
    -0.200195; 428.224030; 385.188477;,
    -0.200195; 428.224030; -385.188477;,
    -193.500000; 306.253998; 385.188477;,
    -173.200195; 346.605011; 385.188477;,
    -193.500000; 306.253998; -385.188477;,
    -173.200195; 346.605011; -385.188477;,
    -193.500000; 0.000000; 385.188477;,
    -193.500000; 272.545013; 385.188477;,
    -193.500000; 0.000000; -385.188477;,
    -193.500000; 272.545013; -385.188477;,
    -142.700195; 320.920013; 385.188477;,
    -173.200195; 346.605011; 385.188477;,
    -164.799805; 305.912018; 385.188477;,
    -193.500000; 306.253998; 385.188477;,
    -75.200195; 369.436005; 385.188477;,
    -96.599609; 406.511993; 385.188477;,
    -118.899414; 341.829010; 385.188477;,
    -145.899414; 375.100006; 385.188477;,
    -34.200195; 384.173981; 385.188477;,
    -49.899414; 423.355988; 385.188477;,
    -0.200195; 388.615021; 385.188477;,
    -0.200195; 428.224030; 385.188477;,
    -164.799805; 305.912018; -385.188477;,
    -193.500000; 306.253998; -385.188477;,
    -142.700195; 320.920013; -385.188477;,
    -173.200195; 346.605011; -385.188477;,
    -164.799805; 272.545013; -385.188477;,
    -193.500000; 272.545013; -385.188477;,
    -118.899414; 341.829010; -385.188477;,
    -145.899414; 375.100006; -385.188477;,
    -75.200195; 369.436005; -385.188477;,
    -96.599609; 406.511993; -385.188477;,
    -34.200195; 384.173981; -385.188477;,
    -49.899414; 423.355988; -385.188477;,
    -0.200195; 388.615021; -385.188477;,
    -0.200195; 428.224030; -385.188477;,
    -152.899414; 305.884003; 385.188477;,
    -152.899414; 305.884003; -385.188477;,
    -152.899414; 305.884003; 195.081543;,
    -164.799805; 305.912018; 195.081543;,
    -152.899414; 305.884003; -23.948486;,
    -164.799805; 305.912018; -23.948486;,
    -156.200195; 305.912018; -23.948486;,
    -156.200195; 305.912018; 195.081543;,
    -164.799805; 272.545013; 385.188477;,
    -193.500000; 272.545013; 385.188477;,
    -162.799805; 272.545013; -23.948486;,
    -164.799805; 272.545013; -23.948486;,
    -160.599609; 289.586029; -23.948486;,
    -164.799805; 289.922028; -23.948486;,
    96.600586; 406.511993; 385.188477;,
    145.799805; 375.100006; 385.188477;,
    96.600586; 406.511993; -385.188477;,
    145.799805; 375.100006; -385.188477;,
    49.799805; 423.355988; 385.188477;,
    49.799805; 423.355988; -385.188477;,
    -0.200195; 428.224030; 385.188477;,
    -0.200195; 428.224030; -385.188477;,
    173.100586; 346.605011; 385.188477;,
    193.500000; 306.253998; 385.188477;,
    173.100586; 346.605011; -385.188477;,
    193.500000; 306.253998; -385.188477;,
    193.500000; 272.545013; 385.188477;,
    193.500000; 0.000000; 385.188477;,
    193.500000; 272.545013; -385.188477;,
    193.500000; 0.000000; -385.188477;,
    173.100586; 346.605011; 385.188477;,
    142.600586; 320.920013; 385.188477;,
    193.500000; 306.253998; 385.188477;,
    167.400391; 305.912018; 385.188477;,
    96.600586; 406.511993; 385.188477;,
    75.100586; 369.436005; 385.188477;,
    145.799805; 375.100006; 385.188477;,
    118.900391; 341.829010; 385.188477;,
    49.799805; 423.355988; 385.188477;,
    34.200195; 384.173981; 385.188477;,
    193.500000; 306.253998; -385.188477;,
    167.400391; 305.912018; -385.188477;,
    173.100586; 346.605011; -385.188477;,
    142.600586; 320.920013; -385.188477;,
    193.500000; 272.545013; -385.188477;,
    167.400391; 272.545013; -385.188477;,
    145.799805; 375.100006; -385.188477;,
    118.900391; 341.829010; -385.188477;,
    96.600586; 406.511993; -385.188477;,
    75.100586; 369.436005; -385.188477;,
    49.799805; 423.355988; -385.188477;,
    34.200195; 384.173981; -385.188477;,
    152.900391; 305.884003; 385.188477;,
    152.900391; 305.884003; -385.188477;,
    167.400391; 305.912018; -23.948486;,
    156.100586; 305.912018; -23.948486;,
    167.400391; 305.912018; 195.081543;,
    156.100586; 305.912018; 195.081543;,
    167.400391; 272.545013; 195.081543;,
    167.400391; 272.545013; 385.188477;,
    167.400391; 289.922028; 195.081543;,
    167.400391; 305.912018; 385.188477;,
    167.400391; 305.912018; 195.081543;,
    167.400391; 272.545013; -242.978516;,
    167.400391; 272.545013; -23.948486;,
    167.400391; 305.912018; -242.978516;,
    167.400391; 289.922028; -23.948486;,
    167.400391; 305.912018; -23.948486;,
    167.400391; 272.545013; -385.188477;,
    167.400391; 305.912018; -385.188477;,
    193.500000; 272.545013; 385.188477;,
    167.400391; 272.545013; 385.188477;,
    167.400391; 272.545013; -23.948486;,
    162.799805; 272.545013; -23.948486;,
    167.400391; 289.922028; -23.948486;,
    160.500000; 289.586029; -23.948486;,
    167.400391; 80.183014; 385.188477;,
    167.400391; 80.183014; 195.081543;,
    167.299805; 80.868988; -23.948486;,
    167.400391; 80.183014; -242.978516;,
    167.400391; 80.183014; -385.188477;,
    134.799805; 53.622009; 385.188477;,
    135.299805; 28.725006; 385.188477;,
    139.200195; 61.115997; 385.188477;,
    164.700195; 28.725006; 385.188477;,
    167.400391; 80.183014; 385.188477;,
    167.400391; 80.183014; -385.188477;,
    164.700195; 28.725006; -385.188477;,
    139.200195; 61.115997; -385.188477;,
    135.299805; 28.725006; -385.188477;,
    134.799805; 53.622009; -385.188477;,
    132.600586; 52.128998; 385.188477;,
    133.100586; 59.622986; 385.188477;,
    132.600586; 52.128998; 195.081543;,
    134.799805; 53.622009; 195.081543;,
    132.600586; 52.128998; 385.188477;,
    134.799805; 53.622009; 385.188477;,
    132.600586; 52.128998; -23.948486;,
    134.799805; 53.622009; -23.948486;,
    132.600586; 52.128998; -242.978516;,
    134.799805; 53.622009; -242.978516;,
    132.600586; 52.128998; -385.188477;,
    134.799805; 53.622009; -385.188477;,
    133.100586; 59.622986; -385.188477;,
    132.600586; 52.128998; -385.188477;,
    -165.200195; 80.183014; 385.188477;,
    -193.500000; 0.000000; 385.188477;,
    -164.799805; 28.725006; 385.188477;,
    -164.799805; 28.725006; -385.188477;,
    -193.500000; 0.000000; -385.188477;,
    -164.799805; 80.380005; -385.188477;,
    -135.799805; 28.725006; 385.188477;,
    -135.299805; 53.622009; 385.188477;,
    -165.200195; 28.725006; 385.188477;,
    -139.599609; 61.115997; 385.188477;,
    -165.200195; 80.183014; 385.188477;,
    -165.200195; 28.725006; -385.188477;,
    -164.799805; 80.380005; -385.188477;,
    -135.200195; 28.725006; -385.188477;,
    -139.599609; 61.115997; -385.188477;,
    -135.299805; 53.622009; -385.188477;,
    -133.099609; 52.128998; 385.188477;,
    -133.500000; 59.622986; 385.188477;,
    -135.299805; 53.622009; 195.081543;,
    -133.099609; 52.128998; 195.081543;,
    -135.299805; 53.622009; 385.188477;,
    -133.099609; 52.128998; 385.188477;,
    -135.299805; 53.622009; -23.948486;,
    -133.099609; 52.128998; -23.948486;,
    -135.299805; 53.622009; -242.978516;,
    -133.099609; 52.128998; -242.978516;,
    -135.299805; 53.622009; -385.188477;,
    -133.099609; 52.128998; -385.188477;,
    -135.299805; 53.622009; -242.978516;,
    -133.099609; 52.128998; -242.978516;,
    -133.500000; 59.622986; -385.188477;,
    -133.099609; 52.128998; -385.188477;,
    0.000000; 0.000000; -23.948486;,
    0.000000; 0.000000; 385.188477;,
    -82.899414; 0.000000; -23.948486;,
    -82.899414; 0.000000; 385.188477;,
    -193.500000; 0.000000; -23.948486;,
    -193.500000; 0.000000; 385.188477;,
    0.000000; 0.000000; -385.188477;,
    -82.899414; 0.000000; -385.188477;,
    -193.500000; 0.000000; -385.188477;,
    82.900391; 0.000000; 385.188477;,
    82.900391; 0.000000; -23.948486;,
    193.500000; 0.000000; 385.188477;,
    193.500000; 0.000000; -23.948486;,
    82.900391; 0.000000; -385.188477;,
    193.500000; 0.000000; -385.188477;,
    193.500000; 0.000000; 385.188477;,
    82.900391; 0.000000; 385.188477;,
    82.900391; 28.725006; 385.188477;,
    0.000000; 0.000000; 385.188477;,
    0.000000; 28.725006; 385.188477;,
    0.000000; 0.000000; -385.188477;,
    0.000000; 28.725006; -385.188477;,
    82.900391; 0.000000; -385.188477;,
    82.900391; 28.725006; -385.188477;,
    193.500000; 0.000000; -385.188477;,
    135.299805; 28.725006; -385.188477;,
    164.700195; 28.725006; -385.188477;,
    -135.799805; 28.725006; 385.188477;,
    -82.899414; 0.000000; 385.188477;,
    -82.899414; 28.725006; 385.188477;,
    -82.899414; 28.725006; -385.188477;,
    -82.899414; 0.000000; -385.188477;,
    -135.200195; 28.725006; -385.188477;,
    167.400391; 80.183014; -385.188477;,
    193.500000; 0.000000; -385.188477;,
    193.500000; 0.000000; -385.188477;,
    193.500000; 81.309998; -385.188477;,
    193.500000; 272.545013; -385.188477;,
    -75.200195; 369.436005; 385.188477;,
    -118.899414; 341.829010; 385.188477;,
    -75.200195; 369.436005; 195.081543;,
    -118.899414; 341.829010; 195.081543;,
    -75.200195; 369.436005; -23.948486;,
    -118.899414; 341.829010; -23.948486;,
    -75.200195; 369.436005; -242.978516;,
    -118.899414; 341.829010; -242.978516;,
    -75.200195; 369.436005; -385.188477;,
    -118.899414; 341.829010; -385.188477;,
    -34.200195; 384.173981; 385.188477;,
    -34.200195; 384.173981; 195.081543;,
    -34.200195; 384.173981; -23.948486;,
    -34.200195; 384.173981; -242.978516;,
    -34.200195; 384.173981; -385.188477;,
    -0.200195; 388.615021; 385.188477;,
    -0.200195; 388.615021; 195.081543;,
    -0.200195; 388.615021; -23.948486;,
    -0.200195; 388.615021; -242.978516;,
    -0.200195; 388.615021; -385.188477;,
    -142.700195; 320.920013; 385.188477;,
    -152.899414; 305.884003; 385.188477;,
    -142.700195; 320.920013; 195.081543;,
    -152.899414; 305.884003; 195.081543;,
    -142.700195; 320.920013; -23.948486;,
    -152.899414; 305.884003; -23.948486;,
    -142.700195; 320.920013; -242.978516;,
    -152.899414; 305.884003; -242.978516;,
    -142.700195; 320.920013; -385.188477;,
    -152.899414; 305.884003; -385.188477;,
    -152.899414; 305.884003; 385.188477;,
    -164.799805; 305.912018; 385.188477;,
    -152.899414; 305.884003; 195.081543;,
    -164.799805; 305.912018; 195.081543;,
    -152.899414; 305.884003; -242.978516;,
    -164.799805; 305.912018; -242.978516;,
    -152.899414; 305.884003; -385.188477;,
    -164.799805; 305.912018; -385.188477;,
    -152.899414; 305.884003; -23.948486;,
    -164.799805; 305.912018; -23.948486;,
    -164.799805; 272.545013; 385.188477;,
    -164.799805; 272.545013; 195.081543;,
    -164.799805; 305.912018; 385.188477;,
    -164.799805; 289.922028; 195.081543;,
    -164.799805; 305.912018; 195.081543;,
    -164.799805; 272.545013; -23.948486;,
    -164.799805; 272.545013; -242.978516;,
    -164.799805; 289.922028; -23.948486;,
    -164.799805; 305.912018; -242.978516;,
    -164.799805; 305.912018; -23.948486;,
    -164.799805; 272.545013; -385.188477;,
    -164.799805; 305.912018; -385.188477;,
    118.900391; 341.829010; 385.188477;,
    75.100586; 369.436005; 385.188477;,
    118.900391; 341.829010; 195.081543;,
    75.100586; 372.379974; 195.081543;,
    118.900391; 341.829010; -23.948486;,
    75.100586; 369.436005; -23.948486;,
    118.900391; 341.829010; -242.978516;,
    75.100586; 369.436005; -242.978516;,
    118.900391; 341.829010; -385.188477;,
    75.100586; 369.436005; -385.188477;,
    34.200195; 384.173981; 385.188477;,
    34.200195; 384.173981; 195.081543;,
    34.200195; 384.173981; -23.948486;,
    34.200195; 384.173981; -242.978516;,
    34.200195; 384.173981; -385.188477;,
    -0.200195; 388.615021; 385.188477;,
    -0.200195; 388.615021; 195.081543;,
    34.200195; 384.173981; -23.948486;,
    -0.200195; 388.615021; -23.948486;,
    -0.200195; 388.615021; -242.978516;,
    -0.200195; 388.615021; -385.188477;,
    152.900391; 305.884003; 385.188477;,
    142.600586; 320.920013; 385.188477;,
    152.900391; 305.884003; 195.081543;,
    142.600586; 320.920013; 195.081543;,
    152.900391; 305.884003; -23.948486;,
    142.600586; 320.920013; -23.948486;,
    152.900391; 305.884003; -242.978516;,
    142.600586; 320.920013; -242.978516;,
    152.900391; 305.884003; -385.188477;,
    142.600586; 320.920013; -385.188477;,
    167.400391; 305.912018; 385.188477;,
    152.900391; 305.884003; 385.188477;,
    167.400391; 305.912018; 195.081543;,
    152.900391; 305.884003; 195.081543;,
    167.400391; 305.912018; -242.978516;,
    152.900391; 305.884003; -242.978516;,
    167.400391; 305.912018; -385.188477;,
    152.900391; 305.884003; -385.188477;,
    167.400391; 305.912018; -23.948486;,
    152.900391; 305.884003; -23.948486;,
    139.200195; 61.115997; 195.081543;,
    139.200195; 61.115997; 385.188477;,
    167.400391; 80.183014; 195.081543;,
    167.400391; 80.183014; 385.188477;,
    139.200195; 60.941010; -23.948486;,
    167.299805; 80.868988; -23.948486;,
    139.200195; 61.115997; -242.978516;,
    167.400391; 80.183014; -242.978516;,
    139.200195; 61.115997; -385.188477;,
    167.400391; 80.183014; -385.188477;,
    132.600586; 52.128998; 385.188477;,
    133.100586; 59.622986; 385.188477;,
    132.600586; 52.128998; 195.081543;,
    133.100586; 59.622986; 195.081543;,
    133.100586; 59.622986; -385.188477;,
    132.600586; 52.128998; -385.188477;,
    133.100586; 59.622986; -242.978516;,
    132.600586; 52.128998; -242.978516;,
    132.600586; 52.128998; -23.948486;,
    133.100586; 59.447998; -23.948486;,
    -165.200195; 80.183014; 385.188477;,
    -164.799805; 80.380005; 195.081543;,
    -170.500000; 80.868988; -23.948486;,
    -164.799805; 272.545013; -23.948486;,
    -170.500000; 80.868988; -23.948486;,
    -165.200195; 80.183014; -242.978516;,
    -164.799805; 80.380005; -385.188477;,
    -139.599609; 61.115997; 385.188477;,
    -139.599609; 61.115997; 195.081543;,
    -165.200195; 80.183014; 385.188477;,
    -164.799805; 80.380005; 195.081543;,
    -139.700195; 60.941010; -23.948486;,
    -170.500000; 80.868988; -23.948486;,
    -139.700195; 60.941010; -23.948486;,
    -139.599609; 61.115997; -242.978516;,
    -170.500000; 80.868988; -23.948486;,
    -165.200195; 80.183014; -242.978516;,
    -139.599609; 61.115997; -385.188477;,
    -164.799805; 80.380005; -385.188477;,
    -133.500000; 59.622986; 385.188477;,
    -133.099609; 52.128998; 385.188477;,
    -133.500000; 59.622986; 195.081543;,
    -133.099609; 52.128998; 195.081543;,
    -133.099609; 52.128998; -385.188477;,
    -133.500000; 59.622986; -385.188477;,
    -133.099609; 52.128998; -242.978516;,
    -133.500000; 59.622986; -242.978516;,
    -133.099609; 52.128998; -23.948486;,
    -133.500000; 59.447998; -23.948486;,
    -133.099609; 52.128998; -23.948486;,
    -133.500000; 59.447998; -23.948486;,
    -133.500000; 59.622986; 385.188477;,
    -133.500000; 59.622986; 195.081543;,
    -133.500000; 59.447998; -23.948486;,
    134.799805; 53.622009; 195.081543;,
    131.500000; 28.725006; 195.081543;,
    134.799805; 53.622009; 385.188477;,
    135.299805; 28.725006; 385.188477;,
    134.799805; 53.622009; -23.948486;,
    135.299805; 28.725006; -23.948486;,
    134.799805; 53.622009; -242.978516;,
    131.500000; 28.725006; -242.978516;,
    134.799805; 53.622009; -385.188477;,
    135.299805; 28.725006; -385.188477;,
    -135.799805; 28.725006; 195.081543;,
    -135.299805; 53.622009; 195.081543;,
    -135.799805; 28.725006; 385.188477;,
    -135.299805; 53.622009; 385.188477;,
    -131.899414; 28.725006; -23.948486;,
    -135.299805; 53.622009; -23.948486;,
    -135.200195; 28.725006; -242.978516;,
    -135.299805; 53.622009; -242.978516;,
    -135.200195; 28.725006; -385.188477;,
    -135.299805; 53.622009; -385.188477;,
    0.000000; 28.725006; 195.081543;,
    0.000000; 28.725006; 385.188477;,
    82.900391; 28.725006; 195.081543;,
    82.900391; 28.725006; 385.188477;,
    0.000000; 32.037994; -23.948486;,
    82.900391; 30.009003; -23.948486;,
    0.000000; 28.725006; -242.978516;,
    82.900391; 31.459991; -242.978516;,
    0.000000; 28.725006; -385.188477;,
    82.900391; 28.725006; -385.188477;,
    -82.899414; 28.725006; 385.188477;,
    -82.899414; 31.459991; 195.081543;,
    -82.899414; 30.006012; -23.948486;,
    -82.899414; 28.725006; -242.978516;,
    -82.899414; 28.725006; -385.188477;;
    421;
    3;0, 1, 2;,
    3;1, 3, 2;,
    3;4, 5, 6;,
    3;5, 7, 6;,
    3;6, 7, 8;,
    3;7, 9, 8;,
    3;8, 10, 6;,
    3;10, 11, 6;,
    3;6, 11, 4;,
    3;11, 12, 4;,
    3;13, 14, 15;,
    3;14, 16, 15;,
    3;17, 18, 19;,
    3;18, 20, 19;,
    3;19, 20, 21;,
    3;20, 22, 21;,
    3;23, 22, 24;,
    3;22, 20, 24;,
    3;24, 20, 25;,
    3;20, 18, 25;,
    3;26, 27, 28;,
    3;27, 29, 28;,
    3;27, 30, 29;,
    3;30, 31, 29;,
    3;30, 32, 31;,
    3;32, 33, 31;,
    3;34, 35, 36;,
    3;35, 37, 36;,
    3;28, 37, 26;,
    3;37, 35, 26;,
    3;38, 39, 40;,
    3;39, 41, 40;,
    3;41, 39, 36;,
    3;39, 34, 36;,
    3;42, 43, 44;,
    3;43, 45, 44;,
    3;46, 47, 48;,
    3;47, 49, 48;,
    3;48, 49, 42;,
    3;49, 43, 42;,
    3;50, 51, 46;,
    3;51, 47, 46;,
    3;52, 53, 50;,
    3;53, 51, 50;,
    3;54, 55, 56;,
    3;55, 57, 56;,
    3;58, 59, 54;,
    3;59, 55, 54;,
    3;60, 61, 62;,
    3;61, 63, 62;,
    3;56, 57, 60;,
    3;57, 61, 60;,
    3;62, 63, 64;,
    3;63, 65, 64;,
    3;64, 65, 66;,
    3;65, 67, 66;,
    3;42, 44, 68;,
    3;54, 56, 69;,
    3;70, 71, 72;,
    3;71, 73, 72;,
    3;74, 73, 75;,
    3;73, 71, 75;,
    3;44, 45, 76;,
    3;45, 77, 76;,
    3;78, 79, 80;,
    3;79, 81, 80;,
    3;80, 81, 74;,
    3;81, 73, 74;,
    3;82, 83, 84;,
    3;83, 85, 84;,
    3;86, 82, 87;,
    3;82, 84, 87;,
    3;88, 86, 89;,
    3;86, 87, 89;,
    3;90, 91, 92;,
    3;91, 93, 92;,
    3;92, 85, 90;,
    3;85, 83, 90;,
    3;94, 95, 96;,
    3;95, 97, 96;,
    3;94, 96, 91;,
    3;96, 93, 91;,
    3;98, 99, 100;,
    3;99, 101, 100;,
    3;102, 103, 104;,
    3;103, 105, 104;,
    3;104, 105, 98;,
    3;105, 99, 98;,
    3;106, 107, 102;,
    3;107, 103, 102;,
    3;53, 52, 106;,
    3;52, 107, 106;,
    3;108, 109, 110;,
    3;109, 111, 110;,
    3;112, 113, 108;,
    3;113, 109, 108;,
    3;114, 115, 116;,
    3;115, 117, 116;,
    3;110, 111, 114;,
    3;111, 115, 114;,
    3;116, 117, 118;,
    3;117, 119, 118;,
    3;118, 119, 67;,
    3;119, 66, 67;,
    3;120, 101, 99;,
    3;121, 111, 109;,
    3;122, 123, 124;,
    3;123, 125, 124;,
    3;126, 127, 128;,
    3;127, 129, 128;,
    3;129, 130, 128;,
    3;131, 132, 133;,
    3;132, 134, 133;,
    3;134, 135, 133;,
    3;136, 131, 137;,
    3;131, 133, 137;,
    3;100, 101, 138;,
    3;101, 139, 138;,
    3;140, 141, 142;,
    3;141, 143, 142;,
    3;142, 143, 122;,
    3;143, 123, 122;,
    3;144, 127, 145;,
    3;127, 126, 145;,
    3;145, 126, 146;,
    3;126, 132, 146;,
    3;146, 132, 147;,
    3;132, 131, 147;,
    3;147, 131, 148;,
    3;131, 136, 148;,
    3;149, 150, 151;,
    3;150, 152, 151;,
    3;151, 152, 153;,
    3;154, 155, 156;,
    3;155, 157, 156;,
    3;156, 157, 158;,
    3;159, 149, 160;,
    3;149, 151, 160;,
    3;161, 162, 163;,
    3;162, 164, 163;,
    3;165, 166, 161;,
    3;166, 162, 161;,
    3;167, 168, 165;,
    3;168, 166, 165;,
    3;169, 170, 167;,
    3;170, 168, 167;,
    3;171, 156, 172;,
    3;156, 158, 172;,
    3;76, 77, 173;,
    3;77, 174, 173;,
    3;173, 174, 175;,
    3;176, 177, 178;,
    3;177, 59, 178;,
    3;178, 59, 58;,
    3;179, 180, 181;,
    3;180, 182, 181;,
    3;181, 182, 183;,
    3;184, 185, 186;,
    3;185, 187, 186;,
    3;186, 187, 188;,
    3;180, 189, 182;,
    3;189, 190, 182;,
    3;191, 192, 193;,
    3;192, 194, 193;,
    3;195, 196, 191;,
    3;196, 192, 191;,
    3;197, 198, 195;,
    3;198, 196, 195;,
    3;199, 200, 201;,
    3;200, 202, 201;,
    3;187, 203, 188;,
    3;203, 204, 188;,
    3;205, 206, 207;,
    3;206, 208, 207;,
    3;207, 208, 209;,
    3;208, 210, 209;,
    3;211, 205, 212;,
    3;205, 207, 212;,
    3;212, 207, 213;,
    3;207, 209, 213;,
    3;206, 205, 214;,
    3;205, 215, 214;,
    3;214, 215, 216;,
    3;215, 217, 216;,
    3;205, 211, 215;,
    3;211, 218, 215;,
    3;215, 218, 217;,
    3;218, 219, 217;,
    3;220, 152, 221;,
    3;152, 150, 221;,
    3;221, 150, 222;,
    3;221, 222, 223;,
    3;222, 224, 223;,
    3;225, 226, 227;,
    3;226, 228, 227;,
    3;227, 228, 229;,
    3;228, 230, 229;,
    3;229, 230, 231;,
    3;175, 174, 232;,
    3;174, 233, 232;,
    3;232, 233, 234;,
    3;234, 233, 224;,
    3;233, 223, 224;,
    3;226, 225, 235;,
    3;225, 236, 235;,
    3;235, 236, 237;,
    3;236, 177, 237;,
    3;237, 177, 176;,
    3;231, 238, 229;,
    3;239, 238, 112;,
    3;238, 113, 112;,
    3;240, 241, 242;,
    3;138, 139, 220;,
    3;139, 153, 220;,
    3;153, 152, 220;,
    3;243, 244, 245;,
    3;244, 246, 245;,
    3;245, 246, 247;,
    3;246, 248, 247;,
    3;247, 248, 249;,
    3;248, 250, 249;,
    3;249, 250, 251;,
    3;250, 252, 251;,
    3;253, 243, 254;,
    3;243, 245, 254;,
    3;254, 245, 255;,
    3;245, 247, 255;,
    3;255, 247, 256;,
    3;247, 249, 256;,
    3;256, 249, 257;,
    3;249, 251, 257;,
    3;258, 253, 259;,
    3;253, 254, 259;,
    3;259, 254, 260;,
    3;254, 255, 260;,
    3;260, 255, 261;,
    3;255, 256, 261;,
    3;261, 256, 262;,
    3;256, 257, 262;,
    3;263, 264, 265;,
    3;264, 266, 265;,
    3;265, 266, 267;,
    3;266, 268, 267;,
    3;267, 268, 269;,
    3;268, 270, 269;,
    3;269, 270, 271;,
    3;270, 272, 271;,
    3;269, 271, 250;,
    3;271, 252, 250;,
    3;269, 250, 267;,
    3;250, 248, 267;,
    3;267, 248, 265;,
    3;248, 246, 265;,
    3;265, 246, 263;,
    3;246, 244, 263;,
    3;273, 274, 275;,
    3;274, 276, 275;,
    3;277, 278, 279;,
    3;278, 280, 279;,
    3;281, 282, 277;,
    3;282, 278, 277;,
    3;283, 284, 285;,
    3;284, 286, 285;,
    3;286, 287, 285;,
    3;288, 289, 290;,
    3;289, 291, 290;,
    3;291, 292, 290;,
    3;289, 293, 291;,
    3;293, 294, 291;,
    3;295, 296, 297;,
    3;296, 298, 297;,
    3;297, 298, 299;,
    3;298, 300, 299;,
    3;299, 300, 301;,
    3;300, 302, 301;,
    3;301, 302, 303;,
    3;302, 304, 303;,
    3;296, 305, 298;,
    3;305, 306, 298;,
    3;298, 306, 300;,
    3;306, 307, 300;,
    3;300, 307, 302;,
    3;307, 308, 302;,
    3;302, 308, 304;,
    3;308, 309, 304;,
    3;305, 310, 306;,
    3;310, 311, 306;,
    3;306, 311, 312;,
    3;311, 313, 312;,
    3;312, 313, 308;,
    3;313, 314, 308;,
    3;308, 314, 309;,
    3;314, 315, 309;,
    3;316, 317, 318;,
    3;317, 319, 318;,
    3;318, 319, 320;,
    3;319, 321, 320;,
    3;320, 321, 322;,
    3;321, 323, 322;,
    3;322, 323, 324;,
    3;323, 325, 324;,
    3;325, 323, 303;,
    3;323, 301, 303;,
    3;301, 323, 299;,
    3;323, 321, 299;,
    3;299, 321, 297;,
    3;321, 319, 297;,
    3;297, 319, 295;,
    3;319, 317, 295;,
    3;326, 327, 328;,
    3;327, 329, 328;,
    3;330, 331, 332;,
    3;331, 333, 332;,
    3;328, 329, 334;,
    3;329, 335, 334;,
    3;334, 335, 330;,
    3;335, 331, 330;,
    3;336, 337, 338;,
    3;337, 339, 338;,
    3;340, 336, 341;,
    3;336, 338, 341;,
    3;342, 340, 343;,
    3;340, 341, 343;,
    3;344, 342, 345;,
    3;342, 343, 345;,
    3;346, 347, 348;,
    3;347, 349, 348;,
    3;350, 351, 352;,
    3;351, 353, 352;,
    3;354, 348, 355;,
    3;348, 349, 355;,
    3;353, 354, 352;,
    3;354, 355, 352;,
    3;347, 337, 349;,
    3;337, 336, 349;,
    3;352, 342, 350;,
    3;342, 344, 350;,
    3;355, 340, 352;,
    3;340, 342, 352;,
    3;349, 336, 355;,
    3;336, 340, 355;,
    3;356, 357, 283;,
    3;357, 284, 283;,
    3;357, 358, 284;,
    3;358, 359, 284;,
    3;360, 361, 288;,
    3;361, 289, 288;,
    3;361, 362, 289;,
    3;362, 293, 289;,
    3;363, 364, 365;,
    3;364, 366, 365;,
    3;364, 367, 366;,
    3;367, 368, 366;,
    3;369, 370, 371;,
    3;370, 372, 371;,
    3;370, 373, 372;,
    3;373, 374, 372;,
    3;375, 376, 377;,
    3;376, 378, 377;,
    3;379, 380, 381;,
    3;380, 382, 381;,
    3;378, 383, 377;,
    3;383, 384, 377;,
    3;385, 381, 386;,
    3;381, 382, 386;,
    3;363, 387, 364;,
    3;387, 388, 364;,
    3;370, 382, 373;,
    3;382, 380, 373;,
    3;369, 386, 370;,
    3;386, 382, 370;,
    3;364, 388, 367;,
    3;388, 389, 367;,
    3;390, 391, 392;,
    3;391, 393, 392;,
    3;394, 395, 390;,
    3;395, 391, 390;,
    3;396, 397, 394;,
    3;397, 395, 394;,
    3;398, 399, 396;,
    3;399, 397, 396;,
    3;400, 401, 402;,
    3;401, 403, 402;,
    3;404, 405, 400;,
    3;405, 401, 400;,
    3;406, 407, 404;,
    3;407, 405, 404;,
    3;408, 409, 406;,
    3;409, 407, 406;,
    3;410, 411, 412;,
    3;411, 413, 412;,
    3;412, 413, 391;,
    3;413, 393, 391;,
    3;414, 410, 415;,
    3;410, 412, 415;,
    3;415, 412, 395;,
    3;412, 391, 395;,
    3;416, 414, 417;,
    3;414, 415, 417;,
    3;417, 415, 397;,
    3;415, 395, 397;,
    3;418, 416, 419;,
    3;416, 417, 419;,
    3;419, 417, 399;,
    3;417, 397, 399;,
    3;411, 410, 420;,
    3;410, 421, 420;,
    3;420, 421, 402;,
    3;421, 400, 402;,
    3;410, 414, 421;,
    3;414, 422, 421;,
    3;421, 422, 400;,
    3;422, 404, 400;,
    3;414, 416, 422;,
    3;416, 423, 422;,
    3;422, 423, 404;,
    3;423, 406, 404;,
    3;416, 418, 423;,
    3;418, 424, 423;,
    3;423, 424, 406;,
    3;424, 408, 406;;

   MeshNormals {
    425;
    0.000000; -1.000000; 0.000000;,
    0.000000; -1.000000; 0.000000;,
    0.000000; -1.000000; 0.000000;,
    0.000000; -1.000000; 0.000000;,
    0.701286; -0.090544; 0.707107;,
    0.991768; -0.128049; 0.000000;,
    0.692805; -0.137420; 0.707910;,
    0.980890; -0.194562; 0.000000;,
    0.682752; -0.183983; 0.707107;,
    0.965557; -0.260192; 0.000000;,
    0.000000; 0.000000; 1.000000;,
    0.000000; 0.000000; 1.000000;,
    0.000000; 0.000000; 1.000000;,
    0.000000; -1.000000; 0.000000;,
    0.000000; -1.000000; 0.000000;,
    0.000000; -1.000000; 0.000000;,
    0.000000; -1.000000; 0.000000;,
    -0.991016; -0.133745; 0.000000;,
    -0.700754; -0.094572; 0.707107;,
    -0.980327; -0.197379; 0.000000;,
    -0.692473; -0.139423; 0.707843;,
    -0.965557; -0.260192; 0.000000;,
    -0.682752; -0.183983; 0.707107;,
    0.000000; 0.000000; 1.000000;,
    0.000000; 0.000000; 1.000000;,
    0.000000; 0.000000; 1.000000;,
    -0.446873; 0.544712; 0.709643;,
    -0.310888; 0.632682; 0.709269;,
    -0.446873; 0.544712; -0.709643;,
    -0.310888; 0.632682; -0.709269;,
    -0.155019; 0.687095; 0.709838;,
    -0.155019; 0.687095; -0.709838;,
    -0.000206; 0.705427; 0.708783;,
    -0.000206; 0.705427; -0.708783;,
    -0.678500; 0.161054; 0.716729;,
    -0.574300; 0.405725; 0.711032;,
    -0.678500; 0.161054; -0.716729;,
    -0.574300; 0.405725; -0.711032;,
    -0.408248; -0.408248; 0.816497;,
    -0.707107; 0.000000; 0.707107;,
    -0.408248; -0.408248; -0.816497;,
    -0.707107; 0.000000; -0.707107;,
    0.000000; 0.000000; 1.000000;,
    -0.574300; 0.405725; 0.711032;,
    0.000000; 0.000000; 1.000000;,
    -0.678500; 0.161054; 0.716729;,
    0.000000; 0.000000; 1.000000;,
    -0.310888; 0.632682; 0.709269;,
    0.000000; 0.000000; 1.000000;,
    -0.446873; 0.544712; 0.709643;,
    0.000000; 0.000000; 1.000000;,
    -0.155019; 0.687095; 0.709838;,
    0.000000; 0.000000; 1.000000;,
    -0.000206; 0.705427; 0.708783;,
    0.000000; 0.000000; -1.000000;,
    -0.678500; 0.161054; -0.716729;,
    0.000000; 0.000000; -1.000000;,
    -0.574300; 0.405725; -0.711032;,
    0.000000; 0.000000; -1.000000;,
    -0.707107; 0.000000; -0.707107;,
    0.000000; 0.000000; -1.000000;,
    -0.446873; 0.544712; -0.709643;,
    0.000000; 0.000000; -1.000000;,
    -0.310888; 0.632682; -0.709269;,
    0.000000; 0.000000; -1.000000;,
    -0.155019; 0.687095; -0.709838;,
    0.000000; 0.000000; -1.000000;,
    -0.000206; 0.705427; -0.708783;,
    0.000000; 0.000000; 1.000000;,
    0.000000; 0.000000; -1.000000;,
    -0.002354; -0.999997; 0.000000;,
    -0.999999; 0.001190; 0.000000;,
    -0.002354; -0.999997; 0.000000;,
    -0.002354; 0.000003; -0.999997;,
    0.000000; 0.707107; -0.707107;,
    0.000000; 1.000000; 0.000000;,
    0.000000; 0.000000; 1.000000;,
    -0.707107; 0.000000; 0.707107;,
    0.000000; 0.000000; -1.000000;,
    0.000000; 0.000000; -1.000000;,
    0.000000; 0.000000; -1.000000;,
    0.000000; 0.000000; -1.000000;,
    0.310950; 0.632616; 0.709301;,
    0.447138; 0.544520; 0.709624;,
    0.310950; 0.632616; -0.709301;,
    0.447138; 0.544520; -0.709624;,
    0.154583; 0.687195; 0.709836;,
    0.154583; 0.687195; -0.709836;,
    -0.000206; 0.705427; 0.708783;,
    -0.000206; 0.705427; -0.708783;,
    0.573944; 0.406320; 0.710980;,
    0.678259; 0.161702; 0.716810;,
    0.573944; 0.406320; -0.710980;,
    0.678259; 0.161702; -0.716810;,
    0.707107; 0.000000; 0.707107;,
    0.301511; -0.301511; 0.904534;,
    0.707107; 0.000000; -0.707107;,
    0.301511; -0.301511; -0.904534;,
    0.573944; 0.406320; 0.710980;,
    0.000000; 0.000000; 1.000000;,
    0.678259; 0.161702; 0.716810;,
    0.000000; 0.000000; 1.000000;,
    0.310950; 0.632616; 0.709301;,
    0.000000; 0.000000; 1.000000;,
    0.447138; 0.544520; 0.709624;,
    0.000000; 0.000000; 1.000000;,
    0.154583; 0.687195; 0.709836;,
    0.000000; 0.000000; 1.000000;,
    0.678259; 0.161702; -0.716810;,
    0.000000; 0.000000; -1.000000;,
    0.573944; 0.406320; -0.710980;,
    0.000000; 0.000000; -1.000000;,
    0.707107; 0.000000; -0.707107;,
    0.000000; 0.000000; -1.000000;,
    0.447138; 0.544520; -0.709624;,
    0.000000; 0.000000; -1.000000;,
    0.310950; 0.632616; -0.709301;,
    0.000000; 0.000000; -1.000000;,
    0.154583; 0.687195; -0.709836;,
    0.000000; 0.000000; -1.000000;,
    0.000000; 0.000000; 1.000000;,
    0.000000; 0.000000; -1.000000;,
    0.000000; 0.707107; -0.707107;,
    0.000000; 0.707107; -0.707107;,
    0.000000; 1.000000; 0.000000;,
    0.000000; 1.000000; 0.000000;,
    -1.000000; 0.000000; 0.000000;,
    -1.000000; 0.000000; 0.000000;,
    -1.000000; 0.000000; 0.000000;,
    -1.000000; 0.000000; 0.000000;,
    -1.000000; 0.000000; 0.000000;,
    -1.000000; 0.000131; 0.000000;,
    -1.000000; 0.000175; 0.000000;,
    -1.000000; 0.000000; 0.000000;,
    -1.000000; 0.000000; 0.000000;,
    -1.000000; 0.000000; 0.000000;,
    -1.000000; 0.000000; 0.000000;,
    -1.000000; 0.000000; 0.000000;,
    0.707107; 0.000000; 0.707107;,
    0.000000; 0.000000; 1.000000;,
    0.000000; 0.000000; -1.000000;,
    0.000000; 0.000000; -1.000000;,
    0.000000; 0.000000; -1.000000;,
    0.000000; 0.000000; -1.000000;,
    -1.000000; 0.000000; 0.000000;,
    -1.000000; 0.000000; 0.000000;,
    -1.000000; 0.000262; 0.000000;,
    -1.000000; 0.000262; 0.000000;,
    -1.000000; 0.000000; 0.000000;,
    0.000000; 0.000000; 1.000000;,
    0.000000; 0.000000; 1.000000;,
    0.000000; 0.000000; 1.000000;,
    0.000000; 0.000000; 1.000000;,
    0.000000; 0.000000; 1.000000;,
    0.000000; 0.000000; -1.000000;,
    0.000000; 0.000000; -1.000000;,
    0.000000; 0.000000; -1.000000;,
    0.000000; 0.000000; -1.000000;,
    0.000000; 0.000000; -1.000000;,
    0.000000; 0.000000; 1.000000;,
    0.000000; 0.000000; 1.000000;,
    0.561678; -0.827356; 0.000000;,
    0.561678; -0.827356; 0.000000;,
    0.561678; -0.827356; 0.000000;,
    0.561678; -0.827356; 0.000000;,
    0.561678; -0.827356; 0.000000;,
    0.561678; -0.827356; 0.000000;,
    0.561678; -0.827356; 0.000000;,
    0.561678; -0.827356; 0.000000;,
    0.561678; -0.827356; 0.000000;,
    0.561678; -0.827356; 0.000000;,
    0.000000; 0.000000; -1.000000;,
    0.000000; 0.000000; -1.000000;,
    0.000000; 0.000000; 1.000000;,
    -0.408248; -0.408248; 0.816497;,
    0.000000; 0.000000; 1.000000;,
    0.000000; 0.000000; -1.000000;,
    -0.408248; -0.408248; -0.816497;,
    0.000000; 0.000000; -1.000000;,
    0.000000; 0.000000; 1.000000;,
    0.000000; 0.000000; 1.000000;,
    0.000000; 0.000000; 1.000000;,
    0.000000; 0.000000; 1.000000;,
    0.000000; 0.000000; 1.000000;,
    0.000000; 0.000000; -1.000000;,
    0.000000; 0.000000; -1.000000;,
    0.000000; 0.000000; -1.000000;,
    0.000000; 0.000000; -1.000000;,
    0.000000; 0.000000; -1.000000;,
    0.000000; 0.000000; 1.000000;,
    0.000000; 0.000000; 1.000000;,
    -0.561507; -0.827472; 0.000000;,
    -0.561507; -0.827472; 0.000000;,
    -0.561507; -0.827472; 0.000000;,
    -0.561507; -0.827472; 0.000000;,
    -0.561507; -0.827472; 0.000000;,
    -0.561507; -0.827472; 0.000000;,
    -0.561507; -0.827472; 0.000000;,
    -0.561507; -0.827472; 0.000000;,
    -0.561507; -0.827472; 0.000000;,
    -0.561507; -0.827472; 0.000000;,
    -0.561507; -0.827472; 0.000000;,
    -0.561507; -0.827472; 0.000000;,
    0.000000; 0.000000; -1.000000;,
    0.000000; 0.000000; -1.000000;,
    0.000000; -1.000000; 0.000000;,
    0.000000; -0.707107; 0.707107;,
    0.000000; -1.000000; 0.000000;,
    0.000000; -0.707107; 0.707107;,
    0.000000; -1.000000; 0.000000;,
    -0.408248; -0.408248; 0.816497;,
    0.000000; -0.707107; -0.707107;,
    0.000000; -0.707107; -0.707107;,
    -0.408248; -0.408248; -0.816497;,
    0.000000; -0.707107; 0.707107;,
    0.000000; -1.000000; 0.000000;,
    0.301511; -0.301511; 0.904534;,
    0.000000; -1.000000; 0.000000;,
    0.000000; -0.707107; -0.707107;,
    0.301511; -0.301511; -0.904534;,
    0.301511; -0.301511; 0.904534;,
    0.000000; -0.707107; 0.707107;,
    0.000000; 0.000000; 1.000000;,
    0.000000; -0.707107; 0.707107;,
    0.000000; 0.000000; 1.000000;,
    0.000000; -0.707107; -0.707107;,
    0.000000; 0.000000; -1.000000;,
    0.000000; -0.707107; -0.707107;,
    0.000000; 0.000000; -1.000000;,
    0.301511; -0.301511; -0.904534;,
    0.000000; 0.000000; -1.000000;,
    0.000000; 0.000000; -1.000000;,
    0.000000; 0.000000; 1.000000;,
    0.000000; -0.707107; 0.707107;,
    0.000000; 0.000000; 1.000000;,
    0.000000; 0.000000; -1.000000;,
    0.000000; -0.707107; -0.707107;,
    0.000000; 0.000000; -1.000000;,
    0.000000; 0.000000; -1.000000;,
    0.301511; -0.301511; -0.904534;,
    0.301511; -0.301511; -0.904534;,
    0.000000; 0.000000; 0.000000;,
    0.707107; 0.000000; -0.707107;,
    0.438797; -0.898586; 0.000000;,
    0.598898; -0.800826; 0.000000;,
    0.438797; -0.898586; 0.000000;,
    0.598898; -0.800826; 0.000000;,
    0.438797; -0.898586; 0.000000;,
    0.598898; -0.800826; 0.000000;,
    0.438797; -0.898586; 0.000000;,
    0.598898; -0.800826; 0.000000;,
    0.438797; -0.898586; 0.000000;,
    0.598898; -0.800826; 0.000000;,
    0.235256; -0.971933; 0.000000;,
    0.235256; -0.971933; 0.000000;,
    0.235256; -0.971933; 0.000000;,
    0.235256; -0.971934; 0.000000;,
    0.235256; -0.971934; 0.000000;,
    0.129519; -0.991577; 0.000000;,
    0.129519; -0.991577; 0.000000;,
    0.129519; -0.991577; 0.000000;,
    0.129519; -0.991577; 0.000000;,
    0.129519; -0.991577; 0.000000;,
    0.749820; -0.661642; 0.000000;,
    0.827573; -0.561359; 0.000000;,
    0.749820; -0.661642; 0.000000;,
    0.827573; -0.561359; 0.000000;,
    0.749820; -0.661642; 0.000000;,
    0.827573; -0.561359; 0.000000;,
    0.749820; -0.661642; 0.000000;,
    0.827573; -0.561359; 0.000000;,
    0.749820; -0.661642; 0.000000;,
    0.827573; -0.561359; 0.000000;,
    -0.002354; -0.999997; 0.000000;,
    -0.002354; -0.999997; 0.000000;,
    -0.002354; -0.999997; 0.000000;,
    -0.002354; -0.999997; 0.000000;,
    -0.002354; -0.999997; 0.000000;,
    -0.002354; -0.999997; 0.000000;,
    -0.002354; -0.999997; 0.000000;,
    -0.002354; -0.999997; 0.000000;,
    -0.002354; -0.999997; 0.000000;,
    -0.002354; -0.999997; 0.000000;,
    0.999999; 0.000000; 0.001053;,
    0.999919; -0.009907; -0.007990;,
    1.000000; 0.000000; 0.000000;,
    1.000000; 0.000000; 0.000000;,
    1.000000; 0.000000; 0.000000;,
    0.999926; -0.001040; 0.012099;,
    0.999977; -0.000520; 0.006753;,
    1.000000; 0.000000; 0.000000;,
    1.000000; 0.000000; 0.000000;,
    1.000000; 0.000000; 0.000000;,
    0.999999; 0.000000; 0.001408;,
    1.000000; 0.000000; 0.000000;,
    -0.599313; -0.800488; -0.006571;,
    -0.438665; -0.898626; -0.006589;,
    -0.608628; -0.793455; -0.000520;,
    -0.434539; -0.900653; -0.000524;,
    -0.608625; -0.793454; 0.002763;,
    -0.434540; -0.900648; 0.002783;,
    -0.599323; -0.800507; 0.000000;,
    -0.438679; -0.898644; 0.000000;,
    -0.599323; -0.800507; 0.000000;,
    -0.438679; -0.898644; 0.000000;,
    -0.234906; -0.972018; 0.000000;,
    -0.219029; -0.975718; 0.000000;,
    -0.308199; -0.951322; 0.000000;,
    -0.234906; -0.972018; 0.000000;,
    -0.234906; -0.972018; 0.000000;,
    -0.128036; -0.991770; 0.000000;,
    -0.128036; -0.991770; 0.000000;,
    -0.128036; -0.991770; 0.000000;,
    -0.128036; -0.991770; 0.000000;,
    -0.128036; -0.991770; 0.000000;,
    -0.128036; -0.991770; 0.000000;,
    -0.825000; -0.565133; 0.000000;,
    -0.749003; -0.662567; 0.000000;,
    -0.825000; -0.565133; 0.000000;,
    -0.749003; -0.662567; 0.000000;,
    -0.825000; -0.565133; 0.000000;,
    -0.749003; -0.662567; 0.000000;,
    -0.825000; -0.565133; 0.000000;,
    -0.749003; -0.662567; 0.000000;,
    -0.825000; -0.565133; 0.000000;,
    -0.749003; -0.662567; 0.000000;,
    0.001932; -0.999998; 0.000000;,
    0.001932; -0.999998; 0.000000;,
    0.001932; -0.999998; 0.000000;,
    0.001932; -0.999998; 0.000000;,
    0.001932; -0.999998; 0.000000;,
    0.001932; -0.999998; 0.000000;,
    0.001932; -0.999998; 0.000000;,
    0.001932; -0.999998; 0.000000;,
    0.001932; -0.999998; 0.000000;,
    0.001932; -0.999998; 0.000000;,
    -0.405283; 0.914191; -0.000365;,
    -0.405283; 0.914191; 0.000000;,
    -0.560116; 0.828414; -0.000331;,
    -0.560116; 0.828414; 0.000000;,
    -0.410378; 0.911915; -0.000003;,
    -0.569335; 0.822106; -0.000005;,
    -0.410378; 0.911915; 0.000363;,
    -0.569335; 0.822106; 0.000326;,
    -0.405283; 0.914191; 0.000000;,
    -0.560116; 0.828414; 0.000000;,
    -0.997782; 0.066572; 0.000000;,
    -0.765690; 0.643210; 0.000000;,
    -0.997782; 0.066572; 0.000000;,
    -0.765690; 0.643210; -0.000240;,
    -0.765690; 0.643210; 0.000000;,
    -0.997782; 0.066572; 0.000000;,
    -0.765434; 0.643514; 0.000240;,
    -0.997728; 0.067364; 0.000000;,
    -0.997728; 0.067364; 0.000000;,
    -0.765435; 0.643514; 0.000000;,
    0.999998; 0.000000; 0.002106;,
    0.999818; -0.014861; -0.011985;,
    0.999218; -0.029715; -0.026071;,
    0.999218; -0.029715; -0.026071;,
    0.999705; -0.002081; 0.024196;,
    0.999908; -0.001040; 0.013507;,
    0.999996; 0.000000; 0.002815;,
    0.431690; 0.902022; 0.000000;,
    0.413861; 0.910340; -0.000432;,
    0.607316; 0.794460; 0.000000;,
    0.575713; 0.817651; -0.000460;,
    0.396006; 0.918247; -0.000860;,
    0.543226; 0.839586; -0.000920;,
    0.424337; 0.905504; 0.000863;,
    0.428015; 0.903772; 0.000432;,
    0.597321; 0.802001; 0.000915;,
    0.602331; 0.798247; 0.000458;,
    0.431690; 0.902022; 0.000000;,
    0.607316; 0.794460; 0.000000;,
    0.998576; 0.053352; 0.000000;,
    0.998576; 0.053352; 0.000000;,
    0.998542; 0.053988; 0.000000;,
    0.998542; 0.053988; 0.000000;,
    0.998576; 0.053352; 0.000000;,
    0.769933; 0.638125; 0.000000;,
    0.998576; 0.053352; 0.000000;,
    0.769334; 0.638846; 0.000242;,
    0.998507; 0.054624; 0.000000;,
    0.998507; 0.054624; 0.000000;,
    0.998576; 0.053352; 0.000000;,
    0.768735; 0.639568; 0.000484;,
    0.237753; 0.971326; 0.000000;,
    0.237753; 0.971326; -0.000388;,
    0.237753; 0.971325; -0.000776;,
    -0.998440; 0.055814; 0.001238;,
    -0.686039; 0.727559; 0.002871;,
    -0.991136; 0.131363; 0.019811;,
    -0.658897; 0.752118; 0.013170;,
    -0.998441; 0.055816; -0.000074;,
    -0.681591; 0.731721; 0.004277;,
    -0.998429; 0.055823; -0.004770;,
    -0.671206; 0.741230; -0.007761;,
    -0.999442; -0.020072; -0.026705;,
    -0.693753; 0.719421; -0.033761;,
    0.671042; 0.741415; 0.002712;,
    0.998328; 0.057797; 0.000000;,
    0.695857; 0.718103; 0.010543;,
    0.999798; -0.020079; 0.000000;,
    0.676460; 0.736467; -0.004299;,
    0.997560; 0.069813; 0.000000;,
    0.705692; 0.708515; -0.002064;,
    0.999992; 0.004001; 0.000000;,
    0.705691; 0.708520; 0.000000;,
    0.999992; 0.004001; 0.000000;,
    0.002119; 0.999969; 0.007563;,
    0.016489; 0.999864; 0.000000;,
    0.000000; 0.999986; 0.005247;,
    0.000000; 1.000000; 0.000000;,
    -0.000009; 1.000000; -0.000000;,
    0.012242; 0.999920; 0.003123;,
    -0.002128; 0.999969; -0.007563;,
    0.018051; 0.999813; -0.006928;,
    -0.016489; 0.999864; 0.000000;,
    0.011614; 0.999886; -0.009609;,
    -0.009335; 0.999931; 0.007190;,
    -0.017331; 0.999834; 0.005715;,
    -0.012660; 0.999915; -0.003123;,
    0.000000; 0.999986; -0.005243;,
    0.000000; 1.000000; 0.000000;;
    421;
    3;0, 1, 2;,
    3;1, 3, 2;,
    3;4, 5, 6;,
    3;5, 7, 6;,
    3;6, 7, 8;,
    3;7, 9, 8;,
    3;8, 10, 6;,
    3;10, 11, 6;,
    3;6, 11, 4;,
    3;11, 12, 4;,
    3;13, 14, 15;,
    3;14, 16, 15;,
    3;17, 18, 19;,
    3;18, 20, 19;,
    3;19, 20, 21;,
    3;20, 22, 21;,
    3;23, 22, 24;,
    3;22, 20, 24;,
    3;24, 20, 25;,
    3;20, 18, 25;,
    3;26, 27, 28;,
    3;27, 29, 28;,
    3;27, 30, 29;,
    3;30, 31, 29;,
    3;30, 32, 31;,
    3;32, 33, 31;,
    3;34, 35, 36;,
    3;35, 37, 36;,
    3;28, 37, 26;,
    3;37, 35, 26;,
    3;38, 39, 40;,
    3;39, 41, 40;,
    3;41, 39, 36;,
    3;39, 34, 36;,
    3;42, 43, 44;,
    3;43, 45, 44;,
    3;46, 47, 48;,
    3;47, 49, 48;,
    3;48, 49, 42;,
    3;49, 43, 42;,
    3;50, 51, 46;,
    3;51, 47, 46;,
    3;52, 53, 50;,
    3;53, 51, 50;,
    3;54, 55, 56;,
    3;55, 57, 56;,
    3;58, 59, 54;,
    3;59, 55, 54;,
    3;60, 61, 62;,
    3;61, 63, 62;,
    3;56, 57, 60;,
    3;57, 61, 60;,
    3;62, 63, 64;,
    3;63, 65, 64;,
    3;64, 65, 66;,
    3;65, 67, 66;,
    3;42, 44, 68;,
    3;54, 56, 69;,
    3;70, 71, 72;,
    3;71, 73, 72;,
    3;74, 73, 75;,
    3;73, 71, 75;,
    3;44, 45, 76;,
    3;45, 77, 76;,
    3;78, 79, 80;,
    3;79, 81, 80;,
    3;80, 81, 74;,
    3;81, 73, 74;,
    3;82, 83, 84;,
    3;83, 85, 84;,
    3;86, 82, 87;,
    3;82, 84, 87;,
    3;88, 86, 89;,
    3;86, 87, 89;,
    3;90, 91, 92;,
    3;91, 93, 92;,
    3;92, 85, 90;,
    3;85, 83, 90;,
    3;94, 95, 96;,
    3;95, 97, 96;,
    3;94, 96, 91;,
    3;96, 93, 91;,
    3;98, 99, 100;,
    3;99, 101, 100;,
    3;102, 103, 104;,
    3;103, 105, 104;,
    3;104, 105, 98;,
    3;105, 99, 98;,
    3;106, 107, 102;,
    3;107, 103, 102;,
    3;53, 52, 106;,
    3;52, 107, 106;,
    3;108, 109, 110;,
    3;109, 111, 110;,
    3;112, 113, 108;,
    3;113, 109, 108;,
    3;114, 115, 116;,
    3;115, 117, 116;,
    3;110, 111, 114;,
    3;111, 115, 114;,
    3;116, 117, 118;,
    3;117, 119, 118;,
    3;118, 119, 67;,
    3;119, 66, 67;,
    3;120, 101, 99;,
    3;121, 111, 109;,
    3;122, 123, 124;,
    3;123, 125, 124;,
    3;126, 127, 128;,
    3;127, 129, 128;,
    3;129, 130, 128;,
    3;131, 132, 133;,
    3;132, 134, 133;,
    3;134, 135, 133;,
    3;136, 131, 137;,
    3;131, 133, 137;,
    3;100, 101, 138;,
    3;101, 139, 138;,
    3;140, 141, 142;,
    3;141, 143, 142;,
    3;142, 143, 122;,
    3;143, 123, 122;,
    3;144, 127, 145;,
    3;127, 126, 145;,
    3;145, 126, 146;,
    3;126, 132, 146;,
    3;146, 132, 147;,
    3;132, 131, 147;,
    3;147, 131, 148;,
    3;131, 136, 148;,
    3;149, 150, 151;,
    3;150, 152, 151;,
    3;151, 152, 153;,
    3;154, 155, 156;,
    3;155, 157, 156;,
    3;156, 157, 158;,
    3;159, 149, 160;,
    3;149, 151, 160;,
    3;161, 162, 163;,
    3;162, 164, 163;,
    3;165, 166, 161;,
    3;166, 162, 161;,
    3;167, 168, 165;,
    3;168, 166, 165;,
    3;169, 170, 167;,
    3;170, 168, 167;,
    3;171, 156, 172;,
    3;156, 158, 172;,
    3;76, 77, 173;,
    3;77, 174, 173;,
    3;173, 174, 175;,
    3;176, 177, 178;,
    3;177, 59, 178;,
    3;178, 59, 58;,
    3;179, 180, 181;,
    3;180, 182, 181;,
    3;181, 182, 183;,
    3;184, 185, 186;,
    3;185, 187, 186;,
    3;186, 187, 188;,
    3;180, 189, 182;,
    3;189, 190, 182;,
    3;191, 192, 193;,
    3;192, 194, 193;,
    3;195, 196, 191;,
    3;196, 192, 191;,
    3;197, 198, 195;,
    3;198, 196, 195;,
    3;199, 200, 201;,
    3;200, 202, 201;,
    3;187, 203, 188;,
    3;203, 204, 188;,
    3;205, 206, 207;,
    3;206, 208, 207;,
    3;207, 208, 209;,
    3;208, 210, 209;,
    3;211, 205, 212;,
    3;205, 207, 212;,
    3;212, 207, 213;,
    3;207, 209, 213;,
    3;206, 205, 214;,
    3;205, 215, 214;,
    3;214, 215, 216;,
    3;215, 217, 216;,
    3;205, 211, 215;,
    3;211, 218, 215;,
    3;215, 218, 217;,
    3;218, 219, 217;,
    3;220, 152, 221;,
    3;152, 150, 221;,
    3;221, 150, 222;,
    3;221, 222, 223;,
    3;222, 224, 223;,
    3;225, 226, 227;,
    3;226, 228, 227;,
    3;227, 228, 229;,
    3;228, 230, 229;,
    3;229, 230, 231;,
    3;175, 174, 232;,
    3;174, 233, 232;,
    3;232, 233, 234;,
    3;234, 233, 224;,
    3;233, 223, 224;,
    3;226, 225, 235;,
    3;225, 236, 235;,
    3;235, 236, 237;,
    3;236, 177, 237;,
    3;237, 177, 176;,
    3;231, 238, 229;,
    3;239, 238, 112;,
    3;238, 113, 112;,
    3;240, 241, 242;,
    3;138, 139, 220;,
    3;139, 153, 220;,
    3;153, 152, 220;,
    3;243, 244, 245;,
    3;244, 246, 245;,
    3;245, 246, 247;,
    3;246, 248, 247;,
    3;247, 248, 249;,
    3;248, 250, 249;,
    3;249, 250, 251;,
    3;250, 252, 251;,
    3;253, 243, 254;,
    3;243, 245, 254;,
    3;254, 245, 255;,
    3;245, 247, 255;,
    3;255, 247, 256;,
    3;247, 249, 256;,
    3;256, 249, 257;,
    3;249, 251, 257;,
    3;258, 253, 259;,
    3;253, 254, 259;,
    3;259, 254, 260;,
    3;254, 255, 260;,
    3;260, 255, 261;,
    3;255, 256, 261;,
    3;261, 256, 262;,
    3;256, 257, 262;,
    3;263, 264, 265;,
    3;264, 266, 265;,
    3;265, 266, 267;,
    3;266, 268, 267;,
    3;267, 268, 269;,
    3;268, 270, 269;,
    3;269, 270, 271;,
    3;270, 272, 271;,
    3;269, 271, 250;,
    3;271, 252, 250;,
    3;269, 250, 267;,
    3;250, 248, 267;,
    3;267, 248, 265;,
    3;248, 246, 265;,
    3;265, 246, 263;,
    3;246, 244, 263;,
    3;273, 274, 275;,
    3;274, 276, 275;,
    3;277, 278, 279;,
    3;278, 280, 279;,
    3;281, 282, 277;,
    3;282, 278, 277;,
    3;283, 284, 285;,
    3;284, 286, 285;,
    3;286, 287, 285;,
    3;288, 289, 290;,
    3;289, 291, 290;,
    3;291, 292, 290;,
    3;289, 293, 291;,
    3;293, 294, 291;,
    3;295, 296, 297;,
    3;296, 298, 297;,
    3;297, 298, 299;,
    3;298, 300, 299;,
    3;299, 300, 301;,
    3;300, 302, 301;,
    3;301, 302, 303;,
    3;302, 304, 303;,
    3;296, 305, 298;,
    3;305, 306, 298;,
    3;298, 306, 300;,
    3;306, 307, 300;,
    3;300, 307, 302;,
    3;307, 308, 302;,
    3;302, 308, 304;,
    3;308, 309, 304;,
    3;305, 310, 306;,
    3;310, 311, 306;,
    3;306, 311, 312;,
    3;311, 313, 312;,
    3;312, 313, 308;,
    3;313, 314, 308;,
    3;308, 314, 309;,
    3;314, 315, 309;,
    3;316, 317, 318;,
    3;317, 319, 318;,
    3;318, 319, 320;,
    3;319, 321, 320;,
    3;320, 321, 322;,
    3;321, 323, 322;,
    3;322, 323, 324;,
    3;323, 325, 324;,
    3;325, 323, 303;,
    3;323, 301, 303;,
    3;301, 323, 299;,
    3;323, 321, 299;,
    3;299, 321, 297;,
    3;321, 319, 297;,
    3;297, 319, 295;,
    3;319, 317, 295;,
    3;326, 327, 328;,
    3;327, 329, 328;,
    3;330, 331, 332;,
    3;331, 333, 332;,
    3;328, 329, 334;,
    3;329, 335, 334;,
    3;334, 335, 330;,
    3;335, 331, 330;,
    3;336, 337, 338;,
    3;337, 339, 338;,
    3;340, 336, 341;,
    3;336, 338, 341;,
    3;342, 340, 343;,
    3;340, 341, 343;,
    3;344, 342, 345;,
    3;342, 343, 345;,
    3;346, 347, 348;,
    3;347, 349, 348;,
    3;350, 351, 352;,
    3;351, 353, 352;,
    3;354, 348, 355;,
    3;348, 349, 355;,
    3;353, 354, 352;,
    3;354, 355, 352;,
    3;347, 337, 349;,
    3;337, 336, 349;,
    3;352, 342, 350;,
    3;342, 344, 350;,
    3;355, 340, 352;,
    3;340, 342, 352;,
    3;349, 336, 355;,
    3;336, 340, 355;,
    3;356, 357, 283;,
    3;357, 284, 283;,
    3;357, 358, 284;,
    3;358, 359, 284;,
    3;360, 361, 288;,
    3;361, 289, 288;,
    3;361, 362, 289;,
    3;362, 293, 289;,
    3;363, 364, 365;,
    3;364, 366, 365;,
    3;364, 367, 366;,
    3;367, 368, 366;,
    3;369, 370, 371;,
    3;370, 372, 371;,
    3;370, 373, 372;,
    3;373, 374, 372;,
    3;375, 376, 377;,
    3;376, 378, 377;,
    3;379, 380, 381;,
    3;380, 382, 381;,
    3;378, 383, 377;,
    3;383, 384, 377;,
    3;385, 381, 386;,
    3;381, 382, 386;,
    3;363, 387, 364;,
    3;387, 388, 364;,
    3;370, 382, 373;,
    3;382, 380, 373;,
    3;369, 386, 370;,
    3;386, 382, 370;,
    3;364, 388, 367;,
    3;388, 389, 367;,
    3;390, 391, 392;,
    3;391, 393, 392;,
    3;394, 395, 390;,
    3;395, 391, 390;,
    3;396, 397, 394;,
    3;397, 395, 394;,
    3;398, 399, 396;,
    3;399, 397, 396;,
    3;400, 401, 402;,
    3;401, 403, 402;,
    3;404, 405, 400;,
    3;405, 401, 400;,
    3;406, 407, 404;,
    3;407, 405, 404;,
    3;408, 409, 406;,
    3;409, 407, 406;,
    3;410, 411, 412;,
    3;411, 413, 412;,
    3;412, 413, 391;,
    3;413, 393, 391;,
    3;414, 410, 415;,
    3;410, 412, 415;,
    3;415, 412, 395;,
    3;412, 391, 395;,
    3;416, 414, 417;,
    3;414, 415, 417;,
    3;417, 415, 397;,
    3;415, 395, 397;,
    3;418, 416, 419;,
    3;416, 417, 419;,
    3;419, 417, 399;,
    3;417, 397, 399;,
    3;411, 410, 420;,
    3;410, 421, 420;,
    3;420, 421, 402;,
    3;421, 400, 402;,
    3;410, 414, 421;,
    3;414, 422, 421;,
    3;421, 422, 400;,
    3;422, 404, 400;,
    3;414, 416, 422;,
    3;416, 423, 422;,
    3;422, 423, 404;,
    3;423, 406, 404;,
    3;416, 418, 423;,
    3;418, 424, 423;,
    3;423, 424, 406;,
    3;424, 408, 406;;
   }

   MeshTextureCoords {
    425;
    0.024487; 0.101795;,
    0.028067; 0.101795;,
    0.020469; 0.486727;,
    0.024049; 0.486727;,
    0.028616; 0.101084;,
    0.024864; 0.486511;,
    0.058865; 0.101378;,
    0.055113; 0.486805;,
    0.088619; 0.101668;,
    0.084867; 0.487095;,
    0.084867; 0.087095;,
    0.058086; 0.093989;,
    0.028196; 0.097713;,
    0.027757; 0.459299;,
    0.034042; 0.459299;,
    0.025572; 0.177867;,
    0.031857; 0.177867;,
    0.031418; 0.177529;,
    0.034806; 0.459665;,
    0.053560; 0.177263;,
    0.056948; 0.459400;,
    0.109664; 0.177002;,
    0.113052; 0.459138;,
    0.109664; 0.473002;,
    0.055739; 0.468210;,
    0.034047; 0.465403;,
    0.965726; 0.356470;,
    0.965498; 0.312115;,
    0.381185; 0.359474;,
    0.380957; 0.315118;,
    0.965304; 0.274446;,
    0.380763; 0.277449;,
    0.965110; 0.236555;,
    0.380569; 0.239558;,
    0.966056; 0.420687;,
    0.965879; 0.386414;,
    0.381515; 0.423690;,
    0.381339; 0.389417;,
    0.967249; 0.653064;,
    0.966187; 0.446264;,
    0.382709; 0.656067;,
    0.381646; 0.449267;,
    -1.319770; -1.343720;,
    -1.366580; -1.383160;,
    -1.353700; -1.320680;,
    -1.397810; -1.321200;,
    -1.216090; -1.418210;,
    -1.249060; -1.475140;,
    -1.283280; -1.375820;,
    -1.324620; -1.426910;,
    -1.153240; -1.440840;,
    -1.177230; -1.501000;,
    -1.101020; -1.447660;,
    -1.101020; -1.508480;,
    -0.844082; -1.312540;,
    -0.799977; -1.313070;,
    -0.878014; -1.335590;,
    -0.831203; -1.375020;,
    -0.844082; -1.261310;,
    -0.799977; -1.261310;,
    -0.914506; -1.367690;,
    -0.873168; -1.418770;,
    -0.981692; -1.410080;,
    -0.948722; -1.467000;,
    -1.044540; -1.432710;,
    -1.020550; -1.492870;,
    -1.096760; -1.439520;,
    -1.096760; -1.500340;,
    -1.335500; -1.320630;,
    -0.862281; -1.312500;,
    -1.477670; -0.625950;,
    -1.477670; -0.631080;,
    -1.356880; -0.625950;,
    -1.356880; -0.631080;,
    -1.356880; -0.627390;,
    -1.477670; -0.627390;,
    -1.353700; -1.269440;,
    -1.397810; -1.269440;,
    -1.356880; -0.657130;,
    -1.356880; -0.657740;,
    -1.356880; -0.642040;,
    -1.356880; -0.643340;,
    0.970826; 0.295532;,
    0.970598; 0.339822;,
    0.386285; 0.292529;,
    0.386057; 0.336819;,
    0.971020; 0.257791;,
    0.386479; 0.254788;,
    0.971216; 0.219673;,
    0.386675; 0.216670;,
    0.970444; 0.369765;,
    0.970268; 0.404072;,
    0.385903; 0.366762;,
    0.385727; 0.401069;,
    0.970137; 0.429649;,
    0.969074; 0.636447;,
    0.385596; 0.426646;,
    0.384533; 0.633445;,
    -0.834858; -1.383160;,
    -0.881669; -1.343720;,
    -0.803633; -1.321200;,
    -0.843605; -1.320680;,
    -0.952378; -1.475140;,
    -0.985348; -1.418210;,
    -0.876824; -1.426910;,
    -0.918160; -1.375820;,
    -1.024210; -1.501000;,
    -1.048200; -1.440840;,
    -1.394150; -1.313070;,
    -1.354180; -1.312540;,
    -1.362920; -1.375020;,
    -1.316110; -1.335590;,
    -1.394150; -1.261310;,
    -1.354180; -1.261310;,
    -1.320960; -1.418770;,
    -1.279620; -1.367690;,
    -1.245400; -1.467000;,
    -1.212440; -1.410080;,
    -1.173580; -1.492870;,
    -1.149590; -1.432710;,
    -0.865936; -1.320630;,
    -1.331850; -1.312500;,
    -1.356880; -1.291790;,
    -1.356880; -1.296560;,
    -1.477670; -1.291790;,
    -1.477670; -1.296560;,
    0.251767; 0.619958;,
    0.007461; 0.619958;,
    0.251767; 0.597401;,
    0.007461; 0.576645;,
    0.251767; 0.576645;,
    0.814710; 0.619958;,
    0.533239; 0.619958;,
    0.814710; 0.576645;,
    0.533239; 0.597401;,
    0.533239; 0.576645;,
    0.997461; 0.619958;,
    0.997461; 0.576645;,
    -0.803633; -1.269440;,
    -0.843605; -1.269440;,
    -1.356880; -1.265410;,
    -1.356880; -1.266820;,
    -1.356880; -1.279630;,
    -1.356880; -1.281920;,
    0.007461; 0.869656;,
    0.251767; 0.869656;,
    0.533239; 0.868766;,
    0.814710; 0.869656;,
    0.997461; 0.869656;,
    -0.893658; -0.933310;,
    -0.892858; -0.895080;,
    -0.887010; -0.944810;,
    -0.847737; -0.895080;,
    -0.843605; -0.974090;,
    0.028089; 0.030873;,
    0.031428; 0.094714;,
    0.063160; 0.054529;,
    0.067886; 0.094714;,
    0.068532; 0.063825;,
    -0.897056; -0.931020;,
    -0.896356; -0.942520;,
    -1.477670; -1.071180;,
    -1.477670; -1.073200;,
    -1.582520; -1.071180;,
    -1.582520; -1.073200;,
    -1.356880; -1.071180;,
    -1.356880; -1.073200;,
    -1.236090; -1.071180;,
    -1.236090; -1.073200;,
    -1.157660; -1.071180;,
    -1.157660; -1.073200;,
    0.070712; 0.056381;,
    0.071278; 0.065678;,
    -1.354310; -0.974090;,
    -1.397810; -0.850980;,
    -1.353700; -0.895080;,
    -0.844082; -0.886950;,
    -0.799977; -0.842840;,
    -0.844082; -0.966260;,
    0.798259; 0.080131;,
    0.798798; 0.054342;,
    0.767820; 0.080131;,
    0.794313; 0.046580;,
    0.767820; 0.026831;,
    0.668451; 0.089878;,
    0.668937; 0.026368;,
    0.705334; 0.089878;,
    0.699899; 0.050053;,
    0.705223; 0.059266;,
    0.801089; 0.055889;,
    0.800617; 0.048127;,
    -1.474480; -1.142730;,
    -1.473060; -1.142730;,
    -1.474480; -1.265370;,
    -1.473060; -1.265370;,
    -1.474480; -1.001430;,
    -1.473060; -1.001430;,
    -1.474480; -0.860120;,
    -1.473060; -0.860120;,
    -1.157660; -0.850530;,
    -1.157660; -0.852540;,
    -1.236090; -0.850530;,
    -1.236090; -0.852540;,
    0.707382; 0.051889;,
    0.707943; 0.061102;,
    -1.357140; -0.679310;,
    -1.514170; -0.679310;,
    -1.357140; -0.598160;,
    -1.514170; -0.598160;,
    -1.357140; -0.517910;,
    -1.514170; -0.517910;,
    -1.200100; -0.679310;,
    -1.200100; -0.598160;,
    -1.200100; -0.517910;,
    -1.514170; -0.760450;,
    -1.357140; -0.760450;,
    -1.514170; -0.840700;,
    -1.357140; -0.840700;,
    -1.200100; -0.760450;,
    -1.200100; -0.840700;,
    -0.803633; -0.850980;,
    -0.973418; -0.850980;,
    -0.973418; -0.895080;,
    -1.100720; -0.850980;,
    -1.100720; -0.895080;,
    -1.097060; -0.842840;,
    -1.097060; -0.886950;,
    -1.224360; -0.842840;,
    -1.224360; -0.886950;,
    -1.394150; -0.842840;,
    -1.304920; -0.886950;,
    -1.350040; -0.886950;,
    -1.309190; -0.895080;,
    -1.228020; -0.850980;,
    -1.228020; -0.895080;,
    -0.969764; -0.886950;,
    -0.969764; -0.842840;,
    -0.889534; -0.886950;,
    -1.354180; -0.965960;,
    -1.394150; -0.967690;,
    -1.236090; -1.078930;,
    -1.157660; -1.116240;,
    -1.157660; -1.258650;,
    0.076161; 0.419327;,
    0.076133; 0.462084;,
    0.241490; 0.419443;,
    0.241485; 0.462185;,
    0.431943; 0.419373;,
    0.431952; 0.459861;,
    0.622423; 0.412184;,
    0.622426; 0.455834;,
    0.746087; 0.412182;,
    0.746089; 0.455830;,
    0.076189; 0.382612;,
    0.241495; 0.382756;,
    0.431933; 0.382665;,
    0.622421; 0.375481;,
    0.746087; 0.375482;,
    0.076217; 0.353659;,
    0.241500; 0.353840;,
    0.431924; 0.353717;,
    0.622421; 0.346542;,
    0.746087; 0.346545;,
    0.076116; 0.488797;,
    0.076108; 0.504153;,
    0.241482; 0.488891;,
    0.241482; 0.504244;,
    0.431958; 0.486568;,
    0.431962; 0.501919;,
    0.622428; 0.482540;,
    0.622429; 0.497890;,
    0.746091; 0.482535;,
    0.746091; 0.497885;,
    -0.058899; -0.201620;,
    -0.058905; -0.191620;,
    0.106474; -0.201530;,
    0.106468; -0.191530;,
    0.487422; -0.201610;,
    0.487423; -0.191610;,
    0.611084; -0.201620;,
    0.611085; -0.191620;,
    0.296954; -0.201600;,
    0.296955; -0.191600;,
    0.002752; 0.594444;,
    0.282733; 0.594444;,
    0.002752; 0.525698;,
    0.282733; 0.558642;,
    0.282733; 0.525698;,
    0.989036; 0.594444;,
    0.666461; 0.594444;,
    0.989036; 0.558642;,
    0.666461; 0.525698;,
    0.989036; 0.525698;,
    0.457023; 0.594444;,
    0.457023; 0.525698;,
    0.373969; 0.451936;,
    0.374048; 0.408281;,
    0.539260; 0.452209;,
    0.539254; 0.407227;,
    0.729690; 0.451891;,
    0.729651; 0.408226;,
    0.920185; 0.451851;,
    0.920178; 0.408197;,
    1.043850; 0.451838;,
    1.043850; 0.408188;,
    0.374008; 0.371566;,
    0.539259; 0.371339;,
    0.729668; 0.371505;,
    0.920175; 0.371493;,
    1.043840; 0.371487;,
    0.373972; 0.342284;,
    0.539255; 0.342104;,
    0.729667; 0.371505;,
    0.729678; 0.342226;,
    0.920175; 0.342225;,
    1.043840; 0.342223;,
    0.373901; 0.494007;,
    0.373925; 0.478650;,
    0.539270; 0.494253;,
    0.539266; 0.478905;,
    0.729731; 0.493954;,
    0.729716; 0.478602;,
    0.920194; 0.493907;,
    0.920191; 0.478557;,
    1.043850; 0.493892;,
    1.043850; 0.478543;,
    0.076127; 0.678531;,
    0.076146; 0.666255;,
    0.241518; 0.678772;,
    0.241515; 0.666501;,
    0.622443; 0.678424;,
    0.622440; 0.666155;,
    0.746101; 0.678410;,
    0.746100; 0.666140;,
    0.431988; 0.678472;,
    0.431976; 0.666202;,
    0.637105; 0.075538;,
    0.836893; 0.075546;,
    0.637106; 0.030387;,
    0.836894; 0.030395;,
    0.406924; 0.075571;,
    0.406924; 0.029982;,
    0.176744; 0.075544;,
    0.176744; 0.030393;,
    0.027295; 0.075546;,
    0.027294; 0.030395;,
    0.836892; 0.093786;,
    0.836892; 0.083845;,
    0.637104; 0.093778;,
    0.637106; 0.083837;,
    0.027295; 0.083845;,
    0.027295; 0.093786;,
    0.176743; 0.083843;,
    0.176745; 0.093784;,
    0.406924; 0.093686;,
    0.406924; 0.083975;,
    0.002752; 0.990764;,
    0.282733; 0.990359;,
    0.605307; 0.989350;,
    0.605307; 0.594444;,
    0.989036; 0.989350;,
    0.666461; 0.990764;,
    0.457023; 0.990359;,
    0.767672; 0.071964;,
    0.455295; 0.075531;,
    0.766980; 0.026626;,
    0.454606; 0.030474;,
    0.095398; 0.079693;,
    0.094571; 0.027601;,
    0.080141; 0.077267;,
    0.437124; 0.072655;,
    0.079235; 0.026637;,
    0.436357; 0.028590;,
    0.668903; 0.069754;,
    0.668141; 0.025961;,
    0.703862; -0.098560;,
    0.703997; -0.081590;,
    0.444591; -0.092890;,
    0.444725; -0.075920;,
    0.669235; 0.088779;,
    0.669054; 0.078410;,
    0.437460; 0.091680;,
    0.437279; 0.081311;,
    0.146009; -0.069520;,
    0.145879; -0.086090;,
    0.080478; 0.096163;,
    0.080301; 0.086034;,
    0.767808; 0.080869;,
    0.455434; 0.084437;,
    0.095539; 0.088713;,
    0.011448; 0.246876;,
    0.044075; 0.246877;,
    0.007171; 0.000610;,
    0.039428; 0.000000;,
    0.007305; 0.531110;,
    0.039570; 0.531091;,
    0.011398; 0.815417;,
    0.044029; 0.815287;,
    0.007312; 0.999284;,
    0.039510; 1.000000;,
    0.450812; 0.246828;,
    0.495756; 0.247114;,
    0.450872; 0.000226;,
    0.495869; 0.000241;,
    0.446117; 0.531139;,
    0.491400; 0.531165;,
    0.449979; 0.815467;,
    0.494911; 0.815160;,
    0.450057; 0.999888;,
    0.495053; 0.999864;,
    0.235434; 0.246840;,
    0.235579; 0.000132;,
    0.127801; 0.246860;,
    0.127995; 0.000068;,
    0.235690; 0.531115;,
    0.128131; 0.531100;,
    0.235535; 0.815387;,
    0.127854; 0.815315;,
    0.235579; 0.999905;,
    0.128030; 0.999922;,
    0.394923; 0.000191;,
    0.394827; 0.246855;,
    0.395066; 0.531131;,
    0.394873; 0.815425;,
    0.394906; 0.999902;;
   }

   MeshVertexColors {
    425;
    0; 1.000000; 1.000000; 1.000000; 1.000000;,
    1; 1.000000; 1.000000; 1.000000; 1.000000;,
    2; 1.000000; 1.000000; 1.000000; 1.000000;,
    3; 1.000000; 1.000000; 1.000000; 1.000000;,
    4; 1.000000; 1.000000; 1.000000; 1.000000;,
    5; 1.000000; 1.000000; 1.000000; 1.000000;,
    6; 1.000000; 1.000000; 1.000000; 1.000000;,
    7; 1.000000; 1.000000; 1.000000; 1.000000;,
    8; 1.000000; 1.000000; 1.000000; 1.000000;,
    9; 1.000000; 1.000000; 1.000000; 1.000000;,
    10; 1.000000; 1.000000; 1.000000; 1.000000;,
    11; 1.000000; 1.000000; 1.000000; 1.000000;,
    12; 1.000000; 1.000000; 1.000000; 1.000000;,
    13; 1.000000; 1.000000; 1.000000; 1.000000;,
    14; 1.000000; 1.000000; 1.000000; 1.000000;,
    15; 1.000000; 1.000000; 1.000000; 1.000000;,
    16; 1.000000; 1.000000; 1.000000; 1.000000;,
    17; 1.000000; 1.000000; 1.000000; 1.000000;,
    18; 1.000000; 1.000000; 1.000000; 1.000000;,
    19; 1.000000; 1.000000; 1.000000; 1.000000;,
    20; 1.000000; 1.000000; 1.000000; 1.000000;,
    21; 1.000000; 1.000000; 1.000000; 1.000000;,
    22; 1.000000; 1.000000; 1.000000; 1.000000;,
    23; 1.000000; 1.000000; 1.000000; 1.000000;,
    24; 1.000000; 1.000000; 1.000000; 1.000000;,
    25; 1.000000; 1.000000; 1.000000; 1.000000;,
    26; 1.000000; 1.000000; 1.000000; 1.000000;,
    27; 1.000000; 1.000000; 1.000000; 1.000000;,
    28; 1.000000; 1.000000; 1.000000; 1.000000;,
    29; 1.000000; 1.000000; 1.000000; 1.000000;,
    30; 1.000000; 1.000000; 1.000000; 1.000000;,
    31; 1.000000; 1.000000; 1.000000; 1.000000;,
    32; 1.000000; 1.000000; 1.000000; 1.000000;,
    33; 1.000000; 1.000000; 1.000000; 1.000000;,
    34; 1.000000; 1.000000; 1.000000; 1.000000;,
    35; 1.000000; 1.000000; 1.000000; 1.000000;,
    36; 1.000000; 1.000000; 1.000000; 1.000000;,
    37; 1.000000; 1.000000; 1.000000; 1.000000;,
    38; 1.000000; 1.000000; 1.000000; 1.000000;,
    39; 1.000000; 1.000000; 1.000000; 1.000000;,
    40; 1.000000; 1.000000; 1.000000; 1.000000;,
    41; 1.000000; 1.000000; 1.000000; 1.000000;,
    42; 1.000000; 1.000000; 1.000000; 1.000000;,
    43; 1.000000; 1.000000; 1.000000; 1.000000;,
    44; 1.000000; 1.000000; 1.000000; 1.000000;,
    45; 1.000000; 1.000000; 1.000000; 1.000000;,
    46; 1.000000; 1.000000; 1.000000; 1.000000;,
    47; 1.000000; 1.000000; 1.000000; 1.000000;,
    48; 1.000000; 1.000000; 1.000000; 1.000000;,
    49; 1.000000; 1.000000; 1.000000; 1.000000;,
    50; 1.000000; 1.000000; 1.000000; 1.000000;,
    51; 1.000000; 1.000000; 1.000000; 1.000000;,
    52; 1.000000; 1.000000; 1.000000; 1.000000;,
    53; 1.000000; 1.000000; 1.000000; 1.000000;,
    54; 1.000000; 1.000000; 1.000000; 1.000000;,
    55; 1.000000; 1.000000; 1.000000; 1.000000;,
    56; 1.000000; 1.000000; 1.000000; 1.000000;,
    57; 1.000000; 1.000000; 1.000000; 1.000000;,
    58; 1.000000; 1.000000; 1.000000; 1.000000;,
    59; 1.000000; 1.000000; 1.000000; 1.000000;,
    60; 1.000000; 1.000000; 1.000000; 1.000000;,
    61; 1.000000; 1.000000; 1.000000; 1.000000;,
    62; 1.000000; 1.000000; 1.000000; 1.000000;,
    63; 1.000000; 1.000000; 1.000000; 1.000000;,
    64; 1.000000; 1.000000; 1.000000; 1.000000;,
    65; 1.000000; 1.000000; 1.000000; 1.000000;,
    66; 1.000000; 1.000000; 1.000000; 1.000000;,
    67; 1.000000; 1.000000; 1.000000; 1.000000;,
    68; 1.000000; 1.000000; 1.000000; 1.000000;,
    69; 1.000000; 1.000000; 1.000000; 1.000000;,
    70; 1.000000; 1.000000; 1.000000; 1.000000;,
    71; 1.000000; 1.000000; 1.000000; 1.000000;,
    72; 1.000000; 1.000000; 1.000000; 1.000000;,
    73; 1.000000; 1.000000; 1.000000; 1.000000;,
    74; 1.000000; 1.000000; 1.000000; 1.000000;,
    75; 1.000000; 1.000000; 1.000000; 1.000000;,
    76; 1.000000; 1.000000; 1.000000; 1.000000;,
    77; 1.000000; 1.000000; 1.000000; 1.000000;,
    78; 1.000000; 1.000000; 1.000000; 1.000000;,
    79; 1.000000; 1.000000; 1.000000; 1.000000;,
    80; 1.000000; 1.000000; 1.000000; 1.000000;,
    81; 1.000000; 1.000000; 1.000000; 1.000000;,
    82; 1.000000; 1.000000; 1.000000; 1.000000;,
    83; 1.000000; 1.000000; 1.000000; 1.000000;,
    84; 1.000000; 1.000000; 1.000000; 1.000000;,
    85; 1.000000; 1.000000; 1.000000; 1.000000;,
    86; 1.000000; 1.000000; 1.000000; 1.000000;,
    87; 1.000000; 1.000000; 1.000000; 1.000000;,
    88; 1.000000; 1.000000; 1.000000; 1.000000;,
    89; 1.000000; 1.000000; 1.000000; 1.000000;,
    90; 1.000000; 1.000000; 1.000000; 1.000000;,
    91; 1.000000; 1.000000; 1.000000; 1.000000;,
    92; 1.000000; 1.000000; 1.000000; 1.000000;,
    93; 1.000000; 1.000000; 1.000000; 1.000000;,
    94; 1.000000; 1.000000; 1.000000; 1.000000;,
    95; 1.000000; 1.000000; 1.000000; 1.000000;,
    96; 1.000000; 1.000000; 1.000000; 1.000000;,
    97; 1.000000; 1.000000; 1.000000; 1.000000;,
    98; 1.000000; 1.000000; 1.000000; 1.000000;,
    99; 1.000000; 1.000000; 1.000000; 1.000000;,
    100; 1.000000; 1.000000; 1.000000; 1.000000;,
    101; 1.000000; 1.000000; 1.000000; 1.000000;,
    102; 1.000000; 1.000000; 1.000000; 1.000000;,
    103; 1.000000; 1.000000; 1.000000; 1.000000;,
    104; 1.000000; 1.000000; 1.000000; 1.000000;,
    105; 1.000000; 1.000000; 1.000000; 1.000000;,
    106; 1.000000; 1.000000; 1.000000; 1.000000;,
    107; 1.000000; 1.000000; 1.000000; 1.000000;,
    108; 1.000000; 1.000000; 1.000000; 1.000000;,
    109; 1.000000; 1.000000; 1.000000; 1.000000;,
    110; 1.000000; 1.000000; 1.000000; 1.000000;,
    111; 1.000000; 1.000000; 1.000000; 1.000000;,
    112; 1.000000; 1.000000; 1.000000; 1.000000;,
    113; 1.000000; 1.000000; 1.000000; 1.000000;,
    114; 1.000000; 1.000000; 1.000000; 1.000000;,
    115; 1.000000; 1.000000; 1.000000; 1.000000;,
    116; 1.000000; 1.000000; 1.000000; 1.000000;,
    117; 1.000000; 1.000000; 1.000000; 1.000000;,
    118; 1.000000; 1.000000; 1.000000; 1.000000;,
    119; 1.000000; 1.000000; 1.000000; 1.000000;,
    120; 1.000000; 1.000000; 1.000000; 1.000000;,
    121; 1.000000; 1.000000; 1.000000; 1.000000;,
    122; 1.000000; 1.000000; 1.000000; 1.000000;,
    123; 1.000000; 1.000000; 1.000000; 1.000000;,
    124; 1.000000; 1.000000; 1.000000; 1.000000;,
    125; 1.000000; 1.000000; 1.000000; 1.000000;,
    126; 1.000000; 1.000000; 1.000000; 1.000000;,
    127; 1.000000; 1.000000; 1.000000; 1.000000;,
    128; 1.000000; 1.000000; 1.000000; 1.000000;,
    129; 1.000000; 1.000000; 1.000000; 1.000000;,
    130; 1.000000; 1.000000; 1.000000; 1.000000;,
    131; 1.000000; 1.000000; 1.000000; 1.000000;,
    132; 1.000000; 1.000000; 1.000000; 1.000000;,
    133; 1.000000; 1.000000; 1.000000; 1.000000;,
    134; 1.000000; 1.000000; 1.000000; 1.000000;,
    135; 1.000000; 1.000000; 1.000000; 1.000000;,
    136; 1.000000; 1.000000; 1.000000; 1.000000;,
    137; 1.000000; 1.000000; 1.000000; 1.000000;,
    138; 1.000000; 1.000000; 1.000000; 1.000000;,
    139; 1.000000; 1.000000; 1.000000; 1.000000;,
    140; 1.000000; 1.000000; 1.000000; 1.000000;,
    141; 1.000000; 1.000000; 1.000000; 1.000000;,
    142; 1.000000; 1.000000; 1.000000; 1.000000;,
    143; 1.000000; 1.000000; 1.000000; 1.000000;,
    144; 1.000000; 1.000000; 1.000000; 1.000000;,
    145; 1.000000; 1.000000; 1.000000; 1.000000;,
    146; 1.000000; 1.000000; 1.000000; 1.000000;,
    147; 1.000000; 1.000000; 1.000000; 1.000000;,
    148; 1.000000; 1.000000; 1.000000; 1.000000;,
    149; 1.000000; 1.000000; 1.000000; 1.000000;,
    150; 1.000000; 1.000000; 1.000000; 1.000000;,
    151; 1.000000; 1.000000; 1.000000; 1.000000;,
    152; 1.000000; 1.000000; 1.000000; 1.000000;,
    153; 1.000000; 1.000000; 1.000000; 1.000000;,
    154; 1.000000; 1.000000; 1.000000; 1.000000;,
    155; 1.000000; 1.000000; 1.000000; 1.000000;,
    156; 1.000000; 1.000000; 1.000000; 1.000000;,
    157; 1.000000; 1.000000; 1.000000; 1.000000;,
    158; 1.000000; 1.000000; 1.000000; 1.000000;,
    159; 1.000000; 1.000000; 1.000000; 1.000000;,
    160; 1.000000; 1.000000; 1.000000; 1.000000;,
    161; 1.000000; 1.000000; 1.000000; 1.000000;,
    162; 1.000000; 1.000000; 1.000000; 1.000000;,
    163; 1.000000; 1.000000; 1.000000; 1.000000;,
    164; 1.000000; 1.000000; 1.000000; 1.000000;,
    165; 1.000000; 1.000000; 1.000000; 1.000000;,
    166; 1.000000; 1.000000; 1.000000; 1.000000;,
    167; 1.000000; 1.000000; 1.000000; 1.000000;,
    168; 1.000000; 1.000000; 1.000000; 1.000000;,
    169; 1.000000; 1.000000; 1.000000; 1.000000;,
    170; 1.000000; 1.000000; 1.000000; 1.000000;,
    171; 1.000000; 1.000000; 1.000000; 1.000000;,
    172; 1.000000; 1.000000; 1.000000; 1.000000;,
    173; 1.000000; 1.000000; 1.000000; 1.000000;,
    174; 1.000000; 1.000000; 1.000000; 1.000000;,
    175; 1.000000; 1.000000; 1.000000; 1.000000;,
    176; 1.000000; 1.000000; 1.000000; 1.000000;,
    177; 1.000000; 1.000000; 1.000000; 1.000000;,
    178; 1.000000; 1.000000; 1.000000; 1.000000;,
    179; 1.000000; 1.000000; 1.000000; 1.000000;,
    180; 1.000000; 1.000000; 1.000000; 1.000000;,
    181; 1.000000; 1.000000; 1.000000; 1.000000;,
    182; 1.000000; 1.000000; 1.000000; 1.000000;,
    183; 1.000000; 1.000000; 1.000000; 1.000000;,
    184; 1.000000; 1.000000; 1.000000; 1.000000;,
    185; 1.000000; 1.000000; 1.000000; 1.000000;,
    186; 1.000000; 1.000000; 1.000000; 1.000000;,
    187; 1.000000; 1.000000; 1.000000; 1.000000;,
    188; 1.000000; 1.000000; 1.000000; 1.000000;,
    189; 1.000000; 1.000000; 1.000000; 1.000000;,
    190; 1.000000; 1.000000; 1.000000; 1.000000;,
    191; 1.000000; 1.000000; 1.000000; 1.000000;,
    192; 1.000000; 1.000000; 1.000000; 1.000000;,
    193; 1.000000; 1.000000; 1.000000; 1.000000;,
    194; 1.000000; 1.000000; 1.000000; 1.000000;,
    195; 1.000000; 1.000000; 1.000000; 1.000000;,
    196; 1.000000; 1.000000; 1.000000; 1.000000;,
    197; 1.000000; 1.000000; 1.000000; 1.000000;,
    198; 1.000000; 1.000000; 1.000000; 1.000000;,
    199; 1.000000; 1.000000; 1.000000; 1.000000;,
    200; 1.000000; 1.000000; 1.000000; 1.000000;,
    201; 1.000000; 1.000000; 1.000000; 1.000000;,
    202; 1.000000; 1.000000; 1.000000; 1.000000;,
    203; 1.000000; 1.000000; 1.000000; 1.000000;,
    204; 1.000000; 1.000000; 1.000000; 1.000000;,
    205; 1.000000; 1.000000; 1.000000; 1.000000;,
    206; 1.000000; 1.000000; 1.000000; 1.000000;,
    207; 1.000000; 1.000000; 1.000000; 1.000000;,
    208; 1.000000; 1.000000; 1.000000; 1.000000;,
    209; 1.000000; 1.000000; 1.000000; 1.000000;,
    210; 1.000000; 1.000000; 1.000000; 1.000000;,
    211; 1.000000; 1.000000; 1.000000; 1.000000;,
    212; 1.000000; 1.000000; 1.000000; 1.000000;,
    213; 1.000000; 1.000000; 1.000000; 1.000000;,
    214; 1.000000; 1.000000; 1.000000; 1.000000;,
    215; 1.000000; 1.000000; 1.000000; 1.000000;,
    216; 1.000000; 1.000000; 1.000000; 1.000000;,
    217; 1.000000; 1.000000; 1.000000; 1.000000;,
    218; 1.000000; 1.000000; 1.000000; 1.000000;,
    219; 1.000000; 1.000000; 1.000000; 1.000000;,
    220; 1.000000; 1.000000; 1.000000; 1.000000;,
    221; 1.000000; 1.000000; 1.000000; 1.000000;,
    222; 1.000000; 1.000000; 1.000000; 1.000000;,
    223; 1.000000; 1.000000; 1.000000; 1.000000;,
    224; 1.000000; 1.000000; 1.000000; 1.000000;,
    225; 1.000000; 1.000000; 1.000000; 1.000000;,
    226; 1.000000; 1.000000; 1.000000; 1.000000;,
    227; 1.000000; 1.000000; 1.000000; 1.000000;,
    228; 1.000000; 1.000000; 1.000000; 1.000000;,
    229; 1.000000; 1.000000; 1.000000; 1.000000;,
    230; 1.000000; 1.000000; 1.000000; 1.000000;,
    231; 1.000000; 1.000000; 1.000000; 1.000000;,
    232; 1.000000; 1.000000; 1.000000; 1.000000;,
    233; 1.000000; 1.000000; 1.000000; 1.000000;,
    234; 1.000000; 1.000000; 1.000000; 1.000000;,
    235; 1.000000; 1.000000; 1.000000; 1.000000;,
    236; 1.000000; 1.000000; 1.000000; 1.000000;,
    237; 1.000000; 1.000000; 1.000000; 1.000000;,
    238; 1.000000; 1.000000; 1.000000; 1.000000;,
    239; 1.000000; 1.000000; 1.000000; 1.000000;,
    240; 1.000000; 1.000000; 1.000000; 1.000000;,
    241; 1.000000; 1.000000; 1.000000; 1.000000;,
    242; 1.000000; 1.000000; 1.000000; 1.000000;,
    243; 1.000000; 1.000000; 1.000000; 1.000000;,
    244; 1.000000; 1.000000; 1.000000; 1.000000;,
    245; 1.000000; 1.000000; 1.000000; 1.000000;,
    246; 1.000000; 1.000000; 1.000000; 1.000000;,
    247; 1.000000; 1.000000; 1.000000; 1.000000;,
    248; 1.000000; 1.000000; 1.000000; 1.000000;,
    249; 1.000000; 1.000000; 1.000000; 1.000000;,
    250; 1.000000; 1.000000; 1.000000; 1.000000;,
    251; 1.000000; 1.000000; 1.000000; 1.000000;,
    252; 1.000000; 1.000000; 1.000000; 1.000000;,
    253; 1.000000; 1.000000; 1.000000; 1.000000;,
    254; 1.000000; 1.000000; 1.000000; 1.000000;,
    255; 1.000000; 1.000000; 1.000000; 1.000000;,
    256; 1.000000; 1.000000; 1.000000; 1.000000;,
    257; 1.000000; 1.000000; 1.000000; 1.000000;,
    258; 1.000000; 1.000000; 1.000000; 1.000000;,
    259; 1.000000; 1.000000; 1.000000; 1.000000;,
    260; 1.000000; 1.000000; 1.000000; 1.000000;,
    261; 1.000000; 1.000000; 1.000000; 1.000000;,
    262; 1.000000; 1.000000; 1.000000; 1.000000;,
    263; 1.000000; 1.000000; 1.000000; 1.000000;,
    264; 1.000000; 1.000000; 1.000000; 1.000000;,
    265; 1.000000; 1.000000; 1.000000; 1.000000;,
    266; 1.000000; 1.000000; 1.000000; 1.000000;,
    267; 1.000000; 1.000000; 1.000000; 1.000000;,
    268; 1.000000; 1.000000; 1.000000; 1.000000;,
    269; 1.000000; 1.000000; 1.000000; 1.000000;,
    270; 1.000000; 1.000000; 1.000000; 1.000000;,
    271; 1.000000; 1.000000; 1.000000; 1.000000;,
    272; 1.000000; 1.000000; 1.000000; 1.000000;,
    273; 1.000000; 1.000000; 1.000000; 1.000000;,
    274; 1.000000; 1.000000; 1.000000; 1.000000;,
    275; 1.000000; 1.000000; 1.000000; 1.000000;,
    276; 1.000000; 1.000000; 1.000000; 1.000000;,
    277; 1.000000; 1.000000; 1.000000; 1.000000;,
    278; 1.000000; 1.000000; 1.000000; 1.000000;,
    279; 1.000000; 1.000000; 1.000000; 1.000000;,
    280; 1.000000; 1.000000; 1.000000; 1.000000;,
    281; 1.000000; 1.000000; 1.000000; 1.000000;,
    282; 1.000000; 1.000000; 1.000000; 1.000000;,
    283; 1.000000; 1.000000; 1.000000; 1.000000;,
    284; 1.000000; 1.000000; 1.000000; 1.000000;,
    285; 1.000000; 1.000000; 1.000000; 1.000000;,
    286; 1.000000; 1.000000; 1.000000; 1.000000;,
    287; 1.000000; 1.000000; 1.000000; 1.000000;,
    288; 1.000000; 1.000000; 1.000000; 1.000000;,
    289; 1.000000; 1.000000; 1.000000; 1.000000;,
    290; 1.000000; 1.000000; 1.000000; 1.000000;,
    291; 1.000000; 1.000000; 1.000000; 1.000000;,
    292; 1.000000; 1.000000; 1.000000; 1.000000;,
    293; 1.000000; 1.000000; 1.000000; 1.000000;,
    294; 1.000000; 1.000000; 1.000000; 1.000000;,
    295; 1.000000; 1.000000; 1.000000; 1.000000;,
    296; 1.000000; 1.000000; 1.000000; 1.000000;,
    297; 1.000000; 1.000000; 1.000000; 1.000000;,
    298; 1.000000; 1.000000; 1.000000; 1.000000;,
    299; 1.000000; 1.000000; 1.000000; 1.000000;,
    300; 1.000000; 1.000000; 1.000000; 1.000000;,
    301; 1.000000; 1.000000; 1.000000; 1.000000;,
    302; 1.000000; 1.000000; 1.000000; 1.000000;,
    303; 1.000000; 1.000000; 1.000000; 1.000000;,
    304; 1.000000; 1.000000; 1.000000; 1.000000;,
    305; 1.000000; 1.000000; 1.000000; 1.000000;,
    306; 1.000000; 1.000000; 1.000000; 1.000000;,
    307; 1.000000; 1.000000; 1.000000; 1.000000;,
    308; 1.000000; 1.000000; 1.000000; 1.000000;,
    309; 1.000000; 1.000000; 1.000000; 1.000000;,
    310; 1.000000; 1.000000; 1.000000; 1.000000;,
    311; 1.000000; 1.000000; 1.000000; 1.000000;,
    312; 1.000000; 1.000000; 1.000000; 1.000000;,
    313; 1.000000; 1.000000; 1.000000; 1.000000;,
    314; 1.000000; 1.000000; 1.000000; 1.000000;,
    315; 1.000000; 1.000000; 1.000000; 1.000000;,
    316; 1.000000; 1.000000; 1.000000; 1.000000;,
    317; 1.000000; 1.000000; 1.000000; 1.000000;,
    318; 1.000000; 1.000000; 1.000000; 1.000000;,
    319; 1.000000; 1.000000; 1.000000; 1.000000;,
    320; 1.000000; 1.000000; 1.000000; 1.000000;,
    321; 1.000000; 1.000000; 1.000000; 1.000000;,
    322; 1.000000; 1.000000; 1.000000; 1.000000;,
    323; 1.000000; 1.000000; 1.000000; 1.000000;,
    324; 1.000000; 1.000000; 1.000000; 1.000000;,
    325; 1.000000; 1.000000; 1.000000; 1.000000;,
    326; 1.000000; 1.000000; 1.000000; 1.000000;,
    327; 1.000000; 1.000000; 1.000000; 1.000000;,
    328; 1.000000; 1.000000; 1.000000; 1.000000;,
    329; 1.000000; 1.000000; 1.000000; 1.000000;,
    330; 1.000000; 1.000000; 1.000000; 1.000000;,
    331; 1.000000; 1.000000; 1.000000; 1.000000;,
    332; 1.000000; 1.000000; 1.000000; 1.000000;,
    333; 1.000000; 1.000000; 1.000000; 1.000000;,
    334; 1.000000; 1.000000; 1.000000; 1.000000;,
    335; 1.000000; 1.000000; 1.000000; 1.000000;,
    336; 1.000000; 1.000000; 1.000000; 1.000000;,
    337; 1.000000; 1.000000; 1.000000; 1.000000;,
    338; 1.000000; 1.000000; 1.000000; 1.000000;,
    339; 1.000000; 1.000000; 1.000000; 1.000000;,
    340; 1.000000; 1.000000; 1.000000; 1.000000;,
    341; 1.000000; 1.000000; 1.000000; 1.000000;,
    342; 1.000000; 1.000000; 1.000000; 1.000000;,
    343; 1.000000; 1.000000; 1.000000; 1.000000;,
    344; 1.000000; 1.000000; 1.000000; 1.000000;,
    345; 1.000000; 1.000000; 1.000000; 1.000000;,
    346; 1.000000; 1.000000; 1.000000; 1.000000;,
    347; 1.000000; 1.000000; 1.000000; 1.000000;,
    348; 1.000000; 1.000000; 1.000000; 1.000000;,
    349; 1.000000; 1.000000; 1.000000; 1.000000;,
    350; 1.000000; 1.000000; 1.000000; 1.000000;,
    351; 1.000000; 1.000000; 1.000000; 1.000000;,
    352; 1.000000; 1.000000; 1.000000; 1.000000;,
    353; 1.000000; 1.000000; 1.000000; 1.000000;,
    354; 1.000000; 1.000000; 1.000000; 1.000000;,
    355; 1.000000; 1.000000; 1.000000; 1.000000;,
    356; 1.000000; 1.000000; 1.000000; 1.000000;,
    357; 1.000000; 1.000000; 1.000000; 1.000000;,
    358; 1.000000; 1.000000; 1.000000; 1.000000;,
    359; 1.000000; 1.000000; 1.000000; 1.000000;,
    360; 1.000000; 1.000000; 1.000000; 1.000000;,
    361; 1.000000; 1.000000; 1.000000; 1.000000;,
    362; 1.000000; 1.000000; 1.000000; 1.000000;,
    363; 1.000000; 1.000000; 1.000000; 1.000000;,
    364; 1.000000; 1.000000; 1.000000; 1.000000;,
    365; 1.000000; 1.000000; 1.000000; 1.000000;,
    366; 1.000000; 1.000000; 1.000000; 1.000000;,
    367; 1.000000; 1.000000; 1.000000; 1.000000;,
    368; 1.000000; 1.000000; 1.000000; 1.000000;,
    369; 1.000000; 1.000000; 1.000000; 1.000000;,
    370; 1.000000; 1.000000; 1.000000; 1.000000;,
    371; 1.000000; 1.000000; 1.000000; 1.000000;,
    372; 1.000000; 1.000000; 1.000000; 1.000000;,
    373; 1.000000; 1.000000; 1.000000; 1.000000;,
    374; 1.000000; 1.000000; 1.000000; 1.000000;,
    375; 1.000000; 1.000000; 1.000000; 1.000000;,
    376; 1.000000; 1.000000; 1.000000; 1.000000;,
    377; 1.000000; 1.000000; 1.000000; 1.000000;,
    378; 1.000000; 1.000000; 1.000000; 1.000000;,
    379; 1.000000; 1.000000; 1.000000; 1.000000;,
    380; 1.000000; 1.000000; 1.000000; 1.000000;,
    381; 1.000000; 1.000000; 1.000000; 1.000000;,
    382; 1.000000; 1.000000; 1.000000; 1.000000;,
    383; 1.000000; 1.000000; 1.000000; 1.000000;,
    384; 1.000000; 1.000000; 1.000000; 1.000000;,
    385; 1.000000; 1.000000; 1.000000; 1.000000;,
    386; 1.000000; 1.000000; 1.000000; 1.000000;,
    387; 1.000000; 1.000000; 1.000000; 1.000000;,
    388; 1.000000; 1.000000; 1.000000; 1.000000;,
    389; 1.000000; 1.000000; 1.000000; 1.000000;,
    390; 1.000000; 1.000000; 1.000000; 1.000000;,
    391; 1.000000; 1.000000; 1.000000; 1.000000;,
    392; 1.000000; 1.000000; 1.000000; 1.000000;,
    393; 1.000000; 1.000000; 1.000000; 1.000000;,
    394; 1.000000; 1.000000; 1.000000; 1.000000;,
    395; 1.000000; 1.000000; 1.000000; 1.000000;,
    396; 1.000000; 1.000000; 1.000000; 1.000000;,
    397; 1.000000; 1.000000; 1.000000; 1.000000;,
    398; 1.000000; 1.000000; 1.000000; 1.000000;,
    399; 1.000000; 1.000000; 1.000000; 1.000000;,
    400; 1.000000; 1.000000; 1.000000; 1.000000;,
    401; 1.000000; 1.000000; 1.000000; 1.000000;,
    402; 1.000000; 1.000000; 1.000000; 1.000000;,
    403; 1.000000; 1.000000; 1.000000; 1.000000;,
    404; 1.000000; 1.000000; 1.000000; 1.000000;,
    405; 1.000000; 1.000000; 1.000000; 1.000000;,
    406; 1.000000; 1.000000; 1.000000; 1.000000;,
    407; 1.000000; 1.000000; 1.000000; 1.000000;,
    408; 1.000000; 1.000000; 1.000000; 1.000000;,
    409; 1.000000; 1.000000; 1.000000; 1.000000;,
    410; 1.000000; 1.000000; 1.000000; 1.000000;,
    411; 1.000000; 1.000000; 1.000000; 1.000000;,
    412; 1.000000; 1.000000; 1.000000; 1.000000;,
    413; 1.000000; 1.000000; 1.000000; 1.000000;,
    414; 1.000000; 1.000000; 1.000000; 1.000000;,
    415; 1.000000; 1.000000; 1.000000; 1.000000;,
    416; 1.000000; 1.000000; 1.000000; 1.000000;,
    417; 1.000000; 1.000000; 1.000000; 1.000000;,
    418; 1.000000; 1.000000; 1.000000; 1.000000;,
    419; 1.000000; 1.000000; 1.000000; 1.000000;,
    420; 1.000000; 1.000000; 1.000000; 1.000000;,
    421; 1.000000; 1.000000; 1.000000; 1.000000;,
    422; 1.000000; 1.000000; 1.000000; 1.000000;,
    423; 1.000000; 1.000000; 1.000000; 1.000000;,
    424; 1.000000; 1.000000; 1.000000; 1.000000;;
   }

   MeshMaterialList {
    3;
    421;
    0,
    0,
    0,
    0,
    0,
    0,
    0,
    0,
    0,
    0,
    0,
    0,
    0,
    0,
    0,
    0,
    0,
    0,
    0,
    0,
    1,
    1,
    1,
    1,
    1,
    1,
    1,
    1,
    1,
    1,
    1,
    1,
    1,
    1,
    1,
    1,
    1,
    1,
    1,
    1,
    1,
    1,
    1,
    1,
    1,
    1,
    1,
    1,
    1,
    1,
    1,
    1,
    1,
    1,
    1,
    1,
    1,
    1,
    1,
    1,
    1,
    1,
    1,
    1,
    1,
    1,
    1,
    1,
    1,
    1,
    1,
    1,
    1,
    1,
    1,
    1,
    1,
    1,
    1,
    1,
    1,
    1,
    1,
    1,
    1,
    1,
    1,
    1,
    1,
    1,
    1,
    1,
    1,
    1,
    1,
    1,
    1,
    1,
    1,
    1,
    1,
    1,
    1,
    1,
    1,
    1,
    1,
    1,
    1,
    1,
    1,
    1,
    1,
    1,
    1,
    1,
    1,
    1,
    1,
    1,
    1,
    1,
    1,
    1,
    1,
    1,
    1,
    1,
    1,
    1,
    1,
    1,
    1,
    1,
    1,
    1,
    1,
    1,
    1,
    1,
    1,
    1,
    1,
    1,
    1,
    1,
    1,
    1,
    1,
    1,
    1,
    1,
    1,
    1,
    1,
    1,
    1,
    1,
    1,
    1,
    1,
    1,
    1,
    1,
    1,
    1,
    1,
    1,
    1,
    1,
    1,
    1,
    1,
    1,
    1,
    1,
    1,
    1,
    1,
    1,
    1,
    1,
    1,
    1,
    1,
    1,
    1,
    1,
    1,
    1,
    1,
    1,
    1,
    1,
    1,
    1,
    1,
    1,
    1,
    1,
    1,
    1,
    1,
    1,
    1,
    1,
    1,
    1,
    1,
    1,
    1,
    1,
    1,
    1,
    1,
    1,
    1,
    1,
    1,
    1,
    1,
    1,
    1,
    1,
    1,
    1,
    1,
    1,
    1,
    1,
    1,
    1,
    1,
    1,
    1,
    1,
    1,
    1,
    1,
    1,
    1,
    1,
    1,
    1,
    1,
    1,
    1,
    1,
    1,
    1,
    1,
    1,
    1,
    1,
    1,
    1,
    1,
    1,
    1,
    1,
    1,
    1,
    1,
    1,
    1,
    1,
    1,
    1,
    1,
    1,
    1,
    1,
    1,
    1,
    1,
    1,
    1,
    1,
    1,
    1,
    1,
    1,
    1,
    1,
    1,
    1,
    1,
    1,
    1,
    1,
    1,
    1,
    1,
    1,
    1,
    1,
    1,
    1,
    1,
    1,
    1,
    1,
    1,
    1,
    1,
    1,
    1,
    1,
    1,
    1,
    1,
    1,
    1,
    1,
    1,
    1,
    1,
    1,
    1,
    1,
    1,
    1,
    1,
    1,
    1,
    1,
    1,
    1,
    1,
    1,
    1,
    1,
    1,
    1,
    1,
    1,
    1,
    1,
    1,
    1,
    1,
    1,
    1,
    1,
    1,
    1,
    1,
    1,
    1,
    1,
    1,
    1,
    1,
    1,
    1,
    1,
    1,
    1,
    1,
    1,
    1,
    1,
    1,
    1,
    1,
    1,
    1,
    1,
    1,
    1,
    1,
    1,
    1,
    2,
    2,
    2,
    2,
    2,
    2,
    2,
    2,
    2,
    2,
    2,
    2,
    2,
    2,
    2,
    2,
    2,
    2,
    2,
    2,
    2,
    2,
    2,
    2,
    2,
    2,
    2,
    2,
    2,
    2,
    2,
    2,
    2,
    2,
    2,
    2,
    2,
    2,
    2,
    2,
    2,
    2,
    2,
    2,
    2,
    2,
    2,
    2;

    Material DungNewA {
     1.000000; 1.000000; 1.000000; 1.000000;;
     128.000000;
     1.000000; 1.000000; 1.000000;;
     0.000000; 0.000000; 0.000000;;

     TextureFilename {
      "DungNewA.dds";
     }
    }

    Material DungNewC {
     1.000000; 1.000000; 1.000000; 1.000000;;
     128.000000;
     1.000000; 1.000000; 1.000000;;
     0.000000; 0.000000; 0.000000;;

     TextureFilename {
      "DungNewC.dds";
     }
    }

    Material DungFloorB {
     1.000000; 1.000000; 1.000000; 1.000000;;
     128.000000;
     1.000000; 1.000000; 1.000000;;
     0.000000; 0.000000; 0.000000;;

     TextureFilename {
      "DungFloorB.dds";
     }
    }

   }
  }
}
