xof 0303txt 0032

// DirectX 9.0 file
// Creator: Ultimate Unwrap3D Pro v3.32
// Website: http://www.unwrap3d.com
// Time: Wed Sep 07 20:05:51 2011

// Start of Templates

template VertexDuplicationIndices {
 <b8d65549-d7c9-4995-89cf-53a9a8b031e3>
 DWORD nIndices;
 DWORD nOriginalVertices;
 array DWORD indices[nIndices];
}

template FVFData {
 <b6e70a0e-8ef9-4e83-94ad-ecc8b0c04897>
 DWORD dwFVF;
 DWORD nDWords;
 array DWORD data[nDWords];
}

template Header {
 <3D82AB43-62DA-11cf-AB39-0020AF71E433>
 WORD major;
 WORD minor;
 DWORD flags;
}

template Vector {
 <3D82AB5E-62DA-11cf-AB39-0020AF71E433>
 FLOAT x;
 FLOAT y;
 FLOAT z;
}

template Coords2d {
 <F6F23F44-7686-11cf-8F52-0040333594A3>
 FLOAT u;
 FLOAT v;
}

template Matrix4x4 {
 <F6F23F45-7686-11cf-8F52-0040333594A3>
 array FLOAT matrix[16];
}

template ColorRGBA {
 <35FF44E0-6C7C-11cf-8F52-0040333594A3>
 FLOAT red;
 FLOAT green;
 FLOAT blue;
 FLOAT alpha;
}

template ColorRGB {
 <D3E16E81-7835-11cf-8F52-0040333594A3>
 FLOAT red;
 FLOAT green;
 FLOAT blue;
}

template IndexedColor {
 <1630B820-7842-11cf-8F52-0040333594A3>
 DWORD index;
 ColorRGBA indexColor;
}

template Material {
 <3D82AB4D-62DA-11cf-AB39-0020AF71E433>
 ColorRGBA faceColor;
 FLOAT power;
 ColorRGB specularColor;
 ColorRGB emissiveColor;
 [...]
}

template TextureFilename {
 <A42790E1-7810-11cf-8F52-0040333594A3>
 STRING filename;
}

template MeshFace {
 <3D82AB5F-62DA-11cf-AB39-0020AF71E433>
 DWORD nFaceVertexIndices;
 array DWORD faceVertexIndices[nFaceVertexIndices];
}

template MeshTextureCoords {
 <F6F23F40-7686-11cf-8F52-0040333594A3>
 DWORD nTextureCoords;
 array Coords2d textureCoords[nTextureCoords];
}

template MeshMaterialList {
 <F6F23F42-7686-11cf-8F52-0040333594A3>
 DWORD nMaterials;
 DWORD nFaceIndexes;
 array DWORD faceIndexes[nFaceIndexes];
 [Material]
}

template MeshNormals {
 <F6F23F43-7686-11cf-8F52-0040333594A3>
 DWORD nNormals;
 array Vector normals[nNormals];
 DWORD nFaceNormals;
 array MeshFace faceNormals[nFaceNormals];
}

template MeshVertexColors {
 <1630B821-7842-11cf-8F52-0040333594A3>
 DWORD nVertexColors;
 array IndexedColor vertexColors[nVertexColors];
}

template Mesh {
 <3D82AB44-62DA-11cf-AB39-0020AF71E433>
 DWORD nVertices;
 array Vector vertices[nVertices];
 DWORD nFaces;
 array MeshFace faces[nFaces];
 [...]
}

template FrameTransformMatrix {
 <F6F23F41-7686-11cf-8F52-0040333594A3>
 Matrix4x4 frameMatrix;
}

template Frame {
 <3D82AB46-62DA-11cf-AB39-0020AF71E433>
 [...]
}

template FloatKeys {
 <10DD46A9-775B-11cf-8F52-0040333594A3>
 DWORD nValues;
 array FLOAT values[nValues];
}

template TimedFloatKeys {
 <F406B180-7B3B-11cf-8F52-0040333594A3>
 DWORD time;
 FloatKeys tfkeys;
}

template AnimationKey {
 <10DD46A8-775B-11cf-8F52-0040333594A3>
 DWORD keyType;
 DWORD nKeys;
 array TimedFloatKeys keys[nKeys];
}

template AnimationOptions {
 <E2BF56C0-840F-11cf-8F52-0040333594A3>
 DWORD openclosed;
 DWORD positionquality;
}

template Animation {
 <3D82AB4F-62DA-11cf-AB39-0020AF71E433>
 [...]
}

template AnimationSet {
 <3D82AB50-62DA-11cf-AB39-0020AF71E433>
 [Animation]
}

template XSkinMeshHeader {
 <3CF169CE-FF7C-44ab-93C0-F78F62D172E2>
 WORD nMaxSkinWeightsPerVertex;
 WORD nMaxSkinWeightsPerFace;
 WORD nBones;
}

template SkinWeights {
 <6F0D123B-BAD2-4167-A0D0-80224F25FABB>
 STRING transformNodeName;
 DWORD nWeights;
 array DWORD vertexIndices[nWeights];
 array FLOAT weights[nWeights];
 Matrix4x4 matrixOffset;
}

template AnimTicksPerSecond {
 <9E415A43-7BA6-4a73-8743-B73D47E88476>
 DWORD AnimTicksPerSecond;
}

AnimTicksPerSecond {
 4800;
}

// Start of Frames

Frame Body {
   FrameTransformMatrix {
    1.000000, 0.000000, 0.000000, 0.000000,
    0.000000, 1.000000, 0.000000, 0.000000,
    0.000000, 0.000000, 1.000000, 0.000000,
    0.000000, 0.000000, 0.000000, 1.000000;;
   }

   Mesh staticMesh {
    246;
    -169.534912; 277.187408; -33.604980;,
    -169.534912; 243.820404; -33.604980;,
    -169.534912; 277.187408; 33.695068;,
    -169.534912; 243.820404; 33.695068;,
    -153.715088; 277.159393; -33.604980;,
    -153.715088; 277.159393; 33.695068;,
    -143.465088; 292.195404; -33.604980;,
    -143.465088; 292.195404; 33.695068;,
    -119.695068; 313.104401; -33.604980;,
    -119.695068; 313.104401; 33.695068;,
    -75.944824; 340.711395; -33.604980;,
    -75.944824; 340.711395; 33.695068;,
    -35.004883; 355.449402; -33.604980;,
    -35.004883; 355.449402; 33.695068;,
    -0.995117; 359.890381; -33.604980;,
    -0.995117; 359.890381; 33.695068;,
    -142.574951; 0.000000; -33.604980;,
    -139.054932; 0.000000; -30.084961;,
    -169.534912; 0.000000; -33.604980;,
    -139.054932; 0.000000; 29.025146;,
    -169.534912; 0.000000; 33.695068;,
    -143.725098; 0.000000; 33.695068;,
    169.535156; 243.820404; -33.604980;,
    169.535156; 277.187408; -33.604980;,
    169.535156; 243.820404; 33.695068;,
    169.535156; 277.187408; 33.695068;,
    152.115234; 277.159393; -33.604980;,
    152.115234; 277.159393; 33.695068;,
    141.865234; 292.195404; -33.604980;,
    141.865234; 292.195404; 33.695068;,
    118.095215; 313.104401; -33.604980;,
    118.095215; 313.104401; 33.695068;,
    74.334961; 340.711395; -33.604980;,
    74.334961; 340.711395; 33.695068;,
    33.404785; 355.449402; -33.604980;,
    33.404785; 355.449402; 33.695068;,
    -0.995117; 359.890381; -33.604980;,
    -0.995117; 359.890381; 33.695068;,
    137.455078; 0.000092; -30.084961;,
    140.975098; 0.000092; -33.604980;,
    137.455078; 0.000092; 29.025146;,
    169.535156; 0.000092; -33.604980;,
    142.125000; 0.000092; 33.695068;,
    169.535156; 0.000092; 33.695068;,
    169.535156; 38.989395; -33.604980;,
    169.535156; 38.989395; 33.695068;,
    141.104980; 38.989197; -33.604980;,
    169.535156; 38.989395; -33.604980;,
    140.975098; 0.000092; -33.604980;,
    169.535156; 0.000092; -33.604980;,
    120.564941; 18.493393; -30.084961;,
    120.404785; 0.068695; -30.084961;,
    120.564941; 18.493393; 29.025146;,
    120.404785; 0.068695; 29.025146;,
    140.975098; 0.000092; -33.604980;,
    137.455078; 0.000092; -30.084961;,
    141.104980; 38.989197; -33.604980;,
    137.615234; 38.988998; -30.084961;,
    120.404785; 0.068695; -30.084961;,
    120.404785; 0.068695; 29.025146;,
    137.455078; 0.000092; 29.025146;,
    137.615234; 38.988998; 29.025146;,
    -169.534912; 36.694397; -33.604980;,
    -169.534912; 36.694397; 33.695068;,
    -142.695068; 36.694092; -33.604980;,
    -142.574951; 0.000000; -33.604980;,
    -169.534912; 36.694397; -33.604980;,
    -169.534912; 0.000000; -33.604980;,
    -124.004883; 18.699493; -30.084961;,
    -124.004883; 18.699493; 29.025146;,
    -123.864990; 0.083496; -30.084961;,
    -123.864990; 0.083496; 29.025146;,
    -139.054932; 0.000000; -30.084961;,
    -139.195068; 36.694000; -30.084961;,
    -123.864990; 0.083496; 29.025146;,
    -123.864990; 0.083496; -30.084961;,
    -139.195068; 36.694000; 29.025146;,
    -139.054932; 0.000000; 29.025146;,
    -139.054932; 0.000000; -30.084961;,
    -139.195068; 36.694000; -30.084961;,
    -124.004883; 18.699493; -30.084961;,
    -139.195068; 36.694000; -30.084961;,
    -124.004883; 18.699493; 29.025146;,
    -139.195068; 36.694000; 29.025146;,
    -144.554932; 249.962402; 33.695068;,
    -143.344971; 254.602386; 33.695068;,
    -169.534912; 243.820404; 33.695068;,
    -169.534912; 277.187408; 33.695068;,
    -143.344971; 254.602386; 33.695068;,
    -142.244873; 255.405396; 33.695068;,
    -169.534912; 277.187408; 33.695068;,
    -153.715088; 277.159393; 33.695068;,
    -127.435059; 278.031403; 33.695068;,
    -143.465088; 292.195404; 33.695068;,
    -106.594971; 296.409393; 33.695068;,
    -119.695068; 313.104401; 33.695068;,
    -66.104980; 321.696381; 33.695068;,
    -75.944824; 340.711395; 33.695068;,
    -29.084961; 335.059387; 33.695068;,
    -35.004883; 355.449402; 33.695068;,
    -0.995117; 339.218384; 33.695068;,
    -0.995117; 359.890381; 33.695068;,
    -127.435059; 278.031403; 33.695068;,
    -142.244873; 255.405396; 33.695068;,
    -123.935059; 274.938385; 29.025146;,
    -140.064941; 251.272400; 29.025146;,
    -106.594971; 296.409393; 33.695068;,
    -103.715088; 292.735382; 29.025146;,
    -66.104980; 321.696381; 33.695068;,
    -63.955078; 317.547394; 29.025146;,
    -29.084961; 335.059387; 33.695068;,
    -27.774902; 330.573395; 29.025146;,
    -0.995117; 339.218384; 33.695068;,
    -0.995117; 334.659393; 29.025146;,
    -142.244873; 255.405396; 33.695068;,
    -143.344971; 254.602386; 33.695068;,
    -144.554932; 249.962402; 33.695068;,
    -142.534912; 253.781403; -33.604980;,
    -143.445068; 250.285400; -33.604980;,
    -169.534912; 277.187408; -33.604980;,
    -169.534912; 243.820404; -33.604980;,
    -141.705078; 254.385406; -33.604980;,
    -153.715088; 277.159393; -33.604980;,
    -126.574951; 277.268402; -33.604980;,
    -141.705078; 254.385406; -33.604980;,
    -143.465088; 292.195404; -33.604980;,
    -153.715088; 277.159393; -33.604980;,
    -105.885010; 295.503387; -33.604980;,
    -119.695068; 313.104401; -33.604980;,
    -65.575195; 320.672394; -33.604980;,
    -75.944824; 340.711395; -33.604980;,
    -28.765137; 333.952393; -33.604980;,
    -35.004883; 355.449402; -33.604980;,
    0.645020; 338.551392; -33.695068;,
    -0.995117; 359.890381; -33.604980;,
    -140.064941; 251.272400; -30.084961;,
    -123.935059; 274.938385; -30.084961;,
    -140.064941; 251.272400; 29.025146;,
    -123.935059; 274.938385; 29.025146;,
    -103.715088; 292.735382; -30.084961;,
    -103.715088; 292.735382; 29.025146;,
    -63.955078; 317.547394; -30.084961;,
    -63.955078; 317.547394; 29.025146;,
    -27.774902; 330.573395; -30.084961;,
    -27.774902; 330.573395; 29.025146;,
    -0.995117; 334.659393; -30.084961;,
    -0.995117; 334.659393; 29.025146;,
    -123.935059; 274.938385; -30.084961;,
    -140.064941; 251.272400; -30.084961;,
    -103.715088; 292.735382; -30.084961;,
    -63.955078; 317.547394; -30.084961;,
    -27.774902; 330.573395; -30.084961;,
    -0.995117; 334.659393; -30.084961;,
    -142.534912; 253.781403; -33.604980;,
    -141.705078; 254.385406; -33.604980;,
    -143.445068; 250.285400; -33.604980;,
    -140.064941; 251.272400; -30.084961;,
    141.745117; 254.602386; 33.695068;,
    142.944824; 249.962402; 33.695068;,
    169.535156; 277.187408; 33.695068;,
    169.535156; 243.820404; 33.695068;,
    140.645020; 255.405396; 33.695068;,
    152.115234; 277.159393; 33.695068;,
    125.834961; 278.031403; 33.695068;,
    141.865234; 292.195404; 33.695068;,
    104.995117; 296.409393; 33.695068;,
    125.834961; 278.031403; 33.695068;,
    118.095215; 313.104401; 33.695068;,
    141.865234; 292.195404; 33.695068;,
    64.495117; 321.696381; 33.695068;,
    74.334961; 340.711395; 33.695068;,
    27.484863; 335.059387; 33.695068;,
    33.404785; 355.449402; 33.695068;,
    -0.995117; 339.218384; 33.695068;,
    -0.995117; 359.890381; 33.695068;,
    138.464844; 251.272400; 29.025146;,
    122.334961; 274.938385; 29.025146;,
    125.834961; 278.031403; 33.695068;,
    104.995117; 296.409393; 33.695068;,
    122.334961; 274.938385; 29.025146;,
    102.104980; 292.735382; 29.025146;,
    64.495117; 321.696381; 33.695068;,
    62.354980; 317.547394; 29.025146;,
    27.484863; 335.059387; 33.695068;,
    26.174805; 330.573395; 29.025146;,
    -0.995117; 339.218384; 33.695068;,
    -0.995117; 334.659393; 29.025146;,
    141.845215; 250.285400; -33.604980;,
    140.935059; 253.781403; -33.604980;,
    169.535156; 243.820404; -33.604980;,
    169.535156; 277.187408; -33.604980;,
    140.104980; 254.385406; -33.604980;,
    152.115234; 277.159393; -33.604980;,
    140.104980; 254.385406; -33.604980;,
    124.975098; 277.268402; -33.604980;,
    152.115234; 277.159393; -33.604980;,
    141.865234; 292.195404; -33.604980;,
    104.285156; 295.503387; -33.604980;,
    118.095215; 313.104401; -33.604980;,
    63.964844; 320.672394; -33.604980;,
    74.334961; 340.711395; -33.604980;,
    27.154785; 333.952393; -33.604980;,
    33.404785; 355.449402; -33.604980;,
    0.645020; 338.551392; -33.695068;,
    -0.995117; 359.890381; -33.604980;,
    122.334961; 274.938385; -30.084961;,
    138.464844; 251.272400; -30.084961;,
    102.104980; 292.735382; -30.084961;,
    122.334961; 274.938385; -30.084961;,
    62.354980; 317.547394; -30.084961;,
    26.174805; 330.573395; -30.084961;,
    -0.995117; 334.659393; -30.084961;,
    138.464844; 251.272400; -30.084961;,
    122.334961; 274.938385; -30.084961;,
    102.104980; 292.735382; -30.084961;,
    62.354980; 317.547394; -30.084961;,
    26.174805; 330.573395; -30.084961;,
    -0.995117; 334.659393; -30.084961;,
    138.464844; 251.272400; -30.084961;,
    142.254883; 38.989197; 33.695068;,
    142.125000; 0.000092; 33.695068;,
    169.535156; 38.989395; 33.695068;,
    169.535156; 0.000092; 33.695068;,
    142.254883; 38.989197; 33.695068;,
    169.535156; 38.989395; 33.695068;,
    137.615234; 38.988998; 29.025146;,
    141.104980; 38.989197; -33.604980;,
    141.845215; 250.285400; -33.604980;,
    169.535156; 38.989395; -33.604980;,
    169.535156; 243.820404; -33.604980;,
    137.615234; 38.988998; -30.084961;,
    137.615234; 38.988998; -30.084961;,
    138.464844; 251.272400; -30.084961;,
    -143.844971; 36.694092; 33.695068;,
    -169.534912; 36.694397; 33.695068;,
    -143.725098; 0.000000; 33.695068;,
    -169.534912; 0.000000; 33.695068;,
    -143.725098; 0.000000; 33.695068;,
    -139.054932; 0.000000; 29.025146;,
    -143.844971; 36.694092; 33.695068;,
    -139.195068; 36.694000; 29.025146;,
    -143.445068; 250.285400; -33.604980;,
    -169.534912; 243.820404; -33.604980;,
    -139.195068; 36.694000; -30.084961;,
    -139.195068; 36.694000; 29.025146;,
    -140.064941; 251.272400; -30.084961;;
    224;
    3;0, 1, 2;,
    3;1, 3, 2;,
    3;4, 0, 5;,
    3;0, 2, 5;,
    3;6, 4, 7;,
    3;4, 5, 7;,
    3;8, 6, 9;,
    3;6, 7, 9;,
    3;10, 8, 11;,
    3;8, 9, 11;,
    3;12, 10, 13;,
    3;10, 11, 13;,
    3;14, 12, 15;,
    3;12, 13, 15;,
    3;16, 17, 18;,
    3;17, 19, 18;,
    3;18, 19, 20;,
    3;19, 21, 20;,
    3;22, 23, 24;,
    3;23, 25, 24;,
    3;23, 26, 25;,
    3;26, 27, 25;,
    3;26, 28, 27;,
    3;28, 29, 27;,
    3;28, 30, 29;,
    3;30, 31, 29;,
    3;30, 32, 31;,
    3;32, 33, 31;,
    3;32, 34, 33;,
    3;34, 35, 33;,
    3;34, 36, 35;,
    3;36, 37, 35;,
    3;38, 39, 40;,
    3;39, 41, 40;,
    3;40, 41, 42;,
    3;41, 43, 42;,
    3;44, 22, 45;,
    3;22, 24, 45;,
    3;44, 45, 41;,
    3;45, 43, 41;,
    3;46, 47, 48;,
    3;47, 49, 48;,
    3;50, 51, 52;,
    3;51, 53, 52;,
    3;54, 55, 56;,
    3;55, 57, 56;,
    3;58, 38, 59;,
    3;38, 40, 59;,
    3;53, 60, 52;,
    3;60, 61, 52;,
    3;50, 57, 51;,
    3;57, 55, 51;,
    3;52, 61, 50;,
    3;61, 57, 50;,
    3;62, 18, 63;,
    3;18, 20, 63;,
    3;62, 63, 1;,
    3;63, 3, 1;,
    3;64, 65, 66;,
    3;65, 67, 66;,
    3;68, 69, 70;,
    3;69, 71, 70;,
    3;72, 65, 73;,
    3;65, 64, 73;,
    3;74, 19, 75;,
    3;19, 17, 75;,
    3;69, 76, 71;,
    3;76, 77, 71;,
    3;70, 78, 68;,
    3;78, 79, 68;,
    3;80, 81, 82;,
    3;81, 83, 82;,
    3;84, 85, 86;,
    3;85, 87, 86;,
    3;88, 89, 90;,
    3;89, 91, 90;,
    3;89, 92, 91;,
    3;92, 93, 91;,
    3;92, 94, 93;,
    3;94, 95, 93;,
    3;94, 96, 95;,
    3;96, 97, 95;,
    3;96, 98, 97;,
    3;98, 99, 97;,
    3;98, 100, 99;,
    3;100, 101, 99;,
    3;102, 103, 104;,
    3;103, 105, 104;,
    3;106, 102, 107;,
    3;102, 104, 107;,
    3;108, 106, 109;,
    3;106, 107, 109;,
    3;110, 108, 111;,
    3;108, 109, 111;,
    3;112, 110, 113;,
    3;110, 111, 113;,
    3;114, 115, 105;,
    3;115, 116, 105;,
    3;117, 118, 119;,
    3;118, 120, 119;,
    3;121, 117, 122;,
    3;117, 119, 122;,
    3;123, 124, 125;,
    3;124, 126, 125;,
    3;127, 123, 128;,
    3;123, 125, 128;,
    3;129, 127, 130;,
    3;127, 128, 130;,
    3;131, 129, 132;,
    3;129, 130, 132;,
    3;133, 131, 134;,
    3;131, 132, 134;,
    3;135, 136, 137;,
    3;136, 138, 137;,
    3;136, 139, 138;,
    3;139, 140, 138;,
    3;139, 141, 140;,
    3;141, 142, 140;,
    3;141, 143, 142;,
    3;143, 144, 142;,
    3;143, 145, 144;,
    3;145, 146, 144;,
    3;147, 148, 123;,
    3;148, 124, 123;,
    3;149, 147, 127;,
    3;147, 123, 127;,
    3;150, 149, 129;,
    3;149, 127, 129;,
    3;151, 150, 131;,
    3;150, 129, 131;,
    3;152, 151, 133;,
    3;151, 131, 133;,
    3;153, 154, 155;,
    3;154, 156, 155;,
    3;157, 158, 159;,
    3;158, 160, 159;,
    3;161, 157, 162;,
    3;157, 159, 162;,
    3;163, 161, 164;,
    3;161, 162, 164;,
    3;165, 166, 167;,
    3;166, 168, 167;,
    3;169, 165, 170;,
    3;165, 167, 170;,
    3;171, 169, 172;,
    3;169, 170, 172;,
    3;173, 171, 174;,
    3;171, 172, 174;,
    3;161, 163, 175;,
    3;163, 176, 175;,
    3;177, 178, 179;,
    3;178, 180, 179;,
    3;178, 181, 180;,
    3;181, 182, 180;,
    3;181, 183, 182;,
    3;183, 184, 182;,
    3;183, 185, 184;,
    3;185, 186, 184;,
    3;157, 161, 158;,
    3;161, 175, 158;,
    3;187, 188, 189;,
    3;188, 190, 189;,
    3;188, 191, 190;,
    3;191, 192, 190;,
    3;193, 194, 195;,
    3;194, 196, 195;,
    3;194, 197, 196;,
    3;197, 198, 196;,
    3;197, 199, 198;,
    3;199, 200, 198;,
    3;199, 201, 200;,
    3;201, 202, 200;,
    3;201, 203, 202;,
    3;203, 204, 202;,
    3;205, 206, 176;,
    3;206, 175, 176;,
    3;207, 208, 180;,
    3;208, 179, 180;,
    3;209, 207, 182;,
    3;207, 180, 182;,
    3;210, 209, 184;,
    3;209, 182, 184;,
    3;211, 210, 186;,
    3;210, 184, 186;,
    3;212, 213, 193;,
    3;213, 194, 193;,
    3;213, 214, 194;,
    3;214, 197, 194;,
    3;214, 215, 197;,
    3;215, 199, 197;,
    3;215, 216, 199;,
    3;216, 201, 199;,
    3;216, 217, 201;,
    3;217, 203, 201;,
    3;191, 188, 218;,
    3;188, 187, 218;,
    3;219, 220, 221;,
    3;220, 222, 221;,
    3;223, 224, 158;,
    3;224, 160, 158;,
    3;60, 220, 61;,
    3;220, 219, 61;,
    3;225, 223, 175;,
    3;223, 158, 175;,
    3;226, 227, 228;,
    3;227, 229, 228;,
    3;230, 225, 206;,
    3;225, 175, 206;,
    3;226, 231, 227;,
    3;231, 232, 227;,
    3;233, 84, 234;,
    3;84, 86, 234;,
    3;233, 234, 235;,
    3;234, 236, 235;,
    3;237, 238, 239;,
    3;238, 240, 239;,
    3;239, 240, 116;,
    3;240, 105, 116;,
    3;64, 66, 241;,
    3;66, 242, 241;,
    3;243, 135, 244;,
    3;135, 137, 244;,
    3;73, 64, 245;,
    3;64, 241, 245;;

   MeshNormals {
    246;
    -0.706480; 0.707733; 0.000000;,
    -1.000000; 0.000000; 0.000000;,
    -0.706480; 0.707733; 0.000000;,
    -1.000000; 0.000000; 0.000000;,
    -0.466513; 0.884514; 0.000000;,
    -0.466513; 0.884514; 0.000000;,
    -0.749268; 0.662267; 0.000000;,
    -0.749268; 0.662267; 0.000000;,
    -0.598943; 0.800791; 0.000000;,
    -0.598943; 0.800791; 0.000000;,
    -0.438770; 0.898599; 0.000000;,
    -0.438770; 0.898599; 0.000000;,
    -0.235464; 0.971883; 0.000000;,
    -0.235464; 0.971883; 0.000000;,
    -0.129480; 0.991582; 0.000000;,
    -0.129480; 0.991582; 0.000000;,
    0.000000; -1.000000; 0.000000;,
    0.002748; -0.999996; 0.000000;,
    -0.707107; -0.707107; 0.000000;,
    0.002748; -0.999996; 0.000000;,
    -0.707107; -0.707107; 0.000000;,
    0.000000; -1.000000; 0.000000;,
    1.000000; 0.000000; 0.000000;,
    0.706538; 0.707675; 0.000000;,
    1.000000; 0.000000; 0.000000;,
    0.706538; 0.707675; 0.000000;,
    0.466585; 0.884476; 0.000000;,
    0.466585; 0.884476; 0.000000;,
    0.749268; 0.662267; 0.000000;,
    0.749268; 0.662267; 0.000000;,
    0.598902; 0.800822; 0.000000;,
    0.598902; 0.800822; 0.000000;,
    0.438758; 0.898605; 0.000000;,
    0.438758; 0.898605; 0.000000;,
    0.234793; 0.972045; 0.000000;,
    0.234793; 0.972045; 0.000000;,
    0.128036; 0.991770; 0.000000;,
    0.128036; 0.991770; 0.000000;,
    -0.002012; -0.999998; 0.000000;,
    0.000000; -1.000000; 0.000000;,
    -0.002012; -0.999998; 0.000000;,
    0.707107; -0.707107; 0.000000;,
    0.000000; -1.000000; 0.000000;,
    0.707107; -0.707107; 0.000000;,
    1.000000; 0.000000; 0.000000;,
    1.000000; 0.000000; 0.000000;,
    0.000000; 0.000000; -1.000000;,
    0.000000; 0.000000; -1.000000;,
    0.000000; 0.000000; -1.000000;,
    0.000000; 0.000000; -1.000000;,
    -0.829320; 0.303940; -0.468880;,
    -0.707080; 0.006146; -0.707107;,
    -0.829320; 0.303940; 0.468880;,
    -0.707080; 0.006146; 0.707107;,
    -0.707104; 0.002905; -0.707104;,
    -0.382682; 0.001572; -0.923879;,
    -0.707104; 0.002905; -0.707104;,
    -0.629019; 0.273809; -0.727573;,
    -0.004024; -0.999992; 0.000000;,
    -0.004024; -0.999992; 0.000000;,
    -0.382683; 0.001275; 0.923879;,
    -0.629060; 0.273593; 0.727620;,
    -1.000000; 0.000000; 0.000000;,
    -1.000000; 0.000000; 0.000000;,
    0.383341; 0.001301; -0.923606;,
    0.382683; 0.001253; -0.923879;,
    0.000000; 0.000000; -1.000000;,
    0.000000; 0.000000; -1.000000;,
    0.707087; 0.005314; -0.707107;,
    0.707087; 0.005314; 0.707107;,
    0.707087; 0.005314; -0.707107;,
    0.707087; 0.005314; 0.707107;,
    0.707105; 0.002315; -0.707105;,
    0.708112; 0.002402; -0.706096;,
    0.005497; -0.999985; 0.000000;,
    0.005497; -0.999985; 0.000000;,
    0.000000; 0.000000; 1.000000;,
    0.000000; 0.000000; 1.000000;,
    0.000000; 0.000000; -1.000000;,
    0.000000; 0.000000; -1.000000;,
    0.764138; 0.645053; 0.000000;,
    0.764138; 0.645053; 0.000000;,
    0.764138; 0.645053; 0.000000;,
    0.764138; 0.645053; 0.000000;,
    0.000000; 0.000000; 1.000000;,
    0.000000; 0.000000; 1.000000;,
    0.000000; 0.000000; 1.000000;,
    0.000000; 0.000000; 1.000000;,
    0.000000; 0.000000; 1.000000;,
    0.000000; 0.000000; 1.000000;,
    0.000000; 0.000000; 1.000000;,
    0.000000; 0.000000; 1.000000;,
    0.000000; 0.000000; 1.000000;,
    0.000000; 0.000000; 1.000000;,
    0.000000; 0.000000; 1.000000;,
    0.000000; 0.000000; 1.000000;,
    0.000000; 0.000000; 1.000000;,
    0.000000; 0.000000; 1.000000;,
    0.000000; 0.000000; 1.000000;,
    0.000000; 0.000000; 1.000000;,
    0.000000; 0.000000; 1.000000;,
    0.000000; 0.000000; 1.000000;,
    0.552447; -0.474735; 0.685149;,
    0.629598; -0.412102; 0.658619;,
    0.552447; -0.474735; 0.685149;,
    0.487100; -0.148956; 0.860549;,
    0.423292; -0.567921; 0.705896;,
    0.423292; -0.567921; 0.705896;,
    0.309241; -0.636465; 0.706600;,
    0.309241; -0.636465; 0.706600;,
    0.172962; -0.686863; 0.705906;,
    0.172962; -0.686863; 0.705906;,
    0.104015; -0.702516; 0.704026;,
    0.104015; -0.702516; 0.704026;,
    0.000000; 0.000000; 1.000000;,
    0.000000; 0.000000; 1.000000;,
    0.383674; 0.001555; 0.923467;,
    0.000000; 0.000000; -1.000000;,
    0.000000; 0.000000; -1.000000;,
    0.000000; 0.000000; -1.000000;,
    0.000000; 0.000000; -1.000000;,
    0.000000; 0.000000; -1.000000;,
    0.000000; 0.000000; -1.000000;,
    0.296997; -0.260598; -0.918630;,
    0.339732; -0.231549; -0.911574;,
    0.000000; 0.000000; -1.000000;,
    0.000000; 0.000000; -1.000000;,
    0.228814; -0.307415; -0.923656;,
    0.000000; 0.000000; -1.000000;,
    0.167004; -0.344241; -0.923909;,
    0.000000; 0.000000; -1.000000;,
    0.093443; -0.371614; -0.923673;,
    -0.001465; -0.000425; -0.999999;,
    0.056430; -0.380709; -0.922971;,
    -0.002930; -0.000851; -0.999995;,
    0.956191; -0.292744; 0.000000;,
    0.749397; -0.662121; 0.000000;,
    0.956191; -0.292744; 0.000000;,
    0.749397; -0.662121; 0.000000;,
    0.597060; -0.802197; 0.000000;,
    0.597060; -0.802197; 0.000000;,
    0.436538; -0.899686; 0.000000;,
    0.436538; -0.899686; 0.000000;,
    0.245947; -0.969283; 0.000000;,
    0.245947; -0.969283; 0.000000;,
    0.150832; -0.988559; 0.000000;,
    0.150832; -0.988559; 0.000000;,
    0.546687; -0.479686; -0.686320;,
    0.619382; -0.422148; -0.661934;,
    0.422986; -0.568288; -0.705785;,
    0.308956; -0.636842; -0.706384;,
    0.174263; -0.686763; -0.705683;,
    0.107115; -0.702034; -0.704042;,
    0.418368; -0.574791; -0.703266;,
    0.418368; -0.574791; -0.703266;,
    0.418368; -0.574791; -0.703266;,
    0.418368; -0.574791; -0.703266;,
    -0.149877; -0.205327; 0.967149;,
    -0.310373; -0.157241; 0.937520;,
    0.000000; 0.000000; 1.000000;,
    0.000000; 0.000000; 1.000000;,
    -0.275229; -0.261540; 0.925119;,
    0.000000; 0.000000; 1.000000;,
    -0.322166; -0.210877; 0.922898;,
    0.000000; 0.000000; 1.000000;,
    0.000000; 0.000000; 1.000000;,
    0.000000; 0.000000; 1.000000;,
    0.000000; 0.000000; 1.000000;,
    0.000000; 0.000000; 1.000000;,
    0.000000; 0.000000; 1.000000;,
    0.000000; 0.000000; 1.000000;,
    0.000000; 0.000000; 1.000000;,
    0.000000; 0.000000; 1.000000;,
    0.000000; 0.000000; 1.000000;,
    0.000000; 0.000000; 1.000000;,
    -0.806493; -0.345398; 0.479864;,
    -0.768244; -0.514925; 0.380333;,
    -0.467831; -0.530500; 0.706898;,
    -0.422222; -0.566658; 0.707550;,
    -0.610619; -0.693399; 0.382547;,
    -0.551596; -0.740832; 0.383289;,
    -0.308596; -0.634969; 0.708226;,
    -0.403325; -0.830604; 0.383961;,
    -0.172555; -0.690385; 0.702562;,
    -0.225589; -0.896996; 0.380142;,
    -0.103928; -0.711680; 0.694774;,
    -0.136247; -0.917088; 0.374682;,
    0.000000; 0.000000; -1.000000;,
    0.000000; 0.000000; -1.000000;,
    0.000000; 0.000000; -1.000000;,
    0.000000; 0.000000; -1.000000;,
    0.000000; 0.000000; -1.000000;,
    0.000000; 0.000000; -1.000000;,
    -0.317644; -0.216495; -0.923164;,
    -0.285561; -0.252256; -0.924566;,
    0.000000; 0.000000; -1.000000;,
    0.000000; 0.000000; -1.000000;,
    -0.228146; -0.306630; -0.924082;,
    0.000000; 0.000000; -1.000000;,
    -0.166655; -0.343368; -0.924297;,
    0.000000; 0.000000; -1.000000;,
    -0.089956; -0.354347; -0.930777;,
    0.002093; 0.002272; -0.999995;,
    -0.050397; -0.347578; -0.936296;,
    0.004186; 0.004543; -0.999981;,
    -0.826325; -0.563193; 0.000000;,
    -0.956183; -0.292769; 0.000000;,
    -0.597007; -0.802236; 0.000000;,
    -0.660515; -0.750813; 0.000000;,
    -0.436589; -0.899661; 0.000000;,
    -0.244909; -0.969546; 0.000000;,
    -0.148715; -0.988880; 0.000000;,
    -0.586475; -0.399720; -0.704465;,
    -0.528908; -0.467220; -0.708493;,
    -0.421944; -0.567096; -0.707365;,
    -0.308440; -0.635493; -0.707823;,
    -0.169572; -0.661976; -0.730092;,
    -0.098377; -0.654159; -0.749932;,
    0.000000; 0.000000; -1.000000;,
    -0.382683; 0.001275; 0.923879;,
    -0.382683; 0.001275; 0.923879;,
    0.000000; 0.000000; 1.000000;,
    0.000000; 0.000000; 1.000000;,
    -0.384184; 0.001256; 0.923256;,
    0.000000; 0.000000; 1.000000;,
    -0.924495; 0.003419; 0.381180;,
    -0.384676; 0.001540; -0.923050;,
    -0.384676; 0.001540; -0.923050;,
    0.000000; 0.000000; -1.000000;,
    0.000000; 0.000000; -1.000000;,
    -0.999992; 0.004002; 0.000000;,
    -0.710151; 0.002842; -0.704044;,
    -0.710151; 0.002842; -0.704044;,
    0.000000; 0.000000; 1.000000;,
    0.000000; 0.000000; 1.000000;,
    0.000000; 0.000000; 1.000000;,
    0.000000; 0.000000; 1.000000;,
    0.707086; 0.002700; 0.707123;,
    0.707086; 0.002700; 0.707123;,
    0.707854; 0.002787; 0.706353;,
    0.707854; 0.002787; 0.706353;,
    0.383999; 0.001348; -0.923332;,
    0.000000; 0.000000; -1.000000;,
    0.999992; 0.004054; 0.000000;,
    0.999992; 0.004054; 0.000000;,
    0.709118; 0.002490; -0.705085;;
    224;
    3;0, 1, 2;,
    3;1, 3, 2;,
    3;4, 0, 5;,
    3;0, 2, 5;,
    3;6, 4, 7;,
    3;4, 5, 7;,
    3;8, 6, 9;,
    3;6, 7, 9;,
    3;10, 8, 11;,
    3;8, 9, 11;,
    3;12, 10, 13;,
    3;10, 11, 13;,
    3;14, 12, 15;,
    3;12, 13, 15;,
    3;16, 17, 18;,
    3;17, 19, 18;,
    3;18, 19, 20;,
    3;19, 21, 20;,
    3;22, 23, 24;,
    3;23, 25, 24;,
    3;23, 26, 25;,
    3;26, 27, 25;,
    3;26, 28, 27;,
    3;28, 29, 27;,
    3;28, 30, 29;,
    3;30, 31, 29;,
    3;30, 32, 31;,
    3;32, 33, 31;,
    3;32, 34, 33;,
    3;34, 35, 33;,
    3;34, 36, 35;,
    3;36, 37, 35;,
    3;38, 39, 40;,
    3;39, 41, 40;,
    3;40, 41, 42;,
    3;41, 43, 42;,
    3;44, 22, 45;,
    3;22, 24, 45;,
    3;44, 45, 41;,
    3;45, 43, 41;,
    3;46, 47, 48;,
    3;47, 49, 48;,
    3;50, 51, 52;,
    3;51, 53, 52;,
    3;54, 55, 56;,
    3;55, 57, 56;,
    3;58, 38, 59;,
    3;38, 40, 59;,
    3;53, 60, 52;,
    3;60, 61, 52;,
    3;50, 57, 51;,
    3;57, 55, 51;,
    3;52, 61, 50;,
    3;61, 57, 50;,
    3;62, 18, 63;,
    3;18, 20, 63;,
    3;62, 63, 1;,
    3;63, 3, 1;,
    3;64, 65, 66;,
    3;65, 67, 66;,
    3;68, 69, 70;,
    3;69, 71, 70;,
    3;72, 65, 73;,
    3;65, 64, 73;,
    3;74, 19, 75;,
    3;19, 17, 75;,
    3;69, 76, 71;,
    3;76, 77, 71;,
    3;70, 78, 68;,
    3;78, 79, 68;,
    3;80, 81, 82;,
    3;81, 83, 82;,
    3;84, 85, 86;,
    3;85, 87, 86;,
    3;88, 89, 90;,
    3;89, 91, 90;,
    3;89, 92, 91;,
    3;92, 93, 91;,
    3;92, 94, 93;,
    3;94, 95, 93;,
    3;94, 96, 95;,
    3;96, 97, 95;,
    3;96, 98, 97;,
    3;98, 99, 97;,
    3;98, 100, 99;,
    3;100, 101, 99;,
    3;102, 103, 104;,
    3;103, 105, 104;,
    3;106, 102, 107;,
    3;102, 104, 107;,
    3;108, 106, 109;,
    3;106, 107, 109;,
    3;110, 108, 111;,
    3;108, 109, 111;,
    3;112, 110, 113;,
    3;110, 111, 113;,
    3;114, 115, 105;,
    3;115, 116, 105;,
    3;117, 118, 119;,
    3;118, 120, 119;,
    3;121, 117, 122;,
    3;117, 119, 122;,
    3;123, 124, 125;,
    3;124, 126, 125;,
    3;127, 123, 128;,
    3;123, 125, 128;,
    3;129, 127, 130;,
    3;127, 128, 130;,
    3;131, 129, 132;,
    3;129, 130, 132;,
    3;133, 131, 134;,
    3;131, 132, 134;,
    3;135, 136, 137;,
    3;136, 138, 137;,
    3;136, 139, 138;,
    3;139, 140, 138;,
    3;139, 141, 140;,
    3;141, 142, 140;,
    3;141, 143, 142;,
    3;143, 144, 142;,
    3;143, 145, 144;,
    3;145, 146, 144;,
    3;147, 148, 123;,
    3;148, 124, 123;,
    3;149, 147, 127;,
    3;147, 123, 127;,
    3;150, 149, 129;,
    3;149, 127, 129;,
    3;151, 150, 131;,
    3;150, 129, 131;,
    3;152, 151, 133;,
    3;151, 131, 133;,
    3;153, 154, 155;,
    3;154, 156, 155;,
    3;157, 158, 159;,
    3;158, 160, 159;,
    3;161, 157, 162;,
    3;157, 159, 162;,
    3;163, 161, 164;,
    3;161, 162, 164;,
    3;165, 166, 167;,
    3;166, 168, 167;,
    3;169, 165, 170;,
    3;165, 167, 170;,
    3;171, 169, 172;,
    3;169, 170, 172;,
    3;173, 171, 174;,
    3;171, 172, 174;,
    3;161, 163, 175;,
    3;163, 176, 175;,
    3;177, 178, 179;,
    3;178, 180, 179;,
    3;178, 181, 180;,
    3;181, 182, 180;,
    3;181, 183, 182;,
    3;183, 184, 182;,
    3;183, 185, 184;,
    3;185, 186, 184;,
    3;157, 161, 158;,
    3;161, 175, 158;,
    3;187, 188, 189;,
    3;188, 190, 189;,
    3;188, 191, 190;,
    3;191, 192, 190;,
    3;193, 194, 195;,
    3;194, 196, 195;,
    3;194, 197, 196;,
    3;197, 198, 196;,
    3;197, 199, 198;,
    3;199, 200, 198;,
    3;199, 201, 200;,
    3;201, 202, 200;,
    3;201, 203, 202;,
    3;203, 204, 202;,
    3;205, 206, 176;,
    3;206, 175, 176;,
    3;207, 208, 180;,
    3;208, 179, 180;,
    3;209, 207, 182;,
    3;207, 180, 182;,
    3;210, 209, 184;,
    3;209, 182, 184;,
    3;211, 210, 186;,
    3;210, 184, 186;,
    3;212, 213, 193;,
    3;213, 194, 193;,
    3;213, 214, 194;,
    3;214, 197, 194;,
    3;214, 215, 197;,
    3;215, 199, 197;,
    3;215, 216, 199;,
    3;216, 201, 199;,
    3;216, 217, 201;,
    3;217, 203, 201;,
    3;191, 188, 218;,
    3;188, 187, 218;,
    3;219, 220, 221;,
    3;220, 222, 221;,
    3;223, 224, 158;,
    3;224, 160, 158;,
    3;60, 220, 61;,
    3;220, 219, 61;,
    3;225, 223, 175;,
    3;223, 158, 175;,
    3;226, 227, 228;,
    3;227, 229, 228;,
    3;230, 225, 206;,
    3;225, 175, 206;,
    3;226, 231, 227;,
    3;231, 232, 227;,
    3;233, 84, 234;,
    3;84, 86, 234;,
    3;233, 234, 235;,
    3;234, 236, 235;,
    3;237, 238, 239;,
    3;238, 240, 239;,
    3;239, 240, 116;,
    3;240, 105, 116;,
    3;64, 66, 241;,
    3;66, 242, 241;,
    3;243, 135, 244;,
    3;135, 137, 244;,
    3;73, 64, 245;,
    3;64, 241, 245;;
   }

   MeshTextureCoords {
    246;
    0.309606; 0.203518;,
    0.309606; 0.229813;,
    0.358871; 0.203518;,
    0.358871; 0.229813;,
    0.309606; 0.191053;,
    0.358871; 0.191053;,
    0.309606; 0.176713;,
    0.358871; 0.176713;,
    0.309606; 0.151766;,
    0.358871; 0.151766;,
    0.309606; 0.111000;,
    0.358871; 0.111000;,
    0.309606; 0.076711;,
    0.358871; 0.076711;,
    0.309606; 0.049683;,
    0.358871; 0.049683;,
    0.309606; 0.443194;,
    0.312183; 0.445968;,
    0.309606; 0.421950;,
    0.355452; 0.445968;,
    0.358871; 0.421950;,
    0.358871; 0.442288;,
    0.309607; 0.245570;,
    0.309607; 0.219277;,
    0.358871; 0.245570;,
    0.358871; 0.219277;,
    0.309607; 0.205549;,
    0.358871; 0.205549;,
    0.309607; 0.191209;,
    0.358871; 0.191209;,
    0.309607; 0.166262;,
    0.358871; 0.166262;,
    0.309607; 0.125490;,
    0.358871; 0.125490;,
    0.309607; 0.091208;,
    0.358871; 0.091208;,
    0.309606; 0.063876;,
    0.358871; 0.063876;,
    0.312183; 0.462987;,
    0.309607; 0.460213;,
    0.355452; 0.462987;,
    0.309607; 0.437707;,
    0.358871; 0.459307;,
    0.358871; 0.437707;,
    0.309607; 0.406983;,
    0.358871; 0.406983;,
    0.069759; 0.321421;,
    0.069760; 0.361703;,
    0.019152; 0.321205;,
    0.019152; 0.361703;,
    0.043156; 0.289529;,
    0.019241; 0.289359;,
    0.043156; 0.194312;,
    0.019241; 0.194483;,
    0.019152; 0.319955;,
    0.019152; 0.313128;,
    0.069759; 0.320171;,
    0.069759; 0.313394;,
    0.312183; 0.476423;,
    0.355452; 0.476423;,
    0.019152; 0.170183;,
    0.069759; 0.169908;,
    0.309606; 0.393033;,
    0.358871; 0.393033;,
    0.301594; 0.496703;,
    0.301449; 0.540513;,
    0.333636; 0.496703;,
    0.333636; 0.540513;,
    0.051251; 0.413106;,
    0.051251; 0.284102;,
    0.010623; 0.413106;,
    0.010623; 0.284102;,
    0.297248; 0.540513;,
    0.297415; 0.496703;,
    0.355452; 0.457938;,
    0.312183; 0.457938;,
    0.090771; 0.251251;,
    0.010690; 0.250954;,
    0.010690; 0.446254;,
    0.090771; 0.445957;,
    0.051815; 0.413202;,
    0.091251; 0.413202;,
    0.051815; 0.283659;,
    0.091251; 0.283659;,
    0.050714; 0.252315;,
    0.051866; 0.247888;,
    0.026877; 0.258176;,
    0.026877; 0.226338;,
    0.054961; 0.224810;,
    0.054961; 0.196193;,
    0.026345; 0.224810;,
    0.026345; 0.196193;,
    0.054961; 0.167576;,
    0.026345; 0.167576;,
    0.054961; 0.138959;,
    0.026345; 0.138959;,
    0.054961; 0.110343;,
    0.026345; 0.110343;,
    0.054961; 0.081726;,
    0.026345; 0.081726;,
    0.054961; 0.033218;,
    0.026345; 0.053110;,
    0.053964; 0.167972;,
    0.053964; 0.196518;,
    0.067582; 0.167972;,
    0.067582; 0.196518;,
    0.053964; 0.139426;,
    0.067582; 0.139426;,
    0.053964; 0.110880;,
    0.067582; 0.110880;,
    0.053964; 0.082333;,
    0.067582; 0.082333;,
    0.053964; 0.033895;,
    0.067582; 0.033895;,
    0.067582; 0.167972;,
    0.053964; 0.167972;,
    0.053964; 0.196518;,
    0.293706; 0.269900;,
    0.296115; 0.274075;,
    0.365177; 0.241942;,
    0.365177; 0.281797;,
    0.291517; 0.269178;,
    0.359087; 0.228135;,
    0.304698; 0.193076;,
    0.303069; 0.223764;,
    0.359781; 0.198918;,
    0.357642; 0.219377;,
    0.305757; 0.160278;,
    0.364950; 0.161272;,
    0.305050; 0.103508;,
    0.364780; 0.103678;,
    0.305347; 0.055813;,
    0.364597; 0.056378;,
    0.308555; 0.018461;,
    0.365162; 0.019533;,
    0.068124; 0.196518;,
    0.068124; 0.167972;,
    0.026566; 0.196518;,
    0.026566; 0.167972;,
    0.068124; 0.139426;,
    0.026566; 0.139426;,
    0.068124; 0.110880;,
    0.026566; 0.110880;,
    0.068124; 0.082333;,
    0.026566; 0.082333;,
    0.068576; 0.032991;,
    0.026566; 0.033895;,
    0.295605; 0.192163;,
    0.293849; 0.224363;,
    0.296447; 0.160122;,
    0.295736; 0.103482;,
    0.296034; 0.055725;,
    0.298410; 0.020584;,
    0.235350; 0.218010;,
    0.235356; 0.216651;,
    0.229397; 0.221714;,
    0.226317; 0.217317;,
    0.342748; 0.195930;,
    0.342519; 0.201798;,
    0.365165; 0.172858;,
    0.364235; 0.209158;,
    0.342152; 0.193577;,
    0.353263; 0.173656;,
    0.340394; 0.161945;,
    0.351721; 0.158199;,
    0.340390; 0.131110;,
    0.340600; 0.161867;,
    0.351698; 0.131110;,
    0.351698; 0.157891;,
    0.340390; 0.101819;,
    0.351698; 0.101819;,
    0.340390; 0.072527;,
    0.351698; 0.072527;,
    0.340390; 0.050709;,
    0.351697; 0.050709;,
    0.337172; 0.200193;,
    0.331898; 0.161047;,
    0.340708; 0.161655;,
    0.340499; 0.130686;,
    0.331879; 0.161027;,
    0.330623; 0.130686;,
    0.340499; 0.101182;,
    0.330623; 0.101182;,
    0.340499; 0.072612;,
    0.330623; 0.072612;,
    0.340499; 0.050582;,
    0.330623; 0.050582;,
    0.361851; 0.207574;,
    0.344249; 0.203763;,
    0.341309; 0.247704;,
    0.284070; 0.225304;,
    0.343942; 0.202276;,
    0.299100; 0.202514;,
    0.343644; 0.202289;,
    0.343644; 0.167761;,
    0.299132; 0.202289;,
    0.299132; 0.167761;,
    0.343644; 0.133233;,
    0.299132; 0.133233;,
    0.343644; 0.098705;,
    0.299132; 0.098705;,
    0.343644; 0.064177;,
    0.299132; 0.064177;,
    0.343644; 0.029649;,
    0.299132; 0.029649;,
    0.289030; 0.164454;,
    0.288830; 0.200108;,
    0.287507; 0.130686;,
    0.288972; 0.164166;,
    0.287507; 0.101182;,
    0.287507; 0.072612;,
    0.287507; 0.050582;,
    0.363312; 0.202289;,
    0.363312; 0.167761;,
    0.363312; 0.133233;,
    0.363312; 0.098705;,
    0.363312; 0.064177;,
    0.363312; 0.029649;,
    0.363090; 0.202493;,
    0.069759; 0.160815;,
    0.019152; 0.161021;,
    0.069760; 0.122356;,
    0.019152; 0.122356;,
    0.342259; 0.454177;,
    0.364571; 0.454117;,
    0.336878; 0.454182;,
    0.348754; 0.487076;,
    0.348754; 0.254678;,
    0.295552; 0.487077;,
    0.295552; 0.254678;,
    0.288534; 0.454062;,
    0.362173; 0.487076;,
    0.362173; 0.254678;,
    0.051391; 0.455812;,
    0.026877; 0.455811;,
    0.051500; 0.490824;,
    0.026877; 0.490824;,
    0.053964; 0.484277;,
    0.067582; 0.484277;,
    0.053964; 0.455730;,
    0.067582; 0.455730;,
    0.302489; 0.241692;,
    0.333636; 0.249410;,
    0.068124; 0.455730;,
    0.026566; 0.455730;,
    0.298456; 0.240513;;
   }

   MeshVertexColors {
    246;
    0; 1.000000; 1.000000; 1.000000; 1.000000;,
    1; 1.000000; 1.000000; 1.000000; 1.000000;,
    2; 1.000000; 1.000000; 1.000000; 1.000000;,
    3; 1.000000; 1.000000; 1.000000; 1.000000;,
    4; 1.000000; 1.000000; 1.000000; 1.000000;,
    5; 1.000000; 1.000000; 1.000000; 1.000000;,
    6; 1.000000; 1.000000; 1.000000; 1.000000;,
    7; 1.000000; 1.000000; 1.000000; 1.000000;,
    8; 1.000000; 1.000000; 1.000000; 1.000000;,
    9; 1.000000; 1.000000; 1.000000; 1.000000;,
    10; 1.000000; 1.000000; 1.000000; 1.000000;,
    11; 1.000000; 1.000000; 1.000000; 1.000000;,
    12; 1.000000; 1.000000; 1.000000; 1.000000;,
    13; 1.000000; 1.000000; 1.000000; 1.000000;,
    14; 1.000000; 1.000000; 1.000000; 1.000000;,
    15; 1.000000; 1.000000; 1.000000; 1.000000;,
    16; 1.000000; 1.000000; 1.000000; 1.000000;,
    17; 1.000000; 1.000000; 1.000000; 1.000000;,
    18; 1.000000; 1.000000; 1.000000; 1.000000;,
    19; 1.000000; 1.000000; 1.000000; 1.000000;,
    20; 1.000000; 1.000000; 1.000000; 1.000000;,
    21; 1.000000; 1.000000; 1.000000; 1.000000;,
    22; 1.000000; 1.000000; 1.000000; 1.000000;,
    23; 1.000000; 1.000000; 1.000000; 1.000000;,
    24; 1.000000; 1.000000; 1.000000; 1.000000;,
    25; 1.000000; 1.000000; 1.000000; 1.000000;,
    26; 1.000000; 1.000000; 1.000000; 1.000000;,
    27; 1.000000; 1.000000; 1.000000; 1.000000;,
    28; 1.000000; 1.000000; 1.000000; 1.000000;,
    29; 1.000000; 1.000000; 1.000000; 1.000000;,
    30; 1.000000; 1.000000; 1.000000; 1.000000;,
    31; 1.000000; 1.000000; 1.000000; 1.000000;,
    32; 1.000000; 1.000000; 1.000000; 1.000000;,
    33; 1.000000; 1.000000; 1.000000; 1.000000;,
    34; 1.000000; 1.000000; 1.000000; 1.000000;,
    35; 1.000000; 1.000000; 1.000000; 1.000000;,
    36; 1.000000; 1.000000; 1.000000; 1.000000;,
    37; 1.000000; 1.000000; 1.000000; 1.000000;,
    38; 1.000000; 1.000000; 1.000000; 1.000000;,
    39; 1.000000; 1.000000; 1.000000; 1.000000;,
    40; 1.000000; 1.000000; 1.000000; 1.000000;,
    41; 1.000000; 1.000000; 1.000000; 1.000000;,
    42; 1.000000; 1.000000; 1.000000; 1.000000;,
    43; 1.000000; 1.000000; 1.000000; 1.000000;,
    44; 1.000000; 1.000000; 1.000000; 1.000000;,
    45; 1.000000; 1.000000; 1.000000; 1.000000;,
    46; 1.000000; 1.000000; 1.000000; 1.000000;,
    47; 1.000000; 1.000000; 1.000000; 1.000000;,
    48; 1.000000; 1.000000; 1.000000; 1.000000;,
    49; 1.000000; 1.000000; 1.000000; 1.000000;,
    50; 1.000000; 1.000000; 1.000000; 1.000000;,
    51; 1.000000; 1.000000; 1.000000; 1.000000;,
    52; 1.000000; 1.000000; 1.000000; 1.000000;,
    53; 1.000000; 1.000000; 1.000000; 1.000000;,
    54; 1.000000; 1.000000; 1.000000; 1.000000;,
    55; 1.000000; 1.000000; 1.000000; 1.000000;,
    56; 1.000000; 1.000000; 1.000000; 1.000000;,
    57; 1.000000; 1.000000; 1.000000; 1.000000;,
    58; 1.000000; 1.000000; 1.000000; 1.000000;,
    59; 1.000000; 1.000000; 1.000000; 1.000000;,
    60; 1.000000; 1.000000; 1.000000; 1.000000;,
    61; 1.000000; 1.000000; 1.000000; 1.000000;,
    62; 1.000000; 1.000000; 1.000000; 1.000000;,
    63; 1.000000; 1.000000; 1.000000; 1.000000;,
    64; 1.000000; 1.000000; 1.000000; 1.000000;,
    65; 1.000000; 1.000000; 1.000000; 1.000000;,
    66; 1.000000; 1.000000; 1.000000; 1.000000;,
    67; 1.000000; 1.000000; 1.000000; 1.000000;,
    68; 1.000000; 1.000000; 1.000000; 1.000000;,
    69; 1.000000; 1.000000; 1.000000; 1.000000;,
    70; 1.000000; 1.000000; 1.000000; 1.000000;,
    71; 1.000000; 1.000000; 1.000000; 1.000000;,
    72; 1.000000; 1.000000; 1.000000; 1.000000;,
    73; 1.000000; 1.000000; 1.000000; 1.000000;,
    74; 1.000000; 1.000000; 1.000000; 1.000000;,
    75; 1.000000; 1.000000; 1.000000; 1.000000;,
    76; 1.000000; 1.000000; 1.000000; 1.000000;,
    77; 1.000000; 1.000000; 1.000000; 1.000000;,
    78; 1.000000; 1.000000; 1.000000; 1.000000;,
    79; 1.000000; 1.000000; 1.000000; 1.000000;,
    80; 1.000000; 1.000000; 1.000000; 1.000000;,
    81; 1.000000; 1.000000; 1.000000; 1.000000;,
    82; 1.000000; 1.000000; 1.000000; 1.000000;,
    83; 1.000000; 1.000000; 1.000000; 1.000000;,
    84; 1.000000; 1.000000; 1.000000; 1.000000;,
    85; 1.000000; 1.000000; 1.000000; 1.000000;,
    86; 1.000000; 1.000000; 1.000000; 1.000000;,
    87; 1.000000; 1.000000; 1.000000; 1.000000;,
    88; 1.000000; 1.000000; 1.000000; 1.000000;,
    89; 1.000000; 1.000000; 1.000000; 1.000000;,
    90; 1.000000; 1.000000; 1.000000; 1.000000;,
    91; 1.000000; 1.000000; 1.000000; 1.000000;,
    92; 1.000000; 1.000000; 1.000000; 1.000000;,
    93; 1.000000; 1.000000; 1.000000; 1.000000;,
    94; 1.000000; 1.000000; 1.000000; 1.000000;,
    95; 1.000000; 1.000000; 1.000000; 1.000000;,
    96; 1.000000; 1.000000; 1.000000; 1.000000;,
    97; 1.000000; 1.000000; 1.000000; 1.000000;,
    98; 1.000000; 1.000000; 1.000000; 1.000000;,
    99; 1.000000; 1.000000; 1.000000; 1.000000;,
    100; 1.000000; 1.000000; 1.000000; 1.000000;,
    101; 1.000000; 1.000000; 1.000000; 1.000000;,
    102; 1.000000; 1.000000; 1.000000; 1.000000;,
    103; 1.000000; 1.000000; 1.000000; 1.000000;,
    104; 1.000000; 1.000000; 1.000000; 1.000000;,
    105; 1.000000; 1.000000; 1.000000; 1.000000;,
    106; 1.000000; 1.000000; 1.000000; 1.000000;,
    107; 1.000000; 1.000000; 1.000000; 1.000000;,
    108; 1.000000; 1.000000; 1.000000; 1.000000;,
    109; 1.000000; 1.000000; 1.000000; 1.000000;,
    110; 1.000000; 1.000000; 1.000000; 1.000000;,
    111; 1.000000; 1.000000; 1.000000; 1.000000;,
    112; 1.000000; 1.000000; 1.000000; 1.000000;,
    113; 1.000000; 1.000000; 1.000000; 1.000000;,
    114; 1.000000; 1.000000; 1.000000; 1.000000;,
    115; 1.000000; 1.000000; 1.000000; 1.000000;,
    116; 1.000000; 1.000000; 1.000000; 1.000000;,
    117; 1.000000; 1.000000; 1.000000; 1.000000;,
    118; 1.000000; 1.000000; 1.000000; 1.000000;,
    119; 1.000000; 1.000000; 1.000000; 1.000000;,
    120; 1.000000; 1.000000; 1.000000; 1.000000;,
    121; 1.000000; 1.000000; 1.000000; 1.000000;,
    122; 1.000000; 1.000000; 1.000000; 1.000000;,
    123; 1.000000; 1.000000; 1.000000; 1.000000;,
    124; 1.000000; 1.000000; 1.000000; 1.000000;,
    125; 1.000000; 1.000000; 1.000000; 1.000000;,
    126; 1.000000; 1.000000; 1.000000; 1.000000;,
    127; 1.000000; 1.000000; 1.000000; 1.000000;,
    128; 1.000000; 1.000000; 1.000000; 1.000000;,
    129; 1.000000; 1.000000; 1.000000; 1.000000;,
    130; 1.000000; 1.000000; 1.000000; 1.000000;,
    131; 1.000000; 1.000000; 1.000000; 1.000000;,
    132; 1.000000; 1.000000; 1.000000; 1.000000;,
    133; 1.000000; 1.000000; 1.000000; 1.000000;,
    134; 1.000000; 1.000000; 1.000000; 1.000000;,
    135; 1.000000; 1.000000; 1.000000; 1.000000;,
    136; 1.000000; 1.000000; 1.000000; 1.000000;,
    137; 1.000000; 1.000000; 1.000000; 1.000000;,
    138; 1.000000; 1.000000; 1.000000; 1.000000;,
    139; 1.000000; 1.000000; 1.000000; 1.000000;,
    140; 1.000000; 1.000000; 1.000000; 1.000000;,
    141; 1.000000; 1.000000; 1.000000; 1.000000;,
    142; 1.000000; 1.000000; 1.000000; 1.000000;,
    143; 1.000000; 1.000000; 1.000000; 1.000000;,
    144; 1.000000; 1.000000; 1.000000; 1.000000;,
    145; 1.000000; 1.000000; 1.000000; 1.000000;,
    146; 1.000000; 1.000000; 1.000000; 1.000000;,
    147; 1.000000; 1.000000; 1.000000; 1.000000;,
    148; 1.000000; 1.000000; 1.000000; 1.000000;,
    149; 1.000000; 1.000000; 1.000000; 1.000000;,
    150; 1.000000; 1.000000; 1.000000; 1.000000;,
    151; 1.000000; 1.000000; 1.000000; 1.000000;,
    152; 1.000000; 1.000000; 1.000000; 1.000000;,
    153; 1.000000; 1.000000; 1.000000; 1.000000;,
    154; 1.000000; 1.000000; 1.000000; 1.000000;,
    155; 1.000000; 1.000000; 1.000000; 1.000000;,
    156; 1.000000; 1.000000; 1.000000; 1.000000;,
    157; 1.000000; 1.000000; 1.000000; 1.000000;,
    158; 1.000000; 1.000000; 1.000000; 1.000000;,
    159; 1.000000; 1.000000; 1.000000; 1.000000;,
    160; 1.000000; 1.000000; 1.000000; 1.000000;,
    161; 1.000000; 1.000000; 1.000000; 1.000000;,
    162; 1.000000; 1.000000; 1.000000; 1.000000;,
    163; 1.000000; 1.000000; 1.000000; 1.000000;,
    164; 1.000000; 1.000000; 1.000000; 1.000000;,
    165; 1.000000; 1.000000; 1.000000; 1.000000;,
    166; 1.000000; 1.000000; 1.000000; 1.000000;,
    167; 1.000000; 1.000000; 1.000000; 1.000000;,
    168; 1.000000; 1.000000; 1.000000; 1.000000;,
    169; 1.000000; 1.000000; 1.000000; 1.000000;,
    170; 1.000000; 1.000000; 1.000000; 1.000000;,
    171; 1.000000; 1.000000; 1.000000; 1.000000;,
    172; 1.000000; 1.000000; 1.000000; 1.000000;,
    173; 1.000000; 1.000000; 1.000000; 1.000000;,
    174; 1.000000; 1.000000; 1.000000; 1.000000;,
    175; 1.000000; 1.000000; 1.000000; 1.000000;,
    176; 1.000000; 1.000000; 1.000000; 1.000000;,
    177; 1.000000; 1.000000; 1.000000; 1.000000;,
    178; 1.000000; 1.000000; 1.000000; 1.000000;,
    179; 1.000000; 1.000000; 1.000000; 1.000000;,
    180; 1.000000; 1.000000; 1.000000; 1.000000;,
    181; 1.000000; 1.000000; 1.000000; 1.000000;,
    182; 1.000000; 1.000000; 1.000000; 1.000000;,
    183; 1.000000; 1.000000; 1.000000; 1.000000;,
    184; 1.000000; 1.000000; 1.000000; 1.000000;,
    185; 1.000000; 1.000000; 1.000000; 1.000000;,
    186; 1.000000; 1.000000; 1.000000; 1.000000;,
    187; 1.000000; 1.000000; 1.000000; 1.000000;,
    188; 1.000000; 1.000000; 1.000000; 1.000000;,
    189; 1.000000; 1.000000; 1.000000; 1.000000;,
    190; 1.000000; 1.000000; 1.000000; 1.000000;,
    191; 1.000000; 1.000000; 1.000000; 1.000000;,
    192; 1.000000; 1.000000; 1.000000; 1.000000;,
    193; 1.000000; 1.000000; 1.000000; 1.000000;,
    194; 1.000000; 1.000000; 1.000000; 1.000000;,
    195; 1.000000; 1.000000; 1.000000; 1.000000;,
    196; 1.000000; 1.000000; 1.000000; 1.000000;,
    197; 1.000000; 1.000000; 1.000000; 1.000000;,
    198; 1.000000; 1.000000; 1.000000; 1.000000;,
    199; 1.000000; 1.000000; 1.000000; 1.000000;,
    200; 1.000000; 1.000000; 1.000000; 1.000000;,
    201; 1.000000; 1.000000; 1.000000; 1.000000;,
    202; 1.000000; 1.000000; 1.000000; 1.000000;,
    203; 1.000000; 1.000000; 1.000000; 1.000000;,
    204; 1.000000; 1.000000; 1.000000; 1.000000;,
    205; 1.000000; 1.000000; 1.000000; 1.000000;,
    206; 1.000000; 1.000000; 1.000000; 1.000000;,
    207; 1.000000; 1.000000; 1.000000; 1.000000;,
    208; 1.000000; 1.000000; 1.000000; 1.000000;,
    209; 1.000000; 1.000000; 1.000000; 1.000000;,
    210; 1.000000; 1.000000; 1.000000; 1.000000;,
    211; 1.000000; 1.000000; 1.000000; 1.000000;,
    212; 1.000000; 1.000000; 1.000000; 1.000000;,
    213; 1.000000; 1.000000; 1.000000; 1.000000;,
    214; 1.000000; 1.000000; 1.000000; 1.000000;,
    215; 1.000000; 1.000000; 1.000000; 1.000000;,
    216; 1.000000; 1.000000; 1.000000; 1.000000;,
    217; 1.000000; 1.000000; 1.000000; 1.000000;,
    218; 1.000000; 1.000000; 1.000000; 1.000000;,
    219; 1.000000; 1.000000; 1.000000; 1.000000;,
    220; 1.000000; 1.000000; 1.000000; 1.000000;,
    221; 1.000000; 1.000000; 1.000000; 1.000000;,
    222; 1.000000; 1.000000; 1.000000; 1.000000;,
    223; 1.000000; 1.000000; 1.000000; 1.000000;,
    224; 1.000000; 1.000000; 1.000000; 1.000000;,
    225; 1.000000; 1.000000; 1.000000; 1.000000;,
    226; 1.000000; 1.000000; 1.000000; 1.000000;,
    227; 1.000000; 1.000000; 1.000000; 1.000000;,
    228; 1.000000; 1.000000; 1.000000; 1.000000;,
    229; 1.000000; 1.000000; 1.000000; 1.000000;,
    230; 1.000000; 1.000000; 1.000000; 1.000000;,
    231; 1.000000; 1.000000; 1.000000; 1.000000;,
    232; 1.000000; 1.000000; 1.000000; 1.000000;,
    233; 1.000000; 1.000000; 1.000000; 1.000000;,
    234; 1.000000; 1.000000; 1.000000; 1.000000;,
    235; 1.000000; 1.000000; 1.000000; 1.000000;,
    236; 1.000000; 1.000000; 1.000000; 1.000000;,
    237; 1.000000; 1.000000; 1.000000; 1.000000;,
    238; 1.000000; 1.000000; 1.000000; 1.000000;,
    239; 1.000000; 1.000000; 1.000000; 1.000000;,
    240; 1.000000; 1.000000; 1.000000; 1.000000;,
    241; 1.000000; 1.000000; 1.000000; 1.000000;,
    242; 1.000000; 1.000000; 1.000000; 1.000000;,
    243; 1.000000; 1.000000; 1.000000; 1.000000;,
    244; 1.000000; 1.000000; 1.000000; 1.000000;,
    245; 1.000000; 1.000000; 1.000000; 1.000000;;
   }

   MeshMaterialList {
    1;
    224;
    0,
    0,
    0,
    0,
    0,
    0,
    0,
    0,
    0,
    0,
    0,
    0,
    0,
    0,
    0,
    0,
    0,
    0,
    0,
    0,
    0,
    0,
    0,
    0,
    0,
    0,
    0,
    0,
    0,
    0,
    0,
    0,
    0,
    0,
    0,
    0,
    0,
    0,
    0,
    0,
    0,
    0,
    0,
    0,
    0,
    0,
    0,
    0,
    0,
    0,
    0,
    0,
    0,
    0,
    0,
    0,
    0,
    0,
    0,
    0,
    0,
    0,
    0,
    0,
    0,
    0,
    0,
    0,
    0,
    0,
    0,
    0,
    0,
    0,
    0,
    0,
    0,
    0,
    0,
    0,
    0,
    0,
    0,
    0,
    0,
    0,
    0,
    0,
    0,
    0,
    0,
    0,
    0,
    0,
    0,
    0,
    0,
    0,
    0,
    0,
    0,
    0,
    0,
    0,
    0,
    0,
    0,
    0,
    0,
    0,
    0,
    0,
    0,
    0,
    0,
    0,
    0,
    0,
    0,
    0,
    0,
    0,
    0,
    0,
    0,
    0,
    0,
    0,
    0,
    0,
    0,
    0,
    0,
    0,
    0,
    0,
    0,
    0,
    0,
    0,
    0,
    0,
    0,
    0,
    0,
    0,
    0,
    0,
    0,
    0,
    0,
    0,
    0,
    0,
    0,
    0,
    0,
    0,
    0,
    0,
    0,
    0,
    0,
    0,
    0,
    0,
    0,
    0,
    0,
    0,
    0,
    0,
    0,
    0,
    0,
    0,
    0,
    0,
    0,
    0,
    0,
    0,
    0,
    0,
    0,
    0,
    0,
    0,
    0,
    0,
    0,
    0,
    0,
    0,
    0,
    0,
    0,
    0,
    0,
    0,
    0,
    0,
    0,
    0,
    0,
    0,
    0,
    0,
    0,
    0,
    0,
    0,
    0,
    0,
    0,
    0,
    0,
    0,
    0,
    0,
    0,
    0,
    0,
    0;

    Material DungNewA {
     1.000000; 1.000000; 1.000000; 1.000000;;
     128.000000;
     1.000000; 1.000000; 1.000000;;
     0.000000; 0.000000; 0.000000;;

     TextureFilename {
      "DungNewA.dds";
     }
    }

   }
  }
}
