# Wavefront MTL file
# Creator: Ultimate Unwrap3D Pro v3.32
# URL: http://www.unwrap3d.com
# Time: Thu Aug 18 13:54:45 2011
# num_materials: 1

newmtl Chest
Ka 0.000000 0.000000 0.000000
Kd 0.980392 0.980392 0.980392
Ks 0.980392 0.980392 0.980392
d 1.000000
illum 2
Ns 1.000000
map_Kd Chest.jpg

# num_materials: 1
