xof 0303txt 0032

// DirectX 9.0 file
// Creator: Ultimate Unwrap3D Pro v3.32
// Website: http://www.unwrap3d.com
// Time: Wed Sep 07 20:13:17 2011

// Start of Templates

template VertexDuplicationIndices {
 <b8d65549-d7c9-4995-89cf-53a9a8b031e3>
 DWORD nIndices;
 DWORD nOriginalVertices;
 array DWORD indices[nIndices];
}

template FVFData {
 <b6e70a0e-8ef9-4e83-94ad-ecc8b0c04897>
 DWORD dwFVF;
 DWORD nDWords;
 array DWORD data[nDWords];
}

template Header {
 <3D82AB43-62DA-11cf-AB39-0020AF71E433>
 WORD major;
 WORD minor;
 DWORD flags;
}

template Vector {
 <3D82AB5E-62DA-11cf-AB39-0020AF71E433>
 FLOAT x;
 FLOAT y;
 FLOAT z;
}

template Coords2d {
 <F6F23F44-7686-11cf-8F52-0040333594A3>
 FLOAT u;
 FLOAT v;
}

template Matrix4x4 {
 <F6F23F45-7686-11cf-8F52-0040333594A3>
 array FLOAT matrix[16];
}

template ColorRGBA {
 <35FF44E0-6C7C-11cf-8F52-0040333594A3>
 FLOAT red;
 FLOAT green;
 FLOAT blue;
 FLOAT alpha;
}

template ColorRGB {
 <D3E16E81-7835-11cf-8F52-0040333594A3>
 FLOAT red;
 FLOAT green;
 FLOAT blue;
}

template IndexedColor {
 <1630B820-7842-11cf-8F52-0040333594A3>
 DWORD index;
 ColorRGBA indexColor;
}

template Material {
 <3D82AB4D-62DA-11cf-AB39-0020AF71E433>
 ColorRGBA faceColor;
 FLOAT power;
 ColorRGB specularColor;
 ColorRGB emissiveColor;
 [...]
}

template TextureFilename {
 <A42790E1-7810-11cf-8F52-0040333594A3>
 STRING filename;
}

template MeshFace {
 <3D82AB5F-62DA-11cf-AB39-0020AF71E433>
 DWORD nFaceVertexIndices;
 array DWORD faceVertexIndices[nFaceVertexIndices];
}

template MeshTextureCoords {
 <F6F23F40-7686-11cf-8F52-0040333594A3>
 DWORD nTextureCoords;
 array Coords2d textureCoords[nTextureCoords];
}

template MeshMaterialList {
 <F6F23F42-7686-11cf-8F52-0040333594A3>
 DWORD nMaterials;
 DWORD nFaceIndexes;
 array DWORD faceIndexes[nFaceIndexes];
 [Material]
}

template MeshNormals {
 <F6F23F43-7686-11cf-8F52-0040333594A3>
 DWORD nNormals;
 array Vector normals[nNormals];
 DWORD nFaceNormals;
 array MeshFace faceNormals[nFaceNormals];
}

template MeshVertexColors {
 <1630B821-7842-11cf-8F52-0040333594A3>
 DWORD nVertexColors;
 array IndexedColor vertexColors[nVertexColors];
}

template Mesh {
 <3D82AB44-62DA-11cf-AB39-0020AF71E433>
 DWORD nVertices;
 array Vector vertices[nVertices];
 DWORD nFaces;
 array MeshFace faces[nFaces];
 [...]
}

template FrameTransformMatrix {
 <F6F23F41-7686-11cf-8F52-0040333594A3>
 Matrix4x4 frameMatrix;
}

template Frame {
 <3D82AB46-62DA-11cf-AB39-0020AF71E433>
 [...]
}

template FloatKeys {
 <10DD46A9-775B-11cf-8F52-0040333594A3>
 DWORD nValues;
 array FLOAT values[nValues];
}

template TimedFloatKeys {
 <F406B180-7B3B-11cf-8F52-0040333594A3>
 DWORD time;
 FloatKeys tfkeys;
}

template AnimationKey {
 <10DD46A8-775B-11cf-8F52-0040333594A3>
 DWORD keyType;
 DWORD nKeys;
 array TimedFloatKeys keys[nKeys];
}

template AnimationOptions {
 <E2BF56C0-840F-11cf-8F52-0040333594A3>
 DWORD openclosed;
 DWORD positionquality;
}

template Animation {
 <3D82AB4F-62DA-11cf-AB39-0020AF71E433>
 [...]
}

template AnimationSet {
 <3D82AB50-62DA-11cf-AB39-0020AF71E433>
 [Animation]
}

template XSkinMeshHeader {
 <3CF169CE-FF7C-44ab-93C0-F78F62D172E2>
 WORD nMaxSkinWeightsPerVertex;
 WORD nMaxSkinWeightsPerFace;
 WORD nBones;
}

template SkinWeights {
 <6F0D123B-BAD2-4167-A0D0-80224F25FABB>
 STRING transformNodeName;
 DWORD nWeights;
 array DWORD vertexIndices[nWeights];
 array FLOAT weights[nWeights];
 Matrix4x4 matrixOffset;
}

template AnimTicksPerSecond {
 <9E415A43-7BA6-4a73-8743-B73D47E88476>
 DWORD AnimTicksPerSecond;
}

AnimTicksPerSecond {
 30;
}

// Start of Frames

   Frame Barrel {
      FrameTransformMatrix {
       1.000000, 0.000000, 0.000000, 0.000000,
       0.000000, 1.000000, 0.000000, 0.000000,
       0.000000, 0.000000, 1.000000, 0.000000,
       0.000000, 0.000000, 0.000000, 1.000000;;
      }

   }

   Frame Body {
      FrameTransformMatrix {
       1.000000, 0.000000, 0.000000, 0.000000,
       0.000000, 1.000000, 0.000000, 0.000000,
       0.000000, 0.000000, 1.000000, 0.000000,
       0.000000, 0.000000, 0.000000, 1.000000;;
      }

      Mesh skinnedMesh {
       229;
       -0.000458; 0.000004; 41.306297;,
       -12.763458; 0.000004; 39.289398;,
       12.763550; 0.000004; 39.289398;,
       -24.276459; 0.000004; 33.420998;,
       24.276550; 0.000004; 33.420998;,
       -33.414459; 0.000004; 24.282400;,
       33.414543; 0.000004; 24.282400;,
       -39.280457; 0.000004; 12.762199;,
       39.280548; 0.000004; 12.762199;,
       -41.301453; 0.000004; -0.000010;,
       41.301643; 0.000004; -0.000010;,
       -39.280457; 0.000004; -12.762180;,
       39.280548; 0.000004; -12.762180;,
       -33.414459; 0.000004; -24.271099;,
       33.414543; 0.000004; -24.271099;,
       -24.276459; 0.000004; -33.409599;,
       24.276550; 0.000004; -33.409599;,
       -12.763458; 0.000004; -39.277901;,
       12.763550; 0.000004; -39.277901;,
       -0.000458; 0.000004; -41.294800;,
       12.763550; 112.517883; 39.289398;,
       -0.000458; 112.517883; 41.306297;,
       14.180550; 86.419586; 43.653702;,
       -0.000458; 86.419586; 45.898399;,
       14.986549; 60.018883; 46.126404;,
       -0.000458; 60.018883; 48.496399;,
       14.291550; 33.517883; 43.995598;,
       -0.000458; 33.517883; 46.251701;,
       12.763550; 0.000004; 39.289398;,
       -0.000458; 0.000004; 41.306297;,
       24.276550; 112.517883; 33.420998;,
       26.973549; 86.419586; 37.135803;,
       28.505547; 60.018883; 39.243797;,
       27.184547; 33.517883; 37.420601;,
       24.276550; 0.000004; 33.420998;,
       33.414543; 112.517883; 24.282400;,
       37.125549; 86.419586; 26.982901;,
       39.234550; 60.018883; 28.509901;,
       37.415550; 33.517883; 27.188101;,
       33.414543; 0.000004; 24.282400;,
       39.280548; 112.517883; 12.762199;,
       43.644447; 86.419586; 14.186501;,
       46.122849; 60.018883; 14.995701;,
       43.985245; 33.517883; 14.300600;,
       39.280548; 0.000004; 12.762199;,
       41.301643; 112.517883; -0.000010;,
       45.890450; 86.419586; -0.000010;,
       48.496445; 60.018883; -0.000010;,
       46.249344; 33.517883; -0.000010;,
       41.301643; 0.000004; -0.000010;,
       39.280548; 112.517883; -12.762180;,
       43.644447; 86.419586; -14.175230;,
       46.122849; 60.018883; -14.984260;,
       43.985245; 33.517883; -14.289120;,
       39.280548; 0.000004; -12.762180;,
       33.414543; 112.517883; -24.271099;,
       37.125549; 86.419586; -26.971699;,
       39.234550; 60.018883; -28.498400;,
       37.415550; 33.517883; -27.176600;,
       33.414543; 0.000004; -24.271099;,
       24.276550; 112.517883; -33.409599;,
       26.973549; 86.419586; -37.124397;,
       28.505547; 60.018883; -39.232399;,
       27.184547; 33.517883; -37.409302;,
       24.276550; 0.000004; -33.409599;,
       12.763550; 112.517883; -39.277901;,
       14.180550; 86.419586; -43.642296;,
       14.986549; 60.018883; -46.114899;,
       14.291550; 33.517883; -43.984100;,
       12.763550; 0.000004; -39.277901;,
       -0.000458; 112.517883; -41.294800;,
       -0.000458; 86.419586; -45.887001;,
       -0.000458; 60.018883; -48.496399;,
       -0.000458; 33.517883; -46.240303;,
       -0.000458; 0.000004; -41.294800;,
       -12.763458; 112.517883; -39.277901;,
       -0.000458; 112.517883; -41.294800;,
       -14.181458; 86.419586; -43.642296;,
       -0.000458; 86.419586; -45.887001;,
       -14.986450; 60.018883; -46.114899;,
       -0.000458; 60.018883; -48.496399;,
       -14.291458; 33.517883; -43.984100;,
       -0.000458; 33.517883; -46.240303;,
       -12.763458; 0.000004; -39.277901;,
       -0.000458; 0.000004; -41.294800;,
       -24.276459; 112.517883; -33.409599;,
       -26.973450; 86.419586; -37.124397;,
       -28.505447; 60.018883; -39.232399;,
       -27.184448; 33.517883; -37.409302;,
       -24.276459; 0.000004; -33.409599;,
       -33.414459; 112.517883; -24.271099;,
       -37.126450; 86.419586; -26.971699;,
       -39.234451; 60.018883; -28.498400;,
       -37.416458; 33.517883; -27.176600;,
       -33.414459; 0.000004; -24.271099;,
       -39.280457; 112.517883; -12.762180;,
       -43.644455; 86.419586; -14.175230;,
       -46.123459; 60.018883; -14.984260;,
       -43.985458; 33.517883; -14.289120;,
       -39.280457; 0.000004; -12.762180;,
       -41.301453; 112.517883; -0.000010;,
       -45.890457; 86.419586; -0.000010;,
       -48.496460; 60.018883; -0.000010;,
       -46.249451; 33.517883; -0.000010;,
       -41.301453; 0.000004; -0.000010;,
       -39.280457; 112.517883; 12.762199;,
       -43.644455; 86.419586; 14.186501;,
       -46.123459; 60.018883; 14.995701;,
       -43.985458; 33.517883; 14.300600;,
       -39.280457; 0.000004; 12.762199;,
       -33.414459; 112.517883; 24.282400;,
       -37.126450; 86.419586; 26.982901;,
       -39.234451; 60.018883; 28.509901;,
       -37.416458; 33.517883; 27.188101;,
       -33.414459; 0.000004; 24.282400;,
       -24.276459; 112.517883; 33.420998;,
       -26.973450; 86.419586; 37.135803;,
       -28.505447; 60.018883; 39.243797;,
       -27.184448; 33.517883; 37.420601;,
       -24.276459; 0.000004; 33.420998;,
       -12.763458; 112.517883; 39.289398;,
       -14.181458; 86.419586; 43.653702;,
       -14.986450; 60.018883; 46.126404;,
       -14.291458; 33.517883; 43.995598;,
       -12.763458; 0.000004; 39.289398;,
       20.707550; 112.517883; 28.509901;,
       10.886551; 112.517883; 33.512299;,
       24.276550; 112.517883; 33.420998;,
       12.763550; 112.517883; 39.289398;,
       28.501549; 112.517883; 20.715900;,
       33.414543; 112.517883; 24.282400;,
       33.505547; 112.517883; 10.893600;,
       39.280548; 112.517883; 12.762199;,
       35.229546; 112.517883; -0.000010;,
       41.301643; 112.517883; -0.000010;,
       33.505547; 112.517883; -10.882110;,
       39.280548; 112.517883; -12.762180;,
       28.501549; 112.517883; -20.704498;,
       33.414543; 112.517883; -24.271099;,
       20.707550; 112.517883; -28.498400;,
       24.276550; 112.517883; -33.409599;,
       10.886551; 112.517883; -33.500900;,
       12.763550; 112.517883; -39.277901;,
       -0.000458; 112.517883; -35.221500;,
       -0.000458; 112.517883; -41.294800;,
       -10.886459; 112.517883; -33.500900;,
       -0.000458; 112.517883; -35.221500;,
       -12.763458; 112.517883; -39.277901;,
       -0.000458; 112.517883; -41.294800;,
       -20.707458; 112.517883; -28.498400;,
       -24.276459; 112.517883; -33.409599;,
       -28.502457; 112.517883; -20.704498;,
       -33.414459; 112.517883; -24.271099;,
       -33.505447; 112.517883; -10.882110;,
       -39.280457; 112.517883; -12.762180;,
       -35.229446; 112.517883; -0.000010;,
       -41.301453; 112.517883; -0.000010;,
       -33.505447; 112.517883; 10.893600;,
       -39.280457; 112.517883; 12.762199;,
       -28.502457; 112.517883; 20.715900;,
       -33.414459; 112.517883; 24.282400;,
       -20.707458; 112.517883; 28.509901;,
       -24.276459; 112.517883; 33.420998;,
       -10.886459; 112.517883; 33.512299;,
       -12.763458; 112.517883; 39.289398;,
       -0.000458; 112.517883; 35.232803;,
       -0.000458; 112.517883; 41.306297;,
       -0.000458; 108.620880; 35.232803;,
       10.886551; 108.620880; 33.512299;,
       -10.886459; 108.620880; 33.512299;,
       20.707550; 108.620880; 28.509901;,
       -20.707458; 108.620880; 28.509901;,
       28.501549; 108.620880; 20.715900;,
       -28.502457; 108.620880; 20.715900;,
       33.505547; 108.620880; 10.893600;,
       -33.505447; 108.620880; 10.893600;,
       35.229546; 108.620880; -0.000010;,
       -35.229446; 108.620880; -0.000010;,
       33.505547; 108.620880; -10.882110;,
       -33.505447; 108.620880; -10.882110;,
       28.501549; 108.620880; -20.704498;,
       -28.502457; 108.620880; -20.704498;,
       20.707550; 108.620880; -28.498400;,
       -20.707458; 108.620880; -28.498400;,
       10.886551; 108.620880; -33.500900;,
       -10.886459; 108.620880; -33.500900;,
       -0.000458; 108.620880; -35.221500;,
       -10.886459; 108.620880; 33.512299;,
       -10.886459; 112.517883; 33.512299;,
       -0.000458; 108.620880; 35.232803;,
       -0.000458; 112.517883; 35.232803;,
       10.886551; 108.620880; 33.512299;,
       10.886551; 112.517883; 33.512299;,
       -20.707458; 108.620880; 28.509901;,
       -20.707458; 112.517883; 28.509901;,
       -28.502457; 108.620880; 20.715900;,
       -28.502457; 112.517883; 20.715900;,
       -33.505447; 108.620880; 10.893600;,
       -33.505447; 112.517883; 10.893600;,
       -35.229446; 108.620880; -0.000010;,
       -35.229446; 112.517883; -0.000010;,
       -33.505447; 108.620880; -10.882110;,
       -33.505447; 112.517883; -10.882110;,
       -28.502457; 108.620880; -20.704498;,
       -28.502457; 112.517883; -20.704498;,
       -20.707458; 108.620880; -28.498400;,
       -20.707458; 112.517883; -28.498400;,
       -10.886459; 108.620880; -33.500900;,
       -10.886459; 112.517883; -33.500900;,
       -0.000458; 108.620880; -35.221500;,
       -0.000458; 112.517883; -35.221500;,
       10.886551; 108.620880; -33.500900;,
       10.886551; 112.517883; -33.500900;,
       -0.000458; 108.620880; -35.221500;,
       -0.000458; 112.517883; -35.221500;,
       20.707550; 108.620880; -28.498400;,
       20.707550; 112.517883; -28.498400;,
       28.501549; 108.620880; -20.704498;,
       28.501549; 112.517883; -20.704498;,
       33.505547; 108.620880; -10.882110;,
       33.505547; 112.517883; -10.882110;,
       35.229546; 108.620880; -0.000010;,
       35.229546; 112.517883; -0.000010;,
       33.505547; 108.620880; 10.893600;,
       33.505547; 112.517883; 10.893600;,
       28.501549; 108.620880; 20.715900;,
       28.501549; 112.517883; 20.715900;,
       20.707550; 108.620880; 28.509901;,
       20.707550; 112.517883; 28.509901;;
       276;
       3;0, 1, 2;,
       3;1, 3, 2;,
       3;2, 3, 4;,
       3;3, 5, 4;,
       3;4, 5, 6;,
       3;5, 7, 6;,
       3;6, 7, 8;,
       3;7, 9, 8;,
       3;8, 9, 10;,
       3;9, 11, 10;,
       3;10, 11, 12;,
       3;11, 13, 12;,
       3;12, 13, 14;,
       3;13, 15, 14;,
       3;14, 15, 16;,
       3;15, 17, 16;,
       3;16, 17, 18;,
       3;17, 19, 18;,
       3;20, 21, 22;,
       3;21, 23, 22;,
       3;22, 23, 24;,
       3;23, 25, 24;,
       3;24, 25, 26;,
       3;25, 27, 26;,
       3;26, 27, 28;,
       3;27, 29, 28;,
       3;30, 20, 31;,
       3;20, 22, 31;,
       3;31, 22, 32;,
       3;22, 24, 32;,
       3;32, 24, 33;,
       3;24, 26, 33;,
       3;33, 26, 34;,
       3;26, 28, 34;,
       3;35, 30, 36;,
       3;30, 31, 36;,
       3;36, 31, 37;,
       3;31, 32, 37;,
       3;37, 32, 38;,
       3;32, 33, 38;,
       3;38, 33, 39;,
       3;33, 34, 39;,
       3;40, 35, 41;,
       3;35, 36, 41;,
       3;41, 36, 42;,
       3;36, 37, 42;,
       3;42, 37, 43;,
       3;37, 38, 43;,
       3;43, 38, 44;,
       3;38, 39, 44;,
       3;45, 40, 46;,
       3;40, 41, 46;,
       3;46, 41, 47;,
       3;41, 42, 47;,
       3;47, 42, 48;,
       3;42, 43, 48;,
       3;48, 43, 49;,
       3;43, 44, 49;,
       3;50, 45, 51;,
       3;45, 46, 51;,
       3;51, 46, 52;,
       3;46, 47, 52;,
       3;52, 47, 53;,
       3;47, 48, 53;,
       3;53, 48, 54;,
       3;48, 49, 54;,
       3;55, 50, 56;,
       3;50, 51, 56;,
       3;56, 51, 57;,
       3;51, 52, 57;,
       3;57, 52, 58;,
       3;52, 53, 58;,
       3;58, 53, 59;,
       3;53, 54, 59;,
       3;60, 55, 61;,
       3;55, 56, 61;,
       3;61, 56, 62;,
       3;56, 57, 62;,
       3;62, 57, 63;,
       3;57, 58, 63;,
       3;63, 58, 64;,
       3;58, 59, 64;,
       3;65, 60, 66;,
       3;60, 61, 66;,
       3;66, 61, 67;,
       3;61, 62, 67;,
       3;67, 62, 68;,
       3;62, 63, 68;,
       3;68, 63, 69;,
       3;63, 64, 69;,
       3;70, 65, 71;,
       3;65, 66, 71;,
       3;71, 66, 72;,
       3;66, 67, 72;,
       3;72, 67, 73;,
       3;67, 68, 73;,
       3;73, 68, 74;,
       3;68, 69, 74;,
       3;75, 76, 77;,
       3;76, 78, 77;,
       3;77, 78, 79;,
       3;78, 80, 79;,
       3;79, 80, 81;,
       3;80, 82, 81;,
       3;81, 82, 83;,
       3;82, 84, 83;,
       3;85, 75, 86;,
       3;75, 77, 86;,
       3;86, 77, 87;,
       3;77, 79, 87;,
       3;87, 79, 88;,
       3;79, 81, 88;,
       3;88, 81, 89;,
       3;81, 83, 89;,
       3;90, 85, 91;,
       3;85, 86, 91;,
       3;91, 86, 92;,
       3;86, 87, 92;,
       3;92, 87, 93;,
       3;87, 88, 93;,
       3;93, 88, 94;,
       3;88, 89, 94;,
       3;95, 90, 96;,
       3;90, 91, 96;,
       3;96, 91, 97;,
       3;91, 92, 97;,
       3;97, 92, 98;,
       3;92, 93, 98;,
       3;98, 93, 99;,
       3;93, 94, 99;,
       3;100, 95, 101;,
       3;95, 96, 101;,
       3;101, 96, 102;,
       3;96, 97, 102;,
       3;102, 97, 103;,
       3;97, 98, 103;,
       3;103, 98, 104;,
       3;98, 99, 104;,
       3;105, 100, 106;,
       3;100, 101, 106;,
       3;106, 101, 107;,
       3;101, 102, 107;,
       3;107, 102, 108;,
       3;102, 103, 108;,
       3;108, 103, 109;,
       3;103, 104, 109;,
       3;110, 105, 111;,
       3;105, 106, 111;,
       3;111, 106, 112;,
       3;106, 107, 112;,
       3;112, 107, 113;,
       3;107, 108, 113;,
       3;113, 108, 114;,
       3;108, 109, 114;,
       3;115, 110, 116;,
       3;110, 111, 116;,
       3;116, 111, 117;,
       3;111, 112, 117;,
       3;117, 112, 118;,
       3;112, 113, 118;,
       3;118, 113, 119;,
       3;113, 114, 119;,
       3;120, 115, 121;,
       3;115, 116, 121;,
       3;121, 116, 122;,
       3;116, 117, 122;,
       3;122, 117, 123;,
       3;117, 118, 123;,
       3;123, 118, 124;,
       3;118, 119, 124;,
       3;21, 120, 23;,
       3;120, 121, 23;,
       3;23, 121, 25;,
       3;121, 122, 25;,
       3;25, 122, 27;,
       3;122, 123, 27;,
       3;27, 123, 29;,
       3;123, 124, 29;,
       3;125, 126, 127;,
       3;126, 128, 127;,
       3;129, 125, 130;,
       3;125, 127, 130;,
       3;131, 129, 132;,
       3;129, 130, 132;,
       3;133, 131, 134;,
       3;131, 132, 134;,
       3;135, 133, 136;,
       3;133, 134, 136;,
       3;137, 135, 138;,
       3;135, 136, 138;,
       3;139, 137, 140;,
       3;137, 138, 140;,
       3;141, 139, 142;,
       3;139, 140, 142;,
       3;143, 141, 144;,
       3;141, 142, 144;,
       3;145, 146, 147;,
       3;146, 148, 147;,
       3;149, 145, 150;,
       3;145, 147, 150;,
       3;151, 149, 152;,
       3;149, 150, 152;,
       3;153, 151, 154;,
       3;151, 152, 154;,
       3;155, 153, 156;,
       3;153, 154, 156;,
       3;157, 155, 158;,
       3;155, 156, 158;,
       3;159, 157, 160;,
       3;157, 158, 160;,
       3;161, 159, 162;,
       3;159, 160, 162;,
       3;163, 161, 164;,
       3;161, 162, 164;,
       3;165, 163, 166;,
       3;163, 164, 166;,
       3;126, 165, 128;,
       3;165, 166, 128;,
       3;167, 168, 169;,
       3;168, 170, 169;,
       3;169, 170, 171;,
       3;170, 172, 171;,
       3;171, 172, 173;,
       3;172, 174, 173;,
       3;173, 174, 175;,
       3;174, 176, 175;,
       3;175, 176, 177;,
       3;176, 178, 177;,
       3;177, 178, 179;,
       3;178, 180, 179;,
       3;179, 180, 181;,
       3;180, 182, 181;,
       3;181, 182, 183;,
       3;182, 184, 183;,
       3;183, 184, 185;,
       3;184, 186, 185;,
       3;187, 188, 189;,
       3;188, 190, 189;,
       3;189, 190, 191;,
       3;190, 192, 191;,
       3;193, 194, 187;,
       3;194, 188, 187;,
       3;195, 196, 193;,
       3;196, 194, 193;,
       3;197, 198, 195;,
       3;198, 196, 195;,
       3;199, 200, 197;,
       3;200, 198, 197;,
       3;201, 202, 199;,
       3;202, 200, 199;,
       3;203, 204, 201;,
       3;204, 202, 201;,
       3;205, 206, 203;,
       3;206, 204, 203;,
       3;207, 208, 205;,
       3;208, 206, 205;,
       3;209, 210, 207;,
       3;210, 208, 207;,
       3;211, 212, 213;,
       3;212, 214, 213;,
       3;215, 216, 211;,
       3;216, 212, 211;,
       3;217, 218, 215;,
       3;218, 216, 215;,
       3;219, 220, 217;,
       3;220, 218, 217;,
       3;221, 222, 219;,
       3;222, 220, 219;,
       3;223, 224, 221;,
       3;224, 222, 221;,
       3;225, 226, 223;,
       3;226, 224, 223;,
       3;227, 228, 225;,
       3;228, 226, 225;,
       3;191, 192, 227;,
       3;192, 228, 227;;

      MeshNormals {
       229;
       0.000000; -1.000000; 0.000000;,
       0.000000; -1.000000; 0.000000;,
       0.000000; -1.000000; 0.000000;,
       0.000000; -1.000000; 0.000000;,
       0.000000; -1.000000; 0.000000;,
       0.000000; -1.000000; 0.000000;,
       0.000000; -1.000000; 0.000000;,
       0.000000; -1.000000; 0.000000;,
       0.000000; -1.000000; 0.000000;,
       0.000000; -1.000000; 0.000000;,
       0.000000; -1.000000; 0.000000;,
       0.000000; -1.000000; 0.000000;,
       0.000000; -1.000000; 0.000000;,
       0.000000; -1.000000; 0.000000;,
       0.000000; -1.000000; 0.000000;,
       0.000000; -1.000000; 0.000000;,
       0.000000; -1.000000; 0.000000;,
       0.000000; -1.000000; 0.000000;,
       0.000000; -1.000000; 0.000000;,
       0.000000; -1.000000; 0.000000;,
       0.304250; 0.173234; 0.936708;,
       -0.000008; 0.173224; 0.984882;,
       0.306081; 0.135716; 0.942282;,
       -0.000004; 0.135702; 0.990750;,
       0.308844; 0.006853; 0.951088;,
       -0.000003; 0.006852; 0.999977;,
       0.306784; -0.115237; 0.944777;,
       -0.000005; -0.115219; 0.993340;,
       0.305628; -0.146012; 0.940889;,
       -0.000005; -0.145994; 0.989285;,
       0.578977; 0.173188; 0.796738;,
       0.582382; 0.135767; 0.801497;,
       0.587752; 0.006869; 0.809012;,
       0.583929; -0.115287; 0.803577;,
       0.581658; -0.145991; 0.800226;,
       0.796876; 0.173203; 0.578783;,
       0.801583; 0.135804; 0.582256;,
       0.809028; 0.006836; 0.587730;,
       0.803613; -0.115328; 0.583871;,
       0.800318; -0.145955; 0.581540;,
       0.936729; 0.173181; 0.304216;,
       0.942278; 0.135799; 0.306056;,
       0.951041; 0.006873; 0.308989;,
       0.944697; -0.115325; 0.306999;,
       0.940844; -0.146006; 0.305770;,
       0.984890; 0.173183; -0.000001;,
       0.990734; 0.135814; -0.000031;,
       0.999976; 0.006901; -0.000060;,
       0.993328; -0.115327; -0.000060;,
       0.989279; -0.146039; -0.000062;,
       0.936678; 0.173125; -0.304406;,
       0.942239; 0.135795; -0.306178;,
       0.951022; 0.006910; -0.309045;,
       0.944679; -0.115313; -0.307057;,
       0.940825; -0.146006; -0.305828;,
       0.796769; 0.173146; -0.578947;,
       0.801526; 0.135778; -0.582340;,
       0.809026; 0.006867; -0.587732;,
       0.803617; -0.115301; -0.583871;,
       0.800320; -0.145957; -0.581537;,
       0.578968; 0.173235; -0.796734;,
       0.582376; 0.135806; -0.801495;,
       0.587752; 0.006813; -0.809013;,
       0.583926; -0.115336; -0.803572;,
       0.581660; -0.145946; -0.800232;,
       0.304245; 0.173213; -0.936714;,
       0.306076; 0.135769; -0.942276;,
       0.309019; 0.006859; -0.951031;,
       0.306956; -0.115287; -0.944715;,
       0.305627; -0.146005; -0.940890;,
       0.153777; 0.171093; -0.973180;,
       0.154801; 0.134051; -0.978809;,
       0.156636; 0.006821; -0.987633;,
       0.155420; -0.113808; -0.981271;,
       0.154302; -0.144274; -0.977433;,
       -0.304252; 0.173246; -0.936705;,
       -0.153785; 0.171234; -0.973154;,
       -0.306087; 0.135822; -0.942265;,
       -0.154802; 0.134291; -0.978776;,
       -0.309034; 0.006850; -0.951026;,
       -0.156641; 0.006717; -0.987633;,
       -0.306961; -0.115337; -0.944707;,
       -0.155426; -0.114053; -0.981241;,
       -0.305630; -0.146013; -0.940888;,
       -0.154314; -0.144219; -0.977440;,
       -0.578971; 0.173198; -0.796740;,
       -0.582374; 0.135766; -0.801503;,
       -0.587746; 0.006865; -0.809016;,
       -0.583918; -0.115287; -0.803585;,
       -0.581637; -0.145992; -0.800240;,
       -0.796757; 0.173220; -0.578941;,
       -0.801524; 0.135804; -0.582337;,
       -0.809022; 0.006836; -0.587738;,
       -0.803608; -0.115326; -0.583878;,
       -0.800317; -0.145969; -0.581538;,
       -0.936671; 0.173178; -0.304397;,
       -0.942245; 0.135792; -0.306163;,
       -0.951026; 0.006873; -0.309034;,
       -0.944683; -0.115315; -0.307046;,
       -0.940834; -0.145995; -0.305805;,
       -0.984894; 0.173156; -0.000001;,
       -0.990735; 0.135807; -0.000031;,
       -0.999976; 0.006904; -0.000060;,
       -0.993328; -0.115323; -0.000060;,
       -0.989281; -0.146025; -0.000062;,
       -0.936723; 0.173225; 0.304208;,
       -0.942277; 0.135853; 0.306037;,
       -0.951045; 0.006914; 0.308975;,
       -0.944697; -0.115360; 0.306985;,
       -0.940840; -0.146093; 0.305740;,
       -0.796867; 0.173265; 0.578777;,
       -0.801579; 0.135839; 0.582254;,
       -0.809022; 0.006872; 0.587739;,
       -0.803604; -0.115344; 0.583881;,
       -0.800303; -0.146050; 0.581536;,
       -0.578971; 0.173247; 0.796729;,
       -0.582377; 0.135806; 0.801495;,
       -0.587751; 0.006814; 0.809013;,
       -0.583917; -0.115335; 0.803579;,
       -0.581640; -0.145956; 0.800245;,
       -0.304254; 0.173214; 0.936710;,
       -0.306087; 0.135769; 0.942272;,
       -0.308852; 0.006860; 0.951085;,
       -0.306786; -0.115289; 0.944770;,
       -0.305635; -0.146004; 0.940888;,
       0.000000; 1.000000; 0.000000;,
       0.000000; 1.000000; 0.000000;,
       0.000000; 1.000000; 0.000000;,
       0.000000; 1.000000; 0.000000;,
       0.000000; 1.000000; 0.000000;,
       0.000000; 1.000000; 0.000000;,
       0.000000; 1.000000; 0.000000;,
       0.000000; 1.000000; 0.000000;,
       0.000000; 1.000000; 0.000000;,
       0.000000; 1.000000; 0.000000;,
       0.000000; 1.000000; 0.000000;,
       0.000000; 1.000000; 0.000000;,
       0.000000; 1.000000; 0.000000;,
       0.000000; 1.000000; 0.000000;,
       0.000000; 1.000000; 0.000000;,
       0.000000; 1.000000; 0.000000;,
       0.000000; 1.000000; 0.000000;,
       0.000000; 1.000000; 0.000000;,
       0.000000; 1.000000; 0.000000;,
       0.000000; 1.000000; 0.000000;,
       0.000000; 1.000000; 0.000000;,
       0.000000; 1.000000; 0.000000;,
       0.000000; 1.000000; 0.000000;,
       0.000000; 1.000000; 0.000000;,
       0.000000; 1.000000; 0.000000;,
       0.000000; 1.000000; 0.000000;,
       0.000000; 1.000000; 0.000000;,
       0.000000; 1.000000; 0.000000;,
       0.000000; 1.000000; 0.000000;,
       0.000000; 1.000000; 0.000000;,
       0.000000; 1.000000; 0.000000;,
       0.000000; 1.000000; 0.000000;,
       0.000000; 1.000000; 0.000000;,
       0.000000; 1.000000; 0.000000;,
       0.000000; 1.000000; 0.000000;,
       0.000000; 1.000000; 0.000000;,
       0.000000; 1.000000; 0.000000;,
       0.000000; 1.000000; 0.000000;,
       0.000000; 1.000000; 0.000000;,
       0.000000; 1.000000; 0.000000;,
       0.000000; 1.000000; 0.000000;,
       0.000000; 1.000000; 0.000000;,
       0.000000; 1.000000; 0.000000;,
       0.000000; 1.000000; 0.000000;,
       0.000000; 1.000000; 0.000000;,
       0.000000; 1.000000; 0.000000;,
       0.000000; 1.000000; 0.000000;,
       0.000000; 1.000000; 0.000000;,
       0.000000; 1.000000; 0.000000;,
       0.000000; 1.000000; 0.000000;,
       0.000000; 1.000000; 0.000000;,
       0.000000; 1.000000; 0.000000;,
       0.000000; 1.000000; 0.000000;,
       0.000000; 1.000000; 0.000000;,
       0.000000; 1.000000; 0.000000;,
       0.000000; 1.000000; 0.000000;,
       0.000000; 1.000000; 0.000000;,
       0.000000; 1.000000; 0.000000;,
       0.000000; 1.000000; 0.000000;,
       0.000000; 1.000000; 0.000000;,
       0.000000; 1.000000; 0.000000;,
       0.000000; 1.000000; 0.000000;,
       0.308797; 0.000000; -0.951128;,
       0.308797; 0.000000; -0.951128;,
       0.000007; 0.000000; -1.000000;,
       0.000007; 0.000000; -1.000000;,
       -0.308790; 0.000000; -0.951130;,
       -0.308790; 0.000000; -0.951130;,
       0.587705; 0.000000; -0.809075;,
       0.587705; 0.000000; -0.809075;,
       0.809039; 0.000000; -0.587755;,
       0.809039; 0.000000; -0.587755;,
       0.951097; 0.000000; -0.308892;,
       0.951097; 0.000000; -0.308892;,
       1.000000; 0.000000; 0.000082;,
       1.000000; 0.000000; 0.000082;,
       0.951072; 0.000000; 0.308968;,
       0.951072; 0.000000; 0.308968;,
       0.809038; 0.000000; 0.587756;,
       0.809038; 0.000000; 0.587756;,
       0.587706; 0.000000; 0.809074;,
       0.587706; 0.000000; 0.809074;,
       0.308805; 0.000000; 0.951125;,
       0.308805; 0.000000; 0.951125;,
       0.156118; 0.000000; 0.987738;,
       0.156118; 0.000000; 0.987738;,
       -0.308798; 0.000000; 0.951128;,
       -0.308798; 0.000000; 0.951128;,
       -0.156104; 0.000000; 0.987741;,
       -0.156104; 0.000000; 0.987741;,
       -0.587732; 0.000000; 0.809056;,
       -0.587732; 0.000000; 0.809056;,
       -0.809033; 0.000000; 0.587763;,
       -0.809033; 0.000000; 0.587763;,
       -0.951060; 0.000000; 0.309007;,
       -0.951060; 0.000000; 0.309007;,
       -1.000000; 0.000000; 0.000082;,
       -1.000000; 0.000000; 0.000082;,
       -0.951085; 0.000000; -0.308931;,
       -0.951085; 0.000000; -0.308931;,
       -0.809034; 0.000000; -0.587762;,
       -0.809034; 0.000000; -0.587762;,
       -0.587731; 0.000000; -0.809056;,
       -0.587731; 0.000000; -0.809056;;
       276;
       3;0, 1, 2;,
       3;1, 3, 2;,
       3;2, 3, 4;,
       3;3, 5, 4;,
       3;4, 5, 6;,
       3;5, 7, 6;,
       3;6, 7, 8;,
       3;7, 9, 8;,
       3;8, 9, 10;,
       3;9, 11, 10;,
       3;10, 11, 12;,
       3;11, 13, 12;,
       3;12, 13, 14;,
       3;13, 15, 14;,
       3;14, 15, 16;,
       3;15, 17, 16;,
       3;16, 17, 18;,
       3;17, 19, 18;,
       3;20, 21, 22;,
       3;21, 23, 22;,
       3;22, 23, 24;,
       3;23, 25, 24;,
       3;24, 25, 26;,
       3;25, 27, 26;,
       3;26, 27, 28;,
       3;27, 29, 28;,
       3;30, 20, 31;,
       3;20, 22, 31;,
       3;31, 22, 32;,
       3;22, 24, 32;,
       3;32, 24, 33;,
       3;24, 26, 33;,
       3;33, 26, 34;,
       3;26, 28, 34;,
       3;35, 30, 36;,
       3;30, 31, 36;,
       3;36, 31, 37;,
       3;31, 32, 37;,
       3;37, 32, 38;,
       3;32, 33, 38;,
       3;38, 33, 39;,
       3;33, 34, 39;,
       3;40, 35, 41;,
       3;35, 36, 41;,
       3;41, 36, 42;,
       3;36, 37, 42;,
       3;42, 37, 43;,
       3;37, 38, 43;,
       3;43, 38, 44;,
       3;38, 39, 44;,
       3;45, 40, 46;,
       3;40, 41, 46;,
       3;46, 41, 47;,
       3;41, 42, 47;,
       3;47, 42, 48;,
       3;42, 43, 48;,
       3;48, 43, 49;,
       3;43, 44, 49;,
       3;50, 45, 51;,
       3;45, 46, 51;,
       3;51, 46, 52;,
       3;46, 47, 52;,
       3;52, 47, 53;,
       3;47, 48, 53;,
       3;53, 48, 54;,
       3;48, 49, 54;,
       3;55, 50, 56;,
       3;50, 51, 56;,
       3;56, 51, 57;,
       3;51, 52, 57;,
       3;57, 52, 58;,
       3;52, 53, 58;,
       3;58, 53, 59;,
       3;53, 54, 59;,
       3;60, 55, 61;,
       3;55, 56, 61;,
       3;61, 56, 62;,
       3;56, 57, 62;,
       3;62, 57, 63;,
       3;57, 58, 63;,
       3;63, 58, 64;,
       3;58, 59, 64;,
       3;65, 60, 66;,
       3;60, 61, 66;,
       3;66, 61, 67;,
       3;61, 62, 67;,
       3;67, 62, 68;,
       3;62, 63, 68;,
       3;68, 63, 69;,
       3;63, 64, 69;,
       3;70, 65, 71;,
       3;65, 66, 71;,
       3;71, 66, 72;,
       3;66, 67, 72;,
       3;72, 67, 73;,
       3;67, 68, 73;,
       3;73, 68, 74;,
       3;68, 69, 74;,
       3;75, 76, 77;,
       3;76, 78, 77;,
       3;77, 78, 79;,
       3;78, 80, 79;,
       3;79, 80, 81;,
       3;80, 82, 81;,
       3;81, 82, 83;,
       3;82, 84, 83;,
       3;85, 75, 86;,
       3;75, 77, 86;,
       3;86, 77, 87;,
       3;77, 79, 87;,
       3;87, 79, 88;,
       3;79, 81, 88;,
       3;88, 81, 89;,
       3;81, 83, 89;,
       3;90, 85, 91;,
       3;85, 86, 91;,
       3;91, 86, 92;,
       3;86, 87, 92;,
       3;92, 87, 93;,
       3;87, 88, 93;,
       3;93, 88, 94;,
       3;88, 89, 94;,
       3;95, 90, 96;,
       3;90, 91, 96;,
       3;96, 91, 97;,
       3;91, 92, 97;,
       3;97, 92, 98;,
       3;92, 93, 98;,
       3;98, 93, 99;,
       3;93, 94, 99;,
       3;100, 95, 101;,
       3;95, 96, 101;,
       3;101, 96, 102;,
       3;96, 97, 102;,
       3;102, 97, 103;,
       3;97, 98, 103;,
       3;103, 98, 104;,
       3;98, 99, 104;,
       3;105, 100, 106;,
       3;100, 101, 106;,
       3;106, 101, 107;,
       3;101, 102, 107;,
       3;107, 102, 108;,
       3;102, 103, 108;,
       3;108, 103, 109;,
       3;103, 104, 109;,
       3;110, 105, 111;,
       3;105, 106, 111;,
       3;111, 106, 112;,
       3;106, 107, 112;,
       3;112, 107, 113;,
       3;107, 108, 113;,
       3;113, 108, 114;,
       3;108, 109, 114;,
       3;115, 110, 116;,
       3;110, 111, 116;,
       3;116, 111, 117;,
       3;111, 112, 117;,
       3;117, 112, 118;,
       3;112, 113, 118;,
       3;118, 113, 119;,
       3;113, 114, 119;,
       3;120, 115, 121;,
       3;115, 116, 121;,
       3;121, 116, 122;,
       3;116, 117, 122;,
       3;122, 117, 123;,
       3;117, 118, 123;,
       3;123, 118, 124;,
       3;118, 119, 124;,
       3;21, 120, 23;,
       3;120, 121, 23;,
       3;23, 121, 25;,
       3;121, 122, 25;,
       3;25, 122, 27;,
       3;122, 123, 27;,
       3;27, 123, 29;,
       3;123, 124, 29;,
       3;125, 126, 127;,
       3;126, 128, 127;,
       3;129, 125, 130;,
       3;125, 127, 130;,
       3;131, 129, 132;,
       3;129, 130, 132;,
       3;133, 131, 134;,
       3;131, 132, 134;,
       3;135, 133, 136;,
       3;133, 134, 136;,
       3;137, 135, 138;,
       3;135, 136, 138;,
       3;139, 137, 140;,
       3;137, 138, 140;,
       3;141, 139, 142;,
       3;139, 140, 142;,
       3;143, 141, 144;,
       3;141, 142, 144;,
       3;145, 146, 147;,
       3;146, 148, 147;,
       3;149, 145, 150;,
       3;145, 147, 150;,
       3;151, 149, 152;,
       3;149, 150, 152;,
       3;153, 151, 154;,
       3;151, 152, 154;,
       3;155, 153, 156;,
       3;153, 154, 156;,
       3;157, 155, 158;,
       3;155, 156, 158;,
       3;159, 157, 160;,
       3;157, 158, 160;,
       3;161, 159, 162;,
       3;159, 160, 162;,
       3;163, 161, 164;,
       3;161, 162, 164;,
       3;165, 163, 166;,
       3;163, 164, 166;,
       3;126, 165, 128;,
       3;165, 166, 128;,
       3;167, 168, 169;,
       3;168, 170, 169;,
       3;169, 170, 171;,
       3;170, 172, 171;,
       3;171, 172, 173;,
       3;172, 174, 173;,
       3;173, 174, 175;,
       3;174, 176, 175;,
       3;175, 176, 177;,
       3;176, 178, 177;,
       3;177, 178, 179;,
       3;178, 180, 179;,
       3;179, 180, 181;,
       3;180, 182, 181;,
       3;181, 182, 183;,
       3;182, 184, 183;,
       3;183, 184, 185;,
       3;184, 186, 185;,
       3;187, 188, 189;,
       3;188, 190, 189;,
       3;189, 190, 191;,
       3;190, 192, 191;,
       3;193, 194, 187;,
       3;194, 188, 187;,
       3;195, 196, 193;,
       3;196, 194, 193;,
       3;197, 198, 195;,
       3;198, 196, 195;,
       3;199, 200, 197;,
       3;200, 198, 197;,
       3;201, 202, 199;,
       3;202, 200, 199;,
       3;203, 204, 201;,
       3;204, 202, 201;,
       3;205, 206, 203;,
       3;206, 204, 203;,
       3;207, 208, 205;,
       3;208, 206, 205;,
       3;209, 210, 207;,
       3;210, 208, 207;,
       3;211, 212, 213;,
       3;212, 214, 213;,
       3;215, 216, 211;,
       3;216, 212, 211;,
       3;217, 218, 215;,
       3;218, 216, 215;,
       3;219, 220, 217;,
       3;220, 218, 217;,
       3;221, 222, 219;,
       3;222, 220, 219;,
       3;223, 224, 221;,
       3;224, 222, 221;,
       3;225, 226, 223;,
       3;226, 224, 223;,
       3;227, 228, 225;,
       3;228, 226, 225;,
       3;191, 192, 227;,
       3;192, 228, 227;;
      }

      MeshTextureCoords {
       229;
       0.741806; 0.322770;,
       0.734779; 0.355326;,
       0.734779; 0.290214;,
       0.714332; 0.384693;,
       0.714332; 0.260846;,
       0.682490; 0.408001;,
       0.682490; 0.237538;,
       0.642351; 0.421022;,
       0.642351; 0.219663;,
       0.597883; 0.426178;,
       0.597883; 0.214506;,
       0.553417; 0.421022;,
       0.553417; 0.219663;,
       0.513316; 0.408001;,
       0.513316; 0.237538;,
       0.481475; 0.384693;,
       0.481475; 0.260846;,
       0.461027; 0.355326;,
       0.461027; 0.290213;,
       0.454000; 0.322770;,
       0.539905; 0.012491;,
       0.492786; 0.012491;,
       0.539905; 0.136193;,
       0.492786; 0.136193;,
       0.539911; 0.246437;,
       0.492786; 0.246437;,
       0.539903; 0.357099;,
       0.492786; 0.357099;,
       0.539905; 0.509114;,
       0.492786; 0.509114;,
       0.587026; 0.012491;,
       0.587023; 0.136193;,
       0.587023; 0.246437;,
       0.587033; 0.357099;,
       0.587026; 0.509114;,
       0.634151; 0.012491;,
       0.634142; 0.136193;,
       0.634158; 0.246437;,
       0.634158; 0.357099;,
       0.634151; 0.509114;,
       0.681297; 0.012491;,
       0.681278; 0.136193;,
       0.681268; 0.246437;,
       0.681268; 0.357099;,
       0.681297; 0.509114;,
       0.728422; 0.012491;,
       0.728422; 0.136193;,
       0.728422; 0.246437;,
       0.728422; 0.357099;,
       0.728422; 0.509114;,
       0.775546; 0.012491;,
       0.775532; 0.136193;,
       0.775543; 0.246437;,
       0.775541; 0.357099;,
       0.775546; 0.509114;,
       0.822659; 0.012491;,
       0.822673; 0.136193;,
       0.822658; 0.246437;,
       0.822656; 0.357099;,
       0.822659; 0.509115;,
       0.869794; 0.012491;,
       0.869800; 0.136193;,
       0.869800; 0.246437;,
       0.869790; 0.357099;,
       0.869794; 0.509115;,
       0.927027; 0.012491;,
       0.927028; 0.136193;,
       0.927022; 0.246437;,
       0.927030; 0.357099;,
       0.927027; 0.509115;,
       0.974158; 0.012491;,
       0.974158; 0.136193;,
       0.974158; 0.246437;,
       0.974158; 0.357099;,
       0.974158; 0.509115;,
       0.078746; 0.012491;,
       0.031615; 0.012491;,
       0.078744; 0.136193;,
       0.031615; 0.136193;,
       0.078750; 0.246437;,
       0.031615; 0.246437;,
       0.078743; 0.357099;,
       0.031615; 0.357099;,
       0.078746; 0.509114;,
       0.031615; 0.509114;,
       0.125878; 0.012491;,
       0.125873; 0.136193;,
       0.125872; 0.246437;,
       0.125883; 0.357099;,
       0.125878; 0.509114;,
       0.173013; 0.012491;,
       0.173003; 0.136193;,
       0.173014; 0.246437;,
       0.173016; 0.357099;,
       0.173013; 0.509114;,
       0.220126; 0.012491;,
       0.220142; 0.136193;,
       0.220129; 0.246437;,
       0.220131; 0.357099;,
       0.220126; 0.509114;,
       0.267251; 0.012491;,
       0.267251; 0.136193;,
       0.267251; 0.246437;,
       0.267251; 0.357099;,
       0.267251; 0.509114;,
       0.314375; 0.012491;,
       0.314395; 0.136193;,
       0.314405; 0.246437;,
       0.314405; 0.357099;,
       0.314375; 0.509114;,
       0.361521; 0.012491;,
       0.361529; 0.136193;,
       0.361515; 0.246437;,
       0.361515; 0.357099;,
       0.361521; 0.509114;,
       0.408647; 0.012491;,
       0.408650; 0.136193;,
       0.408650; 0.246437;,
       0.408640; 0.357099;,
       0.408647; 0.509114;,
       0.455768; 0.012491;,
       0.455768; 0.136193;,
       0.455762; 0.246437;,
       0.455770; 0.357099;,
       0.455768; 0.509114;,
       0.579997; 0.022815;,
       0.534766; 0.022815;,
       0.580002; 0.001084;,
       0.534766; 0.001084;,
       0.625231; 0.022815;,
       0.625242; 0.001084;,
       0.670473; 0.022815;,
       0.670503; 0.001084;,
       0.715742; 0.022814;,
       0.715742; 0.001084;,
       0.760967; 0.022814;,
       0.760981; 0.001084;,
       0.806215; 0.022814;,
       0.806210; 0.001084;,
       0.851461; 0.022814;,
       0.851460; 0.001084;,
       0.906400; 0.022814;,
       0.906402; 0.001102;,
       0.951649; 0.022814;,
       0.951649; 0.001084;,
       0.092056; 0.022815;,
       0.046808; 0.022815;,
       0.092054; 0.001084;,
       0.046808; 0.001084;,
       0.137300; 0.022815;,
       0.137300; 0.001084;,
       0.182545; 0.022815;,
       0.182550; 0.001084;,
       0.227793; 0.022815;,
       0.227779; 0.001084;,
       0.273018; 0.022815;,
       0.273018; 0.001084;,
       0.318287; 0.022815;,
       0.318257; 0.001084;,
       0.363528; 0.022815;,
       0.363517; 0.001084;,
       0.408763; 0.022815;,
       0.408758; 0.001084;,
       0.453994; 0.022815;,
       0.453994; 0.001084;,
       0.489532; 0.022815;,
       0.489532; 0.001084;,
       0.454146; 0.104216;,
       0.449231; 0.081444;,
       0.449231; 0.126986;,
       0.434938; 0.060902;,
       0.434938; 0.147528;,
       0.412669; 0.044599;,
       0.412669; 0.163830;,
       0.384606; 0.034134;,
       0.384606; 0.174296;,
       0.353482; 0.024955;,
       0.353482; 0.177902;,
       0.322390; 0.034134;,
       0.322390; 0.174296;,
       0.294327; 0.044599;,
       0.294327; 0.163830;,
       0.272058; 0.060902;,
       0.272058; 0.147528;,
       0.257766; 0.081444;,
       0.257766; 0.126986;,
       0.252850; 0.104216;,
       0.455768; 0.326686;,
       0.455768; 0.349888;,
       0.492786; 0.326686;,
       0.492786; 0.349888;,
       0.539906; 0.326686;,
       0.539906; 0.349888;,
       0.408652; 0.326686;,
       0.408652; 0.349888;,
       0.361533; 0.326686;,
       0.361533; 0.349888;,
       0.314406; 0.326686;,
       0.314406; 0.349888;,
       0.267251; 0.326686;,
       0.267251; 0.349888;,
       0.220142; 0.326686;,
       0.220142; 0.349888;,
       0.173008; 0.326686;,
       0.173008; 0.349888;,
       0.125878; 0.326686;,
       0.125878; 0.349888;,
       0.078748; 0.326686;,
       0.078748; 0.349888;,
       0.031615; 0.326686;,
       0.031615; 0.349888;,
       0.927024; 0.326686;,
       0.927024; 0.349888;,
       0.974158; 0.326686;,
       0.974158; 0.349888;,
       0.869795; 0.326686;,
       0.869795; 0.349888;,
       0.822665; 0.326686;,
       0.822665; 0.349888;,
       0.775531; 0.326686;,
       0.775531; 0.349888;,
       0.728422; 0.326686;,
       0.728422; 0.349888;,
       0.681267; 0.326686;,
       0.681267; 0.349888;,
       0.634140; 0.326686;,
       0.634140; 0.349888;,
       0.587021; 0.326686;,
       0.587021; 0.349888;;
      }

      MeshVertexColors {
       229;
       0; 1.000000; 1.000000; 1.000000; 1.000000;,
       1; 1.000000; 1.000000; 1.000000; 1.000000;,
       2; 1.000000; 1.000000; 1.000000; 1.000000;,
       3; 1.000000; 1.000000; 1.000000; 1.000000;,
       4; 1.000000; 1.000000; 1.000000; 1.000000;,
       5; 1.000000; 1.000000; 1.000000; 1.000000;,
       6; 1.000000; 1.000000; 1.000000; 1.000000;,
       7; 1.000000; 1.000000; 1.000000; 1.000000;,
       8; 1.000000; 1.000000; 1.000000; 1.000000;,
       9; 1.000000; 1.000000; 1.000000; 1.000000;,
       10; 1.000000; 1.000000; 1.000000; 1.000000;,
       11; 1.000000; 1.000000; 1.000000; 1.000000;,
       12; 1.000000; 1.000000; 1.000000; 1.000000;,
       13; 1.000000; 1.000000; 1.000000; 1.000000;,
       14; 1.000000; 1.000000; 1.000000; 1.000000;,
       15; 1.000000; 1.000000; 1.000000; 1.000000;,
       16; 1.000000; 1.000000; 1.000000; 1.000000;,
       17; 1.000000; 1.000000; 1.000000; 1.000000;,
       18; 1.000000; 1.000000; 1.000000; 1.000000;,
       19; 1.000000; 1.000000; 1.000000; 1.000000;,
       20; 1.000000; 1.000000; 1.000000; 1.000000;,
       21; 1.000000; 1.000000; 1.000000; 1.000000;,
       22; 1.000000; 1.000000; 1.000000; 1.000000;,
       23; 1.000000; 1.000000; 1.000000; 1.000000;,
       24; 1.000000; 1.000000; 1.000000; 1.000000;,
       25; 1.000000; 1.000000; 1.000000; 1.000000;,
       26; 1.000000; 1.000000; 1.000000; 1.000000;,
       27; 1.000000; 1.000000; 1.000000; 1.000000;,
       28; 1.000000; 1.000000; 1.000000; 1.000000;,
       29; 1.000000; 1.000000; 1.000000; 1.000000;,
       30; 1.000000; 1.000000; 1.000000; 1.000000;,
       31; 1.000000; 1.000000; 1.000000; 1.000000;,
       32; 1.000000; 1.000000; 1.000000; 1.000000;,
       33; 1.000000; 1.000000; 1.000000; 1.000000;,
       34; 1.000000; 1.000000; 1.000000; 1.000000;,
       35; 1.000000; 1.000000; 1.000000; 1.000000;,
       36; 1.000000; 1.000000; 1.000000; 1.000000;,
       37; 1.000000; 1.000000; 1.000000; 1.000000;,
       38; 1.000000; 1.000000; 1.000000; 1.000000;,
       39; 1.000000; 1.000000; 1.000000; 1.000000;,
       40; 1.000000; 1.000000; 1.000000; 1.000000;,
       41; 1.000000; 1.000000; 1.000000; 1.000000;,
       42; 1.000000; 1.000000; 1.000000; 1.000000;,
       43; 1.000000; 1.000000; 1.000000; 1.000000;,
       44; 1.000000; 1.000000; 1.000000; 1.000000;,
       45; 1.000000; 1.000000; 1.000000; 1.000000;,
       46; 1.000000; 1.000000; 1.000000; 1.000000;,
       47; 1.000000; 1.000000; 1.000000; 1.000000;,
       48; 1.000000; 1.000000; 1.000000; 1.000000;,
       49; 1.000000; 1.000000; 1.000000; 1.000000;,
       50; 1.000000; 1.000000; 1.000000; 1.000000;,
       51; 1.000000; 1.000000; 1.000000; 1.000000;,
       52; 1.000000; 1.000000; 1.000000; 1.000000;,
       53; 1.000000; 1.000000; 1.000000; 1.000000;,
       54; 1.000000; 1.000000; 1.000000; 1.000000;,
       55; 1.000000; 1.000000; 1.000000; 1.000000;,
       56; 1.000000; 1.000000; 1.000000; 1.000000;,
       57; 1.000000; 1.000000; 1.000000; 1.000000;,
       58; 1.000000; 1.000000; 1.000000; 1.000000;,
       59; 1.000000; 1.000000; 1.000000; 1.000000;,
       60; 1.000000; 1.000000; 1.000000; 1.000000;,
       61; 1.000000; 1.000000; 1.000000; 1.000000;,
       62; 1.000000; 1.000000; 1.000000; 1.000000;,
       63; 1.000000; 1.000000; 1.000000; 1.000000;,
       64; 1.000000; 1.000000; 1.000000; 1.000000;,
       65; 1.000000; 1.000000; 1.000000; 1.000000;,
       66; 1.000000; 1.000000; 1.000000; 1.000000;,
       67; 1.000000; 1.000000; 1.000000; 1.000000;,
       68; 1.000000; 1.000000; 1.000000; 1.000000;,
       69; 1.000000; 1.000000; 1.000000; 1.000000;,
       70; 1.000000; 1.000000; 1.000000; 1.000000;,
       71; 1.000000; 1.000000; 1.000000; 1.000000;,
       72; 1.000000; 1.000000; 1.000000; 1.000000;,
       73; 1.000000; 1.000000; 1.000000; 1.000000;,
       74; 1.000000; 1.000000; 1.000000; 1.000000;,
       75; 1.000000; 1.000000; 1.000000; 1.000000;,
       76; 1.000000; 1.000000; 1.000000; 1.000000;,
       77; 1.000000; 1.000000; 1.000000; 1.000000;,
       78; 1.000000; 1.000000; 1.000000; 1.000000;,
       79; 1.000000; 1.000000; 1.000000; 1.000000;,
       80; 1.000000; 1.000000; 1.000000; 1.000000;,
       81; 1.000000; 1.000000; 1.000000; 1.000000;,
       82; 1.000000; 1.000000; 1.000000; 1.000000;,
       83; 1.000000; 1.000000; 1.000000; 1.000000;,
       84; 1.000000; 1.000000; 1.000000; 1.000000;,
       85; 1.000000; 1.000000; 1.000000; 1.000000;,
       86; 1.000000; 1.000000; 1.000000; 1.000000;,
       87; 1.000000; 1.000000; 1.000000; 1.000000;,
       88; 1.000000; 1.000000; 1.000000; 1.000000;,
       89; 1.000000; 1.000000; 1.000000; 1.000000;,
       90; 1.000000; 1.000000; 1.000000; 1.000000;,
       91; 1.000000; 1.000000; 1.000000; 1.000000;,
       92; 1.000000; 1.000000; 1.000000; 1.000000;,
       93; 1.000000; 1.000000; 1.000000; 1.000000;,
       94; 1.000000; 1.000000; 1.000000; 1.000000;,
       95; 1.000000; 1.000000; 1.000000; 1.000000;,
       96; 1.000000; 1.000000; 1.000000; 1.000000;,
       97; 1.000000; 1.000000; 1.000000; 1.000000;,
       98; 1.000000; 1.000000; 1.000000; 1.000000;,
       99; 1.000000; 1.000000; 1.000000; 1.000000;,
       100; 1.000000; 1.000000; 1.000000; 1.000000;,
       101; 1.000000; 1.000000; 1.000000; 1.000000;,
       102; 1.000000; 1.000000; 1.000000; 1.000000;,
       103; 1.000000; 1.000000; 1.000000; 1.000000;,
       104; 1.000000; 1.000000; 1.000000; 1.000000;,
       105; 1.000000; 1.000000; 1.000000; 1.000000;,
       106; 1.000000; 1.000000; 1.000000; 1.000000;,
       107; 1.000000; 1.000000; 1.000000; 1.000000;,
       108; 1.000000; 1.000000; 1.000000; 1.000000;,
       109; 1.000000; 1.000000; 1.000000; 1.000000;,
       110; 1.000000; 1.000000; 1.000000; 1.000000;,
       111; 1.000000; 1.000000; 1.000000; 1.000000;,
       112; 1.000000; 1.000000; 1.000000; 1.000000;,
       113; 1.000000; 1.000000; 1.000000; 1.000000;,
       114; 1.000000; 1.000000; 1.000000; 1.000000;,
       115; 1.000000; 1.000000; 1.000000; 1.000000;,
       116; 1.000000; 1.000000; 1.000000; 1.000000;,
       117; 1.000000; 1.000000; 1.000000; 1.000000;,
       118; 1.000000; 1.000000; 1.000000; 1.000000;,
       119; 1.000000; 1.000000; 1.000000; 1.000000;,
       120; 1.000000; 1.000000; 1.000000; 1.000000;,
       121; 1.000000; 1.000000; 1.000000; 1.000000;,
       122; 1.000000; 1.000000; 1.000000; 1.000000;,
       123; 1.000000; 1.000000; 1.000000; 1.000000;,
       124; 1.000000; 1.000000; 1.000000; 1.000000;,
       125; 1.000000; 1.000000; 1.000000; 1.000000;,
       126; 1.000000; 1.000000; 1.000000; 1.000000;,
       127; 1.000000; 1.000000; 1.000000; 1.000000;,
       128; 1.000000; 1.000000; 1.000000; 1.000000;,
       129; 1.000000; 1.000000; 1.000000; 1.000000;,
       130; 1.000000; 1.000000; 1.000000; 1.000000;,
       131; 1.000000; 1.000000; 1.000000; 1.000000;,
       132; 1.000000; 1.000000; 1.000000; 1.000000;,
       133; 1.000000; 1.000000; 1.000000; 1.000000;,
       134; 1.000000; 1.000000; 1.000000; 1.000000;,
       135; 1.000000; 1.000000; 1.000000; 1.000000;,
       136; 1.000000; 1.000000; 1.000000; 1.000000;,
       137; 1.000000; 1.000000; 1.000000; 1.000000;,
       138; 1.000000; 1.000000; 1.000000; 1.000000;,
       139; 1.000000; 1.000000; 1.000000; 1.000000;,
       140; 1.000000; 1.000000; 1.000000; 1.000000;,
       141; 1.000000; 1.000000; 1.000000; 1.000000;,
       142; 1.000000; 1.000000; 1.000000; 1.000000;,
       143; 1.000000; 1.000000; 1.000000; 1.000000;,
       144; 1.000000; 1.000000; 1.000000; 1.000000;,
       145; 1.000000; 1.000000; 1.000000; 1.000000;,
       146; 1.000000; 1.000000; 1.000000; 1.000000;,
       147; 1.000000; 1.000000; 1.000000; 1.000000;,
       148; 1.000000; 1.000000; 1.000000; 1.000000;,
       149; 1.000000; 1.000000; 1.000000; 1.000000;,
       150; 1.000000; 1.000000; 1.000000; 1.000000;,
       151; 1.000000; 1.000000; 1.000000; 1.000000;,
       152; 1.000000; 1.000000; 1.000000; 1.000000;,
       153; 1.000000; 1.000000; 1.000000; 1.000000;,
       154; 1.000000; 1.000000; 1.000000; 1.000000;,
       155; 1.000000; 1.000000; 1.000000; 1.000000;,
       156; 1.000000; 1.000000; 1.000000; 1.000000;,
       157; 1.000000; 1.000000; 1.000000; 1.000000;,
       158; 1.000000; 1.000000; 1.000000; 1.000000;,
       159; 1.000000; 1.000000; 1.000000; 1.000000;,
       160; 1.000000; 1.000000; 1.000000; 1.000000;,
       161; 1.000000; 1.000000; 1.000000; 1.000000;,
       162; 1.000000; 1.000000; 1.000000; 1.000000;,
       163; 1.000000; 1.000000; 1.000000; 1.000000;,
       164; 1.000000; 1.000000; 1.000000; 1.000000;,
       165; 1.000000; 1.000000; 1.000000; 1.000000;,
       166; 1.000000; 1.000000; 1.000000; 1.000000;,
       167; 1.000000; 1.000000; 1.000000; 1.000000;,
       168; 1.000000; 1.000000; 1.000000; 1.000000;,
       169; 1.000000; 1.000000; 1.000000; 1.000000;,
       170; 1.000000; 1.000000; 1.000000; 1.000000;,
       171; 1.000000; 1.000000; 1.000000; 1.000000;,
       172; 1.000000; 1.000000; 1.000000; 1.000000;,
       173; 1.000000; 1.000000; 1.000000; 1.000000;,
       174; 1.000000; 1.000000; 1.000000; 1.000000;,
       175; 1.000000; 1.000000; 1.000000; 1.000000;,
       176; 1.000000; 1.000000; 1.000000; 1.000000;,
       177; 1.000000; 1.000000; 1.000000; 1.000000;,
       178; 1.000000; 1.000000; 1.000000; 1.000000;,
       179; 1.000000; 1.000000; 1.000000; 1.000000;,
       180; 1.000000; 1.000000; 1.000000; 1.000000;,
       181; 1.000000; 1.000000; 1.000000; 1.000000;,
       182; 1.000000; 1.000000; 1.000000; 1.000000;,
       183; 1.000000; 1.000000; 1.000000; 1.000000;,
       184; 1.000000; 1.000000; 1.000000; 1.000000;,
       185; 1.000000; 1.000000; 1.000000; 1.000000;,
       186; 1.000000; 1.000000; 1.000000; 1.000000;,
       187; 1.000000; 1.000000; 1.000000; 1.000000;,
       188; 1.000000; 1.000000; 1.000000; 1.000000;,
       189; 1.000000; 1.000000; 1.000000; 1.000000;,
       190; 1.000000; 1.000000; 1.000000; 1.000000;,
       191; 1.000000; 1.000000; 1.000000; 1.000000;,
       192; 1.000000; 1.000000; 1.000000; 1.000000;,
       193; 1.000000; 1.000000; 1.000000; 1.000000;,
       194; 1.000000; 1.000000; 1.000000; 1.000000;,
       195; 1.000000; 1.000000; 1.000000; 1.000000;,
       196; 1.000000; 1.000000; 1.000000; 1.000000;,
       197; 1.000000; 1.000000; 1.000000; 1.000000;,
       198; 1.000000; 1.000000; 1.000000; 1.000000;,
       199; 1.000000; 1.000000; 1.000000; 1.000000;,
       200; 1.000000; 1.000000; 1.000000; 1.000000;,
       201; 1.000000; 1.000000; 1.000000; 1.000000;,
       202; 1.000000; 1.000000; 1.000000; 1.000000;,
       203; 1.000000; 1.000000; 1.000000; 1.000000;,
       204; 1.000000; 1.000000; 1.000000; 1.000000;,
       205; 1.000000; 1.000000; 1.000000; 1.000000;,
       206; 1.000000; 1.000000; 1.000000; 1.000000;,
       207; 1.000000; 1.000000; 1.000000; 1.000000;,
       208; 1.000000; 1.000000; 1.000000; 1.000000;,
       209; 1.000000; 1.000000; 1.000000; 1.000000;,
       210; 1.000000; 1.000000; 1.000000; 1.000000;,
       211; 1.000000; 1.000000; 1.000000; 1.000000;,
       212; 1.000000; 1.000000; 1.000000; 1.000000;,
       213; 1.000000; 1.000000; 1.000000; 1.000000;,
       214; 1.000000; 1.000000; 1.000000; 1.000000;,
       215; 1.000000; 1.000000; 1.000000; 1.000000;,
       216; 1.000000; 1.000000; 1.000000; 1.000000;,
       217; 1.000000; 1.000000; 1.000000; 1.000000;,
       218; 1.000000; 1.000000; 1.000000; 1.000000;,
       219; 1.000000; 1.000000; 1.000000; 1.000000;,
       220; 1.000000; 1.000000; 1.000000; 1.000000;,
       221; 1.000000; 1.000000; 1.000000; 1.000000;,
       222; 1.000000; 1.000000; 1.000000; 1.000000;,
       223; 1.000000; 1.000000; 1.000000; 1.000000;,
       224; 1.000000; 1.000000; 1.000000; 1.000000;,
       225; 1.000000; 1.000000; 1.000000; 1.000000;,
       226; 1.000000; 1.000000; 1.000000; 1.000000;,
       227; 1.000000; 1.000000; 1.000000; 1.000000;,
       228; 1.000000; 1.000000; 1.000000; 1.000000;;
      }

      MeshMaterialList {
       1;
       276;
       0,
       0,
       0,
       0,
       0,
       0,
       0,
       0,
       0,
       0,
       0,
       0,
       0,
       0,
       0,
       0,
       0,
       0,
       0,
       0,
       0,
       0,
       0,
       0,
       0,
       0,
       0,
       0,
       0,
       0,
       0,
       0,
       0,
       0,
       0,
       0,
       0,
       0,
       0,
       0,
       0,
       0,
       0,
       0,
       0,
       0,
       0,
       0,
       0,
       0,
       0,
       0,
       0,
       0,
       0,
       0,
       0,
       0,
       0,
       0,
       0,
       0,
       0,
       0,
       0,
       0,
       0,
       0,
       0,
       0,
       0,
       0,
       0,
       0,
       0,
       0,
       0,
       0,
       0,
       0,
       0,
       0,
       0,
       0,
       0,
       0,
       0,
       0,
       0,
       0,
       0,
       0,
       0,
       0,
       0,
       0,
       0,
       0,
       0,
       0,
       0,
       0,
       0,
       0,
       0,
       0,
       0,
       0,
       0,
       0,
       0,
       0,
       0,
       0,
       0,
       0,
       0,
       0,
       0,
       0,
       0,
       0,
       0,
       0,
       0,
       0,
       0,
       0,
       0,
       0,
       0,
       0,
       0,
       0,
       0,
       0,
       0,
       0,
       0,
       0,
       0,
       0,
       0,
       0,
       0,
       0,
       0,
       0,
       0,
       0,
       0,
       0,
       0,
       0,
       0,
       0,
       0,
       0,
       0,
       0,
       0,
       0,
       0,
       0,
       0,
       0,
       0,
       0,
       0,
       0,
       0,
       0,
       0,
       0,
       0,
       0,
       0,
       0,
       0,
       0,
       0,
       0,
       0,
       0,
       0,
       0,
       0,
       0,
       0,
       0,
       0,
       0,
       0,
       0,
       0,
       0,
       0,
       0,
       0,
       0,
       0,
       0,
       0,
       0,
       0,
       0,
       0,
       0,
       0,
       0,
       0,
       0,
       0,
       0,
       0,
       0,
       0,
       0,
       0,
       0,
       0,
       0,
       0,
       0,
       0,
       0,
       0,
       0,
       0,
       0,
       0,
       0,
       0,
       0,
       0,
       0,
       0,
       0,
       0,
       0,
       0,
       0,
       0,
       0,
       0,
       0,
       0,
       0,
       0,
       0,
       0,
       0,
       0,
       0,
       0,
       0,
       0,
       0,
       0,
       0,
       0,
       0,
       0,
       0,
       0,
       0,
       0,
       0,
       0,
       0,
       0,
       0,
       0,
       0,
       0,
       0;

       Material Barrel {
        0.820000; 0.830000; 0.870000; 1.000000;;
        128.000000;
        0.000000; 0.000000; 0.000000;;
        0.000000; 0.000000; 0.000000;;

        TextureFilename {
         "Barrel.dds";
        }
       }

      }

      XSkinMeshHeader {
       1;
       1;
       1;
      }

      SkinWeights {
       "Barrel";
       229;
       0,
       1,
       2,
       3,
       4,
       5,
       6,
       7,
       8,
       9,
       10,
       11,
       12,
       13,
       14,
       15,
       16,
       17,
       18,
       19,
       20,
       21,
       22,
       23,
       24,
       25,
       26,
       27,
       28,
       29,
       30,
       31,
       32,
       33,
       34,
       35,
       36,
       37,
       38,
       39,
       40,
       41,
       42,
       43,
       44,
       45,
       46,
       47,
       48,
       49,
       50,
       51,
       52,
       53,
       54,
       55,
       56,
       57,
       58,
       59,
       60,
       61,
       62,
       63,
       64,
       65,
       66,
       67,
       68,
       69,
       70,
       71,
       72,
       73,
       74,
       75,
       76,
       77,
       78,
       79,
       80,
       81,
       82,
       83,
       84,
       85,
       86,
       87,
       88,
       89,
       90,
       91,
       92,
       93,
       94,
       95,
       96,
       97,
       98,
       99,
       100,
       101,
       102,
       103,
       104,
       105,
       106,
       107,
       108,
       109,
       110,
       111,
       112,
       113,
       114,
       115,
       116,
       117,
       118,
       119,
       120,
       121,
       122,
       123,
       124,
       125,
       126,
       127,
       128,
       129,
       130,
       131,
       132,
       133,
       134,
       135,
       136,
       137,
       138,
       139,
       140,
       141,
       142,
       143,
       144,
       145,
       146,
       147,
       148,
       149,
       150,
       151,
       152,
       153,
       154,
       155,
       156,
       157,
       158,
       159,
       160,
       161,
       162,
       163,
       164,
       165,
       166,
       167,
       168,
       169,
       170,
       171,
       172,
       173,
       174,
       175,
       176,
       177,
       178,
       179,
       180,
       181,
       182,
       183,
       184,
       185,
       186,
       187,
       188,
       189,
       190,
       191,
       192,
       193,
       194,
       195,
       196,
       197,
       198,
       199,
       200,
       201,
       202,
       203,
       204,
       205,
       206,
       207,
       208,
       209,
       210,
       211,
       212,
       213,
       214,
       215,
       216,
       217,
       218,
       219,
       220,
       221,
       222,
       223,
       224,
       225,
       226,
       227,
       228;
       1.000000,
       1.000000,
       1.000000,
       1.000000,
       1.000000,
       1.000000,
       1.000000,
       1.000000,
       1.000000,
       1.000000,
       1.000000,
       1.000000,
       1.000000,
       1.000000,
       1.000000,
       1.000000,
       1.000000,
       1.000000,
       1.000000,
       1.000000,
       1.000000,
       1.000000,
       1.000000,
       1.000000,
       1.000000,
       1.000000,
       1.000000,
       1.000000,
       1.000000,
       1.000000,
       1.000000,
       1.000000,
       1.000000,
       1.000000,
       1.000000,
       1.000000,
       1.000000,
       1.000000,
       1.000000,
       1.000000,
       1.000000,
       1.000000,
       1.000000,
       1.000000,
       1.000000,
       1.000000,
       1.000000,
       1.000000,
       1.000000,
       1.000000,
       1.000000,
       1.000000,
       1.000000,
       1.000000,
       1.000000,
       1.000000,
       1.000000,
       1.000000,
       1.000000,
       1.000000,
       1.000000,
       1.000000,
       1.000000,
       1.000000,
       1.000000,
       1.000000,
       1.000000,
       1.000000,
       1.000000,
       1.000000,
       1.000000,
       1.000000,
       1.000000,
       1.000000,
       1.000000,
       1.000000,
       1.000000,
       1.000000,
       1.000000,
       1.000000,
       1.000000,
       1.000000,
       1.000000,
       1.000000,
       1.000000,
       1.000000,
       1.000000,
       1.000000,
       1.000000,
       1.000000,
       1.000000,
       1.000000,
       1.000000,
       1.000000,
       1.000000,
       1.000000,
       1.000000,
       1.000000,
       1.000000,
       1.000000,
       1.000000,
       1.000000,
       1.000000,
       1.000000,
       1.000000,
       1.000000,
       1.000000,
       1.000000,
       1.000000,
       1.000000,
       1.000000,
       1.000000,
       1.000000,
       1.000000,
       1.000000,
       1.000000,
       1.000000,
       1.000000,
       1.000000,
       1.000000,
       1.000000,
       1.000000,
       1.000000,
       1.000000,
       1.000000,
       1.000000,
       1.000000,
       1.000000,
       1.000000,
       1.000000,
       1.000000,
       1.000000,
       1.000000,
       1.000000,
       1.000000,
       1.000000,
       1.000000,
       1.000000,
       1.000000,
       1.000000,
       1.000000,
       1.000000,
       1.000000,
       1.000000,
       1.000000,
       1.000000,
       1.000000,
       1.000000,
       1.000000,
       1.000000,
       1.000000,
       1.000000,
       1.000000,
       1.000000,
       1.000000,
       1.000000,
       1.000000,
       1.000000,
       1.000000,
       1.000000,
       1.000000,
       1.000000,
       1.000000,
       1.000000,
       1.000000,
       1.000000,
       1.000000,
       1.000000,
       1.000000,
       1.000000,
       1.000000,
       1.000000,
       1.000000,
       1.000000,
       1.000000,
       1.000000,
       1.000000,
       1.000000,
       1.000000,
       1.000000,
       1.000000,
       1.000000,
       1.000000,
       1.000000,
       1.000000,
       1.000000,
       1.000000,
       1.000000,
       1.000000,
       1.000000,
       1.000000,
       1.000000,
       1.000000,
       1.000000,
       1.000000,
       1.000000,
       1.000000,
       1.000000,
       1.000000,
       1.000000,
       1.000000,
       1.000000,
       1.000000,
       1.000000,
       1.000000,
       1.000000,
       1.000000,
       1.000000,
       1.000000,
       1.000000,
       1.000000,
       1.000000,
       1.000000,
       1.000000,
       1.000000,
       1.000000,
       1.000000,
       1.000000,
       1.000000,
       1.000000,
       1.000000,
       1.000000,
       1.000000,
       1.000000,
       1.000000,
       1.000000,
       1.000000,
       1.000000,
       1.000000;
          1.000000, -0.000000, 0.000000, 0.000000,
          -0.000000, 1.000000, -0.000000, 0.000000,
          0.000000, -0.000000, 1.000000, 0.000000,
          -0.000000, -0.000000, -0.000000, 1.000000;;
      }


     }
   }

// Start of Animation

AnimationSet Untitled {
}
