# Wavefront MTL file
# Creator: Ultimate Unwrap3D Pro v3.32
# URL: http://www.unwrap3d.com
# Time: Fri Aug 19 16:38:14 2011
# num_materials: 1

newmtl DungNewF
Ka 1.000000 1.000000 1.000000
Kd 0.980392 0.980392 0.980392
Ks 0.980392 0.980392 0.980392
d 1.000000
illum 2
Ns 1.000000
map_Kd DungNewF.dds

# num_materials: 1
