# Wavefront OBJ file
# Creator: Ultimate Unwrap3D Pro v3.19
# Website: http://www.unwrap3d.com
# Time: Fri Oct 30 15:16:55 2009
# num_vertices: 467
# num_vertex_normals: 467
# num_uvs: 1806
# num_faces: 436
# num_groups: 1

mtllib tqwqq.mtl

v -97.090088 0.000000 -141.563095
v -97.090088 0.000000 141.563095
v -97.090088 17.207802 -141.563095
v -97.090088 19.079601 141.563095
v -97.090088 90.904099 -141.563095
v -97.090088 90.904099 141.563095
v -91.850098 109.501099 -141.563095
v -91.850098 109.501099 141.563095
v -84.060059 123.603104 -141.563095
v -84.060059 123.603104 141.563095
v -82.060059 16.919197 -141.563095
v -81.300049 89.323105 -141.563095
v -80.610107 48.413300 141.563095
v -80.600098 48.433800 107.263893
v -80.570068 40.624603 141.563095
v -80.570068 48.474106 39.973892
v -80.550049 48.494904 5.068893
v -80.550049 45.160706 141.563095
v -80.530029 45.181099 107.263893
v -80.520020 55.386398 141.563095
v -80.510010 48.552299 -90.912094
v -80.510010 55.386200 107.263893
v -80.500000 45.221405 39.973892
v -80.500000 55.386200 73.287903
v -80.500000 48.572205 -124.236099
v -80.489990 45.242203 5.068893
v -80.479980 55.386200 5.068893
v -80.479980 72.523102 141.563095
v -80.469971 72.523102 107.263893
v -80.469971 72.523102 73.287903
v -80.459961 55.386200 -43.402115
v -80.449951 72.523102 5.068893
v -80.449951 45.299599 -90.912094
v -80.449951 72.523102 -43.402115
v -80.439941 55.386200 -90.912094
v -80.439941 72.523102 -90.912094
v -80.429932 16.657204 141.563095
v -80.429932 40.783501 -124.236099
v -80.429932 45.319603 -124.236099
v -80.429932 55.386200 -124.236099
v -80.429932 72.523102 -124.236099
v -80.429932 88.600105 -124.236099
v -80.429932 88.600105 -90.912094
v -80.429932 88.600105 -43.402115
v -80.429932 88.600105 5.068893
v -80.429932 88.600105 73.287903
v -80.429932 88.600105 107.263893
v -80.429932 88.600105 141.563095
v -80.429932 49.108101 73.100891
v -80.360107 45.855400 73.100891
v -80.189941 49.742302 -43.772110
v -80.130127 46.489601 -43.772110
v -80.120117 55.201500 39.973892
v -79.449951 72.325500 39.973892
v -78.830078 88.390099 39.973892
v -78.640137 47.304802 -92.608109
v -78.580078 44.052101 -92.608109
v -78.550049 47.807701 -44.982101
v -78.489990 44.555000 -44.984116
v -78.439941 47.264999 3.677902
v -78.409912 46.842705 39.184891
v -78.380127 44.012299 3.677902
v -78.360107 46.726303 141.563095
v -78.360107 46.750404 106.995895
v -78.350098 43.590004 39.184891
v -78.300049 43.473602 141.563095
v -78.300049 43.497704 106.995895
v -78.270020 46.852303 -124.211105
v -78.239990 47.458504 72.448898
v -78.209961 43.599602 -124.211105
v -78.179932 44.205803 72.448898
v -76.540039 42.261902 -46.418106
v -76.459961 42.631599 -94.541092
v -76.340088 103.130096 -141.563095
v -76.340088 103.130096 -124.236099
v -76.340088 103.130096 -90.912094
v -76.340088 103.130096 -43.402115
v -76.340088 103.130096 5.068893
v -76.340088 103.130096 39.973892
v -76.340088 103.130096 73.287903
v -76.340088 103.130096 107.263893
v -76.340088 103.130096 141.563095
v -76.070068 41.859100 38.347900
v -76.060059 42.663506 2.150894
v -75.919922 41.711304 106.712898
v -75.909912 41.683899 141.563095
v -75.860107 42.455704 71.757889
v -75.840088 41.774704 -124.184097
v -72.400146 136.021103 -141.563095
v -72.400146 136.021103 141.563095
v -72.000000 38.995201 106.246895
v -71.830078 34.566002 141.563095
v -71.830078 34.570801 101.651894
v -71.820068 34.577202 48.385895
v -71.820068 34.582901 0.677902
v -71.820068 34.588100 -42.283096
v -71.820068 34.591103 -67.050095
v -71.810059 34.597202 -118.432114
v -71.810059 34.597900 -124.139114
v -71.800049 38.608200 141.563095
v -71.800049 38.616798 70.685898
v -71.800049 38.620903 36.783890
v -71.800049 38.625305 -0.592102
v -71.790039 38.631203 -50.057114
v -71.790039 38.637100 -99.025101
v -71.790039 38.640099 -124.138107
v -71.699951 16.657204 -124.118118
v -71.699951 16.657204 -118.498093
v -71.699951 16.657204 -71.774094
v -71.699951 16.657204 52.721893
v -71.699951 16.657204 102.692894
v -71.699951 16.657204 141.563095
v -71.689941 17.186607 -30.987106
v -71.689941 17.896202 9.557892
v -71.120117 16.709007 -141.563095
v -70.760010 16.657204 -124.106094
v -70.489990 113.723099 -141.563095
v -70.489990 113.723099 -124.236099
v -70.489990 113.723099 -90.912094
v -70.489990 113.723099 -43.402115
v -70.489990 113.723099 39.973892
v -70.489990 113.723099 107.263893
v -70.489990 113.723099 141.563095
v -70.189941 88.211105 -141.563095
v -70.159912 33.502300 -124.125107
v -70.010010 34.559101 141.563095
v -70.000000 34.590900 -124.139114
v -69.989990 38.601303 141.563095
v -69.969971 38.633202 -124.139114
v -69.469971 88.043098 -124.236099
v -69.000000 112.640106 73.287903
v -68.750000 16.657204 -126.054092
v -68.489990 32.408001 -126.088120
v -68.479980 16.657204 -138.865097
v -68.270020 112.102097 5.075897
v -67.500000 87.942101 -138.865097
v -67.500000 87.942101 -126.211105
v -67.330078 98.580101 -141.563095
v -66.810059 16.657204 -124.047104
v -66.679932 98.253105 -124.236099
v -65.719971 16.657204 -141.563095
v -64.919922 97.363106 -138.865097
v -64.449951 97.050102 -126.192093
v -61.719971 18.251602 102.145897
v -61.540039 0.000000 -141.563095
v -61.540039 0.000000 141.563095
v -61.540039 16.657204 -141.563095
v -61.540039 16.657204 -123.961105
v -61.540039 16.657204 -118.498093
v -61.540039 16.657204 -71.774094
v -61.540039 16.657204 -30.941101
v -61.540039 16.657204 9.664902
v -61.540039 16.657204 52.721893
v -61.540039 16.657204 141.563095
v -61.540039 123.243103 -141.563095
v -61.540039 123.243103 -124.236099
v -61.540039 123.243103 -90.912094
v -61.540039 123.243103 -43.402115
v -61.540039 123.243103 5.068893
v -61.540039 123.243103 107.263893
v -61.540039 123.243103 141.563095
v -61.469971 123.161102 39.973892
v -60.919922 122.550095 73.289902
v -60.600098 109.113098 -141.563095
v -59.939941 108.807098 -124.236099
v -58.150146 107.973099 -138.865097
v -58.150146 107.973099 -126.211105
v -51.320068 117.811096 -141.563095
v -50.679932 117.471100 -124.236099
v -48.939941 116.543106 -138.865097
v -48.760010 151.890106 -141.563095
v -48.760010 151.890106 141.563095
v -48.159912 116.074097 -126.181107
v -41.840088 17.968498 52.258896
v -41.400146 0.000000 -141.563095
v -41.400146 0.000000 141.563095
v -41.400146 16.657204 -141.563095
v -41.400146 16.657204 -30.941101
v -41.400146 16.657204 9.664902
v -41.400146 16.657204 102.692894
v -41.400146 16.657204 141.563095
v -41.400146 136.766098 -141.563095
v -41.400146 136.766098 -124.236099
v -41.400146 136.766098 -90.912094
v -41.400146 136.766098 -43.402115
v -41.400146 136.766098 73.287903
v -41.400146 136.766098 107.263893
v -41.400146 136.766098 141.563095
v -41.189941 136.322098 39.980896
v -41.100098 17.719307 -72.115097
v -40.790039 17.789604 -118.845108
v -40.590088 135.088104 5.072891
v -34.709961 128.370102 -141.563095
v -34.260010 127.803101 -124.236099
v -33.020020 126.259109 -138.865097
v -33.020020 126.259109 -126.211105
v -22.679932 160.361099 -141.563095
v -22.679932 160.361099 141.563095
v -18.580078 0.000000 -141.563095
v -18.580078 0.000000 141.563095
v -18.580078 16.657204 -141.563095
v -18.580078 16.657204 -118.498093
v -18.580078 16.657204 -71.774094
v -18.580078 16.657204 -30.941101
v -18.580078 16.657204 9.664902
v -18.580078 16.657204 52.721893
v -18.580078 16.657204 102.692894
v -18.580078 16.657204 141.563095
v -18.580078 144.180099 -141.563095
v -18.580078 144.180099 -124.236099
v -18.580078 144.180099 -90.912094
v -18.580078 144.180099 -43.402115
v -18.580078 144.180099 5.068893
v -18.580078 144.180099 39.973892
v -18.580078 144.180099 73.287903
v -18.580078 144.180099 107.263893
v -18.580078 144.180099 141.563095
v -16.449951 135.385101 -141.563095
v -16.280029 134.680099 -124.236099
v -15.820068 132.291107 -126.199112
v -15.820068 132.759109 -138.865097
v -0.219971 18.306801 9.097900
v -0.060059 147.891098 -124.236099
v -0.060059 137.701096 -124.236099
v -0.050049 135.725098 -138.865097
v -0.050049 135.725098 -126.211105
v -0.040039 164.271103 -141.563095
v -0.040039 164.271103 141.563095
v -0.040039 147.891098 -90.912094
v 0.000000 0.000000 -141.563095
v 0.000000 0.000000 141.563095
v 0.000000 16.657204 -141.563095
v 0.000000 16.657204 -118.498093
v 0.000000 16.657204 -71.774094
v 0.000000 16.657204 -30.941101
v 0.000000 16.657204 52.721893
v 0.000000 16.657204 102.692894
v 0.000000 16.657204 141.563095
v 0.000000 147.891098 -43.402115
v 0.030029 147.891098 5.068893
v 0.050049 138.426102 -141.563095
v 0.060059 147.891098 -141.563095
v 0.060059 147.891098 39.973892
v 0.080078 147.891098 73.287903
v 0.109863 147.891098 107.263893
v 0.129883 147.891098 141.563095
v 15.340088 132.603104 -126.218094
v 15.489990 132.435104 -138.865097
v 16.280029 134.680099 -124.236099
v 16.449951 135.385101 -141.563095
v 18.010010 17.795006 -71.913101
v 18.570068 0.000000 -141.563095
v 18.570068 0.000000 141.563095
v 18.570068 16.657204 -141.563095
v 18.570068 16.657204 -118.498093
v 18.570068 16.657204 -30.941101
v 18.570068 16.657204 9.664902
v 18.570068 16.657204 52.721893
v 18.570068 16.657204 102.692894
v 18.570068 16.657204 141.563095
v 18.570068 144.180099 -141.563095
v 18.570068 144.180099 -124.236099
v 18.570068 144.180099 -90.912094
v 18.570068 144.180099 -43.402115
v 18.570068 144.180099 5.068893
v 18.570068 144.180099 39.973892
v 18.570068 144.180099 73.287903
v 18.570068 144.180099 107.263893
v 18.570068 144.180099 141.563095
v 22.669922 160.361099 -141.563095
v 22.669922 160.361099 141.563095
v 33.020020 126.259109 -138.865097
v 33.020020 126.259109 -126.211105
v 34.250000 127.803101 -124.236099
v 34.699951 128.370102 -141.563095
v 40.459961 134.836105 73.287903
v 40.609863 135.145096 -43.402115
v 41.399902 0.000000 -141.563095
v 41.399902 0.000000 141.563095
v 41.399902 16.657204 -141.563095
v 41.399902 16.657204 -118.498093
v 41.399902 16.657204 -71.774094
v 41.399902 16.657204 -30.941101
v 41.399902 16.657204 9.664902
v 41.399902 16.657204 52.721893
v 41.399902 16.657204 141.563095
v 41.399902 136.766098 -141.563095
v 41.399902 136.766098 -124.236099
v 41.399902 136.766098 -90.912094
v 41.399902 136.766098 5.068893
v 41.399902 136.766098 39.973892
v 41.399902 136.766098 107.263893
v 41.399902 136.766098 141.563095
v 41.409912 17.462898 102.421898
v 48.300049 116.071106 -126.215103
v 48.609863 116.543106 -138.872116
v 48.750000 151.890106 -141.563095
v 48.750000 151.890106 141.563095
v 50.679932 117.471100 -124.236099
v 51.319946 117.811096 -141.563095
v 58.140015 107.973099 -138.865097
v 58.140015 107.973099 -126.211105
v 59.929932 108.807098 -124.236099
v 60.589966 109.113098 -141.563095
v 61.539917 0.000000 -141.563095
v 61.539917 0.000000 141.563095
v 61.539917 16.657204 -141.563095
v 61.539917 16.657204 -123.961105
v 61.539917 16.657204 -118.498093
v 61.539917 16.657204 -71.774094
v 61.539917 16.657204 9.664902
v 61.539917 16.657204 52.721893
v 61.539917 16.657204 102.692894
v 61.539917 16.657204 141.563095
v 61.539917 123.243103 -141.563095
v 61.539917 123.243103 -124.236099
v 61.539917 123.243103 -90.912094
v 61.539917 123.243103 -43.402115
v 61.539917 123.243103 5.068893
v 61.539917 123.243103 39.973892
v 61.539917 123.243103 73.287903
v 61.539917 123.243103 107.263893
v 61.539917 123.243103 141.563095
v 61.829956 17.666206 -31.265106
v 63.329956 97.363106 -126.249100
v 64.099976 97.200104 -138.881119
v 65.719971 16.657204 -141.563095
v 66.669922 98.253105 -124.236099
v 66.809937 16.657204 -124.047104
v 67.319946 98.580101 -141.563095
v 67.500000 87.942101 -138.865097
v 67.500000 87.942101 -126.211105
v 68.469971 16.657204 -138.865097
v 68.479980 32.408001 -126.088120
v 68.739990 16.657204 -126.054092
v 69.469971 88.043098 -124.236099
v 69.969971 38.633202 -124.139114
v 69.979980 38.601303 141.563095
v 69.989990 34.590900 -124.139114
v 70.010010 34.559101 141.563095
v 70.150024 33.502300 -124.125107
v 70.179932 88.211105 -141.563095
v 70.479980 113.723099 -141.563095
v 70.479980 113.723099 -124.236099
v 70.479980 113.723099 -90.912094
v 70.479980 113.723099 -43.402115
v 70.479980 113.723099 5.068893
v 70.479980 113.723099 39.973892
v 70.479980 113.723099 73.287903
v 70.479980 113.723099 107.263893
v 70.479980 113.723099 141.563095
v 70.760010 16.657204 -124.106094
v 71.119995 16.709007 -141.563095
v 71.689941 16.657204 -124.118118
v 71.689941 16.657204 -118.498093
v 71.689941 16.657204 -71.774094
v 71.689941 16.657204 -30.941101
v 71.689941 16.657204 52.721893
v 71.689941 16.657204 141.563095
v 71.699951 18.151402 102.563896
v 71.780029 38.640099 -124.138107
v 71.789917 38.637802 -105.263107
v 71.789917 38.631599 -52.141098
v 71.789917 38.625305 -1.271103
v 71.789917 38.620903 35.626892
v 71.799927 38.616600 71.219894
v 71.799927 38.612503 106.091896
v 71.799927 38.608200 141.563095
v 71.809937 34.597004 -117.338120
v 71.809937 34.597900 -124.139114
v 71.809937 34.590900 -65.926102
v 71.819946 34.585602 -21.335098
v 71.819946 34.582603 4.134903
v 71.819946 34.577003 48.789902
v 71.819946 34.571003 100.547897
v 71.829956 34.566002 141.563095
v 71.949951 17.665802 9.596893
v 72.390015 136.021103 -141.563095
v 72.390015 136.021103 141.563095
v 73.400024 101.947098 5.079895
v 74.589966 102.451096 39.996902
v 75.239990 41.977798 71.784897
v 75.280029 102.700104 73.287903
v 75.339966 41.384399 -124.179092
v 75.390015 41.301003 141.563095
v 75.419922 41.333801 106.577896
v 75.739990 41.608299 37.593903
v 76.059937 41.870499 1.838898
v 76.329956 103.130096 -141.563095
v 76.329956 103.130096 -124.236099
v 76.329956 103.130096 -90.912094
v 76.329956 103.130096 -43.402115
v 76.329956 103.130096 107.263893
v 76.329956 103.130096 141.563095
v 76.549927 42.845901 -47.533096
v 77.349976 42.922302 -96.034103
v 78.209961 43.793900 72.630890
v 78.229980 43.621506 -124.211105
v 78.299927 46.561600 72.630890
v 78.319946 46.389305 -124.211105
v 78.319946 43.495399 141.563095
v 78.409912 46.263199 141.563095
v 78.469971 88.349106 -90.916092
v 78.559937 43.946800 106.967896
v 78.569946 43.787399 3.675888
v 78.640015 44.234505 38.936890
v 78.640015 46.714401 106.967896
v 78.659912 46.555099 3.673889
v 78.709961 44.182503 -45.256119
v 78.729980 47.002304 38.936890
v 78.789917 46.950302 -45.256119
v 79.199951 45.150902 -93.198105
v 79.289917 70.496201 -90.914108
v 79.289917 47.918503 -93.200119
v 79.880005 88.515099 73.287903
v 80.000000 54.870300 -90.912094
v 80.140015 70.645302 73.287903
v 80.369995 55.004601 73.287903
v 80.429932 16.657204 141.563095
v 80.429932 40.783501 -124.236099
v 80.429932 45.319603 -124.236099
v 80.429932 55.086205 -124.236099
v 80.429932 70.728500 -124.236099
v 80.429932 88.600105 -124.236099
v 80.429932 88.600105 -43.402115
v 80.429932 88.600105 5.068893
v 80.429932 88.600105 39.973892
v 80.429932 88.600105 107.263893
v 80.429932 88.600105 141.563095
v 80.439941 70.728500 -43.402115
v 80.449951 70.728500 5.068893
v 80.459961 55.086205 -43.402115
v 80.459961 70.728500 39.973892
v 80.459961 45.271301 -43.402115
v 80.459961 46.678604 -91.254105
v 80.469971 70.728500 107.263893
v 80.469971 55.086205 5.068893
v 80.479980 70.728500 141.563095
v 80.479980 55.086205 39.973892
v 80.489990 45.242203 5.068893
v 80.510010 55.086205 107.263893
v 80.510010 45.201401 73.287903
v 80.520020 48.087303 -124.236099
v 80.520020 55.086205 141.563095
v 80.539917 45.160706 141.563095
v 80.549927 48.039101 -43.402115
v 80.549927 49.446404 -91.254105
v 80.559937 40.624603 141.563095
v 80.569946 48.010002 5.068893
v 80.589966 45.995201 39.838898
v 80.599976 47.969200 73.287903
v 80.619995 89.256104 -141.563095
v 80.630005 47.928406 141.563095
v 80.679932 48.763000 39.838898
v 80.679932 45.714500 107.231895
v 80.770020 48.482300 107.231895
v 81.209961 16.902901 -141.563095
v 84.049927 123.603104 -141.563095
v 84.049927 123.603104 141.563095
v 91.839966 109.501099 -141.563095
v 91.839966 109.501099 141.563095
v 97.089966 0.000000 -141.563095
v 97.089966 0.000000 141.563095
v 97.089966 17.207802 -141.563095
v 97.089966 19.079601 141.563095
v 97.089966 90.904099 -141.563095
v 97.089966 90.904099 141.563095
# num_vertices: 467

vn -0.577350 -0.577350 -0.577350
vn -0.408248 -0.408248 0.816497
vn -0.707107 0.000000 -0.707107
vn -0.894427 0.000000 0.447214
vn -0.545882 0.075437 -0.834459
vn -0.697130 0.096338 0.710443
vn -0.651927 0.267724 -0.709447
vn -0.651927 0.267724 0.709447
vn -0.569421 0.414569 -0.709854
vn -0.569421 0.414569 0.709854
vn 0.000000 0.000000 -1.000000
vn 0.000000 0.000000 -1.000000
vn -0.300346 0.585605 0.752901
vn -0.455182 0.890365 0.007677
vn 0.000000 0.000000 1.000000
vn -0.483405 0.875370 -0.006854
vn -0.444084 0.895940 0.008956
vn 0.000076 -0.008158 0.999967
vn 0.009770 -0.993643 -0.112154
vn 0.894320 -0.002358 0.447422
vn -0.470473 0.882361 -0.009756
vn 0.999997 -0.002393 0.000220
vn -0.008373 -0.996695 0.080803
vn 0.999942 0.002101 0.010559
vn -0.286602 0.584789 -0.758869
vn -0.005243 -0.972328 -0.233559
vn 0.999753 -0.019971 -0.009734
vn 0.894372 -0.002159 0.447318
vn 0.999997 -0.002413 0.000073
vn 0.999742 -0.011277 0.019704
vn 0.999964 0.008428 0.000261
vn 0.999767 -0.010836 -0.018664
vn -0.030841 -0.473638 0.880179
vn 1.000000 -0.001051 0.000053
vn 0.999961 0.008865 0.000308
vn 1.000000 -0.000302 0.000128
vn 0.000000 0.000000 1.000000
vn 0.999841 0.016919 0.005698
vn 0.023026 -0.022111 -0.999490
vn 0.894320 -0.000444 0.447429
vn 0.894373 0.000000 0.447321
vn 0.697149 -0.096245 0.710436
vn 0.990583 -0.136913 0.000000
vn 0.990540 -0.137221 0.000000
vn 0.990448 -0.137402 -0.011558
vn 0.992657 -0.120354 0.012117
vn 0.990433 -0.137992 0.000000
vn 0.697089 -0.097122 0.710376
vn -0.455915 0.890023 0.000058
vn 0.009791 -0.942102 0.335183
vn -0.431863 0.901937 -0.002201
vn -0.326942 -0.903079 0.278490
vn 0.999870 -0.016114 0.000649
vn 0.999796 -0.020169 0.001041
vn 0.992763 -0.120085 0.000599
vn 0.883393 0.468615 -0.004179
vn 0.908776 0.417282 -0.001207
vn 0.908965 0.416869 -0.001944
vn 0.903434 0.428726 -0.001100
vn 0.904944 0.425493 0.005558
vn 0.876739 0.480922 -0.006540
vn 0.878405 0.477899 0.004157
vn 0.778055 0.397540 0.486408
vn 0.891112 0.453737 0.006462
vn 0.891070 0.453846 -0.004178
vn 0.594736 0.304554 0.744000
vn 0.890403 0.455128 0.006367
vn 0.785508 0.392545 -0.478420
vn 0.890810 0.454377 -0.000206
vn 0.587891 0.317834 -0.743885
vn 0.890354 0.455268 -0.000286
vn 0.644848 0.764310 -0.001393
vn 0.645394 0.763840 -0.003832
vn 0.000000 0.000000 -1.000000
vn 0.651975 -0.267599 0.709450
vn 0.925108 -0.379705 0.000000
vn 0.925033 -0.379624 -0.014138
vn 0.902310 -0.431052 0.005596
vn 0.913508 -0.406777 0.005981
vn 0.920813 -0.390005 -0.000171
vn 0.909980 -0.414425 0.013712
vn 0.651975 -0.267599 0.709450
vn 0.625296 0.780385 -0.002117
vn 0.603216 0.797558 0.005623
vn 0.592857 0.805252 0.009485
vn 0.535896 0.715885 0.447577
vn 0.614973 0.788548 0.000429
vn 0.538733 0.711252 -0.451538
vn -0.456243 0.537263 -0.709359
vn -0.456243 0.537263 0.709359
vn 0.408687 0.912650 0.006627
vn 0.300672 -0.299630 0.905438
vn 0.896682 -0.442675 -0.000054
vn 0.896601 -0.442840 0.000138
vn 0.896683 -0.442674 0.000077
vn 0.896763 -0.442511 -0.000267
vn 0.896580 -0.442881 -0.000207
vn 0.896381 -0.443284 -0.000054
vn 0.707984 -0.706228 -0.000098
vn 0.218598 0.652806 0.725300
vn 0.442831 0.896605 0.000443
vn 0.457185 0.889372 0.000214
vn 0.456772 0.889582 0.001809
vn 0.457681 0.889114 -0.001964
vn 0.442095 0.896968 -0.000482
vn 0.239819 0.640733 -0.729347
vn 0.571013 0.582604 0.578375
vn 0.704834 0.709372 0.000000
vn 0.713935 0.700212 -0.000118
vn 0.676980 0.735907 -0.011764
vn 0.676894 0.735984 -0.011920
vn 0.407744 0.410718 0.815510
vn 0.734766 0.678321 -0.000161
vn 0.726349 0.687327 0.000100
vn 0.242235 0.334416 -0.910762
vn 0.251411 0.732815 0.632277
vn 0.000000 0.000000 -1.000000
vn 0.569302 -0.414704 0.709870
vn 0.808286 -0.588790 0.000000
vn 0.808176 -0.588771 -0.014155
vn 0.804597 -0.593820 -0.001058
vn 0.795801 -0.605215 0.020375
vn 0.569302 -0.414704 0.709870
vn 0.377868 -0.053581 -0.924308
vn 0.376320 -0.004427 0.926479
vn 0.574948 -0.579997 0.577095
vn 0.574964 -0.579869 -0.577207
vn 0.579726 0.574680 0.577635
vn 0.579738 0.574836 -0.577466
vn 0.379353 -0.053228 0.923720
vn 0.794695 -0.607009 0.000441
vn 0.627768 0.731607 0.265817
vn 0.860226 -0.011166 0.509791
vn 0.633799 0.729502 -0.257148
vn 0.805799 -0.592170 0.004791
vn 0.910229 -0.128858 -0.393547
vn 0.918972 -0.129529 0.372441
vn 0.348188 -0.154376 -0.924626
vn 0.000000 1.000000 0.000000
vn 0.323592 -0.138985 0.935933
vn 0.004298 0.896162 -0.443705
vn 0.840016 -0.372652 -0.394339
vn 0.838439 -0.367303 0.402627
vn -0.037523 0.999276 -0.006247
vn 0.000000 -0.707107 -0.707107
vn 0.000000 -0.707107 0.707107
vn 0.000000 0.698140 -0.715962
vn 0.000000 0.999862 -0.016599
vn -0.013630 0.999830 -0.012452
vn -0.013587 0.999908 0.000000
vn 0.030404 0.999538 0.000000
vn 0.030335 0.999540 0.000000
vn -0.056767 0.998255 -0.016243
vn 0.027001 0.699151 0.714464
vn 0.000000 0.000000 -1.000000
vn 0.456120 -0.537388 0.709344
vn 0.647105 -0.762401 0.000000
vn 0.647091 -0.762353 -0.009568
vn 0.672069 -0.740489 -0.000449
vn 0.667528 -0.744553 0.006809
vn 0.456120 -0.537388 0.709344
vn 0.667546 -0.744539 0.006710
vn 0.663079 -0.748537 0.004296
vn 0.298396 -0.249717 -0.921195
vn 0.273435 -0.232568 0.933352
vn 0.706239 -0.589418 -0.392190
vn 0.705276 -0.592426 0.389381
vn 0.236290 -0.310594 -0.920705
vn 0.221982 -0.282715 0.933165
vn 0.556499 -0.733079 -0.391029
vn -0.307742 0.632834 -0.710504
vn -0.307742 0.632834 0.710504
vn 0.561530 -0.730387 0.388868
vn -0.002848 0.999951 -0.009442
vn 0.000000 -0.707107 -0.707107
vn 0.000000 -0.707107 0.707107
vn 0.000000 0.698140 -0.715962
vn -0.001299 0.999978 0.006529
vn 0.000000 0.999970 -0.007694
vn 0.016461 0.999830 0.008265
vn 0.027001 0.699151 0.714464
vn 0.000000 0.000000 -1.000000
vn 0.307805 -0.632803 0.710505
vn 0.437414 -0.899261 0.000000
vn 0.437371 -0.899230 -0.009600
vn 0.446994 -0.894529 0.003691
vn 0.445958 -0.895054 0.000000
vn 0.307805 -0.632803 0.710505
vn 0.438608 -0.898577 0.013517
vn -0.002201 0.999973 0.006994
vn -0.000901 0.999928 -0.011997
vn 0.437577 -0.899181 0.000295
vn 0.168068 -0.343868 -0.923855
vn 0.156551 -0.319888 0.934432
vn 0.404251 -0.827033 -0.390638
vn 0.402654 -0.823334 0.399989
vn -0.169606 0.685532 -0.708011
vn -0.169606 0.685532 0.708011
vn 0.000000 -0.707107 -0.707107
vn 0.000000 -0.707107 0.707107
vn 0.000000 0.707107 -0.707107
vn 0.012726 0.999919 0.000460
vn 0.024407 0.999678 0.006987
vn 0.011678 0.999910 0.006526
vn -0.022390 0.999720 -0.007699
vn -0.008444 0.999963 -0.001329
vn 0.013946 0.999883 0.006368
vn 0.000000 0.707107 0.707107
vn 0.000000 0.000000 -1.000000
vn 0.178865 -0.683513 0.707685
vn 0.253110 -0.967438 -0.000071
vn 0.252959 -0.967477 -0.000072
vn 0.271477 -0.962445 -0.000073
vn 0.276235 -0.961090 -0.000072
vn 0.257429 -0.966297 -0.000072
vn 0.252386 -0.967627 -0.000071
vn 0.178261 -0.683651 0.707703
vn 0.103877 -0.370631 -0.922953
vn 0.105647 -0.373850 0.921452
vn 0.251827 -0.894765 0.368754
vn 0.248847 -0.887230 -0.388456
vn -0.000509 1.000000 0.000000
vn 0.000399 -0.700176 0.713970
vn -0.003054 -0.380783 0.924659
vn -0.005374 -0.923914 -0.382562
vn -0.009189 -0.921947 0.387208
vn -0.000182 0.701908 -0.712267
vn -0.000182 0.701908 0.712267
vn 0.000466 -1.000000 -0.000072
vn 0.000000 -0.707107 -0.707107
vn 0.000000 -0.707107 0.707107
vn 0.000000 0.707107 -0.707107
vn -0.015813 0.999855 -0.006285
vn -0.015815 0.999875 0.000658
vn 0.021881 0.999736 0.006945
vn -0.022388 0.999749 0.000000
vn 0.000000 1.000000 0.000000
vn 0.000000 0.707107 0.707107
vn 0.000155 -1.000000 -0.000073
vn -0.000207 -1.000000 -0.000074
vn 0.000738 -0.380790 -0.924661
vn 0.000000 0.000000 -1.000000
vn -0.000518 -1.000000 -0.000073
vn -0.000776 -1.000000 -0.000074
vn -0.001034 -0.999999 -0.000073
vn -0.000832 -0.700174 0.713972
vn -0.249740 -0.882136 0.399331
vn -0.247426 -0.884308 -0.395955
vn -0.101350 -0.353637 0.929876
vn -0.098250 -0.352867 -0.930501
vn -0.003663 0.999993 0.000659
vn 0.000000 -0.707107 -0.707107
vn 0.000000 -0.707107 0.707107
vn 0.000000 0.707107 -0.707107
vn -0.003662 0.999974 -0.006287
vn 0.021881 0.999736 0.006945
vn 0.021879 0.999761 0.000000
vn -0.008862 0.999953 -0.004049
vn -0.008862 0.999953 -0.004049
vn 0.000000 0.707107 0.707107
vn 0.000000 0.000000 -1.000000
vn -0.178425 -0.683596 0.707716
vn -0.252577 -0.967531 -0.009408
vn -0.270801 -0.962635 -0.000115
vn -0.270971 -0.962543 0.009307
vn -0.253013 -0.967331 -0.015954
vn -0.274651 -0.961544 -0.000177
vn -0.274759 -0.961383 0.015809
vn -0.179032 -0.683456 0.707698
vn 0.169427 0.685569 -0.708018
vn 0.169427 0.685569 0.708018
vn -0.402520 -0.818499 -0.409924
vn -0.405460 -0.827088 0.389267
vn -0.164784 -0.326644 0.930672
vn -0.165714 -0.325983 -0.930738
vn -0.437654 -0.899143 -0.000178
vn -0.437565 -0.899187 -0.000116
vn 0.000000 -0.707107 -0.707107
vn 0.000000 -0.707107 0.707107
vn 0.000000 0.707107 -0.707107
vn 0.012150 0.999926 0.000000
vn -0.000279 0.999981 -0.006133
vn -0.012430 0.999923 0.000033
vn 0.000000 0.999981 0.006161
vn 0.001138 0.999991 -0.004049
vn 0.000000 0.703440 0.710754
vn 0.000000 0.000000 -1.000000
vn -0.307763 -0.632820 0.710508
vn -0.437358 -0.899237 -0.009482
vn -0.437524 -0.899158 0.009331
vn -0.437363 -0.899141 -0.016082
vn -0.437536 -0.899061 0.015837
vn -0.307763 -0.632820 0.710508
vn 0.001138 0.999999 0.001098
vn -0.550621 -0.729612 0.405565
vn -0.552955 -0.732965 -0.396237
vn 0.307743 0.632834 -0.710504
vn 0.307743 0.632834 0.710504
vn -0.210399 -0.277403 0.937432
vn -0.229175 -0.302527 -0.925179
vn -0.717344 -0.569859 -0.400847
vn -0.712396 -0.571533 0.407236
vn -0.269612 -0.219142 0.937703
vn -0.294235 -0.233329 -0.926814
vn 0.000000 -0.707107 -0.707107
vn 0.000000 -0.707107 0.707107
vn 0.000000 0.707107 -0.707107
vn 0.000000 1.000000 0.000000
vn 0.000000 1.000000 0.000000
vn -0.012429 0.999846 -0.012357
vn 0.001131 0.999921 0.012501
vn -0.014129 0.999900 0.000000
vn -0.026445 0.999637 0.005158
vn -0.051249 0.700620 0.711692
vn 0.000000 0.000000 -1.000000
vn -0.456260 -0.537254 0.709355
vn -0.647314 -0.762224 0.000000
vn -0.633089 -0.774079 0.000000
vn -0.633089 -0.774079 0.000000
vn -0.647314 -0.762224 0.000000
vn -0.630344 -0.776316 0.000000
vn -0.630344 -0.776316 0.000000
vn -0.456260 -0.537254 0.709355
vn 0.012835 0.999918 0.000116
vn -0.818995 -0.379884 0.430041
vn -0.822820 -0.378362 -0.424041
vn -0.004298 0.896156 -0.443718
vn -0.287938 -0.136906 0.947812
vn 0.000000 1.000000 0.000000
vn -0.318343 -0.147814 -0.936381
vn -0.896869 -0.161259 -0.411851
vn -0.882475 -0.141574 0.448547
vn -0.635279 0.730934 -0.249310
vn -0.856366 -0.017419 0.516076
vn -0.628275 0.727857 0.274764
vn -0.316707 -0.037691 0.947774
vn -0.580265 0.573780 -0.577987
vn -0.580204 0.573719 0.578108
vn -0.574433 -0.580915 -0.576684
vn -0.574465 -0.580947 0.576620
vn -0.376879 -0.008675 0.926222
vn -0.342881 -0.059021 -0.937523
vn 0.000000 0.000000 -1.000000
vn -0.569428 -0.414551 0.709858
vn -0.808451 -0.588563 0.000000
vn -0.808306 -0.588538 -0.016274
vn -0.844670 -0.535239 -0.007173
vn -0.865037 -0.501482 0.015044
vn -0.843352 -0.537176 0.014100
vn -0.821948 -0.569500 0.008440
vn -0.569428 -0.414551 0.709858
vn -0.253376 0.729868 0.634897
vn -0.242746 0.334636 -0.910546
vn -0.572870 0.581835 0.577311
vn -0.704738 0.709468 0.000001
vn -0.704687 0.709465 -0.008694
vn -0.689699 0.724097 0.000202
vn -0.721839 0.692061 0.000001
vn -0.456097 0.397050 0.796446
vn -0.730704 0.682695 0.000084
vn -0.227048 0.650028 -0.725199
vn -0.428319 0.903628 0.000220
vn -0.449147 0.893458 0.000107
vn -0.447065 0.894502 0.000108
vn -0.423418 0.905935 0.000168
vn -0.461166 0.887314 0.000166
vn -0.460241 0.887794 0.000106
vn -0.219292 0.652506 0.725360
vn -0.896478 -0.443089 -0.000053
vn -0.710735 -0.703460 -0.000059
vn -0.896556 -0.442930 0.000048
vn -0.893984 -0.448099 0.000047
vn -0.894006 -0.448054 -0.000054
vn -0.896688 -0.442663 -0.000053
vn -0.896788 -0.442460 0.000057
vn -0.300666 -0.299458 0.905497
vn -0.708134 0.706022 0.008955
vn 0.456244 0.537263 -0.709359
vn 0.456244 0.537263 0.709359
vn -0.929820 -0.367948 -0.007063
vn -0.932586 -0.360791 0.010632
vn -0.617448 0.786611 0.000264
vn -0.932882 -0.359915 0.013854
vn -0.632815 0.636914 -0.440324
vn -0.536784 0.715371 0.447334
vn -0.635937 0.771728 0.004491
vn -0.600798 0.799389 -0.004266
vn -0.638101 0.769949 0.002298
vn 0.000000 0.000000 -1.000000
vn -0.661275 -0.271739 0.699195
vn -0.936860 -0.349678 -0.004307
vn -0.936893 -0.349569 -0.005828
vn -0.930096 -0.367107 0.012434
vn -0.651902 -0.267812 0.709437
vn -0.602573 0.798063 0.000628
vn -0.636412 0.771340 0.003829
vn -0.881953 0.471337 -0.000443
vn -0.659873 0.239410 -0.712215
vn -0.882238 0.470801 0.001421
vn -0.831332 0.315662 -0.457433
vn -0.595120 0.308654 0.742001
vn -0.776324 0.402281 0.485275
vn -0.993236 -0.115911 -0.006865
vn -0.893346 0.449331 0.005858
vn -0.899486 0.436944 0.002178
vn -0.886771 0.462143 -0.007828
vn -0.893124 0.449797 0.003539
vn -0.898604 0.438759 -0.001198
vn -0.878057 0.478548 -0.002766
vn -0.886907 0.461931 -0.004001
vn -0.879505 0.475889 0.001146
vn -0.906172 0.422801 0.009541
vn -0.999723 -0.023284 -0.003444
vn -0.904907 0.425560 0.006552
vn -0.983438 -0.181247 0.000011
vn -0.999670 -0.025676 -0.001058
vn -0.999964 -0.008513 0.000217
vn -0.999940 -0.010900 0.000834
vn 0.000000 0.000000 1.000000
vn -0.982929 0.183906 0.005499
vn -0.023939 -0.029933 -0.999265
vn -0.896358 -0.019443 0.442904
vn -0.901912 -0.040286 0.430036
vn -0.711892 -0.114429 0.692904
vn -0.994354 -0.104803 0.016599
vn -0.981981 -0.188980 0.000126
vn -0.974796 -0.223001 -0.006544
vn -0.988988 -0.147847 0.006615
vn -0.696983 -0.097447 0.710436
vn -0.999963 -0.001060 0.008575
vn -0.999999 -0.001340 0.000247
vn -0.999890 -0.014642 0.002217
vn -0.999963 -0.008053 -0.003101
vn 0.005323 -0.999737 -0.022313
vn 0.004252 -0.999936 -0.010441
vn -0.999990 -0.002540 0.003607
vn -0.999999 -0.001148 0.001008
vn -0.894320 -0.002397 0.447422
vn -0.999972 -0.007519 -0.000702
vn -0.014837 -0.999823 0.011545
vn -0.999955 -0.009379 0.001318
vn -0.009595 -0.999947 -0.003814
vn 0.184605 0.509084 -0.840687
vn -0.895102 -0.009253 0.445765
vn -0.000121 -0.016884 0.999857
vn 0.477006 0.878862 0.008184
vn 0.440395 0.897802 0.002071
vn 0.000000 0.000000 1.000000
vn 0.439688 0.898143 -0.003723
vn -0.012352 -0.999916 -0.003909
vn 0.473631 0.880719 0.002538
vn 0.000000 0.000000 -1.000000
vn 0.300361 0.577064 0.759461
vn 0.466613 0.884458 -0.002418
vn -0.008062 -0.999967 -0.001115
vn 0.450967 0.892527 0.004976
vn 0.000000 0.000000 -1.000000
vn 0.569421 0.414569 -0.709854
vn 0.569421 0.414569 0.709854
vn 0.651870 0.267890 -0.709437
vn 0.651870 0.267890 0.709437
vn 0.577350 -0.577350 -0.577350
vn 0.408248 -0.408248 0.816497
vn 0.707107 0.000000 -0.707107
vn 0.894427 0.000000 0.447214
vn 0.545850 0.075571 -0.834468
vn 0.697094 0.096510 0.710455
# num_vertex_normals: 467

vt 0.061393 0.953382
vt 0.057971 0.959526
vt 0.061293 0.965932
vt 0.031536 0.936650
vt 0.031536 0.949913
vt 0.036136 0.958667
vt 0.057971 0.959526
vt 0.061393 0.953382
vt 0.061539 0.936650
vt 0.031536 0.949913
vt 0.031536 0.967063
vt 0.036136 0.958667
vt 0.061293 0.965932
vt 0.057971 0.959526
vt 0.061393 0.953382
vt 0.061539 0.936650
vt 0.061393 0.953382
vt 0.057971 0.959526
vt 0.036136 0.958667
vt 0.031536 0.949913
vt 0.031536 0.936650
vt 0.036136 0.958667
vt 0.031536 0.967063
vt 0.031536 0.949913
vt 0.891638 0.941675
vt 0.938648 0.942901
vt 0.938929 0.882690
vt 0.891918 0.881685
vt 0.892275 0.816710
vt 0.939286 0.817715
vt 0.939645 0.752037
vt 0.892634 0.751032
vt 0.891918 0.881685
vt 0.938929 0.882690
vt 0.939286 0.817715
vt 0.892275 0.816710
vt 0.893008 0.682916
vt 0.940017 0.683921
vt 0.940242 0.643051
vt 0.893231 0.642046
vt 0.892828 0.715675
vt 0.939838 0.716680
vt 0.940017 0.683921
vt 0.893008 0.682916
vt 0.892634 0.751032
vt 0.939645 0.752037
vt 0.939838 0.716680
vt 0.892828 0.715675
vt 0.845072 0.944575
vt 0.891638 0.941675
vt 0.891918 0.881685
vt 0.845352 0.880689
vt 0.845709 0.815714
vt 0.892275 0.816710
vt 0.892634 0.751032
vt 0.846068 0.750036
vt 0.845352 0.880689
vt 0.891918 0.881685
vt 0.892275 0.816710
vt 0.845709 0.815714
vt 0.846441 0.681920
vt 0.893008 0.682916
vt 0.893231 0.642046
vt 0.846665 0.641050
vt 0.846261 0.714679
vt 0.892828 0.715675
vt 0.893008 0.682916
vt 0.846441 0.681920
vt 0.846068 0.750036
vt 0.892634 0.751032
vt 0.892828 0.715675
vt 0.846261 0.714679
vt 0.799410 0.943385
vt 0.845072 0.944575
vt 0.845352 0.880689
vt 0.799690 0.879713
vt 0.800047 0.814738
vt 0.845709 0.815714
vt 0.846068 0.750036
vt 0.800406 0.749060
vt 0.799690 0.879713
vt 0.845352 0.880689
vt 0.845709 0.815714
vt 0.800047 0.814738
vt 0.800779 0.680944
vt 0.846441 0.681920
vt 0.846665 0.641050
vt 0.801004 0.640074
vt 0.800600 0.713703
vt 0.846261 0.714679
vt 0.846441 0.681920
vt 0.800779 0.680944
vt 0.800406 0.749060
vt 0.846068 0.750036
vt 0.846261 0.714679
vt 0.800600 0.713703
vt 0.751569 0.942138
vt 0.799410 0.943385
vt 0.799690 0.879713
vt 0.751850 0.878690
vt 0.752207 0.813715
vt 0.800047 0.814738
vt 0.800406 0.749060
vt 0.752565 0.748036
vt 0.751850 0.878690
vt 0.799690 0.879713
vt 0.800047 0.814738
vt 0.752207 0.813715
vt 0.752939 0.679921
vt 0.800779 0.680944
vt 0.801004 0.640074
vt 0.753163 0.639051
vt 0.752760 0.712680
vt 0.800600 0.713703
vt 0.800779 0.680944
vt 0.752939 0.679921
vt 0.752565 0.748036
vt 0.800406 0.749060
vt 0.800600 0.713703
vt 0.752760 0.712680
vt 0.685136 0.943697
vt 0.751569 0.942138
vt 0.751850 0.878690
vt 0.685416 0.877269
vt 0.685772 0.812294
vt 0.752207 0.813715
vt 0.752565 0.748036
vt 0.686132 0.746616
vt 0.685416 0.877269
vt 0.751850 0.878690
vt 0.752207 0.813715
vt 0.685772 0.812294
vt 0.686506 0.678501
vt 0.752939 0.679921
vt 0.753163 0.639051
vt 0.686729 0.637631
vt 0.686326 0.711260
vt 0.752760 0.712680
vt 0.752939 0.679921
vt 0.686506 0.678501
vt 0.686132 0.746616
vt 0.752565 0.748036
vt 0.752760 0.712680
vt 0.686326 0.711260
vt 0.574344 0.940810
vt 0.620018 0.942001
vt 0.620297 0.875877
vt 0.574624 0.874900
vt 0.620018 0.942001
vt 0.685136 0.943697
vt 0.685416 0.877269
vt 0.620297 0.875877
vt 0.574980 0.809926
vt 0.620654 0.810903
vt 0.621013 0.745224
vt 0.575340 0.744248
vt 0.620654 0.810903
vt 0.685772 0.812294
vt 0.686132 0.746616
vt 0.621013 0.745224
vt 0.574624 0.874900
vt 0.620297 0.875877
vt 0.620654 0.810903
vt 0.574980 0.809926
vt 0.620297 0.875877
vt 0.685416 0.877269
vt 0.685772 0.812294
vt 0.620654 0.810903
vt 0.575714 0.676132
vt 0.621387 0.677109
vt 0.621610 0.636239
vt 0.575937 0.635262
vt 0.621387 0.677109
vt 0.686506 0.678501
vt 0.686729 0.637631
vt 0.621610 0.636239
vt 0.575535 0.708891
vt 0.621208 0.709868
vt 0.621387 0.677109
vt 0.575714 0.676132
vt 0.621208 0.709868
vt 0.686326 0.711260
vt 0.686506 0.678501
vt 0.621387 0.677109
vt 0.575340 0.744248
vt 0.621013 0.745224
vt 0.621208 0.709868
vt 0.575535 0.708891
vt 0.621013 0.745224
vt 0.686132 0.746616
vt 0.686326 0.711260
vt 0.621208 0.709868
vt 0.893231 0.642046
vt 0.940242 0.643051
vt 0.940480 0.599528
vt 0.893470 0.598523
vt 0.846665 0.641050
vt 0.893231 0.642046
vt 0.893470 0.598523
vt 0.846904 0.597527
vt 0.801004 0.640074
vt 0.846665 0.641050
vt 0.846904 0.597527
vt 0.801242 0.596373
vt 0.753163 0.639051
vt 0.801004 0.640074
vt 0.801242 0.596373
vt 0.753402 0.595528
vt 0.686729 0.637631
vt 0.753163 0.639051
vt 0.753402 0.595528
vt 0.686968 0.594108
vt 0.575937 0.635262
vt 0.621610 0.636239
vt 0.621849 0.592716
vt 0.576176 0.591739
vt 0.621610 0.636239
vt 0.686729 0.637631
vt 0.686968 0.594108
vt 0.621849 0.592716
vt 0.940480 0.599528
vt 0.940734 0.553136
vt 0.893724 0.552130
vt 0.893470 0.598523
vt 0.893470 0.598523
vt 0.893724 0.552130
vt 0.847157 0.551135
vt 0.846904 0.597527
vt 0.846904 0.597527
vt 0.847157 0.551135
vt 0.801498 0.549790
vt 0.801242 0.596373
vt 0.801242 0.596373
vt 0.801498 0.549790
vt 0.753655 0.549136
vt 0.753402 0.595528
vt 0.753402 0.595528
vt 0.753655 0.549136
vt 0.687222 0.547716
vt 0.686968 0.594108
vt 0.621849 0.592716
vt 0.622104 0.546323
vt 0.576430 0.545347
vt 0.576176 0.591739
vt 0.622104 0.546323
vt 0.622253 0.519016
vt 0.576580 0.518094
vt 0.576430 0.545347
vt 0.686968 0.594108
vt 0.687222 0.547716
vt 0.622104 0.546323
vt 0.621849 0.592716
vt 0.940734 0.553136
vt 0.940886 0.525452
vt 0.893875 0.524503
vt 0.893724 0.552130
vt 0.893724 0.552130
vt 0.893875 0.524503
vt 0.847309 0.523562
vt 0.847157 0.551135
vt 0.847157 0.551135
vt 0.847309 0.523562
vt 0.801647 0.522640
vt 0.801498 0.549790
vt 0.801498 0.549790
vt 0.801647 0.522640
vt 0.753806 0.521673
vt 0.753655 0.549136
vt 0.753655 0.549136
vt 0.753806 0.521673
vt 0.687372 0.520332
vt 0.687222 0.547716
vt 0.687222 0.547716
vt 0.687372 0.520332
vt 0.622253 0.519016
vt 0.622104 0.546323
vt 0.447876 0.800164
vt 0.514133 0.800164
vt 0.514133 0.741172
vt 0.447876 0.741172
vt 0.447876 0.872671
vt 0.514133 0.872671
vt 0.514133 0.800164
vt 0.447876 0.800164
vt 0.447876 0.936650
vt 0.514133 0.936650
vt 0.514133 0.872671
vt 0.447876 0.872671
vt 0.514133 0.741172
vt 0.514133 0.800164
vt 0.447876 0.800164
vt 0.447876 0.741172
vt 0.514133 0.800164
vt 0.514133 0.872671
vt 0.447876 0.872671
vt 0.447876 0.800164
vt 0.514133 0.872671
vt 0.514133 0.936650
vt 0.447876 0.936650
vt 0.447876 0.872671
vt 0.362702 0.800164
vt 0.447876 0.800164
vt 0.447876 0.741172
vt 0.362702 0.741172
vt 0.362702 0.872671
vt 0.447876 0.872671
vt 0.447876 0.800164
vt 0.362702 0.800164
vt 0.362702 0.936650
vt 0.447876 0.936650
vt 0.447876 0.872671
vt 0.362702 0.872671
vt 0.447876 0.800164
vt 0.362702 0.800164
vt 0.362702 0.741172
vt 0.447876 0.741172
vt 0.447876 0.872671
vt 0.362702 0.872671
vt 0.362702 0.800164
vt 0.447876 0.800164
vt 0.447876 0.936650
vt 0.362702 0.936650
vt 0.362702 0.872671
vt 0.447876 0.872671
vt 0.289308 0.800164
vt 0.362702 0.800164
vt 0.362702 0.741172
vt 0.289308 0.741171
vt 0.289308 0.872671
vt 0.362702 0.872671
vt 0.362702 0.800164
vt 0.289308 0.800164
vt 0.289308 0.936650
vt 0.362702 0.936650
vt 0.362702 0.872671
vt 0.289308 0.872671
vt 0.362702 0.800164
vt 0.289308 0.800164
vt 0.289308 0.741171
vt 0.362702 0.741172
vt 0.362702 0.872671
vt 0.289308 0.872671
vt 0.289308 0.800164
vt 0.362702 0.800164
vt 0.362702 0.936650
vt 0.289308 0.936650
vt 0.289308 0.872671
vt 0.362702 0.872671
vt 0.220094 0.800164
vt 0.289308 0.800164
vt 0.289308 0.741171
vt 0.220094 0.741171
vt 0.220094 0.872671
vt 0.289308 0.872671
vt 0.289308 0.800164
vt 0.220094 0.800164
vt 0.220094 0.936650
vt 0.289308 0.936650
vt 0.289308 0.872671
vt 0.220094 0.872671
vt 0.289308 0.800164
vt 0.220094 0.800164
vt 0.220094 0.741171
vt 0.289308 0.741171
vt 0.289308 0.872671
vt 0.220094 0.872671
vt 0.220094 0.800164
vt 0.289308 0.800164
vt 0.289308 0.936650
vt 0.220094 0.936650
vt 0.220094 0.872671
vt 0.289308 0.872671
vt 0.220094 0.936650
vt 0.289308 0.936650
vt 0.289308 0.968896
vt 0.220094 0.968896
vt 0.150493 0.800164
vt 0.220094 0.800164
vt 0.220094 0.741171
vt 0.150493 0.741171
vt 0.150493 0.872671
vt 0.220094 0.872671
vt 0.220094 0.800164
vt 0.150493 0.800164
vt 0.150492 0.936650
vt 0.220094 0.936650
vt 0.220094 0.872671
vt 0.150493 0.872671
vt 0.220094 0.936650
vt 0.150492 0.936650
vt 0.150493 0.968896
vt 0.220094 0.968896
vt 0.220094 0.800164
vt 0.150493 0.800164
vt 0.150493 0.741171
vt 0.220094 0.741171
vt 0.220094 0.872671
vt 0.150493 0.872671
vt 0.150493 0.800164
vt 0.220094 0.800164
vt 0.220094 0.936650
vt 0.150492 0.936650
vt 0.150493 0.872671
vt 0.220094 0.872671
vt 0.031536 0.741171
vt 0.031536 0.800164
vt 0.070851 0.800164
vt 0.070851 0.741171
vt 0.070851 0.800164
vt 0.150493 0.800164
vt 0.150493 0.741171
vt 0.070851 0.741171
vt 0.031536 0.800164
vt 0.031536 0.872671
vt 0.070851 0.872671
vt 0.070851 0.800164
vt 0.070851 0.872671
vt 0.150493 0.872671
vt 0.150493 0.800164
vt 0.070851 0.800164
vt 0.031536 0.872671
vt 0.031536 0.936650
vt 0.061539 0.936650
vt 0.070851 0.936650
vt 0.070851 0.872671
vt 0.070851 0.936650
vt 0.150492 0.936650
vt 0.150493 0.872671
vt 0.070851 0.872671
vt 0.150493 0.800164
vt 0.070851 0.800164
vt 0.070851 0.741171
vt 0.150493 0.741171
vt 0.070851 0.800164
vt 0.031536 0.800164
vt 0.031536 0.741171
vt 0.070851 0.741171
vt 0.150493 0.872671
vt 0.070851 0.872671
vt 0.070851 0.800164
vt 0.150493 0.800164
vt 0.070851 0.872671
vt 0.031536 0.872671
vt 0.031536 0.800164
vt 0.070851 0.800164
vt 0.150492 0.936650
vt 0.070851 0.936650
vt 0.070851 0.872671
vt 0.150493 0.872671
vt 0.070851 0.936650
vt 0.061539 0.936650
vt 0.031536 0.936650
vt 0.031536 0.872671
vt 0.070851 0.872671
vt 0.514133 0.968896
vt 0.514133 0.936650
vt 0.447876 0.936650
vt 0.447876 0.968896
vt 0.447876 0.936650
vt 0.362702 0.936650
vt 0.362702 0.968896
vt 0.447876 0.968896
vt 0.362702 0.936650
vt 0.289308 0.936650
vt 0.289308 0.968896
vt 0.362702 0.968896
vt 0.289308 0.936650
vt 0.220094 0.936650
vt 0.220094 0.968896
vt 0.289308 0.968896
vt 0.070851 0.936650
vt 0.061539 0.936650
vt 0.061393 0.953382
vt 0.061293 0.965932
vt 0.061272 0.968896
vt 0.070851 0.968896
vt 0.150492 0.936650
vt 0.070851 0.936650
vt 0.070851 0.968896
vt 0.150493 0.968896
vt 0.447876 0.936650
vt 0.514133 0.936650
vt 0.514133 0.968896
vt 0.447876 0.968896
vt 0.362702 0.936650
vt 0.447876 0.936650
vt 0.447876 0.968896
vt 0.362702 0.968896
vt 0.289308 0.936650
vt 0.362702 0.936650
vt 0.362702 0.968896
vt 0.289308 0.968896
vt 0.061272 0.968896
vt 0.061293 0.965932
vt 0.061393 0.953382
vt 0.061539 0.936650
vt 0.070851 0.936650
vt 0.070851 0.968896
vt 0.070851 0.936650
vt 0.150492 0.936650
vt 0.150493 0.968896
vt 0.070851 0.968896
vt 0.150492 0.936650
vt 0.220094 0.936650
vt 0.220094 0.968896
vt 0.150493 0.968896
vt 0.938790 0.587583
vt 0.872922 0.586444
vt 0.889315 0.589920
vt 0.922249 0.590489
vt 0.938758 0.649229
vt 0.938790 0.587583
vt 0.922249 0.590489
vt 0.922232 0.645520
vt 0.492344 0.579864
vt 0.428349 0.578757
vt 0.443846 0.581625
vt 0.475844 0.582179
vt 0.428349 0.578757
vt 0.428358 0.640413
vt 0.443851 0.636661
vt 0.443846 0.581625
vt 0.872922 0.586444
vt 0.807676 0.585316
vt 0.823787 0.588778
vt 0.889315 0.589920
vt 0.807676 0.585316
vt 0.743698 0.584210
vt 0.759330 0.587555
vt 0.823787 0.588778
vt 0.743698 0.584210
vt 0.676667 0.583051
vt 0.692853 0.586192
vt 0.759330 0.587555
vt 0.676667 0.583051
vt 0.583584 0.581441
vt 0.606079 0.584606
vt 0.692853 0.586192
vt 0.583584 0.581441
vt 0.492344 0.579864
vt 0.475844 0.582179
vt 0.606079 0.584606
vt 0.872922 0.586444
vt 0.938790 0.587583
vt 0.922250 0.590641
vt 0.889316 0.590071
vt 0.938790 0.587583
vt 0.938757 0.600988
vt 0.922234 0.597343
vt 0.922250 0.590641
vt 0.428349 0.578757
vt 0.492344 0.579864
vt 0.475955 0.582554
vt 0.443957 0.582001
vt 0.428358 0.592169
vt 0.428349 0.578757
vt 0.443957 0.582001
vt 0.443962 0.588707
vt 0.807676 0.585316
vt 0.872922 0.586444
vt 0.889316 0.590071
vt 0.823758 0.588892
vt 0.743698 0.584210
vt 0.807676 0.585316
vt 0.823758 0.588892
vt 0.759338 0.587720
vt 0.676667 0.583051
vt 0.743698 0.584210
vt 0.759338 0.587720
vt 0.692922 0.586404
vt 0.583584 0.581441
vt 0.676667 0.583051
vt 0.692922 0.586404
vt 0.606210 0.584645
vt 0.492344 0.579864
vt 0.583584 0.581441
vt 0.606210 0.584645
vt 0.475955 0.582554
vt 0.397728 0.697083
vt 0.028333 0.697083
vt 0.028333 0.547883
vt 0.397728 0.551673
vt 0.397728 0.551152
vt 0.028333 0.547362
vt 0.028333 0.696562
vt 0.397728 0.696562
vt 0.850396 0.784244
vt 0.938778 0.784244
vt 0.938778 0.524144
vt 0.850395 0.524144
vt 0.697368 0.784244
vt 0.743550 0.784244
vt 0.743550 0.524144
vt 0.697368 0.524144
vt 0.397728 0.916460
vt 0.397728 0.962606
vt 0.028333 0.962606
vt 0.028333 0.916460
vt 0.800311 0.784244
vt 0.850396 0.784244
vt 0.850395 0.524144
vt 0.800311 0.524144
vt 0.397728 0.803306
vt 0.397728 0.860946
vt 0.028333 0.860946
vt 0.028333 0.803306
vt 0.743550 0.784244
vt 0.800311 0.784244
vt 0.800311 0.524144
vt 0.743550 0.524144
vt 0.397728 0.860946
vt 0.397728 0.916460
vt 0.028333 0.916460
vt 0.028333 0.860946
vt 0.397728 0.697083
vt 0.397728 0.736201
vt 0.028333 0.736201
vt 0.028333 0.697083
vt 0.397728 0.736201
vt 0.397728 0.768816
vt 0.028333 0.768816
vt 0.028333 0.736201
vt 0.397728 0.768816
vt 0.397728 0.803306
vt 0.028333 0.803306
vt 0.028333 0.768816
vt 0.106415 0.790353
vt 0.033592 0.757515
vt 0.051989 0.807462
vt 0.126943 0.818802
vt 0.106415 0.790353
vt 0.051989 0.807462
vt 0.079317 0.845336
vt 0.309093 0.558109
vt 0.374264 0.558109
vt 0.374264 0.513373
vt 0.309093 0.513373
vt 0.374471 0.910567
vt 0.309093 0.900601
vt 0.294697 0.944058
vt 0.374121 0.954560
vt 0.158316 0.558109
vt 0.228995 0.558109
vt 0.228995 0.513373
vt 0.158316 0.513373
vt 0.228995 0.880688
vt 0.158316 0.844370
vt 0.120242 0.878688
vt 0.203185 0.921308
vt 0.158316 0.844370
vt 0.126943 0.818802
vt 0.079317 0.845336
vt 0.120242 0.878688
vt 0.228995 0.558109
vt 0.309093 0.558109
vt 0.309093 0.513373
vt 0.228995 0.513373
vt 0.309093 0.900601
vt 0.228995 0.880688
vt 0.203185 0.921308
vt 0.294697 0.944058
vt 0.092038 0.751328
vt 0.106415 0.790353
vt 0.051989 0.807462
vt 0.033592 0.757515
vt 0.106415 0.790353
vt 0.126943 0.818802
vt 0.079317 0.845336
vt 0.051989 0.807462
vt 0.374264 0.558109
vt 0.309093 0.558109
vt 0.309093 0.513373
vt 0.374264 0.513373
vt 0.309093 0.900601
vt 0.374739 0.910567
vt 0.374121 0.954560
vt 0.294697 0.944058
vt 0.228995 0.558109
vt 0.158316 0.558109
vt 0.158316 0.513373
vt 0.228995 0.513373
vt 0.158316 0.844370
vt 0.228995 0.880688
vt 0.203185 0.921308
vt 0.120242 0.878688
vt 0.126943 0.818802
vt 0.158316 0.844370
vt 0.120242 0.878688
vt 0.079317 0.845336
vt 0.309093 0.558109
vt 0.228995 0.558109
vt 0.228995 0.513373
vt 0.309093 0.513373
vt 0.228995 0.880688
vt 0.309093 0.900601
vt 0.294697 0.944058
vt 0.203185 0.921308
vt 0.158316 0.558109
vt 0.122692 0.558109
vt 0.092038 0.558109
vt 0.033592 0.513373
vt 0.158316 0.513373
vt 0.954088 0.759981
vt 0.934425 0.761369
vt 0.934593 0.675985
vt 0.950161 0.632915
vt 0.700802 0.663234
vt 0.655543 0.664043
vt 0.654928 0.606301
vt 0.700455 0.607082
vt 0.733630 0.664135
vt 0.700802 0.663234
vt 0.700455 0.607082
vt 0.734607 0.608351
vt 0.776330 0.663343
vt 0.733630 0.664135
vt 0.734607 0.608351
vt 0.777300 0.608284
vt 0.844814 0.663891
vt 0.776330 0.663343
vt 0.777300 0.608284
vt 0.843789 0.608041
vt 0.896636 0.663301
vt 0.844814 0.663891
vt 0.843789 0.608041
vt 0.898441 0.607865
vt 0.947758 0.663316
vt 0.896636 0.663301
vt 0.898441 0.607865
vt 0.947774 0.608200
vt 0.428851 0.535831
vt 0.438045 0.535831
vt 0.444029 0.621823
vt 0.427710 0.627415
vt 0.426676 0.595632
vt 0.479206 0.595547
vt 0.482753 0.605742
vt 0.428006 0.602821
vt 0.956861 0.600431
vt 0.903172 0.602161
vt 0.902635 0.591383
vt 0.955435 0.589831
vt 0.664593 0.606208
vt 0.664426 0.595228
vt 0.697053 0.594976
vt 0.697299 0.605567
vt 0.664593 0.606208
vt 0.482753 0.605742
vt 0.479206 0.595547
vt 0.664426 0.595228
vt 0.697299 0.605567
vt 0.697053 0.594976
vt 0.738776 0.594530
vt 0.737226 0.605042
vt 0.737226 0.605042
vt 0.738776 0.594530
vt 0.780410 0.593925
vt 0.777646 0.604167
vt 0.777646 0.604167
vt 0.780410 0.593925
vt 0.841949 0.592816
vt 0.840752 0.603514
vt 0.840752 0.603514
vt 0.841949 0.592816
vt 0.902635 0.591383
vt 0.903172 0.602161
vt 0.397728 0.513046
vt 0.397728 0.551673
vt 0.028333 0.547883
vt 0.028333 0.513046
vt 0.655527 0.566415
vt 0.619583 0.568009
vt 0.618805 0.509822
vt 0.656104 0.509893
vt 0.482426 0.568709
vt 0.431107 0.568085
vt 0.431764 0.509044
vt 0.482888 0.509148
vt 0.587189 0.568615
vt 0.540992 0.567145
vt 0.541577 0.509912
vt 0.588413 0.508854
vt 0.619583 0.568009
vt 0.587189 0.568615
vt 0.588413 0.508854
vt 0.618805 0.509822
vt 0.540992 0.567145
vt 0.482426 0.568709
vt 0.482888 0.509148
vt 0.541577 0.509912
vt 0.954809 0.538159
vt 0.955435 0.589831
vt 0.902635 0.591383
vt 0.901745 0.540383
vt 0.841226 0.541768
vt 0.841949 0.592816
vt 0.780410 0.593925
vt 0.779835 0.542846
vt 0.901745 0.540383
vt 0.902635 0.591383
vt 0.841949 0.592816
vt 0.841226 0.541768
vt 0.696818 0.543626
vt 0.697053 0.594976
vt 0.664426 0.595228
vt 0.664449 0.543619
vt 0.738387 0.543342
vt 0.738776 0.594530
vt 0.697053 0.594976
vt 0.696818 0.543626
vt 0.779835 0.542846
vt 0.780410 0.593925
vt 0.738776 0.594530
vt 0.738387 0.543342
vt 0.664449 0.543619
vt 0.664426 0.595228
vt 0.479206 0.595547
vt 0.426676 0.595632
vt 0.426196 0.542857
vt 0.665765 0.540583
vt 0.426196 0.542857
vt 0.426201 0.511802
vt 0.666862 0.509257
vt 0.665765 0.540583
vt 0.666862 0.509257
vt 0.697180 0.510868
vt 0.696881 0.540690
vt 0.696881 0.540690
vt 0.697180 0.510868
vt 0.739645 0.512115
vt 0.739755 0.542148
vt 0.739755 0.542148
vt 0.739645 0.512115
vt 0.778857 0.510979
vt 0.778302 0.540661
vt 0.954809 0.538159
vt 0.906959 0.540433
vt 0.905171 0.507434
vt 0.953802 0.509563
vt 0.906959 0.540433
vt 0.837588 0.541791
vt 0.838192 0.509897
vt 0.905171 0.507434
vt 0.837588 0.541791
vt 0.778302 0.540661
vt 0.778857 0.510979
vt 0.838192 0.509897
vt 0.938588 0.667409
vt 0.428321 0.658780
vt 0.428362 0.639508
vt 0.938635 0.648223
vt 0.934690 0.639646
vt 0.934593 0.675985
vt 0.938588 0.667409
vt 0.938635 0.648223
vt 0.006602 0.469904
vt 0.006602 0.469904
vt 0.006602 0.469904
vt 0.006602 0.469904
vt 0.544341 0.524144
vt 0.455958 0.524144
vt 0.455958 0.784244
vt 0.544341 0.784244
vt 0.697368 0.524144
vt 0.651186 0.524144
vt 0.651186 0.784244
vt 0.697368 0.784244
vt 0.028333 0.915939
vt 0.028333 0.962606
vt 0.397728 0.962606
vt 0.397728 0.915939
vt 0.594426 0.524144
vt 0.544341 0.524144
vt 0.544341 0.784244
vt 0.594426 0.784244
vt 0.028333 0.802785
vt 0.028333 0.860424
vt 0.397728 0.860424
vt 0.397728 0.802785
vt 0.651186 0.524144
vt 0.594426 0.524144
vt 0.594426 0.784244
vt 0.651186 0.784244
vt 0.028333 0.860424
vt 0.028333 0.915939
vt 0.397728 0.915939
vt 0.397728 0.860424
vt 0.028333 0.696562
vt 0.028333 0.735680
vt 0.397728 0.735680
vt 0.397728 0.696562
vt 0.028333 0.735680
vt 0.028333 0.768294
vt 0.397728 0.768294
vt 0.397728 0.735680
vt 0.028333 0.768294
vt 0.028333 0.802785
vt 0.397728 0.802785
vt 0.397728 0.768294
vt 0.060329 0.807462
vt 0.041933 0.757515
vt 0.114755 0.790353
vt 0.087658 0.845336
vt 0.060329 0.807462
vt 0.114755 0.790353
vt 0.135284 0.818802
vt 0.317434 0.513373
vt 0.382606 0.513373
vt 0.382606 0.558109
vt 0.317434 0.558109
vt 0.382749 0.954560
vt 0.303038 0.944058
vt 0.317434 0.900601
vt 0.382399 0.910567
vt 0.166657 0.513373
vt 0.237335 0.513373
vt 0.237335 0.558109
vt 0.166657 0.558109
vt 0.211525 0.921308
vt 0.128582 0.878688
vt 0.166657 0.844370
vt 0.237335 0.880688
vt 0.128582 0.878688
vt 0.087658 0.845336
vt 0.135284 0.818802
vt 0.166657 0.844370
vt 0.237335 0.513373
vt 0.317434 0.513373
vt 0.317434 0.558109
vt 0.237335 0.558109
vt 0.303038 0.944058
vt 0.211525 0.921308
vt 0.237335 0.880688
vt 0.317434 0.900601
vt 0.041933 0.757515
vt 0.060329 0.807462
vt 0.114755 0.790353
vt 0.100378 0.751328
vt 0.060329 0.807462
vt 0.087658 0.845336
vt 0.135284 0.818802
vt 0.114755 0.790353
vt 0.382606 0.513373
vt 0.317434 0.513373
vt 0.317434 0.558109
vt 0.382606 0.558109
vt 0.303038 0.944058
vt 0.382749 0.954560
vt 0.382130 0.910567
vt 0.317434 0.900601
vt 0.237335 0.513373
vt 0.166657 0.513373
vt 0.166657 0.558109
vt 0.237335 0.558109
vt 0.128582 0.878688
vt 0.211525 0.921308
vt 0.237335 0.880688
vt 0.166657 0.844370
vt 0.087658 0.845336
vt 0.128582 0.878688
vt 0.166657 0.844370
vt 0.135284 0.818802
vt 0.317434 0.513373
vt 0.237335 0.513373
vt 0.237335 0.558109
vt 0.317434 0.558109
vt 0.211525 0.921308
vt 0.303038 0.944058
vt 0.317434 0.900601
vt 0.237335 0.880688
vt 0.166657 0.513373
vt 0.041933 0.513373
vt 0.101478 0.558109
vt 0.131033 0.558109
vt 0.166657 0.558109
vt 0.899619 0.632915
vt 0.938565 0.675985
vt 0.938397 0.761369
vt 0.903546 0.759981
vt 0.700455 0.607082
vt 0.654928 0.606301
vt 0.655543 0.664043
vt 0.700802 0.663234
vt 0.734607 0.608351
vt 0.700455 0.607082
vt 0.700802 0.663234
vt 0.733630 0.664135
vt 0.777300 0.608284
vt 0.734607 0.608351
vt 0.733630 0.664135
vt 0.776330 0.663343
vt 0.843789 0.608041
vt 0.777300 0.608284
vt 0.776330 0.663343
vt 0.844814 0.663891
vt 0.898441 0.607865
vt 0.843789 0.608041
vt 0.844814 0.663891
vt 0.896636 0.663301
vt 0.947774 0.608200
vt 0.898441 0.607865
vt 0.896636 0.663301
vt 0.947758 0.663316
vt 0.427710 0.627415
vt 0.444029 0.621823
vt 0.438045 0.535831
vt 0.428851 0.535831
vt 0.428006 0.602821
vt 0.482753 0.605742
vt 0.479206 0.595547
vt 0.426676 0.595632
vt 0.955435 0.589831
vt 0.902635 0.591383
vt 0.903172 0.602161
vt 0.956861 0.600431
vt 0.697299 0.605567
vt 0.697053 0.594976
vt 0.664426 0.595228
vt 0.664593 0.606208
vt 0.664426 0.595228
vt 0.479206 0.595547
vt 0.482753 0.605742
vt 0.664593 0.606208
vt 0.737226 0.605042
vt 0.738776 0.594530
vt 0.697053 0.594976
vt 0.697299 0.605567
vt 0.777646 0.604167
vt 0.780410 0.593925
vt 0.738776 0.594530
vt 0.737226 0.605042
vt 0.840752 0.603514
vt 0.841949 0.592816
vt 0.780410 0.593925
vt 0.777646 0.604167
vt 0.903172 0.602161
vt 0.902635 0.591383
vt 0.841949 0.592816
vt 0.840752 0.603514
vt 0.028333 0.512524
vt 0.028333 0.547362
vt 0.397728 0.551152
vt 0.397728 0.512524
vt 0.716493 0.509776
vt 0.749439 0.508969
vt 0.750483 0.564143
vt 0.716027 0.562651
vt 0.902300 0.512477
vt 0.949933 0.511142
vt 0.950140 0.561386
vt 0.902582 0.562914
vt 0.782160 0.510537
vt 0.824668 0.511560
vt 0.825050 0.561726
vt 0.781363 0.562375
vt 0.749439 0.508969
vt 0.782160 0.510537
vt 0.781363 0.562375
vt 0.750483 0.564143
vt 0.824668 0.511560
vt 0.902300 0.512477
vt 0.902582 0.562914
vt 0.825050 0.561726
vt 0.901745 0.540383
vt 0.902635 0.591383
vt 0.955435 0.589831
vt 0.954809 0.538159
vt 0.779835 0.542846
vt 0.780410 0.593925
vt 0.841949 0.592816
vt 0.841226 0.541768
vt 0.841226 0.541768
vt 0.841949 0.592816
vt 0.902635 0.591383
vt 0.901745 0.540383
vt 0.664449 0.543619
vt 0.664426 0.595228
vt 0.697053 0.594976
vt 0.696818 0.543626
vt 0.696818 0.543626
vt 0.697053 0.594976
vt 0.738776 0.594530
vt 0.738387 0.543342
vt 0.738387 0.543342
vt 0.738776 0.594530
vt 0.780410 0.593925
vt 0.779835 0.542846
vt 0.426196 0.542857
vt 0.426676 0.595632
vt 0.479206 0.595547
vt 0.664426 0.595228
vt 0.664449 0.543619
vt 0.666862 0.509257
vt 0.426201 0.511802
vt 0.426196 0.542857
vt 0.665765 0.540583
vt 0.696881 0.540690
vt 0.697180 0.510868
vt 0.666862 0.509257
vt 0.665765 0.540583
vt 0.739755 0.542148
vt 0.739645 0.512115
vt 0.697180 0.510868
vt 0.696881 0.540690
vt 0.778302 0.540661
vt 0.778857 0.510979
vt 0.739645 0.512115
vt 0.739755 0.542148
vt 0.953802 0.509563
vt 0.905171 0.507434
vt 0.906959 0.540433
vt 0.954809 0.538159
vt 0.905171 0.507434
vt 0.838192 0.509897
vt 0.837588 0.541791
vt 0.906959 0.540433
vt 0.838192 0.509897
vt 0.778857 0.510979
vt 0.778302 0.540661
vt 0.837588 0.541791
vt 0.938635 0.648223
vt 0.428362 0.639508
vt 0.428321 0.658780
vt 0.938588 0.667409
vt 0.751247 0.680015
vt 0.751460 0.647796
vt 0.765942 0.647851
vt 0.765729 0.680070
vt 0.006602 0.469904
vt 0.006602 0.469904
vt 0.006602 0.469904
vt 0.006602 0.469904
vt 0.670393 0.510379
vt 0.716493 0.509776
vt 0.716027 0.562651
vt 0.670814 0.562463
vt 0.114755 0.790353
vt 0.041933 0.757515
vt 0.099716 0.753089
vt 0.033592 0.757515
vt 0.106415 0.790353
vt 0.088993 0.753271
vt 0.655527 0.566415
vt 0.656104 0.509893
vt 0.705799 0.509169
vt 0.702313 0.568395
vt 0.033592 0.559588
vt 0.086312 0.558813
vt 0.124717 0.558249
vt 0.143664 0.558109
vt 0.158316 0.558109
vt 0.158316 0.513373
vt 0.033592 0.513373
vt 0.947481 0.511377
vt 0.947039 0.569665
vt 0.702313 0.568395
vt 0.705799 0.509169
vt 0.086312 0.558813
vt 0.033592 0.559588
vt 0.033592 0.757515
vt 0.088993 0.753271
vt 0.041933 0.513373
vt 0.166657 0.513373
vt 0.166657 0.558109
vt 0.152004 0.558109
vt 0.133058 0.558249
vt 0.097653 0.558769
vt 0.041933 0.559588
vt 0.670393 0.510379
vt 0.670814 0.562463
vt 0.434527 0.561996
vt 0.433654 0.509598
vt 0.099716 0.753089
vt 0.041933 0.757515
vt 0.041933 0.559588
vt 0.097653 0.558769
vt 0.357221 0.892409
vt 0.407770 0.893445
vt 0.407468 0.962103
vt 0.356919 0.960840
vt 0.357990 0.748582
vt 0.408539 0.749618
vt 0.408153 0.817328
vt 0.357604 0.816292
vt 0.357604 0.816292
vt 0.408153 0.817328
vt 0.407770 0.893445
vt 0.357221 0.892409
vt 0.358632 0.636226
vt 0.409181 0.637262
vt 0.408940 0.679396
vt 0.358392 0.678360
vt 0.358392 0.678360
vt 0.408940 0.679396
vt 0.408747 0.713168
vt 0.358199 0.712132
vt 0.358199 0.712132
vt 0.408747 0.713168
vt 0.408539 0.749618
vt 0.357990 0.748582
vt 0.307150 0.891382
vt 0.357221 0.892409
vt 0.356919 0.960840
vt 0.306848 0.959590
vt 0.307919 0.747555
vt 0.357990 0.748582
vt 0.357604 0.816292
vt 0.307533 0.815265
vt 0.307533 0.815265
vt 0.357604 0.816292
vt 0.357221 0.892409
vt 0.307150 0.891382
vt 0.308561 0.635199
vt 0.358632 0.636226
vt 0.358392 0.678360
vt 0.308320 0.677333
vt 0.308320 0.677333
vt 0.358392 0.678360
vt 0.358199 0.712132
vt 0.308127 0.711105
vt 0.308127 0.711105
vt 0.358199 0.712132
vt 0.357990 0.748582
vt 0.307919 0.747555
vt 0.258051 0.890376
vt 0.307150 0.891382
vt 0.306848 0.959590
vt 0.257750 0.958363
vt 0.258821 0.746549
vt 0.307919 0.747555
vt 0.307533 0.815265
vt 0.258434 0.814259
vt 0.258434 0.814259
vt 0.307533 0.815265
vt 0.307150 0.891382
vt 0.258051 0.890376
vt 0.259463 0.634193
vt 0.308561 0.635199
vt 0.308320 0.677333
vt 0.259222 0.676327
vt 0.259222 0.676327
vt 0.308320 0.677333
vt 0.308127 0.711105
vt 0.259029 0.710099
vt 0.259029 0.710099
vt 0.308127 0.711105
vt 0.307919 0.747555
vt 0.258821 0.746549
vt 0.206610 0.889321
vt 0.258051 0.890376
vt 0.257750 0.958363
vt 0.206308 0.957078
vt 0.207379 0.745494
vt 0.258821 0.746549
vt 0.258434 0.814259
vt 0.206993 0.813204
vt 0.206993 0.813204
vt 0.258434 0.814259
vt 0.258051 0.890376
vt 0.206610 0.889321
vt 0.208021 0.633138
vt 0.259463 0.634193
vt 0.259222 0.676327
vt 0.207781 0.675272
vt 0.207781 0.675272
vt 0.259222 0.676327
vt 0.259029 0.710099
vt 0.207588 0.709045
vt 0.207588 0.709045
vt 0.259029 0.710099
vt 0.258821 0.746549
vt 0.207379 0.745494
vt 0.135175 0.887856
vt 0.206610 0.889321
vt 0.206308 0.957078
vt 0.134874 0.955294
vt 0.135945 0.744030
vt 0.207379 0.745494
vt 0.206993 0.813204
vt 0.135558 0.811740
vt 0.135558 0.811740
vt 0.206993 0.813204
vt 0.206610 0.889321
vt 0.135175 0.887856
vt 0.136587 0.631674
vt 0.208021 0.633138
vt 0.207781 0.675272
vt 0.136347 0.673808
vt 0.136347 0.673808
vt 0.207781 0.675272
vt 0.207588 0.709045
vt 0.136154 0.707580
vt 0.136154 0.707580
vt 0.207588 0.709045
vt 0.207379 0.745494
vt 0.135945 0.744030
vt 0.016044 0.885414
vt 0.065155 0.886421
vt 0.064854 0.953545
vt 0.015743 0.952318
vt 0.065155 0.886421
vt 0.135175 0.887856
vt 0.134874 0.955294
vt 0.064854 0.953545
vt 0.016814 0.741588
vt 0.065925 0.742595
vt 0.065538 0.810305
vt 0.016427 0.809298
vt 0.065925 0.742595
vt 0.135945 0.744030
vt 0.135558 0.811740
vt 0.065538 0.810305
vt 0.016427 0.809298
vt 0.065538 0.810305
vt 0.065155 0.886421
vt 0.016044 0.885414
vt 0.065538 0.810305
vt 0.135558 0.811740
vt 0.135175 0.887856
vt 0.065155 0.886421
vt 0.017456 0.629232
vt 0.066567 0.630239
vt 0.066327 0.672373
vt 0.017216 0.671366
vt 0.066567 0.630239
vt 0.136587 0.631674
vt 0.136347 0.673808
vt 0.066327 0.672373
vt 0.017216 0.671366
vt 0.066327 0.672373
vt 0.066134 0.706145
vt 0.017023 0.705138
vt 0.066327 0.672373
vt 0.136347 0.673808
vt 0.136154 0.707580
vt 0.066134 0.706145
vt 0.017023 0.705138
vt 0.066134 0.706145
vt 0.065925 0.742595
vt 0.016814 0.741588
vt 0.066134 0.706145
vt 0.136154 0.707580
vt 0.135945 0.744030
vt 0.065925 0.742595
vt 0.409466 0.587384
vt 0.409181 0.637262
vt 0.358632 0.636226
vt 0.358918 0.586348
vt 0.358918 0.586348
vt 0.358632 0.636226
vt 0.308561 0.635199
vt 0.308847 0.585228
vt 0.308847 0.585228
vt 0.308561 0.635199
vt 0.259463 0.634193
vt 0.259748 0.584315
vt 0.259748 0.584315
vt 0.259463 0.634193
vt 0.208021 0.633138
vt 0.208306 0.583260
vt 0.208306 0.583260
vt 0.208021 0.633138
vt 0.136587 0.631674
vt 0.136872 0.581796
vt 0.066854 0.580123
vt 0.066567 0.630239
vt 0.017456 0.629232
vt 0.017741 0.579354
vt 0.136872 0.581796
vt 0.136587 0.631674
vt 0.066567 0.630239
vt 0.066854 0.580123
vt 0.654928 0.606301
vt 0.506591 0.607523
vt 0.509922 0.610480
vt 0.524196 0.664043
vt 0.537988 0.664043
vt 0.564515 0.664043
vt 0.607001 0.664043
vt 0.655543 0.664043
vt 0.041933 0.513373
vt 0.041933 0.564615
vt 0.041933 0.757515
vt 0.100378 0.751328
vt 0.100210 0.703330
vt 0.100066 0.661319
vt 0.099972 0.634662
vt 0.101010 0.622479
vt 0.101478 0.558109
vt 0.409716 0.543728
vt 0.409466 0.587384
vt 0.358918 0.586348
vt 0.359167 0.542692
vt 0.359167 0.542692
vt 0.358918 0.586348
vt 0.308847 0.585228
vt 0.309097 0.541492
vt 0.309097 0.541492
vt 0.308847 0.585228
vt 0.259748 0.584315
vt 0.259997 0.540659
vt 0.259997 0.540659
vt 0.259748 0.584315
vt 0.208306 0.583260
vt 0.208556 0.539605
vt 0.208556 0.539605
vt 0.208306 0.583260
vt 0.136872 0.581796
vt 0.137122 0.538140
vt 0.018147 0.508441
vt 0.067258 0.509392
vt 0.067105 0.536259
vt 0.017991 0.535698
vt 0.067105 0.536259
vt 0.066854 0.580123
vt 0.017741 0.579354
vt 0.017991 0.535698
vt 0.137122 0.538140
vt 0.136872 0.581796
vt 0.066854 0.580123
vt 0.067105 0.536259
vt 0.655543 0.664043
vt 0.611876 0.664043
vt 0.565330 0.664043
vt 0.537988 0.664043
vt 0.524196 0.664043
vt 0.509922 0.610480
vt 0.506591 0.607523
vt 0.654928 0.606301
vt 0.092038 0.558109
vt 0.091569 0.622479
vt 0.091631 0.634662
vt 0.091725 0.662125
vt 0.091888 0.708150
vt 0.092038 0.751328
vt 0.033592 0.757515
vt 0.033592 0.564615
vt 0.033592 0.513373
vt 0.428384 0.630844
vt 0.476612 0.631676
vt 0.570654 0.633298
vt 0.665653 0.634937
vt 0.737431 0.636175
vt 0.802543 0.637298
vt 0.870785 0.638475
vt 0.934690 0.639646
vt 0.938635 0.648223
vt 0.428362 0.639508
vt 0.938722 0.615208
vt 0.934690 0.639646
vt 0.870785 0.638475
vt 0.871793 0.613929
vt 0.871793 0.613929
vt 0.870785 0.638475
vt 0.802543 0.637298
vt 0.805026 0.612150
vt 0.805026 0.612150
vt 0.802543 0.637298
vt 0.737431 0.636175
vt 0.740506 0.610681
vt 0.740506 0.610681
vt 0.737431 0.636175
vt 0.665653 0.634937
vt 0.671477 0.607499
vt 0.671477 0.607499
vt 0.665653 0.634937
vt 0.570654 0.633298
vt 0.577724 0.604944
vt 0.485641 0.601940
vt 0.476612 0.631676
vt 0.428384 0.630844
vt 0.428368 0.606400
vt 0.577724 0.604944
vt 0.570654 0.633298
vt 0.476612 0.631676
vt 0.485641 0.601940
vt 0.359325 0.515048
vt 0.409874 0.516027
vt 0.409716 0.543728
vt 0.359167 0.542692
vt 0.309254 0.514078
vt 0.359325 0.515048
vt 0.359167 0.542692
vt 0.309097 0.541492
vt 0.260155 0.513128
vt 0.309254 0.514078
vt 0.309097 0.541492
vt 0.259997 0.540659
vt 0.208713 0.512131
vt 0.260155 0.513128
vt 0.259997 0.540659
vt 0.208556 0.539605
vt 0.137279 0.510748
vt 0.208713 0.512131
vt 0.208556 0.539605
vt 0.137122 0.538140
vt 0.067258 0.509392
vt 0.137279 0.510748
vt 0.137122 0.538140
vt 0.067105 0.536259
vt 0.428362 0.639508
vt 0.938635 0.648223
vt 0.938662 0.639646
vt 0.870539 0.638471
vt 0.803567 0.637316
vt 0.735213 0.636137
vt 0.664349 0.634914
vt 0.566651 0.633229
vt 0.464630 0.631469
vt 0.428384 0.630844
vt 0.870539 0.638471
vt 0.938662 0.639646
vt 0.938715 0.618251
vt 0.871526 0.616917
vt 0.803567 0.637316
vt 0.870539 0.638471
vt 0.871526 0.616917
vt 0.805298 0.615414
vt 0.735213 0.636137
vt 0.803567 0.637316
vt 0.805298 0.615414
vt 0.739053 0.612634
vt 0.664349 0.634914
vt 0.735213 0.636137
vt 0.739053 0.612634
vt 0.670390 0.609478
vt 0.566651 0.633229
vt 0.664349 0.634914
vt 0.670390 0.609478
vt 0.575794 0.605266
vt 0.428384 0.630844
vt 0.464630 0.631469
vt 0.482454 0.598280
vt 0.428370 0.609444
vt 0.464630 0.631469
vt 0.566651 0.633229
vt 0.575794 0.605266
vt 0.482454 0.598280
vt 0.934425 0.761369
vt 0.863744 0.760140
vt 0.861747 0.674702
vt 0.934593 0.675985
vt 0.863744 0.760140
vt 0.767778 0.758561
vt 0.759222 0.672990
vt 0.861747 0.674702
vt 0.767778 0.758561
vt 0.685085 0.757200
vt 0.667397 0.671456
vt 0.759222 0.672990
vt 0.685085 0.757200
vt 0.607101 0.755916
vt 0.584707 0.670075
vt 0.667397 0.671456
vt 0.438948 0.753149
vt 0.428155 0.752971
vt 0.427154 0.667444
vt 0.438141 0.667628
vt 0.934593 0.675985
vt 0.861747 0.674702
vt 0.759222 0.672990
vt 0.667397 0.671456
vt 0.584707 0.670075
vt 0.537035 0.669279
vt 0.438141 0.667628
vt 0.427154 0.667444
vt 0.428321 0.658780
vt 0.938588 0.667409
vt 0.607101 0.755916
vt 0.528681 0.754626
vt 0.537035 0.669279
vt 0.584707 0.670075
vt 0.528681 0.754626
vt 0.438948 0.753149
vt 0.438141 0.667628
vt 0.537035 0.669279
vt 0.938565 0.675985
vt 0.859622 0.674667
vt 0.863744 0.760140
vt 0.938397 0.761369
vt 0.859622 0.674667
vt 0.759999 0.673003
vt 0.767778 0.758561
vt 0.863744 0.760140
vt 0.759999 0.673003
vt 0.674052 0.671567
vt 0.685085 0.757200
vt 0.767778 0.758561
vt 0.440245 0.667663
vt 0.427154 0.667444
vt 0.428155 0.752971
vt 0.438948 0.753149
vt 0.539198 0.669315
vt 0.440245 0.667663
vt 0.438948 0.753149
vt 0.528681 0.754625
vt 0.938588 0.667409
vt 0.428321 0.658780
vt 0.427154 0.667444
vt 0.440245 0.667663
vt 0.539198 0.669315
vt 0.625025 0.670749
vt 0.674052 0.671567
vt 0.759999 0.673003
vt 0.859622 0.674667
vt 0.938565 0.675985
vt 0.674052 0.671567
vt 0.625025 0.670749
vt 0.607101 0.755916
vt 0.685085 0.757200
vt 0.625025 0.670749
vt 0.539198 0.669315
vt 0.528681 0.754625
vt 0.607101 0.755916
vt 0.835432 0.732296
vt 0.817711 0.719023
vt 0.794369 0.701533
vt 0.765729 0.680070
vt 0.765942 0.647851
vt 0.835574 0.696142
vt 0.006602 0.469904
vt 0.006602 0.469904
vt 0.006602 0.469904
vt 0.006602 0.469904
vt 0.006602 0.469904
vt 0.006602 0.469904
vt 0.938715 0.618251
vt 0.938758 0.649229
vt 0.872359 0.647156
vt 0.871526 0.616917
vt 0.937733 0.759472
vt 0.937725 0.780471
vt 0.872070 0.783409
vt 0.871568 0.762497
vt 0.871526 0.616917
vt 0.872359 0.647156
vt 0.806638 0.646873
vt 0.805298 0.615414
vt 0.871568 0.762497
vt 0.872070 0.783409
vt 0.807161 0.780330
vt 0.805910 0.759920
vt 0.805298 0.615414
vt 0.806638 0.646873
vt 0.741834 0.644033
vt 0.739053 0.612634
vt 0.805910 0.759920
vt 0.807161 0.780330
vt 0.743183 0.783086
vt 0.741484 0.763185
vt 0.739053 0.612634
vt 0.741834 0.644033
vt 0.673959 0.642869
vt 0.670390 0.609478
vt 0.741484 0.763185
vt 0.743183 0.783086
vt 0.676694 0.777528
vt 0.674043 0.759326
vt 0.670390 0.609478
vt 0.673959 0.642869
vt 0.580087 0.640551
vt 0.575794 0.605266
vt 0.674043 0.759326
vt 0.676694 0.777528
vt 0.583999 0.776484
vt 0.580461 0.760818
vt 0.482454 0.598280
vt 0.488321 0.635769
vt 0.428358 0.640413
vt 0.428370 0.609444
vt 0.488753 0.766490
vt 0.492456 0.781558
vt 0.429374 0.773259
vt 0.429452 0.752265
vt 0.575794 0.605266
vt 0.580087 0.640551
vt 0.488321 0.635769
vt 0.482454 0.598280
vt 0.580461 0.760818
vt 0.583999 0.776484
vt 0.492456 0.781558
vt 0.488753 0.766490
vt 0.871586 0.741561
vt 0.937742 0.738537
vt 0.937733 0.759472
vt 0.871568 0.762497
vt 0.805926 0.738991
vt 0.871586 0.741561
vt 0.871568 0.762497
vt 0.805910 0.759920
vt 0.741491 0.742249
vt 0.805926 0.738991
vt 0.805910 0.759920
vt 0.741484 0.763185
vt 0.674064 0.738389
vt 0.741491 0.742249
vt 0.741484 0.763185
vt 0.674043 0.759326
vt 0.580485 0.739882
vt 0.674064 0.738389
vt 0.674043 0.759326
vt 0.580461 0.760818
vt 0.488791 0.745553
vt 0.580485 0.739882
vt 0.580461 0.760818
vt 0.488753 0.766490
vt 0.429507 0.731336
vt 0.488791 0.745553
vt 0.488753 0.766490
vt 0.429452 0.752265
vt 0.950161 0.632915
vt 0.934593 0.675985
vt 0.934690 0.639646
vt 0.938722 0.615208
vt 0.938757 0.600988
vt 0.938790 0.587583
vt 0.006602 0.469904
vt 0.006602 0.469904
vt 0.006602 0.469904
vt 0.006602 0.469904
vt 0.006602 0.469904
vt 0.006602 0.469904
vt 0.869888 0.744126
vt 0.933043 0.742893
vt 0.930807 0.767001
vt 0.867780 0.767184
vt 0.938757 0.600988
vt 0.938722 0.615208
vt 0.871793 0.613929
vt 0.872374 0.599779
vt 0.806940 0.744935
vt 0.869888 0.744126
vt 0.867780 0.767184
vt 0.804771 0.767297
vt 0.872374 0.599779
vt 0.871793 0.613929
vt 0.805026 0.612150
vt 0.806390 0.598336
vt 0.745967 0.746560
vt 0.806940 0.744935
vt 0.804771 0.767297
vt 0.744164 0.767534
vt 0.806390 0.598336
vt 0.805026 0.612150
vt 0.740506 0.610681
vt 0.742149 0.597054
vt 0.681677 0.747743
vt 0.745967 0.746560
vt 0.744164 0.767534
vt 0.679373 0.767679
vt 0.742149 0.597054
vt 0.740506 0.610681
vt 0.671477 0.607499
vt 0.674192 0.594710
vt 0.591648 0.749042
vt 0.681677 0.747743
vt 0.679373 0.767679
vt 0.590611 0.767883
vt 0.674192 0.594710
vt 0.671477 0.607499
vt 0.577724 0.604944
vt 0.580902 0.592196
vt 0.443501 0.752754
vt 0.504865 0.751489
vt 0.503801 0.768211
vt 0.446215 0.768462
vt 0.489210 0.590187
vt 0.485641 0.601940
vt 0.428368 0.606400
vt 0.428358 0.592169
vt 0.504865 0.751489
vt 0.591648 0.749042
vt 0.590611 0.767883
vt 0.503801 0.768211
vt 0.580902 0.592196
vt 0.577724 0.604944
vt 0.485641 0.601940
vt 0.489210 0.590187
vt 0.928606 0.779524
vt 0.866228 0.781030
vt 0.867780 0.767184
vt 0.930807 0.767001
vt 0.866228 0.781030
vt 0.803843 0.781964
vt 0.804771 0.767297
vt 0.867780 0.767184
vt 0.803843 0.781964
vt 0.743841 0.783924
vt 0.744164 0.767534
vt 0.804771 0.767297
vt 0.743841 0.783924
vt 0.679724 0.785112
vt 0.679373 0.767679
vt 0.744164 0.767534
vt 0.679724 0.785112
vt 0.591852 0.786801
vt 0.590611 0.767883
vt 0.679373 0.767679
vt 0.591852 0.786801
vt 0.505926 0.789503
vt 0.503801 0.768211
vt 0.590611 0.767883
vt 0.505926 0.789503
vt 0.448939 0.791574
vt 0.446215 0.768462
vt 0.503801 0.768211
# num_uvs: 1806

g dungeonpiece_one
s 1

usemtl same
f 139/1/139 132/2/132 116/3/116 
f 147/4/147 141/5/141 134/6/134 132/7/132 139/8/139 148/9/148 
f 141/10/141 115/11/115 134/12/134 
f 352/13/352 335/14/335 329/15/329 
f 308/16/308 329/17/329 335/18/335 333/19/333 327/20/327 307/21/307 
f 333/22/333 353/23/353 327/24/327 
f 245/25/245 246/26/246 217/27/217 216/28/216 
f 187/29/187 188/30/188 161/31/161 160/32/160 
f 216/33/216 217/34/217 188/35/188 187/36/187 
f 81/37/81 82/38/82 48/39/48 47/40/47 
f 122/41/122 123/42/123 82/43/82 81/44/81 
f 160/45/160 161/46/161 123/47/123 122/48/122 
f 244/49/244 245/50/245 216/51/216 215/52/215 
f 186/53/186 187/54/187 160/55/160 163/56/163 
f 215/57/215 216/58/216 187/59/187 186/60/186 
f 80/61/80 81/62/81 47/63/47 46/64/46 
f 131/65/131 122/66/122 81/67/81 80/68/80 
f 163/69/163 160/70/160 122/71/122 131/72/131 
f 243/73/243 244/74/244 215/75/215 214/76/214 
f 189/77/189 186/78/186 163/79/163 162/80/162 
f 214/81/214 215/82/215 186/83/186 189/84/189 
f 79/85/79 80/86/80 46/87/46 55/88/55 
f 121/89/121 131/90/131 80/91/80 79/92/79 
f 162/93/162 163/94/163 131/95/131 121/96/121 
f 240/97/240 243/98/243 214/99/214 213/100/213 
f 192/101/192 189/102/189 162/103/162 159/104/159 
f 213/105/213 214/106/214 189/107/189 192/108/192 
f 78/109/78 79/110/79 55/111/55 45/112/45 
f 135/113/135 121/114/121 79/115/79 78/116/78 
f 159/117/159 162/118/162 121/119/121 135/120/135 
f 239/121/239 240/122/240 213/123/213 212/124/212 
f 185/125/185 192/126/192 159/127/159 158/128/158 
f 212/129/212 213/130/213 192/131/192 185/132/185 
f 77/133/77 78/134/78 45/135/45 44/136/44 
f 120/137/120 135/138/135 78/139/78 77/140/77 
f 158/141/158 159/142/159 135/143/135 120/144/120 
f 223/145/223 229/146/229 211/147/211 210/148/210 
f 229/149/229 239/150/239 212/151/212 211/152/211 
f 183/153/183 184/154/184 157/155/157 156/156/156 
f 184/157/184 185/158/185 158/159/158 157/160/157 
f 210/161/210 211/162/211 184/163/184 183/164/183 
f 211/165/211 212/166/212 185/167/185 184/168/184 
f 75/169/75 76/170/76 43/171/43 42/172/42 
f 76/173/76 77/174/77 44/175/44 43/176/43 
f 118/177/118 119/178/119 76/179/76 75/180/75 
f 119/181/119 120/182/120 77/183/77 76/184/76 
f 156/185/156 157/186/157 119/187/119 118/188/118 
f 157/189/157 158/190/158 120/191/120 119/192/119 
f 47/193/47 48/194/48 28/195/28 29/196/29 
f 46/197/46 47/198/47 29/199/29 30/200/30 
f 55/201/55 46/202/46 30/203/30 54/204/54 
f 45/205/45 55/206/55 54/207/54 32/208/32 
f 44/209/44 45/210/45 32/211/32 34/212/34 
f 42/213/42 43/214/43 36/215/36 41/216/41 
f 43/217/43 44/218/44 34/219/34 36/220/36 
f 28/221/28 20/222/20 22/223/22 29/224/29 
f 29/225/29 22/226/22 24/227/24 30/228/30 
f 30/229/30 24/230/24 53/231/53 54/232/54 
f 54/233/54 53/234/53 27/235/27 32/236/32 
f 32/237/32 27/238/27 31/239/31 34/240/34 
f 36/241/36 35/242/35 40/243/40 41/244/41 
f 35/245/35 33/246/33 39/247/39 40/248/40 
f 34/249/34 31/250/31 35/251/35 36/252/36 
f 20/253/20 18/254/18 19/255/19 22/256/22 
f 22/257/22 19/258/19 50/259/50 24/260/24 
f 24/261/24 50/262/50 23/263/23 53/264/53 
f 53/265/53 23/266/23 26/267/26 27/268/27 
f 27/269/27 26/270/26 52/271/52 31/272/31 
f 31/273/31 52/274/52 33/275/33 35/276/35 
f 207/277/207 208/278/208 238/279/238 237/280/237 
f 180/281/180 181/282/181 208/283/208 207/284/207 
f 144/285/144 154/286/154 181/287/181 180/288/180 
f 238/289/238 260/290/260 259/291/259 237/292/237 
f 260/293/260 286/294/286 294/295/294 259/296/259 
f 286/297/286 314/298/314 313/299/313 294/300/294 
f 206/301/206 207/302/207 237/303/237 236/304/236 
f 174/305/174 180/306/180 207/307/207 206/308/206 
f 153/309/153 144/310/144 180/311/180 174/312/174 
f 259/313/259 258/314/258 236/315/236 237/316/237 
f 294/317/294 285/318/285 258/319/258 259/320/259 
f 313/321/313 312/322/312 285/323/285 294/324/294 
f 205/325/205 206/326/206 236/327/236 222/328/222 
f 179/329/179 174/330/174 206/331/206 205/332/205 
f 152/333/152 153/334/153 174/335/174 179/336/179 
f 258/337/258 257/338/257 222/339/222 236/340/236 
f 285/341/285 284/342/284 257/343/257 258/344/258 
f 312/345/312 311/346/311 284/347/284 285/348/285 
f 204/349/204 205/350/205 222/351/222 235/352/235 
f 178/353/178 179/354/179 205/355/205 204/356/204 
f 151/357/151 152/358/152 179/359/179 178/360/178 
f 257/361/257 256/362/256 235/363/235 222/364/222 
f 284/365/284 283/366/283 256/367/256 257/368/257 
f 311/369/311 324/370/324 283/371/283 284/372/284 
f 324/373/324 311/374/311 377/375/377 357/376/357 
f 203/377/203 204/378/204 235/379/235 234/380/234 
f 190/381/190 178/382/178 204/383/204 203/384/203 
f 150/385/150 151/386/151 178/387/178 190/388/190 
f 151/389/151 150/390/150 109/391/109 113/392/113 
f 256/393/256 251/394/251 234/395/234 235/396/235 
f 283/397/283 282/398/282 251/399/251 256/400/256 
f 324/401/324 310/402/310 282/403/282 283/404/283 
f 232/405/232 201/406/201 202/407/202 233/408/233 
f 202/409/202 203/410/203 234/411/234 233/412/233 
f 201/413/201 177/414/177 191/415/191 202/416/202 
f 191/417/191 190/418/190 203/419/203 202/420/202 
f 177/421/177 147/422/147 148/423/148 149/424/149 191/425/191 
f 149/426/149 150/427/150 190/428/190 191/429/191 
f 251/430/251 255/431/255 233/432/233 234/433/234 
f 255/434/255 254/435/254 232/436/232 233/437/233 
f 282/438/282 281/439/281 255/440/255 251/441/251 
f 281/442/281 280/443/280 254/444/254 255/445/255 
f 310/446/310 309/447/309 281/448/281 282/449/282 
f 309/450/309 308/451/308 307/452/307 280/453/280 281/454/281 
f 112/455/112 154/456/154 144/457/144 111/458/111 
f 144/459/144 153/460/153 110/461/110 111/462/111 
f 153/463/153 152/464/152 114/465/114 110/466/110 
f 152/467/152 151/468/151 113/469/113 114/470/114 
f 149/471/149 148/472/148 139/473/139 116/474/116 107/475/107 108/476/108 
f 150/477/150 149/478/149 108/479/108 109/480/109 
f 313/481/313 314/482/314 359/483/359 360/484/360 
f 312/485/312 313/486/313 360/487/360 358/488/358 
f 311/489/311 312/490/312 358/491/358 377/492/377 
f 354/493/354 352/494/352 329/495/329 308/496/308 309/497/309 355/498/355 
f 309/499/309 310/500/310 356/501/356 355/502/355 
f 310/503/310 324/504/324 357/505/357 356/506/356 
f 445/507/445 455/508/455 456/509/456 453/510/453 
f 401/511/401 445/512/445 453/513/453 402/514/402 
f 435/515/435 421/516/421 443/517/443 447/518/447 
f 421/519/421 398/520/398 400/521/400 443/522/443 
f 455/523/455 442/524/442 451/525/451 456/526/456 
f 442/527/442 450/528/450 454/529/454 451/530/451 
f 450/531/450 440/532/440 449/533/449 454/534/454 
f 440/535/440 434/536/434 446/537/446 449/538/449 
f 434/539/434 435/540/435 447/541/447 446/542/446 
f 19/543/19 18/544/18 13/545/13 14/546/14 
f 18/547/18 66/548/66 63/549/63 13/550/13 
f 39/551/39 33/552/33 21/553/21 25/554/25 
f 70/555/70 39/556/39 25/557/25 68/558/68 
f 50/559/50 19/560/19 14/561/14 49/562/49 
f 23/563/23 50/564/50 49/565/49 16/566/16 
f 26/567/26 23/568/23 16/569/16 17/570/17 
f 52/571/52 26/572/26 17/573/17 51/574/51 
f 33/575/33 52/576/52 51/577/51 21/578/21 
usemtl difference
f 6/579/6 5/580/5 3/581/3 4/582/4 
f 465/583/465 464/584/464 466/585/466 467/586/467 
f 146/587/146 2/588/2 1/589/1 145/590/145 
f 231/591/231 200/592/200 199/593/199 230/594/230 
f 198/595/198 228/596/228 227/597/227 197/598/197 
f 176/599/176 146/600/146 145/601/145 175/602/175 
f 90/603/90 172/604/172 171/605/171 89/606/89 
f 200/607/200 176/608/176 175/609/175 199/610/199 
f 172/611/172 198/612/198 197/613/197 171/614/171 
f 6/615/6 8/616/8 7/617/7 5/618/5 
f 8/619/8 10/620/10 9/621/9 7/622/7 
f 10/623/10 90/624/90 89/625/89 9/626/9 
f 74/627/74 5/628/5 7/629/7 
f 117/630/117 74/631/74 7/632/7 9/633/9 
f 201/634/201 232/635/232 230/636/230 199/637/199 
f 242/638/242 209/639/209 197/640/197 227/641/227 
f 147/642/147 177/643/177 175/644/175 145/645/145 
f 182/646/182 155/647/155 89/648/89 171/649/171 
f 155/650/155 117/651/117 9/652/9 89/653/89 
f 177/654/177 201/655/201 199/656/199 175/657/175 
f 209/658/209 182/659/182 171/660/171 197/661/197 
f 48/662/48 82/663/82 8/664/8 6/665/6 
f 82/666/82 123/667/123 10/668/10 8/669/8 
f 238/670/238 208/671/208 200/672/200 231/673/231 
f 217/674/217 246/675/246 228/676/228 198/677/198 
f 181/678/181 154/679/154 146/680/146 176/681/176 
f 161/682/161 188/683/188 172/684/172 90/685/90 
f 123/686/123 161/687/161 90/688/90 10/689/10 
f 208/690/208 181/691/181 176/692/176 200/693/200 
f 188/694/188 217/695/217 198/696/198 172/697/172 
f 154/698/154 112/699/112 37/700/37 2/701/2 146/702/146 
f 37/703/37 112/704/112 92/705/92 15/706/15 
f 75/707/75 42/708/42 130/709/130 140/710/140 
f 118/711/118 75/712/75 140/713/140 165/714/165 
f 156/715/156 118/716/118 165/717/165 169/718/169 
f 183/719/183 156/720/156 169/721/169 194/722/194 
f 210/723/210 183/724/183 194/725/194 219/726/219 
f 223/727/223 210/728/210 219/729/219 224/730/224 
f 107/731/107 116/732/116 125/733/125 99/734/99 
f 132/735/132 133/736/133 125/737/125 116/738/116 
f 224/739/224 219/740/219 220/741/220 226/742/226 
f 130/743/130 137/744/137 143/745/143 140/746/140 
f 130/747/130 125/748/125 133/749/133 137/750/137 
f 140/751/140 143/752/143 167/753/167 165/754/165 
f 165/755/165 167/756/167 173/757/173 169/758/169 
f 169/759/169 173/760/173 196/761/196 194/762/194 
f 194/763/194 196/764/196 220/765/220 219/766/219 
f 2/767/2 4/768/4 3/769/3 1/770/1 
f 74/771/74 117/772/117 164/773/164 138/774/138 
f 209/775/209 242/776/242 241/777/241 218/778/218 
f 155/779/155 182/780/182 193/781/193 168/782/168 
f 117/783/117 155/784/155 168/785/168 164/786/164 
f 182/787/182 209/788/209 218/789/218 193/790/193 
f 225/791/225 226/792/226 220/793/220 221/794/221 
f 195/795/195 196/796/196 173/797/173 170/798/170 
f 221/799/221 220/800/220 196/801/196 195/802/195 
f 142/803/142 143/804/143 137/805/137 136/806/136 
f 166/807/166 167/808/167 143/809/143 142/810/142 
f 170/811/170 173/812/173 167/813/167 166/814/166 
f 136/815/136 137/816/137 133/817/133 132/818/132 134/819/134 
f 136/820/136 134/821/134 115/822/115 124/823/124 
f 136/824/136 124/825/124 138/826/138 142/827/142 
f 142/828/142 138/829/138 164/830/164 166/831/166 
f 166/832/166 164/833/164 168/834/168 170/835/170 
f 225/836/225 221/837/221 218/838/218 241/839/241 
f 221/840/221 195/841/195 193/842/193 218/843/218 
f 195/844/195 170/845/170 168/846/168 193/847/193 
f 126/848/126 127/849/127 129/850/129 128/851/128 
f 100/852/100 92/853/92 126/854/126 128/855/128 
f 99/856/99 106/857/106 129/858/129 127/859/127 
f 305/860/305 462/861/462 463/862/463 306/863/306 
f 230/864/230 252/865/252 253/866/253 231/867/231 
f 270/868/270 227/869/227 228/870/228 271/871/271 
f 278/872/278 305/873/305 306/874/306 279/875/279 
f 378/876/378 297/877/297 298/878/298 379/879/379 
f 252/880/252 278/881/278 279/882/279 253/883/253 
f 297/884/297 270/885/270 271/886/271 298/887/298 
f 466/888/466 460/889/460 461/890/461 467/891/467 
f 460/892/460 458/893/458 459/894/459 461/895/461 
f 458/896/458 378/897/378 379/898/379 459/899/459 
f 460/900/460 466/901/466 389/902/389 
f 458/903/458 460/904/460 389/905/389 343/906/343 
f 252/907/252 230/908/230 232/909/232 254/910/254 
f 227/911/227 270/912/270 261/913/261 242/914/242 
f 305/915/305 278/916/278 280/917/280 307/918/307 
f 297/919/297 378/920/378 315/921/315 287/922/287 
f 378/923/378 458/924/458 343/925/343 315/926/315 
f 278/927/278 252/928/252 254/929/254 280/930/280 
f 270/931/270 297/932/297 287/933/287 261/934/261 
f 467/935/467 461/936/461 394/937/394 429/938/429 
f 461/939/461 459/940/459 351/941/351 394/942/394 
f 231/943/231 253/944/253 260/945/260 238/946/238 
f 271/947/271 228/948/228 246/949/246 269/950/269 
f 279/951/279 306/952/306 314/953/314 286/954/286 
f 379/955/379 298/956/298 293/957/293 323/958/323 
f 459/959/459 379/960/379 323/961/323 351/962/351 
f 253/963/253 279/964/279 286/965/286 260/966/260 
f 298/967/298 271/968/271 269/969/269 293/970/293 
f 306/971/306 463/972/463 419/973/419 359/974/359 314/975/314 
f 448/976/448 376/977/376 359/978/359 419/979/419 
f 328/980/328 336/981/336 424/982/424 390/983/390 
f 303/984/303 328/985/328 390/986/390 344/987/344 
f 299/988/299 303/989/303 344/990/344 316/991/316 
f 274/992/274 299/993/299 316/994/316 288/995/288 
f 249/996/249 274/997/274 288/998/288 262/999/262 
f 224/1000/224 249/1001/249 262/1002/262 223/1003/223 
f 370/1004/370 341/1005/341 352/1006/352 354/1007/354 
f 352/1008/352 341/1009/341 334/1010/334 335/1011/335 
f 226/1012/226 247/1013/247 249/1014/249 224/1015/224 
f 328/1016/328 325/1017/325 332/1018/332 336/1019/336 
f 332/1020/332 334/1021/334 341/1022/341 336/1023/336 
f 303/1024/303 302/1025/302 325/1026/325 328/1027/328 
f 299/1028/299 295/1029/295 302/1030/302 303/1031/303 
f 274/1032/274 273/1033/273 295/1034/295 299/1035/299 
f 249/1036/249 247/1037/247 273/1038/273 274/1039/274 
f 462/1040/462 464/1041/464 465/1042/465 463/1043/463 
f 330/1044/330 304/1045/304 343/1046/343 389/1047/389 
f 250/1048/250 241/1049/241 242/1050/242 261/1051/261 
f 300/1052/300 275/1053/275 287/1054/287 315/1055/315 
f 304/1056/304 300/1057/300 315/1058/315 343/1059/343 
f 275/1060/275 250/1061/250 261/1062/261 287/1063/287 
f 248/1064/248 247/1065/247 226/1066/226 225/1067/225 
f 296/1068/296 295/1069/295 273/1070/273 272/1071/272 
f 272/1072/272 273/1073/273 247/1074/247 248/1075/248 
f 331/1076/331 332/1077/332 325/1078/325 326/1079/326 
f 326/1080/326 325/1081/325 302/1082/302 301/1083/301 
f 301/1084/301 302/1085/302 295/1086/295 296/1087/296 
f 333/1088/333 335/1089/335 334/1090/334 332/1091/332 331/1092/331 
f 342/1093/342 353/1094/353 333/1095/333 331/1096/331 
f 326/1097/326 330/1098/330 342/1099/342 331/1100/331 
f 301/1101/301 304/1102/304 330/1103/330 326/1104/326 
f 296/1105/296 300/1106/300 304/1107/304 301/1108/301 
f 241/1109/241 250/1110/250 248/1111/248 225/1112/225 
f 250/1113/250 275/1114/275 272/1115/272 248/1116/248 
f 275/1117/275 300/1118/300 296/1119/296 272/1120/272 
f 338/1121/338 337/1122/337 339/1123/339 340/1124/340 
f 338/1125/338 340/1126/340 376/1127/376 368/1128/368 
f 339/1129/339 337/1130/337 361/1131/361 370/1132/370 
f 342/1133/342 330/1134/330 389/1135/389 452/1136/452 
f 389/1137/389 466/1138/466 452/1139/452 
f 5/1140/5 74/1141/74 12/1142/12 
f 74/1143/74 138/1144/138 124/1145/124 12/1146/12 
f 3/1147/3 11/1148/11 115/1149/115 141/1150/141 147/1151/147 145/1152/145 1/1153/1 
f 115/1154/115 11/1155/11 12/1156/12 124/1157/124 
f 11/1158/11 3/1159/3 5/1160/5 12/1161/12 
f 462/1162/462 305/1163/305 307/1164/307 327/1165/327 353/1166/353 457/1167/457 464/1168/464 
f 342/1169/342 452/1170/452 457/1171/457 353/1172/353 
f 452/1173/452 466/1174/466 464/1175/464 457/1176/457 
f 268/1177/268 269/1178/269 246/1179/246 245/1180/245 
f 322/1181/322 323/1182/323 293/1183/293 292/1184/292 
f 292/1185/292 293/1186/293 269/1187/269 268/1188/268 
f 428/1189/428 429/1190/429 394/1191/394 393/1192/393 
f 393/1193/393 394/1194/394 351/1195/351 350/1196/350 
f 350/1197/350 351/1198/351 323/1199/323 322/1200/322 
f 267/1201/267 268/1202/268 245/1203/245 244/1204/244 
f 321/1205/321 322/1206/322 292/1207/292 276/1208/276 
f 276/1209/276 292/1210/292 268/1211/268 267/1212/267 
f 415/1213/415 428/1214/428 393/1215/393 383/1216/383 
f 383/1217/383 393/1218/393 350/1219/350 349/1220/349 
f 349/1221/349 350/1222/350 322/1223/322 321/1224/321 
f 266/1225/266 267/1226/267 244/1227/244 243/1228/243 
f 320/1229/320 321/1230/321 276/1231/276 291/1232/291 
f 291/1233/291 276/1234/276 267/1235/267 266/1236/266 
f 427/1237/427 415/1238/415 383/1239/383 381/1240/381 
f 381/1241/381 383/1242/383 349/1243/349 348/1244/348 
f 348/1245/348 349/1246/349 321/1247/321 320/1248/320 
f 265/1249/265 266/1250/266 243/1251/243 240/1252/240 
f 319/1253/319 320/1254/320 291/1255/291 290/1256/290 
f 290/1257/290 291/1258/291 266/1259/266 265/1260/265 
f 426/1261/426 427/1262/427 381/1263/381 380/1264/380 
f 380/1265/380 381/1266/381 348/1267/348 347/1268/347 
f 347/1269/347 348/1270/348 320/1271/320 319/1272/319 
f 264/1273/264 265/1274/265 240/1275/240 239/1276/239 
f 318/1277/318 319/1278/319 290/1279/290 277/1280/277 
f 277/1281/277 290/1282/290 265/1283/265 264/1284/264 
f 425/1285/425 426/1286/426 380/1287/380 392/1288/392 
f 392/1289/392 380/1290/380 347/1291/347 346/1292/346 
f 346/1293/346 347/1294/347 319/1295/319 318/1296/318 
f 262/1297/262 263/1298/263 229/1299/229 223/1300/223 
f 263/1301/263 264/1302/264 239/1303/239 229/1304/229 
f 316/1305/316 317/1306/317 289/1307/289 288/1308/288 
f 317/1309/317 318/1310/318 277/1311/277 289/1312/289 
f 288/1313/288 289/1314/289 263/1315/263 262/1316/262 
f 289/1317/289 277/1318/277 264/1319/264 263/1320/263 
f 424/1321/424 403/1322/403 391/1323/391 390/1324/390 
f 403/1325/403 425/1326/425 392/1327/392 391/1328/391 
f 390/1329/390 391/1330/391 345/1331/345 344/1332/344 
f 391/1333/391 392/1334/392 346/1335/346 345/1336/345 
f 344/1337/344 345/1338/345 317/1339/317 316/1340/316 
f 345/1341/345 346/1342/346 318/1343/318 317/1344/317 
f 438/1345/438 429/1346/429 428/1347/428 436/1348/436 
f 436/1349/436 428/1350/428 415/1351/415 417/1352/417 
f 417/1353/417 415/1354/415 427/1355/427 433/1356/433 
f 433/1357/433 427/1358/427 426/1359/426 431/1360/431 
f 431/1361/431 426/1362/426 425/1363/425 430/1364/430 
f 413/1365/413 403/1366/403 424/1367/424 423/1368/423 
f 430/1369/430 425/1370/425 403/1371/403 413/1372/413 
f 336/1373/336 341/1374/341 370/1375/370 420/1376/420 421/1377/421 422/1378/422 423/1379/423 424/1380/424 
f 463/1381/463 465/1382/465 467/1383/467 429/1384/429 438/1385/438 444/1386/444 445/1387/445 448/1388/448 419/1389/419 
f 444/1390/444 438/1391/438 436/1392/436 441/1393/441 
f 441/1394/441 436/1395/436 417/1396/417 418/1397/418 
f 418/1398/418 417/1399/417 433/1400/433 439/1401/439 
f 439/1402/439 433/1403/433 431/1404/431 437/1405/437 
f 437/1406/437 431/1407/431 430/1408/430 432/1409/432 
f 421/1410/421 435/1411/435 416/1412/416 422/1413/422 
f 416/1414/416 413/1415/413 423/1416/423 422/1417/422 
f 432/1418/432 430/1419/430 413/1420/413 416/1421/416 
f 42/1422/42 41/1423/41 40/1424/40 39/1425/39 38/1426/38 99/1427/99 125/1428/125 130/1429/130 
f 37/1430/37 15/1431/15 18/1432/18 20/1433/20 28/1434/28 48/1435/48 6/1436/6 4/1437/4 2/1438/2 
f 106/1439/106 105/1440/105 104/1441/104 103/1442/103 102/1443/102 101/1444/101 91/1445/91 100/1446/100 128/1447/128 129/1448/129 
f 86/1449/86 100/1450/100 91/1451/91 85/1452/85 
f 85/1453/85 91/1454/91 101/1455/101 87/1456/87 
f 87/1457/87 101/1458/101 102/1459/102 83/1460/83 
f 83/1461/83 102/1462/102 103/1463/103 84/1464/84 
f 84/1465/84 103/1466/103 104/1467/104 72/1468/72 
f 73/1469/73 105/1470/105 106/1471/106 88/1472/88 
f 72/1473/72 104/1474/104 105/1475/105 73/1476/73 
f 455/1477/455 445/1478/445 444/1479/444 441/1480/441 
f 442/1481/442 455/1482/455 441/1483/441 418/1484/418 
f 450/1485/450 442/1486/442 418/1487/418 439/1488/439 
f 440/1489/440 450/1490/450 439/1491/439 437/1492/437 
f 434/1493/434 440/1494/440 437/1495/437 432/1496/432 
f 435/1497/435 434/1498/434 432/1499/432 416/1500/416 
f 337/1501/337 338/1502/338 368/1503/368 367/1504/367 366/1505/366 365/1506/365 364/1507/364 363/1508/363 362/1509/362 361/1510/361 
f 367/1511/367 368/1512/368 385/1513/385 386/1514/386 
f 366/1515/366 367/1516/367 386/1517/386 382/1518/382 
f 365/1519/365 366/1520/366 382/1521/382 387/1522/387 
f 364/1523/364 365/1524/365 387/1525/387 388/1526/388 
f 363/1527/363 364/1528/364 388/1529/388 395/1530/395 
f 361/1531/361 362/1532/362 396/1533/396 384/1534/384 
f 362/1535/362 363/1536/363 395/1537/395 396/1538/396 
f 112/1539/112 111/1540/111 93/1541/93 92/1542/92 
f 111/1543/111 110/1544/110 94/1545/94 93/1546/93 
f 110/1547/110 114/1548/114 95/1549/95 94/1550/94 
f 114/1551/114 113/1552/113 96/1553/96 95/1554/95 
f 108/1555/108 107/1556/107 99/1557/99 98/1558/98 
f 92/1559/92 93/1560/93 94/1561/94 95/1562/95 96/1563/96 97/1564/97 98/1565/98 99/1566/99 127/1567/127 126/1568/126 
f 113/1569/113 109/1570/109 97/1571/97 96/1572/96 
f 109/1573/109 108/1574/108 98/1575/98 97/1576/97 
f 376/1577/376 375/1578/375 360/1579/360 359/1580/359 
f 375/1581/375 374/1582/374 358/1583/358 360/1584/360 
f 374/1585/374 373/1586/373 377/1587/377 358/1588/358 
f 369/1589/369 370/1590/370 354/1591/354 355/1592/355 
f 371/1593/371 369/1594/369 355/1595/355 356/1596/356 
f 340/1597/340 339/1598/339 370/1599/370 369/1600/369 371/1601/371 372/1602/372 373/1603/373 374/1604/374 375/1605/375 376/1606/376 
f 373/1607/373 372/1608/372 357/1609/357 377/1610/377 
f 372/1611/372 371/1612/371 356/1613/356 357/1614/357 
f 445/1615/445 401/1616/401 385/1617/385 368/1618/368 376/1619/376 448/1620/448 
f 361/1621/361 384/1622/384 398/1623/398 421/1624/421 420/1625/420 370/1626/370 
f 385/1627/385 401/1628/401 404/1629/404 386/1630/386 
f 402/1631/402 453/1632/453 456/1633/456 407/1634/407 
f 386/1635/386 404/1636/404 397/1637/397 382/1638/382 
f 407/1639/407 456/1640/456 451/1641/451 399/1642/399 
f 382/1643/382 397/1644/397 406/1645/406 387/1646/387 
f 399/1647/399 451/1648/451 454/1649/454 410/1650/410 
f 387/1651/387 406/1652/406 405/1653/405 388/1654/388 
f 410/1655/410 454/1656/454 449/1657/449 408/1658/408 
f 388/1659/388 405/1660/405 409/1661/409 395/1662/395 
f 408/1663/408 449/1664/449 446/1665/446 411/1666/411 
f 396/1667/396 412/1668/412 398/1669/398 384/1670/384 
f 414/1671/414 447/1672/447 443/1673/443 400/1674/400 
f 395/1675/395 409/1676/409 412/1677/412 396/1678/396 
f 411/1679/411 446/1680/446 447/1681/447 414/1682/414 
f 404/1683/404 401/1684/401 402/1685/402 407/1686/407 
f 397/1687/397 404/1688/404 407/1689/407 399/1690/399 
f 406/1691/406 397/1692/397 399/1693/399 410/1694/410 
f 405/1695/405 406/1696/406 410/1697/410 408/1698/408 
f 409/1699/409 405/1700/405 408/1701/408 411/1702/411 
f 412/1703/412 409/1704/409 411/1705/411 414/1706/414 
f 398/1707/398 412/1708/412 414/1709/414 400/1710/400 
f 15/1711/15 92/1712/92 100/1713/100 86/1714/86 66/1715/66 18/1716/18 
f 99/1717/99 38/1718/38 39/1719/39 70/1720/70 88/1721/88 106/1722/106 
f 14/1723/14 13/1724/13 63/1725/63 64/1726/64 
f 66/1727/66 86/1728/86 85/1729/85 67/1730/67 
f 49/1731/49 14/1732/14 64/1733/64 69/1734/69 
f 67/1735/67 85/1736/85 87/1737/87 71/1738/71 
f 16/1739/16 49/1740/49 69/1741/69 61/1742/61 
f 71/1743/71 87/1744/87 83/1745/83 65/1746/65 
f 17/1747/17 16/1748/16 61/1749/61 60/1750/60 
f 65/1751/65 83/1752/83 84/1753/84 62/1754/62 
f 51/1755/51 17/1756/17 60/1757/60 58/1758/58 
f 62/1759/62 84/1760/84 72/1761/72 59/1762/59 
f 25/1763/25 21/1764/21 56/1765/56 68/1766/68 
f 57/1767/57 73/1768/73 88/1769/88 70/1770/70 
f 21/1771/21 51/1772/51 58/1773/58 56/1774/56 
f 59/1775/59 72/1776/72 73/1777/73 57/1778/57 
f 66/1779/66 67/1780/67 64/1781/64 63/1782/63 
f 67/1783/67 71/1784/71 69/1785/69 64/1786/64 
f 71/1787/71 65/1788/65 61/1789/61 69/1790/69 
f 65/1791/65 62/1792/62 60/1793/60 61/1794/61 
f 62/1795/62 59/1796/59 58/1797/58 60/1798/60 
f 59/1799/59 57/1800/57 56/1801/56 58/1802/58 
f 57/1803/57 70/1804/70 68/1805/68 56/1806/56 
# num_faces: 436

